{"page":279,"total_pages":290,"items_per_page":50,"total_items":14467,"items":[{"id":13901,"title":"山口中央ビル","architect":"安井秀夫","year":1989.0,"address":"北海道札幌市中央区南二条西1-7-8","latitude":43.05817794799805,"longitude":141.3565216064453,"category":"オフィスビル","big_category":"企業施設","description":"","image_url":"","tags":"Ver5.50(2024年11月)の追加建築","prefecture":"北海道","contractor":"","structural_designer":"","landscape_designer":"","shinkenchiku_url":""},{"id":13902,"title":"c3","architect":"藤本高志","year":2024.0,"address":"大阪府守口市浜町2-1-2","latitude":34.74082565307617,"longitude":135.56748962402344,"category":"店舗","big_category":"商業施設","description":"狭小地に建つ木造二階建て店舗","image_url":"","tags":"Ver5.50(2024年11月)の追加建築","prefecture":"大阪","contractor":"芙建設","structural_designer":"VSC建築設計事務所","landscape_designer":"","shinkenchiku_url":""},{"id":13903,"title":"AMABILE","architect":"藤本高志","year":2024.0,"address":"兵庫県川西市東久代1-4-15","latitude":34.80741882324219,"longitude":135.4182586669922,"category":"集合住宅","big_category":"住宅","description":"","image_url":"","tags":"Ver5.50(2024年11月)の追加建築","prefecture":"兵庫","contractor":"","structural_designer":"","landscape_designer":"","shinkenchiku_url":""},{"id":13904,"title":"仙台港国際ビジネスサポートセンター アクセル","architect":"久米設計","year":1999.0,"address":"宮城県仙台市宮城野区港3-1-3","latitude":38.274539947509766,"longitude":140.99337768554688,"category":"展示・会議場/オフィスビル/シェアオフィス","big_category":"公共施設,企業施設,商業施設","description":"","image_url":"","tags":"Ver5.50(2024年11月)の追加建築","prefecture":"宮城","contractor":"","structural_designer":"","landscape_designer":"","shinkenchiku_url":""},{"id":13905,"title":"宇都宮市冒険活動センター","architect":"久米設計","year":1996.0,"address":"栃木県宇都宮市篠井町1885-1","latitude":36.68437576293945,"longitude":139.8224639892578,"category":"体験施設/研修施設","big_category":"レジャー施設,教育","description":"","image_url":"","tags":"Ver5.50(2024年11月)の追加建築","prefecture":"栃木","contractor":"","structural_designer":"","landscape_designer":"","shinkenchiku_url":""},{"id":13906,"title":"明治学院中学校・明治学院東村山高等学校","architect":"久米設計","year":1998.0,"address":"東京都東村山市富士見町1-12-3","latitude":35.74039077758789,"longitude":139.4575653076172,"category":"学校","big_category":"教育","description":"","image_url":"","tags":"Ver5.50(2024年11月)の追加建築","prefecture":"東京","contractor":"","structural_designer":"","landscape_designer":"","shinkenchiku_url":""},{"id":13907,"title":"鶉野ミュージアム soraかさい","architect":"いるか設計集団","year":2021.0,"address":"兵庫県加西市鶉野町2274-11","latitude":34.89335632324219,"longitude":134.869140625,"category":"博物館","big_category":"ミュージアム","description":"紫電改と九七式艦攻の実物大模型展示","image_url":"","tags":"Ver5.50(2024年11月)の追加建築","prefecture":"兵庫","contractor":"","structural_designer":"","landscape_designer":"","shinkenchiku_url":""},{"id":13908,"title":"House bsp 永冶建築研究所","architect":"永冶祐太","year":2023.0,"address":"岐阜県多治見市金岡町2-53-3","latitude":35.344661712646484,"longitude":137.1158905029297,"category":"住宅/低層オフィス","big_category":"住宅,企業施設","description":"","image_url":"","tags":"Ver5.50(2024年11月)の追加建築","prefecture":"岐阜","contractor":"","structural_designer":"","landscape_designer":"","shinkenchiku_url":""},{"id":13909,"title":"おしゃれはうすジョイ","architect":"伊比均","year":1997.0,"address":"新潟県柏崎市西山町黒部1041-1","latitude":37.4525260925293,"longitude":138.65232849121094,"category":"美容院","big_category":"商業施設","description":"美容室","image_url":"","tags":"Ver5.50(2024年11月)の追加建築","prefecture":"新潟","contractor":"","structural_designer":"","landscape_designer":"","shinkenchiku_url":""},{"id":13910,"title":"緑地公園グリーンハイツ","architect":"遠藤剛生","year":1991.0,"address":"大阪府豊中市東泉丘4-1","latitude":34.78586959838867,"longitude":135.488037109375,"category":"集合住宅","big_category":"住宅","description":"","image_url":"","tags":"Ver5.50(2024年11月)の追加建築","prefecture":"大阪","contractor":"","structural_designer":"","landscape_designer":"","shinkenchiku_url":""},{"id":13911,"title":"みさとと。ネスト 旧粕渕村役場","architect":"STUDIO YY","year":2022.0,"address":"島根県邑智郡美郷町粕渕355-1","latitude":35.07305145263672,"longitude":132.5897979736328,"category":"低層オフィス/洋館","big_category":"企業施設,近代建築/遺産","description":"1928年竣工の旧役場を改修。ウッドデザイン賞2022","image_url":"","tags":"Ver5.50(2024年11月)の追加建築","prefecture":"島根","contractor":"","structural_designer":"","landscape_designer":"","shinkenchiku_url":""},{"id":13912,"title":"YUUNA","architect":"S.O.Y.建築環境研究所","year":2023.0,"address":"鹿児島県大島郡徳之島町花徳47","latitude":27.817480087280273,"longitude":128.9681396484375,"category":"コテージ","big_category":"宿泊","description":"全５棟長期滞在型Villa","image_url":"","tags":"Ver5.50(2024年11月)の追加建築","prefecture":"鹿児島","contractor":"","structural_designer":"","landscape_designer":"","shinkenchiku_url":""},{"id":13913,"title":"roots 巣鴨 本店","architect":"窪田啓吾","year":2024.0,"address":"東京都文京区千石4-26-2 SANSAN千石ビル201","latitude":35.73063659667969,"longitude":139.7392578125,"category":"美容院","big_category":"商業施設","description":"","image_url":"","tags":"Ver5.50(2024年11月)の追加建築","prefecture":"東京","contractor":"","structural_designer":"","landscape_designer":"","shinkenchiku_url":""},{"id":13914,"title":"ティアイエー本社ビル","architect":"松本哲哉","year":2019.0,"address":"兵庫県姫路市網干区新在家1371-16","latitude":34.784645080566406,"longitude":134.58950805664062,"category":"低層オフィス","big_category":"企業施設","description":"","image_url":"","tags":"Ver5.50(2024年11月)の追加建築","prefecture":"兵庫","contractor":"","structural_designer":"","landscape_designer":"","shinkenchiku_url":""},{"id":13915,"title":"姫路第一病院","architect":"松本哲哉","year":2023.0,"address":"兵庫県姫路市御国野町国分寺143","latitude":34.8221549987793,"longitude":134.73104858398438,"category":"病院","big_category":"医療施設","description":"","image_url":"","tags":"Ver5.50(2024年11月)の追加建築","prefecture":"兵庫","contractor":"","structural_designer":"","landscape_designer":"","shinkenchiku_url":""},{"id":13916,"title":"ヤマダストアー新青山店","architect":"松本哲哉","year":2023.0,"address":"兵庫県姫路市広畑区西蒲田4","latitude":34.83919143676758,"longitude":134.64051818847656,"category":"店舗","big_category":"商業施設","description":"","image_url":"","tags":"Ver5.50(2024年11月)の追加建築","prefecture":"兵庫","contractor":"","structural_designer":"","landscape_designer":"","shinkenchiku_url":""},{"id":13917,"title":"とし内科クリニック","architect":"松本哲哉","year":2020.0,"address":"兵庫県揖保郡太子町東南344-6","latitude":34.83242416381836,"longitude":134.58587646484375,"category":"個人医院","big_category":"医療施設","description":"","image_url":"","tags":"Ver5.50(2024年11月)の追加建築","prefecture":"兵庫","contractor":"","structural_designer":"","landscape_designer":"","shinkenchiku_url":""},{"id":13918,"title":"LANDMARK BUILDING WITH A HUGE PAPER LAMP 安積精肉店","architect":"松本哲哉","year":2015.0,"address":"兵庫県姫路市博労町200","latitude":34.83427810668945,"longitude":134.68482971191406,"category":"レストラン","big_category":"商業施設","description":"","image_url":"","tags":"Ver5.50(2024年11月)の追加建築","prefecture":"兵庫","contractor":"","structural_designer":"","landscape_designer":"","shinkenchiku_url":""},{"id":13919,"title":"Roofing the Connection 姫路前山児童クラブ","architect":"松本哲哉","year":2020.0,"address":"兵庫県姫路市御立中5-1148-13","latitude":34.86756134033203,"longitude":134.66749572753906,"category":"児童施設","big_category":"教育","description":"","image_url":"","tags":"Ver5.50(2024年11月)の追加建築","prefecture":"兵庫","contractor":"","structural_designer":"","landscape_designer":"","shinkenchiku_url":""},{"id":13920,"title":"ししだ眼科クリニック","architect":"松本哲哉","year":2016.0,"address":"兵庫県明石市明南町1-3-1","latitude":34.669837951660156,"longitude":134.9701385498047,"category":"個人医院","big_category":"医療施設","description":"","image_url":"","tags":"Ver5.50(2024年11月)の追加建築","prefecture":"兵庫","contractor":"","structural_designer":"","landscape_designer":"","shinkenchiku_url":""},{"id":13921,"title":"みやび歯科クリニック","architect":"松本哲哉","year":2022.0,"address":"兵庫県姫路市伊伝居533-22","latitude":34.85226821899414,"longitude":134.69847106933594,"category":"個人医院","big_category":"医療施設","description":"","image_url":"","tags":"Ver5.50(2024年11月)の追加建築","prefecture":"兵庫","contractor":"","structural_designer":"","landscape_designer":"","shinkenchiku_url":""},{"id":13922,"title":"Hair Salon Musee","architect":"松本哲哉","year":2018.0,"address":"兵庫県神戸市北区藤原台中町2–2–4","latitude":34.82009506225586,"longitude":135.22152709960938,"category":"美容院","big_category":"商業施設","description":"","image_url":"","tags":"Ver5.50(2024年11月)の追加建築","prefecture":"兵庫","contractor":"","structural_designer":"","landscape_designer":"","shinkenchiku_url":""},{"id":13923,"title":"乗馬クラブ スプリングフィールド","architect":"松本哲哉","year":2012.0,"address":"兵庫県姫路市夢前町高長字淵の元266","latitude":34.954124450683594,"longitude":134.6590118408203,"category":"体験施設/クラブハウス","big_category":"レジャー施設,レジャー施設","description":"","image_url":"","tags":"Ver5.50(2024年11月)の追加建築","prefecture":"兵庫","contractor":"","structural_designer":"","landscape_designer":"","shinkenchiku_url":""},{"id":13924,"title":"高脚楼 ジャリーヴ","architect":"メグロ建築研究所","year":2021.0,"address":"東京都調布市若葉町1-31-31","latitude":35.65690231323242,"longitude":139.5818634033203,"category":"カフェ/住宅","big_category":"商業施設,住宅","description":"","image_url":"","tags":"Ver5.50(2024年11月)の追加建築","prefecture":"東京","contractor":"匠陽","structural_designer":"清水構造計画","landscape_designer":"","shinkenchiku_url":""},{"id":13925,"title":"寳泉寺客殿庫裏","architect":"メグロ建築研究所","year":2015.0,"address":"東京都大田区南六郷2-26-12","latitude":35.54691696166992,"longitude":139.71823120117188,"category":"寺院/住宅","big_category":"宗教,住宅","description":"","image_url":"","tags":"Ver5.50(2024年11月)の追加建築","prefecture":"東京","contractor":"湯建工務店・フロム建設建設企業体","structural_designer":"ISGW","landscape_designer":"","shinkenchiku_url":""},{"id":13926,"title":"人形の家","architect":"メグロ建築研究所","year":2018.0,"address":"東京都杉並区梅里2-15-18","latitude":35.69613265991211,"longitude":139.64434814453125,"category":"住宅/ギャラリー","big_category":"住宅,ミュージアム","description":"","image_url":"","tags":"Ver5.50(2024年11月)の追加建築","prefecture":"東京","contractor":"オカダコーポレーション","structural_designer":"","landscape_designer":"","shinkenchiku_url":""},{"id":13927,"title":"建築会館","architect":"秋元和雄","year":1982.0,"address":"東京都港区芝5-26-20","latitude":35.647369384765625,"longitude":139.74607849121094,"category":"組合施設","big_category":"公共施設","description":"","image_url":"","tags":"Ver5.50(2024年11月)の追加建築","prefecture":"東京","contractor":"","structural_designer":"","landscape_designer":"","shinkenchiku_url":""},{"id":13928,"title":"宇佐市民図書館","architect":"久米設計","year":1999.0,"address":"大分県宇佐市上田1017-1","latitude":33.53105163574219,"longitude":131.3494415283203,"category":"図書館","big_category":"文化施設","description":"","image_url":"","tags":"Ver5.50(2024年11月)の追加建築","prefecture":"大分","contractor":"","structural_designer":"","landscape_designer":"","shinkenchiku_url":""},{"id":13929,"title":"安心院地域複合支所","architect":"山下設計","year":2017.0,"address":"大分県宇佐市安心院町下毛2115","latitude":33.4383544921875,"longitude":131.35427856445312,"category":"庁舎","big_category":"公共施設","description":"おおいた木の良さを生かした建築賞2023。ウッドデザイン賞2022","image_url":"","tags":"Ver5.50(2024年11月)の追加建築","prefecture":"大分","contractor":"","structural_designer":"","landscape_designer":"","shinkenchiku_url":""},{"id":13930,"title":"兵庫津ミュージアム初代県庁館","architect":"いるか設計集団","year":2021.0,"address":"兵庫県神戸市兵庫区中之島2-2-1","latitude":34.6640625,"longitude":135.17477416992188,"category":"城郭/博物館","big_category":"近代建築/遺産,ミュージアム","description":"","image_url":"","tags":"Ver5.50(2024年11月)の追加建築","prefecture":"兵庫","contractor":"","structural_designer":"","landscape_designer":"","shinkenchiku_url":""},{"id":13931,"title":"ハートランドCampus+ハートランドリトルベイ舞子台","architect":"いるか設計集団","year":2018.0,"address":"兵庫県神戸市垂水区舞子台7-3-7","latitude":34.63981246948242,"longitude":135.03802490234375,"category":"幼稚園/養護施設","big_category":"教育,医療施設","description":"","image_url":"","tags":"Ver5.50(2024年11月)の追加建築","prefecture":"兵庫","contractor":"","structural_designer":"","landscape_designer":"","shinkenchiku_url":""},{"id":13932,"title":"BIJOUPIKO福井","architect":"鬼木孝一郎","year":2024.0,"address":"福井県福井市高木中央2-2616","latitude":36.09267044067383,"longitude":136.23724365234375,"category":"店舗","big_category":"商業施設","description":"","image_url":"","tags":"Ver5.50(2024年11月)の追加建築","prefecture":"福井","contractor":"","structural_designer":"","landscape_designer":"","shinkenchiku_url":""},{"id":13933,"title":"nonowa国立SOUTH","architect":"大林組","year":2024.0,"address":"東京都国立市中1-1-52","latitude":35.69902801513672,"longitude":139.44607543945312,"category":"テナントビル","big_category":"商業施設","description":"","image_url":"","tags":"Ver5.50(2024年11月)の追加建築","prefecture":"東京","contractor":"","structural_designer":"","landscape_designer":"","shinkenchiku_url":""},{"id":13934,"title":"FUNDES蒲田","architect":"青木あすなろ建設+シーラカンスアンドアソシエイツ","year":2024.0,"address":"東京都大田区蒲田5-11-10","latitude":35.56300354003906,"longitude":139.7170867919922,"category":"テナントビル","big_category":"商業施設","description":"デザイン監修：シーラカンスアンドアソシエイツ","image_url":"","tags":"Ver5.50(2024年11月)の追加建築","prefecture":"東京","contractor":"","structural_designer":"","landscape_designer":"","shinkenchiku_url":""},{"id":13935,"title":"邑南町立石見中学校","architect":"シーラカンスアンドアソシエイツ","year":2024.0,"address":"島根県邑智郡邑南町中野2645","latitude":34.89255142211914,"longitude":132.4561309814453,"category":"学校","big_category":"教育","description":"","image_url":"","tags":"Ver5.50(2024年11月)の追加建築","prefecture":"島根","contractor":"","structural_designer":"","landscape_designer":"","shinkenchiku_url":""},{"id":13936,"title":"渋谷アクシュ","architect":"東急設計コンサルタント+三菱地所+パシフィックコンサルタンツ","year":2024.0,"address":"東京都渋谷区渋谷2-17-1","latitude":35.659095764160156,"longitude":139.7045440673828,"category":"複合ビル","big_category":"企業施設","description":"","image_url":"","tags":"Ver5.50(2024年11月)の追加建築","prefecture":"東京","contractor":"","structural_designer":"","landscape_designer":"","shinkenchiku_url":""},{"id":13937,"title":"GAKUDAI KOUKASHITA","architect":"西田司+交建設計","year":2024.0,"address":"東京都目黒区鷹番3","latitude":35.62869644165039,"longitude":139.68515014648438,"category":"モール","big_category":"商業施設","description":"デザイン監修：オンデザイン","image_url":"","tags":"Ver5.50(2024年11月)の追加建築","prefecture":"東京","contractor":"","structural_designer":"","landscape_designer":"","shinkenchiku_url":""},{"id":13938,"title":"神戸市中央区役所・中央区文化センター","architect":"日本設計","year":2022.0,"address":"兵庫県神戸市中央区東町115","latitude":34.68965148925781,"longitude":135.19497680664062,"category":"庁舎/公民館・交流施設","big_category":"公共施設,公共施設","description":"","image_url":"","tags":"Ver5.50(2024年11月)の追加建築","prefecture":"兵庫","contractor":"","structural_designer":"","landscape_designer":"","shinkenchiku_url":""},{"id":13939,"title":"神戸海洋博物館","architect":"神戸市港湾整備局","year":1987.0,"address":"兵庫県神戸市中央区波止場町2-2","latitude":34.6828498840332,"longitude":135.1882781982422,"category":"博物館","big_category":"ミュージアム","description":"","image_url":"","tags":"Ver5.50(2024年11月)の追加建築","prefecture":"兵庫","contractor":"","structural_designer":"","landscape_designer":"","shinkenchiku_url":""},{"id":13940,"title":"神戸メリケンパーク オリエンタルホテル","architect":"竹中工務店","year":1995.0,"address":"兵庫県神戸市中央区波止場町5-6","latitude":34.67997360229492,"longitude":135.1885986328125,"category":"ホテル","big_category":"宿泊","description":"","image_url":"","tags":"第38回BCS賞 (1997),Ver5.50(2024年11月)の追加建築","prefecture":"兵庫","contractor":"","structural_designer":"","landscape_designer":"","shinkenchiku_url":""},{"id":13941,"title":"神戸ムスリムモスク","architect":"ヤン・ヨセフ・スワガー","year":1935.0,"address":"兵庫県神戸市中央区中山手通2-25-14","latitude":34.6961669921875,"longitude":135.1879119873047,"category":"宗教施設","big_category":"宗教","description":"","image_url":"","tags":"Ver5.50(2024年11月)の追加建築","prefecture":"兵庫","contractor":"","structural_designer":"","landscape_designer":"","shinkenchiku_url":""},{"id":13942,"title":"スターバックスコーヒー 神戸北野異人館店 旧M.J.シェー邸","architect":"不明","year":1907.0,"address":"兵庫県神戸市中央区北野町3-1-31","latitude":34.69982147216797,"longitude":135.1902313232422,"category":"カフェ/洋館","big_category":"商業施設,近代建築/遺産","description":"2001年移築・復元","image_url":"","tags":"登録有形文化財,Ver5.50(2024年11月)の追加建築","prefecture":"兵庫","contractor":"","structural_designer":"","landscape_designer":"","shinkenchiku_url":""},{"id":13943,"title":"萌黄の館 旧シャープ住宅","architect":"アレクサンダー・ネルソン・ハンセル","year":1903.0,"address":"兵庫県神戸市中央区北野町3-10-11","latitude":34.70097351074219,"longitude":135.1892547607422,"category":"洋館","big_category":"近代建築/遺産","description":"設計者は推定","image_url":"","tags":"重要文化財,Ver5.50(2024年11月)の追加建築","prefecture":"兵庫","contractor":"","structural_designer":"","landscape_designer":"","shinkenchiku_url":""},{"id":13944,"title":"旧ハッサム住宅","architect":"アレクサンダー・ネルソン・ハンセル","year":1902.0,"address":"兵庫県神戸市中央区中山手通5-3-1","latitude":34.693084716796875,"longitude":135.18161010742188,"category":"洋館","big_category":"近代建築/遺産","description":"1963年相楽園内に移築。設計者は推定","image_url":"","tags":"重要文化財,Ver5.50(2024年11月)の追加建築","prefecture":"兵庫","contractor":"","structural_designer":"","landscape_designer":"","shinkenchiku_url":""},{"id":13945,"title":"ラインの館 旧ドレウェル邸","architect":"不明","year":1915.0,"address":"兵庫県神戸市中央区北野町2-10-24","latitude":34.70113754272461,"longitude":135.19119262695312,"category":"洋館","big_category":"近代建築/遺産","description":"","image_url":"","tags":"Ver5.50(2024年11月)の追加建築","prefecture":"兵庫","contractor":"","structural_designer":"","landscape_designer":"","shinkenchiku_url":""},{"id":13946,"title":"旧ムーア邸","architect":"J.R.ドレウェル","year":1898.0,"address":"兵庫県神戸市中央区北野町2-9-3","latitude":34.70133972167969,"longitude":135.1917724609375,"category":"洋館","big_category":"近代建築/遺産","description":"","image_url":"","tags":"Ver5.50(2024年11月)の追加建築","prefecture":"兵庫","contractor":"","structural_designer":"","landscape_designer":"","shinkenchiku_url":""},{"id":13947,"title":"うろこの家 旧ハリヤー邸","architect":"不明","year":null,"address":"兵庫県神戸市中央区北野町2-20-4","latitude":34.70294189453125,"longitude":135.19068908691406,"category":"洋館/博物館","big_category":"近代建築/遺産,ミュージアム","description":"明治後期竣工、大正時代移築","image_url":"","tags":"Ver5.50(2024年11月)の追加建築","prefecture":"兵庫","contractor":"","structural_designer":"","landscape_designer":"","shinkenchiku_url":""},{"id":13948,"title":"あたご天狗の森公園のリノベーション ATAGO FOREST HOUSE","architect":"宮崎晃吉","year":2024.0,"address":"茨城県笠間市泉99-15","latitude":36.28996276855469,"longitude":140.25180053710938,"category":"カフェ","big_category":"商業施設","description":"","image_url":"","tags":"新建築2024年11月号,Ver5.50(2024年11月)の追加建築","prefecture":"茨城","contractor":"大枝建設","structural_designer":"坂田涼太郎構造設計事務所","landscape_designer":"","shinkenchiku_url":""},{"id":13949,"title":"12 KANDA","architect":"大野力+南條洋雄","year":2023.0,"address":"東京都千代田区神田須田町2-3-12","latitude":35.69626235961914,"longitude":139.7715606689453,"category":"シェアオフィス","big_category":"商業施設","description":"設計協力：南條設計室","image_url":"","tags":"Ver5.50(2024年11月)の追加建築","prefecture":"東京","contractor":"平井工業","structural_designer":"スパン設計","landscape_designer":"","shinkenchiku_url":""},{"id":13950,"title":"富坂警察署後楽交番","architect":"日建設計","year":1994.0,"address":"東京都文京区後楽2-1-8","latitude":35.70323181152344,"longitude":139.7452850341797,"category":"警察・消防署","big_category":"公共施設","description":"","image_url":"","tags":"Ver5.50(2024年11月)の追加建築","prefecture":"東京","contractor":"","structural_designer":"","landscape_designer":"","shinkenchiku_url":""}]}