{"page":100,"total_pages":290,"items_per_page":50,"total_items":14467,"items":[{"id":4951,"title":"福岡国際会議場","architect":"日建設計","year":2003.0,"address":"福岡県福岡市博多区石城町2-1","latitude":33.60425567626953,"longitude":130.4033966064453,"category":"展示・会議場","big_category":"公共施設","description":"","image_url":"","tags":"","prefecture":"福岡","contractor":"","structural_designer":"","landscape_designer":"","shinkenchiku_url":""},{"id":4952,"title":"島根県立しまね海洋館 新シロイルカプール","architect":"日建設計","year":2011.0,"address":"島根県浜田市久代町1117-2","latitude":34.95945358276367,"longitude":132.14459228515625,"category":"水族館","big_category":"レジャー施設","description":"","image_url":"","tags":"","prefecture":"島根","contractor":"","structural_designer":"","landscape_designer":"","shinkenchiku_url":""},{"id":4953,"title":"横浜情報文化センター 旧横浜商工奨励館／旧横浜市外電話局","architect":"日建設計","year":2000.0,"address":"神奈川県横浜市中区日本大通11","latitude":35.446266174316406,"longitude":139.64285278320312,"category":"博物館","big_category":"ミュージアム","description":"","image_url":"","tags":"","prefecture":"神奈川","contractor":"","structural_designer":"","landscape_designer":"","shinkenchiku_url":""},{"id":4954,"title":"稲沢市立中央図書館","architect":"日建設計","year":2006.0,"address":"愛知県稲沢市正明寺3-114","latitude":35.24516296386719,"longitude":136.80743408203125,"category":"図書館","big_category":"文化施設","description":"","image_url":"","tags":"","prefecture":"愛知","contractor":"","structural_designer":"","landscape_designer":"","shinkenchiku_url":""},{"id":4955,"title":"茨城県立図書館 旧茨城県議会議事堂","architect":"日建設計","year":2000.0,"address":"茨城県水戸市三の丸1-5-38","latitude":36.37533187866211,"longitude":140.47518920898438,"category":"図書館","big_category":"文化施設","description":"","image_url":"","tags":"","prefecture":"茨城","contractor":"","structural_designer":"","landscape_designer":"","shinkenchiku_url":""},{"id":4956,"title":"鴨川シーワールド トロピカルアイランド","architect":"日建設計","year":2000.0,"address":"千葉県鴨川市字東町1464-18","latitude":35.11601257324219,"longitude":140.12045288085938,"category":"水族館","big_category":"レジャー施設","description":"","image_url":"","tags":"","prefecture":"千葉","contractor":"","structural_designer":"","landscape_designer":"","shinkenchiku_url":""},{"id":4957,"title":"國學院大學 学術メディアセンター","architect":"日建設計","year":2008.0,"address":"東京都渋谷区東4-4-15","latitude":35.65655517578125,"longitude":139.7112274169922,"category":"大学/図書館","big_category":"教育,文化施設","description":"","image_url":"","tags":"","prefecture":"東京","contractor":"","structural_designer":"","landscape_designer":"","shinkenchiku_url":""},{"id":4958,"title":"愛知大学 新名古屋キャンパス 講義棟・厚生棟","architect":"日建設計","year":2012.0,"address":"愛知県名古屋市中村区平池町4-60-6","latitude":35.161346435546875,"longitude":136.88392639160156,"category":"大学","big_category":"教育","description":"","image_url":"","tags":"","prefecture":"愛知","contractor":"","structural_designer":"","landscape_designer":"","shinkenchiku_url":""},{"id":4959,"title":"東洋大学 白山キャンパス 8号館・9号館 \"創立125周年記念館\"","architect":"日建設計","year":2012.0,"address":"東京都文京区白山5-28-20","latitude":35.72359085083008,"longitude":139.7496795654297,"category":"大学","big_category":"教育","description":"","image_url":"","tags":"","prefecture":"東京","contractor":"","structural_designer":"","landscape_designer":"","shinkenchiku_url":""},{"id":4960,"title":"明治大学 駿河台キャンパス グローバルフロント “GLOBAL FRONT”","architect":"日建設計","year":2013.0,"address":"東京都千代田区神田駿河台2-1","latitude":35.69938659667969,"longitude":139.76220703125,"category":"大学","big_category":"教育","description":"","image_url":"","tags":"","prefecture":"東京","contractor":"","structural_designer":"","landscape_designer":"","shinkenchiku_url":""},{"id":4961,"title":"関西外国語大学 中宮キャンパス インターナショナル・コミュニケーション・センター","architect":"日建設計","year":2012.0,"address":"大阪府枚方市上野3-4","latitude":34.82120132446289,"longitude":135.66273498535156,"category":"大学","big_category":"教育","description":"","image_url":"","tags":"","prefecture":"大阪","contractor":"","structural_designer":"","landscape_designer":"","shinkenchiku_url":""},{"id":4962,"title":"青山学院大学 17号館","architect":"日建設計","year":2012.0,"address":"東京都渋谷区渋谷4-4-25","latitude":35.6619758605957,"longitude":139.70974731445312,"category":"大学","big_category":"教育","description":"","image_url":"","tags":"","prefecture":"東京","contractor":"","structural_designer":"","landscape_designer":"","shinkenchiku_url":""},{"id":4963,"title":"立教大学 ロイドホール","architect":"日建設計","year":2012.0,"address":"東京都豊島区西池袋3-34-1","latitude":35.73031997680664,"longitude":139.7018280029297,"category":"大学/図書館","big_category":"教育,文化施設","description":"","image_url":"","tags":"","prefecture":"東京","contractor":"","structural_designer":"","landscape_designer":"","shinkenchiku_url":""},{"id":4964,"title":"東京理科大学 葛飾キャンパス","architect":"日建設計","year":2013.0,"address":"東京都葛飾区新宿6-3-1","latitude":35.771820068359375,"longitude":139.86407470703125,"category":"大学","big_category":"教育","description":"研究棟・講義棟・管理棟・図書館棟・第一実験棟・第二実験棟・体育館・温室棟","image_url":"","tags":"","prefecture":"東京","contractor":"","structural_designer":"","landscape_designer":"","shinkenchiku_url":""},{"id":4965,"title":"慶應義塾大学 南校舎","architect":"日建設計","year":2011.0,"address":"東京都港区三田2-15-45","latitude":35.648475646972656,"longitude":139.7430877685547,"category":"大学","big_category":"教育","description":"","image_url":"","tags":"","prefecture":"東京","contractor":"","structural_designer":"","landscape_designer":"","shinkenchiku_url":""},{"id":4966,"title":"龍谷大学 瀬田学舎8号館","architect":"日建設計","year":2010.0,"address":"滋賀県大津市瀬田大江町横谷1-5","latitude":34.96394348144531,"longitude":135.94149780273438,"category":"大学","big_category":"教育","description":"","image_url":"","tags":"","prefecture":"滋賀","contractor":"","structural_designer":"","landscape_designer":"","shinkenchiku_url":""},{"id":4967,"title":"国際基督教大学 東ヶ崎潔記念ダイアログハウス・大学食堂・欅寮","architect":"日建設計","year":2010.0,"address":"東京都三鷹市大沢3-10-2","latitude":35.68580627441406,"longitude":139.5287628173828,"category":"大学/寮","big_category":"教育,住宅","description":"","image_url":"","tags":"","prefecture":"東京","contractor":"","structural_designer":"","landscape_designer":"","shinkenchiku_url":""},{"id":4968,"title":"岩国錦帯橋空港ターミナルビル","architect":"日建設計","year":2012.0,"address":"山口県岩国市旭町3-15-1","latitude":34.158958435058594,"longitude":132.2347869873047,"category":"空港","big_category":"インフラ","description":"","image_url":"","tags":"","prefecture":"山口","contractor":"","structural_designer":"","landscape_designer":"","shinkenchiku_url":""},{"id":4969,"title":"阿蘇くまもと空港 国内線ターミナル","architect":"日建設計","year":2012.0,"address":"熊本県上益城郡益城町大字小谷1802-2","latitude":32.8346061706543,"longitude":130.85838317871094,"category":"空港","big_category":"インフラ","description":"","image_url":"","tags":"","prefecture":"熊本","contractor":"","structural_designer":"","landscape_designer":"","shinkenchiku_url":""},{"id":4970,"title":"金光教 大阪センター","architect":"日建設計","year":2009.0,"address":"大阪府大阪市中央区久太郎町1-4-13","latitude":34.68054962158203,"longitude":135.50929260253906,"category":"宗教施設","big_category":"宗教","description":"","image_url":"","tags":"","prefecture":"大阪","contractor":"","structural_designer":"","landscape_designer":"","shinkenchiku_url":""},{"id":4971,"title":"本門佛立宗清風寺 新本堂・淳風会淳風おおさか","architect":"日建設計","year":2005.0,"address":"大阪府大阪市北区大淀南2-5-5","latitude":34.70075607299805,"longitude":135.4850616455078,"category":"宗教施設","big_category":"宗教","description":"","image_url":"","tags":"","prefecture":"大阪","contractor":"","structural_designer":"","landscape_designer":"","shinkenchiku_url":""},{"id":4972,"title":"金光教玉水記念館","architect":"日建設計","year":2002.0,"address":"大阪府大阪市西区江戸堀1-10-31","latitude":34.689701080322266,"longitude":135.4956512451172,"category":"宗教施設","big_category":"宗教","description":"","image_url":"","tags":"","prefecture":"大阪","contractor":"","structural_designer":"","landscape_designer":"","shinkenchiku_url":""},{"id":4973,"title":"久慈市民体育館","architect":"日建設計","year":2004.0,"address":"岩手県久慈市新中の橋4-13-3","latitude":40.19465637207031,"longitude":141.76870727539062,"category":"体育館","big_category":"レジャー施設","description":"","image_url":"","tags":"","prefecture":"岩手","contractor":"","structural_designer":"","landscape_designer":"","shinkenchiku_url":""},{"id":4974,"title":"知の拠点あいち あいち産業科学技術総合センター","architect":"日建設計","year":2012.0,"address":"愛知県豊田市八草町秋合1267-1","latitude":35.18059539794922,"longitude":137.097412109375,"category":"研究施設","big_category":"教育","description":"毎年？4月に一般見学会を開催","image_url":"","tags":"","prefecture":"愛知","contractor":"","structural_designer":"","landscape_designer":"","shinkenchiku_url":""},{"id":4975,"title":"エクシブ軽井沢 サンクチュアリヴィラ・ムセオ／パセオ","architect":"日建設計","year":2012.0,"address":"長野県北佐久郡軽井沢町大字追分字反り向97-2","latitude":36.33463668823242,"longitude":138.53326416015625,"category":"ホテル","big_category":"宿泊","description":"","image_url":"","tags":"","prefecture":"長野","contractor":"","structural_designer":"","landscape_designer":"","shinkenchiku_url":""},{"id":4976,"title":"須磨区庁舎","architect":"日建設計","year":2012.0,"address":"兵庫県神戸市須磨区大黒町4-1-1","latitude":34.65862274169922,"longitude":135.1337127685547,"category":"庁舎","big_category":"公共施設","description":"","image_url":"","tags":"","prefecture":"兵庫","contractor":"","structural_designer":"","landscape_designer":"","shinkenchiku_url":""},{"id":4977,"title":"出雲市新庁舎","architect":"日建設計+みずほ設計","year":2009.0,"address":"島根県出雲市今市町70","latitude":35.367042541503906,"longitude":132.7546844482422,"category":"庁舎","big_category":"公共施設","description":"","image_url":"","tags":"","prefecture":"島根","contractor":"","structural_designer":"","landscape_designer":"","shinkenchiku_url":""},{"id":4978,"title":"九電工アカデミー「朋学庵」","architect":"日建設計","year":2012.0,"address":"佐賀県三養基郡基山町園部5004","latitude":33.41024398803711,"longitude":130.5159149169922,"category":"研修施設","big_category":"教育","description":"","image_url":"","tags":"","prefecture":"佐賀","contractor":"","structural_designer":"","landscape_designer":"","shinkenchiku_url":""},{"id":4979,"title":"遠賀川水辺館","architect":"日建設計","year":2003.0,"address":"福岡県直方市溝掘1-1-1","latitude":33.74006271362305,"longitude":130.73109436035156,"category":"公共施設","big_category":"公共施設","description":"","image_url":"","tags":"","prefecture":"福岡","contractor":"","structural_designer":"","landscape_designer":"","shinkenchiku_url":""},{"id":4980,"title":"平戸市役所 田平支所","architect":"日建設計","year":2003.0,"address":"長崎県平戸市田平町里免27-1","latitude":33.3592529296875,"longitude":129.58839416503906,"category":"庁舎","big_category":"公共施設","description":"","image_url":"","tags":"","prefecture":"長崎","contractor":"","structural_designer":"","landscape_designer":"","shinkenchiku_url":""},{"id":4981,"title":"三豊市仁尾支所","architect":"日建設計","year":2000.0,"address":"香川県三豊市仁尾町仁尾辛34-3","latitude":34.197296142578125,"longitude":133.64512634277344,"category":"庁舎","big_category":"公共施設","description":"","image_url":"","tags":"","prefecture":"香川","contractor":"","structural_designer":"","landscape_designer":"","shinkenchiku_url":""},{"id":4982,"title":"神保町 SFIII","architect":"日建設計","year":2011.0,"address":"東京都千代田区神田神保町3-3-3","latitude":35.69553756713867,"longitude":139.7544708251953,"category":"オフィスビル","big_category":"企業施設","description":"","image_url":"","tags":"","prefecture":"東京","contractor":"","structural_designer":"","landscape_designer":"","shinkenchiku_url":""},{"id":4983,"title":"京都府医師会館","architect":"日建設計","year":2010.0,"address":"京都府京都市中京区西ノ京東栂尾町6","latitude":35.010520935058594,"longitude":135.7422332763672,"category":"組合施設","big_category":"公共施設","description":"","image_url":"","tags":"","prefecture":"京都","contractor":"","structural_designer":"","landscape_designer":"","shinkenchiku_url":""},{"id":4984,"title":"霧島ファクトリーガーデン 焼酎神社","architect":"鮎川透","year":2014.0,"address":"宮崎県都城市志比田町5480","latitude":31.741479873657227,"longitude":131.06199645996094,"category":"工場/店舗","big_category":"企業施設,商業施設","description":"","image_url":"","tags":"","prefecture":"宮崎","contractor":"","structural_designer":"","landscape_designer":"","shinkenchiku_url":""},{"id":4985,"title":"滋賀県立陶芸の森","architect":"浦辺設計","year":1990.0,"address":"滋賀県甲賀市信楽町勅旨2188-7","latitude":34.8862419128418,"longitude":136.05860900878906,"category":"美術館/体験施設/公園","big_category":"ミュージアム,レジャー施設,レジャー施設","description":"","image_url":"","tags":"2017年JIA25年賞 登録作品","prefecture":"滋賀","contractor":"","structural_designer":"","landscape_designer":"","shinkenchiku_url":""},{"id":4986,"title":"IZU PHOTO MUSEUM","architect":"杉本博司+榊田倫之","year":2009.0,"address":"静岡県駿東郡長泉町東野347-1","latitude":35.17192840576172,"longitude":138.87396240234375,"category":"美術館","big_category":"ミュージアム","description":"","image_url":"","tags":"","prefecture":"静岡","contractor":"","structural_designer":"","landscape_designer":"","shinkenchiku_url":""},{"id":4987,"title":"アーツ千代田3331","architect":"メジロスタジオ","year":2010.0,"address":"東京都千代田区外神田6-11-14","latitude":35.7042121887207,"longitude":139.7708282470703,"category":"美術館","big_category":"ミュージアム","description":"","image_url":"","tags":"2012年日本建築学会 作品選奨","prefecture":"東京","contractor":"","structural_designer":"","landscape_designer":"","shinkenchiku_url":""},{"id":4988,"title":"御殿場のアウトレットブティック メレーズ 御殿場プレミアムアウトレット店","architect":"乾久美子","year":2003.0,"address":"静岡県御殿場市深沢1312","latitude":35.30607986450195,"longitude":138.9626007080078,"category":"店舗","big_category":"商業施設","description":"","image_url":"","tags":"","prefecture":"静岡","contractor":"","structural_designer":"","landscape_designer":"","shinkenchiku_url":""},{"id":4989,"title":"風通る白樺と苔の森","architect":"隈研吾+ジャン=ミシェル・オトニエル","year":2015.0,"address":"長野県北佐久郡軽井沢町軽井沢1151-5","latitude":36.34943771362305,"longitude":138.6352081298828,"category":"結婚式場","big_category":"宗教","description":"2015年5月、軽井沢ニューアートミュージアム内にオープン予定","image_url":"","tags":"","prefecture":"長野","contractor":"","structural_designer":"","landscape_designer":"","shinkenchiku_url":""},{"id":4990,"title":"和多屋別荘 タワー館","architect":"黒川紀章","year":1977.0,"address":"佐賀県嬉野市嬉野町大字下宿乙738","latitude":33.097930908203125,"longitude":129.98886108398438,"category":"旅館","big_category":"宿泊","description":"","image_url":"","tags":"","prefecture":"佐賀","contractor":"","structural_designer":"","landscape_designer":"","shinkenchiku_url":""},{"id":4991,"title":"てっちゃん","architect":"隈研吾","year":2014.0,"address":"東京都武蔵野市吉祥寺本町1-1-2","latitude":35.70361328125,"longitude":139.5793914794922,"category":"バー・居酒屋","big_category":"商業施設","description":"吉祥寺ハモニカ横丁内","image_url":"","tags":"","prefecture":"東京","contractor":"","structural_designer":"","landscape_designer":"","shinkenchiku_url":""},{"id":4992,"title":"梅田病院","architect":"隈研吾","year":2015.0,"address":"山口県光市虹ヶ浜3-6-1","latitude":33.97252655029297,"longitude":131.916259765625,"category":"病院","big_category":"医療施設","description":"","image_url":"","tags":"","prefecture":"山口","contractor":"","structural_designer":"","landscape_designer":"","shinkenchiku_url":""},{"id":4993,"title":"両口屋是清 東山店","architect":"隈研吾","year":2013.0,"address":"愛知県名古屋市千種区東山通4-4","latitude":35.16141128540039,"longitude":136.97103881835938,"category":"店舗/カフェ","big_category":"商業施設,商業施設","description":"","image_url":"","tags":"","prefecture":"愛知","contractor":"","structural_designer":"","landscape_designer":"","shinkenchiku_url":""},{"id":4994,"title":"宮津市庁舎","architect":"沖種郎","year":1962.0,"address":"京都府宮津市柳縄手345-1","latitude":35.535579681396484,"longitude":135.19557189941406,"category":"庁舎","big_category":"公共施設","description":"","image_url":"","tags":"DOCOMOMO","prefecture":"京都","contractor":"","structural_designer":"","landscape_designer":"","shinkenchiku_url":""},{"id":4995,"title":"芝浦工業大学 大宮図書館","architect":"沖種郎","year":1971.0,"address":"埼玉県さいたま市見沼区深作307","latitude":35.95298767089844,"longitude":139.6541290283203,"category":"大学/図書館","big_category":"教育,文化施設","description":"","image_url":"","tags":"","prefecture":"埼玉","contractor":"","structural_designer":"","landscape_designer":"","shinkenchiku_url":""},{"id":4996,"title":"奈良教育大学","architect":"沖種郎","year":1966.0,"address":"奈良県奈良市高畑町 奈良教育大学","latitude":34.67412185668945,"longitude":135.84217834472656,"category":"大学","big_category":"教育","description":"","image_url":"","tags":"","prefecture":"奈良","contractor":"","structural_designer":"","landscape_designer":"","shinkenchiku_url":""},{"id":4997,"title":"ストーンミュージアム吉運堂","architect":"黒川紀章","year":2010.0,"address":"新潟県新潟市南区戸頭1347-1","latitude":37.75815200805664,"longitude":139.0170440673828,"category":"美術館","big_category":"ミュージアム","description":"","image_url":"","tags":"","prefecture":"新潟","contractor":"","structural_designer":"","landscape_designer":"","shinkenchiku_url":""},{"id":4998,"title":"吉運堂 柏崎店","architect":"黒川紀章","year":1991.0,"address":"新潟県柏崎市日吉町2-40","latitude":37.36647033691406,"longitude":138.5732421875,"category":"店舗","big_category":"商業施設","description":"","image_url":"","tags":"","prefecture":"新潟","contractor":"","structural_designer":"","landscape_designer":"","shinkenchiku_url":""},{"id":4999,"title":"世知原温泉くにみの湯 山暖簾","architect":"黒川紀章","year":2004.0,"address":"長崎県佐世保市世知原町上野原316","latitude":33.23870849609375,"longitude":129.7765350341797,"category":"旅館","big_category":"宿泊","description":"","image_url":"","tags":"","prefecture":"長崎","contractor":"","structural_designer":"","landscape_designer":"","shinkenchiku_url":""},{"id":5000,"title":"ウインズ銀座","architect":"黒川紀章","year":1990.0,"address":"東京都中央区銀座2-10-13","latitude":35.67219924926758,"longitude":139.7683563232422,"category":"店舗/オフィスビル","big_category":"商業施設,企業施設","description":"","image_url":"","tags":"","prefecture":"東京","contractor":"","structural_designer":"","landscape_designer":"","shinkenchiku_url":""}]}