{"page":20,"total_pages":290,"items_per_page":50,"total_items":14467,"items":[{"id":951,"title":"TARO NASU","architect":"青木淳","year":2007.0,"address":"東京都千代田区東神田1-2-11","latitude":35.69344711303711,"longitude":139.78077697753906,"category":"美術館","big_category":"ミュージアム","description":"","image_url":"","tags":"","prefecture":"東京","contractor":"","structural_designer":"","landscape_designer":"","shinkenchiku_url":""},{"id":952,"title":"東京国立近代美術館工芸館","architect":"田村鎮","year":1910.0,"address":"東京都千代田区北の丸公園1-1","latitude":35.68971633911133,"longitude":139.7504425048828,"category":"美術館","big_category":"ミュージアム","description":"","image_url":"","tags":"","prefecture":"東京","contractor":"","structural_designer":"","landscape_designer":"","shinkenchiku_url":""},{"id":953,"title":"ベルギースクエア","architect":"岡部憲明+竹中工務店","year":2009.0,"address":"東京都千代田区二番町5-25","latitude":35.68560028076172,"longitude":139.73609924316406,"category":"複合施設","big_category":"商業施設","description":"","image_url":"","tags":"","prefecture":"東京","contractor":"","structural_designer":"","landscape_designer":"","shinkenchiku_url":""},{"id":954,"title":"東京ベルギー大使館","architect":"岡部憲明+竹中工務店","year":2009.0,"address":"東京都千代田区二番町5-4","latitude":35.68506622314453,"longitude":139.73587036132812,"category":"公共施設","big_category":"公共施設","description":"","image_url":"","tags":"","prefecture":"東京","contractor":"","structural_designer":"","landscape_designer":"","shinkenchiku_url":""},{"id":955,"title":"パレスホテル東京チャペル","architect":"乃村工藝社","year":2012.0,"address":"東京都千代田区丸の内1-1","latitude":35.684566497802734,"longitude":139.7614288330078,"category":"結婚式場","big_category":"宗教","description":"","image_url":"","tags":"","prefecture":"東京","contractor":"","structural_designer":"","landscape_designer":"","shinkenchiku_url":""},{"id":956,"title":"桃華楽堂","architect":"今井兼次","year":1968.0,"address":"東京都千代田区千代田1-1","latitude":35.68840789794922,"longitude":139.75550842285156,"category":"ホール・劇場","big_category":"文化施設","description":"","image_url":"","tags":"","prefecture":"東京","contractor":"","structural_designer":"","landscape_designer":"","shinkenchiku_url":""},{"id":957,"title":"JPタワー KITTE","architect":"三菱地所+隈研吾+ヘルムート・ヤーン+吉田鉄郎","year":2013.0,"address":"東京都千代田区丸の内2-7-2","latitude":35.6796989440918,"longitude":139.76458740234375,"category":"オフィスビル","big_category":"企業施設","description":"東京中央郵便局の建て替え。低層部はファサード保存。","image_url":"","tags":"DOCOMOMO","prefecture":"東京","contractor":"","structural_designer":"","landscape_designer":"","shinkenchiku_url":""},{"id":958,"title":"憲政記念館 旧尾崎記念会館","architect":"海老原一郎","year":1960.0,"address":"東京都千代田区永田町1-1-1","latitude":35.678401947021484,"longitude":139.7470703125,"category":"博物館","big_category":"ミュージアム","description":"","image_url":"","tags":"DOCOMOMO","prefecture":"東京","contractor":"","structural_designer":"","landscape_designer":"","shinkenchiku_url":""},{"id":959,"title":"東京国際フォーラム","architect":"ラファエル・ヴィニオリ","year":1996.0,"address":"東京都千代田区丸の内3-5-1","latitude":35.67694854736328,"longitude":139.7635040283203,"category":"展示・会議場","big_category":"公共施設","description":"","image_url":"","tags":"東京2020オリンピック競技会場,2023年JIA25年賞 受賞作品","prefecture":"東京","contractor":"","structural_designer":"","landscape_designer":"","shinkenchiku_url":""},{"id":960,"title":"日本生命日比谷ビル／日生劇場","architect":"村野藤吾","year":1963.0,"address":"東京都千代田区有楽町1-1-1","latitude":35.67322540283203,"longitude":139.75845336914062,"category":"ホール・劇場","big_category":"文化施設","description":"","image_url":"","tags":"1964年日本建築学会 作品賞,DOCOMOMO","prefecture":"東京","contractor":"","structural_designer":"","landscape_designer":"","shinkenchiku_url":""},{"id":961,"title":"フラワーショップH 日比谷花壇 日比谷公園店","architect":"乾久美子","year":2010.0,"address":"東京都千代田区日比谷公園1-1","latitude":35.673423767089844,"longitude":139.757568359375,"category":"店舗","big_category":"商業施設","description":"","image_url":"","tags":"","prefecture":"東京","contractor":"","structural_designer":"","landscape_designer":"","shinkenchiku_url":""},{"id":962,"title":"旧文化学院","architect":"西村伊作+坂倉建築研究所","year":2008.0,"address":"東京都千代田区神田駿河台2-5","latitude":35.699554443359375,"longitude":139.76089477539062,"category":"学校","big_category":"教育","description":"旧校舎のエントランス部分を継承。現在は日本BS放送本社（恐らく）","image_url":"","tags":"","prefecture":"東京","contractor":"","structural_designer":"","landscape_designer":"","shinkenchiku_url":""},{"id":963,"title":"東京ルーテルセンター教会","architect":"長谷部鋭吉","year":1937.0,"address":"東京都千代田区富士見1-2","latitude":35.69867706298828,"longitude":139.7471923828125,"category":"教会","big_category":"宗教","description":"","image_url":"","tags":"","prefecture":"東京","contractor":"","structural_designer":"","landscape_designer":"","shinkenchiku_url":""},{"id":964,"title":"お茶の水スクエア","architect":"磯崎新","year":1987.0,"address":"東京都千代田区神田駿河台1-6","latitude":35.696937561035156,"longitude":139.76231384277344,"category":"大学","big_category":"教育","description":"","image_url":"","tags":"","prefecture":"東京","contractor":"","structural_designer":"","landscape_designer":"","shinkenchiku_url":""},{"id":965,"title":"九段教会","architect":"田淵諭","year":1994.0,"address":"東京都千代田区九段北 1-15-1","latitude":35.695960998535156,"longitude":139.74859619140625,"category":"教会","big_category":"宗教","description":"","image_url":"","tags":"","prefecture":"東京","contractor":"","structural_designer":"","landscape_designer":"","shinkenchiku_url":""},{"id":966,"title":"靖国神社遊就館","architect":"不明","year":1882.0,"address":"東京都千代田区九段北3-1-1","latitude":35.69403839111328,"longitude":139.7425537109375,"category":"洋館","big_category":"近代建築/遺産","description":"","image_url":"","tags":"","prefecture":"東京","contractor":"","structural_designer":"","landscape_designer":"","shinkenchiku_url":""},{"id":967,"title":"南部ビル","architect":"村野藤吾+遠藤克彦","year":1980.0,"address":"東京都千代田区紀尾井町3-3","latitude":35.68212127685547,"longitude":139.7355499267578,"category":"オフィスビル","big_category":"企業施設","description":"遠藤克彦による改修","image_url":"","tags":"","prefecture":"東京","contractor":"","structural_designer":"","landscape_designer":"","shinkenchiku_url":""},{"id":968,"title":"城西国際大学 東京紀尾井町キャンパス 3号棟","architect":"studio SUMO","year":2013.0,"address":"東京都千代田区平河町2-3-20","latitude":35.681880950927734,"longitude":139.74038696289062,"category":"大学","big_category":"教育","description":"","image_url":"","tags":"","prefecture":"東京","contractor":"","structural_designer":"","landscape_designer":"","shinkenchiku_url":""},{"id":969,"title":"国立劇場","architect":"岩本博行+竹中工務店","year":1966.0,"address":"東京都千代田区隼町4-1","latitude":35.68156051635742,"longitude":139.74327087402344,"category":"ホール・劇場","big_category":"文化施設","description":"","image_url":"","tags":"公共建築百選,DOCOMOMO","prefecture":"東京","contractor":"","structural_designer":"","landscape_designer":"","shinkenchiku_url":""},{"id":970,"title":"相田みつを美術館","architect":"不明","year":2003.0,"address":"東京都千代田区丸の内3-5-1 東京国際フォーラムホールA","latitude":35.67740249633789,"longitude":139.76380920410156,"category":"美術館","big_category":"ミュージアム","description":"","image_url":"","tags":"","prefecture":"東京","contractor":"","structural_designer":"","landscape_designer":"","shinkenchiku_url":""},{"id":971,"title":"警視庁日比谷公園前派出所","architect":"横河健","year":1998.0,"address":"東京都千代田区日比谷公園1-1","latitude":35.6749153137207,"longitude":139.7591094970703,"category":"警察・消防署","big_category":"公共施設","description":"","image_url":"","tags":"","prefecture":"東京","contractor":"","structural_designer":"","landscape_designer":"","shinkenchiku_url":""},{"id":972,"title":"市政会館","architect":"佐藤功一","year":1929.0,"address":"東京都千代田区日比谷公園1-3","latitude":35.67148208618164,"longitude":139.75538635253906,"category":"公共施設/オフィスビル","big_category":"公共施設,企業施設","description":"","image_url":"","tags":"","prefecture":"東京","contractor":"","structural_designer":"","landscape_designer":"","shinkenchiku_url":""},{"id":973,"title":"東京駅／東京ステーションギャラリー","architect":"辰野金吾+葛西萬司+ジェイアール東日本建築設計事務所","year":1914.0,"address":"東京都千代田区丸の内1-9-1","latitude":35.68240737915039,"longitude":139.7664794921875,"category":"美術館/ギャラリー/駅","big_category":"ミュージアム,ミュージアム,インフラ","description":"日本建築家協会賞受賞者名：鎌田雅己、前田厚雄、田原幸夫","image_url":"https://lh3.googleusercontent.com/-9M709hhu84M/UOUlRp8apZI/AAAAAAAAx-0/9-2AHwdIPpw/s1024/lr-123177.jpg","tags":"2013年度日本建築家協会賞,2018年公共建築賞,重要文化財","prefecture":"東京","contractor":"","structural_designer":"","landscape_designer":"","shinkenchiku_url":""},{"id":974,"title":"東京国立近代美術館","architect":"谷口吉郎","year":1969.0,"address":"東京都千代田区北の丸公園3-1","latitude":35.69054412841797,"longitude":139.754638671875,"category":"美術館","big_category":"ミュージアム","description":"西澤徹夫により2012年に所蔵品ギャラリーリニューアル","image_url":"https://lh3.googleusercontent.com/-cY6DwFVeOOU/UOUl_8Nm9ZI/AAAAAAAAyEc/JSEeQa5C4U8/s1152/lr-123082.jpg","tags":"新建築2015年3月号","prefecture":"東京","contractor":"","structural_designer":"","landscape_designer":"","shinkenchiku_url":""},{"id":975,"title":"三菱一号館美術館","architect":"ジョサイア・コンドル+三菱地所","year":1894.0,"address":"東京都千代田区丸の内2-6-2","latitude":35.67850112915039,"longitude":139.76336669921875,"category":"美術館","big_category":"ミュージアム","description":"1894年竣工の三菱一号館を2009年に復元","image_url":"https://lh3.googleusercontent.com/-dCtJdDgf2VE/UOUkfp9nckI/AAAAAAAAx4c/aO9YZ9S9dlE/s1024/lr-123207.jpg","tags":"","prefecture":"東京","contractor":"","structural_designer":"","landscape_designer":"","shinkenchiku_url":""},{"id":976,"title":"六町ミュージアム・フローラ","architect":"横河健","year":2012.0,"address":"東京都足立区六町2-5-35","latitude":35.78327941894531,"longitude":139.82012939453125,"category":"美術館","big_category":"ミュージアム","description":"","image_url":"","tags":"","prefecture":"東京","contractor":"","structural_designer":"","landscape_designer":"","shinkenchiku_url":""},{"id":977,"title":"いづみ保育園","architect":"アーキテクチャー・ラボ","year":2011.0,"address":"東京都足立区西新井栄町1-15-10","latitude":35.77361297607422,"longitude":139.79013061523438,"category":"幼稚園","big_category":"教育","description":"","image_url":"","tags":"","prefecture":"東京","contractor":"","structural_designer":"","landscape_designer":"","shinkenchiku_url":""},{"id":978,"title":"東京未来大学","architect":"アーブ建築研究所","year":2007.0,"address":"東京都足立区千住曙町34-12","latitude":35.74340057373047,"longitude":139.81692504882812,"category":"大学","big_category":"教育","description":"","image_url":"","tags":"","prefecture":"東京","contractor":"","structural_designer":"","landscape_designer":"","shinkenchiku_url":""},{"id":979,"title":"多摩市立唐木田コミュニティセンター","architect":"新居千秋","year":2011.0,"address":"東京都多摩市鶴牧6-14","latitude":35.61539840698242,"longitude":139.41334533691406,"category":"総合文化施設","big_category":"文化施設","description":"","image_url":"","tags":"","prefecture":"東京","contractor":"","structural_designer":"","landscape_designer":"","shinkenchiku_url":""},{"id":980,"title":"帝京大学小学校","architect":"隈研吾","year":2011.0,"address":"東京都多摩市和田1254-6","latitude":35.64430236816406,"longitude":139.41836547851562,"category":"学校","big_category":"教育","description":"","image_url":"","tags":"2014年日本建築学会 作品選奨","prefecture":"東京","contractor":"","structural_designer":"","landscape_designer":"","shinkenchiku_url":""},{"id":981,"title":"アミューズメント・コンプレックス H ヒューマックスパビリオン永山","architect":"伊東豊雄","year":1992.0,"address":"東京都多摩市永山1-3-4","latitude":35.631500244140625,"longitude":139.44789123535156,"category":"モール","big_category":"商業施設","description":"","image_url":"","tags":"","prefecture":"東京","contractor":"","structural_designer":"","landscape_designer":"","shinkenchiku_url":""},{"id":982,"title":"ニューシティ多摩センター 旧住まいのデパート「ペンタくん」","architect":"隈研吾","year":2003.0,"address":"東京都多摩市落合1-47","latitude":35.621604919433594,"longitude":139.42294311523438,"category":"企業施設","big_category":"企業施設","description":"","image_url":"","tags":"","prefecture":"東京","contractor":"","structural_designer":"","landscape_designer":"","shinkenchiku_url":""},{"id":983,"title":"旧多摩聖蹟記念館","architect":"関根要太郎+蔵田周忠","year":1930.0,"address":"東京都多摩市連光寺5-1-1","latitude":35.63801193237305,"longitude":139.46063232421875,"category":"洋館","big_category":"近代建築/遺産","description":"都立桜ヶ丘公園内 市指定有形文化財","image_url":"","tags":"DOCOMOMO","prefecture":"東京","contractor":"大成建設","structural_designer":"","landscape_designer":"","shinkenchiku_url":""},{"id":984,"title":"内海清美源氏物語館","architect":"早草睦惠","year":2003.0,"address":"東京都多摩市落合1-47-1","latitude":35.621788024902344,"longitude":139.4232940673828,"category":"美術館","big_category":"ミュージアム","description":"","image_url":"","tags":"","prefecture":"東京","contractor":"","structural_designer":"","landscape_designer":"","shinkenchiku_url":""},{"id":985,"title":"国立科学博物館 本館 旧東京科学博物館本館","architect":"糟谷謙三","year":1931.0,"address":"東京都台東区上野公園7-20","latitude":35.71635055541992,"longitude":139.77642822265625,"category":"博物館","big_category":"ミュージアム","description":"2007年に香山壽夫により改修","image_url":"","tags":"重要文化財","prefecture":"東京","contractor":"","structural_designer":"","landscape_designer":"","shinkenchiku_url":""},{"id":986,"title":"台東区立朝倉彫塑館アトリエ棟","architect":"朝倉文夫","year":1935.0,"address":"東京都台東区谷中7-18-10","latitude":35.72689437866211,"longitude":139.76853942871094,"category":"住宅","big_category":"住宅","description":"","image_url":"","tags":"","prefecture":"東京","contractor":"","structural_designer":"","landscape_designer":"","shinkenchiku_url":""},{"id":987,"title":"台東区立一葉記念館","architect":"柳澤孝彦","year":2006.0,"address":"東京都台東区竜泉3-18-4","latitude":35.725582122802734,"longitude":139.79281616210938,"category":"博物館","big_category":"ミュージアム","description":"","image_url":"","tags":"","prefecture":"東京","contractor":"","structural_designer":"","landscape_designer":"","shinkenchiku_url":""},{"id":988,"title":"黒田記念館","architect":"岡田信一郎","year":1928.0,"address":"東京都台東区上野公園12","latitude":35.718910217285156,"longitude":139.7733154296875,"category":"博物館","big_category":"ミュージアム","description":"","image_url":"","tags":"","prefecture":"東京","contractor":"","structural_designer":"","landscape_designer":"","shinkenchiku_url":""},{"id":989,"title":"善照寺本堂","architect":"白井晟一","year":1958.0,"address":"東京都台東区西浅草1-4-15","latitude":35.710731506347656,"longitude":139.78903198242188,"category":"寺院","big_category":"宗教","description":"","image_url":"","tags":"","prefecture":"東京","contractor":"","structural_designer":"","landscape_designer":"","shinkenchiku_url":""},{"id":990,"title":"浅草文化観光センター","architect":"隈研吾","year":2012.0,"address":"東京都台東区雷門2-18-9","latitude":35.710655212402344,"longitude":139.7965545654297,"category":"観光施設","big_category":"レジャー施設","description":"","image_url":"","tags":"","prefecture":"東京","contractor":"","structural_designer":"","landscape_designer":"","shinkenchiku_url":""},{"id":991,"title":"東京国立文化財研究所","architect":"建築研究所アーキヴィジョン","year":2000.0,"address":"東京都台東区上野公園13-43","latitude":35.72071838378906,"longitude":139.7755889892578,"category":"研究施設","big_category":"教育","description":"","image_url":"","tags":"","prefecture":"東京","contractor":"","structural_designer":"","landscape_designer":"","shinkenchiku_url":""},{"id":992,"title":"六窓庵","architect":"金森宗和","year":1648.0,"address":"東京都台東区上野公園13-9","latitude":35.71973419189453,"longitude":139.77688598632812,"category":"茶室","big_category":"住宅","description":"","image_url":"","tags":"","prefecture":"東京","contractor":"","structural_designer":"","landscape_designer":"","shinkenchiku_url":""},{"id":993,"title":"東京芸術大学 奏楽堂","architect":"岡田新一","year":1998.0,"address":"東京都台東区上野公園12-8","latitude":35.7203369140625,"longitude":139.77310180664062,"category":"ホール・劇場","big_category":"文化施設","description":"","image_url":"","tags":"","prefecture":"東京","contractor":"","structural_designer":"","landscape_designer":"","shinkenchiku_url":""},{"id":994,"title":"旧東京音楽学校奏楽堂","architect":"山口半六+久留正道","year":1890.0,"address":"東京都台東区上野公園8-43","latitude":35.71804428100586,"longitude":139.7731170654297,"category":"博物館","big_category":"ミュージアム","description":"","image_url":"","tags":"","prefecture":"東京","contractor":"","structural_designer":"","landscape_designer":"","shinkenchiku_url":""},{"id":995,"title":"東京国立博物館 法隆寺宝物館","architect":"谷口吉生","year":1999.0,"address":"東京都台東区上野公園13-9","latitude":35.71864318847656,"longitude":139.77406311035156,"category":"博物館","big_category":"ミュージアム","description":"","image_url":"https://farm4.staticflickr.com/3750/8944599140_32ad2c70ba_h.jpg","tags":"2001年日本建築学会 作品賞","prefecture":"東京","contractor":"","structural_designer":"","landscape_designer":"","shinkenchiku_url":""},{"id":996,"title":"国立西洋美術館","architect":"ル・コルビュジエ","year":1959.0,"address":"東京都台東区上野公園7-7","latitude":35.715476989746094,"longitude":139.77584838867188,"category":"美術館","big_category":"ミュージアム","description":"","image_url":"https://farm8.staticflickr.com/7455/12231416655_b849997339_h.jpg","tags":"公共建築百選,DOCOMOMO,重要文化財","prefecture":"東京","contractor":"","structural_designer":"","landscape_designer":"","shinkenchiku_url":""},{"id":997,"title":"旧岩崎邸","architect":"ジョサイア・コンドル","year":1896.0,"address":"東京都台東区池之端1-3-45","latitude":35.70975875854492,"longitude":139.7672119140625,"category":"洋館","big_category":"近代建築/遺産","description":"","image_url":"","tags":"","prefecture":"東京","contractor":"","structural_designer":"","landscape_designer":"","shinkenchiku_url":""},{"id":998,"title":"上野の森 国際子ども図書館","architect":"安藤忠雄","year":2002.0,"address":"東京都台東区上野公園12-49","latitude":35.719608306884766,"longitude":139.77374267578125,"category":"図書館","big_category":"文化施設","description":"火曜・木曜の14時からツアー","image_url":"https://lh3.googleusercontent.com/-x9Nm4xgjJBE/UCip9ZwVU9I/AAAAAAAASog/gM0Nd4-47xg/s1024/lr-6131744.jpg","tags":"","prefecture":"東京","contractor":"","structural_designer":"","landscape_designer":"","shinkenchiku_url":""},{"id":999,"title":"東京都美術館","architect":"前川國男","year":1975.0,"address":"東京都台東区上野公園8-36","latitude":35.71724319458008,"longitude":139.7728271484375,"category":"美術館","big_category":"ミュージアム","description":"","image_url":"https://lh3.googleusercontent.com/-EvHdoEs2wm4/UIPLEnuSUSI/AAAAAAAAg94/UauNyMqDem0/s1024/lr-7299384.jpg","tags":"","prefecture":"東京","contractor":"","structural_designer":"","landscape_designer":"","shinkenchiku_url":""},{"id":1000,"title":"東京芸術大学 大学美術館","architect":"六角鬼丈","year":1999.0,"address":"東京都台東区上野公園12","latitude":35.719276428222656,"longitude":139.77159118652344,"category":"美術館","big_category":"ミュージアム","description":"","image_url":"https://lh3.googleusercontent.com/-hu6FbVgxPWg/UCifxSAklNI/AAAAAAAARCs/uAzH-nPnTpE/s1024/lr-6131763.jpg","tags":"","prefecture":"東京","contractor":"","structural_designer":"","landscape_designer":"","shinkenchiku_url":""}]}