{"page":205,"total_pages":290,"items_per_page":50,"total_items":14467,"items":[{"id":10201,"title":"moto.8 モトッパチ","architect":"みかんぐみ+黒崎英雄","year":2019.0,"address":"千葉県市川市八幡3-7-2","latitude":35.722320556640625,"longitude":139.9254150390625,"category":"モール/住宅","big_category":"商業施設,住宅","description":"黒崎英雄設計の母屋（和風住宅）を移築。周辺に店舗併用住宅を設置","image_url":"","tags":"新建築2021年2月号,Ver3.80(2021年6月)の追加建築","prefecture":"千葉","contractor":"","structural_designer":"","landscape_designer":"","shinkenchiku_url":""},{"id":10202,"title":"洋光台北団地 集会所改修","architect":"NAAW+市浦ハウジング&プランニング+隈研吾+佐藤可士和","year":2020.0,"address":"神奈川県横浜市磯子区洋光台2-1","latitude":35.38233184814453,"longitude":139.5933837890625,"category":"公民館・交流施設/集合住宅","big_category":"公共施設,住宅","description":"NAAW：集会所デザイン監修。市浦ハウジング&プランニング：集会所設計。SAMURAI：総合監修。隈研吾：総合監修。","image_url":"","tags":"新建築2021年2月号,Ver3.80(2021年6月)の追加建築","prefecture":"神奈川","contractor":"","structural_designer":"","landscape_designer":"","shinkenchiku_url":""},{"id":10203,"title":"洋光台北団地 屋外広場・住棟ファサード改修","architect":"窓建コンサルタント+プレイスメディア+隈研吾+佐藤可士和","year":2020.0,"address":"神奈川県横浜市磯子区洋光台2-1","latitude":35.38233947753906,"longitude":139.59414672851562,"category":"集合住宅/広場","big_category":"住宅,文化施設","description":"窓建コンサルタント・プレイスメディア設計共同体：屋外広場・住棟ファサード設計。SAMURAI：屋外広場・住棟ファサードデザイン監修・総合監修。隈研吾：総合監修。","image_url":"","tags":"新建築2021年2月号,Ver3.80(2021年6月)の追加建築","prefecture":"神奈川","contractor":"","structural_designer":"","landscape_designer":"","shinkenchiku_url":""},{"id":10204,"title":"石井ビル改修/新城WORK","architect":"CHA+ピークスタジオ","year":2020.0,"address":"神奈川県川崎市中原区上新城2-7-1 セシーズ・イシイ7","latitude":35.58803176879883,"longitude":139.63059997558594,"category":"シェアオフィス/集合住宅","big_category":"商業施設,住宅","description":"住戸(403号室・302号室)・共用部・外装改修：CHA。新城WORK：ピークスタジオ","image_url":"","tags":"新建築2021年2月号,Ver3.80(2021年6月)の追加建築","prefecture":"神奈川","contractor":"","structural_designer":"","landscape_designer":"","shinkenchiku_url":""},{"id":10205,"title":"リノア北赤羽","architect":"ツバメアーキテクツ+UG都市建築+アラキ+ササキアーキテクツ","year":2020.0,"address":"東京都北区浮間1-3-1","latitude":35.7884635925293,"longitude":139.70639038085938,"category":"集合住宅/店舗","big_category":"住宅,商業施設","description":"ツバメアーキテクツ：共用部。UG都市建築：リノベーション全体統括。アラキ＋ササキアーキテクツ：専有部デザイナーズプラン。リビタ：企画・プロデュース","image_url":"","tags":"新建築2021年2月号,Ver3.80(2021年6月)の追加建築","prefecture":"東京","contractor":"コスモスモア","structural_designer":"","landscape_designer":"","shinkenchiku_url":""},{"id":10206,"title":"押上のビル PLAT295","architect":"ツバメアーキテクツ+パナソニック ホームズ","year":2020.0,"address":"東京都墨田区業平1-7-9","latitude":35.70810317993164,"longitude":139.80926513671875,"category":"シェアオフィス/集合住宅","big_category":"商業施設,住宅","description":"","image_url":"","tags":"新建築2021年2月号,Ver3.80(2021年6月)の追加建築","prefecture":"東京","contractor":"","structural_designer":"","landscape_designer":"","shinkenchiku_url":""},{"id":10207,"title":"UNITE KICHIJOJI 吉祥寺東町テラス","architect":"千葉学","year":2020.0,"address":"東京都武蔵野市吉祥寺東町2-39-11","latitude":35.708885192871094,"longitude":139.5868377685547,"category":"集合住宅","big_category":"住宅","description":"","image_url":"","tags":"新建築2021年2月号,Ver3.80(2021年6月)の追加建築","prefecture":"東京","contractor":"","structural_designer":"","landscape_designer":"","shinkenchiku_url":""},{"id":10208,"title":"Apartmentふじ","architect":"泉幸甫","year":2020.0,"address":"東京都豊島区池袋2-23-20","latitude":35.733306884765625,"longitude":139.7051544189453,"category":"集合住宅/店舗","big_category":"住宅,商業施設","description":"","image_url":"","tags":"新建築2021年2月号,Ver3.80(2021年6月)の追加建築","prefecture":"東京","contractor":"渡辺富工務店","structural_designer":"","landscape_designer":"","shinkenchiku_url":""},{"id":10209,"title":"ヴァロータ氷川台","architect":"青木茂","year":2020.0,"address":"東京都練馬区氷川台3-27-3","latitude":35.750919342041016,"longitude":139.66656494140625,"category":"集合住宅","big_category":"住宅","description":"","image_url":"","tags":"新建築2021年2月号,Ver3.80(2021年6月)の追加建築","prefecture":"東京","contractor":"内野建設","structural_designer":"","landscape_designer":"","shinkenchiku_url":""},{"id":10210,"title":"宮益坂ビルディング","architect":"日建ハウジングシステム","year":2020.0,"address":"東京都渋谷区渋谷2-19-15","latitude":35.659610748291016,"longitude":139.7037811279297,"category":"集合住宅/テナントビル/オフィスビル","big_category":"住宅,商業施設,企業施設","description":"","image_url":"","tags":"新建築2021年2月号,Ver3.80(2021年6月)の追加建築","prefecture":"東京","contractor":"戸田建設","structural_designer":"","landscape_designer":"","shinkenchiku_url":""},{"id":10211,"title":"北青山三丁目地区まちづくりプロジェクト ののあおやま民活棟","architect":"鹿島建設+隈研吾","year":2020.0,"address":"東京都港区北青山3-4-3","latitude":35.667572021484375,"longitude":139.7133331298828,"category":"集合住宅/店舗","big_category":"住宅,商業施設","description":"隈研吾はデザイン監修","image_url":"","tags":"新建築2021年2月号,Ver3.80(2021年6月)の追加建築","prefecture":"東京","contractor":"鹿島建設","structural_designer":"","landscape_designer":"","shinkenchiku_url":""},{"id":10212,"title":"北青山三丁目地区まちづくりプロジェクト 北青山三丁目アパート・港区立青山保育園・港区立赤坂子ども中高生プラザ青山館","architect":"日本設計","year":2019.0,"address":"東京都港区北青山3-4-1","latitude":35.66691589355469,"longitude":139.71287536621094,"category":"集合住宅/幼稚園/児童施設","big_category":"住宅,教育,教育","description":"","image_url":"","tags":"新建築2021年2月号,Ver3.80(2021年6月)の追加建築","prefecture":"東京","contractor":"長谷工・株木・石川・武家田建設共同企業体","structural_designer":"","landscape_designer":"","shinkenchiku_url":""},{"id":10213,"title":"黄金湯","architect":"長坂常","year":2020.0,"address":"東京都墨田区太平4-14-6 1F","latitude":35.70228576660156,"longitude":139.81529235839844,"category":"温泉","big_category":"宿泊","description":"銭湯の改修、2F飲食店・ドミトリー","image_url":"","tags":"新建築2021年3月号,Ver3.80(2021年6月)の追加建築","prefecture":"東京","contractor":"TANK","structural_designer":"","landscape_designer":"","shinkenchiku_url":""},{"id":10214,"title":"なっつらぼ","architect":"teco+小坂森中建築","year":2020.0,"address":"千葉県八街市吉倉629","latitude":35.624061584472656,"longitude":140.2906951904297,"category":"養護施設","big_category":"医療施設","description":"","image_url":"","tags":"新建築2021年3月号,Ver3.80(2021年6月)の追加建築","prefecture":"千葉","contractor":"国井建設","structural_designer":"","landscape_designer":"","shinkenchiku_url":""},{"id":10215,"title":"伊予市文化交流センター IYO夢みらい館","architect":"山下設計","year":2020.0,"address":"愛媛県伊予市米湊768-2","latitude":33.758853912353516,"longitude":132.7052459716797,"category":"総合文化施設/ホール・劇場/図書館","big_category":"文化施設,文化施設,文化施設","description":"","image_url":"","tags":"新建築2021年3月号,Ver3.80(2021年6月)の追加建築","prefecture":"愛媛","contractor":"","structural_designer":"","landscape_designer":"","shinkenchiku_url":""},{"id":10216,"title":"栃木県総合運動公園 東エリア 日環アリーナ栃木","architect":"梓設計+大成建設+安藤設計","year":2021.0,"address":"栃木県宇都宮市今宮4-18-11","latitude":36.511207580566406,"longitude":139.86587524414062,"category":"体育館","big_category":"レジャー施設","description":"","image_url":"","tags":"新建築2021年3月号,Ver3.80(2021年6月)の追加建築,2023年日本建築学会 作品選集新人賞","prefecture":"栃木","contractor":"大成・中村・渡辺特定建設企業体","structural_designer":"","landscape_designer":"","shinkenchiku_url":""},{"id":10217,"title":"AGC横浜テクニカルセンター SE1","architect":"類設計室","year":2020.0,"address":"神奈川県横浜市鶴見区末広町1-1","latitude":35.49388122558594,"longitude":139.68655395507812,"category":"研究施設","big_category":"教育","description":"","image_url":"","tags":"新建築2021年3月号,Ver3.80(2021年6月)の追加建築","prefecture":"神奈川","contractor":"","structural_designer":"","landscape_designer":"","shinkenchiku_url":""},{"id":10218,"title":"TODA Innovate Lab","architect":"戸田建設","year":2020.0,"address":"東京都江東区南砂7-10","latitude":35.66878128051758,"longitude":139.8351287841797,"category":"研究施設","big_category":"教育","description":"","image_url":"","tags":"新建築2021年3月号,Ver3.80(2021年6月)の追加建築","prefecture":"東京","contractor":"戸田建設","structural_designer":"","landscape_designer":"","shinkenchiku_url":""},{"id":10219,"title":"リバーホールディングス本社","architect":"竹中工務店","year":2020.0,"address":"東京都墨田区緑1-4-19","latitude":35.69279479980469,"longitude":139.79934692382812,"category":"低層オフィス","big_category":"企業施設","description":"","image_url":"","tags":"新建築2021年3月号,Ver3.80(2021年6月)の追加建築","prefecture":"東京","contractor":"竹中工務店","structural_designer":"","landscape_designer":"","shinkenchiku_url":""},{"id":10220,"title":"気仙沼内湾ウォーターフロント 「迎」ムカエル","architect":"LLC SMDW","year":2018.0,"address":"宮城県気仙沼市南町海岸1-11","latitude":38.9057502746582,"longitude":141.57473754882812,"category":"モール/観光施設","big_category":"商業施設,レジャー施設","description":"","image_url":"","tags":"新建築2021年3月号,Ver3.80(2021年6月)の追加建築","prefecture":"宮城","contractor":"","structural_designer":"","landscape_designer":"","shinkenchiku_url":""},{"id":10221,"title":"気仙沼市まち・ひと・しごと交流プラザ PIER7 「創」ウマレル","architect":"アール・アイ・エー","year":2019.0,"address":"宮城県気仙沼市南町海岸1-11","latitude":38.9050407409668,"longitude":141.57534790039062,"category":"公民館・交流施設/公共施設","big_category":"公共施設,公共施設","description":"","image_url":"","tags":"新建築2021年3月号,Ver3.80(2021年6月)の追加建築","prefecture":"宮城","contractor":"","structural_designer":"","landscape_designer":"","shinkenchiku_url":""},{"id":10222,"title":"南相馬市小高区川房公会堂","architect":"内藤廣","year":2019.0,"address":"福島県南相馬市小高区川房101-2","latitude":37.537071228027344,"longitude":140.93017578125,"category":"公民館・交流施設","big_category":"公共施設","description":"","image_url":"","tags":"新建築2021年3月号,Ver3.80(2021年6月)の追加建築","prefecture":"福島","contractor":"中里工務店","structural_designer":"","landscape_designer":"","shinkenchiku_url":""},{"id":10223,"title":"ルイ・ヴィトン 銀座並木通り店 新店舗","architect":"青木淳+ピーター・マリノ","year":2021.0,"address":"東京都中央区銀座7-6-1","latitude":35.670013427734375,"longitude":139.76197814941406,"category":"店舗","big_category":"商業施設","description":"ピーター・マリノによる内装設計","image_url":"","tags":"新建築2021年4月号,Ver3.80(2021年6月)の追加建築","prefecture":"東京","contractor":"清水建設+旭ビルウォール","structural_designer":"","landscape_designer":"","shinkenchiku_url":""},{"id":10224,"title":"カモ井加工紙mt裁断棟","architect":"TNA","year":2020.0,"address":"岡山県倉敷市片島町236","latitude":34.57505416870117,"longitude":133.72027587890625,"category":"工場","big_category":"企業施設","description":"","image_url":"","tags":"新建築2021年4月号,Ver3.80(2021年6月)の追加建築","prefecture":"岡山","contractor":"藤木工務店","structural_designer":"","landscape_designer":"","shinkenchiku_url":""},{"id":10225,"title":"StandBy","architect":"荒木信雄","year":2020.0,"address":"東京都渋谷区神宮前5-11-1","latitude":35.66708755493164,"longitude":139.70655822753906,"category":"ギャラリー","big_category":"ミュージアム","description":"","image_url":"","tags":"新建築2021年4月号,Ver3.80(2021年6月)の追加建築","prefecture":"東京","contractor":"","structural_designer":"","landscape_designer":"","shinkenchiku_url":""},{"id":10226,"title":"立正大学 品川キャンパス150周年記念館 13号館・6号館","architect":"飯田善彦","year":2020.0,"address":"東京都品川区大崎4-2-16","latitude":35.62181091308594,"longitude":139.72369384765625,"category":"大学","big_category":"教育","description":"","image_url":"","tags":"新建築2021年4月号,Ver3.80(2021年6月)の追加建築","prefecture":"東京","contractor":"鹿島建設","structural_designer":"","landscape_designer":"","shinkenchiku_url":""},{"id":10227,"title":"武蔵野美術大学 16号館","architect":"長坂常","year":2020.0,"address":"東京都小平市小川町1-735","latitude":35.729373931884766,"longitude":139.44773864746094,"category":"大学","big_category":"教育","description":"","image_url":"","tags":"新建築2021年4月号,Ver3.80(2021年6月)の追加建築","prefecture":"東京","contractor":"","structural_designer":"","landscape_designer":"","shinkenchiku_url":""},{"id":10228,"title":"武蔵野美術大学 12号館","architect":"芦原義信","year":1991.0,"address":"東京都小平市小川町1-735","latitude":35.726993560791016,"longitude":139.44703674316406,"category":"大学","big_category":"教育","description":"","image_url":"","tags":"Ver3.80(2021年6月)の追加建築","prefecture":"東京","contractor":"","structural_designer":"","landscape_designer":"","shinkenchiku_url":""},{"id":10229,"title":"武蔵野美術大学 8号館","architect":"芦原義信","year":1969.0,"address":"東京都小平市小川町1-735","latitude":35.726890563964844,"longitude":139.44773864746094,"category":"大学","big_category":"教育","description":"","image_url":"","tags":"Ver3.80(2021年6月)の追加建築","prefecture":"東京","contractor":"","structural_designer":"","landscape_designer":"","shinkenchiku_url":""},{"id":10230,"title":"武蔵野美術大学 7号館","architect":"芦原義信","year":1965.0,"address":"東京都小平市小川町1-735","latitude":35.72650146484375,"longitude":139.4477081298828,"category":"大学","big_category":"教育","description":"","image_url":"","tags":"DOCOMOMO,Ver3.80(2021年6月)の追加建築","prefecture":"東京","contractor":"","structural_designer":"","landscape_designer":"","shinkenchiku_url":""},{"id":10231,"title":"武蔵野美術大学 9号館","architect":"芦原義信","year":2000.0,"address":"東京都小平市小川町1-735","latitude":35.72659683227539,"longitude":139.448486328125,"category":"大学","big_category":"教育","description":"","image_url":"","tags":"Ver3.80(2021年6月)の追加建築","prefecture":"東京","contractor":"","structural_designer":"","landscape_designer":"","shinkenchiku_url":""},{"id":10232,"title":"武蔵野美術大学 4号館","architect":"芦原義信","year":1964.0,"address":"東京都小平市小川町1-735","latitude":35.72573471069336,"longitude":139.44752502441406,"category":"大学","big_category":"教育","description":"","image_url":"","tags":"DOCOMOMO,Ver3.80(2021年6月)の追加建築","prefecture":"東京","contractor":"","structural_designer":"","landscape_designer":"","shinkenchiku_url":""},{"id":10233,"title":"武蔵野美術大学 1号館","architect":"芦原義信","year":1968.0,"address":"東京都小平市小川町1-735","latitude":35.726112365722656,"longitude":139.44830322265625,"category":"大学","big_category":"教育","description":"","image_url":"","tags":"DOCOMOMO,Ver3.80(2021年6月)の追加建築","prefecture":"東京","contractor":"","structural_designer":"","landscape_designer":"","shinkenchiku_url":""},{"id":10234,"title":"武蔵野美術大学 体育館","architect":"芦原義信","year":1972.0,"address":"東京都小平市小川町1-735","latitude":35.72800064086914,"longitude":139.44790649414062,"category":"大学/体育館","big_category":"教育,レジャー施設","description":"","image_url":"","tags":"Ver3.80(2021年6月)の追加建築","prefecture":"東京","contractor":"","structural_designer":"","landscape_designer":"","shinkenchiku_url":""},{"id":10235,"title":"武蔵野美術大学 鷹の台ホールA棟","architect":"芦原義信","year":1966.0,"address":"東京都小平市小川町1-735","latitude":35.72706985473633,"longitude":139.44642639160156,"category":"大学/ホール・劇場","big_category":"教育,文化施設","description":"","image_url":"","tags":"DOCOMOMO,Ver3.80(2021年6月)の追加建築","prefecture":"東京","contractor":"","structural_designer":"","landscape_designer":"","shinkenchiku_url":""},{"id":10236,"title":"武蔵野美術大学 5A号館","architect":"芦原義信","year":1988.0,"address":"東京都小平市小川町1-735","latitude":35.72566604614258,"longitude":139.44691467285156,"category":"大学","big_category":"教育","description":"","image_url":"","tags":"Ver3.80(2021年6月)の追加建築","prefecture":"東京","contractor":"","structural_designer":"","landscape_designer":"","shinkenchiku_url":""},{"id":10237,"title":"武蔵野美術大学 5B号館","architect":"芦原義信","year":1968.0,"address":"東京都小平市小川町1-735","latitude":35.72570037841797,"longitude":139.4459991455078,"category":"大学","big_category":"教育","description":"","image_url":"","tags":"Ver3.80(2021年6月)の追加建築","prefecture":"東京","contractor":"","structural_designer":"","landscape_designer":"","shinkenchiku_url":""},{"id":10238,"title":"武蔵野美術大学 6号館","architect":"芦原義信","year":1973.0,"address":"東京都小平市小川町1-735","latitude":35.72608184814453,"longitude":139.4461669921875,"category":"大学","big_category":"教育","description":"","image_url":"","tags":"Ver3.80(2021年6月)の追加建築","prefecture":"東京","contractor":"","structural_designer":"","landscape_designer":"","shinkenchiku_url":""},{"id":10239,"title":"武蔵野美術大学 5C号館","architect":"竹山実","year":1980.0,"address":"東京都小平市小川町1-735","latitude":35.7259635925293,"longitude":139.44662475585938,"category":"大学","big_category":"教育","description":"","image_url":"","tags":"Ver3.80(2021年6月)の追加建築","prefecture":"東京","contractor":"","structural_designer":"","landscape_designer":"","shinkenchiku_url":""},{"id":10240,"title":"武蔵野美術大学 14号館","architect":"日本設計+宮下勇","year":2016.0,"address":"東京都小平市小川町1-735","latitude":35.72813415527344,"longitude":139.4470672607422,"category":"大学","big_category":"教育","description":"","image_url":"","tags":"Ver3.80(2021年6月)の追加建築","prefecture":"東京","contractor":"","structural_designer":"","landscape_designer":"","shinkenchiku_url":""},{"id":10241,"title":"武蔵野美術大学 13号館","architect":"佐藤総合計画+宮下勇","year":2005.0,"address":"東京都小平市小川町1-735","latitude":35.727264404296875,"longitude":139.4485626220703,"category":"大学","big_category":"教育","description":"","image_url":"","tags":"Ver3.80(2021年6月)の追加建築","prefecture":"東京","contractor":"","structural_designer":"","landscape_designer":"","shinkenchiku_url":""},{"id":10242,"title":"武蔵野美術大学 2号館","architect":"石本建築事務所+宮下勇","year":2007.0,"address":"東京都小平市小川町1-735","latitude":35.72560119628906,"longitude":139.44833374023438,"category":"大学","big_category":"教育","description":"","image_url":"","tags":"Ver3.80(2021年6月)の追加建築","prefecture":"東京","contractor":"","structural_designer":"","landscape_designer":"","shinkenchiku_url":""},{"id":10243,"title":"武蔵野美術大学 7・8号館EV棟・工房","architect":"布施茂","year":2020.0,"address":"東京都小平市小川町1-735","latitude":35.726680755615234,"longitude":139.44778442382812,"category":"大学","big_category":"教育","description":"","image_url":"","tags":"新建築2021年4月号,Ver3.80(2021年6月)の追加建築","prefecture":"東京","contractor":"","structural_designer":"","landscape_designer":"","shinkenchiku_url":""},{"id":10244,"title":"南山大学 Q棟","architect":"日本設計+大林組","year":2017.0,"address":"愛知県名古屋市昭和区山里町18","latitude":35.150577545166016,"longitude":136.9622344970703,"category":"大学","big_category":"教育","description":"","image_url":"","tags":"新建築2021年4月号,Ver3.80(2021年6月)の追加建築","prefecture":"愛知","contractor":"","structural_designer":"","landscape_designer":"","shinkenchiku_url":""},{"id":10245,"title":"神奈川大学みなとみらいキャンパス","architect":"三菱地所","year":2020.0,"address":"神奈川県横浜市西区みなとみらい4-5-3","latitude":35.458587646484375,"longitude":139.6278839111328,"category":"大学","big_category":"教育","description":"","image_url":"","tags":"新建築2021年4月号,Ver3.80(2021年6月)の追加建築","prefecture":"神奈川","contractor":"竹中工務店","structural_designer":"","landscape_designer":"","shinkenchiku_url":""},{"id":10246,"title":"武庫川女子大学 公江記念館","architect":"竹中工務店","year":2020.0,"address":"兵庫県西宮市池開町6-46","latitude":34.717750549316406,"longitude":135.3739013671875,"category":"大学","big_category":"教育","description":"","image_url":"","tags":"新建築2021年4月号,Ver3.80(2021年6月)の追加建築,2023年日本建築学会 作品選集新人賞","prefecture":"兵庫","contractor":"竹中工務店","structural_designer":"","landscape_designer":"","shinkenchiku_url":""},{"id":10247,"title":"長野県立大学","architect":"石本建築事務所+倉田直道","year":2017.0,"address":"長野県長野市三輪8-49-7","latitude":36.666099548339844,"longitude":138.200439453125,"category":"大学","big_category":"教育","description":"","image_url":"","tags":"新建築2021年4月号,Ver3.80(2021年6月)の追加建築","prefecture":"長野","contractor":"","structural_designer":"","landscape_designer":"","shinkenchiku_url":""},{"id":10248,"title":"日本女子大学 百二十年館・杏彩館","architect":"妹島和世+清水建設","year":2021.0,"address":"東京都文京区目白台2-8-1","latitude":35.716800689697266,"longitude":139.72122192382812,"category":"大学","big_category":"教育","description":"","image_url":"","tags":"新建築2021年5月号,Ver3.80(2021年6月)の追加建築","prefecture":"東京","contractor":"清水建設","structural_designer":"","landscape_designer":"","shinkenchiku_url":""},{"id":10249,"title":"共愛学園前橋国際大学 5号館 KYOAI GLOCAL GATEWAY","architect":"シーラカンスアンドアソシエイツ","year":2021.0,"address":"群馬県前橋市小屋原町1154-4","latitude":36.35816955566406,"longitude":139.14398193359375,"category":"大学","big_category":"教育","description":"","image_url":"","tags":"新建築2021年5月号,Ver3.80(2021年6月)の追加建築,2023年日本建築学会 作品選奨","prefecture":"群馬","contractor":"","structural_designer":"","landscape_designer":"","shinkenchiku_url":""},{"id":10250,"title":"木曽町役場","architect":"千田建築設計","year":2021.0,"address":"長野県木曽郡木曽町福島2326-6","latitude":35.84207534790039,"longitude":137.69131469726562,"category":"庁舎","big_category":"公共施設","description":"","image_url":"","tags":"新建築2021年5月号,Ver3.80(2021年6月)の追加建築","prefecture":"長野","contractor":"","structural_designer":"","landscape_designer":"","shinkenchiku_url":""}]}