{"page":155,"total_pages":290,"items_per_page":50,"total_items":14467,"items":[{"id":7701,"title":"エイベックスビル","architect":"大林組","year":2017.0,"address":"東京都港区南青山3-1-30","latitude":35.66769027709961,"longitude":139.7157745361328,"category":"オフィスビル","big_category":"企業施設","description":"","image_url":"","tags":"Ver2.60(2018年8月)の追加建築,新建築2018年7月号","prefecture":"東京","contractor":"大林組","structural_designer":"","landscape_designer":"","shinkenchiku_url":""},{"id":7702,"title":"ライムリゾート箱根 旧COLONY箱根","architect":"岡部憲明","year":2017.0,"address":"神奈川県足柄下郡箱根町仙石原1246-845","latitude":35.25297164916992,"longitude":139.000732421875,"category":"研修施設/ホテル","big_category":"教育,宿泊","description":"2020年10月よりLIME RESORT HAKONEとして運営","image_url":"","tags":"Ver2.60(2018年8月)の追加建築,新建築2018年7月号","prefecture":"神奈川","contractor":"臼幸産業","structural_designer":"","landscape_designer":"","shinkenchiku_url":""},{"id":7703,"title":"G-BASE田町","architect":"佐藤尚巳+清水建設","year":2018.0,"address":"東京都港区芝5-29-11","latitude":35.64619827270508,"longitude":139.7449951171875,"category":"オフィスビル","big_category":"企業施設","description":"","image_url":"","tags":"Ver2.60(2018年8月)の追加建築,新建築2018年7月号","prefecture":"東京","contractor":"清水建設","structural_designer":"","landscape_designer":"","shinkenchiku_url":""},{"id":7704,"title":"武蔵野市八幡町コミュニティセンター","architect":"佐藤尚巳","year":2012.0,"address":"東京都武蔵野市八幡町3-3-16","latitude":35.717037200927734,"longitude":139.55247497558594,"category":"公民館・交流施設","big_category":"公共施設","description":"","image_url":"","tags":"Ver2.60(2018年8月)の追加建築,新建築2018年7月号","prefecture":"東京","contractor":"","structural_designer":"","landscape_designer":"","shinkenchiku_url":""},{"id":7705,"title":"msb Tamachi 田町ステーションタワーS","architect":"コーン・ペダーセン・フォックス+三菱地所+日建設計","year":2018.0,"address":"東京都港区芝浦3-1-21","latitude":35.644832611083984,"longitude":139.74920654296875,"category":"オフィスビル","big_category":"企業施設","description":"","image_url":"","tags":"Ver2.60(2018年8月)の追加建築,新建築2018年7月号","prefecture":"東京","contractor":"大成建設","structural_designer":"","landscape_designer":"","shinkenchiku_url":""},{"id":7706,"title":"さくまオフィス","architect":"大建設計株式会社+名和研二","year":2018.0,"address":"岐阜県岐阜市佐久間町20","latitude":35.426700592041016,"longitude":136.75819396972656,"category":"低層オフィス","big_category":"企業施設","description":"","image_url":"","tags":"Ver2.60(2018年8月)の追加建築,新建築2018年7月号","prefecture":"岐阜","contractor":"栗山組","structural_designer":"","landscape_designer":"","shinkenchiku_url":""},{"id":7707,"title":"XYL キシル本社","architect":"すわ製作所","year":2011.0,"address":"静岡県浜松市中区佐鳴台5-30-21","latitude":34.71131134033203,"longitude":137.69482421875,"category":"低層オフィス","big_category":"企業施設","description":"","image_url":"","tags":"Ver2.60(2018年8月)の追加建築,新建築 2012年12月号","prefecture":"静岡","contractor":"中村組","structural_designer":"","landscape_designer":"","shinkenchiku_url":""},{"id":7708,"title":"Rin international アンビデックス本社","architect":"すわ製作所","year":2012.0,"address":"東京都渋谷区元代々木町23-8","latitude":35.67040252685547,"longitude":139.6852264404297,"category":"オフィスビル","big_category":"企業施設","description":"","image_url":"","tags":"Ver2.60(2018年8月)の追加建築","prefecture":"東京","contractor":"中島建設","structural_designer":"","landscape_designer":"","shinkenchiku_url":""},{"id":7709,"title":"ラブレイク","architect":"大建設計株式会社","year":2018.0,"address":"岐阜県山県市25","latitude":35.56692886352539,"longitude":136.70025634765625,"category":"レストラン","big_category":"商業施設","description":"","image_url":"","tags":"Ver2.60(2018年8月)の追加建築","prefecture":"岐阜","contractor":"","structural_designer":"","landscape_designer":"","shinkenchiku_url":""},{"id":7710,"title":"たんどーる","architect":"大建設計株式会社","year":2015.0,"address":"岐阜県美濃加茂市あじさいヶ丘1-7","latitude":35.4580192565918,"longitude":137.0025634765625,"category":"店舗","big_category":"商業施設","description":"","image_url":"","tags":"Ver2.60(2018年8月)の追加建築","prefecture":"岐阜","contractor":"","structural_designer":"","landscape_designer":"","shinkenchiku_url":""},{"id":7711,"title":"rustico2","architect":"大建設計株式会社+大建met","year":2015.0,"address":"岐阜県岐阜市薮田南4-4-6-10","latitude":35.3889274597168,"longitude":136.71900939941406,"category":"カフェ","big_category":"商業施設","description":"","image_url":"","tags":"Ver2.60(2018年8月)の追加建築","prefecture":"岐阜","contractor":"","structural_designer":"","landscape_designer":"","shinkenchiku_url":""},{"id":7712,"title":"フェザーミュージアム","architect":"大建設計株式会社","year":2016.0,"address":"岐阜県関市日ノ出町1-17","latitude":35.483551025390625,"longitude":136.91513061523438,"category":"博物館","big_category":"ミュージアム","description":"","image_url":"","tags":"Ver2.60(2018年8月)の追加建築","prefecture":"岐阜","contractor":"","structural_designer":"","landscape_designer":"","shinkenchiku_url":""},{"id":7713,"title":"道の駅 パレットピアおおの","architect":"大建設計株式会社","year":2018.0,"address":"岐阜県揖斐郡大野町大字下磯313-2","latitude":35.43195724487305,"longitude":136.62930297851562,"category":"PA・道の駅","big_category":"インフラ","description":"","image_url":"","tags":"Ver2.60(2018年8月)の追加建築","prefecture":"岐阜","contractor":"","structural_designer":"","landscape_designer":"","shinkenchiku_url":""},{"id":7714,"title":"鵜沼市民サービスセンター","architect":"大建設計株式会社","year":2017.0,"address":"岐阜県各務原市鵜沼羽場町2-53","latitude":35.40535354614258,"longitude":136.92190551757812,"category":"庁舎/公共施設","big_category":"公共施設,公共施設","description":"","image_url":"","tags":"Ver2.60(2018年8月)の追加建築","prefecture":"岐阜","contractor":"","structural_designer":"","landscape_designer":"","shinkenchiku_url":""},{"id":7715,"title":"揖斐川町徳山会館","architect":"大建設計株式会社","year":2006.0,"address":"岐阜県揖斐郡揖斐川町開田280-1","latitude":35.69139099121094,"longitude":136.48509216308594,"category":"レストラン/その他宿泊施設","big_category":"商業施設,宿泊","description":"","image_url":"","tags":"Ver2.60(2018年8月)の追加建築","prefecture":"岐阜","contractor":"","structural_designer":"","landscape_designer":"","shinkenchiku_url":""},{"id":7716,"title":"揖斐川町地域交流センター","architect":"大建設計株式会社","year":2015.0,"address":"岐阜県揖斐郡揖斐川町上南方27-7","latitude":35.490997314453125,"longitude":136.5666046142578,"category":"公民館・交流施設","big_category":"公共施設","description":"","image_url":"","tags":"Ver2.60(2018年8月)の追加建築","prefecture":"岐阜","contractor":"","structural_designer":"","landscape_designer":"","shinkenchiku_url":""},{"id":7717,"title":"長良川うかいミュージアム","architect":"大建設計株式会社","year":2012.0,"address":"岐阜県岐阜市長良51-2","latitude":35.441097259521484,"longitude":136.77877807617188,"category":"博物館","big_category":"ミュージアム","description":"","image_url":"","tags":"Ver2.60(2018年8月)の追加建築","prefecture":"岐阜","contractor":"","structural_designer":"","landscape_designer":"","shinkenchiku_url":""},{"id":7718,"title":"子どもげんきはうす","architect":"大建設計株式会社","year":2002.0,"address":"岐阜県山県市東深瀬17-1","latitude":35.508567810058594,"longitude":136.78857421875,"category":"児童施設","big_category":"教育","description":"","image_url":"","tags":"Ver2.60(2018年8月)の追加建築","prefecture":"岐阜","contractor":"寺町建設","structural_designer":"","landscape_designer":"","shinkenchiku_url":""},{"id":7719,"title":"岐阜市立女子短期大学","architect":"大建設計株式会社","year":2000.0,"address":"岐阜県岐阜市一日市場北町7-1","latitude":35.42599868774414,"longitude":136.7168731689453,"category":"大学","big_category":"教育","description":"","image_url":"","tags":"Ver2.60(2018年8月)の追加建築","prefecture":"岐阜","contractor":"","structural_designer":"","landscape_designer":"","shinkenchiku_url":""},{"id":7720,"title":"岐阜県交響楽団練習場","architect":"大建設計株式会社","year":1998.0,"address":"岐阜県岐阜市芥見南山3-7-10","latitude":35.45493698120117,"longitude":136.86363220214844,"category":"ホール・劇場","big_category":"文化施設","description":"","image_url":"","tags":"Ver2.60(2018年8月)の追加建築","prefecture":"岐阜","contractor":"雛屋建設社","structural_designer":"","landscape_designer":"","shinkenchiku_url":""},{"id":7721,"title":"港区高輪子ども中高生プラザ","architect":"遠藤政樹+石原健也","year":2011.0,"address":"東京都港区高輪1-4-35","latitude":35.642364501953125,"longitude":139.73483276367188,"category":"児童施設/図書館","big_category":"教育,文化施設","description":"","image_url":"","tags":"Ver2.60(2018年8月)の追加建築","prefecture":"東京","contractor":"","structural_designer":"","landscape_designer":"","shinkenchiku_url":""},{"id":7722,"title":"港区伊皿子坂保育園","architect":"遠藤政樹","year":2013.0,"address":"東京都港区三田4-19-30","latitude":35.64033889770508,"longitude":139.73880004882812,"category":"幼稚園","big_category":"教育","description":"","image_url":"","tags":"Ver2.60(2018年8月)の追加建築,新建築2014年6月号","prefecture":"東京","contractor":"りんかい日産・進和建設共同企業体","structural_designer":"江尻建築構造設計事務所","landscape_designer":"","shinkenchiku_url":"https://data.shinkenchiku.online/articles/SK_2014_06_134-0"},{"id":7723,"title":"Un.C. - Under Construction - ザ・パークレックス日本橋馬喰町","architect":"馬場正尊","year":1986.0,"address":"東京都中央区日本橋馬喰町2-7-15","latitude":35.696292877197266,"longitude":139.7830352783203,"category":"オフィスビル/店舗","big_category":"企業施設,商業施設","description":"2018年に馬場正尊/Open Aにより改修","image_url":"","tags":"Ver2.60(2018年8月)の追加建築,新建築2018年7月号","prefecture":"東京","contractor":"三和建設+モダンアパートメント","structural_designer":"","landscape_designer":"","shinkenchiku_url":""},{"id":7724,"title":"御殿場市庁舎","architect":"岡建築設計事務所","year":1972.0,"address":"静岡県御殿場市萩原483","latitude":35.30867004394531,"longitude":138.93484497070312,"category":"庁舎","big_category":"公共施設","description":"","image_url":"","tags":"Ver2.60(2018年8月)の追加建築","prefecture":"静岡","contractor":"","structural_designer":"","landscape_designer":"","shinkenchiku_url":""},{"id":7725,"title":"御殿場市民会館","architect":"桂建築設計事務所","year":1978.0,"address":"静岡県御殿場市萩原183-1","latitude":35.31004333496094,"longitude":138.93116760253906,"category":"ホール・劇場","big_category":"文化施設","description":"","image_url":"","tags":"Ver2.60(2018年8月)の追加建築","prefecture":"静岡","contractor":"","structural_designer":"","landscape_designer":"","shinkenchiku_url":""},{"id":7726,"title":"ファーマーズ御殿場","architect":"馬場兼伸","year":2018.0,"address":"静岡県御殿場市茱萸沢5","latitude":35.30872344970703,"longitude":138.92613220214844,"category":"PA・道の駅","big_category":"インフラ","description":"","image_url":"","tags":"Ver2.60(2018年8月)の追加建築,新建築2019年3月号","prefecture":"静岡","contractor":"","structural_designer":"","landscape_designer":"","shinkenchiku_url":""},{"id":7727,"title":"鳴子ホテル 青葉館","architect":"武基雄","year":1964.0,"address":"宮城県大崎市鳴子温泉湯元36","latitude":38.741241455078125,"longitude":140.71652221679688,"category":"ホテル/旅館","big_category":"宿泊,宿泊","description":"","image_url":"","tags":"Ver2.60(2018年8月)の追加建築","prefecture":"宮城","contractor":"","structural_designer":"","landscape_designer":"","shinkenchiku_url":""},{"id":7728,"title":"褶曲の回廊 酒乃矢稀八","architect":"五十嵐淳","year":2018.0,"address":"北海道北見市寿町5-8-13","latitude":43.8108024597168,"longitude":143.87657165527344,"category":"店舗/住宅","big_category":"商業施設,住宅","description":"","image_url":"","tags":"Ver2.60(2018年8月)の追加建築","prefecture":"北海道","contractor":"","structural_designer":"","landscape_designer":"","shinkenchiku_url":""},{"id":7729,"title":"HONMACHI93 旧住井歯科医院","architect":"ウィリアム・メレル・ヴォーリズ","year":1930.0,"address":"滋賀県東近江市八日市本町7-6","latitude":35.113285064697266,"longitude":136.19618225097656,"category":"店舗/カフェ","big_category":"商業施設,商業施設","description":"","image_url":"","tags":"Ver2.60(2018年8月)の追加建築","prefecture":"滋賀","contractor":"","structural_designer":"","landscape_designer":"","shinkenchiku_url":""},{"id":7730,"title":"和歌山大学 松下会館","architect":"渡辺節","year":1961.0,"address":"和歌山県和歌山市西高松1-7-20","latitude":34.207210540771484,"longitude":135.17030334472656,"category":"大学","big_category":"教育","description":"","image_url":"","tags":"Ver2.60(2018年8月)の追加建築,DOCOMOMO","prefecture":"和歌山","contractor":"","structural_designer":"","landscape_designer":"","shinkenchiku_url":""},{"id":7731,"title":"Clinic NK いろどり歯科・こども歯科室","architect":"1-1 Architects","year":2018.0,"address":"愛知県愛西市諏訪町中杁294-1","latitude":35.189483642578125,"longitude":136.74122619628906,"category":"個人医院","big_category":"医療施設","description":"","image_url":"","tags":"Ver2.60(2018年8月)の追加建築","prefecture":"愛知","contractor":"丸長ホーム","structural_designer":"","landscape_designer":"","shinkenchiku_url":""},{"id":7732,"title":"畑の下のラボラトリー IROHA village","architect":"中村拓志","year":2017.0,"address":"広島県広島市佐伯区五日市港2-1-1 ","latitude":34.357078552246094,"longitude":132.36648559570312,"category":"店舗/カフェ","big_category":"商業施設,商業施設","description":"","image_url":"","tags":"Ver2.60(2018年8月)の追加建築,新建築2018年9月号","prefecture":"広島","contractor":"","structural_designer":"","landscape_designer":"","shinkenchiku_url":""},{"id":7733,"title":"駒澤大学 禅文化歴史博物館 旧図書館 耕雲館","architect":"菅原栄蔵","year":1928.0,"address":"東京都世田谷区駒沢1-23-1","latitude":35.62883758544922,"longitude":139.65798950195312,"category":"大学/博物館","big_category":"教育,ミュージアム","description":"","image_url":"","tags":"Ver2.60(2018年8月)の追加建築","prefecture":"東京","contractor":"","structural_designer":"","landscape_designer":"","shinkenchiku_url":""},{"id":7734,"title":"レストランよこかわ","architect":"増沢洵","year":1971.0,"address":"茨城県水戸市大町2-3-22","latitude":36.378074645996094,"longitude":140.47056579589844,"category":"レストラン","big_category":"商業施設","description":"","image_url":"","tags":"Ver2.60(2018年8月)の追加建築","prefecture":"茨城","contractor":"","structural_designer":"","landscape_designer":"","shinkenchiku_url":""},{"id":7735,"title":"扇湖山荘 旧長尾欽弥鎌倉別邸","architect":"大江新太郎","year":1934.0,"address":"神奈川県鎌倉市鎌倉山1-21-1","latitude":35.3157844543457,"longitude":139.52447509765625,"category":"洋館","big_category":"近代建築/遺産","description":"春と秋、年に2回、それぞれ2日間だけ公開","image_url":"","tags":"Ver2.60(2018年8月)の追加建築","prefecture":"神奈川","contractor":"","structural_designer":"","landscape_designer":"","shinkenchiku_url":""},{"id":7736,"title":"名鉄バスターミナルビル","architect":"谷口吉郎","year":1967.0,"address":"愛知県名古屋市中村区名駅1-2-4","latitude":35.16863250732422,"longitude":136.8844451904297,"category":"駅","big_category":"インフラ","description":"","image_url":"","tags":"Ver2.60(2018年8月)の追加建築","prefecture":"愛知","contractor":"","structural_designer":"","landscape_designer":"","shinkenchiku_url":""},{"id":7737,"title":"日本福音ルーテル復活教会","architect":"ウィリアム・メレル・ヴォーリズ","year":1953.0,"address":"愛知県名古屋市東区徳川町2303","latitude":35.186100006103516,"longitude":136.93214416503906,"category":"教会","big_category":"宗教","description":"","image_url":"","tags":"Ver2.60(2018年8月)の追加建築,登録有形文化財","prefecture":"愛知","contractor":"","structural_designer":"","landscape_designer":"","shinkenchiku_url":""},{"id":7738,"title":"日本福音ルーテルなごや希望教会","architect":"ウィリアム・メレル・ヴォーリズ","year":1948.0,"address":"愛知県名古屋市千種区今池3-5-19","latitude":35.166622161865234,"longitude":136.9355010986328,"category":"教会","big_category":"宗教","description":"取壊済","image_url":"","tags":"Ver2.60(2018年8月)の追加建築","prefecture":"愛知","contractor":"","structural_designer":"","landscape_designer":"","shinkenchiku_url":""},{"id":7739,"title":"旧春田鉄次郎邸","architect":"武田五一","year":1924.0,"address":"愛知県名古屋市東区主税町3-8","latitude":35.18134307861328,"longitude":136.91574096679688,"category":"洋館","big_category":"近代建築/遺産","description":"","image_url":"","tags":"Ver2.60(2018年8月)の追加建築","prefecture":"愛知","contractor":"","structural_designer":"","landscape_designer":"","shinkenchiku_url":""},{"id":7740,"title":"仏生山天満屋サンド","architect":"岡昇平","year":2014.0,"address":"香川県高松市仏生山町甲542","latitude":34.280189514160156,"longitude":134.04776000976562,"category":"店舗","big_category":"商業施設","description":"","image_url":"","tags":"Ver2.60(2018年8月)の追加建築","prefecture":"香川","contractor":"","structural_designer":"","landscape_designer":"","shinkenchiku_url":""},{"id":7741,"title":"空浮ストロベリーガーデン 選果場","architect":"岡昇平","year":2015.0,"address":"香川県東かがわ市馬篠 空浮ストロベリーガーデン","latitude":34.272247314453125,"longitude":134.2923583984375,"category":"店舗","big_category":"商業施設","description":"","image_url":"","tags":"Ver2.60(2018年8月)の追加建築","prefecture":"香川","contractor":"","structural_designer":"","landscape_designer":"","shinkenchiku_url":""},{"id":7742,"title":"まるざ発芽玄米研究所","architect":"岡昇平","year":2015.0,"address":"香川県高松市牟礼町牟礼2310-41","latitude":34.341304779052734,"longitude":134.1222381591797,"category":"店舗","big_category":"商業施設","description":"リノベーション","image_url":"","tags":"Ver2.60(2018年8月)の追加建築","prefecture":"香川","contractor":"","structural_designer":"","landscape_designer":"","shinkenchiku_url":""},{"id":7743,"title":"四国食べる商店","architect":"岡昇平","year":2015.0,"address":"香川県高松市出作町347-5","latitude":34.283363342285156,"longitude":134.050048828125,"category":"店舗","big_category":"商業施設","description":"リノベーション","image_url":"","tags":"Ver2.60(2018年8月)の追加建築","prefecture":"香川","contractor":"","structural_designer":"","landscape_designer":"","shinkenchiku_url":""},{"id":7744,"title":"東淵寺","architect":"山下司","year":1971.0,"address":"東京都台東区池之端2-4-25","latitude":35.713722229003906,"longitude":139.7659149169922,"category":"寺院","big_category":"宗教","description":"","image_url":"","tags":"Ver2.60(2018年8月)の追加建築","prefecture":"東京","contractor":"","structural_designer":"","landscape_designer":"","shinkenchiku_url":""},{"id":7745,"title":"Blue Moon cafe & market","architect":"坂野由典","year":2016.0,"address":"栃木県那須塩原市井口554","latitude":36.91667175292969,"longitude":139.97113037109375,"category":"カフェ","big_category":"商業施設","description":"","image_url":"","tags":"Ver2.60(2018年8月)の追加建築","prefecture":"栃木","contractor":"","structural_designer":"","landscape_designer":"","shinkenchiku_url":""},{"id":7746,"title":"Felix88","architect":"坂野由典","year":2018.0,"address":"山口県下松市望町4-5-15","latitude":34.02811813354492,"longitude":131.85594177246094,"category":"モール/店舗","big_category":"商業施設,商業施設","description":"","image_url":"","tags":"Ver2.60(2018年8月)の追加建築","prefecture":"山口","contractor":"","structural_designer":"","landscape_designer":"","shinkenchiku_url":""},{"id":7747,"title":"妙光寺","architect":"横山公男","year":1964.0,"address":"東京都品川区西品川1-6","latitude":35.61356735229492,"longitude":139.73052978515625,"category":"寺院","big_category":"宗教","description":"","image_url":"","tags":"Ver2.60(2018年8月)の追加建築","prefecture":"東京","contractor":"","structural_designer":"","landscape_designer":"","shinkenchiku_url":""},{"id":7748,"title":"大阪市立大学 学生サポートセンター 旧大阪商科大学 図書館","architect":"伊藤正文","year":1934.0,"address":"大阪府大阪市住吉区杉本3-3-138","latitude":34.591487884521484,"longitude":135.50579833984375,"category":"大学","big_category":"教育","description":"","image_url":"","tags":"Ver2.60(2018年8月)の追加建築","prefecture":"大阪","contractor":"","structural_designer":"","landscape_designer":"","shinkenchiku_url":""},{"id":7749,"title":"大阪市立大学 1号館 旧大阪商科大学 本館","architect":"伊藤正文","year":1934.0,"address":"大阪府大阪市住吉区杉本3-3-138","latitude":34.5906867980957,"longitude":135.50506591796875,"category":"大学","big_category":"教育","description":"","image_url":"","tags":"Ver2.60(2018年8月)の追加建築","prefecture":"大阪","contractor":"","structural_designer":"","landscape_designer":"","shinkenchiku_url":""},{"id":7750,"title":"大阪市立大学 2号館 旧大阪商科大学 予備校舎","architect":"伊藤正文","year":1933.0,"address":"大阪府大阪市住吉区杉本3-3-138","latitude":34.59246063232422,"longitude":135.5075225830078,"category":"大学","big_category":"教育","description":"","image_url":"","tags":"Ver2.60(2018年8月)の追加建築","prefecture":"大阪","contractor":"","structural_designer":"","landscape_designer":"","shinkenchiku_url":""}]}