{"page":272,"total_pages":290,"items_per_page":50,"total_items":14467,"items":[{"id":13551,"title":"さとローグ","architect":"堀部安嗣+伊藤嘉記","year":2024.0,"address":"東京都西多摩郡奥多摩町棚澤","latitude":35.81537628173828,"longitude":139.14210510253906,"category":"ホテル/レストラン","big_category":"宿泊,商業施設","description":"レストラン棟は築100年以上の木造民家、サウナはコンクリート造の倉庫を改修。宿泊棟は新築、2025年春オープン予定。","image_url":"","tags":"Ver5.40(2024年7月)の追加建築","prefecture":"東京","contractor":"","structural_designer":"","landscape_designer":"空庭","shinkenchiku_url":""},{"id":13552,"title":"nido新御徒町","architect":"小山光","year":2024.0,"address":"東京都台東区小島2-6-10","latitude":35.70541763305664,"longitude":139.78294372558594,"category":"集合住宅","big_category":"住宅","description":"","image_url":"","tags":"Ver5.40(2024年7月)の追加建築","prefecture":"東京","contractor":"","structural_designer":"","landscape_designer":"","shinkenchiku_url":""},{"id":13553,"title":"グラングリーン大阪 北街区賃貸棟","architect":"日建設計+三菱地所+竹中工務店","year":2024.0,"address":"大阪府大阪市北区大深町1","latitude":34.706016540527344,"longitude":135.49319458007812,"category":"複合ビル/ホテル","big_category":"企業施設,宿泊","description":"2024年9月先行まちびらきオープン予定","image_url":"","tags":"Ver5.40(2024年7月)の追加建築,新建築2024年11月号","prefecture":"大阪","contractor":"竹中工務店+大林組","structural_designer":"","landscape_designer":"","shinkenchiku_url":""},{"id":13554,"title":"グラングリーン大阪 北街区分譲棟 THE NORTH RESIDENCE","architect":"日建設計+三菱地所+日建ハウジングシステム+竹中工務店","year":2027.0,"address":"大阪府大阪市北区大深町1","latitude":34.706974029541016,"longitude":135.4929656982422,"category":"集合住宅","big_category":"住宅","description":"2027年度全体まちびらき予定","image_url":"","tags":"Ver5.40(2024年7月)の追加建築,新建築2024年11月号","prefecture":"大阪","contractor":"竹中工務店+大林組","structural_designer":"","landscape_designer":"","shinkenchiku_url":""},{"id":13555,"title":"グラングリーン大阪 南街区賃貸棟","architect":"日建設計+三菱地所+竹中工務店+大林組","year":2025.0,"address":"大阪府大阪市北区大深町2","latitude":34.70287322998047,"longitude":135.49166870117188,"category":"複合ビル/ホテル","big_category":"企業施設,宿泊","description":"2025年春全面開業予定","image_url":"","tags":"Ver5.40(2024年7月)の追加建築,新建築2024年11月号","prefecture":"大阪","contractor":"竹中工務店+大林組","structural_designer":"","landscape_designer":"","shinkenchiku_url":""},{"id":13556,"title":"グラングリーン大阪 南街区分譲棟","architect":"不明","year":2027.0,"address":"大阪府大阪市北区大深町2","latitude":34.70203399658203,"longitude":135.49134826660156,"category":"集合住宅","big_category":"住宅","description":"2027年度全体まちびらき予定","image_url":"","tags":"Ver5.40(2024年7月)の追加建築,新建築2024年11月号","prefecture":"大阪","contractor":"竹中工務店+大林組","structural_designer":"","landscape_designer":"","shinkenchiku_url":""},{"id":13557,"title":"うめきた公園 ネクストイノベーションミュージアム","architect":"日建設計+安藤忠雄","year":2024.0,"address":"大阪府大阪市北区大深町1","latitude":34.70521926879883,"longitude":135.49331665039062,"category":"博物館","big_category":"ミュージアム","description":"設計監修：安藤忠雄 2024年9月先行まちびらきオープン予定","image_url":"","tags":"Ver5.40(2024年7月)の追加建築,新建築2024年11月号","prefecture":"大阪","contractor":"竹中工務店+大林組","structural_designer":"","landscape_designer":"","shinkenchiku_url":""},{"id":13558,"title":"うめきた公園 大屋根施設","architect":"SANAA","year":2024.0,"address":"大阪府大阪市北区大深町2","latitude":34.70335388183594,"longitude":135.4934539794922,"category":"公園","big_category":"レジャー施設","description":"2024年9月先行まちびらきオープン予定","image_url":"","tags":"Ver5.40(2024年7月)の追加建築,新建築2024年11月号","prefecture":"大阪","contractor":"竹中工務店+大林組","structural_designer":"","landscape_designer":"","shinkenchiku_url":""},{"id":13559,"title":"ヴィラ・クゥクゥ","architect":"吉阪隆正","year":1957.0,"address":"東京都渋谷区西原3-44-9","latitude":35.67216873168945,"longitude":139.6778106689453,"category":"住宅","big_category":"住宅","description":"毎月9のつく日（9日・19日・29日）を一般公開日。要予約。解体の危機にあったが女優の鈴木京香が取得、改修していた","image_url":"","tags":"Ver5.40(2024年7月)の追加建築","prefecture":"東京","contractor":"","structural_designer":"","landscape_designer":"","shinkenchiku_url":""},{"id":13560,"title":"埼玉グランドホテル本庄","architect":"会田友朗+山本稜+長岡勉","year":2023.0,"address":"埼玉県本庄市駅南2-2-1","latitude":36.23539352416992,"longitude":139.18930053710938,"category":"ホテル","big_category":"宿泊","description":"ホテルの改修。デザイン監修：山本稜+長岡勉 建築改修設計：会田友朗","image_url":"","tags":"Ver5.40(2024年7月)の追加建築","prefecture":"埼玉","contractor":"SurfZion","structural_designer":"","landscape_designer":"","shinkenchiku_url":""},{"id":13561,"title":"京都大学 下鴨休影荘 旧湯川秀樹邸","architect":"安藤忠雄","year":2024.0,"address":"京都府京都市左京区下鴨泉川町6-5","latitude":35.036136627197266,"longitude":135.77418518066406,"category":"和風住宅/大学","big_category":"住宅,教育","description":"湯川秀樹博士旧宅を改修・増築。京大の迎賓館として今後活用","image_url":"","tags":"Ver5.40(2024年7月)の追加建築,新建築2024年9月号","prefecture":"京都","contractor":"長谷工コーポレーション","structural_designer":"","landscape_designer":"","shinkenchiku_url":""},{"id":13562,"title":"森ノ宮医療大学","architect":"永田・北野建築研究所","year":2007.0,"address":"大阪府大阪市住之江区南港北1-26","latitude":34.64141845703125,"longitude":135.41342163085938,"category":"大学/病院","big_category":"教育,医療施設","description":"西棟2011年に竣工","image_url":"","tags":"Ver5.40(2024年7月)の追加建築","prefecture":"大阪","contractor":"鴻池組+安藤建設","structural_designer":"","landscape_designer":"","shinkenchiku_url":""},{"id":13563,"title":"斜めの家","architect":"渡邊洋治","year":1976.0,"address":"新潟県上越市大豆2-2-18","latitude":37.15406799316406,"longitude":138.2232666015625,"category":"住宅","big_category":"住宅","description":"クラウドファンディングにより保存・改修。民泊施設として活用を予定","image_url":"","tags":"Ver5.40(2024年7月)の追加建築","prefecture":"新潟","contractor":"","structural_designer":"","landscape_designer":"","shinkenchiku_url":""},{"id":13564,"title":"旧春日部市役所","architect":"高橋武士","year":1970.0,"address":"埼玉県春日部市中央6-2","latitude":35.97530746459961,"longitude":139.75228881835938,"category":"庁舎","big_category":"公共施設","description":"新庁舎竣工により閉庁","image_url":"","tags":"Ver5.40(2024年7月)の追加建築","prefecture":"埼玉","contractor":"","structural_designer":"","landscape_designer":"","shinkenchiku_url":""},{"id":13565,"title":"春日部市役所 新庁舎","architect":"久米設計","year":2023.0,"address":"埼玉県春日部市中央7-2-1","latitude":35.974021911621094,"longitude":139.75497436523438,"category":"庁舎","big_category":"公共施設","description":"","image_url":"","tags":"Ver5.40(2024年7月)の追加建築","prefecture":"埼玉","contractor":"大林組・東武建設・正和工業","structural_designer":"","landscape_designer":"","shinkenchiku_url":""},{"id":13566,"title":"梶川建設新社屋","architect":"田村潤一郎+菅股篤+上島直樹","year":2023.0,"address":"愛知県碧南市尾城町2-51","latitude":34.890037536621094,"longitude":137.00799560546875,"category":"低層オフィス","big_category":"企業施設","description":"","image_url":"","tags":"Ver5.40(2024年7月)の追加建築","prefecture":"愛知","contractor":"梶川建設","structural_designer":"oha","landscape_designer":"","shinkenchiku_url":""},{"id":13567,"title":"イーグレひめじ","architect":"梓設計","year":2001.0,"address":"兵庫県姫路市本町68-290","latitude":34.83366394042969,"longitude":3925337856.0,"category":"公共施設/総合文化施設","big_category":"公共施設,文化施設","description":"","image_url":"","tags":"Ver5.40(2024年7月)の追加建築","prefecture":"兵庫","contractor":"西松建設","structural_designer":"","landscape_designer":"","shinkenchiku_url":""},{"id":13568,"title":"原町ラーズビル","architect":"木村丈夫","year":1994.0,"address":"東京都新宿区原町3-19","latitude":35.69990921020508,"longitude":139.72279357910156,"category":"オフィスビル/集合住宅","big_category":"企業施設,住宅","description":"","image_url":"","tags":"Ver5.40(2024年7月)の追加建築","prefecture":"東京","contractor":"","structural_designer":"","landscape_designer":"","shinkenchiku_url":""},{"id":13569,"title":"飯田橋Sticks 飯田橋リープレックス・ビズ","architect":"木村丈夫","year":1993.0,"address":"東京都新宿区新小川町1-14","latitude":35.70475387573242,"longitude":139.7436981201172,"category":"オフィスビル","big_category":"企業施設","description":"","image_url":"","tags":"Ver5.40(2024年7月)の追加建築","prefecture":"東京","contractor":"","structural_designer":"","landscape_designer":"","shinkenchiku_url":""},{"id":13570,"title":"パインヒルI","architect":"土浦亀城","year":1963.0,"address":"東京都渋谷区猿楽町17-18","latitude":35.64995193481445,"longitude":139.69903564453125,"category":"集合住宅","big_category":"住宅","description":"","image_url":"","tags":"Ver5.40(2024年7月)の追加建築","prefecture":"東京","contractor":"","structural_designer":"","landscape_designer":"","shinkenchiku_url":""},{"id":13571,"title":"名古屋市農業センターdelaふぁーむ","architect":"goboc設計事務所+西田拓馬","year":2024.0,"address":"愛知県名古屋市天白区天白町大字平針黒石2872-3","latitude":35.113739013671875,"longitude":137.01243591308594,"category":"公園","big_category":"レジャー施設","description":"","image_url":"","tags":"Ver5.40(2024年7月)の追加建築","prefecture":"愛知","contractor":"井上工務店","structural_designer":"","landscape_designer":"","shinkenchiku_url":""},{"id":13572,"title":"コードマーク御代田","architect":"会田友朗","year":2022.0,"address":"長野県北佐久郡御代田町面替995","latitude":36.296451568603516,"longitude":138.52066040039062,"category":"低層オフィス","big_category":"企業施設","description":"","image_url":"","tags":"Ver5.40(2024年7月)の追加建築","prefecture":"長野","contractor":"堀内組","structural_designer":"坂田涼太郎構造設計事務所","landscape_designer":"","shinkenchiku_url":""},{"id":13573,"title":"MOTOAZABU1112","architect":"磯崎新","year":1979.0,"address":"東京都港区元麻布1-1-12","latitude":35.65519332885742,"longitude":139.7325897216797,"category":"住宅/低層オフィス","big_category":"住宅,企業施設","description":"","image_url":"","tags":"Ver5.40(2024年7月)の追加建築","prefecture":"東京","contractor":"","structural_designer":"","landscape_designer":"","shinkenchiku_url":""},{"id":13574,"title":"赤坂グリーンクロス","architect":"日建設計","year":2024.0,"address":"東京都港区赤坂2-4-5","latitude":35.67189407348633,"longitude":139.74081420898438,"category":"オフィスビル","big_category":"企業施設","description":"","image_url":"","tags":"Ver5.40(2024年7月)の追加建築","prefecture":"東京","contractor":"大林・錢高・岩田地崎建設共同企業体","structural_designer":"","landscape_designer":"","shinkenchiku_url":""},{"id":13575,"title":"総社吉備路文化館 旧岡山県立吉備路郷土館","architect":"藤島亥治郎","year":1975.0,"address":"岡山県総社市上林1252","latitude":34.6689338684082,"longitude":133.78721618652344,"category":"博物館","big_category":"ミュージアム","description":"","image_url":"","tags":"Ver5.40(2024年7月)の追加建築","prefecture":"岡山","contractor":"","structural_designer":"","landscape_designer":"","shinkenchiku_url":""},{"id":13576,"title":"旧新見市民会館","architect":"K構造研究所","year":1965.0,"address":"岡山県新見市新見1223","latitude":34.984336853027344,"longitude":133.46974182128906,"category":"ホール・劇場","big_category":"文化施設","description":"閉館済み","image_url":"","tags":"Ver5.40(2024年7月)の追加建築","prefecture":"岡山","contractor":"","structural_designer":"","landscape_designer":"","shinkenchiku_url":""},{"id":13577,"title":"新見市庁舎","architect":"K構造研究所","year":1961.0,"address":"岡山県新見市新見310-3","latitude":34.97705078125,"longitude":133.4702911376953,"category":"庁舎","big_category":"公共施設","description":"","image_url":"","tags":"Ver5.40(2024年7月)の追加建築","prefecture":"岡山","contractor":"","structural_designer":"","landscape_designer":"","shinkenchiku_url":""},{"id":13578,"title":"玉野市役所本庁舎","architect":"K構造研究所","year":1966.0,"address":"岡山県玉野市宇野1-27-1","latitude":34.491939544677734,"longitude":133.94598388671875,"category":"庁舎","big_category":"公共施設","description":"","image_url":"","tags":"Ver5.40(2024年7月)の追加建築","prefecture":"岡山","contractor":"前田建設工業","structural_designer":"","landscape_designer":"","shinkenchiku_url":""},{"id":13579,"title":"井原市民会館","architect":"村山衛弘","year":1971.0,"address":"岡山県井原市井原町311-1","latitude":34.59808349609375,"longitude":133.4644317626953,"category":"ホール・劇場","big_category":"文化施設","description":"","image_url":"","tags":"Ver5.40(2024年7月)の追加建築","prefecture":"岡山","contractor":"松本組","structural_designer":"","landscape_designer":"","shinkenchiku_url":""},{"id":13580,"title":"横浜市金沢区新総合庁舎","architect":"国設計","year":2016.0,"address":"神奈川県横浜市金沢区泥亀2-9-1","latitude":35.338016510009766,"longitude":139.6244659423828,"category":"庁舎","big_category":"公共施設","description":"","image_url":"","tags":"Ver5.40(2024年7月)の追加建築","prefecture":"神奈川","contractor":"松尾・小俣・大洋建設共同企業体","structural_designer":"","landscape_designer":"","shinkenchiku_url":""},{"id":13581,"title":"横浜BUNTAI","architect":"梓設計+アーキボックス+大成建設","year":2024.0,"address":"神奈川県横浜市中区不老町2-7-1","latitude":35.44092559814453,"longitude":139.63653564453125,"category":"体育館","big_category":"レジャー施設","description":"","image_url":"","tags":"Ver5.40(2024年7月)の追加建築","prefecture":"神奈川","contractor":"大成建設・渡辺組建設共同企業体","structural_designer":"","landscape_designer":"","shinkenchiku_url":""},{"id":13582,"title":"横浜武道館","architect":"梓設計","year":2020.0,"address":"神奈川県横浜市中区翁町2-9-10","latitude":35.439762115478516,"longitude":6402134016.0,"category":"体育館","big_category":"レジャー施設","description":"","image_url":"","tags":"Ver5.40(2024年7月)の追加建築","prefecture":"神奈川","contractor":"","structural_designer":"","landscape_designer":"","shinkenchiku_url":""},{"id":13583,"title":"ゼロ・コスモロジー 高崎正治都市建築設計事務所","architect":"高崎正治","year":1991.0,"address":"鹿児島県鹿児島市鴨池1-42-22","latitude":31.565933227539062,"longitude":130.5463409423828,"category":"低層オフィス/住宅","big_category":"企業施設,住宅","description":"","image_url":"","tags":"Ver5.40(2024年7月)の追加建築","prefecture":"鹿児島","contractor":"春園組","structural_designer":"","landscape_designer":"","shinkenchiku_url":""},{"id":13584,"title":"鹿児島県総合体育センター 体育館","architect":"内藤建築事務所","year":1960.0,"address":"鹿児島県鹿児島市下荒田4-47-1","latitude":31.56662940979004,"longitude":130.5548858642578,"category":"体育館","big_category":"レジャー施設","description":"","image_url":"","tags":"Ver5.40(2024年7月)の追加建築","prefecture":"鹿児島","contractor":"鹿島建設","structural_designer":"","landscape_designer":"","shinkenchiku_url":""},{"id":13585,"title":"鹿児島県青少年研修センター","architect":"豊建築事務所+斗建築事務所+AOI美建","year":1971.0,"address":"鹿児島県鹿児島市宮之浦町4226-1","latitude":31.692258834838867,"longitude":130.57113647460938,"category":"研修施設/児童施設","big_category":"教育,教育","description":"","image_url":"","tags":"Ver5.40(2024年7月)の追加建築","prefecture":"鹿児島","contractor":"山岡建設+三恭建築+明進組+高倉建設","structural_designer":"","landscape_designer":"","shinkenchiku_url":""},{"id":13586,"title":"カトリック種子島教会聖堂","architect":"鮫島建築設計事務所","year":1975.0,"address":"鹿児島県西之表市西之表6877","latitude":30.736909866333008,"longitude":130.99212646484375,"category":"教会","big_category":"宗教","description":"","image_url":"","tags":"Ver5.40(2024年7月)の追加建築","prefecture":"鹿児島","contractor":"久永建設","structural_designer":"","landscape_designer":"","shinkenchiku_url":""},{"id":13587,"title":"道の駅 遣唐使ふるさと館","architect":"松井宏方","year":1987.0,"address":"長崎県五島市三井楽町濱ノ畔3150-1","latitude":32.738258361816406,"longitude":128.69024658203125,"category":"PA・道の駅","big_category":"インフラ","description":"","image_url":"","tags":"Ver5.40(2024年7月)の追加建築","prefecture":"長崎","contractor":"","structural_designer":"","landscape_designer":"","shinkenchiku_url":""},{"id":13588,"title":"トリアーデ妙円寺","architect":"松井宏方+東条設計","year":1996.0,"address":"鹿児島県日置市伊集院町妙円寺3-53-23","latitude":31.647695541381836,"longitude":130.3977508544922,"category":"集合住宅","big_category":"住宅","description":"","image_url":"","tags":"Ver5.40(2024年7月)の追加建築","prefecture":"鹿児島","contractor":"","structural_designer":"","landscape_designer":"","shinkenchiku_url":""},{"id":13589,"title":"早島町歴史民俗資料館","architect":"矢吹昭良","year":1977.0,"address":"岡山県都窪郡早島町前潟237","latitude":34.59935760498047,"longitude":133.82669067382812,"category":"博物館","big_category":"ミュージアム","description":"","image_url":"","tags":"Ver5.40(2024年7月)の追加建築","prefecture":"岡山","contractor":"両備住宅","structural_designer":"","landscape_designer":"","shinkenchiku_url":""},{"id":13590,"title":"勝山木材ふれあい会館","architect":"早川正夫","year":1987.0,"address":"岡山県真庭市三田131","latitude":35.08060836791992,"longitude":133.68931579589844,"category":"組合施設","big_category":"公共施設","description":"","image_url":"","tags":"Ver5.40(2024年7月)の追加建築","prefecture":"岡山","contractor":"まつもとコーポレーション","structural_designer":"遠山一級建築士事務所","landscape_designer":"","shinkenchiku_url":""},{"id":13591,"title":"あちの郷","architect":"大角雄三","year":1989.0,"address":"岡山県倉敷市本町3-12","latitude":34.59608840942383,"longitude":133.7723846435547,"category":"料亭/古民家","big_category":"商業施設,近代建築/遺産","description":"","image_url":"","tags":"Ver5.40(2024年7月)の追加建築","prefecture":"岡山","contractor":"藤木工務店","structural_designer":"","landscape_designer":"","shinkenchiku_url":""},{"id":13592,"title":"ベネッセ・コーポレーション本社ビル","architect":"日建設計","year":1990.0,"address":"岡山県岡山市北区南方3-7-17","latitude":34.67546463012695,"longitude":133.92591857910156,"category":"オフィスビル","big_category":"企業施設","description":"","image_url":"","tags":"Ver5.40(2024年7月)の追加建築","prefecture":"岡山","contractor":"鹿島建設・大本組共同企業体","structural_designer":"","landscape_designer":"","shinkenchiku_url":""},{"id":13593,"title":"児島聖約キリスト教会","architect":"一粒社ヴォーリズ建築事務所","year":1994.0,"address":"岡山県倉敷市児島味野5-4-21","latitude":34.466487884521484,"longitude":133.79722595214844,"category":"教会","big_category":"宗教","description":"","image_url":"","tags":"Ver5.40(2024年7月)の追加建築","prefecture":"岡山","contractor":"藤木工務店","structural_designer":"","landscape_designer":"","shinkenchiku_url":""},{"id":13594,"title":"香川県立石田高等学校","architect":"大江宏","year":1961.0,"address":"香川県さぬき市寒川町石田東甲1065","latitude":34.26298522949219,"longitude":134.2110137939453,"category":"学校","big_category":"教育","description":"","image_url":"","tags":"Ver5.40(2024年7月)の追加建築","prefecture":"香川","contractor":"寒川工務店","structural_designer":"","landscape_designer":"","shinkenchiku_url":""},{"id":13595,"title":"さぬき市役所大川支所","architect":"富岡建築研究所","year":1964.0,"address":"香川県さぬき市大川町富田中2109","latitude":34.26409912109375,"longitude":134.23614501953125,"category":"庁舎","big_category":"公共施設","description":"","image_url":"","tags":"Ver5.40(2024年7月)の追加建築","prefecture":"香川","contractor":"寒川工務店","structural_designer":"","landscape_designer":"","shinkenchiku_url":""},{"id":13596,"title":"JA香川県 下笠居支店","architect":"富岡建築研究所","year":1966.0,"address":"香川県高松市生島町346","latitude":34.35871887207031,"longitude":133.96815490722656,"category":"組合施設","big_category":"公共施設","description":"","image_url":"","tags":"Ver5.40(2024年7月)の追加建築","prefecture":"香川","contractor":"合田工務店","structural_designer":"","landscape_designer":"","shinkenchiku_url":""},{"id":13597,"title":"高松信用金庫本店","architect":"石本建築事務所+田中二郎","year":1968.0,"address":"香川県高松市瓦町1-9-2","latitude":34.34132766723633,"longitude":134.0510711669922,"category":"金融機関","big_category":"企業施設","description":"","image_url":"","tags":"Ver5.40(2024年7月)の追加建築","prefecture":"香川","contractor":"竹中工務店","structural_designer":"","landscape_designer":"","shinkenchiku_url":""},{"id":13598,"title":"高松三越 本館","architect":"日建設計","year":1968.0,"address":"香川県高松市内町7-1","latitude":34.346435546875,"longitude":134.05104064941406,"category":"モール","big_category":"商業施設","description":"","image_url":"","tags":"Ver5.40(2024年7月)の追加建築","prefecture":"香川","contractor":"大成建設","structural_designer":"","landscape_designer":"","shinkenchiku_url":""},{"id":13599,"title":"中野天満神社","architect":"富岡建築研究所","year":1969.0,"address":"香川県高松市番町5-1-18","latitude":34.33845901489258,"longitude":134.04367065429688,"category":"寺院","big_category":"宗教","description":"","image_url":"","tags":"Ver5.40(2024年7月)の追加建築","prefecture":"香川","contractor":"河辺建設工業","structural_designer":"","landscape_designer":"","shinkenchiku_url":""},{"id":13600,"title":"ライオンエンジニアリング 坂出事務所","architect":"出江寛","year":1979.0,"address":"香川県坂出市番の州町22-1","latitude":34.35097885131836,"longitude":133.85760498046875,"category":"低層オフィス","big_category":"企業施設","description":"","image_url":"","tags":"Ver5.40(2024年7月)の追加建築","prefecture":"香川","contractor":"高岸工務店","structural_designer":"","landscape_designer":"","shinkenchiku_url":""}]}