{"page":73,"total_pages":290,"items_per_page":50,"total_items":14467,"items":[{"id":3601,"title":"副島病院","architect":"手塚建築研究所","year":1996.0,"address":"佐賀県佐賀市大財1-6-60","latitude":33.25682067871094,"longitude":130.3038787841797,"category":"病院","big_category":"医療施設","description":"","image_url":"","tags":"","prefecture":"佐賀","contractor":"","structural_designer":"","landscape_designer":"","shinkenchiku_url":""},{"id":3602,"title":"彫刻の森 ネットの森","architect":"手塚建築研究所","year":2009.0,"address":"神奈川県足柄下郡箱根町二ノ平1121","latitude":35.24359130859375,"longitude":139.05299377441406,"category":"美術館/オブジェ","big_category":"ミュージアム,ミュージアム","description":"","image_url":"","tags":"","prefecture":"神奈川","contractor":"","structural_designer":"TIS & PARTNERS","landscape_designer":"","shinkenchiku_url":""},{"id":3603,"title":"久米島イーフビーチホテル","architect":"手塚建築研究所","year":2007.0,"address":"沖縄県島尻郡久米島町謝名堂548 ‎","latitude":26.335065841674805,"longitude":126.81078338623047,"category":"ホテル","big_category":"宿泊","description":"","image_url":"","tags":"","prefecture":"沖縄","contractor":"","structural_designer":"","landscape_designer":"","shinkenchiku_url":""},{"id":3604,"title":"掛川市庁舎","architect":"日建設計","year":1996.0,"address":"静岡県掛川市長谷1-1-1","latitude":34.768775939941406,"longitude":137.9983673095703,"category":"庁舎","big_category":"公共施設","description":"","image_url":"","tags":"2000年公共建築賞,2023年JIA25年賞 受賞作品","prefecture":"静岡","contractor":"","structural_designer":"","landscape_designer":"","shinkenchiku_url":""},{"id":3605,"title":"第一生命日比谷ファースト 旧DNタワー21","architect":"ケヴィン・ローチ+清水建設","year":1993.0,"address":"東京都千代田区有楽町1-13","latitude":35.675811767578125,"longitude":139.76087951660156,"category":"オフィスビル","big_category":"企業施設","description":"2023年清水建設、フィールドフォー・デザインオフィス、谷尻誠、乃村工藝社によりリノベーション","image_url":"","tags":"新建築2023年10月号","prefecture":"東京","contractor":"","structural_designer":"","landscape_designer":"","shinkenchiku_url":""},{"id":3606,"title":"群馬県太田市木崎小学校","architect":"今村雅樹","year":2012.0,"address":"群馬県太田市新田木崎町1121","latitude":36.2809944152832,"longitude":139.30494689941406,"category":"学校","big_category":"教育","description":"","image_url":"","tags":"","prefecture":"群馬","contractor":"","structural_designer":"","landscape_designer":"","shinkenchiku_url":""},{"id":3607,"title":"土と陶の工房 美乃里","architect":"竹原義二","year":1999.0,"address":"大阪府八尾市新家町2-88-1","latitude":34.64455032348633,"longitude":135.59727478027344,"category":"その他文化施設","big_category":"文化施設","description":"","image_url":"","tags":"2001年日本建築学会 作品選奨","prefecture":"大阪","contractor":"","structural_designer":"","landscape_designer":"","shinkenchiku_url":""},{"id":3608,"title":"海椿葉山","architect":"竹原義二","year":1999.0,"address":"和歌山県西牟婁郡白浜町椿1063-20","latitude":33.602294921875,"longitude":135.38780212402344,"category":"ホテル","big_category":"宿泊","description":"","image_url":"","tags":"2002年日本建築学会 作品選奨","prefecture":"和歌山","contractor":"","structural_designer":"","landscape_designer":"","shinkenchiku_url":""},{"id":3609,"title":"延命湯","architect":"竹原義二","year":1983.0,"address":"大阪府大阪市福島区福島5-12-5","latitude":34.696250915527344,"longitude":135.48635864257812,"category":"温泉","big_category":"宿泊","description":"","image_url":"","tags":"","prefecture":"大阪","contractor":"","structural_designer":"","landscape_designer":"","shinkenchiku_url":""},{"id":3610,"title":"中島ガーデン","architect":"松永安光","year":1999.0,"address":"静岡県富士市中島475-1","latitude":35.16357421875,"longitude":138.65269470214844,"category":"集合住宅","big_category":"住宅","description":"","image_url":"","tags":"2001年日本建築学会 作品賞","prefecture":"静岡","contractor":"","structural_designer":"","landscape_designer":"","shinkenchiku_url":""},{"id":3611,"title":"地下鉄大江戸線 飯田橋駅","architect":"渡辺誠","year":2000.0,"address":"東京都文京区後楽1-9-5 ‎","latitude":35.70352554321289,"longitude":139.74679565429688,"category":"駅","big_category":"インフラ","description":"","image_url":"","tags":"2002年日本建築学会 作品賞","prefecture":"東京","contractor":"","structural_designer":"","landscape_designer":"","shinkenchiku_url":""},{"id":3612,"title":"豊後大野市立 緒方中学校","architect":"いるか設計集団","year":2000.0,"address":"大分県豊後大野市緒方町下自在1030","latitude":32.97810745239258,"longitude":131.46343994140625,"category":"学校","big_category":"教育","description":"","image_url":"","tags":"2004年日本建築学会 作品選奨","prefecture":"大分","contractor":"","structural_designer":"","landscape_designer":"","shinkenchiku_url":""},{"id":3613,"title":"近藤内科病院","architect":"古谷誠章","year":2002.0,"address":"徳島市西新浜町1-6-25","latitude":34.04373550415039,"longitude":134.55772399902344,"category":"病院","big_category":"医療施設","description":"","image_url":"","tags":"2004年日本建築学会 作品選奨","prefecture":"徳島","contractor":"","structural_designer":"","landscape_designer":"","shinkenchiku_url":""},{"id":3614,"title":"大阪府立中河内府民センター","architect":"村野藤吾","year":1973.0,"address":"大阪府八尾市荘内町2-1-36","latitude":34.62605285644531,"longitude":135.60890197753906,"category":"公共施設","big_category":"公共施設","description":"","image_url":"","tags":"","prefecture":"大阪","contractor":"","structural_designer":"","landscape_designer":"","shinkenchiku_url":""},{"id":3615,"title":"堺市立美原体育館 旧美原町立総合会館","architect":"村野藤吾","year":1975.0,"address":"大阪府堺市美原区多治井878-1","latitude":34.5428352355957,"longitude":135.56703186035156,"category":"体育館","big_category":"レジャー施設","description":"","image_url":"","tags":"","prefecture":"大阪","contractor":"","structural_designer":"","landscape_designer":"","shinkenchiku_url":""},{"id":3616,"title":"西宮市民会館","architect":"増田友也","year":1967.0,"address":"兵庫県西宮市六湛寺町10-11","latitude":34.73707962036133,"longitude":135.34165954589844,"category":"ホール・劇場","big_category":"文化施設","description":"","image_url":"","tags":"","prefecture":"兵庫","contractor":"","structural_designer":"","landscape_designer":"","shinkenchiku_url":""},{"id":3617,"title":"タケダグリーンビル","architect":"村野藤吾","year":1974.0,"address":"大阪府大阪市西区江戸堀2-7-29","latitude":34.68705368041992,"longitude":135.48863220214844,"category":"オフィスビル","big_category":"企業施設","description":"解体","image_url":"","tags":"","prefecture":"大阪","contractor":"","structural_designer":"","landscape_designer":"","shinkenchiku_url":""},{"id":3618,"title":"仙北市西長野交流センター 旧西長野小学校","architect":"渡辺豊和","year":1992.0,"address":"秋田県仙北市角館町西長野中泊402","latitude":39.60961151123047,"longitude":140.5063018798828,"category":"公民館・交流施設/学校","big_category":"公共施設,教育","description":"","image_url":"","tags":"","prefecture":"秋田","contractor":"","structural_designer":"","landscape_designer":"","shinkenchiku_url":""},{"id":3619,"title":"スノーフィールドカフェ","architect":"石山修武","year":2003.0,"address":"北海道中川郡幕別町字栄449-1","latitude":42.793678283691406,"longitude":143.24961853027344,"category":"カフェ/レストラン","big_category":"商業施設,商業施設","description":"冬季限定","image_url":"","tags":"","prefecture":"北海道","contractor":"","structural_designer":"","landscape_designer":"","shinkenchiku_url":""},{"id":3620,"title":"十勝川温泉 三余庵","architect":"象設計集団","year":2004.0,"address":"北海道河東郡音更町十勝川温泉南13-1-10","latitude":42.93387222290039,"longitude":143.29763793945312,"category":"ホテル","big_category":"宿泊","description":"","image_url":"","tags":"","prefecture":"北海道","contractor":"","structural_designer":"","landscape_designer":"","shinkenchiku_url":""},{"id":3621,"title":"十勝ビール","architect":"象設計集団","year":1997.0,"address":"北海道帯広市西1条南9--6","latitude":42.9223518371582,"longitude":143.20404052734375,"category":"レストラン/醸造所","big_category":"商業施設,商業施設","description":"閉鎖？","image_url":"","tags":"","prefecture":"北海道","contractor":"","structural_designer":"","landscape_designer":"","shinkenchiku_url":""},{"id":3622,"title":"町田小野路霊園 泰鳳閣","architect":"谷口大造","year":2009.0,"address":"東京都町田市小野路町1536","latitude":35.59867477416992,"longitude":139.44235229492188,"category":"霊園","big_category":"宗教","description":"","image_url":"","tags":"","prefecture":"東京","contractor":"","structural_designer":"","landscape_designer":"","shinkenchiku_url":""},{"id":3623,"title":"高龍寺 音羽ホール","architect":"谷口大造","year":2001.0,"address":"北海道函館市若松町1-1","latitude":41.76994705200195,"longitude":140.72727966308594,"category":"ホール・劇場","big_category":"文化施設","description":"","image_url":"","tags":"","prefecture":"北海道","contractor":"","structural_designer":"","landscape_designer":"","shinkenchiku_url":""},{"id":3624,"title":"高龍寺 龍香洞","architect":"谷口大造","year":2003.0,"address":"北海道函館市船見町21-11 ","latitude":41.76866912841797,"longitude":140.69956970214844,"category":"寺院","big_category":"宗教","description":"","image_url":"","tags":"","prefecture":"北海道","contractor":"","structural_designer":"","landscape_designer":"","shinkenchiku_url":""},{"id":3625,"title":"森ヒロコ･スタシス美術館","architect":"アトリエaku","year":1998.0,"address":"北海道小樽市緑1-16-33","latitude":43.189910888671875,"longitude":140.9896697998047,"category":"ギャラリー","big_category":"ミュージアム","description":"","image_url":"","tags":"","prefecture":"北海道","contractor":"","structural_designer":"","landscape_designer":"","shinkenchiku_url":""},{"id":3626,"title":"多治見市立多治見中学校","architect":"象設計集団","year":2001.0,"address":"岐阜県多治見市美坂町4-10","latitude":35.32931900024414,"longitude":137.1424102783203,"category":"学校","big_category":"教育","description":"","image_url":"","tags":"","prefecture":"岐阜","contractor":"","structural_designer":"","landscape_designer":"","shinkenchiku_url":""},{"id":3627,"title":"丹後宇川温泉 よし野の里","architect":"象設計集団","year":2001.0,"address":"京都府京丹後市丹後町久僧1562","latitude":35.75495910644531,"longitude":135.17706298828125,"category":"旅館","big_category":"宿泊","description":"","image_url":"","tags":"","prefecture":"京都","contractor":"","structural_designer":"","landscape_designer":"","shinkenchiku_url":""},{"id":3628,"title":"共働学舎共働学舎新得農場 農業畜産交流施設 ミンタル","architect":"象設計集団","year":2004.0,"address":"北海道上川郡新得町新得西2線53","latitude":43.083560943603516,"longitude":142.8185272216797,"category":"体験施設","big_category":"レジャー施設","description":"","image_url":"","tags":"","prefecture":"北海道","contractor":"","structural_designer":"","landscape_designer":"","shinkenchiku_url":""},{"id":3629,"title":"イーフ観光ホテル","architect":"象設計集団","year":1985.0,"address":"沖縄県島尻郡久米島町字謝名堂548-18","latitude":26.33319664001465,"longitude":126.80917358398438,"category":"ホテル","big_category":"宿泊","description":"手塚夫妻のイーフビーチホテルとは別","image_url":"","tags":"","prefecture":"沖縄","contractor":"","structural_designer":"","landscape_designer":"","shinkenchiku_url":""},{"id":3630,"title":"満寿屋麦音店","architect":"象設計集団","year":2009.0,"address":"北海道帯広市稲田町南8線西16-43","latitude":42.89043426513672,"longitude":143.191650390625,"category":"店舗/カフェ","big_category":"商業施設,商業施設","description":"","image_url":"","tags":"","prefecture":"北海道","contractor":"","structural_designer":"","landscape_designer":"","shinkenchiku_url":""},{"id":3631,"title":"フレンドシップハイツよしみ 旧埼玉県勤労青少年フレンドシップセンター","architect":"象設計集団","year":1976.0,"address":"埼玉県比企郡吉見町黒岩602","latitude":36.05698013305664,"longitude":139.44142150878906,"category":"ホテル","big_category":"宿泊","description":"","image_url":"","tags":"","prefecture":"埼玉","contractor":"","structural_designer":"","landscape_designer":"","shinkenchiku_url":""},{"id":3632,"title":"小笠原支庁舎","architect":"象設計集団","year":1986.0,"address":"東京都小笠原村父島字西町 ‎","latitude":27.094356536865234,"longitude":142.1919403076172,"category":"庁舎","big_category":"公共施設","description":"","image_url":"","tags":"","prefecture":"東京","contractor":"","structural_designer":"","landscape_designer":"","shinkenchiku_url":""},{"id":3633,"title":"熊本県立球磨工業高校","architect":"象設計集団","year":1991.0,"address":"熊本県人吉市城本町800","latitude":32.219032287597656,"longitude":130.75254821777344,"category":"学校","big_category":"教育","description":"くまもとアートポリス","image_url":"","tags":"くまもとアートポリス","prefecture":"熊本","contractor":"","structural_designer":"","landscape_designer":"","shinkenchiku_url":""},{"id":3634,"title":"木の洞窟 熊本県立球磨工業高校 管理棟","architect":"ワークステーション+濵田裕史+萩嶺宣治","year":2013.0,"address":"熊本県人吉市城本町800","latitude":32.21821212768555,"longitude":130.7530975341797,"category":"学校","big_category":"教育","description":"くまもとアートポリス","image_url":"","tags":"くまもとアートポリス","prefecture":"熊本","contractor":"味岡・速永建設工事共同企業体","structural_designer":"昭和女子大学+萬田隆構造設計事務所","landscape_designer":"","shinkenchiku_url":"https://data.shinkenchiku.online/articles/SK_2014_03_064-0"},{"id":3635,"title":"熊本市上江津湖畔トイレ","architect":"日田兆","year":1989.0,"address":"熊本県熊本市東区江津1-35-31","latitude":32.78096008300781,"longitude":130.73855590820312,"category":"トイレ","big_category":"公共施設","description":"くまもとアートポリス","image_url":"","tags":"くまもとアートポリス,新建築2014年3月号","prefecture":"熊本","contractor":"","structural_designer":"","landscape_designer":"","shinkenchiku_url":""},{"id":3636,"title":"加久藤トンネル換気所","architect":"小山明","year":1989.0,"address":"熊本県人吉市段塔町 国道221号線","latitude":32.104732513427734,"longitude":130.80496215820312,"category":"公共施設","big_category":"公共施設","description":"くまもとアートポリス","image_url":"","tags":"くまもとアートポリス","prefecture":"熊本","contractor":"","structural_designer":"","landscape_designer":"","shinkenchiku_url":""},{"id":3637,"title":"熊本市花畑パークトイレ","architect":"大塚豊一","year":1989.0,"address":"熊本県熊本市中央区花畑町6","latitude":32.80057907104492,"longitude":130.70472717285156,"category":"トイレ","big_category":"公共施設","description":"くまもとアートポリス","image_url":"","tags":"くまもとアートポリス","prefecture":"熊本","contractor":"","structural_designer":"","landscape_designer":"","shinkenchiku_url":""},{"id":3638,"title":"県営帯山A団地","architect":"新納至門","year":1992.0,"address":"熊本県熊本市中央区帯山1-23-2","latitude":32.80094909667969,"longitude":130.74034118652344,"category":"集合住宅","big_category":"住宅","description":"くまもとアートポリス","image_url":"","tags":"くまもとアートポリス","prefecture":"熊本","contractor":"","structural_designer":"","landscape_designer":"","shinkenchiku_url":""},{"id":3639,"title":"鮎の瀬大橋","architect":"大野美代子","year":1999.0,"address":"熊本県上益城郡山都町菅488","latitude":32.645751953125,"longitude":131.00418090820312,"category":"橋","big_category":"インフラ","description":"くまもとアートポリス","image_url":"","tags":"くまもとアートポリス","prefecture":"熊本","contractor":"","structural_designer":"","landscape_designer":"","shinkenchiku_url":""},{"id":3640,"title":"上天草市合津終末処理場管理棟","architect":"齋藤宏","year":1992.0,"address":"熊本県上天草市松島町合津4276-387","latitude":32.51629638671875,"longitude":130.43309020996094,"category":"公共施設","big_category":"公共施設","description":"くまもとアートポリス","image_url":"","tags":"くまもとアートポリス","prefecture":"熊本","contractor":"","structural_designer":"","landscape_designer":"","shinkenchiku_url":""},{"id":3641,"title":"富岡園地公衆トイレ","architect":"松本健志","year":1999.0,"address":"熊本県天草郡苓北町富岡1324","latitude":32.530452728271484,"longitude":130.0144805908203,"category":"トイレ","big_category":"公共施設","description":"くまもとアートポリス","image_url":"","tags":"くまもとアートポリス","prefecture":"熊本","contractor":"","structural_designer":"","landscape_designer":"","shinkenchiku_url":""},{"id":3642,"title":"氷川ダム管理所","architect":"野中暉夫","year":2001.0,"address":"熊本県八代市泉町下岳2886","latitude":32.572086334228516,"longitude":130.7877960205078,"category":"公共施設","big_category":"公共施設","description":"くまもとアートポリス","image_url":"","tags":"くまもとアートポリス","prefecture":"熊本","contractor":"","structural_designer":"","landscape_designer":"","shinkenchiku_url":""},{"id":3643,"title":"南小国町営杉田・矢津田団地","architect":"片山和俊","year":2005.0,"address":"熊本県阿蘇郡南小国町赤馬場202-1","latitude":33.102867126464844,"longitude":131.0706329345703,"category":"集合住宅","big_category":"住宅","description":"くまもとアートポリス","image_url":"","tags":"くまもとアートポリス","prefecture":"熊本","contractor":"","structural_designer":"","landscape_designer":"","shinkenchiku_url":""},{"id":3644,"title":"有田焼参考館","architect":"内田祥哉+三井所清典","year":1983.0,"address":"佐賀県西松浦郡有田町泉山1-4-1","latitude":33.195255279541016,"longitude":129.91134643554688,"category":"博物館","big_category":"ミュージアム","description":"","image_url":"","tags":"","prefecture":"佐賀","contractor":"","structural_designer":"","landscape_designer":"","shinkenchiku_url":""},{"id":3645,"title":"硫黄島 鎮魂の丘","architect":"相田武文","year":1983.0,"address":"東京都小笠原村硫黄島","latitude":24.785367965698242,"longitude":141.31944274902344,"category":"宗教施設","big_category":"宗教","description":"","image_url":"","tags":"","prefecture":"東京","contractor":"","structural_designer":"","landscape_designer":"","shinkenchiku_url":""},{"id":3646,"title":"埼玉県県央みずほ斎場","architect":"相田武文","year":1998.0,"address":"埼玉県鴻巣市境1143","latitude":36.08384704589844,"longitude":139.5355682373047,"category":"斎場","big_category":"公共施設","description":"","image_url":"","tags":"","prefecture":"埼玉","contractor":"","structural_designer":"","landscape_designer":"","shinkenchiku_url":""},{"id":3647,"title":"東京都戦没者霊園","architect":"相田武文","year":1988.0,"address":"東京都文京区春日1-14-4","latitude":35.70817947387695,"longitude":139.75033569335938,"category":"霊園","big_category":"宗教","description":"","image_url":"","tags":"","prefecture":"東京","contractor":"","structural_designer":"","landscape_designer":"","shinkenchiku_url":""},{"id":3648,"title":"利賀 道の資料館","architect":"セザール・ポルテラ","year":1994.0,"address":"富山県南砺市利賀村1468","latitude":36.45718765258789,"longitude":137.02769470214844,"category":"博物館","big_category":"ミュージアム","description":"閉館中","image_url":"","tags":"まちのかお","prefecture":"富山","contractor":"","structural_designer":"","landscape_designer":"","shinkenchiku_url":""},{"id":3649,"title":"小杉駅南口キャノピー","architect":"ロン・ヘロン","year":1992.0,"address":"富山県射水市三ヶ2595-14","latitude":36.72069549560547,"longitude":137.09169006347656,"category":"駅","big_category":"インフラ","description":"","image_url":"","tags":"まちのかお","prefecture":"富山","contractor":"","structural_designer":"","landscape_designer":"","shinkenchiku_url":""},{"id":3650,"title":"錦町バス停待合室","architect":"ロン・ヘロン","year":1993.0,"address":"富山県射水市大門167-1","latitude":36.73405838012695,"longitude":137.0476837158203,"category":"駅","big_category":"インフラ","description":"解体","image_url":"","tags":"まちのかお","prefecture":"富山","contractor":"","structural_designer":"","landscape_designer":"","shinkenchiku_url":""}]}