{"page":141,"total_pages":290,"items_per_page":50,"total_items":14467,"items":[{"id":7001,"title":"焼肉矢澤 京都","architect":"GENETO建築設計","year":2016.0,"address":"京都府京都市下京区神明町243","latitude":35.00226593017578,"longitude":135.76162719726562,"category":"レストラン","big_category":"商業施設","description":"","image_url":"","tags":"Ver2.00(2017年9月)の追加建築","prefecture":"京都","contractor":"","structural_designer":"","landscape_designer":"","shinkenchiku_url":""},{"id":7002,"title":"富山県庁舎","architect":"大熊喜邦+増田八郎","year":1935.0,"address":"富山県富山市新総曲輪1-7","latitude":36.69526290893555,"longitude":137.21128845214844,"category":"庁舎","big_category":"公共施設","description":"","image_url":"","tags":"Ver2.00(2017年9月)の追加建築","prefecture":"富山","contractor":"","structural_designer":"","landscape_designer":"","shinkenchiku_url":""},{"id":7003,"title":"赤穂市立民俗資料館 旧大蔵省塩務局庁舎","architect":"妻木頼黄+大熊喜邦","year":1908.0,"address":"兵庫県赤穂市加里屋805-1","latitude":34.749847412109375,"longitude":134.38229370117188,"category":"博物館/洋館","big_category":"ミュージアム,近代建築/遺産","description":"","image_url":"","tags":"Ver2.00(2017年9月)の追加建築","prefecture":"兵庫","contractor":"","structural_designer":"","landscape_designer":"","shinkenchiku_url":""},{"id":7004,"title":"横浜銀行協会","architect":"大熊喜邦+林豪蔵","year":1936.0,"address":"神奈川県横浜市中区本町3-28","latitude":35.44921112060547,"longitude":139.63868713378906,"category":"公共施設","big_category":"公共施設","description":"","image_url":"","tags":"Ver2.00(2017年9月)の追加建築","prefecture":"神奈川","contractor":"","structural_designer":"","landscape_designer":"","shinkenchiku_url":""},{"id":7005,"title":"郡山市郡山公会堂","architect":"矢橋賢吉","year":1924.0,"address":"福島県郡山市麓山1-8-4","latitude":37.394412994384766,"longitude":140.37228393554688,"category":"ホール・劇場","big_category":"文化施設","description":"","image_url":"","tags":"Ver2.00(2017年9月)の追加建築","prefecture":"福島","contractor":"","structural_designer":"","landscape_designer":"","shinkenchiku_url":""},{"id":7006,"title":"富岡市新庁舎","architect":"隈研吾","year":2017.0,"address":"群馬県富岡市富岡1460-1","latitude":36.2598876953125,"longitude":138.8899688720703,"category":"庁舎","big_category":"公共施設","description":"","image_url":"","tags":"Ver2.00(2017年9月)の追加建築,新建築2018年7月号","prefecture":"群馬","contractor":"","structural_designer":"","landscape_designer":"","shinkenchiku_url":""},{"id":7007,"title":"南三陸町庁舎","architect":"久米設計+ピークスタジオ","year":2017.0,"address":"宮城県南三陸町志津川字沼田101","latitude":38.68063735961914,"longitude":141.46266174316406,"category":"庁舎","big_category":"公共施設","description":"","image_url":"","tags":"Ver2.00(2017年9月)の追加建築,2020年日本建築学会 作品選集新人賞","prefecture":"宮城","contractor":"","structural_designer":"","landscape_designer":"","shinkenchiku_url":""},{"id":7008,"title":"安来市総合文化ホール アルテピア","architect":"田中正夫+アールアイエー","year":2017.0,"address":"島根県安来市切川町","latitude":35.42310333251953,"longitude":133.2369384765625,"category":"ホール・劇場","big_category":"文化施設","description":"","image_url":"","tags":"Ver2.00(2017年9月)の追加建築","prefecture":"島根","contractor":"","structural_designer":"","landscape_designer":"","shinkenchiku_url":""},{"id":7009,"title":"しおさいプラザとまり","architect":"田中正夫","year":2004.0,"address":"鳥取県東伯郡湯梨浜町泊","latitude":35.51432800292969,"longitude":133.94493103027344,"category":"図書館","big_category":"文化施設","description":"","image_url":"","tags":"Ver2.00(2017年9月)の追加建築","prefecture":"鳥取","contractor":"","structural_designer":"","landscape_designer":"","shinkenchiku_url":""},{"id":7010,"title":"近畿大学 ACADEMIC THEATER","architect":"NTTファシリティーズ","year":2017.0,"address":"大阪府東大阪市小若江3-4-1","latitude":34.65081787109375,"longitude":135.58718872070312,"category":"大学/図書館","big_category":"教育,文化施設","description":"","image_url":"","tags":"新建築2017年10月号,Ver2.20(2017年11月)の追加建築,第27回AACA賞,2020年日本建築学会 作品選奨","prefecture":"大阪","contractor":"","structural_designer":"","landscape_designer":"","shinkenchiku_url":""},{"id":7011,"title":"近畿大学 国際学部棟","architect":"NTTファシリティーズ","year":2016.0,"address":"大阪府東大阪市小若江3-4-1","latitude":34.65150833129883,"longitude":135.58631896972656,"category":"大学","big_category":"教育","description":"","image_url":"","tags":"新建築2017年10月号,Ver2.20(2017年11月)の追加建築","prefecture":"大阪","contractor":"","structural_designer":"","landscape_designer":"","shinkenchiku_url":""},{"id":7012,"title":"東京大学生産技術研究所 千葉実験所 研究実験棟 I","architect":"今井公太郎","year":2017.0,"address":"千葉県柏市柏の葉5-1-5","latitude":35.902896881103516,"longitude":139.93458557128906,"category":"大学","big_category":"教育","description":"","image_url":"","tags":"新建築2017年10月号,Ver2.20(2017年11月)の追加建築","prefecture":"千葉","contractor":"","structural_designer":"","landscape_designer":"","shinkenchiku_url":""},{"id":7013,"title":"東京大学生産技術研究所 千葉実験所 研究実験棟 II","architect":"今井公太郎","year":2017.0,"address":"千葉県柏市柏の葉5-1-5","latitude":35.902217864990234,"longitude":139.93280029296875,"category":"大学","big_category":"教育","description":"","image_url":"","tags":"新建築2017年10月号,Ver2.20(2017年11月)の追加建築","prefecture":"千葉","contractor":"","structural_designer":"","landscape_designer":"","shinkenchiku_url":""},{"id":7014,"title":"神田外語大学 8号館","architect":"松田平田設計","year":2017.0,"address":"千葉県千葉市美浜区若葉1-4-1","latitude":35.65607833862305,"longitude":140.04376220703125,"category":"大学/図書館","big_category":"教育,文化施設","description":"","image_url":"","tags":"新建築2017年10月号,Ver2.20(2017年11月)の追加建築","prefecture":"千葉","contractor":"","structural_designer":"","landscape_designer":"","shinkenchiku_url":""},{"id":7015,"title":"UNIQLO CITY TOKYO","architect":"アライド・ワークス・アーキテクチャー","year":2017.0,"address":"東京都江東区有明1-6-7","latitude":35.63705825805664,"longitude":139.77993774414062,"category":"オフィスビル","big_category":"企業施設","description":"","image_url":"","tags":"新建築2017年10月号,Ver2.20(2017年11月)の追加建築","prefecture":"東京","contractor":"","structural_designer":"","landscape_designer":"","shinkenchiku_url":""},{"id":7016,"title":"レッドウッド南港DC1 KLUBB エリア","architect":"玉上貴人","year":2016.0,"address":"大阪府大阪市住之江区南港中1-4-152","latitude":34.62318420410156,"longitude":135.42459106445312,"category":"工場/企業施設","big_category":"企業施設,企業施設","description":"","image_url":"","tags":"新建築2017年10月号,Ver2.20(2017年11月)の追加建築","prefecture":"大阪","contractor":"","structural_designer":"","landscape_designer":"","shinkenchiku_url":""},{"id":7017,"title":"ヤマハモーター・イノベーションセンター","architect":"日建設計","year":2016.0,"address":"静岡県磐田市西貝塚3281","latitude":34.72212600708008,"longitude":137.87620544433594,"category":"企業施設/研究施設","big_category":"企業施設,教育","description":"","image_url":"","tags":"新建築2017年10月号,Ver2.20(2017年11月)の追加建築","prefecture":"静岡","contractor":"","structural_designer":"","landscape_designer":"","shinkenchiku_url":""},{"id":7018,"title":"unico","architect":"西田司","year":2017.0,"address":"神奈川県川崎市川崎区日進町3-4","latitude":35.52661895751953,"longitude":139.69346618652344,"category":"オフィスビル/カフェ","big_category":"企業施設,商業施設","description":"工場をシェアオフィス等にリノベーション","image_url":"","tags":"新建築2017年10月号,Ver2.20(2017年11月)の追加建築","prefecture":"神奈川","contractor":"","structural_designer":"","landscape_designer":"","shinkenchiku_url":""},{"id":7019,"title":"リガレッセ","architect":"有馬裕之","year":2017.0,"address":"兵庫県豊岡市日高町荒川310","latitude":35.46036911010742,"longitude":134.72079467773438,"category":"養護施設","big_category":"医療施設","description":"江戸時代の民家を介護施設に改修","image_url":"","tags":"新建築2017年10月号,Ver2.20(2017年11月)の追加建築","prefecture":"兵庫","contractor":"","structural_designer":"","landscape_designer":"","shinkenchiku_url":""},{"id":7020,"title":"銀座夏野Rblg","architect":"TNA","year":2017.0,"address":"東京都中央区銀座3-2-13","latitude":35.672996520996094,"longitude":139.76470947265625,"category":"テナントビル","big_category":"商業施設","description":"","image_url":"","tags":"新建築2017年10月号,Ver2.20(2017年11月)の追加建築","prefecture":"東京","contractor":"","structural_designer":"","landscape_designer":"","shinkenchiku_url":""},{"id":7021,"title":"インマヌエル船橋キリスト教会 バイブル・センター","architect":"室伏次郎+ミタリ設計","year":2016.0,"address":"千葉県船橋市本町1-31-4","latitude":35.70026397705078,"longitude":139.98411560058594,"category":"教会","big_category":"宗教","description":"","image_url":"","tags":"新建築2017年10月号,Ver2.20(2017年11月)の追加建築","prefecture":"千葉","contractor":"","structural_designer":"","landscape_designer":"","shinkenchiku_url":""},{"id":7022,"title":"インマヌエル船橋キリスト教会 コミュニティー・チャペル","architect":"室伏次郎+ミタリ設計","year":2017.0,"address":"千葉県船橋市海神2-13-30","latitude":35.70400619506836,"longitude":139.98194885253906,"category":"教会","big_category":"宗教","description":"","image_url":"","tags":"新建築2017年10月号,Ver2.20(2017年11月)の追加建築","prefecture":"千葉","contractor":"","structural_designer":"","landscape_designer":"","shinkenchiku_url":""},{"id":7023,"title":"美波町医療保健センター","architect":"カワグチテイ建築計画","year":2017.0,"address":"徳島県海部郡美波町奥河内井ノ上13-2","latitude":33.7347526550293,"longitude":134.5323944091797,"category":"福祉センター/公民館・交流施設","big_category":"医療施設,公共施設","description":"","image_url":"","tags":"新建築2017年10月号,Ver2.20(2017年11月)の追加建築","prefecture":"徳島","contractor":"","structural_designer":"","landscape_designer":"","shinkenchiku_url":""},{"id":7024,"title":"上島町ゆげ海の駅舎","architect":"ビルディングランドスケープ+日髙仁","year":2017.0,"address":"愛媛県越智郡上島町弓削下弓削203-1","latitude":34.25861740112305,"longitude":133.20445251464844,"category":"PA・道の駅","big_category":"インフラ","description":"","image_url":"","tags":"新建築2017年10月号,Ver2.20(2017年11月)の追加建築","prefecture":"愛媛","contractor":"","structural_designer":"","landscape_designer":"","shinkenchiku_url":""},{"id":7025,"title":"ISUZU PLAZA ／ PLAZA annex","architect":"坂倉建築研究所","year":2017.0,"address":"神奈川県藤沢市土棚８","latitude":35.398948669433594,"longitude":139.45693969726562,"category":"博物館/ホテル","big_category":"ミュージアム,宿泊","description":"ISUZU PLAZAは自動車展示施設。平日は要予約。ANNEXは宿泊施設。","image_url":"","tags":"新建築2017年10月号,Ver2.20(2017年11月)の追加建築","prefecture":"神奈川","contractor":"","structural_designer":"","landscape_designer":"","shinkenchiku_url":""},{"id":7026,"title":"南町テラス","architect":"日髙仁","year":2012.0,"address":"神奈川県逗子市小坪4-12-15","latitude":35.29645919799805,"longitude":139.55833435058594,"category":"カフェ/住宅","big_category":"商業施設,住宅","description":"","image_url":"","tags":"Ver2.20(2017年11月)の追加建築","prefecture":"神奈川","contractor":"","structural_designer":"","landscape_designer":"","shinkenchiku_url":""},{"id":7027,"title":"小松市立宮本三郎美術館","architect":"八尾廣+大野高志+角倉剛","year":2000.0,"address":"石川県小松市小馬出町5","latitude":36.40797424316406,"longitude":136.44818115234375,"category":"美術館","big_category":"ミュージアム","description":"","image_url":"","tags":"Ver2.20(2017年11月)の追加建築","prefecture":"石川","contractor":"","structural_designer":"","landscape_designer":"","shinkenchiku_url":""},{"id":7028,"title":"南三陸ハマーレ歌津","architect":"隈研吾","year":2017.0,"address":"宮城県本吉郡南三陸町歌津伊里前96-1","latitude":38.71744918823242,"longitude":141.52130126953125,"category":"モール","big_category":"商業施設","description":"","image_url":"","tags":"Ver2.20(2017年11月)の追加建築,新建築2021年3月号","prefecture":"宮城","contractor":"","structural_designer":"","landscape_designer":"","shinkenchiku_url":""},{"id":7029,"title":"ギャラリー ガラスのピラミッド","architect":"水野行偉","year":2004.0,"address":"富山県射水市東太閤山2-81","latitude":36.699241638183594,"longitude":137.11883544921875,"category":"ギャラリー/住宅","big_category":"ミュージアム,住宅","description":"","image_url":"","tags":"Ver2.20(2017年11月)の追加建築","prefecture":"富山","contractor":"","structural_designer":"","landscape_designer":"","shinkenchiku_url":""},{"id":7030,"title":"富江図書館 さんごさん","architect":"能作淳平","year":2017.0,"address":"長崎県五島市富江町富江280-4","latitude":32.61525344848633,"longitude":128.76849365234375,"category":"図書館/住宅","big_category":"文化施設,住宅","description":"","image_url":"","tags":"Ver2.20(2017年11月)の追加建築","prefecture":"長崎","contractor":"","structural_designer":"","landscape_designer":"","shinkenchiku_url":""},{"id":7031,"title":"絆屋ビルヂング","architect":"アルファヴィル","year":2017.0,"address":"京都府京都市中京区柳馬場三条上ル油屋町94-1","latitude":35.009063720703125,"longitude":135.76443481445312,"category":"ギャラリー/住宅","big_category":"ミュージアム,住宅","description":"","image_url":"","tags":"Ver2.20(2017年11月)の追加建築","prefecture":"京都","contractor":"","structural_designer":"","landscape_designer":"","shinkenchiku_url":""},{"id":7032,"title":"ヘッソ・オルガニカ","architect":"山本卓郎","year":2015.0,"address":"愛知県岡崎市明大寺町畔土16-35","latitude":34.94550323486328,"longitude":137.16851806640625,"category":"カフェ/住宅","big_category":"商業施設,住宅","description":"","image_url":"","tags":"Ver2.20(2017年11月)の追加建築","prefecture":"愛知","contractor":"","structural_designer":"","landscape_designer":"","shinkenchiku_url":""},{"id":7033,"title":"dog salon GRUM","architect":"畠中啓祐","year":2016.0,"address":"愛知県岡崎市鴨田町北浦40-1","latitude":34.983951568603516,"longitude":137.16815185546875,"category":"美容院/住宅","big_category":"商業施設,住宅","description":"","image_url":"","tags":"Ver2.20(2017年11月)の追加建築","prefecture":"愛知","contractor":"","structural_designer":"","landscape_designer":"","shinkenchiku_url":""},{"id":7034,"title":"湯河原町役場第1庁舎","architect":"佐藤茂次","year":1962.0,"address":"神奈川県足柄下郡湯河原町中央2-2-1","latitude":35.14788818359375,"longitude":139.1083526611328,"category":"庁舎","big_category":"公共施設","description":"","image_url":"","tags":"Ver2.20(2017年11月)の追加建築","prefecture":"神奈川","contractor":"","structural_designer":"","landscape_designer":"","shinkenchiku_url":""},{"id":7035,"title":"倉敷市児島文化センター","architect":"佐藤武夫","year":1969.0,"address":"岡山県倉敷市児島味野2-8-30","latitude":34.467899322509766,"longitude":133.80203247070312,"category":"ホール・劇場","big_category":"文化施設","description":"老朽化のため閉館中","image_url":"","tags":"Ver2.20(2017年11月)の追加建築","prefecture":"岡山","contractor":"","structural_designer":"","landscape_designer":"","shinkenchiku_url":""},{"id":7036,"title":"COEDA HOUSE","architect":"隈研吾","year":2017.0,"address":"静岡県熱海市上多賀1027-8 アカオハーブ&ローズガーデン内","latitude":35.07624816894531,"longitude":139.07200622558594,"category":"カフェ","big_category":"商業施設","description":"","image_url":"","tags":"新建築2017年11月号,Ver2.20(2017年11月)の追加建築","prefecture":"静岡","contractor":"","structural_designer":"","landscape_designer":"","shinkenchiku_url":""},{"id":7037,"title":"京都外国語大学 新4号館","architect":"シーラカンスアンドアソシエイツ","year":2017.0,"address":"京都府京都市右京区西院笠目町6","latitude":35.00437545776367,"longitude":135.71873474121094,"category":"大学","big_category":"教育","description":"","image_url":"","tags":"Ver2.20(2017年11月)の追加建築,新建築2018年1月号","prefecture":"京都","contractor":"","structural_designer":"","landscape_designer":"","shinkenchiku_url":""},{"id":7038,"title":"奈良県浄化センター","architect":"日水コン+設計事務所洋洋社","year":1974.0,"address":"奈良県大和郡山市額田部南町160","latitude":34.5986328125,"longitude":135.77932739257812,"category":"公共施設","big_category":"公共施設","description":"","image_url":"","tags":"Ver2.20(2017年11月)の追加建築","prefecture":"奈良","contractor":"","structural_designer":"","landscape_designer":"","shinkenchiku_url":""},{"id":7039,"title":"杉並会館","architect":"芦原義信","year":1967.0,"address":"東京都杉並区上荻3-29-5","latitude":35.71047592163086,"longitude":139.60787963867188,"category":"公民館・交流施設","big_category":"公共施設","description":"","image_url":"","tags":"Ver2.20(2017年11月)の追加建築","prefecture":"東京","contractor":"","structural_designer":"","landscape_designer":"","shinkenchiku_url":""},{"id":7040,"title":"百島みんなの家","architect":"伊東豊雄","year":2017.0,"address":"広島県尾道市百島町154-1","latitude":34.37650680541992,"longitude":133.27418518066406,"category":"公民館・交流施設/庁舎","big_category":"公共施設,公共施設","description":"","image_url":"","tags":"Ver2.20(2017年11月)の追加建築","prefecture":"広島","contractor":"","structural_designer":"","landscape_designer":"","shinkenchiku_url":""},{"id":7041,"title":"高砂市立図書館","architect":"石本建築事務所","year":2015.0,"address":"兵庫県高砂市米田町米田927-21","latitude":34.77468490600586,"longitude":134.81094360351562,"category":"図書館","big_category":"文化施設","description":"","image_url":"","tags":"Ver2.20(2017年11月)の追加建築","prefecture":"兵庫","contractor":"","structural_designer":"","landscape_designer":"","shinkenchiku_url":""},{"id":7042,"title":"春日市総合スポーツセンター","architect":"石本建築事務所","year":2017.0,"address":"福岡県春日市大谷6-28","latitude":33.526573181152344,"longitude":130.45545959472656,"category":"スポーツ施設/体育館","big_category":"レジャー施設,レジャー施設","description":"","image_url":"","tags":"Ver2.20(2017年11月)の追加建築","prefecture":"福岡","contractor":"","structural_designer":"","landscape_designer":"","shinkenchiku_url":""},{"id":7043,"title":"豊島区立池袋本町小学校・池袋中学校","architect":"石本建築事務所","year":2016.0,"address":"東京都豊島区池袋本町1-43-1","latitude":35.740814208984375,"longitude":139.71481323242188,"category":"学校","big_category":"教育","description":"","image_url":"","tags":"Ver2.20(2017年11月)の追加建築","prefecture":"東京","contractor":"","structural_designer":"","landscape_designer":"","shinkenchiku_url":""},{"id":7044,"title":"川越市斎場","architect":"石本建築事務所","year":2017.0,"address":"埼玉県川越市小仙波786-1","latitude":35.91816711425781,"longitude":139.5058135986328,"category":"斎場","big_category":"公共施設","description":"","image_url":"","tags":"Ver2.20(2017年11月)の追加建築","prefecture":"埼玉","contractor":"","structural_designer":"","landscape_designer":"","shinkenchiku_url":""},{"id":7045,"title":"沖縄アミークスインターナショナル","architect":"シーラカンスアンドアソシエイツ","year":2011.0,"address":"沖縄県うるま市栄野比 沖縄アミークスインターナショナル","latitude":26.39851188659668,"longitude":127.82673645019531,"category":"学校","big_category":"教育","description":"","image_url":"","tags":"Ver2.20(2017年11月)の追加建築","prefecture":"沖縄","contractor":"","structural_designer":"","landscape_designer":"","shinkenchiku_url":""},{"id":7046,"title":"釜石市立鵜住居小学校／東中学校／児童館／幼稚園 ","architect":"シーラカンスアンドアソシエイツ","year":2017.0,"address":"岩手県釜石市鵜住居町第3地割","latitude":39.3392333984375,"longitude":141.85182189941406,"category":"学校/幼稚園","big_category":"教育,教育","description":"","image_url":"","tags":"Ver2.20(2017年11月)の追加建築,新建築2018年3月号","prefecture":"岩手","contractor":"","structural_designer":"","landscape_designer":"","shinkenchiku_url":""},{"id":7047,"title":"阿南市新庁舎","architect":"日建設計","year":2017.0,"address":"徳島県阿南市富岡町トノ町12-3","latitude":33.92179870605469,"longitude":134.65951538085938,"category":"庁舎","big_category":"公共施設","description":"","image_url":"","tags":"Ver2.20(2017年11月)の追加建築","prefecture":"徳島","contractor":"","structural_designer":"","landscape_designer":"","shinkenchiku_url":""},{"id":7048,"title":"鵠ノ杜舎","architect":"ブルースタジオ","year":2017.0,"address":"神奈川県藤沢市鵠沼神明5-5-20","latitude":35.343406677246094,"longitude":139.47189331054688,"category":"集合住宅","big_category":"住宅","description":"","image_url":"","tags":"Ver2.20(2017年11月)の追加建築","prefecture":"神奈川","contractor":"","structural_designer":"","landscape_designer":"","shinkenchiku_url":""},{"id":7049,"title":"まちのこども園 代々木公園","architect":"ブルースタジオ","year":2017.0,"address":"東京都渋谷区代々木神園町2-1","latitude":35.669403076171875,"longitude":139.69894409179688,"category":"幼稚園","big_category":"教育","description":"","image_url":"","tags":"Ver2.20(2017年11月)の追加建築,新建築2018年6月号","prefecture":"東京","contractor":"","structural_designer":"","landscape_designer":"","shinkenchiku_url":""},{"id":7050,"title":"鶴岡市文化会館 荘銀タクト鶴岡","architect":"妹島和世","year":2017.0,"address":"山形県鶴岡市馬場町11-61","latitude":38.72554016113281,"longitude":139.8270263671875,"category":"ホール・劇場","big_category":"文化施設","description":"","image_url":"","tags":"Ver2.20(2017年11月)の追加建築,新建築2018年1月号","prefecture":"山形","contractor":"","structural_designer":"","landscape_designer":"","shinkenchiku_url":""}]}