{"page":46,"total_pages":290,"items_per_page":50,"total_items":14467,"items":[{"id":2251,"title":"西播磨総合庁舎","architect":"設計組織ADH","year":2002.0,"address":"兵庫県赤穂郡上郡町光都2-25","latitude":34.93906021118164,"longitude":134.44317626953125,"category":"庁舎","big_category":"公共施設","description":"","image_url":"","tags":"","prefecture":"兵庫","contractor":"","structural_designer":"","landscape_designer":"","shinkenchiku_url":""},{"id":2252,"title":"サンライフ光都","architect":"磯崎新+設計組織ADH 他","year":1995.0,"address":"兵庫県赤穂郡上郡町光都2-20-1","latitude":34.93329620361328,"longitude":134.4435577392578,"category":"集合住宅","big_category":"住宅","description":"クレジット：兵庫県都市住宅部住宅建設課+兵庫県住宅供給公社+設計組織ADH。設計協力：ピーター・ウォーカー。設計に磯崎新を含めるものと含めないものがあるため併記してある","image_url":"","tags":"新建築1996年8月号","prefecture":"兵庫","contractor":"","structural_designer":"","landscape_designer":"","shinkenchiku_url":""},{"id":2253,"title":"旧乾邸","architect":"渡辺節","year":1936.0,"address":"兵庫県神戸市東灘区住吉山手5-1-30","latitude":34.72969436645508,"longitude":135.2576904296875,"category":"洋館","big_category":"近代建築/遺産","description":"","image_url":"","tags":"","prefecture":"兵庫","contractor":"","structural_designer":"","landscape_designer":"","shinkenchiku_url":""},{"id":2254,"title":"六甲の集合住宅II パラマウント六甲","architect":"安藤忠雄","year":1993.0,"address":"兵庫県神戸市灘区篠原14-12","latitude":34.72515869140625,"longitude":135.22775268554688,"category":"集合住宅","big_category":"住宅","description":"六甲の集合住宅第二期","image_url":"","tags":"","prefecture":"兵庫","contractor":"","structural_designer":"","landscape_designer":"","shinkenchiku_url":""},{"id":2255,"title":"豊雲記念館・小原流盛花記念センター 旧小原流芸術参考館","architect":"清家清","year":1962.0,"address":"兵庫県神戸市東灘区住吉山手4-12-70","latitude":34.72711944580078,"longitude":135.25296020507812,"category":"博物館","big_category":"ミュージアム","description":"同敷地内に小原流家元会館(1962年竣工)、豊雲記念館（1970年竣工）がある。何れも閉鎖中。","image_url":"","tags":"DOCOMOMO","prefecture":"兵庫","contractor":"","structural_designer":"","landscape_designer":"","shinkenchiku_url":""},{"id":2256,"title":"横尾忠則現代美術館 旧兵庫県立美術館王子分館西館","architect":"村野藤吾","year":1982.0,"address":"兵庫県神戸市灘区原田通3-8-30","latitude":34.70852279663086,"longitude":135.21339416503906,"category":"美術館","big_category":"ミュージアム","description":"兵庫県立美術館 王子分館 西館を改装","image_url":"","tags":"","prefecture":"兵庫","contractor":"","structural_designer":"","landscape_designer":"","shinkenchiku_url":""},{"id":2257,"title":"デザイン・クリエイティブセンター神戸 旧神戸市立生糸検査所旧館・及び新館","architect":"清水栄二+置塩章","year":1927.0,"address":"兵庫県神戸市中央区小野浜町1-4","latitude":34.685218811035156,"longitude":135.19898986816406,"category":"美術館","big_category":"ミュージアム","description":"旧館は1927年竣工、清水栄二設計。新館は1932年竣工、置塩章設計。クリエイティブセンターになるにあたり統合。","image_url":"","tags":"","prefecture":"兵庫","contractor":"","structural_designer":"","landscape_designer":"","shinkenchiku_url":""},{"id":2258,"title":"神戸波止場町TEN×TEN","architect":"不明","year":null,"address":"兵庫県神戸市中央区波止場町6-5","latitude":34.68404006958008,"longitude":135.1842803955078,"category":"美術館","big_category":"ミュージアム","description":"","image_url":"","tags":"","prefecture":"兵庫","contractor":"","structural_designer":"","landscape_designer":"","shinkenchiku_url":""},{"id":2259,"title":"ジェームス邸","architect":"竹中工務店","year":2012.0,"address":"兵庫県神戸市垂水区塩屋町6-28-1","latitude":34.63334274291992,"longitude":135.0753173828125,"category":"結婚式場","big_category":"宗教","description":"","image_url":"","tags":"","prefecture":"兵庫","contractor":"","structural_designer":"","landscape_designer":"","shinkenchiku_url":""},{"id":2260,"title":"垂水の教会 西須磨福音ルーテル教会","architect":"安藤忠雄","year":1993.0,"address":"兵庫県神戸市垂水区塩屋北町4-1-5","latitude":34.647830963134766,"longitude":135.09078979492188,"category":"教会","big_category":"宗教","description":"場所が間違っていたので修正","image_url":"","tags":"","prefecture":"兵庫","contractor":"","structural_designer":"","landscape_designer":"","shinkenchiku_url":""},{"id":2261,"title":"六甲の教会 風の教会","architect":"安藤忠雄","year":1986.0,"address":"兵庫県神戸市灘区六甲山町西谷山1878","latitude":34.75639724731445,"longitude":135.2454376220703,"category":"教会","big_category":"宗教","description":"六甲オリエンタルホテル閉鎖のため閉鎖されていたがおそらく県の所有になっている。アートイベントなどの際に内部も含めて見学可能。または結婚式場としても利用可能。保存状態も悪くないです。","image_url":"","tags":"","prefecture":"兵庫","contractor":"","structural_designer":"","landscape_designer":"","shinkenchiku_url":""},{"id":2262,"title":"甲南女子大学","architect":"村野藤吾","year":1964.0,"address":"兵庫県神戸市東灘区森北町6-2-23","latitude":34.73454284667969,"longitude":135.28758239746094,"category":"大学","big_category":"教育","description":"1975年に村野藤吾設計で人間学科学者・猪崎記念体育館、学生会館増築。1976年に同設計で阿部記念図書館増築。","image_url":"","tags":"","prefecture":"兵庫","contractor":"","structural_designer":"","landscape_designer":"","shinkenchiku_url":""},{"id":2263,"title":"鉄の教会 神戸新生バプテスト教会","architect":"木村博昭","year":2005.0,"address":"兵庫県神戸市東灘区鴨子ヶ原2-22-30","latitude":34.73359298706055,"longitude":135.25013732910156,"category":"教会","big_category":"宗教","description":"","image_url":"","tags":"","prefecture":"兵庫","contractor":"","structural_designer":"","landscape_designer":"","shinkenchiku_url":""},{"id":2264,"title":"ザ・ヒルサイド六甲山ノ手 旧ゲストハウスOLD/NEW六甲","architect":"安藤忠雄","year":1986.0,"address":"兵庫県神戸市灘区六甲台町6-2","latitude":34.726051330566406,"longitude":135.23226928710938,"category":"結婚式場/レストラン","big_category":"宗教,商業施設","description":"","image_url":"","tags":"","prefecture":"兵庫","contractor":"","structural_designer":"","landscape_designer":"","shinkenchiku_url":""},{"id":2265,"title":"FTK BLD.","architect":"青木茂","year":2009.0,"address":"兵庫県神戸市灘区森後町3-5-41","latitude":34.716487884521484,"longitude":135.23716735839844,"category":"オフィスビル","big_category":"企業施設","description":"","image_url":"","tags":"","prefecture":"兵庫","contractor":"","structural_designer":"","landscape_designer":"","shinkenchiku_url":""},{"id":2266,"title":"神戸市立御影公会堂","architect":"清水栄二","year":1933.0,"address":"兵庫県神戸市東灘区御影石町4-4-1","latitude":34.7160758972168,"longitude":135.24928283691406,"category":"公民館・交流施設","big_category":"公共施設","description":"2017年春に改修","image_url":"","tags":"DOCOMOMO","prefecture":"兵庫","contractor":"","structural_designer":"","landscape_designer":"","shinkenchiku_url":""},{"id":2267,"title":"旧ハンター住宅","architect":"不明","year":null,"address":"兵庫県神戸市灘区青谷町1-1-4","latitude":34.71158981323242,"longitude":135.21282958984375,"category":"洋館","big_category":"近代建築/遺産","description":"4・8・10月のみ公開","image_url":"","tags":"","prefecture":"兵庫","contractor":"","structural_designer":"","landscape_designer":"","shinkenchiku_url":""},{"id":2268,"title":"灘浜ガーデンバーデン","architect":"安藤忠雄","year":2002.0,"address":"兵庫県神戸市灘区新在家南町2-25-6","latitude":34.706607818603516,"longitude":135.23936462402344,"category":"プール/温泉","big_category":"レジャー施設,宿泊","description":"","image_url":"","tags":"","prefecture":"兵庫","contractor":"","structural_designer":"","landscape_designer":"","shinkenchiku_url":""},{"id":2269,"title":"グランスイート北野 旧北野アイビーコート","architect":"安藤忠雄","year":1981.0,"address":"兵庫県神戸市中央区北野町1-2-2","latitude":34.70083236694336,"longitude":135.19256591796875,"category":"モール","big_category":"商業施設","description":"","image_url":"","tags":"","prefecture":"兵庫","contractor":"","structural_designer":"","landscape_designer":"","shinkenchiku_url":""},{"id":2270,"title":"リンズギャラリー","architect":"安藤忠雄","year":1981.0,"address":"兵庫県神戸市中央区北野町2-7-18","latitude":34.69985580444336,"longitude":135.19070434570312,"category":"ギャラリー","big_category":"ミュージアム","description":"","image_url":"","tags":"","prefecture":"兵庫","contractor":"","structural_designer":"","landscape_designer":"","shinkenchiku_url":""},{"id":2271,"title":"ウォールアベニュー","architect":"安藤忠雄","year":1991.0,"address":"兵庫県神戸市中央区山本通1-7-17","latitude":34.698978424072266,"longitude":135.19113159179688,"category":"テナントビル","big_category":"商業施設","description":"","image_url":"","tags":"","prefecture":"兵庫","contractor":"","structural_designer":"","landscape_designer":"","shinkenchiku_url":""},{"id":2272,"title":"Fix 213","architect":"安藤忠雄","year":1986.0,"address":"兵庫県神戸市中央区山本通2-13-15","latitude":34.69886779785156,"longitude":135.18954467773438,"category":"店舗","big_category":"商業施設","description":"","image_url":"","tags":"","prefecture":"兵庫","contractor":"","structural_designer":"","landscape_designer":"","shinkenchiku_url":""},{"id":2273,"title":"北野TO ウォールスクウェア","architect":"安藤忠雄","year":1986.0,"address":"兵庫県神戸市中央区山本通2-13-14","latitude":34.69892120361328,"longitude":135.18963623046875,"category":"店舗","big_category":"商業施設","description":"","image_url":"","tags":"","prefecture":"兵庫","contractor":"","structural_designer":"","landscape_designer":"","shinkenchiku_url":""},{"id":2274,"title":"ウォールステップ","architect":"安藤忠雄","year":1986.0,"address":"兵庫県神戸市中央区山本通2-12-18","latitude":34.69866180419922,"longitude":135.1893310546875,"category":"店舗","big_category":"商業施設","description":"","image_url":"","tags":"","prefecture":"兵庫","contractor":"","structural_designer":"","landscape_designer":"","shinkenchiku_url":""},{"id":2275,"title":"北野アレイ","architect":"安藤忠雄","year":1977.0,"address":"兵庫県神戸市中央区山本通2-9-13","latitude":34.69842529296875,"longitude":135.18878173828125,"category":"店舗","big_category":"商業施設","description":"","image_url":"","tags":"","prefecture":"兵庫","contractor":"","structural_designer":"","landscape_designer":"","shinkenchiku_url":""},{"id":2276,"title":"ローズガーデン","architect":"安藤忠雄","year":1977.0,"address":"兵庫県神戸市中央区山本通2-8-15","latitude":34.698307037353516,"longitude":135.18821716308594,"category":"店舗","big_category":"商業施設","description":"","image_url":"","tags":"","prefecture":"兵庫","contractor":"","structural_designer":"","landscape_designer":"","shinkenchiku_url":""},{"id":2277,"title":"リランズゲート","architect":"安藤忠雄","year":1986.0,"address":"兵庫県神戸市中央区山本通2-4-24","latitude":34.69781494140625,"longitude":135.18975830078125,"category":"ギャラリー/テナントビル","big_category":"ミュージアム,商業施設","description":"内装を島田陽","image_url":"","tags":"","prefecture":"兵庫","contractor":"","structural_designer":"","landscape_designer":"","shinkenchiku_url":""},{"id":2278,"title":"カトリック神戸中央教会","architect":"村上晶子","year":2004.0,"address":"兵庫県神戸市中央区中山手通1-28-7","latitude":34.69734573364258,"longitude":135.1911163330078,"category":"教会","big_category":"宗教","description":"","image_url":"","tags":"新建築2005年1月号","prefecture":"兵庫","contractor":"","structural_designer":"","landscape_designer":"","shinkenchiku_url":""},{"id":2279,"title":"神戸大丸 南一号館 旧居留地38番館","architect":"ウィリアム・メレル・ヴォーリズ","year":1929.0,"address":"兵庫県神戸市中央区明石町40","latitude":34.68867874145508,"longitude":135.19044494628906,"category":"店舗","big_category":"商業施設","description":"","image_url":"","tags":"","prefecture":"兵庫","contractor":"","structural_designer":"","landscape_designer":"","shinkenchiku_url":""},{"id":2280,"title":"旧居留地十五番館","architect":"不明","year":1880.0,"address":"兵庫県神戸市中央区浪花町15","latitude":34.687313079833984,"longitude":135.19229125976562,"category":"洋館","big_category":"近代建築/遺産","description":"","image_url":"","tags":"重要文化財","prefecture":"兵庫","contractor":"","structural_designer":"","landscape_designer":"","shinkenchiku_url":""},{"id":2281,"title":"神戸市立博物館 旧横浜正金銀行神戸支店","architect":"桜井小太郎+坂倉建築研究所","year":1935.0,"address":"兵庫県神戸市中央区京町24","latitude":34.68727111816406,"longitude":135.19288635253906,"category":"博物館/金融機関","big_category":"ミュージアム,企業施設","description":"1982年に増築","image_url":"","tags":"","prefecture":"兵庫","contractor":"","structural_designer":"","landscape_designer":"","shinkenchiku_url":""},{"id":2282,"title":"適寿リハビリテーション病院 花山の病院","architect":"篠原一男","year":1988.0,"address":"兵庫県神戸市長田区花山町2-11-32","latitude":34.68602752685547,"longitude":135.1350860595703,"category":"病院","big_category":"医療施設","description":"","image_url":"","tags":"","prefecture":"兵庫","contractor":"","structural_designer":"","landscape_designer":"","shinkenchiku_url":""},{"id":2283,"title":"神戸税関本関","architect":"大蔵省営繕課+日建設計","year":1927.0,"address":"兵庫県神戸市中央区新港町12-1","latitude":34.68498229980469,"longitude":135.19825744628906,"category":"公共施設","big_category":"公共施設","description":"広報展示室見学可能。1998年に日建設計により改築、復元。","image_url":"","tags":"2004年公共建築賞,2001年日本建築学会 作品選奨","prefecture":"兵庫","contractor":"","structural_designer":"","landscape_designer":"","shinkenchiku_url":""},{"id":2284,"title":"神戸芸術工科大学 吉武記念ホール","architect":"木村博昭","year":2005.0,"address":"兵庫県神戸市西区学園西町8-1-1","latitude":34.67815017700195,"longitude":135.05764770507812,"category":"大学","big_category":"教育","description":"","image_url":"","tags":"","prefecture":"兵庫","contractor":"","structural_designer":"","landscape_designer":"","shinkenchiku_url":""},{"id":2285,"title":"神戸芸術工科大学 先端芸術棟 ／ 工房","architect":"木村博昭","year":2006.0,"address":"兵庫県神戸市西区学園西町8-1-1","latitude":34.67806625366211,"longitude":135.0569305419922,"category":"大学","big_category":"教育","description":"","image_url":"","tags":"","prefecture":"兵庫","contractor":"","structural_designer":"","landscape_designer":"","shinkenchiku_url":""},{"id":2286,"title":"ジュンポートアイランドビル","architect":"安藤忠雄","year":1985.0,"address":"兵庫県神戸市中央区港島中町7-6","latitude":34.66657257080078,"longitude":135.21688842773438,"category":"オフィスビル","big_category":"企業施設","description":"","image_url":"","tags":"","prefecture":"兵庫","contractor":"","structural_designer":"","landscape_designer":"","shinkenchiku_url":""},{"id":2287,"title":"ブダイダルハート 旧モロゾフP&Pスタジオ","architect":"安藤忠雄","year":1989.0,"address":"兵庫県神戸市中央区港島中町6-6-1","latitude":34.665401458740234,"longitude":135.21673583984375,"category":"オフィスビル","big_category":"企業施設","description":"","image_url":"","tags":"","prefecture":"兵庫","contractor":"","structural_designer":"","landscape_designer":"","shinkenchiku_url":""},{"id":2288,"title":"チャイルド・ケモ・ハウス","architect":"手塚建築研究所","year":2013.0,"address":"兵庫県神戸市中央区港島中町8-5-3","latitude":34.66172790527344,"longitude":135.21337890625,"category":"養護施設","big_category":"医療施設","description":"","image_url":"","tags":"2016年日本建築学会 作品選奨","prefecture":"兵庫","contractor":"","structural_designer":"","landscape_designer":"","shinkenchiku_url":""},{"id":2289,"title":"旧グッゲンハイム邸","architect":"アレクサンダー・ネルソン・ハンセル","year":1909.0,"address":"兵庫県神戸市垂水区塩屋町3-5-17","latitude":34.63432312011719,"longitude":135.08473205566406,"category":"洋館","big_category":"近代建築/遺産","description":"毎月第三木曜日に見学会","image_url":"","tags":"","prefecture":"兵庫","contractor":"","structural_designer":"","landscape_designer":"","shinkenchiku_url":""},{"id":2290,"title":"旧武藤家別邸洋館","architect":"大熊喜邦","year":1906.0,"address":"兵庫県神戸市垂水区東舞子町2051","latitude":34.630958557128906,"longitude":135.03419494628906,"category":"洋館","big_category":"近代建築/遺産","description":"","image_url":"","tags":"","prefecture":"兵庫","contractor":"","structural_designer":"","landscape_designer":"","shinkenchiku_url":""},{"id":2291,"title":"ホテルセトレ","architect":"芦澤竜一","year":2005.0,"address":"兵庫県神戸市垂水区海岸通11-1","latitude":34.62850570678711,"longitude":135.0371856689453,"category":"教会/ホテル","big_category":"宗教,宿泊","description":"2005年にホテルセトレ本館、チャペル、2007年にレジデンス竣工","image_url":"","tags":"","prefecture":"兵庫","contractor":"","structural_designer":"","landscape_designer":"","shinkenchiku_url":""},{"id":2292,"title":"神戸大学 百年記念館","architect":"狩野忠正","year":2001.0,"address":"兵庫県神戸市灘区六甲台町1-1","latitude":34.7264404296875,"longitude":135.23536682128906,"category":"大学","big_category":"教育","description":"","image_url":"","tags":"","prefecture":"兵庫","contractor":"","structural_designer":"","landscape_designer":"","shinkenchiku_url":""},{"id":2293,"title":"アメリカンハウス 旧ハムウェイ邸","architect":"不明","year":null,"address":"兵庫県神戸市中央区北野町3-10-1","latitude":34.70081329345703,"longitude":135.18934631347656,"category":"洋館","big_category":"近代建築/遺産","description":"","image_url":"","tags":"","prefecture":"兵庫","contractor":"","structural_designer":"","landscape_designer":"","shinkenchiku_url":""},{"id":2294,"title":"国際健康開発センタービル","architect":"丹下健三","year":1998.0,"address":"兵庫県神戸市中央区脇浜海岸通1-5-1","latitude":34.699012756347656,"longitude":135.2165985107422,"category":"オフィスビル","big_category":"企業施設","description":"","image_url":"","tags":"","prefecture":"兵庫","contractor":"","structural_designer":"","landscape_designer":"","shinkenchiku_url":""},{"id":2295,"title":"異人館倶楽部Ⅲ","architect":"天藤久雄","year":1979.0,"address":"兵庫県神戸市中央区北野町4-9-2","latitude":34.6982307434082,"longitude":135.18724060058594,"category":"モール","big_category":"商業施設","description":"","image_url":"","tags":"","prefecture":"兵庫","contractor":"","structural_designer":"","landscape_designer":"","shinkenchiku_url":""},{"id":2296,"title":"旧ハンセル邸","architect":"不明","year":null,"address":"兵庫県神戸市中央区山本通3-5-9","latitude":34.69778823852539,"longitude":135.18756103515625,"category":"洋館","big_category":"近代建築/遺産","description":"","image_url":"","tags":"","prefecture":"兵庫","contractor":"","structural_designer":"","landscape_designer":"","shinkenchiku_url":""},{"id":2297,"title":"神戸市立小磯記念美術館","architect":"徳岡設計","year":1992.0,"address":"兵庫県神戸市東灘区向洋町中5-7","latitude":34.692813873291016,"longitude":135.2672119140625,"category":"美術館","big_category":"ミュージアム","description":"","image_url":"","tags":"","prefecture":"兵庫","contractor":"","structural_designer":"","landscape_designer":"","shinkenchiku_url":""},{"id":2298,"title":"兵庫県公館","architect":"山口半六","year":1902.0,"address":"兵庫県神戸市中央区下山手通4-4-1","latitude":34.69084548950195,"longitude":135.18443298339844,"category":"洋館","big_category":"近代建築/遺産","description":"","image_url":"","tags":"1988年公共建築賞","prefecture":"兵庫","contractor":"","structural_designer":"","landscape_designer":"","shinkenchiku_url":""},{"id":2299,"title":"LE CIEL BLEU 神戸店","architect":"KEIKO+MANABU","year":2005.0,"address":"兵庫県神戸市中央区三宮町2-9-7","latitude":34.69032669067383,"longitude":135.19064331054688,"category":"店舗","big_category":"商業施設","description":"","image_url":"","tags":"","prefecture":"兵庫","contractor":"","structural_designer":"","landscape_designer":"","shinkenchiku_url":""},{"id":2300,"title":"BLESS","architect":"KEIKO+MANABU","year":2007.0,"address":"兵庫県神戸市中央区三宮町3-9-18","latitude":34.69021987915039,"longitude":135.18951416015625,"category":"店舗","big_category":"商業施設","description":"","image_url":"","tags":"","prefecture":"兵庫","contractor":"","structural_designer":"","landscape_designer":"","shinkenchiku_url":""}]}