{"page":96,"total_pages":290,"items_per_page":50,"total_items":14467,"items":[{"id":4751,"title":"SKK徳島 四国クリエイト協会 徳島支所","architect":"宮崎浩","year":2004.0,"address":"徳島県徳島市北佐古二番町1-14","latitude":34.08186721801758,"longitude":134.53662109375,"category":"低層オフィス","big_category":"企業施設","description":"","image_url":"","tags":"","prefecture":"徳島","contractor":"","structural_designer":"","landscape_designer":"","shinkenchiku_url":""},{"id":4752,"title":"徳島県郷土文化会館 あわぎんホール","architect":"西山夘三","year":1971.0,"address":"徳島県徳島市藍場町2-14","latitude":34.07511901855469,"longitude":134.54617309570312,"category":"ホール・劇場","big_category":"文化施設","description":"","image_url":"","tags":"","prefecture":"徳島","contractor":"","structural_designer":"","landscape_designer":"","shinkenchiku_url":""},{"id":4753,"title":"高知県知事公邸","architect":"村野藤吾","year":1963.0,"address":"高知県高知市鷹匠町2-2-6","latitude":33.5560417175293,"longitude":133.53062438964844,"category":"住宅/公共施設","big_category":"住宅,公共施設","description":"","image_url":"","tags":"","prefecture":"高知","contractor":"","structural_designer":"","landscape_designer":"","shinkenchiku_url":""},{"id":4754,"title":"高知県庁舎","architect":"岸田日出刀+佐藤総合計画","year":1962.0,"address":"高知県高知市丸ノ内1-2-20","latitude":33.559688568115234,"longitude":133.5308837890625,"category":"庁舎","big_category":"公共施設","description":"2012年佐藤総合計画により免震レトロフィット","image_url":"","tags":"2018年公共建築賞","prefecture":"高知","contractor":"","structural_designer":"","landscape_designer":"","shinkenchiku_url":""},{"id":4755,"title":"東京大学 安田講堂","architect":"内田祥三+岸田日出刀","year":1925.0,"address":"東京都文京区本郷7-3-1","latitude":35.71348190307617,"longitude":139.7622528076172,"category":"大学","big_category":"教育","description":"2014年12月に千葉学、香山壽夫らにより改修","image_url":"","tags":"新建築2015年6月号,新建築2014年10月号","prefecture":"東京","contractor":"","structural_designer":"","landscape_designer":"","shinkenchiku_url":"https://data.shinkenchiku.online/articles/SK_2014_10_070-0"},{"id":4756,"title":"本願寺津村別院","architect":"岸田日出刀","year":1961.0,"address":"大阪府大阪市中央区本町4-1-3","latitude":34.68497848510742,"longitude":135.4995574951172,"category":"寺院","big_category":"宗教","description":"","image_url":"","tags":"","prefecture":"大阪","contractor":"","structural_designer":"","landscape_designer":"","shinkenchiku_url":""},{"id":4757,"title":"東京大学 広報センター 旧医学部附属病院夜間診療所","architect":"岸田日出刀","year":1926.0,"address":"東京都文京区本郷7-3-1","latitude":35.7088737487793,"longitude":139.7638702392578,"category":"大学","big_category":"教育","description":"","image_url":"","tags":"","prefecture":"東京","contractor":"","structural_designer":"","landscape_designer":"","shinkenchiku_url":""},{"id":4758,"title":"東京大学 総合図書館","architect":"内田祥三+岸田日出刀+野城智也+川添善行","year":1928.0,"address":"東京都文京区本郷7-3-1","latitude":35.71138381958008,"longitude":139.76092529296875,"category":"大学","big_category":"教育","description":"2016年、地下に大規模増築。2018年別館増築。2020年本館と別館を繋ぐ地下通路を増築","image_url":"","tags":"新建築2016年6月号,新建築2021年3月号","prefecture":"東京","contractor":"","structural_designer":"","landscape_designer":"","shinkenchiku_url":""},{"id":4759,"title":"鬼北町庁舎 旧広見町庁舎","architect":"アントニン・レーモンド","year":1958.0,"address":"愛媛県北宇和郡鬼北町近永800-1","latitude":33.25582504272461,"longitude":132.68408203125,"category":"庁舎","big_category":"公共施設","description":"2016年にデザインを残したまま改装","image_url":"","tags":"登録有形文化財","prefecture":"愛媛","contractor":"","structural_designer":"","landscape_designer":"","shinkenchiku_url":""},{"id":4760,"title":"愛媛信用金庫 常盤町支店","architect":"丹下健三","year":1967.0,"address":"愛媛県今治市常盤町6-6-8","latitude":34.057701110839844,"longitude":132.99017333984375,"category":"金融機関","big_category":"企業施設","description":"","image_url":"","tags":"","prefecture":"愛媛","contractor":"","structural_designer":"","landscape_designer":"","shinkenchiku_url":""},{"id":4761,"title":"愛媛県武道館","architect":"石本建築事務所","year":2003.0,"address":"愛媛県松山市市坪西町551","latitude":33.81086730957031,"longitude":132.74533081054688,"category":"体育館","big_category":"レジャー施設","description":"","image_url":"","tags":"","prefecture":"愛媛","contractor":"","structural_designer":"","landscape_designer":"","shinkenchiku_url":""},{"id":4762,"title":"上勝町町営田野々住宅","architect":"曽我部昌史+マチデザイン","year":2011.0,"address":"徳島県勝浦郡上勝町旭中村9","latitude":33.874752044677734,"longitude":134.38250732421875,"category":"住宅","big_category":"住宅","description":"","image_url":"","tags":"","prefecture":"徳島","contractor":"","structural_designer":"","landscape_designer":"","shinkenchiku_url":""},{"id":4763,"title":"アートゾーン藁工倉庫 藁工ミュージアム","architect":"竹原義二","year":2011.0,"address":"高知県高知市南金田28","latitude":33.56327819824219,"longitude":133.55567932128906,"category":"ギャラリー/カフェ/ホール・劇場","big_category":"ミュージアム,商業施設,文化施設","description":"","image_url":"","tags":"","prefecture":"高知","contractor":"","structural_designer":"","landscape_designer":"","shinkenchiku_url":""},{"id":4764,"title":"WITHビル","architect":"安藤忠雄","year":1985.0,"address":"徳島県徳島市助任橋1-24-1","latitude":34.077056884765625,"longitude":134.55821228027344,"category":"テナントビル","big_category":"商業施設","description":"","image_url":"","tags":"","prefecture":"徳島","contractor":"","structural_designer":"","landscape_designer":"","shinkenchiku_url":""},{"id":4765,"title":"鳴門市立島田小学校／幼稚園","architect":"増田友也","year":1981.0,"address":"徳島県鳴門市瀬戸町中島田北田36","latitude":34.238563537597656,"longitude":134.59698486328125,"category":"学校/幼稚園","big_category":"教育,教育","description":"","image_url":"","tags":"","prefecture":"徳島","contractor":"","structural_designer":"","landscape_designer":"","shinkenchiku_url":""},{"id":4766,"title":"鳴門市立第二中学校","architect":"増田友也","year":1978.0,"address":"徳島県鳴門市撫養町立岩内田150","latitude":34.17669677734375,"longitude":134.62208557128906,"category":"学校","big_category":"教育","description":"","image_url":"","tags":"","prefecture":"徳島","contractor":"","structural_designer":"","landscape_designer":"","shinkenchiku_url":""},{"id":4767,"title":"清水高等学校 格技場","architect":"上田堯世","year":1995.0,"address":"高知県土佐清水市加久見893-1","latitude":32.78438949584961,"longitude":132.94508361816406,"category":"体育館/学校","big_category":"レジャー施設,教育","description":"","image_url":"","tags":"","prefecture":"高知","contractor":"","structural_designer":"","landscape_designer":"","shinkenchiku_url":""},{"id":4768,"title":"オーベルジュ土佐山","architect":"細木茂","year":2000.0,"address":"高知県高知市土佐山東川661","latitude":33.634361267089844,"longitude":133.48641967773438,"category":"ホテル","big_category":"宿泊","description":"","image_url":"","tags":"2023年JIA25年賞 受賞作品","prefecture":"高知","contractor":"","structural_designer":"","landscape_designer":"","shinkenchiku_url":""},{"id":4769,"title":"高知県立青少年体育館","architect":"上田堯世","year":1991.0,"address":"高知県吾川郡いの町天王北1-14","latitude":33.52872085571289,"longitude":133.44227600097656,"category":"体育館","big_category":"レジャー施設","description":"","image_url":"","tags":"","prefecture":"高知","contractor":"","structural_designer":"","landscape_designer":"","shinkenchiku_url":""},{"id":4770,"title":"佐川町 三野団地","architect":"太田憲男+西森啓史","year":2000.0,"address":"高知県高岡郡佐川町乙 三野2号団地1棟","latitude":33.50647735595703,"longitude":133.2881622314453,"category":"集合住宅","big_category":"住宅","description":"","image_url":"","tags":"","prefecture":"高知","contractor":"","structural_designer":"","landscape_designer":"","shinkenchiku_url":""},{"id":4771,"title":"ブルーボトルコーヒー 清澄白河フラッグシップカフェ","architect":"長坂常","year":2014.0,"address":"東京都江東区平野1-4-8","latitude":35.67776870727539,"longitude":139.80055236816406,"category":"カフェ","big_category":"商業施設","description":"2014年竣工の建物を同じ設計者で2019年に改修","image_url":"","tags":"新建築2015年3月号","prefecture":"東京","contractor":"","structural_designer":"","landscape_designer":"","shinkenchiku_url":""},{"id":4772,"title":"白鳳堂 京都本店","architect":"岸和郎","year":2014.0,"address":"京都府京都市中京区寺町通二条上ル要法寺前町715-1","latitude":35.01420974731445,"longitude":135.76699829101562,"category":"店舗","big_category":"商業施設","description":"","image_url":"","tags":"","prefecture":"京都","contractor":"","structural_designer":"","landscape_designer":"","shinkenchiku_url":""},{"id":4773,"title":"本部中央公民館","architect":"金城信吉","year":1981.0,"address":"沖縄県国頭郡本部町大浜874-1","latitude":26.65569496154785,"longitude":127.88420104980469,"category":"公民館・交流施設","big_category":"公共施設","description":"","image_url":"","tags":"","prefecture":"沖縄","contractor":"","structural_designer":"","landscape_designer":"","shinkenchiku_url":""},{"id":4774,"title":"ホテル日航那覇グランドキャッスル 旧沖縄グランドキャッスルホテル","architect":"金城信吉","year":1972.0,"address":"沖縄県那覇市首里山川町1-132-1","latitude":26.220617294311523,"longitude":127.71067810058594,"category":"ホテル","big_category":"宿泊","description":"","image_url":"","tags":"","prefecture":"沖縄","contractor":"","structural_designer":"","landscape_designer":"","shinkenchiku_url":""},{"id":4775,"title":"旧大宜味村役場庁舎","architect":"清村勉","year":1925.0,"address":"沖縄県国頭郡大宜味村字大兼久157-2","latitude":26.701902389526367,"longitude":128.11984252929688,"category":"庁舎/公共施設","big_category":"公共施設,公共施設","description":"","image_url":"","tags":"","prefecture":"沖縄","contractor":"","structural_designer":"","landscape_designer":"","shinkenchiku_url":""},{"id":4776,"title":"識名霊園納骨堂","architect":"金城信吉","year":1956.0,"address":"沖縄県那覇市識名2-20-12","latitude":26.207752227783203,"longitude":127.71324920654297,"category":"霊園","big_category":"宗教","description":"","image_url":"","tags":"","prefecture":"沖縄","contractor":"","structural_designer":"","landscape_designer":"","shinkenchiku_url":""},{"id":4777,"title":"南城市立馬天小学校","architect":"末吉栄三","year":1980.0,"address":"沖縄県南城市佐敷津波古1800","latitude":26.181129455566406,"longitude":127.76844024658203,"category":"学校","big_category":"教育","description":"","image_url":"","tags":"","prefecture":"沖縄","contractor":"","structural_designer":"","landscape_designer":"","shinkenchiku_url":""},{"id":4778,"title":"光と風／平安郷","architect":"河井敏明","year":2006.0,"address":"沖縄県うるま市与那城平安座427-9","latitude":26.340251922607422,"longitude":127.95637512207031,"category":"ホテル/養護施設","big_category":"宿泊,医療施設","description":"","image_url":"","tags":"","prefecture":"沖縄","contractor":"","structural_designer":"","landscape_designer":"","shinkenchiku_url":""},{"id":4779,"title":"ザ・リッツ・カールトン沖縄","architect":"観光企画設計社+イリア","year":2007.0,"address":"沖縄県名護市喜瀬1343-1","latitude":26.528148651123047,"longitude":127.93988800048828,"category":"ホテル","big_category":"宿泊","description":"観光企画設計社の設計により2007年竣工、2012年イリアによりリニューアル","image_url":"","tags":"","prefecture":"沖縄","contractor":"","structural_designer":"","landscape_designer":"","shinkenchiku_url":""},{"id":4780,"title":"東京アパートメント","architect":"藤本壮介","year":2010.0,"address":"東京都板橋区小茂根2-14-15","latitude":35.74930191040039,"longitude":139.6824188232422,"category":"集合住宅","big_category":"住宅","description":"","image_url":"","tags":"","prefecture":"東京","contractor":"","structural_designer":"","landscape_designer":"","shinkenchiku_url":""},{"id":4781,"title":"Cawaii Bread & Coffee","architect":"西沢立衛","year":2014.0,"address":"東京都中央区八丁堀2-30-16","latitude":35.67604064941406,"longitude":139.77877807617188,"category":"カフェ","big_category":"商業施設","description":"","image_url":"","tags":"新建築2015年3月号","prefecture":"東京","contractor":"","structural_designer":"","landscape_designer":"","shinkenchiku_url":""},{"id":4782,"title":"ミュウミュウ 青山店","architect":"ヘルツォーク&ド・ムロン+竹中工務店","year":2015.0,"address":"東京都港区南青山3-17-8","latitude":35.66426086425781,"longitude":139.71420288085938,"category":"店舗","big_category":"商業施設","description":"デザインコンサルタント：ヘルツォーク&ド・ムーロン","image_url":"","tags":"新建築2015年5月号","prefecture":"東京","contractor":"","structural_designer":"","landscape_designer":"","shinkenchiku_url":""},{"id":4783,"title":"物質試行55 BRIDGE","architect":"鈴木了二","year":2014.0,"address":"香川県仲多度郡琴平町892-1","latitude":34.18278121948242,"longitude":133.8113250732422,"category":"橋","big_category":"インフラ","description":"","image_url":"","tags":"新建築2015年3月号","prefecture":"香川","contractor":"","structural_designer":"","landscape_designer":"","shinkenchiku_url":""},{"id":4784,"title":"la kagu","architect":"隈研吾+清水建設","year":2014.0,"address":"東京都新宿区矢来町67","latitude":35.70358657836914,"longitude":139.73318481445312,"category":"テナントビル/店舗","big_category":"商業施設,商業施設","description":"","image_url":"","tags":"新建築2015年3月号","prefecture":"東京","contractor":"","structural_designer":"","landscape_designer":"","shinkenchiku_url":""},{"id":4785,"title":"長谷川醸庫 みそ・蔵カフェ","architect":"関谷昌人","year":2013.0,"address":"富山県高岡市和田16","latitude":36.7410774230957,"longitude":136.9862518310547,"category":"カフェ/企業施設","big_category":"商業施設,企業施設","description":"","image_url":"","tags":"新建築2015年3月号","prefecture":"富山","contractor":"","structural_designer":"","landscape_designer":"","shinkenchiku_url":""},{"id":4786,"title":"SodaCCo","architect":"ブルースタジオ","year":2015.0,"address":"東京都渋谷区代官山町9-10","latitude":35.65167999267578,"longitude":139.70469665527344,"category":"テナントビル/オフィスビル/複合施設","big_category":"商業施設,企業施設,商業施設","description":"","image_url":"","tags":"新建築2016年3月号","prefecture":"東京","contractor":"","structural_designer":"","landscape_designer":"","shinkenchiku_url":""},{"id":4787,"title":"女川駅 女川温泉ゆぽっぽ","architect":"坂茂","year":2015.0,"address":"宮城県牡鹿郡女川町女川浜大原106","latitude":38.44702911376953,"longitude":141.44314575195312,"category":"駅/温泉","big_category":"インフラ,宿泊","description":"3/21オープン","image_url":"","tags":"新建築2015年9月号","prefecture":"宮城","contractor":"","structural_designer":"","landscape_designer":"","shinkenchiku_url":""},{"id":4788,"title":"田町駅東口北地区まちづくり ／ 田町スマエネパーク","architect":"日本設計","year":2014.0,"address":"東京都港区芝浦1-16","latitude":35.64542007446289,"longitude":139.75184631347656,"category":"都市計画","big_category":"公共施設","description":"","image_url":"","tags":"新建築2015年3月号","prefecture":"東京","contractor":"","structural_designer":"","landscape_designer":"","shinkenchiku_url":""},{"id":4789,"title":"みなとパーク芝浦","architect":"NTTファシリティーズ","year":2014.0,"address":"東京都港区芝浦1-16-1","latitude":35.64651107788086,"longitude":139.75241088867188,"category":"庁舎/公共施設","big_category":"公共施設,公共施設","description":"","image_url":"","tags":"新建築2015年3月号","prefecture":"東京","contractor":"","structural_designer":"","landscape_designer":"","shinkenchiku_url":""},{"id":4790,"title":"愛育病院","architect":"日建設計","year":2014.0,"address":"東京都港区芝浦1-16-10","latitude":35.64603805541992,"longitude":139.7524871826172,"category":"病院","big_category":"医療施設","description":"","image_url":"","tags":"新建築2015年3月号","prefecture":"東京","contractor":"","structural_designer":"","landscape_designer":"","shinkenchiku_url":""},{"id":4791,"title":"裏磐梯高原ホテル","architect":"竹中工務店","year":1983.0,"address":"福島県耶麻郡北塩原村桧原湯平山1171","latitude":37.64869689941406,"longitude":140.06410217285156,"category":"ホテル","big_category":"宿泊","description":"2011年、2012年、2014年の3期に分けて増改修","image_url":"","tags":"2016年JIA25年賞 受賞作品,新建築2015年3月号","prefecture":"福島","contractor":"","structural_designer":"","landscape_designer":"","shinkenchiku_url":""},{"id":4792,"title":"ダイキン オー・ド・シエル蓼科 セミナーハウス","architect":"竹中工務店","year":2014.0,"address":"長野県茅野市北山4035-2","latitude":36.07053756713867,"longitude":138.28857421875,"category":"研修施設","big_category":"教育","description":"","image_url":"","tags":"新建築2015年3月号","prefecture":"長野","contractor":"","structural_designer":"","landscape_designer":"","shinkenchiku_url":""},{"id":4793,"title":"ダイキン オー・ド・シエル蓼科","architect":"室伏次郎","year":1991.0,"address":"長野県茅野市北山4035-2","latitude":36.069644927978516,"longitude":138.2891387939453,"category":"その他宿泊施設/研修施設","big_category":"宿泊,教育","description":"","image_url":"","tags":"1993年日本建築学会 作品賞,新建築1992年3月号","prefecture":"長野","contractor":"","structural_designer":"","landscape_designer":"","shinkenchiku_url":""},{"id":4794,"title":"箱根ハイランドホテル新館 森のレジデンス","architect":"岡部憲明+フジタ","year":2014.0,"address":"神奈川県足柄下郡箱根町仙石原品の木940","latitude":35.26696014404297,"longitude":139.01589965820312,"category":"ホテル","big_category":"宿泊","description":"クレジット：大和小田急建設一級建築士事務所（現フジタ）","image_url":"","tags":"新建築2015年3月号","prefecture":"神奈川","contractor":"","structural_designer":"","landscape_designer":"","shinkenchiku_url":""},{"id":4795,"title":"オルフェグループ本部","architect":"高松伸","year":1987.0,"address":"愛知県西尾市丁田町五助7","latitude":34.86293029785156,"longitude":137.06350708007812,"category":"オフィスビル","big_category":"企業施設","description":"","image_url":"","tags":"","prefecture":"愛知","contractor":"","structural_designer":"","landscape_designer":"","shinkenchiku_url":""},{"id":4796,"title":"三次市民ホール きりり","architect":"青木淳","year":2014.0,"address":"広島県三次市三次町111-1","latitude":34.81161117553711,"longitude":132.86660766601562,"category":"ホール・劇場","big_category":"文化施設","description":"","image_url":"","tags":"新建築2015年5月号","prefecture":"広島","contractor":"","structural_designer":"","landscape_designer":"","shinkenchiku_url":""},{"id":4797,"title":"安曇野市役所新本庁舎","architect":"内藤廣","year":2015.0,"address":"長野県安曇野市豊科6000","latitude":36.303916931152344,"longitude":137.90582275390625,"category":"庁舎","big_category":"公共施設","description":"5/7が開庁日。","image_url":"","tags":"新建築2015年9月号","prefecture":"長野","contractor":"","structural_designer":"","landscape_designer":"","shinkenchiku_url":""},{"id":4798,"title":"鞆の津ミュージアム","architect":"竹原義二","year":2012.0,"address":"広島県福山市鞆町鞆271","latitude":34.385623931884766,"longitude":133.38209533691406,"category":"美術館","big_category":"ミュージアム","description":"","image_url":"","tags":"","prefecture":"広島","contractor":"","structural_designer":"","landscape_designer":"","shinkenchiku_url":""},{"id":4799,"title":"みんなの森 ぎふメディアコスモス","architect":"伊東豊雄","year":2015.0,"address":"岐阜県岐阜市司町40-5","latitude":35.42697525024414,"longitude":136.7597198486328,"category":"総合文化施設","big_category":"文化施設","description":"2015/7/18に正式オープン","image_url":"","tags":"新建築2015年9月号","prefecture":"岐阜","contractor":"","structural_designer":"","landscape_designer":"","shinkenchiku_url":""},{"id":4800,"title":"妙経寺","architect":"川島甲士","year":1959.0,"address":"東京都台東区元浅草2-5-13","latitude":35.7100944519043,"longitude":139.7834930419922,"category":"寺院","big_category":"宗教","description":"","image_url":"","tags":"","prefecture":"東京","contractor":"","structural_designer":"","landscape_designer":"","shinkenchiku_url":""}]}