{"page":103,"total_pages":290,"items_per_page":50,"total_items":14467,"items":[{"id":5101,"title":"サッポロファクトリー","architect":"竹山実+大成建設","year":1993.0,"address":"北海道札幌市中央区北2条東4","latitude":43.065513610839844,"longitude":141.36302185058594,"category":"モール/複合施設/公共施設","big_category":"商業施設,商業施設,公共施設","description":"","image_url":"","tags":"","prefecture":"北海道","contractor":"","structural_designer":"","landscape_designer":"","shinkenchiku_url":""},{"id":5102,"title":"京都ルネサンス セレマビル","architect":"竹山実","year":1986.0,"address":"京都府京都市下京区東塩小路町849","latitude":34.98685836791992,"longitude":135.76087951660156,"category":"テナントビル","big_category":"商業施設","description":"","image_url":"","tags":"","prefecture":"京都","contractor":"","structural_designer":"","landscape_designer":"","shinkenchiku_url":""},{"id":5103,"title":"軽井沢アイスパーク","architect":"山下設計","year":2013.0,"address":"長野県北佐久郡軽井沢町発地1154-1","latitude":36.3219108581543,"longitude":138.594482421875,"category":"体育館","big_category":"レジャー施設","description":"","image_url":"","tags":"","prefecture":"長野","contractor":"","structural_designer":"","landscape_designer":"","shinkenchiku_url":""},{"id":5104,"title":"どうぎんカーリングスタジアム","architect":"山下設計","year":2012.0,"address":"北海道札幌市豊平区月寒東1条8-1-4","latitude":43.0284538269043,"longitude":141.3997039794922,"category":"体育館","big_category":"レジャー施設","description":"","image_url":"","tags":"","prefecture":"北海道","contractor":"","structural_designer":"","landscape_designer":"","shinkenchiku_url":""},{"id":5105,"title":"伊達市総合体育館 あかつき","architect":"山下設計","year":2012.0,"address":"北海道伊達市松ヶ枝町 伊達市総合体育館あかつき","latitude":42.47279739379883,"longitude":140.87831115722656,"category":"体育館","big_category":"レジャー施設","description":"","image_url":"","tags":"","prefecture":"北海道","contractor":"","structural_designer":"","landscape_designer":"","shinkenchiku_url":""},{"id":5106,"title":"つくば市庁舎","architect":"山下設計","year":2010.0,"address":"茨城県つくば市研究学園1-1-1","latitude":36.08344268798828,"longitude":140.07644653320312,"category":"庁舎","big_category":"公共施設","description":"","image_url":"","tags":"","prefecture":"茨城","contractor":"","structural_designer":"","landscape_designer":"","shinkenchiku_url":""},{"id":5107,"title":"第2新橋会館","architect":"山下設計","year":2008.0,"address":"東京都中央区銀座7-8-15","latitude":35.669090270996094,"longitude":139.76219177246094,"category":"テナントビル","big_category":"商業施設","description":"","image_url":"","tags":"","prefecture":"東京","contractor":"","structural_designer":"","landscape_designer":"","shinkenchiku_url":""},{"id":5108,"title":"菰野町図書館","architect":"山下設計","year":2008.0,"address":"三重県三重郡菰野町潤田1250","latitude":35.019195556640625,"longitude":136.50718688964844,"category":"図書館","big_category":"文化施設","description":"","image_url":"","tags":"","prefecture":"三重","contractor":"","structural_designer":"","landscape_designer":"","shinkenchiku_url":""},{"id":5109,"title":"仙台白百合女子大学","architect":"山下設計","year":2007.0,"address":"宮城県仙台市泉区本田町6-1","latitude":38.32143783569336,"longitude":140.90383911132812,"category":"大学","big_category":"教育","description":"","image_url":"","tags":"","prefecture":"宮城","contractor":"","structural_designer":"","landscape_designer":"","shinkenchiku_url":""},{"id":5110,"title":"マリンタラソ出雲","architect":"日建設計","year":2006.0,"address":"島根県出雲市多伎町多岐859-1","latitude":35.287010192871094,"longitude":132.62782287597656,"category":"ホテル/プール","big_category":"宿泊,レジャー施設","description":"","image_url":"","tags":"","prefecture":"島根","contractor":"","structural_designer":"","landscape_designer":"","shinkenchiku_url":""},{"id":5111,"title":"日本ユダヤ教団 ユダヤコミュニティセンター","architect":"槇文彦","year":2009.0,"address":"東京都渋谷区広尾3-8-8","latitude":35.65478515625,"longitude":139.71661376953125,"category":"宗教施設","big_category":"宗教","description":"","image_url":"","tags":"","prefecture":"東京","contractor":"","structural_designer":"","landscape_designer":"","shinkenchiku_url":""},{"id":5112,"title":"東京電機大学 東京千住キャンパス","architect":"槇文彦","year":2012.0,"address":"東京都足立区千住旭町5","latitude":35.74806594848633,"longitude":139.80625915527344,"category":"大学","big_category":"教育","description":"","image_url":"","tags":"","prefecture":"東京","contractor":"","structural_designer":"","landscape_designer":"","shinkenchiku_url":""},{"id":5113,"title":"神奈川大学 湘南ひらつかキャンパス 11号館","architect":"槇文彦","year":2009.0,"address":"神奈川県平塚市土屋2946","latitude":35.34393310546875,"longitude":139.2610321044922,"category":"大学","big_category":"教育","description":"","image_url":"","tags":"","prefecture":"神奈川","contractor":"","structural_designer":"","landscape_designer":"","shinkenchiku_url":""},{"id":5114,"title":"神奈川大学 横浜キャンパス 16号館","architect":"槇文彦","year":1996.0,"address":"神奈川県横浜市神奈川区六角橋3-26","latitude":35.48413848876953,"longitude":139.62188720703125,"category":"大学","big_category":"教育","description":"","image_url":"","tags":"","prefecture":"神奈川","contractor":"","structural_designer":"","landscape_designer":"","shinkenchiku_url":""},{"id":5115,"title":"早稲田社会教育センター","architect":"北川原温","year":2009.0,"address":"東京都新宿区西早稲田1-9-2","latitude":35.70969772338867,"longitude":139.7209014892578,"category":"大学","big_category":"教育","description":"","image_url":"","tags":"","prefecture":"東京","contractor":"","structural_designer":"","landscape_designer":"","shinkenchiku_url":""},{"id":5116,"title":"ARCA","architect":"北川原温","year":2009.0,"address":"東京都渋谷区千駄ヶ谷2-38-1","latitude":35.676612854003906,"longitude":139.7101593017578,"category":"オフィスビル/集合住宅","big_category":"企業施設,住宅","description":"","image_url":"","tags":"","prefecture":"東京","contractor":"","structural_designer":"","landscape_designer":"","shinkenchiku_url":""},{"id":5117,"title":"赤坂フェニックス","architect":"北川原温","year":2008.0,"address":"東京都港区赤坂2-17-69","latitude":35.6716423034668,"longitude":139.7388153076172,"category":"オフィスビル","big_category":"企業施設","description":"","image_url":"","tags":"","prefecture":"東京","contractor":"","structural_designer":"","landscape_designer":"","shinkenchiku_url":""},{"id":5118,"title":"豊島学院高校","architect":"北川原温","year":1999.0,"address":"東京都豊島区池袋本町2-10-1","latitude":35.74065017700195,"longitude":139.71017456054688,"category":"学校","big_category":"教育","description":"","image_url":"","tags":"","prefecture":"東京","contractor":"","structural_designer":"","landscape_designer":"","shinkenchiku_url":""},{"id":5119,"title":"大學眼鏡研究所","architect":"北川原温","year":2002.0,"address":"東京都中央区銀座5-14-3","latitude":35.66886520385742,"longitude":139.76754760742188,"category":"オフィスビル/店舗","big_category":"企業施設,商業施設","description":"","image_url":"","tags":"","prefecture":"東京","contractor":"","structural_designer":"","landscape_designer":"","shinkenchiku_url":""},{"id":5120,"title":"皇居外苑休憩所","architect":"北川原温","year":2003.0,"address":"東京都千代田区皇居外苑1-1","latitude":35.677391052246094,"longitude":139.7593231201172,"category":"観光施設","big_category":"レジャー施設","description":"","image_url":"","tags":"","prefecture":"東京","contractor":"","structural_designer":"","landscape_designer":"","shinkenchiku_url":""},{"id":5121,"title":"デュオ柏原","architect":"北川原温","year":1991.0,"address":"福岡県福岡市南区柏原6-62","latitude":33.52336883544922,"longitude":130.39266967773438,"category":"集合住宅/公民館・交流施設","big_category":"住宅,公共施設","description":"","image_url":"","tags":"","prefecture":"福岡","contractor":"","structural_designer":"","landscape_designer":"","shinkenchiku_url":""},{"id":5122,"title":"クラウディオスプーン","architect":"北川原温","year":1988.0,"address":"東京都西東京市東伏見5-4-5","latitude":35.72406768798828,"longitude":139.5599822998047,"category":"集合住宅","big_category":"住宅","description":"","image_url":"","tags":"","prefecture":"東京","contractor":"","structural_designer":"","landscape_designer":"","shinkenchiku_url":""},{"id":5123,"title":"美安温閣 赤坂TOビル","architect":"北川原温","year":1986.0,"address":"東京都港区赤坂4-9-19","latitude":35.67510223388672,"longitude":139.7326202392578,"category":"オフィスビル","big_category":"企業施設","description":"","image_url":"","tags":"","prefecture":"東京","contractor":"","structural_designer":"","landscape_designer":"","shinkenchiku_url":""},{"id":5124,"title":"臨川寺","architect":"栗生明","year":2014.0,"address":"東京都江東区清澄3-4-6","latitude":35.681800842285156,"longitude":139.7977294921875,"category":"寺院","big_category":"宗教","description":"","image_url":"","tags":"","prefecture":"東京","contractor":"","structural_designer":"","landscape_designer":"","shinkenchiku_url":""},{"id":5125,"title":"させぼ五番街","architect":"栗生明","year":2013.0,"address":"長崎県佐世保市新港町2-1","latitude":33.16523361206055,"longitude":129.7230224609375,"category":"モール","big_category":"商業施設","description":"","image_url":"","tags":"","prefecture":"長崎","contractor":"","structural_designer":"","landscape_designer":"","shinkenchiku_url":""},{"id":5126,"title":"あいおい損保新宿ビル 旧大東京火災新宿ビル","architect":"槇文彦","year":1989.0,"address":"東京都渋谷区代々木3-25-3","latitude":35.684635162353516,"longitude":139.6923828125,"category":"オフィスビル","big_category":"企業施設","description":"","image_url":"","tags":"","prefecture":"東京","contractor":"","structural_designer":"","landscape_designer":"","shinkenchiku_url":""},{"id":5127,"title":"慶應義塾日吉図書館","architect":"槇文彦","year":1985.0,"address":"神奈川県横浜市港北区日吉4-1","latitude":35.55363845825195,"longitude":139.64805603027344,"category":"大学/図書館","big_category":"教育,文化施設","description":"","image_url":"","tags":"","prefecture":"神奈川","contractor":"","structural_designer":"","landscape_designer":"","shinkenchiku_url":""},{"id":5128,"title":"慶應義塾大学 大学院棟","architect":"槇文彦","year":1985.0,"address":"東京都港区三田2-15-45","latitude":35.64875030517578,"longitude":139.74249267578125,"category":"大学","big_category":"教育","description":"","image_url":"","tags":"","prefecture":"東京","contractor":"","structural_designer":"","landscape_designer":"","shinkenchiku_url":""},{"id":5129,"title":"セダー･ストーン･ヴィラ","architect":"槇文彦","year":1984.0,"address":"東京都渋谷区鉢山町15-5","latitude":35.65119552612305,"longitude":139.69598388671875,"category":"店舗/住宅","big_category":"商業施設,住宅","description":"","image_url":"","tags":"","prefecture":"東京","contractor":"","structural_designer":"","landscape_designer":"","shinkenchiku_url":""},{"id":5130,"title":"慶應義塾大学 図書館・新館","architect":"槇文彦","year":1981.0,"address":"東京都港区三田2-15-45","latitude":35.64863967895508,"longitude":139.74354553222656,"category":"大学/図書館","big_category":"教育,文化施設","description":"","image_url":"","tags":"","prefecture":"東京","contractor":"","structural_designer":"","landscape_designer":"","shinkenchiku_url":""},{"id":5131,"title":"ロレックス東陽町ビル","architect":"槇文彦","year":2002.0,"address":"東京都江東区東陽3-28-6","latitude":35.669246673583984,"longitude":139.8157196044922,"category":"オフィスビル","big_category":"企業施設","description":"","image_url":"","tags":"","prefecture":"東京","contractor":"","structural_designer":"","landscape_designer":"","shinkenchiku_url":""},{"id":5132,"title":"ヒルサイドウエスト","architect":"槇文彦","year":1998.0,"address":"東京都渋谷区鉢山町13-13","latitude":35.6512336730957,"longitude":139.69662475585938,"category":"テナントビル/オフィスビル/集合住宅","big_category":"商業施設,企業施設,住宅","description":"ヒルサイドテラス第七期","image_url":"","tags":"","prefecture":"東京","contractor":"","structural_designer":"","landscape_designer":"","shinkenchiku_url":""},{"id":5133,"title":"幕張メッセ 新展示場･北ホール","architect":"槇文彦","year":1997.0,"address":"千葉県千葉市美浜区中瀬2-5","latitude":35.649810791015625,"longitude":140.036376953125,"category":"展示・会議場","big_category":"公共施設","description":"","image_url":"","tags":"","prefecture":"千葉","contractor":"","structural_designer":"","landscape_designer":"","shinkenchiku_url":""},{"id":5134,"title":"幕張メッセ ペデストリアンブリッジ","architect":"槇文彦","year":2009.0,"address":"千葉県千葉市美浜区中瀬2-5","latitude":35.64826202392578,"longitude":140.03591918945312,"category":"橋","big_category":"インフラ","description":"","image_url":"","tags":"","prefecture":"千葉","contractor":"","structural_designer":"","landscape_designer":"","shinkenchiku_url":""},{"id":5135,"title":"横浜市川和中学校","architect":"槇文彦","year":1980.0,"address":"神奈川県横浜市都筑区富士見が丘21-1","latitude":35.53099060058594,"longitude":139.55711364746094,"category":"学校","big_category":"教育","description":"","image_url":"","tags":"","prefecture":"神奈川","contractor":"","structural_designer":"","landscape_designer":"","shinkenchiku_url":""},{"id":5136,"title":"在日デンマーク大使館","architect":"槇文彦","year":1979.0,"address":"東京都渋谷区猿楽町29","latitude":35.648372650146484,"longitude":139.69979858398438,"category":"公共施設","big_category":"公共施設","description":"","image_url":"","tags":"","prefecture":"東京","contractor":"","structural_designer":"","landscape_designer":"","shinkenchiku_url":""},{"id":5137,"title":"横浜市立並木第一小学校","architect":"槇文彦","year":1978.0,"address":"神奈川県横浜市金沢区並木1-7-1","latitude":35.37311553955078,"longitude":139.6389923095703,"category":"学校","big_category":"教育","description":"","image_url":"","tags":"","prefecture":"神奈川","contractor":"","structural_designer":"","landscape_designer":"","shinkenchiku_url":""},{"id":5138,"title":"金沢シーサイドタウン 並木一丁目","architect":"槇文彦","year":1978.0,"address":"神奈川県横浜市金沢区並木1-","latitude":35.371253967285156,"longitude":139.6390838623047,"category":"集合住宅","big_category":"住宅","description":"","image_url":"","tags":"","prefecture":"神奈川","contractor":"","structural_designer":"","landscape_designer":"","shinkenchiku_url":""},{"id":5139,"title":"金沢シーサイドタウン 並木二丁目","architect":"神谷・荘司計画設計事務所+内井昭蔵+宮脇檀+現代計画研究所","year":1981.0,"address":"神奈川県横浜市金沢区並木2-","latitude":35.364471435546875,"longitude":139.6387481689453,"category":"集合住宅","big_category":"住宅","description":"それぞれの担当地区は以下の通り。宮脇檀:3、4街区 内井昭蔵:9街区 神谷宏治:10、11街区 藤本昌也:2街区","image_url":"","tags":"","prefecture":"神奈川","contractor":"","structural_designer":"","landscape_designer":"","shinkenchiku_url":""},{"id":5140,"title":"在日オーストリア大使館","architect":"槇文彦","year":1976.0,"address":"東京都港区元麻布1-1-20","latitude":35.65586471557617,"longitude":139.73281860351562,"category":"公共施設","big_category":"公共施設","description":"","image_url":"","tags":"","prefecture":"東京","contractor":"","structural_designer":"","landscape_designer":"","shinkenchiku_url":""},{"id":5141,"title":"野庭幼稚園","architect":"槇文彦","year":1974.0,"address":"神奈川県横浜市港南区野庭町633","latitude":35.38899230957031,"longitude":139.57192993164062,"category":"幼稚園","big_category":"教育","description":"","image_url":"","tags":"","prefecture":"神奈川","contractor":"","structural_designer":"","landscape_designer":"","shinkenchiku_url":""},{"id":5142,"title":"加藤学園 暁秀初等学校","architect":"槇文彦","year":1972.0,"address":"静岡県沼津市大岡自由ヶ丘1979","latitude":35.11748504638672,"longitude":138.86891174316406,"category":"学校","big_category":"教育","description":"","image_url":"","tags":"DOCOMOMO,2014年JIA25年賞,登録有形文化財","prefecture":"静岡","contractor":"","structural_designer":"","landscape_designer":"","shinkenchiku_url":""},{"id":5143,"title":"金沢区総合庁舎","architect":"槇文彦","year":1971.0,"address":"神奈川県横浜市金沢区泥亀2-9-1","latitude":35.33723831176758,"longitude":139.6244659423828,"category":"庁舎","big_category":"公共施設","description":"2016年解体、建て替え","image_url":"","tags":"","prefecture":"神奈川","contractor":"","structural_designer":"","landscape_designer":"","shinkenchiku_url":""},{"id":5144,"title":"富士山「まなびの森」 フォレストアーク","architect":"河邊聰","year":1999.0,"address":"静岡県富士宮市粟倉2745","latitude":35.297576904296875,"longitude":138.70115661621094,"category":"企業施設","big_category":"企業施設","description":"","image_url":"","tags":"","prefecture":"静岡","contractor":"","structural_designer":"","landscape_designer":"","shinkenchiku_url":""},{"id":5145,"title":"あさば旅館","architect":"志水正弘+林公子+横川正広","year":1998.0,"address":"静岡県伊豆市修善寺3450-1","latitude":34.96903991699219,"longitude":138.92477416992188,"category":"旅館","big_category":"宿泊","description":"","image_url":"","tags":"","prefecture":"静岡","contractor":"","structural_designer":"","landscape_designer":"","shinkenchiku_url":""},{"id":5146,"title":"桐蔭学園高等学校","architect":"稲塚二郎","year":1999.0,"address":"神奈川県横浜市青葉区鉄町1614","latitude":35.56674575805664,"longitude":139.52149963378906,"category":"学校","big_category":"教育","description":"","image_url":"","tags":"","prefecture":"神奈川","contractor":"","structural_designer":"","landscape_designer":"","shinkenchiku_url":""},{"id":5147,"title":"世田谷区立桜丘小学校","architect":"船越徹","year":1999.0,"address":"東京都世田谷区桜丘1-19-17","latitude":35.64457702636719,"longitude":139.63124084472656,"category":"学校","big_category":"教育","description":"","image_url":"","tags":"","prefecture":"東京","contractor":"","structural_designer":"","landscape_designer":"","shinkenchiku_url":""},{"id":5148,"title":"BALCON","architect":"木下道郎","year":2000.0,"address":"東京都中野区東中野3-13-10","latitude":35.70878219604492,"longitude":139.68345642089844,"category":"集合住宅","big_category":"住宅","description":"","image_url":"","tags":"","prefecture":"東京","contractor":"","structural_designer":"","landscape_designer":"","shinkenchiku_url":""},{"id":5149,"title":"オムニクォーター","architect":"北山恒","year":2000.0,"address":"東京都港区北青山3-13-12","latitude":35.663936614990234,"longitude":139.70928955078125,"category":"テナントビル/低層オフィス","big_category":"商業施設,企業施設","description":"","image_url":"","tags":"","prefecture":"東京","contractor":"","structural_designer":"","landscape_designer":"","shinkenchiku_url":""},{"id":5150,"title":"東京ドームホテル","architect":"丹下健三","year":2000.0,"address":"東京都文京区後楽1-3","latitude":35.703556060791016,"longitude":139.75320434570312,"category":"ホテル","big_category":"宿泊","description":"","image_url":"","tags":"","prefecture":"東京","contractor":"","structural_designer":"","landscape_designer":"","shinkenchiku_url":""}]}