{"page":235,"total_pages":290,"items_per_page":50,"total_items":14467,"items":[{"id":11701,"title":"てらおか中州本店","architect":"深田勝哉","year":2017.0,"address":"福岡県福岡市博多区中州5-2-6","latitude":33.593563079833984,"longitude":130.40467834472656,"category":"レストラン","big_category":"商業施設","description":"外壁の海鼠壁が特徴的な日本料理店","image_url":"","tags":"Ver4.60(2022年8月)の追加建築","prefecture":"福岡","contractor":"","structural_designer":"","landscape_designer":"","shinkenchiku_url":""},{"id":11702,"title":"U.L.M.R.（Ultra Low Material Renovation）Project:01「K邸」","architect":"河上友信","year":2019.0,"address":"大阪府茨木市駅前1-8-29","latitude":34.81556701660156,"longitude":135.5654754638672,"category":"和風住宅/住宅","big_category":"住宅,住宅","description":"築70年の邸宅をリノベーションした、住宅および招待制ゲストハウス。_x000D_\nhttps://tomonobu-kawakami.com/works/residence.html#ulmr_k","image_url":"","tags":"Ver4.60(2022年8月)の追加建築","prefecture":"大阪","contractor":"","structural_designer":"","landscape_designer":"","shinkenchiku_url":""},{"id":11703,"title":"ラヴィマーナ神戸","architect":"栄隆志","year":2008.0,"address":"兵庫県神戸市中央区神戸空港8-2","latitude":34.635093688964844,"longitude":135.21189880371094,"category":"結婚式場","big_category":"宗教","description":"","image_url":"","tags":"Ver4.60(2022年8月)の追加建築","prefecture":"兵庫","contractor":"東洋建設","structural_designer":"","landscape_designer":"","shinkenchiku_url":""},{"id":11704,"title":"ラヴィマーナ神戸 瑠璃","architect":"栄隆志","year":2014.0,"address":"兵庫県神戸市中央区神戸空港8-2","latitude":34.63615417480469,"longitude":135.211669921875,"category":"結婚式場/レストラン","big_category":"宗教,商業施設","description":"","image_url":"","tags":"Ver4.60(2022年8月)の追加建築","prefecture":"兵庫","contractor":"青木あすなろ建設","structural_designer":"","landscape_designer":"","shinkenchiku_url":""},{"id":11705,"title":"ひかりの子保育園","architect":"栄隆志","year":2021.0,"address":"大阪府交野市東倉治4-2-10","latitude":34.798030853271484,"longitude":135.69775390625,"category":"幼稚園","big_category":"教育","description":"","image_url":"","tags":"Ver4.60(2022年8月)の追加建築","prefecture":"大阪","contractor":"","structural_designer":"","landscape_designer":"","shinkenchiku_url":""},{"id":11706,"title":"料亭 天王殿","architect":"栄隆志","year":2012.0,"address":"大阪府大阪市天王寺区逢阪2-8-52","latitude":34.653385162353516,"longitude":135.50997924804688,"category":"料亭","big_category":"商業施設","description":"","image_url":"","tags":"Ver4.60(2022年8月)の追加建築","prefecture":"大阪","contractor":"","structural_designer":"","landscape_designer":"","shinkenchiku_url":""},{"id":11707,"title":"せんりひじり幼稚園","architect":"栄隆志","year":2015.0,"address":"大阪府豊中市新千里北町3-2-1","latitude":34.8153190612793,"longitude":135.49777221679688,"category":"幼稚園","big_category":"教育","description":"","image_url":"","tags":"Ver4.60(2022年8月)の追加建築","prefecture":"大阪","contractor":"","structural_designer":"","landscape_designer":"","shinkenchiku_url":""},{"id":11708,"title":"菅原天満幼稚園","architect":"栄隆志","year":2018.0,"address":"大阪府大阪市東淀川区菅原2-3-27","latitude":34.737754821777344,"longitude":135.5291290283203,"category":"幼稚園","big_category":"教育","description":"","image_url":"","tags":"Ver4.60(2022年8月)の追加建築","prefecture":"大阪","contractor":"","structural_designer":"","landscape_designer":"","shinkenchiku_url":""},{"id":11709,"title":"菅原天満くすのき保育園","architect":"栄隆志","year":2020.0,"address":"大阪府大阪市東淀川区菅原2-5-47","latitude":34.738037109375,"longitude":135.52870178222656,"category":"幼稚園","big_category":"教育","description":"","image_url":"","tags":"Ver4.60(2022年8月)の追加建築","prefecture":"大阪","contractor":"","structural_designer":"","landscape_designer":"","shinkenchiku_url":""},{"id":11710,"title":"ふじしろ幼稚園","architect":"栄隆志","year":2019.0,"address":"大阪府吹田市藤白台4-9-1","latitude":34.82246398925781,"longitude":135.5134735107422,"category":"幼稚園","big_category":"教育","description":"","image_url":"","tags":"Ver4.60(2022年8月)の追加建築","prefecture":"大阪","contractor":"","structural_designer":"","landscape_designer":"","shinkenchiku_url":""},{"id":11711,"title":"すみれ幼稚園","architect":"栄隆志","year":2015.0,"address":"大阪府大阪市生野区舎利寺1-5-28","latitude":34.65080261230469,"longitude":135.5374755859375,"category":"幼稚園","big_category":"教育","description":"","image_url":"","tags":"Ver4.60(2022年8月)の追加建築","prefecture":"大阪","contractor":"","structural_designer":"","landscape_designer":"","shinkenchiku_url":""},{"id":11712,"title":"朱雀邸","architect":"栄隆志","year":2012.0,"address":"京都府京都市中京区西ノ京中御門東町134","latitude":35.01703643798828,"longitude":135.7321319580078,"category":"結婚式場","big_category":"宗教","description":"","image_url":"","tags":"Ver4.60(2022年8月)の追加建築","prefecture":"京都","contractor":"","structural_designer":"","landscape_designer":"","shinkenchiku_url":""},{"id":11713,"title":"ホテル アラマンダ","architect":"栄隆志","year":2002.0,"address":"奈良県奈良市法華寺町1857-3","latitude":34.6994514465332,"longitude":135.8093719482422,"category":"ホテル","big_category":"宿泊","description":"","image_url":"","tags":"Ver4.60(2022年8月)の追加建築","prefecture":"奈良","contractor":"","structural_designer":"","landscape_designer":"","shinkenchiku_url":""},{"id":11714,"title":"ジェネシスキタビル","architect":"栄隆志","year":2021.0,"address":"大阪府大阪市北区末広町1-15","latitude":34.700279235839844,"longitude":135.50965881347656,"category":"オフィスビル","big_category":"企業施設","description":"","image_url":"","tags":"Ver4.60(2022年8月)の追加建築","prefecture":"大阪","contractor":"","structural_designer":"","landscape_designer":"","shinkenchiku_url":""},{"id":11715,"title":"KUSHI＋DANGO","architect":"濱田修","year":2011.0,"address":"愛知県名古屋市千種区園山町2-25","latitude":35.15648651123047,"longitude":136.97052001953125,"category":"集合住宅","big_category":"住宅","description":"","image_url":"","tags":"Ver4.60(2022年8月)の追加建築","prefecture":"愛知","contractor":"","structural_designer":"","landscape_designer":"","shinkenchiku_url":""},{"id":11716,"title":"道頓堀複合施設","architect":"高松伸","year":1998.0,"address":"大阪府大阪市中央区道頓堀1-10-2","latitude":34.668819427490234,"longitude":135.50106811523438,"category":"テナントビル","big_category":"商業施設","description":"","image_url":"","tags":"Ver4.60(2022年8月)の追加建築","prefecture":"大阪","contractor":"","structural_designer":"","landscape_designer":"","shinkenchiku_url":""},{"id":11717,"title":"SORA terrace cafe","architect":"玉上貴人","year":2017.0,"address":"長野県下高井郡山ノ内町夜間瀬","latitude":36.77621841430664,"longitude":138.4789581298828,"category":"カフェ","big_category":"商業施設","description":"","image_url":"","tags":"Ver4.60(2022年8月)の追加建築","prefecture":"長野","contractor":"","structural_designer":"","landscape_designer":"","shinkenchiku_url":""},{"id":11718,"title":"NHK奈良放送局","architect":"久米設計+奥村組+福本設計","year":2020.0,"address":"奈良県奈良市三条大路1-1-20","latitude":34.6823844909668,"longitude":135.80538940429688,"category":"低層オフィス","big_category":"企業施設","description":"","image_url":"","tags":"Ver4.60(2022年8月)の追加建築,新建築2022年12月号","prefecture":"奈良","contractor":"","structural_designer":"","landscape_designer":"","shinkenchiku_url":""},{"id":11719,"title":"備北丘陵公園展望台","architect":"エイト日本技術開発","year":2018.0,"address":"広島県庄原市三日市町4-10","latitude":34.84076690673828,"longitude":132.9998321533203,"category":"展望台/公園","big_category":"レジャー施設,レジャー施設","description":"","image_url":"","tags":"Ver4.60(2022年8月)の追加建築","prefecture":"広島","contractor":"","structural_designer":"","landscape_designer":"","shinkenchiku_url":""},{"id":11720,"title":"東京競馬場 フジビュースタンド","architect":"松田平田設計+JRAファシリティーズ","year":2007.0,"address":"東京都府中市日吉町1-1","latitude":35.6650276184082,"longitude":139.48377990722656,"category":"スポーツ施設","big_category":"レジャー施設","description":"1971年東京競馬場スタンド竣工後、2007年に改修。","image_url":"","tags":"Ver4.60(2022年8月)の追加建築","prefecture":"東京","contractor":"","structural_designer":"","landscape_designer":"","shinkenchiku_url":""},{"id":11721,"title":"北区立王子第一小学校","architect":"佐藤総合計画","year":2021.0,"address":"東京都北区王子5-14-18","latitude":35.765010833740234,"longitude":139.73779296875,"category":"学校","big_category":"教育","description":"","image_url":"","tags":"Ver4.60(2022年8月)の追加建築","prefecture":"東京","contractor":"","structural_designer":"","landscape_designer":"","shinkenchiku_url":""},{"id":11722,"title":"青山TO","architect":"安藤忠雄","year":1985.0,"address":"東京都港区北青山2-12-32","latitude":35.67008972167969,"longitude":139.7146453857422,"category":"オフィスビル/金融機関","big_category":"企業施設,企業施設","description":"","image_url":"","tags":"Ver4.60(2022年8月)の追加建築","prefecture":"東京","contractor":"","structural_designer":"","landscape_designer":"","shinkenchiku_url":""},{"id":11723,"title":"トッパン小石川ビル","architect":"岡田新一","year":2000.0,"address":"東京都文京区水道1-3-3","latitude":35.70880889892578,"longitude":139.7413787841797,"category":"オフィスビル/博物館","big_category":"企業施設,ミュージアム","description":"内部にコンサートホールや印刷博物館、カフェなどもある","image_url":"","tags":"Ver4.60(2022年8月)の追加建築","prefecture":"東京","contractor":"","structural_designer":"","landscape_designer":"","shinkenchiku_url":""},{"id":11724,"title":"東洋理容美容専門学校 本館","architect":"鈴木弘樹","year":2016.0,"address":"千葉県千葉市中央区春日2-17-12-2","latitude":35.62299346923828,"longitude":140.101806640625,"category":"専門学校","big_category":"教育","description":"","image_url":"","tags":"Ver4.60(2022年8月)の追加建築","prefecture":"千葉","contractor":"","structural_designer":"","landscape_designer":"","shinkenchiku_url":""},{"id":11725,"title":"倉敷市立市民病院","architect":"昭和設計","year":2018.0,"address":"岡山県倉敷市児島駅前2-39","latitude":34.466773986816406,"longitude":133.8063201904297,"category":"病院","big_category":"医療施設","description":"","image_url":"","tags":"Ver4.60(2022年8月)の追加建築","prefecture":"岡山","contractor":"","structural_designer":"","landscape_designer":"","shinkenchiku_url":""},{"id":11726,"title":"武蔵野学芸専門学校2号館","architect":"玉上貴人","year":2020.0,"address":"東京都武蔵野市中町1-33-7","latitude":35.70334243774414,"longitude":139.56504821777344,"category":"専門学校","big_category":"教育","description":"","image_url":"","tags":"Ver4.60(2022年8月)の追加建築","prefecture":"東京","contractor":"","structural_designer":"","landscape_designer":"","shinkenchiku_url":""},{"id":11727,"title":"シマ・クリエイティブハウス新社屋","architect":"安藤忠雄","year":2022.0,"address":"東京都港区南青山7-2-8","latitude":35.65827560424805,"longitude":139.71499633789062,"category":"オフィスビル","big_category":"企業施設","description":"","image_url":"","tags":"Ver4.60(2022年8月)の追加建築","prefecture":"東京","contractor":"","structural_designer":"","landscape_designer":"","shinkenchiku_url":""},{"id":11728,"title":"フォレストインフォレスト ルアール東郷","architect":"隈研吾","year":2009.0,"address":"東京都渋谷区神宮前1-4-20","latitude":35.672977447509766,"longitude":139.70655822753906,"category":"結婚式場","big_category":"宗教","description":"デザイン監修：隈研吾","image_url":"","tags":"Ver4.60(2022年8月)の追加建築","prefecture":"東京","contractor":"","structural_designer":"","landscape_designer":"","shinkenchiku_url":""},{"id":11729,"title":"アートサイロ","architect":"ナイジェル・コーツ","year":1993.0,"address":"東京都港区西麻布4-2-5","latitude":35.658084869384766,"longitude":139.72360229492188,"category":"テナントビル","big_category":"商業施設","description":"","image_url":"","tags":"Ver4.60(2022年8月)の追加建築","prefecture":"東京","contractor":"","structural_designer":"","landscape_designer":"","shinkenchiku_url":""},{"id":11730,"title":"松方ハウス","architect":"ウィリアム・メレル・ヴォーリズ","year":1921.0,"address":"東京都港区元麻布2-14-7","latitude":35.653846740722656,"longitude":139.7303924560547,"category":"洋館","big_category":"近代建築/遺産","description":"","image_url":"","tags":"Ver4.60(2022年8月)の追加建築","prefecture":"東京","contractor":"竹中工務店","structural_designer":"","landscape_designer":"","shinkenchiku_url":""},{"id":11731,"title":"日本基督教団 麻布南部坂教会","architect":"ウィリアム・メレル・ヴォーリズ","year":1933.0,"address":"東京都港区南麻布4-5-6","latitude":35.65108871459961,"longitude":139.72483825683594,"category":"教会","big_category":"宗教","description":"","image_url":"","tags":"Ver4.60(2022年8月)の追加建築","prefecture":"東京","contractor":"","structural_designer":"","landscape_designer":"","shinkenchiku_url":""},{"id":11732,"title":"Between the greens ザ グランダブリュー水戸","architect":"吉田桂子","year":2019.0,"address":"茨城県水戸市笠原町600-30","latitude":36.34317398071289,"longitude":140.45001220703125,"category":"結婚式場","big_category":"宗教","description":"","image_url":"","tags":"Ver4.60(2022年8月)の追加建築","prefecture":"茨城","contractor":"","structural_designer":"","landscape_designer":"","shinkenchiku_url":""},{"id":11733,"title":"東開町モデルハウス TSUMUGU","architect":"吉田桂子","year":2021.0,"address":"鹿児島県鹿児島市東開町4-98","latitude":31.535614013671875,"longitude":130.5345916748047,"category":"住宅","big_category":"住宅","description":"モデルハウス","image_url":"","tags":"Ver4.60(2022年8月)の追加建築","prefecture":"鹿児島","contractor":"","structural_designer":"","landscape_designer":"","shinkenchiku_url":""},{"id":11734,"title":"IKEUCHI GATEビル","architect":"伊東豊雄","year":2022.0,"address":"北海道札幌市中央区南1条西2-18","latitude":43.059532165527344,"longitude":141.354248046875,"category":"テナントビル","big_category":"商業施設","description":"2022年10月中オープン予定。外構はほぼ完成","image_url":"","tags":"Ver4.60(2022年8月)の追加建築,新建築2023年7月号","prefecture":"北海道","contractor":"","structural_designer":"","landscape_designer":"","shinkenchiku_url":""},{"id":11735,"title":"道の駅さんさん南三陸","architect":"隈研吾","year":2022.0,"address":"宮城県本吉郡南三陸町志津川五日町","latitude":38.67892074584961,"longitude":141.44776916503906,"category":"PA・道の駅","big_category":"インフラ","description":"2022年10月1日オープン予定","image_url":"","tags":"Ver4.60(2022年8月)の追加建築","prefecture":"宮城","contractor":"","structural_designer":"","landscape_designer":"","shinkenchiku_url":""},{"id":11736,"title":"陸前高田市ピーカンナッツ産業振興施設","architect":"高池葉子","year":2022.0,"address":"岩手県陸前高田市高田町馬場前304-8","latitude":39.01546859741211,"longitude":141.62692260742188,"category":"店舗/工場","big_category":"商業施設,企業施設","description":"","image_url":"","tags":"新建築2022年9月号,Ver4.70(2022年10月)の追加建築","prefecture":"岩手","contractor":"","structural_designer":"","landscape_designer":"","shinkenchiku_url":""},{"id":11737,"title":"黒龍酒造ESHIKOTO 酒樂棟／地下蔵","architect":"古谷俊一","year":2022.0,"address":"福井県吉田郡永平寺町下浄法寺12-17","latitude":36.096717834472656,"longitude":136.3466796875,"category":"レストラン/醸造所","big_category":"商業施設,商業施設","description":"","image_url":"","tags":"新建築2022年9月号,Ver4.70(2022年10月)の追加建築","prefecture":"福井","contractor":"","structural_designer":"","landscape_designer":"","shinkenchiku_url":""},{"id":11738,"title":"M/PARK BLDG.","architect":"古谷俊一","year":2021.0,"address":"神奈川県川崎市高津区久本3-1-14","latitude":35.59786605834961,"longitude":139.61349487304688,"category":"レストラン/店舗/幼稚園","big_category":"商業施設,商業施設,教育","description":"","image_url":"","tags":"Ver4.70(2022年10月)の追加建築","prefecture":"神奈川","contractor":"","structural_designer":"","landscape_designer":"","shinkenchiku_url":""},{"id":11739,"title":"MOTOBU CORAL ROOF","architect":"長崎大作+松田裕介","year":2022.0,"address":"沖縄県国頭郡本部町崎本部5232","latitude":26.640836715698242,"longitude":127.87968444824219,"category":"港","big_category":"インフラ","description":"","image_url":"","tags":"新建築2022年9月号,Ver4.70(2022年10月)の追加建築","prefecture":"沖縄","contractor":"","structural_designer":"","landscape_designer":"","shinkenchiku_url":""},{"id":11740,"title":"千葉ウシノヒロバ","architect":"TAIMATSU","year":2020.0,"address":"千葉県千葉市若葉区富田町983-1","latitude":35.60365676879883,"longitude":140.2460479736328,"category":"観光施設/公園/体験施設","big_category":"レジャー施設,レジャー施設,レジャー施設","description":"キャンプ場、牧場","image_url":"","tags":"新建築2022年9月号,Ver4.70(2022年10月)の追加建築","prefecture":"千葉","contractor":"","structural_designer":"","landscape_designer":"","shinkenchiku_url":""},{"id":11741,"title":"santo","architect":"前田圭介","year":2022.0,"address":"広島県福山市鞆町後地26-30","latitude":34.40497589111328,"longitude":133.38131713867188,"category":"店舗/体験施設","big_category":"商業施設,レジャー施設","description":"","image_url":"","tags":"新建築2022年9月号,Ver4.70(2022年10月)の追加建築,2024年日本建築学会 作品選奨","prefecture":"広島","contractor":"","structural_designer":"","landscape_designer":"","shinkenchiku_url":""},{"id":11742,"title":"グラウンド・ルーフ","architect":"藤村龍至+林田俊二","year":2020.0,"address":"福岡県福岡市博多区住吉4-18","latitude":33.58274841308594,"longitude":130.4132843017578,"category":"学校/駐車・駐輪場","big_category":"教育,公共施設","description":"","image_url":"","tags":"新建築2022年9月号,Ver4.70(2022年10月)の追加建築","prefecture":"福岡","contractor":"","structural_designer":"","landscape_designer":"","shinkenchiku_url":""},{"id":11743,"title":"KIND CENTER","architect":"渡邉健介","year":2022.0,"address":"千葉県市原市五井海岸10","latitude":35.53208541870117,"longitude":140.08937072753906,"category":"オフィスビル","big_category":"企業施設","description":"","image_url":"","tags":"新建築2022年9月号,Ver4.70(2022年10月)の追加建築","prefecture":"千葉","contractor":"","structural_designer":"","landscape_designer":"","shinkenchiku_url":""},{"id":11744,"title":"玄々堂じんクリニック/ウェル・ヴィレッジ君津","architect":"渡邉健介","year":2017.0,"address":"千葉県君津市坂田","latitude":35.336082458496094,"longitude":139.89756774902344,"category":"個人医院/養護施設","big_category":"医療施設,医療施設","description":"","image_url":"","tags":"Ver4.70(2022年10月)の追加建築","prefecture":"千葉","contractor":"","structural_designer":"","landscape_designer":"","shinkenchiku_url":""},{"id":11745,"title":"坂田NNビル","architect":"渡邉健介","year":2013.0,"address":"千葉県君津市坂田1633-1","latitude":35.33708572387695,"longitude":139.8955535888672,"category":"幼稚園/集合住宅","big_category":"教育,住宅","description":"","image_url":"","tags":"Ver4.70(2022年10月)の追加建築,新建築2014年6月号","prefecture":"千葉","contractor":"キミツ鐵構建設","structural_designer":"長坂設計工舎","landscape_designer":"","shinkenchiku_url":"https://data.shinkenchiku.online/articles/SK_2014_06_174-0"},{"id":11746,"title":"三条市図書館等複合施設「まちやま」","architect":"隈研吾","year":2022.0,"address":"新潟県三条市元町11-6","latitude":37.63238525390625,"longitude":138.95425415039062,"category":"図書館","big_category":"文化施設","description":"","image_url":"","tags":"新建築2022年9月号,Ver4.70(2022年10月)の追加建築","prefecture":"新潟","contractor":"","structural_designer":"","landscape_designer":"","shinkenchiku_url":""},{"id":11747,"title":"日比谷フォートタワー","architect":"日建設計+清水建設","year":2021.0,"address":"東京都港区西新橋1-1-1","latitude":35.67008590698242,"longitude":139.75277709960938,"category":"オフィスビル","big_category":"企業施設","description":"","image_url":"","tags":"新建築2022年9月号,Ver4.70(2022年10月)の追加建築","prefecture":"東京","contractor":"","structural_designer":"","landscape_designer":"","shinkenchiku_url":""},{"id":11748,"title":"TOKYO TORCH D棟 銭瓶町ビルディング","architect":"三菱地所","year":2022.0,"address":"東京都千代田区大手町2-6-3","latitude":35.68562698364258,"longitude":139.76931762695312,"category":"オフィスビル","big_category":"企業施設","description":"","image_url":"","tags":"新建築2022年9月号,Ver4.70(2022年10月)の追加建築","prefecture":"東京","contractor":"","structural_designer":"","landscape_designer":"","shinkenchiku_url":""},{"id":11749,"title":"あそこ 相羽建設本社改修","architect":"小泉誠+相羽建設","year":2021.0,"address":"東京都東村山市本町2-22-11","latitude":35.75886535644531,"longitude":139.46917724609375,"category":"オフィスビル","big_category":"企業施設","description":"","image_url":"","tags":"新建築2022年9月号,Ver4.70(2022年10月)の追加建築","prefecture":"東京","contractor":"相羽建設","structural_designer":"","landscape_designer":"","shinkenchiku_url":""},{"id":11750,"title":"南三陸311メモリアル","architect":"隈研吾","year":2022.0,"address":"宮城県本吉郡南三陸町志津川五日町200-1","latitude":38.67894744873047,"longitude":141.44772338867188,"category":"美術館/博物館","big_category":"ミュージアム,ミュージアム","description":"2022年10月にオープン予定","image_url":"","tags":"Ver4.70(2022年10月)の追加建築","prefecture":"宮城","contractor":"","structural_designer":"","landscape_designer":"","shinkenchiku_url":""}]}