{"page":1,"total_pages":290,"items_per_page":50,"total_items":14467,"items":[{"id":1,"title":"ワン・ニセコ・リゾート・タワーズ","architect":"隈研吾","year":2012.0,"address":"北海道虻田郡ニセコ町ニセコ455-3","latitude":42.84736251831055,"longitude":140.62411499023438,"category":"ホテル","big_category":"宿泊","description":"","image_url":"","tags":"","prefecture":"北海道","contractor":"","structural_designer":"","landscape_designer":"","shinkenchiku_url":""},{"id":2,"title":"ニセコ町民センター","architect":"アトリエブンク","year":2012.0,"address":"北海道虻田郡ニセコ町富士見95","latitude":42.8046989440918,"longitude":140.68991088867188,"category":"公民館・交流施設","big_category":"公共施設","description":"","image_url":"","tags":"","prefecture":"北海道","contractor":"","structural_designer":"","landscape_designer":"","shinkenchiku_url":""},{"id":3,"title":"道の駅 むかわ四季の館","architect":"アトリエブンク","year":1997.0,"address":"北海道勇払郡むかわ町美幸3-3-1","latitude":42.573974609375,"longitude":141.92547607421875,"category":"PA・道の駅","big_category":"インフラ","description":"","image_url":"","tags":"","prefecture":"北海道","contractor":"","structural_designer":"","landscape_designer":"","shinkenchiku_url":""},{"id":4,"title":"蔵囲夢","architect":"不明","year":1902.0,"address":"北海道旭川市4区1条1-","latitude":43.79917907714844,"longitude":142.36265563964844,"category":"洋館","big_category":"近代建築/遺産","description":"","image_url":"","tags":"","prefecture":"北海道","contractor":"","structural_designer":"","landscape_designer":"","shinkenchiku_url":""},{"id":5,"title":"中原悌二郎記念旭川市彫刻美術館 旧旭川偕行社","architect":"滝大吉","year":1902.0,"address":"北海道旭川市春光5条7-5-35","latitude":43.80554962158203,"longitude":142.3643035888672,"category":"美術館","big_category":"ミュージアム","description":"改修のため長期休館中","image_url":"","tags":"","prefecture":"北海道","contractor":"","structural_designer":"","landscape_designer":"","shinkenchiku_url":""},{"id":6,"title":"北海道立旭川美術館","architect":"田上義也+日建設計","year":1981.0,"address":"北海道旭川市常磐公園","latitude":43.776817321777344,"longitude":142.35968017578125,"category":"美術館","big_category":"ミュージアム","description":"","image_url":"","tags":"","prefecture":"北海道","contractor":"","structural_designer":"","landscape_designer":"","shinkenchiku_url":""},{"id":7,"title":"旭川市民文化会館","architect":"天野太郎","year":1973.0,"address":"北海道旭川市8条通9-50","latitude":43.77219772338867,"longitude":142.36520385742188,"category":"ホール・劇場","big_category":"文化施設","description":"","image_url":"","tags":"","prefecture":"北海道","contractor":"","structural_designer":"","landscape_designer":"","shinkenchiku_url":""},{"id":8,"title":"旭川駅","architect":"内藤廣","year":2011.0,"address":"北海道旭川市宮前通西4153-1","latitude":43.762786865234375,"longitude":142.35841369628906,"category":"駅","big_category":"インフラ","description":"","image_url":"","tags":"","prefecture":"北海道","contractor":"","structural_designer":"","landscape_designer":"","shinkenchiku_url":""},{"id":9,"title":"旭川地方合同庁舎","architect":"黒川紀章","year":2004.0,"address":"北海道旭川市宮前通東4155-31","latitude":43.75772476196289,"longitude":142.3728790283203,"category":"庁舎","big_category":"公共施設","description":"","image_url":"","tags":"","prefecture":"北海道","contractor":"","structural_designer":"","landscape_designer":"","shinkenchiku_url":""},{"id":10,"title":"バウムハウス 情緒障害児短期治療施設","architect":"藤本壮介","year":2006.0,"address":"北海道伊達市松ヶ枝町243-1","latitude":42.48488235473633,"longitude":140.89559936523438,"category":"養護施設","big_category":"医療施設","description":"現在見学受付をしていない（かつては2週間前の予約で可能？）","image_url":"","tags":"2007年度日本建築大賞","prefecture":"北海道","contractor":"","structural_designer":"","landscape_designer":"","shinkenchiku_url":""},{"id":11,"title":"赤心社記念館","architect":"不明","year":1888.0,"address":"北海道浦河町荻伏町","latitude":42.196624755859375,"longitude":142.67919921875,"category":"洋館","big_category":"近代建築/遺産","description":"休館日　土・日・月・祝","image_url":"","tags":"","prefecture":"北海道","contractor":"","structural_designer":"","landscape_designer":"","shinkenchiku_url":""},{"id":12,"title":"奥尻島津波館","architect":"アトリエブンク","year":1999.0,"address":"北海道奥尻郡奥尻町青苗36","latitude":42.054141998291016,"longitude":139.44964599609375,"category":"博物館","big_category":"ミュージアム","description":"","image_url":"","tags":"","prefecture":"北海道","contractor":"","structural_designer":"","landscape_designer":"","shinkenchiku_url":""},{"id":13,"title":"奥尻町海洋研修センター","architect":"アトリエブンク","year":1996.0,"address":"北海道奥尻郡奥尻町奥尻314","latitude":42.1771354675293,"longitude":139.51695251464844,"category":"研修施設","big_category":"教育","description":"","image_url":"","tags":"","prefecture":"北海道","contractor":"","structural_designer":"","landscape_designer":"","shinkenchiku_url":""},{"id":14,"title":"エコミュージアムおさしまセンター","architect":"アトリエブンク","year":2002.0,"address":"北海道中川郡音威子府村物満内","latitude":44.73771286010742,"longitude":142.19796752929688,"category":"博物館","big_category":"ミュージアム","description":"","image_url":"","tags":"","prefecture":"北海道","contractor":"","structural_designer":"","landscape_designer":"","shinkenchiku_url":""},{"id":15,"title":"十勝エコロジーパーク ビジターセンター","architect":"象設計集団","year":2010.0,"address":"北海道河東郡音更町十勝川温泉南18-1","latitude":42.93342590332031,"longitude":143.3086395263672,"category":"公園","big_category":"レジャー施設","description":"","image_url":"","tags":"","prefecture":"北海道","contractor":"","structural_designer":"","landscape_designer":"","shinkenchiku_url":""},{"id":16,"title":"万年地域会館","architect":"象設計集団","year":2000.0,"address":"北海道河東郡音更町万年基線55","latitude":43.01897048950195,"longitude":143.13002014160156,"category":"公民館・交流施設","big_category":"公共施設","description":"","image_url":"","tags":"","prefecture":"北海道","contractor":"","structural_designer":"","landscape_designer":"","shinkenchiku_url":""},{"id":17,"title":"下川町ふるさと交流館","architect":"毛綱毅曠","year":1991.0,"address":"北海道上川郡下川町西町1046","latitude":44.293540954589844,"longitude":142.62857055664062,"category":"博物館","big_category":"ミュージアム","description":"","image_url":"","tags":"","prefecture":"北海道","contractor":"","structural_designer":"","landscape_designer":"","shinkenchiku_url":""},{"id":18,"title":"こもれびの杜記念館 旧空知炭鉱倶楽部","architect":"不明","year":1897.0,"address":"北海道歌志内市字本町74-4","latitude":43.52202606201172,"longitude":142.04425048828125,"category":"洋館","big_category":"近代建築/遺産","description":"公開5～10月。建物内部を見学する場合は一週間前までに事前予約が必要。","image_url":"","tags":"","prefecture":"北海道","contractor":"","structural_designer":"","landscape_designer":"","shinkenchiku_url":""},{"id":19,"title":"岩見沢複合駅舎","architect":"西村浩","year":2009.0,"address":"北海道岩見沢市有明町南1-1","latitude":43.203956604003906,"longitude":141.7596435546875,"category":"駅","big_category":"インフラ","description":"","image_url":"","tags":"2010年日本建築学会 作品賞,2014年公共建築賞,2011年日本建築学会 作品選奨","prefecture":"北海道","contractor":"","structural_designer":"","landscape_designer":"","shinkenchiku_url":""},{"id":20,"title":"岩見沢市役所 絵画ホール・松島正幸記念館","architect":"不明","year":1932.0,"address":"北海道岩見沢市7条西1-7","latitude":43.2010612487793,"longitude":141.76808166503906,"category":"ギャラリー","big_category":"ミュージアム","description":"","image_url":"","tags":"","prefecture":"北海道","contractor":"","structural_designer":"","landscape_designer":"","shinkenchiku_url":""},{"id":21,"title":"郷の駅ホッときもべつ","architect":"前川尚治","year":2010.0,"address":"北海道虻田郡喜茂別町喜茂別306-3","latitude":42.794403076171875,"longitude":140.9376983642578,"category":"PA・道の駅","big_category":"インフラ","description":"","image_url":"","tags":"","prefecture":"北海道","contractor":"","structural_designer":"","landscape_designer":"","shinkenchiku_url":""},{"id":22,"title":"西村計雄記念美術館","architect":"都市設計研究所","year":1999.0,"address":"北海道岩内郡共和町南幌似143-2","latitude":42.9752197265625,"longitude":140.6092987060547,"category":"美術館","big_category":"ミュージアム","description":"","image_url":"","tags":"","prefecture":"北海道","contractor":"","structural_designer":"","landscape_designer":"","shinkenchiku_url":""},{"id":23,"title":"小川原脩記念美術館","architect":"アトリエaku","year":1999.0,"address":"北海道虻田郡倶知安町北6条東7-1","latitude":42.906341552734375,"longitude":140.7677764892578,"category":"美術館","big_category":"ミュージアム","description":"","image_url":"","tags":"","prefecture":"北海道","contractor":"","structural_designer":"","landscape_designer":"","shinkenchiku_url":""},{"id":24,"title":"釧路市湿原展望台","architect":"毛綱毅曠","year":1984.0,"address":"北海道釧路市北斗6-11","latitude":43.074012756347656,"longitude":144.3206787109375,"category":"展望台","big_category":"レジャー施設","description":"","image_url":"","tags":"","prefecture":"北海道","contractor":"","structural_designer":"","landscape_designer":"","shinkenchiku_url":""},{"id":25,"title":"釧路市こども遊学館","architect":"アトリエブンク","year":2005.0,"address":"北海道釧路市幸町10-2","latitude":42.986305236816406,"longitude":144.3789520263672,"category":"児童施設","big_category":"教育","description":"","image_url":"","tags":"","prefecture":"北海道","contractor":"","structural_designer":"","landscape_designer":"","shinkenchiku_url":""},{"id":26,"title":"北海道立釧路芸術館","architect":"象設計集団","year":1998.0,"address":"北海道釧路市幸町4-1-5","latitude":42.982723236083984,"longitude":144.3798370361328,"category":"美術館","big_category":"ミュージアム","description":"","image_url":"","tags":"","prefecture":"北海道","contractor":"","structural_designer":"","landscape_designer":"","shinkenchiku_url":""},{"id":27,"title":"北海道釧路湖陵高等学校 同窓会ギャラリー","architect":"毛綱毅曠","year":1996.0,"address":"北海道釧路市緑ヶ岡3-1-31","latitude":42.98151397705078,"longitude":144.41055297851562,"category":"ギャラリー","big_category":"ミュージアム","description":"","image_url":"","tags":"","prefecture":"北海道","contractor":"","structural_designer":"","landscape_designer":"","shinkenchiku_url":""},{"id":28,"title":"釧路市立幣舞中学校 旧東中学校","architect":"毛綱毅曠","year":1986.0,"address":"北海道釧路市春湖台1-3","latitude":42.97599411010742,"longitude":144.40138244628906,"category":"学校","big_category":"教育","description":"","image_url":"","tags":"","prefecture":"北海道","contractor":"","structural_designer":"","landscape_designer":"","shinkenchiku_url":""},{"id":29,"title":"釧路市立博物館","architect":"毛綱毅曠","year":1983.0,"address":"北海道釧路市春湖台1-7","latitude":42.97456359863281,"longitude":144.40335083007812,"category":"博物館","big_category":"ミュージアム","description":"","image_url":"","tags":"1984年日本建築学会 作品賞","prefecture":"北海道","contractor":"","structural_designer":"","landscape_designer":"","shinkenchiku_url":""},{"id":30,"title":"NTTドコモ釧路ビル","architect":"毛綱毅曠","year":1998.0,"address":"北海道釧路市北大通10-1","latitude":42.98708724975586,"longitude":144.38388061523438,"category":"オフィスビル","big_category":"企業施設","description":"","image_url":"","tags":"","prefecture":"北海道","contractor":"","structural_designer":"","landscape_designer":"","shinkenchiku_url":""},{"id":31,"title":"釧路フィッシャーマンズワーフMOO","architect":"毛綱毅曠+日建設計","year":1989.0,"address":"北海道釧路市錦町2-4","latitude":42.98176193237305,"longitude":144.38339233398438,"category":"モール/公共施設","big_category":"商業施設,公共施設","description":"","image_url":"","tags":"2019年JIA25年賞 受賞作品","prefecture":"北海道","contractor":"フジタ工業・鹿島・戸田・村井・亀山共同企業体","structural_designer":"","landscape_designer":"","shinkenchiku_url":""},{"id":32,"title":"釧路キャッスルホテル","architect":"毛綱毅曠","year":1987.0,"address":"北海道釧路市大川町2-5","latitude":42.98043441772461,"longitude":144.3874053955078,"category":"ホテル","big_category":"宿泊","description":"","image_url":"","tags":"","prefecture":"北海道","contractor":"","structural_designer":"","landscape_designer":"","shinkenchiku_url":""},{"id":33,"title":"霧ノ音 旧ふくしま医院","architect":"毛綱毅曠","year":2000.0,"address":"北海道釧路市浦見4-2-2","latitude":42.97561264038086,"longitude":144.38145446777344,"category":"個人医院/コテージ","big_category":"医療施設,宿泊","description":"2025年1月より霧ノ音として一棟貸しの宿泊施設になった","image_url":"","tags":"","prefecture":"北海道","contractor":"","structural_designer":"","landscape_designer":"","shinkenchiku_url":""},{"id":34,"title":"雨煙別小学校","architect":"象設計集団","year":2009.0,"address":"北海道夕張郡栗山町字雨煙別1-4","latitude":43.070159912109375,"longitude":141.8122100830078,"category":"ホテル","big_category":"宿泊","description":"宿泊施設","image_url":"","tags":"","prefecture":"北海道","contractor":"","structural_designer":"","landscape_designer":"","shinkenchiku_url":""},{"id":35,"title":"サッポロビール庭園 ヴァルハラ","architect":"伊東豊雄","year":1989.0,"address":"北海道恵庭市戸磯542-1","latitude":42.864723205566406,"longitude":141.6042938232422,"category":"レストラン/醸造所","big_category":"商業施設,商業施設","description":"","image_url":"","tags":"1990年村野藤吾賞","prefecture":"北海道","contractor":"","structural_designer":"","landscape_designer":"","shinkenchiku_url":""},{"id":36,"title":"旧樺戸集治監庁舎","architect":"不明","year":1886.0,"address":"北海道樺戸郡月形町1219","latitude":43.340694427490234,"longitude":141.67433166503906,"category":"博物館","big_category":"ミュージアム","description":"","image_url":"","tags":"","prefecture":"北海道","contractor":"","structural_designer":"","landscape_designer":"","shinkenchiku_url":""},{"id":37,"title":"剣淵町絵本の館","architect":"アトリエaku","year":2003.0,"address":"北海道上川郡剣淵町緑町15-3","latitude":44.10002517700195,"longitude":142.3588409423828,"category":"博物館","big_category":"ミュージアム","description":"","image_url":"","tags":"","prefecture":"北海道","contractor":"","structural_designer":"","landscape_designer":"","shinkenchiku_url":""},{"id":38,"title":"本の森 厚岸情報館","architect":"アーブ建築研究所","year":1996.0,"address":"北海道厚岸郡厚岸町宮園1-1","latitude":43.05601119995117,"longitude":144.8399200439453,"category":"図書館","big_category":"文化施設","description":"","image_url":"","tags":"2022年JIA25年賞 受賞作品","prefecture":"北海道","contractor":"","structural_designer":"","landscape_designer":"","shinkenchiku_url":""},{"id":39,"title":"旧檜山爾志郡役所兼江差警察署庁舎","architect":"不明","year":1887.0,"address":"北海道檜山郡江差町字中歌町112","latitude":41.868202209472656,"longitude":140.12879943847656,"category":"洋館","big_category":"近代建築/遺産","description":"","image_url":"","tags":"","prefecture":"北海道","contractor":"","structural_designer":"","landscape_designer":"","shinkenchiku_url":""},{"id":40,"title":"江差町文化会館","architect":"アトリエブンク","year":1990.0,"address":"北海道檜山郡江差町茂尻町71","latitude":41.86067199707031,"longitude":140.12550354003906,"category":"ホール・劇場","big_category":"文化施設","description":"","image_url":"","tags":"","prefecture":"北海道","contractor":"","structural_designer":"","landscape_designer":"","shinkenchiku_url":""},{"id":41,"title":"北海道林木育種場旧庁舎","architect":"不明","year":1927.0,"address":"北海道江別市文京台緑町561-1","latitude":43.07855224609375,"longitude":141.51943969726562,"category":"洋館","big_category":"近代建築/遺産","description":"","image_url":"","tags":"","prefecture":"北海道","contractor":"","structural_designer":"","landscape_designer":"","shinkenchiku_url":""},{"id":42,"title":"モエレ沼公園","architect":"イサム・ノグチ+アーキテクトファイブ","year":2003.0,"address":"北海道札幌市東区モエレ沼公園1-1","latitude":43.12253952026367,"longitude":141.4310760498047,"category":"公園","big_category":"レジャー施設","description":"","image_url":"","tags":"2006年日本建築学会 作品選奨","prefecture":"北海道","contractor":"","structural_designer":"","landscape_designer":"","shinkenchiku_url":""},{"id":43,"title":"札幌芸術の森","architect":"不明","year":1993.0,"address":"北海道札幌市南区芸術の森2-75","latitude":42.93922424316406,"longitude":141.34014892578125,"category":"芸術祭・芸術村","big_category":"ミュージアム","description":"","image_url":"","tags":"公共建築百選","prefecture":"北海道","contractor":"","structural_designer":"","landscape_designer":"","shinkenchiku_url":""},{"id":44,"title":"聖ミカエル教会","architect":"アントニン・レーモンド","year":1961.0,"address":"北海道札幌市東区北19条東3-4-5","latitude":43.085330963134766,"longitude":141.35487365722656,"category":"教会","big_category":"宗教","description":"","image_url":"","tags":"","prefecture":"北海道","contractor":"","structural_designer":"","landscape_designer":"","shinkenchiku_url":""},{"id":45,"title":"北海道庁旧本庁舎","architect":"平井晴二郎","year":1888.0,"address":"北海道札幌市中央区北3西6","latitude":43.06435775756836,"longitude":141.34744262695312,"category":"洋館","big_category":"近代建築/遺産","description":"休館土・日・祝","image_url":"","tags":"","prefecture":"北海道","contractor":"","structural_designer":"","landscape_designer":"","shinkenchiku_url":""},{"id":46,"title":"サッポロビール博物館","architect":"サンガーハウゼン社+北海道庁","year":1890.0,"address":"北海道札幌市東区北7条東9-","latitude":43.070865631103516,"longitude":141.36842346191406,"category":"博物館/醸造所","big_category":"ミュージアム,商業施設","description":"サッポロビール札幌工場内","image_url":"","tags":"","prefecture":"北海道","contractor":"","structural_designer":"","landscape_designer":"","shinkenchiku_url":""},{"id":47,"title":"札幌駅前交番","architect":"川人洋志","year":2005.0,"address":"北海道札幌市中央区北5条西4-","latitude":43.06681823730469,"longitude":141.34986877441406,"category":"警察・消防署","big_category":"公共施設","description":"","image_url":"","tags":"","prefecture":"北海道","contractor":"","structural_designer":"","landscape_designer":"","shinkenchiku_url":""},{"id":48,"title":"北大植物園・博物館","architect":"不明","year":1882.0,"address":"北海道札幌市中央区北3西8 ","latitude":43.063663482666016,"longitude":141.3433837890625,"category":"動植物園","big_category":"レジャー施設","description":"","image_url":"","tags":"","prefecture":"北海道","contractor":"","structural_designer":"","landscape_designer":"","shinkenchiku_url":""},{"id":49,"title":"日本キリスト教会 札幌北一条教会","architect":"田上義也","year":1979.0,"address":"北海道札幌市中央区北1条西13-2","latitude":43.06035232543945,"longitude":141.33656311035156,"category":"教会","big_category":"宗教","description":"","image_url":"","tags":"","prefecture":"北海道","contractor":"","structural_designer":"","landscape_designer":"","shinkenchiku_url":""},{"id":50,"title":"北海道立近代美術館","architect":"太田實","year":1977.0,"address":"北海道札幌市中央区北1条西17","latitude":43.06028366088867,"longitude":141.3303985595703,"category":"美術館","big_category":"ミュージアム","description":"","image_url":"","tags":"2006年JIA25年賞","prefecture":"北海道","contractor":"","structural_designer":"","landscape_designer":"","shinkenchiku_url":""}]}