{"page":211,"total_pages":290,"items_per_page":50,"total_items":14467,"items":[{"id":10501,"title":"東京スタジアム 味の素スタジアム","architect":"日本設計","year":2000.0,"address":"東京都調布市西町376-3","latitude":35.664215087890625,"longitude":139.52703857421875,"category":"スタジアム","big_category":"レジャー施設","description":"","image_url":"","tags":"Ver3.90(2021年8月)の追加建築,東京2020オリンピック競技会場","prefecture":"東京","contractor":"大成建設JV・鹿島建設JV","structural_designer":"","landscape_designer":"","shinkenchiku_url":""},{"id":10502,"title":"有明テニスの森 有明コロシアム","architect":"高橋武士","year":1987.0,"address":"東京都江東区有明2-2-22","latitude":35.63640594482422,"longitude":139.7900848388672,"category":"スタジアム","big_category":"レジャー施設","description":"2017～2020年まで仙田満（環境デザイン研究所）設計により改築・改修","image_url":"","tags":"Ver3.90(2021年8月)の追加建築,東京2020オリンピック競技会場","prefecture":"東京","contractor":"","structural_designer":"","landscape_designer":"","shinkenchiku_url":""},{"id":10503,"title":"大井ホッケー競技場","architect":"梓設計","year":2019.0,"address":"東京都品川区八潮4-1-19","latitude":35.59253692626953,"longitude":139.7536163330078,"category":"スタジアム","big_category":"レジャー施設","description":"","image_url":"","tags":"Ver3.90(2021年8月)の追加建築,東京2020オリンピック競技会場","prefecture":"東京","contractor":"菊池建設","structural_designer":"","landscape_designer":"","shinkenchiku_url":""},{"id":10504,"title":"海の森水上競技場","architect":"パシフィックコンサルタンツ","year":2019.0,"address":"東京都江東区海の森3-6-44","latitude":35.60782241821289,"longitude":139.81651306152344,"category":"スタジアム","big_category":"レジャー施設","description":"","image_url":"","tags":"Ver3.90(2021年8月)の追加建築,東京2020オリンピック競技会場","prefecture":"東京","contractor":"大成建設・東洋建設・水ing・日立造船異業種特定JV","structural_designer":"","landscape_designer":"","shinkenchiku_url":""},{"id":10505,"title":"富士スピードウェイ","architect":"大成建設+三菱地所","year":2005.0,"address":"静岡県駿東郡小山町中日向694","latitude":35.372459411621094,"longitude":138.92694091796875,"category":"スタジアム","big_category":"レジャー施設","description":"コース設計はヘルマン・ティルケ","image_url":"","tags":"Ver3.90(2021年8月)の追加建築,東京2020オリンピック競技会場","prefecture":"静岡","contractor":"","structural_designer":"","landscape_designer":"","shinkenchiku_url":""},{"id":10506,"title":"福島県営あづま球場","architect":"環境設計研究室","year":1986.0,"address":"福島県福島市佐原神事場1","latitude":37.721561431884766,"longitude":140.36366271972656,"category":"スタジアム","big_category":"レジャー施設","description":"","image_url":"","tags":"Ver3.90(2021年8月)の追加建築,東京2020オリンピック競技会場","prefecture":"福島","contractor":"","structural_designer":"","landscape_designer":"","shinkenchiku_url":""},{"id":10507,"title":"茨城カシマスタジアム","architect":"日建設計","year":1993.0,"address":"茨城県鹿嶋市神向寺後山26-2","latitude":35.99214553833008,"longitude":140.64065551757812,"category":"スタジアム","big_category":"レジャー施設","description":"","image_url":"","tags":"Ver3.90(2021年8月)の追加建築,東京2020オリンピック競技会場","prefecture":"茨城","contractor":"竹中・住友・常総JV","structural_designer":"","landscape_designer":"","shinkenchiku_url":""},{"id":10508,"title":"埼玉スタジアム2002","architect":"梓設計","year":2001.0,"address":"埼玉県さいたま市緑区美園2-1","latitude":35.90311050415039,"longitude":139.7176055908203,"category":"スタジアム","big_category":"レジャー施設","description":"","image_url":"","tags":"Ver3.90(2021年8月)の追加建築,東京2020オリンピック競技会場","prefecture":"埼玉","contractor":"鹿島建設","structural_designer":"","landscape_designer":"","shinkenchiku_url":""},{"id":10509,"title":"横浜国際総合競技場 日産スタジアム","architect":"松田平田設計+東畑建築事務所","year":1997.0,"address":"神奈川県横浜市港北区小机町3300","latitude":35.509986877441406,"longitude":139.6063690185547,"category":"スタジアム","big_category":"レジャー施設","description":"","image_url":"","tags":"Ver3.90(2021年8月)の追加建築,東京2020オリンピック競技会場,2023年JIA25年賞 登録作品","prefecture":"神奈川","contractor":"竹中工務店・奈良建設共同企業体","structural_designer":"","landscape_designer":"","shinkenchiku_url":""},{"id":10510,"title":"東京国際展示場 東京ビッグサイト","architect":"佐藤総合計画","year":1995.0,"address":"東京都江東区有明3-11-1","latitude":35.63235855102539,"longitude":139.7975311279297,"category":"展示・会議場","big_category":"公共施設","description":"オリンピック競技会場ではなくオリンピック報道・放送センターとして使用された","image_url":"","tags":"Ver3.90(2021年8月)の追加建築,東京2020オリンピック競技会場","prefecture":"東京","contractor":"間組JV","structural_designer":"","landscape_designer":"","shinkenchiku_url":""},{"id":10511,"title":"スダナ保育園","architect":"久保田篤正","year":2019.0,"address":"埼玉県熊谷市広瀬619","latitude":36.15010070800781,"longitude":139.34507751464844,"category":"幼稚園","big_category":"教育","description":"","image_url":"","tags":"Ver3.90(2021年8月)の追加建築","prefecture":"埼玉","contractor":"","structural_designer":"","landscape_designer":"","shinkenchiku_url":""},{"id":10512,"title":"旧吉田悦藏家住宅本館","architect":"ウィリアム・メレル・ヴォーリズ","year":1913.0,"address":"滋賀県近江八幡市池田町5-21-3","latitude":35.13478088378906,"longitude":136.08799743652344,"category":"洋館","big_category":"近代建築/遺産","description":"1930年増築","image_url":"","tags":"登録有形文化財,Ver3.90(2021年8月)の追加建築","prefecture":"滋賀","contractor":"","structural_designer":"","landscape_designer":"","shinkenchiku_url":""},{"id":10513,"title":"ウォーターハウス記念館本館","architect":"ウィリアム・メレル・ヴォーリズ","year":1913.0,"address":"滋賀県近江八幡市池田町5-21","latitude":35.13496398925781,"longitude":136.08798217773438,"category":"洋館/コテージ","big_category":"近代建築/遺産,宿泊","description":"2008年改修。公開イベント有。一棟貸しで宿泊可能。近隣にヴォーリズ設計のダブルハウスもあります（非公開・住居として使用中）","image_url":"","tags":"登録有形文化財,Ver3.90(2021年8月)の追加建築","prefecture":"滋賀","contractor":"","structural_designer":"","landscape_designer":"","shinkenchiku_url":""},{"id":10514,"title":"Solana Takanawadai","architect":"篠原聡子","year":2021.0,"address":"東京都品川区東五反田4-3-40","latitude":35.63289260864258,"longitude":139.72862243652344,"category":"集合住宅","big_category":"住宅","description":"","image_url":"","tags":"Ver3.90(2021年8月)の追加建築","prefecture":"東京","contractor":"","structural_designer":"","landscape_designer":"","shinkenchiku_url":""},{"id":10515,"title":"HAT","architect":"塩田真吾","year":2004.0,"address":"栃木県宇都宮市大通り3-5-17","latitude":36.55887222290039,"longitude":139.89254760742188,"category":"シェアオフィス","big_category":"商業施設","description":"平成16年宇都宮市まちなみ景観大賞・栃木県マロニエ建築奨励賞","image_url":"","tags":"Ver3.90(2021年8月)の追加建築","prefecture":"栃木","contractor":"","structural_designer":"","landscape_designer":"","shinkenchiku_url":""},{"id":10516,"title":"ドコモショップ宇都宮北店","architect":"塩田真吾","year":2008.0,"address":"栃木県宇都宮市岩曽町1321-2","latitude":36.58158874511719,"longitude":139.90960693359375,"category":"店舗","big_category":"商業施設","description":"平成20年宇都宮市まちなみ景観賞","image_url":"","tags":"Ver3.90(2021年8月)の追加建築","prefecture":"栃木","contractor":"","structural_designer":"","landscape_designer":"","shinkenchiku_url":""},{"id":10517,"title":"中央アートスクール","architect":"塩田真吾","year":2015.0,"address":"栃木県小山市駅東通り2-24-28","latitude":36.31037521362305,"longitude":139.80970764160156,"category":"専門学校","big_category":"教育","description":"","image_url":"","tags":"Ver3.90(2021年8月)の追加建築","prefecture":"栃木","contractor":"","structural_designer":"","landscape_designer":"","shinkenchiku_url":""},{"id":10518,"title":"インターパーク倉持呼吸器内科","architect":"塩田真吾","year":2015.0,"address":"栃木県宇都宮市中島町765-1","latitude":36.4939079284668,"longitude":139.9026336669922,"category":"個人医院","big_category":"医療施設","description":"","image_url":"","tags":"Ver3.90(2021年8月)の追加建築","prefecture":"栃木","contractor":"","structural_designer":"","landscape_designer":"","shinkenchiku_url":""},{"id":10519,"title":"橿原神宮","architect":"伊東忠太","year":1890.0,"address":"奈良県橿原市久米町934","latitude":34.485801696777344,"longitude":135.79075622558594,"category":"寺院","big_category":"宗教","description":"本殿、及び文華殿が重要文化財として指定されているが、何れも移築で伊東忠太設計ではない模様","image_url":"","tags":"重要文化財,Ver4.00(2021年9月)の追加建築","prefecture":"奈良","contractor":"","structural_designer":"","landscape_designer":"","shinkenchiku_url":""},{"id":10520,"title":"平安神宮","architect":"伊東忠太+木子清敬+佐々木岩次郎","year":1895.0,"address":"京都府京都市左京区岡崎西天王町","latitude":35.01609420776367,"longitude":135.78244018554688,"category":"寺院","big_category":"宗教","description":"本殿は1979年に焼失・再建。1940年に増築されている。大極殿、東歩廊、蒼龍楼、西歩廊、白虎楼、応天門が1895年建立で何れも重要文化財に指定されている","image_url":"","tags":"重要文化財,Ver4.00(2021年9月)の追加建築","prefecture":"京都","contractor":"","structural_designer":"","landscape_designer":"","shinkenchiku_url":""},{"id":10521,"title":"豊国廟","architect":"伊東忠太","year":1898.0,"address":"京都府東山区今熊野阿弥陀ケ峯町","latitude":34.98815155029297,"longitude":135.78521728515625,"category":"霊園","big_category":"宗教","description":"山頂の石造五輪塔","image_url":"","tags":"Ver4.00(2021年9月)の追加建築","prefecture":"京都","contractor":"","structural_designer":"","landscape_designer":"","shinkenchiku_url":""},{"id":10522,"title":"宮崎神宮","architect":"伊東忠太","year":1907.0,"address":"宮崎県宮崎市神宮2-4-1","latitude":31.938339233398438,"longitude":131.4235382080078,"category":"寺院","big_category":"宗教","description":"神殿・幣殿・渡殿・神饌所・御料屋・透間垣・拝所・正門・玉垣・石柵などいずれも伊東忠太設計","image_url":"","tags":"登録有形文化財,Ver4.00(2021年9月)の追加建築","prefecture":"宮崎","contractor":"","structural_designer":"","landscape_designer":"","shinkenchiku_url":""},{"id":10523,"title":"南部利祥像台座","architect":"伊東忠太+横濱勉","year":1908.0,"address":"岩手県盛岡市内丸1-1","latitude":39.69992446899414,"longitude":141.15013122558594,"category":"オブジェ","big_category":"ミュージアム","description":"南部利祥像そのものは戦時中1944年に供出され、台座のみとなっている","image_url":"","tags":"Ver4.00(2021年9月)の追加建築","prefecture":"岩手","contractor":"鹿島建設","structural_designer":"","landscape_designer":"","shinkenchiku_url":""},{"id":10524,"title":"可睡斎 護国塔","architect":"伊東忠太+佐野利器","year":1911.0,"address":"静岡県袋井市可睡の杜5-12","latitude":34.77549362182617,"longitude":137.91766357421875,"category":"寺院/オブジェ","big_category":"宗教,ミュージアム","description":"設計原案を伊東忠太、施工管理を佐野利器が担当","image_url":"","tags":"Ver4.00(2021年9月)の追加建築","prefecture":"静岡","contractor":"","structural_designer":"","landscape_designer":"","shinkenchiku_url":""},{"id":10525,"title":"西村捨三像台座 ","architect":"伊東忠太","year":1910.0,"address":"大阪府大阪市港区築港3-2","latitude":34.65780258178711,"longitude":135.43295288085938,"category":"オブジェ","big_category":"ミュージアム","description":"","image_url":"","tags":"Ver4.00(2021年9月)の追加建築","prefecture":"大阪","contractor":"","structural_designer":"","landscape_designer":"","shinkenchiku_url":""},{"id":10526,"title":"東京大学 正門","architect":"伊東忠太","year":1912.0,"address":"東京都文京区本郷7-3-1","latitude":35.71294403076172,"longitude":139.75967407226562,"category":"大学","big_category":"教育","description":"","image_url":"","tags":"登録有形文化財,Ver4.00(2021年9月)の追加建築","prefecture":"東京","contractor":"","structural_designer":"","landscape_designer":"","shinkenchiku_url":""},{"id":10527,"title":"楠妣庵観音寺 観音堂・草庵・本堂","architect":"伊東忠太","year":1917.0,"address":"大阪府富田林市甘南備1103","latitude":34.44679260253906,"longitude":135.60467529296875,"category":"寺院","big_category":"宗教","description":"1917年に草庵・観音堂、1922年に本堂が竣工","image_url":"","tags":"Ver4.00(2021年9月)の追加建築","prefecture":"大阪","contractor":"","structural_designer":"","landscape_designer":"","shinkenchiku_url":""},{"id":10528,"title":"大聖寺 亀岡文殊","architect":"伊東忠太","year":1914.0,"address":"山形県東置賜郡高畠町亀岡4028-1","latitude":37.980079650878906,"longitude":140.19017028808594,"category":"寺院","big_category":"宗教","description":"再建","image_url":"","tags":"Ver4.00(2021年9月)の追加建築","prefecture":"山形","contractor":"","structural_designer":"","landscape_designer":"","shinkenchiku_url":""},{"id":10529,"title":"弥彦神社","architect":"伊東忠太","year":1916.0,"address":"新潟県西蒲原郡弥彦村弥彦2887-2","latitude":37.70669937133789,"longitude":138.8259735107422,"category":"寺院","big_category":"宗教","description":"再建","image_url":"","tags":"登録有形文化財,Ver4.00(2021年9月)の追加建築","prefecture":"新潟","contractor":"","structural_designer":"","landscape_designer":"","shinkenchiku_url":""},{"id":10530,"title":"岐阜公園 三重塔","architect":"伊東忠太","year":1917.0,"address":"岐阜県岐阜市槻谷13-2","latitude":35.434661865234375,"longitude":136.7758331298828,"category":"寺院","big_category":"宗教","description":"","image_url":"","tags":"登録有形文化財,Ver4.00(2021年9月)の追加建築","prefecture":"岐阜","contractor":"","structural_designer":"","landscape_designer":"","shinkenchiku_url":""},{"id":10531,"title":"日泰寺 仏舎利奉安塔","architect":"伊東忠太","year":1918.0,"address":"愛知県名古屋市千種区月ケ丘1-1-18","latitude":35.173728942871094,"longitude":136.95758056640625,"category":"寺院/オブジェ","big_category":"宗教,ミュージアム","description":"","image_url":"","tags":"登録有形文化財,Ver4.00(2021年9月)の追加建築","prefecture":"愛知","contractor":"","structural_designer":"","landscape_designer":"","shinkenchiku_url":""},{"id":10532,"title":"武田神社","architect":"伊東忠太+大江新太郎","year":1919.0,"address":"山梨県甲府市古府中町2611","latitude":35.68669128417969,"longitude":138.577392578125,"category":"寺院","big_category":"宗教","description":"","image_url":"","tags":"Ver4.00(2021年9月)の追加建築","prefecture":"山梨","contractor":"","structural_designer":"","landscape_designer":"","shinkenchiku_url":""},{"id":10533,"title":"明治神宮 南神門・東神門・西神門・南手水舎・客殿・大灯籠","architect":"伊東忠太","year":1920.0,"address":"東京都渋谷区代々木神園町1-1","latitude":35.67515182495117,"longitude":139.6991729736328,"category":"寺院","big_category":"宗教","description":"社殿は伊東忠太設計で1920年竣工も戦時中焼失。角南隆設計により1958年再建。神門・東神門・西神門・南手水舎・客殿、南参道の大灯籠などは現存","image_url":"","tags":"重要文化財,Ver4.00(2021年9月)の追加建築","prefecture":"東京","contractor":"","structural_designer":"","landscape_designer":"","shinkenchiku_url":""},{"id":10534,"title":"明治神宮 新社殿","architect":"角南隆","year":1958.0,"address":"東京都渋谷区代々木神園町1-1","latitude":35.675968170166016,"longitude":139.69943237304688,"category":"寺院","big_category":"宗教","description":"旧社殿は伊東忠太設計、1920年竣工も戦時中焼失","image_url":"","tags":"重要文化財,Ver4.00(2021年9月)の追加建築","prefecture":"東京","contractor":"","structural_designer":"","landscape_designer":"","shinkenchiku_url":""},{"id":10535,"title":"明治神宮 神楽殿","architect":"内田祥哉","year":1993.0,"address":"東京都渋谷区代々木神園町1-1","latitude":35.676143646240234,"longitude":139.70004272460938,"category":"寺院","big_category":"宗教","description":"","image_url":"","tags":"Ver4.00(2021年9月)の追加建築","prefecture":"東京","contractor":"","structural_designer":"","landscape_designer":"","shinkenchiku_url":""},{"id":10536,"title":"總持寺 放光観音台座","architect":"伊東忠太","year":1923.0,"address":"神奈川県横浜市鶴見区鶴見2-1-4","latitude":35.505008697509766,"longitude":139.66986083984375,"category":"オブジェ","big_category":"ミュージアム","description":"","image_url":"","tags":"登録有形文化財,Ver4.00(2021年9月)の追加建築","prefecture":"神奈川","contractor":"","structural_designer":"","landscape_designer":"","shinkenchiku_url":""},{"id":10537,"title":"靖国神社 遊就館","architect":"伊東忠太","year":1930.0,"address":"東京都千代田区九段北3-1-1","latitude":35.69533157348633,"longitude":139.7432098388672,"category":"博物館","big_category":"ミュージアム","description":"","image_url":"","tags":"登録有形文化財,Ver4.00(2021年9月)の追加建築","prefecture":"東京","contractor":"","structural_designer":"","landscape_designer":"","shinkenchiku_url":""},{"id":10538,"title":"法華経寺 聖教殿","architect":"伊東忠太+内田祥三","year":1931.0,"address":"千葉県市川市中山2-13-8","latitude":35.721683502197266,"longitude":139.9491424560547,"category":"寺院/オブジェ","big_category":"宗教,ミュージアム","description":"","image_url":"","tags":"Ver4.00(2021年9月)の追加建築","prefecture":"千葉","contractor":"","structural_designer":"","landscape_designer":"","shinkenchiku_url":""},{"id":10539,"title":"靖国神社 神門","architect":"伊東忠太","year":1934.0,"address":"東京都千代田区九段北3-1-1","latitude":35.69431686401367,"longitude":139.74420166015625,"category":"寺院","big_category":"宗教","description":"","image_url":"","tags":"Ver4.00(2021年9月)の追加建築","prefecture":"東京","contractor":"","structural_designer":"","landscape_designer":"","shinkenchiku_url":""},{"id":10540,"title":"靖国神社 石鳥居","architect":"伊東忠太","year":1934.0,"address":"東京都千代田区九段北2-1","latitude":35.69453430175781,"longitude":139.74647521972656,"category":"寺院/オブジェ","big_category":"宗教,ミュージアム","description":"","image_url":"","tags":"Ver4.00(2021年9月)の追加建築","prefecture":"東京","contractor":"","structural_designer":"","landscape_designer":"","shinkenchiku_url":""},{"id":10541,"title":"最乗寺 真殿・本堂","architect":"伊東忠太","year":1934.0,"address":"神奈川県南足柄市大雄町1157","latitude":35.301979064941406,"longitude":139.075439453125,"category":"寺院","big_category":"宗教","description":"","image_url":"","tags":"Ver4.00(2021年9月)の追加建築","prefecture":"神奈川","contractor":"","structural_designer":"","landscape_designer":"","shinkenchiku_url":""},{"id":10542,"title":"湯島聖堂","architect":"伊東忠太","year":1935.0,"address":"東京都文京区湯島1-4-25","latitude":35.700782775878906,"longitude":139.7664794921875,"category":"寺院/博物館","big_category":"宗教,ミュージアム","description":"再建","image_url":"","tags":"Ver4.00(2021年9月)の追加建築","prefecture":"東京","contractor":"大林組","structural_designer":"","landscape_designer":"","shinkenchiku_url":""},{"id":10543,"title":"高麗神社","architect":"伊東忠太","year":1935.0,"address":"埼玉県日高市新堀833","latitude":35.89860153198242,"longitude":139.32281494140625,"category":"寺院","big_category":"宗教","description":"","image_url":"","tags":"Ver4.00(2021年9月)の追加建築","prefecture":"埼玉","contractor":"","structural_designer":"","landscape_designer":"","shinkenchiku_url":""},{"id":10544,"title":"尾崎神社 ","architect":"伊東忠太","year":1935.0,"address":"岩手県釜石市浜町3-23","latitude":39.280330657958984,"longitude":141.89370727539062,"category":"寺院","big_category":"宗教","description":"","image_url":"","tags":"Ver4.00(2021年9月)の追加建築","prefecture":"岩手","contractor":"","structural_designer":"","landscape_designer":"","shinkenchiku_url":""},{"id":10545,"title":"成田山新勝寺 太子堂・開山堂","architect":"伊東忠太","year":1936.0,"address":"千葉県成田市成田1","latitude":35.78660202026367,"longitude":140.31845092773438,"category":"寺院","big_category":"宗教","description":"","image_url":"","tags":"Ver4.00(2021年9月)の追加建築","prefecture":"千葉","contractor":"","structural_designer":"","landscape_designer":"","shinkenchiku_url":""},{"id":10546,"title":"今泉嘉一郎胸像所","architect":"伊東忠太","year":1936.0,"address":"群馬県みどり市東町花輪191","latitude":36.52227783203125,"longitude":139.30958557128906,"category":"オブジェ","big_category":"ミュージアム","description":"","image_url":"","tags":"登録有形文化財,Ver4.00(2021年9月)の追加建築","prefecture":"群馬","contractor":"","structural_designer":"","landscape_designer":"","shinkenchiku_url":""},{"id":10547,"title":"普光寺 毘沙門堂","architect":"伊東忠太","year":1937.0,"address":"新潟県南魚沼市浦佐2495","latitude":37.170047760009766,"longitude":138.91934204101562,"category":"寺院","big_category":"宗教","description":"","image_url":"","tags":"Ver4.00(2021年9月)の追加建築","prefecture":"新潟","contractor":"","structural_designer":"","landscape_designer":"","shinkenchiku_url":""},{"id":10548,"title":"總持寺 大僧堂","architect":"伊東忠太","year":1937.0,"address":"神奈川県横浜市鶴見区鶴見2-1-4","latitude":35.5057373046875,"longitude":139.66986083984375,"category":"寺院","big_category":"宗教","description":"","image_url":"","tags":"登録有形文化財,Ver4.00(2021年9月)の追加建築","prefecture":"神奈川","contractor":"","structural_designer":"","landscape_designer":"","shinkenchiku_url":""},{"id":10549,"title":"可睡斎 山門","architect":"伊東忠太","year":2000.0,"address":"静岡県袋井市可睡の杜5-12","latitude":34.77462387084961,"longitude":137.9196014404297,"category":"寺院","big_category":"宗教","description":"1935年設計の山門を2000年に完成させた","image_url":"","tags":"Ver4.00(2021年9月)の追加建築","prefecture":"静岡","contractor":"","structural_designer":"","landscape_designer":"","shinkenchiku_url":""},{"id":10550,"title":"刈谷市産業振興センター","architect":"アール・アイ・エー","year":1995.0,"address":"愛知県刈谷市相生町1-1-6","latitude":34.99064254760742,"longitude":137.01116943359375,"category":"展示・会議場","big_category":"公共施設","description":"","image_url":"","tags":"Ver4.00(2021年9月)の追加建築","prefecture":"愛知","contractor":"竹中工務店+熊谷組+角文建設+アイシン開発","structural_designer":"","landscape_designer":"","shinkenchiku_url":""}]}