{"page":4,"total_pages":290,"items_per_page":50,"total_items":14467,"items":[{"id":151,"title":"藤田記念庭園","architect":"不明","year":1920.0,"address":"青森県弘前市上白銀町8","latitude":40.603843688964844,"longitude":140.4612274169922,"category":"洋館","big_category":"近代建築/遺産","description":"","image_url":"","tags":"","prefecture":"青森","contractor":"","structural_designer":"","landscape_designer":"","shinkenchiku_url":""},{"id":152,"title":"弘前市役所前川新館","architect":"前川國男","year":1958.0,"address":"青森県弘前市上白銀町1-1","latitude":40.60314178466797,"longitude":140.46377563476562,"category":"庁舎","big_category":"公共施設","description":"","image_url":"","tags":"登録有形文化財","prefecture":"青森","contractor":"","structural_designer":"","landscape_designer":"","shinkenchiku_url":""},{"id":153,"title":"青森銀行記念館 旧第五十九銀行本店本館","architect":"堀江佐吉","year":1904.0,"address":"青森県弘前市元長町26","latitude":40.60289764404297,"longitude":140.4685516357422,"category":"博物館/金融機関","big_category":"ミュージアム,企業施設","description":"12月～3月休業","image_url":"","tags":"重要文化財","prefecture":"青森","contractor":"","structural_designer":"","landscape_designer":"","shinkenchiku_url":""},{"id":154,"title":"弘前市立観光館","architect":"佐藤総合計画","year":1990.0,"address":"青森県弘前市下白銀町2-1","latitude":40.60271453857422,"longitude":140.4658203125,"category":"観光施設","big_category":"レジャー施設","description":"","image_url":"","tags":"","prefecture":"青森","contractor":"","structural_designer":"","landscape_designer":"","shinkenchiku_url":""},{"id":155,"title":"日本聖公会弘前昇天教会教会堂","architect":"ジェームズ・ガーディナー","year":1920.0,"address":"青森県弘前市山道町7-1","latitude":40.599365234375,"longitude":140.47315979003906,"category":"教会","big_category":"宗教","description":"","image_url":"","tags":"","prefecture":"青森","contractor":"","structural_designer":"","landscape_designer":"","shinkenchiku_url":""},{"id":156,"title":"弘前市社会福祉センター","architect":"菊竹清訓","year":1986.0,"address":"青森県弘前市宮園2-8-1","latitude":40.61514663696289,"longitude":140.4768524169922,"category":"福祉センター","big_category":"医療施設","description":"","image_url":"","tags":"","prefecture":"青森","contractor":"","structural_designer":"","landscape_designer":"","shinkenchiku_url":""},{"id":157,"title":"弘前市緑の相談所","architect":"前川國男","year":1980.0,"address":"青森県弘前市上白銀町1-1","latitude":40.6094856262207,"longitude":140.4675750732422,"category":"公共施設","big_category":"公共施設","description":"","image_url":"","tags":"","prefecture":"青森","contractor":"","structural_designer":"","landscape_designer":"","shinkenchiku_url":""},{"id":158,"title":"弘前市立博物館","architect":"前川國男","year":1976.0,"address":"青森県弘前市下白銀町1-6","latitude":40.60540771484375,"longitude":140.46273803710938,"category":"博物館","big_category":"ミュージアム","description":"","image_url":"","tags":"公共建築百選","prefecture":"青森","contractor":"","structural_designer":"","landscape_designer":"","shinkenchiku_url":""},{"id":159,"title":"旧第八師団長官舎","architect":"堀江彦三郎","year":1917.0,"address":"青森県弘前市上白銀町1-1","latitude":40.603031158447266,"longitude":140.462646484375,"category":"洋館","big_category":"近代建築/遺産","description":"","image_url":"","tags":"","prefecture":"青森","contractor":"","structural_designer":"","landscape_designer":"","shinkenchiku_url":""},{"id":160,"title":"旧弘前市立図書館","architect":"堀江佐吉","year":1906.0,"address":"青森県弘前市下白銀町2-1","latitude":40.60271072387695,"longitude":140.4658203125,"category":"博物館","big_category":"ミュージアム","description":"","image_url":"","tags":"重要文化財","prefecture":"青森","contractor":"","structural_designer":"","landscape_designer":"","shinkenchiku_url":""},{"id":161,"title":"旧東奥義塾外人教師館","architect":"不明","year":1900.0,"address":"青森県弘前市下白銀町2-1","latitude":40.602699279785156,"longitude":140.4661865234375,"category":"博物館","big_category":"ミュージアム","description":"","image_url":"","tags":"","prefecture":"青森","contractor":"","structural_designer":"","landscape_designer":"","shinkenchiku_url":""},{"id":162,"title":"中三 弘前店","architect":"毛綱毅曠","year":1995.0,"address":"青森県弘前市大字土手町49-1","latitude":40.6019287109375,"longitude":140.47296142578125,"category":"モール","big_category":"商業施設","description":"","image_url":"","tags":"","prefecture":"青森","contractor":"","structural_designer":"","landscape_designer":"","shinkenchiku_url":""},{"id":163,"title":"弘前こぎん研究所 旧木村産業研究所","architect":"前川國男","year":1932.0,"address":"青森県弘前市在府町61","latitude":40.59848403930664,"longitude":140.46249389648438,"category":"店舗","big_category":"商業施設","description":"施設内にあった前川國男プチ博物館は閉館","image_url":"","tags":"DOCOMOMO,重要文化財","prefecture":"青森","contractor":"","structural_designer":"","landscape_designer":"","shinkenchiku_url":""},{"id":164,"title":"弘前市斎場","architect":"前川國男","year":1983.0,"address":"青森県弘前市常盤坂2-20-1","latitude":40.596988677978516,"longitude":140.4474334716797,"category":"斎場","big_category":"公共施設","description":"","image_url":"","tags":"2009年JIA25年賞","prefecture":"青森","contractor":"","structural_designer":"","landscape_designer":"","shinkenchiku_url":""},{"id":165,"title":"弘前高校鏡ヶ丘記念館 旧青森県第一尋常中学校","architect":"川元重次郎","year":1894.0,"address":"青森県弘前市新寺町1","latitude":40.59579086303711,"longitude":140.46707153320312,"category":"洋館","big_category":"近代建築/遺産","description":"1958年移築。1992年改修","image_url":"","tags":"","prefecture":"青森","contractor":"","structural_designer":"","landscape_designer":"","shinkenchiku_url":""},{"id":166,"title":"弘前学院外人宣教師館","architect":"桜庭駒五郎","year":1906.0,"address":"青森県弘前市稔町13-1","latitude":40.58378601074219,"longitude":140.46812438964844,"category":"洋館","big_category":"近代建築/遺産","description":"1979年移築。日祝は休み。土は午前","image_url":"","tags":"登録有形文化財","prefecture":"青森","contractor":"","structural_designer":"","landscape_designer":"","shinkenchiku_url":""},{"id":167,"title":"黒石ほるぷ子ども館","architect":"菊竹清訓","year":1975.0,"address":"青森県黒石市温湯派15-2","latitude":40.60892868041992,"longitude":140.6641845703125,"category":"児童施設","big_category":"教育","description":"","image_url":"","tags":"DOCOMOMO","prefecture":"青森","contractor":"","structural_designer":"","landscape_designer":"","shinkenchiku_url":""},{"id":168,"title":"津軽伝承工芸館","architect":"黒川紀章","year":1999.0,"address":"青森県黒石市袋富山65-1","latitude":40.60536193847656,"longitude":140.67591857910156,"category":"博物館","big_category":"ミュージアム","description":"","image_url":"","tags":"","prefecture":"青森","contractor":"","structural_designer":"","landscape_designer":"","shinkenchiku_url":""},{"id":169,"title":"三戸町役場","architect":"アーキテクトファイブ","year":1996.0,"address":"青森県三戸郡三戸町大字在府小路町43","latitude":40.378421783447266,"longitude":141.2587432861328,"category":"庁舎","big_category":"公共施設","description":"","image_url":"","tags":"","prefecture":"青森","contractor":"","structural_designer":"","landscape_designer":"","shinkenchiku_url":""},{"id":170,"title":"三沢市寺山修司記念館","architect":"粟津潔","year":1997.0,"address":"青森県三沢市大字三沢字淋代平116-2955","latitude":40.7416877746582,"longitude":141.36563110351562,"category":"博物館","big_category":"ミュージアム","description":"","image_url":"","tags":"","prefecture":"青森","contractor":"","structural_designer":"","landscape_designer":"","shinkenchiku_url":""},{"id":171,"title":"十和田市現代美術館","architect":"西沢立衛","year":2008.0,"address":"青森県十和田市西二番町10-9","latitude":40.61409378051758,"longitude":141.20913696289062,"category":"美術館","big_category":"ミュージアム","description":"1月は1、4、10が休館日","image_url":"https://farm8.staticflickr.com/7304/8926376870_8a3f153510_h.jpg","tags":"2012年公共建築賞・特別賞,2011年日本建築学会 作品選奨","prefecture":"青森","contractor":"","structural_designer":"","landscape_designer":"","shinkenchiku_url":""},{"id":172,"title":"新青森県総合運動公園 マエダアリーナ 旧青い森アリーナ","architect":"池原義郎","year":2002.0,"address":"青森県青森市大字宮田字高瀬22-2","latitude":40.8432731628418,"longitude":140.840087890625,"category":"スポーツ施設/体育館","big_category":"レジャー施設,レジャー施設","description":"","image_url":"","tags":"","prefecture":"青森","contractor":"","structural_designer":"","landscape_designer":"","shinkenchiku_url":""},{"id":173,"title":"青森市森林博物館","architect":"不明","year":1908.0,"address":"青森県青森市柳川2-4-37","latitude":40.831504821777344,"longitude":140.7257537841797,"category":"洋館","big_category":"近代建築/遺産","description":"","image_url":"","tags":"","prefecture":"青森","contractor":"","structural_designer":"","landscape_designer":"","shinkenchiku_url":""},{"id":174,"title":"青森県立保健大学","architect":"黒川紀章","year":1999.0,"address":"青森県青森市大字浜館字間瀬58-1","latitude":40.81332015991211,"longitude":140.79092407226562,"category":"大学","big_category":"教育","description":"","image_url":"","tags":"","prefecture":"青森","contractor":"","structural_designer":"","landscape_designer":"","shinkenchiku_url":""},{"id":175,"title":"三内まほろばパーク 縄文時遊館","architect":"梓設計","year":2002.0,"address":"青森県青森市三内丸山305","latitude":40.808597564697266,"longitude":140.69711303710938,"category":"博物館","big_category":"ミュージアム","description":"","image_url":"","tags":"","prefecture":"青森","contractor":"","structural_designer":"","landscape_designer":"","shinkenchiku_url":""},{"id":176,"title":"青森中央学院大学","architect":"毛綱毅曠","year":1998.0,"address":"青森県青森市大字横内字神田12-1","latitude":40.78429412841797,"longitude":140.7623291015625,"category":"大学","big_category":"教育","description":"","image_url":"","tags":"","prefecture":"青森","contractor":"","structural_designer":"","landscape_designer":"","shinkenchiku_url":""},{"id":177,"title":"聖パトリック教会 八甲田ガーデンチャペル","architect":"レーモンド設計事務所","year":1998.0,"address":"青森県青森市大字雲谷字山吹92-401","latitude":40.75585174560547,"longitude":140.77439880371094,"category":"教会","big_category":"宗教","description":"","image_url":"","tags":"","prefecture":"青森","contractor":"","structural_designer":"","landscape_designer":"","shinkenchiku_url":""},{"id":178,"title":"青森公立大学　国際芸術センター青森","architect":"安藤忠雄","year":2001.0,"address":"青森県青森市合子沢山崎152-6","latitude":40.75446701049805,"longitude":140.7704620361328,"category":"総合文化施設/美術館","big_category":"文化施設,ミュージアム","description":"展示は1/14より","image_url":"https://farm4.staticflickr.com/3725/8890364675_11b0ab7297_h.jpg","tags":"","prefecture":"青森","contractor":"","structural_designer":"","landscape_designer":"","shinkenchiku_url":""},{"id":179,"title":"青森県立美術館","architect":"青木淳","year":2005.0,"address":"青森県青森市大字安田字近野185","latitude":40.807395935058594,"longitude":140.70071411132812,"category":"美術館","big_category":"ミュージアム","description":"1/3～営業　月曜日休館","image_url":"https://farm4.staticflickr.com/3688/8907532209_70db6fc59c_h.jpg","tags":"","prefecture":"青森","contractor":"","structural_designer":"","landscape_designer":"","shinkenchiku_url":""},{"id":180,"title":"ねぶたの家 ワ・ラッセ","architect":"フランク・ラ・リヴィエレ","year":2010.0,"address":"青森県青森市安方1-1-1","latitude":40.829551696777344,"longitude":140.7359619140625,"category":"博物館","big_category":"ミュージアム","description":"","image_url":"https://lh3.googleusercontent.com/-VnEoJPn41pI/UQI8UUJ-GrI/AAAAAAAA9MI/aBeUfy0qxHI/s1440/lr-1144669.jpg","tags":"","prefecture":"青森","contractor":"","structural_designer":"","landscape_designer":"","shinkenchiku_url":""},{"id":181,"title":"青森県観光物産館アスパム","architect":"日建設計","year":1986.0,"address":"青森県青森市安方1-1-40","latitude":40.82963943481445,"longitude":140.7410430908203,"category":"観光施設","big_category":"レジャー施設","description":"","image_url":"","tags":"","prefecture":"青森","contractor":"","structural_designer":"","landscape_designer":"","shinkenchiku_url":""},{"id":182,"title":"八戸ポータルミュージアム　はっち","architect":"針生承一","year":2010.0,"address":"青森県八戸市三日町11-1","latitude":40.50994873046875,"longitude":141.49061584472656,"category":"博物館","big_category":"ミュージアム","description":"","image_url":"https://lh3.googleusercontent.com/-5aYrmXK4he4/UQI0wMjg5UI/AAAAAAAA9MA/u3b_eQ0FuZQ/s1024/lr-1124414.jpg","tags":"","prefecture":"青森","contractor":"","structural_designer":"","landscape_designer":"","shinkenchiku_url":""},{"id":183,"title":"盛美園 盛美館","architect":"不明","year":1909.0,"address":"青森県平川市猿賀石林1","latitude":40.61634826660156,"longitude":140.56993103027344,"category":"公園/洋館","big_category":"レジャー施設,近代建築/遺産","description":"借りぐらしのアリエッティモデル","image_url":"","tags":"","prefecture":"青森","contractor":"","structural_designer":"","landscape_designer":"","shinkenchiku_url":""},{"id":184,"title":"白瀬南極探検隊記念館","architect":"黒川紀章","year":1990.0,"address":"秋田県にかほ市黒川岩潟15-3","latitude":39.26869583129883,"longitude":139.92625427246094,"category":"博物館","big_category":"ミュージアム","description":"","image_url":"","tags":"","prefecture":"秋田","contractor":"","structural_designer":"","landscape_designer":"","shinkenchiku_url":""},{"id":185,"title":"阿仁異人館 旧阿仁鉱山外国人官舎","architect":"不明","year":1882.0,"address":"秋田県北秋田市阿仁銀山下新町41-23","latitude":39.999149322509766,"longitude":140.4019775390625,"category":"洋館","big_category":"近代建築/遺産","description":"","image_url":"","tags":"","prefecture":"秋田","contractor":"","structural_designer":"","landscape_designer":"","shinkenchiku_url":""},{"id":186,"title":"天馬美術館","architect":"不明","year":null,"address":"秋田県雄勝郡羽後町野中字水無19-1","latitude":39.1683349609375,"longitude":140.43614196777344,"category":"美術館","big_category":"ミュージアム","description":"","image_url":"","tags":"","prefecture":"秋田","contractor":"","structural_designer":"","landscape_designer":"","shinkenchiku_url":""},{"id":187,"title":"秋田県立近代美術館","architect":"山下設計","year":1993.0,"address":"秋田県横手市赤坂字富ヶ沢62ｰ46","latitude":39.293128967285156,"longitude":140.54669189453125,"category":"美術館","big_category":"ミュージアム","description":"","image_url":"","tags":"","prefecture":"秋田","contractor":"","structural_designer":"","landscape_designer":"","shinkenchiku_url":""},{"id":188,"title":"日新館","architect":"不明","year":1902.0,"address":"秋田県横手市城南町7-1","latitude":39.31769943237305,"longitude":140.57235717773438,"category":"洋館","big_category":"近代建築/遺産","description":"水曜のみ開館","image_url":"","tags":"","prefecture":"秋田","contractor":"","structural_designer":"","landscape_designer":"","shinkenchiku_url":""},{"id":189,"title":"尾去沢鉱山","architect":"不明","year":null,"address":"秋田県鹿角市尾去沢獅子沢13-5","latitude":40.18563461303711,"longitude":140.74716186523438,"category":"産業遺産","big_category":"近代建築/遺産","description":"産業遺跡コースは冬期休業","image_url":"","tags":"","prefecture":"秋田","contractor":"","structural_designer":"","landscape_designer":"","shinkenchiku_url":""},{"id":190,"title":"鹿角市高齢者生きがいコミュニティー","architect":"古市徹雄","year":1993.0,"address":"秋田県鹿角市尾去沢上山3","latitude":40.182865142822266,"longitude":140.77664184570312,"category":"公共施設","big_category":"公共施設","description":"","image_url":"","tags":"","prefecture":"秋田","contractor":"","structural_designer":"","landscape_designer":"","shinkenchiku_url":""},{"id":191,"title":"鹿角市花輪中央通りポケットパーク","architect":"古市徹雄","year":1993.0,"address":"秋田県鹿角市花輪堰向 花輪中央通りポケットパーク","latitude":40.18868637084961,"longitude":140.78890991210938,"category":"公園","big_category":"レジャー施設","description":"","image_url":"","tags":"","prefecture":"秋田","contractor":"","structural_designer":"","landscape_designer":"","shinkenchiku_url":""},{"id":192,"title":"酒田市立図書館 光丘文庫","architect":"不明","year":1925.0,"address":"山形県酒田市日吉町2-7-71","latitude":38.91970443725586,"longitude":139.830810546875,"category":"図書館","big_category":"文化施設","description":"","image_url":"","tags":"","prefecture":"山形","contractor":"","structural_designer":"","landscape_designer":"","shinkenchiku_url":""},{"id":193,"title":"秋田県立美術館 平野政吉コレクション","architect":"安藤忠雄","year":2012.0,"address":"秋田県秋田市中通1-4-1","latitude":39.71733856201172,"longitude":140.1217498779297,"category":"美術館","big_category":"ミュージアム","description":"","image_url":"","tags":"新建築2014年7月号","prefecture":"秋田","contractor":"清水建設","structural_designer":"金箱構造設計事務所","landscape_designer":"","shinkenchiku_url":"https://data.shinkenchiku.online/articles/SK_2014_07_140-0"},{"id":194,"title":"秋田市立体育館","architect":"渡辺豊和","year":1994.0,"address":"秋田県秋田市八橋本町6-12-20","latitude":39.72581481933594,"longitude":140.08775329589844,"category":"体育館","big_category":"レジャー施設","description":"","image_url":"","tags":"新建築1994年7月号","prefecture":"秋田","contractor":"","structural_designer":"","landscape_designer":"","shinkenchiku_url":""},{"id":195,"title":"国際教養大学 図書館・キャンパス増築","architect":"仙田満","year":2008.0,"address":"秋田県秋田市雄和椿川奥椿岱193-2","latitude":39.62742614746094,"longitude":140.1980438232422,"category":"大学/図書館","big_category":"教育,文化施設","description":"日本建築家協会賞受賞者名：仙田満、茂木聡","image_url":"","tags":"2011年村野藤吾賞,2009年度日本建築家協会賞","prefecture":"秋田","contractor":"","structural_designer":"","landscape_designer":"","shinkenchiku_url":""},{"id":196,"title":"秋田市ポートタワーセリオン","architect":"日建設計","year":1994.0,"address":"秋田県秋田市土崎港西1‐9‐1","latitude":39.752708435058594,"longitude":140.06100463867188,"category":"公共施設/総合文化施設/展望台","big_category":"公共施設,文化施設,レジャー施設","description":"","image_url":"","tags":"","prefecture":"秋田","contractor":"","structural_designer":"","landscape_designer":"","shinkenchiku_url":""},{"id":197,"title":"秋田市立赤れんが郷土館 旧秋田銀行本店","architect":"牧彦七","year":1912.0,"address":"秋田県秋田市大町3-3-21","latitude":39.71673583984375,"longitude":140.1154327392578,"category":"博物館","big_category":"ミュージアム","description":"","image_url":"","tags":"","prefecture":"秋田","contractor":"","structural_designer":"","landscape_designer":"","shinkenchiku_url":""},{"id":198,"title":"旧奈良家住宅","architect":"不明","year":1763.0,"address":"秋田県秋田市金足小泉字上前8","latitude":39.82307052612305,"longitude":140.06541442871094,"category":"古民家","big_category":"近代建築/遺産","description":"","image_url":"","tags":"","prefecture":"秋田","contractor":"","structural_designer":"","landscape_designer":"","shinkenchiku_url":""},{"id":199,"title":"秋田県立大学 秋田キャンパス","architect":"松田平田設計","year":1999.0,"address":"秋田県秋田市下新城中野字街道端西241-438","latitude":39.80144119262695,"longitude":140.04745483398438,"category":"大学","big_category":"教育","description":"","image_url":"","tags":"","prefecture":"秋田","contractor":"","structural_designer":"","landscape_designer":"","shinkenchiku_url":""},{"id":200,"title":"秋田市太平山自然学習センター まんたらめ","architect":"仙田満","year":2003.0,"address":"秋田県秋田市仁別マンタラメ227-1","latitude":39.79861831665039,"longitude":140.22579956054688,"category":"博物館","big_category":"ミュージアム","description":"","image_url":"","tags":"","prefecture":"秋田","contractor":"","structural_designer":"","landscape_designer":"","shinkenchiku_url":""}]}