{"page":132,"total_pages":290,"items_per_page":50,"total_items":14467,"items":[{"id":6551,"title":"港南区新総合庁舎","architect":"小泉雅生","year":2017.0,"address":"神奈川県横浜市港南区港南4-2","latitude":35.40083312988281,"longitude":139.59249877929688,"category":"庁舎","big_category":"公共施設","description":"","image_url":"","tags":"Ver1.94(2017年3月)の追加建築,新建築2017年5月号","prefecture":"神奈川","contractor":"","structural_designer":"","landscape_designer":"","shinkenchiku_url":""},{"id":6552,"title":"中泊町役場新庁舎","architect":"楠山設計","year":2017.0,"address":"青森県北津軽郡中泊町中里紅葉坂209","latitude":40.96022033691406,"longitude":140.4337615966797,"category":"庁舎","big_category":"公共施設","description":"","image_url":"","tags":"Ver1.94(2017年3月)の追加建築","prefecture":"青森","contractor":"","structural_designer":"","landscape_designer":"","shinkenchiku_url":""},{"id":6553,"title":"中泊町総合文化センター パルナス","architect":"佐藤総合計画","year":1997.0,"address":"青森県北津軽郡中泊町中里紅葉坂210","latitude":40.96090316772461,"longitude":140.4329376220703,"category":"総合文化施設","big_category":"文化施設","description":"","image_url":"","tags":"Ver1.94(2017年3月)の追加建築","prefecture":"青森","contractor":"","structural_designer":"","landscape_designer":"","shinkenchiku_url":""},{"id":6554,"title":"洲本総合庁舎","architect":"松田平田設計","year":2017.0,"address":"兵庫県洲本市塩屋2-4-5","latitude":34.34721755981445,"longitude":134.8898468017578,"category":"庁舎","big_category":"公共施設","description":"","image_url":"","tags":"Ver1.94(2017年3月)の追加建築","prefecture":"兵庫","contractor":"","structural_designer":"","landscape_designer":"","shinkenchiku_url":""},{"id":6555,"title":"阿波市庁舎・交流防災拠点施設 アエルワ","architect":"アール・アイ・エー","year":2014.0,"address":"徳島県阿波市市場町切幡字古田190","latitude":34.10211181640625,"longitude":134.2974853515625,"category":"庁舎","big_category":"公共施設","description":"","image_url":"","tags":"Ver1.94(2017年3月)の追加建築","prefecture":"徳島","contractor":"","structural_designer":"","landscape_designer":"","shinkenchiku_url":""},{"id":6556,"title":"豊中市立文化芸術センター","architect":"日建設計","year":2016.0,"address":"大阪府豊中市曽根東町3-7-2","latitude":34.769866943359375,"longitude":135.46990966796875,"category":"ホール・劇場","big_category":"文化施設","description":"","image_url":"","tags":"Ver1.94(2017年3月)の追加建築,新建築2017年6月号","prefecture":"大阪","contractor":"","structural_designer":"","landscape_designer":"","shinkenchiku_url":""},{"id":6557,"title":"山元町こどもセンター","architect":"SUEP.+佐藤総合計画","year":2016.0,"address":"宮城県亘理郡山元町つばめの杜1-1-2","latitude":37.96514892578125,"longitude":140.88543701171875,"category":"児童施設","big_category":"教育","description":"","image_url":"","tags":"Ver1.94(2017年3月)の追加建築","prefecture":"宮城","contractor":"","structural_designer":"","landscape_designer":"","shinkenchiku_url":""},{"id":6558,"title":"名古屋トヨペット檀渓通店","architect":"丹下憲孝","year":2017.0,"address":"愛知県名古屋市昭和区檀溪通2-23","latitude":35.1466064453125,"longitude":136.9464874267578,"category":"店舗","big_category":"商業施設","description":"","image_url":"","tags":"Ver1.94(2017年3月)の追加建築","prefecture":"愛知","contractor":"","structural_designer":"","landscape_designer":"","shinkenchiku_url":""},{"id":6559,"title":"STREET RENOVATOR 税理士法人シーウエイブ","architect":"光浦高史","year":2013.0,"address":"大分県大分市東春日町19-2","latitude":33.242523193359375,"longitude":131.60092163085938,"category":"低層オフィス/住宅","big_category":"企業施設,住宅","description":"","image_url":"","tags":"Ver1.94(2017年3月)の追加建築","prefecture":"大分","contractor":"","structural_designer":"","landscape_designer":"","shinkenchiku_url":""},{"id":6560,"title":"別府温泉 テラス御堂原","architect":"光浦高史","year":2015.0,"address":"大分県別府市大字南立石字御堂原649","latitude":33.287384033203125,"longitude":131.45994567871094,"category":"旅館","big_category":"宿泊","description":"","image_url":"","tags":"Ver1.94(2017年3月)の追加建築","prefecture":"大分","contractor":"","structural_designer":"","landscape_designer":"","shinkenchiku_url":""},{"id":6561,"title":"LOW MILEAGE HOUSE COCOROアニマルクリニック","architect":"光浦高史","year":2010.0,"address":"大分県佐伯市城南町15-18","latitude":32.95439910888672,"longitude":131.8903045654297,"category":"個人医院/住宅","big_category":"医療施設,住宅","description":"","image_url":"","tags":"Ver1.94(2017年3月)の追加建築","prefecture":"大分","contractor":"","structural_designer":"","landscape_designer":"","shinkenchiku_url":""},{"id":6562,"title":"ワークランド世田谷店","architect":"井上雅宏","year":2016.0,"address":"東京都世田谷区3-30-8","latitude":35.630401611328125,"longitude":139.67190551757812,"category":"店舗","big_category":"商業施設","description":"","image_url":"","tags":"Ver1.94(2017年3月)の追加建築","prefecture":"東京","contractor":"","structural_designer":"","landscape_designer":"","shinkenchiku_url":""},{"id":6563,"title":"ワークランド横浜原宿店","architect":"井上雅宏","year":2015.0,"address":"神奈川県横浜市戸塚区原宿3-7-2","latitude":35.37895965576172,"longitude":139.5082244873047,"category":"店舗","big_category":"商業施設","description":"","image_url":"","tags":"Ver1.94(2017年3月)の追加建築","prefecture":"神奈川","contractor":"","structural_designer":"","landscape_designer":"","shinkenchiku_url":""},{"id":6564,"title":"東京都支部済生会向島病院","architect":"井上雅宏","year":2010.0,"address":"東京都墨田区八広1-5-10","latitude":35.7205810546875,"longitude":139.82217407226562,"category":"病院","big_category":"医療施設","description":"","image_url":"","tags":"Ver1.94(2017年3月)の追加建築","prefecture":"東京","contractor":"","structural_designer":"","landscape_designer":"","shinkenchiku_url":""},{"id":6565,"title":"パティスリーウチヤマ","architect":"玉上貴人","year":2011.0,"address":"群馬県桐生市東5-4-31","latitude":36.4095458984375,"longitude":139.3494873046875,"category":"店舗","big_category":"商業施設","description":"","image_url":"","tags":"Ver1.94(2017年3月)の追加建築","prefecture":"群馬","contractor":"","structural_designer":"","landscape_designer":"","shinkenchiku_url":""},{"id":6566,"title":"コミュニティステーション東小金井","architect":"古澤大輔","year":2014.0,"address":"東京都小金井市梶野町5-10-58","latitude":35.70164489746094,"longitude":139.5265655517578,"category":"モール","big_category":"商業施設","description":"","image_url":"","tags":"Ver1.94(2017年3月)の追加建築,新建築2014年12月号","prefecture":"東京","contractor":"菊池建設","structural_designer":"ウエルストン設計+坪井宏嗣構造設計事務所","landscape_designer":"","shinkenchiku_url":"https://data.shinkenchiku.online/articles/SK_2014_12_109-0"},{"id":6567,"title":"道の駅 ソレーネ周南","architect":"内藤廣","year":2014.0,"address":"山口県周南市戸田2713","latitude":34.07448959350586,"longitude":131.6879425048828,"category":"PA・道の駅","big_category":"インフラ","description":"","image_url":"","tags":"Ver1.94(2017年3月)の追加建築","prefecture":"山口","contractor":"","structural_designer":"","landscape_designer":"","shinkenchiku_url":""},{"id":6568,"title":"高山駅","architect":"内藤廣","year":2016.0,"address":"岐阜県高山市昭和町1-22-2","latitude":36.14107894897461,"longitude":137.2514190673828,"category":"駅","big_category":"インフラ","description":"","image_url":"","tags":"Ver1.94(2017年3月)の追加建築","prefecture":"岐阜","contractor":"","structural_designer":"","landscape_designer":"","shinkenchiku_url":""},{"id":6569,"title":"青蓮堂 屋内御廟","architect":"鈴木エドワード","year":2017.0,"address":"神奈川県川崎市多摩区南生田8-1-1","latitude":35.60966873168945,"longitude":139.53843688964844,"category":"霊園","big_category":"宗教","description":"","image_url":"","tags":"Ver1.94(2017年3月)の追加建築","prefecture":"神奈川","contractor":"","structural_designer":"","landscape_designer":"","shinkenchiku_url":""},{"id":6570,"title":"ドメーヌ テッタ","architect":"片山正通","year":2016.0,"address":"岡山県新見市哲多町矢戸3136","latitude":34.8974494934082,"longitude":133.46600341796875,"category":"店舗/カフェ","big_category":"商業施設,商業施設","description":"見学ツアーあり。他、ショップ・カフェなど。","image_url":"","tags":"Ver1.94(2017年3月)の追加建築","prefecture":"岡山","contractor":"","structural_designer":"","landscape_designer":"","shinkenchiku_url":""},{"id":6571,"title":"城西大学 留学生寮","architect":"studio SUMO","year":2016.0,"address":"千葉県東金市求名1","latitude":35.58524703979492,"longitude":140.39341735839844,"category":"寮","big_category":"住宅","description":"","image_url":"","tags":"Ver1.94(2017年3月)の追加建築","prefecture":"千葉","contractor":"","structural_designer":"","landscape_designer":"","shinkenchiku_url":""},{"id":6572,"title":"ゴダイ薬局 御国野店","architect":"松本哲哉","year":2016.0,"address":"兵庫県姫路市御国野町国分寺153-5","latitude":34.82229232788086,"longitude":134.7308349609375,"category":"医療施設/店舗","big_category":"医療施設,商業施設","description":"","image_url":"","tags":"Ver1.94(2017年3月)の追加建築","prefecture":"兵庫","contractor":"","structural_designer":"","landscape_designer":"","shinkenchiku_url":""},{"id":6573,"title":"ファクトリーショップ SunShow サンショウレザーパビリオン","architect":"松本哲哉","year":2015.0,"address":"兵庫県姫路市四郷町山脇150-1","latitude":34.82021713256836,"longitude":134.72824096679688,"category":"店舗/低層オフィス","big_category":"商業施設,企業施設","description":"","image_url":"","tags":"Ver1.94(2017年3月)の追加建築","prefecture":"兵庫","contractor":"","structural_designer":"","landscape_designer":"","shinkenchiku_url":""},{"id":6574,"title":"西海陶器 オーヤネ","architect":"原田圭","year":2016.0,"address":"長崎県東彼杵郡波佐見町折敷瀬郷2124","latitude":33.13818359375,"longitude":129.8995819091797,"category":"店舗","big_category":"商業施設","description":"","image_url":"","tags":"Ver1.94(2017年3月)の追加建築","prefecture":"長崎","contractor":"","structural_designer":"","landscape_designer":"","shinkenchiku_url":""},{"id":6575,"title":"東京クラシック 森のクラブハウス・馬主クラブ棟","architect":"古谷俊一","year":2016.0,"address":"千葉県千葉市若葉区和泉町365","latitude":35.578834533691406,"longitude":140.25685119628906,"category":"クラブハウス","big_category":"レジャー施設","description":"","image_url":"","tags":"Ver1.94(2017年3月)の追加建築,新建築2018年5月号","prefecture":"千葉","contractor":"","structural_designer":"","landscape_designer":"","shinkenchiku_url":""},{"id":6576,"title":"ロザヴェール","architect":"古谷俊一","year":2014.0,"address":"山梨県中巨摩郡昭和町上河東395","latitude":35.61680221557617,"longitude":138.5272216796875,"category":"店舗","big_category":"商業施設","description":"","image_url":"","tags":"Ver1.94(2017年3月)の追加建築","prefecture":"山梨","contractor":"","structural_designer":"","landscape_designer":"","shinkenchiku_url":""},{"id":6577,"title":"実家","architect":"須磨一清","year":2016.0,"address":"静岡県伊東市池字原890-6","latitude":34.888851165771484,"longitude":139.0914306640625,"category":"レストラン","big_category":"商業施設","description":"","image_url":"","tags":"Ver1.94(2017年3月)の追加建築","prefecture":"静岡","contractor":"","structural_designer":"","landscape_designer":"","shinkenchiku_url":""},{"id":6578,"title":"城下町矯正歯科ブルーノ","architect":"田中義彰","year":2014.0,"address":"愛知県西尾市本町25","latitude":34.86623001098633,"longitude":137.0525360107422,"category":"個人医院","big_category":"医療施設","description":"","image_url":"","tags":"Ver1.94(2017年3月)の追加建築","prefecture":"愛知","contractor":"","structural_designer":"","landscape_designer":"","shinkenchiku_url":""},{"id":6579,"title":"ラージラブタウン","architect":"安斎好太郎","year":2015.0,"address":"福島県福島市野田町3-10-28","latitude":37.76019287109375,"longitude":140.44888305664062,"category":"店舗","big_category":"商業施設","description":"","image_url":"","tags":"Ver1.94(2017年3月)の追加建築","prefecture":"福島","contractor":"","structural_designer":"","landscape_designer":"","shinkenchiku_url":""},{"id":6580,"title":"會津佐藤理髪店・會津佐藤靴店","architect":"安斎好太郎","year":2016.0,"address":"福島県会津若松市東千石3-1-28","latitude":37.49699020385742,"longitude":139.9470977783203,"category":"店舗/美容院","big_category":"商業施設,商業施設","description":"","image_url":"","tags":"Ver1.94(2017年3月)の追加建築","prefecture":"福島","contractor":"","structural_designer":"","landscape_designer":"","shinkenchiku_url":""},{"id":6581,"title":"八百忠 本店","architect":"GENETO建築設計","year":2015.0,"address":"京都府綴喜郡井手町井手北玉水53","latitude":34.80032730102539,"longitude":135.8043975830078,"category":"料亭","big_category":"商業施設","description":"","image_url":"","tags":"Ver1.94(2017年3月)の追加建築","prefecture":"京都","contractor":"","structural_designer":"","landscape_designer":"","shinkenchiku_url":""},{"id":6582,"title":"通入寺伽藍","architect":"廣田悟","year":2015.0,"address":"東京都台東区清川1-11","latitude":35.72395706176758,"longitude":139.803955078125,"category":"寺院","big_category":"宗教","description":"","image_url":"","tags":"Ver1.94(2017年3月)の追加建築","prefecture":"東京","contractor":"","structural_designer":"","landscape_designer":"","shinkenchiku_url":""},{"id":6583,"title":"さやのもとクリニック","architect":"山﨑健太郎","year":2014.0,"address":"佐賀県佐賀市道祖元町71","latitude":33.24793243408203,"longitude":130.28367614746094,"category":"個人医院","big_category":"医療施設","description":"","image_url":"","tags":"Ver1.94(2017年3月)の追加建築","prefecture":"佐賀","contractor":"","structural_designer":"","landscape_designer":"","shinkenchiku_url":""},{"id":6584,"title":"高原誠吉食堂","architect":"前田圭介","year":2016.0,"address":"広島県尾道市土堂2-2-19","latitude":34.40848159790039,"longitude":133.2010955810547,"category":"料亭/レストラン","big_category":"商業施設,商業施設","description":"","image_url":"","tags":"Ver1.94(2017年3月)の追加建築","prefecture":"広島","contractor":"","structural_designer":"","landscape_designer":"","shinkenchiku_url":""},{"id":6585,"title":"南方熊楠記念館 新館","architect":"シーラカンスアンドアソシエイツ","year":2016.0,"address":"和歌山県西牟婁郡白浜町3601-1","latitude":33.693546295166016,"longitude":135.3359832763672,"category":"博物館","big_category":"ミュージアム","description":"","image_url":"","tags":"Ver1.94(2017年3月)の追加建築,新建築2017年6月号","prefecture":"和歌山","contractor":"","structural_designer":"","landscape_designer":"","shinkenchiku_url":""},{"id":6586,"title":"南方熊楠記念館 旧館","architect":"野生司義章","year":1964.0,"address":"和歌山県西牟婁郡白浜町3601-1","latitude":33.69373321533203,"longitude":135.33627319335938,"category":"博物館","big_category":"ミュージアム","description":"","image_url":"","tags":"Ver1.94(2017年3月)の追加建築","prefecture":"和歌山","contractor":"","structural_designer":"","landscape_designer":"","shinkenchiku_url":""},{"id":6587,"title":"東松島市 宮野森小学校","architect":"シーラカンスK&H","year":2016.0,"address":"宮城県東松島市野蒜ケ丘2-1-1","latitude":38.376983642578125,"longitude":141.15028381347656,"category":"学校","big_category":"教育","description":"","image_url":"","tags":"Ver1.94(2017年3月)の追加建築,新建築2017年4月号,2019年日本建築学会 作品選奨","prefecture":"宮城","contractor":"","structural_designer":"","landscape_designer":"","shinkenchiku_url":""},{"id":6588,"title":"山名八幡宮","architect":"永山祐子","year":2016.0,"address":"群馬県高崎市山名町1581","latitude":36.27864456176758,"longitude":139.03738403320312,"category":"寺院","big_category":"宗教","description":"","image_url":"","tags":"Ver1.94(2017年3月)の追加建築","prefecture":"群馬","contractor":"","structural_designer":"","landscape_designer":"","shinkenchiku_url":""},{"id":6589,"title":"BMW Group Tokyo Bay","architect":"クライン・ダイサム・アーキテクツ","year":2016.0,"address":"東京都江東区青海2-2-15","latitude":35.622066497802734,"longitude":139.77740478515625,"category":"店舗","big_category":"商業施設","description":"","image_url":"","tags":"Ver1.94(2017年3月)の追加建築","prefecture":"東京","contractor":"","structural_designer":"","landscape_designer":"","shinkenchiku_url":""},{"id":6590,"title":"道の駅 京丹波 味夢の里","architect":"高松伸","year":2015.0,"address":"京都府船井郡京丹波町曽根深シノ65-1","latitude":35.156005859375,"longitude":135.41610717773438,"category":"PA・道の駅","big_category":"インフラ","description":"","image_url":"","tags":"Ver1.94(2017年3月)の追加建築","prefecture":"京都","contractor":"","structural_designer":"","landscape_designer":"","shinkenchiku_url":""},{"id":6591,"title":"京都産業大学 神山寮","architect":"高松伸","year":2014.0,"address":"京都府京都市北区上賀茂神山7-59","latitude":35.07495880126953,"longitude":135.7612762451172,"category":"寮","big_category":"住宅","description":"","image_url":"","tags":"Ver1.94(2017年3月)の追加建築","prefecture":"京都","contractor":"","structural_designer":"","landscape_designer":"","shinkenchiku_url":""},{"id":6592,"title":"四天王寺学園小学校 体育館","architect":"高松伸","year":2016.0,"address":"大阪府藤井寺市春日丘3-1-78","latitude":34.57072830200195,"longitude":135.58987426757812,"category":"学校/体育館","big_category":"教育,レジャー施設","description":"","image_url":"","tags":"Ver1.94(2017年3月)の追加建築","prefecture":"大阪","contractor":"","structural_designer":"","landscape_designer":"","shinkenchiku_url":""},{"id":6593,"title":"成増高等看護学校","architect":"富永譲","year":2006.0,"address":"東京都板橋区成増5-6-7","latitude":35.78479766845703,"longitude":139.63038635253906,"category":"専門学校/学校","big_category":"教育,教育","description":"","image_url":"","tags":"Ver1.94(2017年3月)の追加建築,2008年日本建築学会 作品選奨","prefecture":"東京","contractor":"","structural_designer":"","landscape_designer":"","shinkenchiku_url":""},{"id":6594,"title":"エンゼル病院管理棟","architect":"富永譲","year":2015.0,"address":"福岡県北九州市八幡西区友田1-11-1","latitude":33.86768341064453,"longitude":130.7244873046875,"category":"病院","big_category":"医療施設","description":"","image_url":"","tags":"Ver1.94(2017年3月)の追加建築","prefecture":"福岡","contractor":"","structural_designer":"","landscape_designer":"","shinkenchiku_url":""},{"id":6595,"title":"敦賀駅前広場","architect":"千葉学","year":2016.0,"address":"福井県敦賀市鉄輪町1-1","latitude":35.645503997802734,"longitude":136.07577514648438,"category":"広場","big_category":"文化施設","description":"","image_url":"","tags":"Ver1.94(2017年3月)の追加建築","prefecture":"福井","contractor":"","structural_designer":"","landscape_designer":"","shinkenchiku_url":""},{"id":6596,"title":"トナリノ","architect":"マウントフジアーキテクツスタジオ","year":2017.0,"address":"愛知県名古屋市北区名城1-2","latitude":35.18886184692383,"longitude":136.90367126464844,"category":"モール/スポーツ施設","big_category":"商業施設,レジャー施設","description":"2017/4/27オープン予定。場所は推定（多分合ってるとは思いますが）","image_url":"","tags":"Ver1.94(2017年3月)の追加建築,新建築2017年7月号","prefecture":"愛知","contractor":"","structural_designer":"","landscape_designer":"","shinkenchiku_url":""},{"id":6597,"title":"太田市民会館","architect":"香山壽夫","year":2017.0,"address":"群馬県太田市飯塚町200","latitude":36.27683639526367,"longitude":139.38160705566406,"category":"ホール・劇場","big_category":"文化施設","description":"","image_url":"","tags":"Ver1.94(2017年3月)の追加建築,新建築2017年9月号","prefecture":"群馬","contractor":"","structural_designer":"","landscape_designer":"","shinkenchiku_url":""},{"id":6598,"title":"清里高原ホテル","architect":"香山壽夫","year":1980.0,"address":"山梨県北杜市高根町清里3545","latitude":35.936500549316406,"longitude":138.42396545410156,"category":"ホテル","big_category":"宿泊","description":"","image_url":"","tags":"Ver1.94(2017年3月)の追加建築","prefecture":"山梨","contractor":"","structural_designer":"","landscape_designer":"","shinkenchiku_url":""},{"id":6599,"title":"東京大学 工学部6号館","architect":"香山壽夫","year":1975.0,"address":"東京都文京区本郷7-3-1","latitude":35.714054107666016,"longitude":139.76113891601562,"category":"大学","big_category":"教育","description":"","image_url":"","tags":"Ver1.94(2017年3月)の追加建築,2012年JIA25年賞","prefecture":"東京","contractor":"","structural_designer":"","landscape_designer":"","shinkenchiku_url":""},{"id":6600,"title":"相模女子大学 7号館","architect":"香山壽夫","year":1981.0,"address":"神奈川県相模原市南区文京2-1-1","latitude":35.5339469909668,"longitude":139.42979431152344,"category":"大学","big_category":"教育","description":"","image_url":"","tags":"Ver1.94(2017年3月)の追加建築","prefecture":"神奈川","contractor":"","structural_designer":"","landscape_designer":"","shinkenchiku_url":""}]}