{"page":288,"total_pages":290,"items_per_page":50,"total_items":14467,"items":[{"id":14351,"title":"TNOC THE CAFE SAPPORO T4","architect":"小西彦仁","year":2024.0,"address":"北海道札幌市中央区南2条西4-4-3 狸上るビル2F","latitude":43.057342529296875,"longitude":141.3521728515625,"category":"カフェ","big_category":"商業施設","description":"","image_url":"","tags":"Ver5.60(2025年2月)の追加建築","prefecture":"北海道","contractor":"","structural_designer":"","landscape_designer":"","shinkenchiku_url":""},{"id":14352,"title":"KITAHIROSHIMA NEVER END LEO","architect":"小西彦仁","year":2024.0,"address":"北海道北広島市中央5-8-3","latitude":42.98055648803711,"longitude":141.56564331054688,"category":"ホテル","big_category":"宿泊","description":"","image_url":"","tags":"Ver5.60(2025年2月)の追加建築","prefecture":"北海道","contractor":"","structural_designer":"","landscape_designer":"","shinkenchiku_url":""},{"id":14353,"title":"炉ばたとワインK","architect":"小西彦仁","year":2023.0,"address":"北海道釧路市米町2-9-16","latitude":42.968994140625,"longitude":144.37318420410156,"category":"レストラン","big_category":"商業施設","description":"","image_url":"","tags":"Ver5.60(2025年2月)の追加建築","prefecture":"北海道","contractor":"","structural_designer":"","landscape_designer":"","shinkenchiku_url":""},{"id":14354,"title":"真心庵 天真","architect":"小西彦仁","year":2020.0,"address":"北海道札幌市中央区南11条西20-1-5","latitude":43.04469680786133,"longitude":141.32887268066406,"category":"レストラン","big_category":"商業施設","description":"","image_url":"","tags":"Ver5.60(2025年2月)の追加建築","prefecture":"北海道","contractor":"","structural_designer":"","landscape_designer":"","shinkenchiku_url":""},{"id":14355,"title":"雪杉","architect":"小西彦仁","year":2021.0,"address":"北海道虻田郡倶知安町樺山38-22","latitude":42.85554122924805,"longitude":140.7034149169922,"category":"コテージ/住宅","big_category":"宿泊,住宅","description":"貸別荘","image_url":"","tags":"Ver5.60(2025年2月)の追加建築","prefecture":"北海道","contractor":"","structural_designer":"","landscape_designer":"","shinkenchiku_url":""},{"id":14356,"title":"江別蔦屋書店","architect":"小西彦仁","year":2018.0,"address":"北海道江別市牧場町14-1","latitude":43.11491775512695,"longitude":141.53977966308594,"category":"店舗","big_category":"商業施設","description":"","image_url":"","tags":"Ver5.60(2025年2月)の追加建築","prefecture":"北海道","contractor":"","structural_designer":"","landscape_designer":"","shinkenchiku_url":""},{"id":14357,"title":"禄","architect":"小西彦仁","year":2018.0,"address":"北海道虻田郡倶知安町樺山59-131","latitude":42.851985931396484,"longitude":140.7006072998047,"category":"ホテル","big_category":"宿泊","description":"","image_url":"","tags":"Ver5.60(2025年2月)の追加建築","prefecture":"北海道","contractor":"","structural_designer":"","landscape_designer":"","shinkenchiku_url":""},{"id":14358,"title":"季節館","architect":"小西彦仁","year":2008.0,"address":"北海道虻田郡倶知安町ニセコひらふ2条2-5-27","latitude":42.857112884521484,"longitude":140.70986938476562,"category":"ホテル","big_category":"宿泊","description":"","image_url":"","tags":"Ver5.60(2025年2月)の追加建築","prefecture":"北海道","contractor":"","structural_designer":"","landscape_designer":"","shinkenchiku_url":""},{"id":14359,"title":"松沢歯科クリニック","architect":"小西彦仁","year":2007.0,"address":"北海道苫小牧市三光町5-22-12","latitude":42.65864181518555,"longitude":141.61932373046875,"category":"個人医院","big_category":"医療施設","description":"","image_url":"","tags":"Ver5.60(2025年2月)の追加建築","prefecture":"北海道","contractor":"","structural_designer":"","landscape_designer":"","shinkenchiku_url":""},{"id":14360,"title":"こぐまの森プレイホール ガリバー","architect":"小西彦仁","year":2003.0,"address":"北海道札幌市豊平区平岸6条17-1-35","latitude":43.01902389526367,"longitude":141.37814331054688,"category":"幼稚園","big_category":"教育","description":"","image_url":"","tags":"Ver5.60(2025年2月)の追加建築","prefecture":"北海道","contractor":"","structural_designer":"","landscape_designer":"","shinkenchiku_url":""},{"id":14361,"title":"KITASUZUHAUS","architect":"今津修平+北川浩明+川上真誠","year":2024.0,"address":"兵庫県神戸市北区甲栄台2-4-1","latitude":34.74018859863281,"longitude":135.14999389648438,"category":"カフェ/個人医院","big_category":"商業施設,医療施設","description":"","image_url":"","tags":"Ver5.60(2025年2月)の追加建築","prefecture":"兵庫","contractor":"プラントン","structural_designer":"","landscape_designer":"","shinkenchiku_url":""},{"id":14362,"title":"若竹の杜 若山農場トイレ","architect":"ビルススタジオ","year":2021.0,"address":"栃木県宇都宮市宝木本町2018","latitude":36.61626434326172,"longitude":139.84996032714844,"category":"トイレ","big_category":"公共施設","description":"","image_url":"","tags":"Ver5.60(2025年2月)の追加建築","prefecture":"栃木","contractor":"","structural_designer":"","landscape_designer":"","shinkenchiku_url":""},{"id":14363,"title":"OHYA BASE","architect":"ビルススタジオ","year":2020.0,"address":"栃木県宇都宮市大谷町1240","latitude":36.59709167480469,"longitude":139.81884765625,"category":"レストラン/カフェ/シェアオフィス","big_category":"商業施設,商業施設,商業施設","description":"","image_url":"","tags":"Ver5.60(2025年2月)の追加建築","prefecture":"栃木","contractor":"","structural_designer":"","landscape_designer":"","shinkenchiku_url":""},{"id":14364,"title":"Punto 大谷町食堂","architect":"ビルススタジオ","year":2020.0,"address":"栃木県宇都宮市大谷町1152","latitude":36.59404373168945,"longitude":139.81912231445312,"category":"レストラン","big_category":"商業施設","description":"","image_url":"","tags":"Ver5.60(2025年2月)の追加建築","prefecture":"栃木","contractor":"","structural_designer":"","landscape_designer":"","shinkenchiku_url":""},{"id":14365,"title":"栃木県立図書館","architect":"吉武泰水","year":1971.0,"address":"栃木県宇都宮市塙田1-3-23","latitude":36.56521987915039,"longitude":139.88555908203125,"category":"図書館","big_category":"文化施設","description":"設計クレジット：栃木県立図書館設計研究会","image_url":"","tags":"Ver5.60(2025年2月)の追加建築","prefecture":"栃木","contractor":"","structural_designer":"","landscape_designer":"","shinkenchiku_url":""},{"id":14366,"title":"もみじ図書館","architect":"ビルススタジオ","year":2019.0,"address":"栃木県宇都宮市西3-4-8","latitude":36.55571365356445,"longitude":139.87725830078125,"category":"図書館","big_category":"文化施設","description":"","image_url":"","tags":"Ver5.60(2025年2月)の追加建築","prefecture":"栃木","contractor":"","structural_designer":"","landscape_designer":"","shinkenchiku_url":""},{"id":14367,"title":"MONADNOCK","architect":"城戸崎博孝","year":2020.0,"address":"沖縄県南城市知念知念1180-1","latitude":26.161815643310547,"longitude":127.81182098388672,"category":"コテージ/住宅","big_category":"宿泊,住宅","description":"一棟貸し","image_url":"","tags":"Ver5.60(2025年2月)の追加建築","prefecture":"沖縄","contractor":"","structural_designer":"","landscape_designer":"","shinkenchiku_url":""},{"id":14368,"title":"FARM FRONT SEKINOEN","architect":"米山工務店","year":2022.0,"address":"新潟県南魚沼市関972-4","latitude":36.989341735839844,"longitude":138.81069946289062,"category":"店舗/カフェ","big_category":"商業施設,商業施設","description":"","image_url":"","tags":"Ver5.60(2025年2月)の追加建築","prefecture":"新潟","contractor":"米山工務店","structural_designer":"","landscape_designer":"","shinkenchiku_url":""},{"id":14369,"title":"稲荷の家改修 町秋人建築設計事務所","architect":"町秋人","year":2023.0,"address":"静岡県島田市稲荷3-4-5","latitude":34.83586883544922,"longitude":138.15980529785156,"category":"低層オフィス/住宅","big_category":"企業施設,住宅","description":"","image_url":"","tags":"Ver5.60(2025年2月)の追加建築","prefecture":"静岡","contractor":"","structural_designer":"","landscape_designer":"","shinkenchiku_url":""},{"id":14370,"title":"大慶寺 外部トイレ","architect":"町秋人","year":2024.0,"address":"静岡県藤枝市藤枝4-2-7","latitude":34.870147705078125,"longitude":138.25401306152344,"category":"トイレ","big_category":"公共施設","description":"","image_url":"","tags":"Ver5.60(2025年2月)の追加建築","prefecture":"静岡","contractor":"","structural_designer":"","landscape_designer":"","shinkenchiku_url":""},{"id":14371,"title":"下井草Ｅ邸 SAVO2480","architect":"遠藤誠","year":2023.0,"address":"東京都杉並区下井草4-31-10","latitude":35.72380065917969,"longitude":139.6194610595703,"category":"カフェ/住宅","big_category":"商業施設,住宅","description":"","image_url":"","tags":"Ver5.60(2025年2月)の追加建築","prefecture":"東京","contractor":"","structural_designer":"","landscape_designer":"","shinkenchiku_url":""},{"id":14372,"title":"相愛本社社屋","architect":"山本長水","year":1996.0,"address":"高知県高知市重倉266-2","latitude":33.60712432861328,"longitude":133.5623321533203,"category":"低層オフィス","big_category":"企業施設","description":"","image_url":"","tags":"Ver5.60(2025年2月)の追加建築","prefecture":"高知","contractor":"","structural_designer":"","landscape_designer":"","shinkenchiku_url":""},{"id":14373,"title":"細木建築研究所アトリエ","architect":"細木茂","year":2002.0,"address":"高知県高知市みづき1-301","latitude":33.58272933959961,"longitude":133.5160675048828,"category":"低層オフィス","big_category":"企業施設","description":"","image_url":"","tags":"Ver5.60(2025年2月)の追加建築","prefecture":"高知","contractor":"","structural_designer":"","landscape_designer":"","shinkenchiku_url":""},{"id":14374,"title":"輝るぽーと安田","architect":"細木茂","year":2009.0,"address":"高知県安芸郡安田町安田1716-6","latitude":33.43669128417969,"longitude":133.98077392578125,"category":"モール/PA・道の駅","big_category":"商業施設,インフラ","description":"","image_url":"","tags":"Ver5.60(2025年2月)の追加建築","prefecture":"高知","contractor":"","structural_designer":"","landscape_designer":"","shinkenchiku_url":""},{"id":14375,"title":"大里医院","architect":"細木茂","year":2007.0,"address":"徳島県海部郡海陽町大里松原34-47","latitude":33.60682678222656,"longitude":134.3631134033203,"category":"個人医院","big_category":"医療施設","description":"","image_url":"","tags":"Ver5.60(2025年2月)の追加建築","prefecture":"徳島","contractor":"","structural_designer":"","landscape_designer":"","shinkenchiku_url":""},{"id":14376,"title":"奥田酒造店","architect":"白井晟一","year":1957.0,"address":"秋田県大仙市協和境境113","latitude":39.61270523071289,"longitude":140.32229614257812,"category":"店舗/和風住宅","big_category":"商業施設,住宅","description":"","image_url":"","tags":"Ver5.60(2025年2月)の追加建築","prefecture":"秋田","contractor":"","structural_designer":"","landscape_designer":"","shinkenchiku_url":""},{"id":14377,"title":"保安産業社屋 旧大館木材会館","architect":"白井晟一","year":1953.0,"address":"秋田県大館市有浦5-1-3","latitude":40.282936096191406,"longitude":140.5671844482422,"category":"低層オフィス","big_category":"企業施設","description":"1970年現在地に移築","image_url":"","tags":"Ver5.60(2025年2月)の追加建築","prefecture":"秋田","contractor":"","structural_designer":"","landscape_designer":"","shinkenchiku_url":""},{"id":14378,"title":"昨雪軒","architect":"白井晟一","year":1971.0,"address":"秋田県横手市根岸町6-46","latitude":39.31917953491211,"longitude":140.5695037841797,"category":"和風住宅","big_category":"住宅","description":"","image_url":"","tags":"Ver5.60(2025年2月)の追加建築","prefecture":"秋田","contractor":"","structural_designer":"","landscape_designer":"","shinkenchiku_url":""},{"id":14379,"title":"稲住温泉 嵐亭 漣亭 杉亭","architect":"白井晟一","year":1963.0,"address":"秋田県湯沢市秋ノ宮山居野11","latitude":38.95981216430664,"longitude":140.54042053222656,"category":"旅館","big_category":"宿泊","description":"","image_url":"","tags":"Ver5.60(2025年2月)の追加建築","prefecture":"秋田","contractor":"","structural_designer":"","landscape_designer":"","shinkenchiku_url":""},{"id":14380,"title":"横手体育館","architect":"西原清之","year":1979.0,"address":"秋田県横手市条里2-2-40","latitude":39.3129768371582,"longitude":140.55242919921875,"category":"体育館","big_category":"レジャー施設","description":"2026年に取り壊し予定","image_url":"","tags":"Ver5.60(2025年2月)の追加建築","prefecture":"秋田","contractor":"","structural_designer":"","landscape_designer":"","shinkenchiku_url":""},{"id":14381,"title":"横手市ふれあいセンター かまくら館","architect":"岡田新一","year":1991.0,"address":"秋田県横手市中央町8-12","latitude":39.313541412353516,"longitude":140.5663299560547,"category":"ホール・劇場/観光施設","big_category":"文化施設,レジャー施設","description":"","image_url":"","tags":"Ver5.60(2025年2月)の追加建築","prefecture":"秋田","contractor":"","structural_designer":"","landscape_designer":"","shinkenchiku_url":""},{"id":14382,"title":"横手市役所 本庁舎","architect":"岡田新一","year":1989.0,"address":"秋田県横手市中央町8-2","latitude":39.31379318237305,"longitude":140.56671142578125,"category":"庁舎","big_category":"公共施設","description":"","image_url":"","tags":"Ver5.60(2025年2月)の追加建築","prefecture":"秋田","contractor":"","structural_designer":"","landscape_designer":"","shinkenchiku_url":""},{"id":14383,"title":"湯沢文化会館","architect":"佐藤総合計画","year":1979.0,"address":"秋田県湯沢市沖鶴103-1","latitude":39.17325210571289,"longitude":140.4803009033203,"category":"ホール・劇場","big_category":"文化施設","description":"2025年リニューアルオープン","image_url":"","tags":"Ver5.60(2025年2月)の追加建築","prefecture":"秋田","contractor":"","structural_designer":"","landscape_designer":"","shinkenchiku_url":""},{"id":14384,"title":"インテリアショップ&カフェ ももとせ","architect":"佐藤欣裕","year":2014.0,"address":"秋田県湯沢市岩崎岩崎160","latitude":39.203765869140625,"longitude":140.5091094970703,"category":"店舗/カフェ","big_category":"商業施設,商業施設","description":"","image_url":"","tags":"Ver5.60(2025年2月)の追加建築","prefecture":"秋田","contractor":"","structural_designer":"","landscape_designer":"","shinkenchiku_url":""},{"id":14385,"title":"レストランおしゃべりきのこ","architect":"佐藤欣裕","year":2021.0,"address":"秋田県秋田市山王中島町7-22","latitude":39.71675109863281,"longitude":140.091064453125,"category":"レストラン","big_category":"商業施設","description":"","image_url":"","tags":"Ver5.60(2025年2月)の追加建築","prefecture":"秋田","contractor":"","structural_designer":"","landscape_designer":"","shinkenchiku_url":""},{"id":14386,"title":"新富士プロトタイプ Besso ALTANA","architect":"佐藤欣裕","year":2019.0,"address":"静岡県富士市富士見台5-2-1","latitude":35.180362701416016,"longitude":138.71585083007812,"category":"住宅","big_category":"住宅","description":"モデルハウス。見学は要予約","image_url":"","tags":"Ver5.60(2025年2月)の追加建築","prefecture":"静岡","contractor":"","structural_designer":"","landscape_designer":"","shinkenchiku_url":""},{"id":14387,"title":"横手市立朝倉小学校","architect":"西原清之","year":1982.0,"address":"秋田県横手市睦成碇185","latitude":39.32598876953125,"longitude":140.560302734375,"category":"学校","big_category":"教育","description":"","image_url":"","tags":"Ver5.60(2025年2月)の追加建築","prefecture":"秋田","contractor":"","structural_designer":"","landscape_designer":"","shinkenchiku_url":""},{"id":14388,"title":"稚内駅","architect":"瀬戸口剛","year":2013.0,"address":"北海道稚内市中央3-6","latitude":45.41688537597656,"longitude":141.677001953125,"category":"駅/PA・道の駅","big_category":"インフラ,インフラ","description":"","image_url":"","tags":"Ver5.60(2025年2月)の追加建築","prefecture":"北海道","contractor":"","structural_designer":"","landscape_designer":"","shinkenchiku_url":""},{"id":14389,"title":"三共工作械資料館","architect":"大野秀敏","year":2015.0,"address":"静岡県菊川市本所2290","latitude":34.754024505615234,"longitude":138.1033935546875,"category":"博物館","big_category":"ミュージアム","description":"","image_url":"","tags":"Ver5.60(2025年2月)の追加建築","prefecture":"静岡","contractor":"平井工業","structural_designer":"","landscape_designer":"","shinkenchiku_url":""},{"id":14390,"title":"YKK ファスニング工場","architect":"大野秀敏","year":2001.0,"address":"富山県黒部市吉田200","latitude":36.894142150878906,"longitude":137.4348907470703,"category":"工場","big_category":"企業施設","description":"B1棟、B2棟、厚生棟、搬送ブリッジ","image_url":"","tags":"Ver5.60(2025年2月)の追加建築","prefecture":"富山","contractor":"第一建設","structural_designer":"佐々木睦朗構造計画研究所","landscape_designer":"","shinkenchiku_url":""},{"id":14391,"title":"YKK古御堂工場守衛所","architect":"大野秀敏","year":2007.0,"address":"富山県黒部市吉田200","latitude":36.895103454589844,"longitude":137.43177795410156,"category":"企業施設","big_category":"企業施設","description":"","image_url":"","tags":"Ver5.60(2025年2月)の追加建築","prefecture":"富山","contractor":"第一建設","structural_designer":"","landscape_designer":"","shinkenchiku_url":""},{"id":14392,"title":"YKK黒部事業所 南口守衛所","architect":"大野秀敏","year":2015.0,"address":"富山県黒部市吉田200","latitude":36.898983001708984,"longitude":137.42913818359375,"category":"企業施設","big_category":"企業施設","description":"","image_url":"","tags":"Ver5.60(2025年2月)の追加建築","prefecture":"富山","contractor":"林建設","structural_designer":"小西泰孝建築構造設計","landscape_designer":"","shinkenchiku_url":""},{"id":14393,"title":"岐阜現代美術館 桃紅館","architect":"片桐史朗","year":2024.0,"address":"岐阜県関市桃紅大地501","latitude":35.4525032043457,"longitude":136.90179443359375,"category":"美術館","big_category":"ミュージアム","description":"","image_url":"","tags":"Ver5.60(2025年2月)の追加建築","prefecture":"岐阜","contractor":"","structural_designer":"","landscape_designer":"","shinkenchiku_url":""},{"id":14394,"title":"鍋島整形外科新棟","architect":"大野秀敏","year":2022.0,"address":"千葉県千葉市中央区松波4-23-2","latitude":35.62392044067383,"longitude":140.11119079589844,"category":"個人医院","big_category":"医療施設","description":"","image_url":"","tags":"Ver5.60(2025年2月)の追加建築","prefecture":"千葉","contractor":"宮前建設","structural_designer":"","landscape_designer":"","shinkenchiku_url":""},{"id":14395,"title":"鍋島整形外科","architect":"大野秀敏","year":2005.0,"address":"千葉県千葉市中央区松波4-23-2","latitude":35.62408447265625,"longitude":140.11117553710938,"category":"個人医院","big_category":"医療施設","description":"","image_url":"","tags":"Ver5.60(2025年2月)の追加建築","prefecture":"千葉","contractor":"山庄建設","structural_designer":"小西泰孝建築構造設計","landscape_designer":"","shinkenchiku_url":""},{"id":14396,"title":"KIRIMA-flat メゾンドボヌール","architect":"今津修平","year":2015.0,"address":"高知県須崎市桐間西","latitude":33.408958435058594,"longitude":133.29103088378906,"category":"集合住宅","big_category":"住宅","description":"","image_url":"","tags":"Ver5.60(2025年2月)の追加建築","prefecture":"高知","contractor":"","structural_designer":"","landscape_designer":"","shinkenchiku_url":""},{"id":14397,"title":"やすい歯科","architect":"今津修平+北川浩明","year":2019.0,"address":"兵庫県神戸市北区藤原台南町3-13-18","latitude":34.81181335449219,"longitude":135.2071990966797,"category":"個人医院","big_category":"医療施設","description":"","image_url":"","tags":"Ver5.60(2025年2月)の追加建築","prefecture":"兵庫","contractor":"あかい工房","structural_designer":"","landscape_designer":"","shinkenchiku_url":""},{"id":14398,"title":"舞子駅バスターミナル","architect":"今津修平+北川浩明+河上善彦","year":2022.0,"address":"兵庫県神戸市垂水区東舞子町8","latitude":34.63331604003906,"longitude":135.03334045410156,"category":"駅","big_category":"インフラ","description":"","image_url":"","tags":"Ver5.60(2025年2月)の追加建築","prefecture":"兵庫","contractor":"太陽工業","structural_designer":"","landscape_designer":"","shinkenchiku_url":""},{"id":14399,"title":"1000RE SCENES SEN℃","architect":"今津修平+川上真誠","year":2023.0,"address":"大阪府豊中市新千里東町3-8-8 千里中央公園内","latitude":34.80990219116211,"longitude":135.50460815429688,"category":"レストラン","big_category":"商業施設","description":"","image_url":"","tags":"Ver5.60(2025年2月)の追加建築","prefecture":"大阪","contractor":"","structural_designer":"","landscape_designer":"","shinkenchiku_url":""},{"id":14400,"title":"VillEdge 洞穴cabin","architect":"今津修平+川上真誠","year":2024.0,"address":"兵庫県丹波篠山市遠方16-3","latitude":35.166019439697266,"longitude":135.27301025390625,"category":"コテージ","big_category":"宿泊","description":"","image_url":"","tags":"Ver5.60(2025年2月)の追加建築","prefecture":"兵庫","contractor":"あかい工房","structural_designer":"","landscape_designer":"","shinkenchiku_url":""}]}