{"page":137,"total_pages":290,"items_per_page":50,"total_items":14467,"items":[{"id":6801,"title":"LT城西2","architect":"諸江一紀+鈴木崇真","year":2017.0,"address":"愛知県名古屋市西区城西3-19","latitude":35.18860626220703,"longitude":136.89183044433594,"category":"集合住宅/住宅","big_category":"住宅,住宅","description":"","image_url":"","tags":"Ver1.96(2017年8月)の追加建築,新建築2017年8月号","prefecture":"愛知","contractor":"","structural_designer":"","landscape_designer":"","shinkenchiku_url":""},{"id":6802,"title":"LT城西","architect":"成瀬・猪熊建築設計事務所","year":2013.0,"address":"愛知県名古屋市西区城西3-19-10","latitude":35.18838119506836,"longitude":136.8919219970703,"category":"集合住宅/住宅","big_category":"住宅,住宅","description":"","image_url":"","tags":"Ver1.96(2017年8月)の追加建築","prefecture":"愛知","contractor":"","structural_designer":"","landscape_designer":"","shinkenchiku_url":""},{"id":6803,"title":"〈内〉と〈外〉の間XXVI 新宿区立漱石山房記念館","architect":"DFIフォルムデザイン一央","year":2017.0,"address":"東京都新宿区早稲田南町7","latitude":35.70391845703125,"longitude":139.72547912597656,"category":"博物館","big_category":"ミュージアム","description":"2017年9月オープン予定","image_url":"","tags":"Ver1.96(2017年8月)の追加建築,新建築2017年12月号","prefecture":"東京","contractor":"","structural_designer":"","landscape_designer":"","shinkenchiku_url":""},{"id":6804,"title":"那珂川町移住交流促進センター SUMITSUKE","architect":"岡田祐介","year":2017.0,"address":"福岡県那珂川町市ノ瀬443-1","latitude":33.4571418762207,"longitude":130.42727661132812,"category":"公共施設","big_category":"公共施設","description":"","image_url":"","tags":"Ver1.96(2017年8月)の追加建築","prefecture":"福岡","contractor":"","structural_designer":"","landscape_designer":"","shinkenchiku_url":""},{"id":6805,"title":"みのりのわかば保育園","architect":"中園美博","year":2017.0,"address":"東京都江戸川区東小松川3-24-16","latitude":35.693565368652344,"longitude":139.86671447753906,"category":"幼稚園","big_category":"教育","description":"","image_url":"","tags":"Ver1.96(2017年8月)の追加建築","prefecture":"東京","contractor":"","structural_designer":"","landscape_designer":"","shinkenchiku_url":""},{"id":6806,"title":"テトテノート","architect":"加藤吉宏","year":2017.0,"address":"愛知県名古屋市中村区竹橋町37-3","latitude":35.169349670410156,"longitude":136.87322998046875,"category":"オフィスビル","big_category":"企業施設","description":"","image_url":"","tags":"Ver1.96(2017年8月)の追加建築","prefecture":"愛知","contractor":"","structural_designer":"","landscape_designer":"","shinkenchiku_url":""},{"id":6807,"title":"有田市民会館 紀文ホール","architect":"徳岡設計","year":2017.0,"address":"和歌山県有田市箕島46","latitude":34.0833854675293,"longitude":135.12722778320312,"category":"ホール・劇場/図書館/総合文化施設","big_category":"文化施設,文化施設,文化施設","description":"","image_url":"","tags":"Ver1.96(2017年8月)の追加建築","prefecture":"和歌山","contractor":"","structural_designer":"","landscape_designer":"","shinkenchiku_url":""},{"id":6808,"title":"SK2 LAVANO高塚店","architect":"森下陽","year":2016.0,"address":"静岡県浜松市西区篠原町14220","latitude":34.68747329711914,"longitude":137.67428588867188,"category":"店舗","big_category":"商業施設","description":"","image_url":"","tags":"Ver1.96(2017年8月)の追加建築","prefecture":"静岡","contractor":"","structural_designer":"","landscape_designer":"","shinkenchiku_url":""},{"id":6809,"title":"妙見宮自安寺","architect":"川崎清","year":1968.0,"address":"大阪市中央区道頓堀1-東5-13","latitude":34.66878890991211,"longitude":135.50770568847656,"category":"寺院","big_category":"宗教","description":"","image_url":"","tags":"Ver1.96(2017年8月)の追加建築","prefecture":"大阪","contractor":"","structural_designer":"","landscape_designer":"","shinkenchiku_url":""},{"id":6810,"title":"山崎歯科","architect":"坂倉準三","year":1968.0,"address":"大阪府東大阪市東石切町5-5-20","latitude":34.683231353759766,"longitude":135.64865112304688,"category":"個人医院","big_category":"医療施設","description":"","image_url":"","tags":"Ver1.96(2017年8月)の追加建築","prefecture":"大阪","contractor":"","structural_designer":"","landscape_designer":"","shinkenchiku_url":""},{"id":6811,"title":"日立市新庁舎","architect":"SANAA","year":2017.0,"address":"茨城県日立市助川町1-1-1","latitude":36.5991325378418,"longitude":140.6502227783203,"category":"庁舎","big_category":"公共施設","description":"2019年に大屋根広場が竣工","image_url":"","tags":"Ver1.96(2017年8月)の追加建築,新建築2019年5月号","prefecture":"茨城","contractor":"","structural_designer":"","landscape_designer":"","shinkenchiku_url":""},{"id":6812,"title":"横浜市少年自然の家 赤城林間学園","architect":"内井昭蔵","year":1990.0,"address":"群馬県利根郡昭和村糸井7135","latitude":36.599761962890625,"longitude":139.12582397460938,"category":"研修施設","big_category":"教育","description":"","image_url":"","tags":"Ver1.96(2017年8月)の追加建築","prefecture":"群馬","contractor":"","structural_designer":"","landscape_designer":"","shinkenchiku_url":""},{"id":6813,"title":"和田学園 中川幼稚園","architect":"竹原義二","year":2010.0,"address":"群馬県高崎市高浜尻町614","latitude":36.35532760620117,"longitude":139.01405334472656,"category":"幼稚園","big_category":"教育","description":"","image_url":"","tags":"Ver1.96(2017年8月)の追加建築","prefecture":"群馬","contractor":"","structural_designer":"","landscape_designer":"","shinkenchiku_url":""},{"id":6814,"title":"大田市立休泊小学校","architect":"田中雅美","year":1999.0,"address":"群馬県太田市龍舞町3816-3","latitude":36.283687591552734,"longitude":139.41629028320312,"category":"学校","big_category":"教育","description":"耐震改修及び大規模改造","image_url":"","tags":"Ver1.96(2017年8月)の追加建築","prefecture":"群馬","contractor":"","structural_designer":"","landscape_designer":"","shinkenchiku_url":""},{"id":6815,"title":"太田市韮川行政センター","architect":"田中雅美","year":2002.0,"address":"群馬県太田市東長岡町1853","latitude":36.30215835571289,"longitude":139.39894104003906,"category":"公共施設","big_category":"公共施設","description":"","image_url":"","tags":"Ver1.96(2017年8月)の追加建築","prefecture":"群馬","contractor":"","structural_designer":"","landscape_designer":"","shinkenchiku_url":""},{"id":6816,"title":"世田谷区民健康村ふじやまビレジ","architect":"林雅子","year":1985.0,"address":"群馬県利根郡川場村大字谷地1320","latitude":36.72288131713867,"longitude":139.10218811035156,"category":"ホテル","big_category":"宿泊","description":"","image_url":"","tags":"Ver1.96(2017年8月)の追加建築","prefecture":"群馬","contractor":"","structural_designer":"","landscape_designer":"","shinkenchiku_url":""},{"id":6817,"title":"東京都太田記念館","architect":"林雅子","year":1989.0,"address":"東京都杉並区久我山2-16-14","latitude":35.68629837036133,"longitude":139.6009063720703,"category":"寮","big_category":"住宅","description":"","image_url":"","tags":"Ver1.96(2017年8月)の追加建築","prefecture":"東京","contractor":"","structural_designer":"","landscape_designer":"","shinkenchiku_url":""},{"id":6818,"title":"STEP 中央工学校創立85周年記念館","architect":"林雅子","year":1994.0,"address":"東京都北区岸町1-7-19","latitude":35.755313873291016,"longitude":139.73394775390625,"category":"専門学校","big_category":"教育","description":"","image_url":"","tags":"Ver1.96(2017年8月)の追加建築,新建築1995年3月号","prefecture":"東京","contractor":"","structural_designer":"","landscape_designer":"","shinkenchiku_url":""},{"id":6819,"title":"中央工学校 RISE 17号館","architect":"白井克典","year":2009.0,"address":"東京都北区岸町1-7-19","latitude":35.75520324707031,"longitude":139.73414611816406,"category":"専門学校","big_category":"教育","description":"","image_url":"","tags":"Ver1.96(2017年8月)の追加建築","prefecture":"東京","contractor":"","structural_designer":"","landscape_designer":"","shinkenchiku_url":""},{"id":6820,"title":"桜台ビレジ","architect":"内井昭蔵","year":1969.0,"address":"神奈川県横浜市青葉区桜台","latitude":35.55213165283203,"longitude":139.5143280029297,"category":"集合住宅","big_category":"住宅","description":"","image_url":"","tags":"Ver1.96(2017年8月)の追加建築","prefecture":"神奈川","contractor":"","structural_designer":"","landscape_designer":"","shinkenchiku_url":""},{"id":6821,"title":"宮崎台ビレジ","architect":"内井昭蔵","year":1971.0,"address":"神奈川県川崎市宮前区宮崎1","latitude":35.58441162109375,"longitude":139.59486389160156,"category":"集合住宅","big_category":"住宅","description":"","image_url":"","tags":"Ver1.96(2017年8月)の追加建築","prefecture":"神奈川","contractor":"","structural_designer":"","landscape_designer":"","shinkenchiku_url":""},{"id":6822,"title":"目黒不動前マンション","architect":"内井昭蔵","year":1977.0,"address":"東京都品川区西五反田4-31-2","latitude":35.626983642578125,"longitude":139.714111328125,"category":"集合住宅","big_category":"住宅","description":"","image_url":"","tags":"Ver1.96(2017年8月)の追加建築","prefecture":"東京","contractor":"","structural_designer":"","landscape_designer":"","shinkenchiku_url":""},{"id":6823,"title":"東京YMCA野尻学荘メインホール","architect":"内井昭蔵","year":1980.0,"address":"長野県上水内郡信濃町大字古海4689-1","latitude":36.82780838012695,"longitude":138.23898315429688,"category":"研修施設","big_category":"教育","description":"","image_url":"","tags":"Ver1.96(2017年8月)の追加建築","prefecture":"長野","contractor":"","structural_designer":"","landscape_designer":"","shinkenchiku_url":""},{"id":6824,"title":"日本聖公会ナザレ修女会ナザレ修道院","architect":"内井昭蔵","year":1993.0,"address":"東京都三鷹市牟礼4-22-30","latitude":35.69472122192383,"longitude":139.5726776123047,"category":"教会","big_category":"宗教","description":"","image_url":"","tags":"Ver1.96(2017年8月)の追加建築","prefecture":"東京","contractor":"","structural_designer":"","landscape_designer":"","shinkenchiku_url":""},{"id":6825,"title":"群馬県立前橋高等特別支援学校","architect":"内井昭蔵","year":1997.0,"address":"群馬県前橋市青梨子町233-1","latitude":36.41348648071289,"longitude":139.01995849609375,"category":"学校","big_category":"教育","description":"","image_url":"","tags":"Ver1.96(2017年8月)の追加建築","prefecture":"群馬","contractor":"","structural_designer":"","landscape_designer":"","shinkenchiku_url":""},{"id":6826,"title":"群馬県立尾瀬高等学校 自然環境科棟","architect":"内井昭蔵","year":1997.0,"address":"群馬県沼田市利根町平川1406","latitude":36.73102951049805,"longitude":139.2235107421875,"category":"学校","big_category":"教育","description":"","image_url":"","tags":"Ver1.96(2017年8月)の追加建築","prefecture":"群馬","contractor":"","structural_designer":"","landscape_designer":"","shinkenchiku_url":""},{"id":6827,"title":"森の詩幼稚園","architect":"内井昭蔵","year":2001.0,"address":"埼玉県北本市深井5-100","latitude":36.04854965209961,"longitude":139.5292510986328,"category":"幼稚園","big_category":"教育","description":"","image_url":"","tags":"Ver1.96(2017年8月)の追加建築","prefecture":"埼玉","contractor":"","structural_designer":"","landscape_designer":"","shinkenchiku_url":""},{"id":6828,"title":"世田谷区立中町小学校・玉川中学校","architect":"内井昭蔵","year":1995.0,"address":"東京都世田谷区中町4-23-1","latitude":35.617156982421875,"longitude":139.64344787597656,"category":"学校","big_category":"教育","description":"","image_url":"","tags":"Ver1.96(2017年8月)の追加建築","prefecture":"東京","contractor":"","structural_designer":"","landscape_designer":"","shinkenchiku_url":""},{"id":6829,"title":"日本女子大学附属豊明小学校","architect":"内井昭蔵","year":1997.0,"address":"東京都文京区目白台1-16-7","latitude":35.71620178222656,"longitude":139.71890258789062,"category":"学校","big_category":"教育","description":"","image_url":"","tags":"Ver1.96(2017年8月)の追加建築","prefecture":"東京","contractor":"","structural_designer":"","landscape_designer":"","shinkenchiku_url":""},{"id":6830,"title":"鳥取県知事公舎","architect":"内井昭蔵","year":1998.0,"address":"鳥取県鳥取市東町1-133","latitude":35.503997802734375,"longitude":134.23980712890625,"category":"住宅","big_category":"住宅","description":"事前申し込みで内部見学可能","image_url":"","tags":"Ver1.96(2017年8月)の追加建築","prefecture":"鳥取","contractor":"","structural_designer":"","landscape_designer":"","shinkenchiku_url":""},{"id":6831,"title":"春日部市豊春地区公民館","architect":"内井昭蔵","year":1998.0,"address":"埼玉県春日部市上蛭田101","latitude":35.966461181640625,"longitude":139.7245330810547,"category":"公民館・交流施設","big_category":"公共施設","description":"","image_url":"","tags":"Ver1.96(2017年8月)の追加建築","prefecture":"埼玉","contractor":"","structural_designer":"","landscape_designer":"","shinkenchiku_url":""},{"id":6832,"title":"岡山国際交流センター","architect":"内井昭蔵","year":1995.0,"address":"岡山県岡山市北区奉還町2-2-1","latitude":34.668251037597656,"longitude":133.91641235351562,"category":"公共施設","big_category":"公共施設","description":"","image_url":"","tags":"Ver1.96(2017年8月)の追加建築","prefecture":"岡山","contractor":"","structural_designer":"","landscape_designer":"","shinkenchiku_url":""},{"id":6833,"title":"茨城県立国民宿舎 鵜の岬","architect":"内井昭蔵","year":1997.0,"address":"茨城県日立市十王町伊師640","latitude":36.663185119628906,"longitude":140.7150421142578,"category":"ホテル","big_category":"宿泊","description":"","image_url":"","tags":"Ver1.96(2017年8月)の追加建築","prefecture":"茨城","contractor":"","structural_designer":"","landscape_designer":"","shinkenchiku_url":""},{"id":6834,"title":"栃木県立太平少年自然の家","architect":"内井昭蔵","year":1974.0,"address":"栃木県栃木市平井町638","latitude":36.36019515991211,"longitude":139.6999969482422,"category":"研修施設","big_category":"教育","description":"","image_url":"","tags":"Ver1.96(2017年8月)の追加建築","prefecture":"栃木","contractor":"","structural_designer":"","landscape_designer":"","shinkenchiku_url":""},{"id":6835,"title":"横浜市少年自然の家 南伊豆臨海学園","architect":"内井昭蔵","year":1980.0,"address":"静岡県賀茂郡南伊豆町子浦1437","latitude":34.67270278930664,"longitude":138.7831573486328,"category":"研修施設","big_category":"教育","description":"","image_url":"","tags":"Ver1.96(2017年8月)の追加建築","prefecture":"静岡","contractor":"","structural_designer":"","landscape_designer":"","shinkenchiku_url":""},{"id":6836,"title":"DHC赤沢温泉ホテル 旧スキラ伊豆赤沢","architect":"内井昭蔵","year":1997.0,"address":"静岡県伊東市赤沢浮山163-1","latitude":34.857757568359375,"longitude":139.0916290283203,"category":"ホテル","big_category":"宿泊","description":"","image_url":"","tags":"Ver1.96(2017年8月)の追加建築","prefecture":"静岡","contractor":"","structural_designer":"","landscape_designer":"","shinkenchiku_url":""},{"id":6837,"title":"桂湖ビジターセンター","architect":"内井昭蔵","year":1997.0,"address":"富山県南砺市桂 桂湖ビジターセンター","latitude":36.3289909362793,"longitude":136.83790588378906,"category":"観光施設/博物館","big_category":"レジャー施設,ミュージアム","description":"","image_url":"","tags":"Ver1.96(2017年8月)の追加建築","prefecture":"富山","contractor":"","structural_designer":"","landscape_designer":"","shinkenchiku_url":""},{"id":6838,"title":"戸隠ガールスカウトセンター","architect":"内井昭蔵","year":2000.0,"address":"長野県長野市戸隠3694-2","latitude":36.77348709106445,"longitude":138.08383178710938,"category":"研修施設","big_category":"教育","description":"","image_url":"","tags":"Ver1.96(2017年8月)の追加建築","prefecture":"長野","contractor":"","structural_designer":"","landscape_designer":"","shinkenchiku_url":""},{"id":6839,"title":"イクネスしばた","architect":"佐藤総合計画","year":2016.0,"address":"新潟県新発田市諏訪町1-2-20","latitude":37.94455337524414,"longitude":139.33338928222656,"category":"図書館/公民館・交流施設","big_category":"文化施設,公共施設","description":"","image_url":"","tags":"Ver1.96(2017年8月)の追加建築","prefecture":"新潟","contractor":"","structural_designer":"","landscape_designer":"","shinkenchiku_url":""},{"id":6840,"title":"東京大学 総合図書館新館 ライブリープラザ","architect":"川添善行+野城智也+清水建設","year":2017.0,"address":"東京都文京区本郷7-3-1","latitude":35.712158203125,"longitude":139.76068115234375,"category":"大学/図書館","big_category":"教育,文化施設","description":"","image_url":"","tags":"Ver1.96(2017年8月)の追加建築,新建築2018年12月号","prefecture":"東京","contractor":"","structural_designer":"","landscape_designer":"","shinkenchiku_url":""},{"id":6841,"title":"森の病院 成田リハビリテーション病院","architect":"隈研吾","year":2017.0,"address":"千葉県成田市南三里塚宮園18-1","latitude":35.738433837890625,"longitude":140.3811492919922,"category":"病院","big_category":"医療施設","description":"","image_url":"","tags":"Ver1.96(2017年8月)の追加建築","prefecture":"千葉","contractor":"","structural_designer":"","landscape_designer":"","shinkenchiku_url":""},{"id":6842,"title":"東洋大学 情報連携学部 INIAD HUB-1","architect":"隈研吾+戸田建設+日本設計","year":2017.0,"address":"東京都北区赤羽台1-7-11","latitude":35.78030776977539,"longitude":139.71511840820312,"category":"大学","big_category":"教育","description":"","image_url":"","tags":"Ver1.96(2017年8月)の追加建築,新建築2018年12月号","prefecture":"東京","contractor":"","structural_designer":"","landscape_designer":"","shinkenchiku_url":""},{"id":6843,"title":"ONE@Tokyo","architect":"隈研吾","year":2017.0,"address":"東京都墨田区押上1-19-3","latitude":35.71179962158203,"longitude":139.8160400390625,"category":"ホテル","big_category":"宿泊","description":"","image_url":"","tags":"Ver1.96(2017年8月)の追加建築","prefecture":"東京","contractor":"","structural_designer":"","landscape_designer":"","shinkenchiku_url":""},{"id":6844,"title":"低過庵","architect":"藤森照信","year":2017.0,"address":"長野県諏訪市中洲1356","latitude":35.99441909790039,"longitude":3161072640.0,"category":"茶室","big_category":"住宅","description":"高過庵と同じ敷地内。2017年9月頃竣工予定。","image_url":"","tags":"Ver1.96(2017年8月)の追加建築,新建築2018年1月号","prefecture":"長野","contractor":"","structural_designer":"","landscape_designer":"","shinkenchiku_url":""},{"id":6845,"title":"SMI:RE SHAKUJII","architect":"進藤強","year":2017.0,"address":"東京都練馬区上石神井4-8-25","latitude":35.730712890625,"longitude":139.5904541015625,"category":"集合住宅","big_category":"住宅","description":"","image_url":"","tags":"Ver1.96(2017年8月)の追加建築","prefecture":"東京","contractor":"","structural_designer":"","landscape_designer":"","shinkenchiku_url":""},{"id":6846,"title":"ダイビングショップナナ","architect":"進藤強","year":2010.0,"address":"神奈川県三浦郡葉山町堀内647","latitude":35.27777099609375,"longitude":139.57945251464844,"category":"店舗/住宅","big_category":"商業施設,住宅","description":"","image_url":"","tags":"Ver1.96(2017年8月)の追加建築","prefecture":"神奈川","contractor":"","structural_designer":"","landscape_designer":"","shinkenchiku_url":""},{"id":6847,"title":"CASA COMPLESSO","architect":"進藤強","year":2013.0,"address":"東京都中野区南台2-3-6","latitude":35.68246078491211,"longitude":139.672119140625,"category":"集合住宅","big_category":"住宅","description":"","image_url":"","tags":"Ver1.96(2017年8月)の追加建築","prefecture":"東京","contractor":"","structural_designer":"","landscape_designer":"","shinkenchiku_url":""},{"id":6848,"title":"Pieni Kallio","architect":"進藤強","year":2016.0,"address":"東京都江戸川区西小岩1-19-26","latitude":35.73293685913086,"longitude":139.8795928955078,"category":"集合住宅","big_category":"住宅","description":"","image_url":"","tags":"Ver1.96(2017年8月)の追加建築","prefecture":"東京","contractor":"","structural_designer":"","landscape_designer":"","shinkenchiku_url":""},{"id":6849,"title":"CASA CAZORLA","architect":"進藤強","year":2017.0,"address":"千葉県流山市南流山6-26-4","latitude":35.840118408203125,"longitude":139.89842224121094,"category":"集合住宅","big_category":"住宅","description":"","image_url":"","tags":"Ver1.96(2017年8月)の追加建築","prefecture":"千葉","contractor":"","structural_designer":"","landscape_designer":"","shinkenchiku_url":""},{"id":6850,"title":"HOTEL SMI:RE STAY TOKYO","architect":"進藤強","year":2016.0,"address":"東京都板橋区東山町36-4","latitude":35.753292083740234,"longitude":139.68515014648438,"category":"ホテル","big_category":"宿泊","description":"","image_url":"","tags":"Ver1.96(2017年8月)の追加建築","prefecture":"東京","contractor":"","structural_designer":"","landscape_designer":"","shinkenchiku_url":""}]}