{"page":237,"total_pages":290,"items_per_page":50,"total_items":14467,"items":[{"id":11801,"title":"男木島パビリオン","architect":"坂茂","year":2022.0,"address":"香川県高松市男木町346","latitude":34.42245101928711,"longitude":134.055908203125,"category":"ギャラリー","big_category":"ミュージアム","description":"瀬戸内国際芸術祭の作品。大岩オスカールの作品が展示","image_url":"","tags":"瀬戸内国際芸術祭,Ver4.70(2022年10月)の追加建築","prefecture":"香川","contractor":"","structural_designer":"","landscape_designer":"","shinkenchiku_url":""},{"id":11802,"title":"茨城県営小野崎アパート","architect":"内井昭蔵","year":1985.0,"address":"茨城県つくば市二の宮4-6-1","latitude":36.06209945678711,"longitude":140.1183319091797,"category":"集合住宅","big_category":"住宅","description":"","image_url":"","tags":"Ver4.70(2022年10月)の追加建築","prefecture":"茨城","contractor":"","structural_designer":"","landscape_designer":"","shinkenchiku_url":""},{"id":11803,"title":"つくば市立東小学校","architect":"藤本昌也","year":1995.0,"address":"茨城県つくば市東2-24-1","latitude":36.0548210144043,"longitude":140.1305694580078,"category":"学校","big_category":"教育","description":"","image_url":"","tags":"Ver4.70(2022年10月)の追加建築","prefecture":"茨城","contractor":"","structural_designer":"","landscape_designer":"","shinkenchiku_url":""},{"id":11804,"title":"パークサイドつくば松代","architect":"UR都市機構+山下和正","year":1993.0,"address":"茨城県つくば市松代3-23-1","latitude":36.068904876708984,"longitude":140.10154724121094,"category":"集合住宅","big_category":"住宅","description":"","image_url":"","tags":"Ver4.70(2022年10月)の追加建築","prefecture":"茨城","contractor":"","structural_designer":"","landscape_designer":"","shinkenchiku_url":""},{"id":11805,"title":"グリーンハイム手代木第二","architect":"藤本昌也","year":1982.0,"address":"茨城県つくば市松代2-11","latitude":36.07197952270508,"longitude":140.09913635253906,"category":"集合住宅","big_category":"住宅","description":"","image_url":"","tags":"Ver4.70(2022年10月)の追加建築","prefecture":"茨城","contractor":"","structural_designer":"","landscape_designer":"","shinkenchiku_url":""},{"id":11806,"title":"茨城県営ささぎアパート","architect":"UR都市機構+山下和正+藤本昌也","year":1980.0,"address":"茨城県つくば市並木4-4-14","latitude":36.06170654296875,"longitude":140.142333984375,"category":"集合住宅","big_category":"住宅","description":"","image_url":"","tags":"Ver4.70(2022年10月)の追加建築","prefecture":"茨城","contractor":"","structural_designer":"","landscape_designer":"","shinkenchiku_url":""},{"id":11807,"title":"松代小学校","architect":"山下和正","year":1991.0,"address":"茨城県つくば市松代3-3-1","latitude":36.07040786743164,"longitude":140.10206604003906,"category":"学校","big_category":"教育","description":"","image_url":"","tags":"Ver4.70(2022年10月)の追加建築","prefecture":"茨城","contractor":"","structural_designer":"","landscape_designer":"","shinkenchiku_url":""},{"id":11808,"title":"印西市立原小学校","architect":"山下和正","year":1996.0,"address":"千葉県印西市原3-5","latitude":35.799537658691406,"longitude":140.1637420654297,"category":"学校","big_category":"教育","description":"","image_url":"","tags":"Ver4.70(2022年10月)の追加建築","prefecture":"千葉","contractor":"","structural_designer":"","landscape_designer":"","shinkenchiku_url":""},{"id":11809,"title":"プロトプラス","architect":"納谷建築設計事務所","year":2009.0,"address":"東京都中野区新井4-17-6","latitude":35.7166748046875,"longitude":139.6674346923828,"category":"集合住宅","big_category":"住宅","description":"","image_url":"","tags":"Ver4.70(2022年10月)の追加建築","prefecture":"東京","contractor":"","structural_designer":"","landscape_designer":"","shinkenchiku_url":""},{"id":11810,"title":"Marryaid third terrace","architect":"谷尻誠","year":2017.0,"address":"広島県広島市中区三川町5-8","latitude":34.38986587524414,"longitude":132.46102905273438,"category":"カフェ","big_category":"商業施設","description":"","image_url":"","tags":"Ver4.70(2022年10月)の追加建築","prefecture":"広島","contractor":"","structural_designer":"","landscape_designer":"","shinkenchiku_url":""},{"id":11811,"title":"KIKI COFFE","architect":"谷尻誠","year":2017.0,"address":"広島県広島市中区大手町3-3-3","latitude":34.38945007324219,"longitude":132.45425415039062,"category":"カフェ","big_category":"商業施設","description":"","image_url":"","tags":"Ver4.70(2022年10月)の追加建築","prefecture":"広島","contractor":"","structural_designer":"","landscape_designer":"","shinkenchiku_url":""},{"id":11812,"title":"葺田パヴィリオン","architect":"西沢立衛","year":2013.0,"address":"香川県小豆郡小豆島町福田甲598","latitude":34.544952392578125,"longitude":134.34182739257812,"category":"オブジェ","big_category":"ミュージアム","description":"","image_url":"","tags":"瀬戸内国際芸術祭,Ver4.70(2022年10月)の追加建築","prefecture":"香川","contractor":"","structural_designer":"","landscape_designer":"","shinkenchiku_url":""},{"id":11813,"title":"都営地下鉄大江戸線 麻布十番駅","architect":"青島裕之","year":2000.0,"address":"東京都港区麻布十番1-4-6","latitude":35.65639877319336,"longitude":139.73660278320312,"category":"駅","big_category":"インフラ","description":"","image_url":"","tags":"Ver4.70(2022年10月)の追加建築","prefecture":"東京","contractor":"","structural_designer":"","landscape_designer":"","shinkenchiku_url":""},{"id":11814,"title":"都営地下鉄大江戸線 国立競技場駅","architect":"保坂陽一郎","year":2000.0,"address":"東京都渋谷区千駄ケ谷1-34","latitude":35.6796760559082,"longitude":139.71438598632812,"category":"駅","big_category":"インフラ","description":"","image_url":"","tags":"Ver4.70(2022年10月)の追加建築","prefecture":"東京","contractor":"","structural_designer":"","landscape_designer":"","shinkenchiku_url":""},{"id":11815,"title":"都営地下鉄大江戸線 清澄白河駅","architect":"石原久三郎","year":2000.0,"address":"東京都江東区白河1-6-13","latitude":35.682823181152344,"longitude":139.79888916015625,"category":"駅","big_category":"インフラ","description":"竣工年は大江戸線開通の2000年と思われる_x000D_","image_url":"","tags":"Ver4.70(2022年10月)の追加建築","prefecture":"東京","contractor":"","structural_designer":"","landscape_designer":"","shinkenchiku_url":""},{"id":11816,"title":"都営地下鉄大江戸線 六本木駅","architect":"守屋弓男","year":2000.0,"address":"東京都港区赤坂9-7-39","latitude":35.66456985473633,"longitude":139.73109436035156,"category":"駅","big_category":"インフラ","description":"","image_url":"","tags":"Ver4.70(2022年10月)の追加建築","prefecture":"東京","contractor":"","structural_designer":"","landscape_designer":"","shinkenchiku_url":""},{"id":11817,"title":"都営地下鉄大江戸線 青山一丁目駅","architect":"守屋弓男","year":2000.0,"address":"東京都港区南青山1-1-19","latitude":35.67289352416992,"longitude":139.7238006591797,"category":"駅","big_category":"インフラ","description":"","image_url":"","tags":"Ver4.70(2022年10月)の追加建築","prefecture":"東京","contractor":"","structural_designer":"","landscape_designer":"","shinkenchiku_url":""},{"id":11818,"title":"都営地下鉄大江戸線 赤羽橋駅","architect":"青島裕之","year":2000.0,"address":"東京都港区東麻布1-28-13","latitude":35.65520477294922,"longitude":139.74346923828125,"category":"駅","big_category":"インフラ","description":"","image_url":"","tags":"Ver4.70(2022年10月)の追加建築","prefecture":"東京","contractor":"","structural_designer":"","landscape_designer":"","shinkenchiku_url":""},{"id":11819,"title":"都営地下鉄大江戸線 代々木駅","architect":"保坂陽一郎","year":2000.0,"address":"東京都渋谷区代々木1-34","latitude":35.68259048461914,"longitude":139.70150756835938,"category":"駅","big_category":"インフラ","description":"","image_url":"","tags":"Ver4.70(2022年10月)の追加建築","prefecture":"東京","contractor":"","structural_designer":"","landscape_designer":"","shinkenchiku_url":""},{"id":11820,"title":"玄蕎麦 路庵","architect":"小池正人","year":2014.0,"address":"東京都世田谷区代沢2-28-9","latitude":35.65842056274414,"longitude":139.66839599609375,"category":"レストラン","big_category":"商業施設","description":"","image_url":"","tags":"Ver4.70(2022年10月)の追加建築","prefecture":"東京","contractor":"","structural_designer":"","landscape_designer":"","shinkenchiku_url":""},{"id":11821,"title":"善福寺公園テニスクラブ クラブハウス","architect":"小池正人","year":2015.0,"address":"東京都練馬区関町南1-4-48","latitude":35.719608306884766,"longitude":139.59353637695312,"category":"クラブハウス","big_category":"レジャー施設","description":"プレーするメンバーを見守り　お疲れさまと迎える大屋根の建築","image_url":"","tags":"Ver4.70(2022年10月)の追加建築","prefecture":"東京","contractor":"","structural_designer":"","landscape_designer":"","shinkenchiku_url":""},{"id":11822,"title":"群馬コンベンションセンター Gメッセ群馬","architect":"佐藤総合計画","year":2020.0,"address":"群馬県高崎市岩押町12-24","latitude":36.318424224853516,"longitude":139.02198791503906,"category":"展示・会議場","big_category":"公共施設","description":"","image_url":"","tags":"Ver4.70(2022年10月)の追加建築","prefecture":"群馬","contractor":"","structural_designer":"","landscape_designer":"","shinkenchiku_url":""},{"id":11823,"title":"宝珍楼","architect":"納谷建築設計事務所","year":2001.0,"address":"神奈川県川崎市中原区新丸子東1-831","latitude":35.580020904541016,"longitude":139.66246032714844,"category":"レストラン","big_category":"商業施設","description":"at＋d賞　優秀賞","image_url":"","tags":"Ver4.70(2022年10月)の追加建築","prefecture":"神奈川","contractor":"","structural_designer":"","landscape_designer":"","shinkenchiku_url":""},{"id":11824,"title":"新井の集合住宅 プロト","architect":"納谷建築設計事務所","year":2003.0,"address":"東京都中野区新井4-17-4","latitude":35.71671676635742,"longitude":139.66729736328125,"category":"集合住宅","big_category":"住宅","description":"","image_url":"","tags":"Ver4.70(2022年10月)の追加建築","prefecture":"東京","contractor":"","structural_designer":"","landscape_designer":"","shinkenchiku_url":""},{"id":11825,"title":"GILIGILI","architect":"納谷建築設計事務所","year":2012.0,"address":"神奈川県川崎市中原区新丸子東1-823-13","latitude":35.58009338378906,"longitude":139.6641082763672,"category":"集合住宅","big_category":"住宅","description":"","image_url":"","tags":"Ver4.70(2022年10月)の追加建築","prefecture":"神奈川","contractor":"","structural_designer":"","landscape_designer":"","shinkenchiku_url":""},{"id":11826,"title":"十和田市地域交流センター とわふる","architect":"藤本壮介","year":2022.0,"address":"青森県十和田市稲生町16-1","latitude":40.615264892578125,"longitude":141.21360778808594,"category":"公民館・交流施設","big_category":"公共施設","description":"","image_url":"","tags":"Ver4.70(2022年10月)の追加建築,新建築2022年11月号","prefecture":"青森","contractor":"","structural_designer":"","landscape_designer":"","shinkenchiku_url":""},{"id":11827,"title":"UNOSAKI","architect":"納谷建築設計事務所","year":2022.0,"address":"秋田県男鹿市鵜ノ崎海岸","latitude":39.85776138305664,"longitude":139.81790161132812,"category":"オブジェ","big_category":"ミュージアム","description":"モニュメント","image_url":"","tags":"Ver4.70(2022年10月)の追加建築","prefecture":"秋田","contractor":"","structural_designer":"","landscape_designer":"","shinkenchiku_url":""},{"id":11828,"title":"ブルースデザイン","architect":"D.I.G Architects","year":2014.0,"address":"愛知県大府市長草町新池60-3","latitude":35.026458740234375,"longitude":136.94110107421875,"category":"低層オフィス","big_category":"企業施設","description":"","image_url":"","tags":"Ver4.70(2022年10月)の追加建築","prefecture":"愛知","contractor":"","structural_designer":"","landscape_designer":"","shinkenchiku_url":""},{"id":11829,"title":"立命館大学 恒心館 旧6号館","architect":"富家宏泰","year":1965.0,"address":"京都市北区等持院北町56-1","latitude":35.03268814086914,"longitude":135.72181701660156,"category":"大学","big_category":"教育","description":"2000年改装","image_url":"","tags":"Ver4.70(2022年10月)の追加建築","prefecture":"京都","contractor":"","structural_designer":"","landscape_designer":"","shinkenchiku_url":""},{"id":11830,"title":"立命館大学 啓明館 旧1号館","architect":"富家宏泰","year":1966.0,"address":"京都市北区等持院北町56-1","latitude":35.03230667114258,"longitude":135.72239685058594,"category":"大学","big_category":"教育","description":"","image_url":"","tags":"Ver4.70(2022年10月)の追加建築","prefecture":"京都","contractor":"","structural_designer":"","landscape_designer":"","shinkenchiku_url":""},{"id":11831,"title":"立命館大学 修学館","architect":"富家宏泰","year":1966.0,"address":"京都市北区等持院北町56-1","latitude":35.03217315673828,"longitude":135.72402954101562,"category":"大学","big_category":"教育","description":"","image_url":"","tags":"Ver4.70(2022年10月)の追加建築","prefecture":"京都","contractor":"","structural_designer":"","landscape_designer":"","shinkenchiku_url":""},{"id":11832,"title":"立命館大学 学而館","architect":"富家宏泰","year":1970.0,"address":"京都市北区等持院北町56-1","latitude":35.03260040283203,"longitude":135.7237091064453,"category":"大学","big_category":"教育","description":"","image_url":"","tags":"Ver4.70(2022年10月)の追加建築","prefecture":"京都","contractor":"","structural_designer":"","landscape_designer":"","shinkenchiku_url":""},{"id":11833,"title":"立命館大学 志学館","architect":"富家宏泰","year":1974.0,"address":"京都市北区等持院北町56-2","latitude":35.032203674316406,"longitude":135.72512817382812,"category":"大学","big_category":"教育","description":"","image_url":"","tags":"Ver4.70(2022年10月)の追加建築","prefecture":"京都","contractor":"","structural_designer":"","landscape_designer":"","shinkenchiku_url":""},{"id":11834,"title":"立命館大学 諒友館","architect":"富家宏泰","year":1976.0,"address":"京都市北区等持院北町56-1","latitude":35.03282928466797,"longitude":135.72238159179688,"category":"大学","big_category":"教育","description":"","image_url":"","tags":"Ver4.70(2022年10月)の追加建築","prefecture":"京都","contractor":"","structural_designer":"","landscape_designer":"","shinkenchiku_url":""},{"id":11835,"title":"立命館 学生会館","architect":"富家宏泰","year":1978.0,"address":"京都市北区等持院北町56-1","latitude":35.03412628173828,"longitude":135.72463989257812,"category":"大学","big_category":"教育","description":"","image_url":"","tags":"Ver4.70(2022年10月)の追加建築","prefecture":"京都","contractor":"","structural_designer":"","landscape_designer":"","shinkenchiku_url":""},{"id":11836,"title":"京都府立医科大学 体育館","architect":"富家宏泰","year":1958.0,"address":"京都市上京区河原町通広小路上る梶井町465","latitude":35.02667236328125,"longitude":135.77027893066406,"category":"大学/体育館","big_category":"教育,レジャー施設","description":"","image_url":"","tags":"Ver4.70(2022年10月)の追加建築","prefecture":"京都","contractor":"","structural_designer":"","landscape_designer":"","shinkenchiku_url":""},{"id":11837,"title":"立命館大学 存心館","architect":"富家宏泰","year":1981.0,"address":"京都市北区等持院北町56-1","latitude":35.033447265625,"longitude":135.72415161132812,"category":"大学","big_category":"教育","description":"","image_url":"","tags":"Ver4.70(2022年10月)の追加建築","prefecture":"京都","contractor":"","structural_designer":"","landscape_designer":"","shinkenchiku_url":""},{"id":11838,"title":"立命館大学 末川記念会館","architect":"富家宏泰","year":1983.0,"address":"京都市北区等持院北町56-1","latitude":35.033912658691406,"longitude":135.72608947753906,"category":"大学","big_category":"教育","description":"","image_url":"","tags":"Ver4.70(2022年10月)の追加建築","prefecture":"京都","contractor":"","structural_designer":"","landscape_designer":"","shinkenchiku_url":""},{"id":11839,"title":"日土地静岡ビル","architect":"芦原義信","year":1983.0,"address":"静岡県静岡市葵区追手町8-1","latitude":34.97627639770508,"longitude":138.38121032714844,"category":"オフィスビル","big_category":"企業施設","description":"","image_url":"","tags":"Ver4.70(2022年10月)の追加建築","prefecture":"静岡","contractor":"","structural_designer":"","landscape_designer":"","shinkenchiku_url":""},{"id":11840,"title":"生活介護事業所 ココの家","architect":"宇住庵設計","year":2022.0,"address":"鹿児島県肝属郡肝付町富山1459","latitude":31.37701988220215,"longitude":130.89990234375,"category":"養護施設","big_category":"医療施設","description":"","image_url":"","tags":"Ver4.70(2022年10月)の追加建築","prefecture":"鹿児島","contractor":"","structural_designer":"","landscape_designer":"","shinkenchiku_url":""},{"id":11841,"title":"立命館大学 西園寺記念館","architect":"京都建築事務所","year":1987.0,"address":"京都市北区衣笠氷室町9","latitude":35.03872299194336,"longitude":135.7263946533203,"category":"大学","big_category":"教育","description":"京都市都市景観賞受賞","image_url":"","tags":"Ver4.70(2022年10月)の追加建築","prefecture":"京都","contractor":"","structural_designer":"","landscape_designer":"","shinkenchiku_url":""},{"id":11842,"title":"カレースパイス　八O吉","architect":"吉村真基","year":2021.0,"address":"愛知県名古屋市千種区自由ヶ丘2-10-30","latitude":35.1756706237793,"longitude":136.9664306640625,"category":"レストラン","big_category":"商業施設","description":"","image_url":"","tags":"Ver4.70(2022年10月)の追加建築","prefecture":"愛知","contractor":"","structural_designer":"","landscape_designer":"","shinkenchiku_url":""},{"id":11843,"title":"やまさと保育園増築棟","architect":"吉村真基","year":2021.0,"address":"愛知県名古屋市昭和区山里町85-1","latitude":35.14500427246094,"longitude":136.9613037109375,"category":"幼稚園","big_category":"教育","description":"","image_url":"","tags":"Ver4.70(2022年10月)の追加建築","prefecture":"愛知","contractor":"","structural_designer":"","landscape_designer":"","shinkenchiku_url":""},{"id":11844,"title":"広島オカリナ こうわ認定こども園","architect":"迫慶一郎","year":2018.0,"address":"広島県広島市南区堀越1-8-14","latitude":34.37360763549805,"longitude":132.51231384277344,"category":"幼稚園","big_category":"教育","description":"","image_url":"","tags":"Ver4.70(2022年10月)の追加建築","prefecture":"広島","contractor":"","structural_designer":"","landscape_designer":"","shinkenchiku_url":""},{"id":11845,"title":"南会津町新庁舎","architect":"青島裕之","year":2017.0,"address":"福島県南会津郡南会津町田島後原甲3531-1","latitude":37.20047378540039,"longitude":139.77391052246094,"category":"庁舎","big_category":"公共施設","description":"","image_url":"","tags":"Ver4.70(2022年10月)の追加建築","prefecture":"福島","contractor":"東邦・大桃・金子特定建設工事共同企業体","structural_designer":"","landscape_designer":"","shinkenchiku_url":""},{"id":11846,"title":"京セラドーム大阪","architect":"日建設計","year":1997.0,"address":"大阪府大阪市西区千代崎3-中2-1","latitude":34.669307708740234,"longitude":135.47605895996094,"category":"スタジアム","big_category":"レジャー施設","description":"","image_url":"","tags":"Ver4.70(2022年10月)の追加建築","prefecture":"大阪","contractor":"","structural_designer":"","landscape_designer":"","shinkenchiku_url":""},{"id":11847,"title":"ブルーボトルコーヒー神戸阪急カフェ","architect":"芦沢啓治","year":2022.0,"address":"兵庫県神戸市中央区前町1","latitude":34.6871452331543,"longitude":135.1902313232422,"category":"カフェ","big_category":"商業施設","description":"内装設計","image_url":"","tags":"Ver4.70(2022年10月)の追加建築","prefecture":"兵庫","contractor":"","structural_designer":"","landscape_designer":"","shinkenchiku_url":""},{"id":11848,"title":"プロットヘアー","architect":"中本尋之","year":2021.0,"address":"広島県呉市中通4-9-8","latitude":34.24738693237305,"longitude":132.56759643554688,"category":"美容院","big_category":"商業施設","description":"内装設計","image_url":"","tags":"Ver4.70(2022年10月)の追加建築","prefecture":"広島","contractor":"","structural_designer":"","landscape_designer":"","shinkenchiku_url":""},{"id":11849,"title":"HAIKU","architect":"中本尋之","year":2022.0,"address":"広島県呉市本通4-4-1","latitude":34.24726104736328,"longitude":132.56802368164062,"category":"美容院","big_category":"商業施設","description":"内装設計","image_url":"","tags":"Ver4.70(2022年10月)の追加建築","prefecture":"広島","contractor":"","structural_designer":"","landscape_designer":"","shinkenchiku_url":""},{"id":11850,"title":"有明スポーツセンター","architect":"現代建築研究所","year":1996.0,"address":"東京都江東区有明2-3-5","latitude":35.63319396972656,"longitude":139.7838897705078,"category":"体育館","big_category":"レジャー施設","description":"宇宙船のような体育館棟","image_url":"","tags":"Ver4.70(2022年10月)の追加建築","prefecture":"東京","contractor":"","structural_designer":"","landscape_designer":"","shinkenchiku_url":""}]}