{"page":231,"total_pages":290,"items_per_page":50,"total_items":14467,"items":[{"id":11501,"title":"OF HOTEL","architect":"納谷建築設計事務所","year":2022.0,"address":"宮城県仙台市青葉区花京院1-4-14","latitude":38.26526641845703,"longitude":140.8824462890625,"category":"ホテル","big_category":"宿泊","description":"築47年のビルをリノベーション。2022年7月1日オープン予定","image_url":"","tags":"Ver4.50(2022年6月)の追加建築","prefecture":"宮城","contractor":"","structural_designer":"","landscape_designer":"","shinkenchiku_url":""},{"id":11502,"title":"名古屋造形大学 名城公園キャンパス","architect":"山本理顕","year":2022.0,"address":"愛知県名古屋市北区名城2-4-1","latitude":35.19047927856445,"longitude":136.9047393798828,"category":"大学","big_category":"教育","description":"","image_url":"","tags":"Ver4.50(2022年6月)の追加建築,新建築2022年9月号","prefecture":"愛知","contractor":"大林組","structural_designer":"","landscape_designer":"","shinkenchiku_url":""},{"id":11503,"title":"スターバックス 皇居外苑和田倉噴水公園店 旧和田倉噴水公園レストラン","architect":"丹下健三","year":1995.0,"address":"東京都千代田区皇居外苑3-1","latitude":35.68304443359375,"longitude":139.76124572753906,"category":"カフェ/レストラン","big_category":"商業施設,商業施設","description":"","image_url":"","tags":"Ver4.50(2022年6月)の追加建築","prefecture":"東京","contractor":"","structural_designer":"","landscape_designer":"","shinkenchiku_url":""},{"id":11504,"title":"KITOKI","architect":"安斎好太郎","year":2022.0,"address":"東京都中央区日本橋兜町8-5","latitude":35.681396484375,"longitude":139.77789306640625,"category":"オフィスビル","big_category":"企業施設","description":"日本初のメガストラクチャーハイブリッド木造ビル","image_url":"","tags":"Ver4.50(2022年6月)の追加建築,新建築2022年10月号","prefecture":"東京","contractor":"","structural_designer":"","landscape_designer":"","shinkenchiku_url":""},{"id":11505,"title":"太宗寺","architect":"清水哲夫","year":1962.0,"address":"東京都新宿区新宿2-9-2","latitude":35.68982696533203,"longitude":139.70936584472656,"category":"寺院","big_category":"宗教","description":"","image_url":"","tags":"Ver4.50(2022年6月)の追加建築","prefecture":"東京","contractor":"清水建設","structural_designer":"","landscape_designer":"","shinkenchiku_url":""},{"id":11506,"title":"心光寺","architect":"安田臣","year":1974.0,"address":"鳥取県米子市寺町39","latitude":35.43480682373047,"longitude":133.32601928710938,"category":"寺院","big_category":"宗教","description":"","image_url":"","tags":"Ver4.50(2022年6月)の追加建築","prefecture":"鳥取","contractor":"","structural_designer":"","landscape_designer":"","shinkenchiku_url":""},{"id":11507,"title":"SDC 齋藤歯科医院","architect":"東海林健","year":2018.0,"address":"新潟県燕市秋葉町4-6-27","latitude":37.66316223144531,"longitude":138.91502380371094,"category":"個人医院","big_category":"医療施設","description":"","image_url":"","tags":"Ver4.50(2022年6月)の追加建築","prefecture":"新潟","contractor":"","structural_designer":"","landscape_designer":"","shinkenchiku_url":""},{"id":11508,"title":"SDC PLUS 齋藤歯科医院 メンテナンス棟・PLUS CAFE","architect":"東海林健","year":2021.0,"address":"新潟県燕市秋葉町4-6-27","latitude":37.66345977783203,"longitude":138.91517639160156,"category":"個人医院/カフェ","big_category":"医療施設,商業施設","description":"","image_url":"","tags":"Ver4.50(2022年6月)の追加建築","prefecture":"新潟","contractor":"","structural_designer":"","landscape_designer":"","shinkenchiku_url":""},{"id":11509,"title":"高松市屋島山上交流拠点施設 やしまーる","architect":"周防貴之","year":2022.0,"address":"香川県高松市屋島屋島東町1784-2","latitude":34.358280181884766,"longitude":134.0989990234375,"category":"展望台","big_category":"レジャー施設","description":"2022年8月オープン予定","image_url":"","tags":"Ver4.50(2022年6月)の追加建築","prefecture":"香川","contractor":"","structural_designer":"","landscape_designer":"","shinkenchiku_url":""},{"id":11510,"title":"山五十嵐こども園","architect":"東海林健","year":2021.0,"address":"新潟県新潟市西区五十嵐3の町西16-13","latitude":37.857723236083984,"longitude":138.92483520507812,"category":"幼稚園","big_category":"教育","description":"","image_url":"","tags":"Ver4.50(2022年6月)の追加建築,新建築2022年10月号,第32回AACA 芦原義信賞","prefecture":"新潟","contractor":"","structural_designer":"","landscape_designer":"","shinkenchiku_url":""},{"id":11511,"title":"旧鶴屋吉信社員寮","architect":"増田友也","year":1965.0,"address":"京都府京都市上京区飛鳥井町255-8","latitude":35.02983856201172,"longitude":135.75242614746094,"category":"寮","big_category":"住宅","description":"","image_url":"","tags":"Ver4.50(2022年6月)の追加建築","prefecture":"京都","contractor":"","structural_designer":"","landscape_designer":"","shinkenchiku_url":""},{"id":11512,"title":"四国村ミウゼアム エントランス おやねさん","architect":"川添善行","year":2022.0,"address":"香川県高松市屋島中町91","latitude":34.34409713745117,"longitude":134.1082763671875,"category":"店舗/テーマパーク","big_category":"商業施設,レジャー施設","description":"","image_url":"","tags":"瀬戸内国際芸術祭,Ver4.50(2022年6月)の追加建築,新建築2023年4月号","prefecture":"香川","contractor":"","structural_designer":"","landscape_designer":"","shinkenchiku_url":""},{"id":11513,"title":"久杉橋","architect":"隈研吾","year":2022.0,"address":"山口県岩国市周東町獺越2128","latitude":34.125308990478516,"longitude":132.00477600097656,"category":"橋","big_category":"インフラ","description":"2022年6月頃竣工予定","image_url":"","tags":"Ver4.50(2022年6月)の追加建築","prefecture":"山口","contractor":"","structural_designer":"","landscape_designer":"","shinkenchiku_url":""},{"id":11514,"title":"花むらビル","architect":"高橋靗一","year":1986.0,"address":"群馬県前橋市千代田町5-1-7","latitude":36.39075469970703,"longitude":139.07174682617188,"category":"テナントビル","big_category":"商業施設","description":"","image_url":"","tags":"Ver4.50(2022年6月)の追加建築","prefecture":"群馬","contractor":"","structural_designer":"","landscape_designer":"","shinkenchiku_url":""},{"id":11515,"title":"東川町サテライトオフィス KAGUの家","architect":"隈研吾","year":2022.0,"address":"北海道上川郡東川町東町1-7-18","latitude":43.69774627685547,"longitude":142.50938415527344,"category":"低層オフィス","big_category":"企業施設","description":"近隣に4棟竣工予定","image_url":"","tags":"Ver4.50(2022年6月)の追加建築","prefecture":"北海道","contractor":"","structural_designer":"","landscape_designer":"","shinkenchiku_url":""},{"id":11516,"title":"スミスのいえ富津新舞子 竹影house","architect":"中村拓志","year":2022.0,"address":"千葉県富津市笹毛68-22","latitude":35.24653244018555,"longitude":139.8685302734375,"category":"コテージ/住宅","big_category":"宿泊,住宅","description":"一棟貸し","image_url":"","tags":"Ver4.50(2022年6月)の追加建築","prefecture":"千葉","contractor":"","structural_designer":"","landscape_designer":"","shinkenchiku_url":""},{"id":11517,"title":"Snow Peak FIELD SUITE SPA HEADQUARTERS","architect":"隈研吾","year":2022.0,"address":"新潟県三条市中野原456ｰ1","latitude":37.544227600097656,"longitude":139.047607421875,"category":"温泉/ホテル/レストラン","big_category":"宿泊,宿泊,商業施設","description":"","image_url":"","tags":"Ver4.50(2022年6月)の追加建築,新建築2022年9月号","prefecture":"新潟","contractor":"","structural_designer":"","landscape_designer":"","shinkenchiku_url":""},{"id":11518,"title":"草津温泉 きむらや","architect":"隈研吾","year":2021.0,"address":"群馬県吾妻郡草津町草津117-1","latitude":36.62278366088867,"longitude":138.59701538085938,"category":"旅館/コテージ","big_category":"宿泊,宿泊","description":"現在準備中。一室のみの旅館","image_url":"","tags":"Ver4.50(2022年6月)の追加建築","prefecture":"群馬","contractor":"","structural_designer":"","landscape_designer":"","shinkenchiku_url":""},{"id":11519,"title":"京都御苑 中立売休憩所","architect":"柳澤孝彦","year":2019.0,"address":"京都府京都市上京区龍前町一条","latitude":35.02544403076172,"longitude":135.75979614257812,"category":"店舗/カフェ","big_category":"商業施設,商業施設","description":"","image_url":"","tags":"Ver4.50(2022年6月)の追加建築","prefecture":"京都","contractor":"","structural_designer":"","landscape_designer":"","shinkenchiku_url":""},{"id":11520,"title":"大塚医院ファミリークリニック","architect":"菅原大輔","year":2021.0,"address":"埼玉県熊谷市大麻生1396","latitude":36.145652770996094,"longitude":139.33192443847656,"category":"個人医院","big_category":"医療施設","description":"","image_url":"","tags":"Ver4.50(2022年6月)の追加建築","prefecture":"埼玉","contractor":"","structural_designer":"","landscape_designer":"","shinkenchiku_url":""},{"id":11521,"title":"ファームステーションジム","architect":"菅原大輔","year":2020.0,"address":"千葉県八千代市緑が丘西4-1-4","latitude":35.73614501953125,"longitude":140.06922912597656,"category":"体育館/スポーツ施設","big_category":"レジャー施設,レジャー施設","description":"半屋外のジム","image_url":"","tags":"Ver4.50(2022年6月)の追加建築","prefecture":"千葉","contractor":"","structural_designer":"","landscape_designer":"","shinkenchiku_url":""},{"id":11522,"title":"アライプロバンス浦安","architect":"菅原大輔","year":2021.0,"address":"千葉県浦安市港69","latitude":35.630157470703125,"longitude":139.90785217285156,"category":"工場/低層オフィス","big_category":"企業施設,企業施設","description":"","image_url":"","tags":"Ver4.50(2022年6月)の追加建築","prefecture":"千葉","contractor":"","structural_designer":"","landscape_designer":"","shinkenchiku_url":""},{"id":11523,"title":"直島旅館 ろ霞","architect":"藤岡大典","year":2022.0,"address":"香川県香川郡直島町1234","latitude":34.45613479614258,"longitude":133.9943389892578,"category":"旅館","big_category":"宿泊","description":"","image_url":"","tags":"Ver4.50(2022年6月)の追加建築","prefecture":"香川","contractor":"","structural_designer":"","landscape_designer":"","shinkenchiku_url":""},{"id":11524,"title":"House & Restaurant メゾン・アウル","architect":"石上純也","year":2022.0,"address":"山口県宇部市中宇部字西山1677-1","latitude":33.9699821472168,"longitude":131.253662109375,"category":"レストラン/住宅/コテージ","big_category":"商業施設,住宅,宿泊","description":"招待制レストランだった。2024年10月一般宿泊予約が開始された。1日1組限定で全館貸切が可能。また、2025年1月より一般のディナー予約が開始された","image_url":"","tags":"Ver4.50(2022年6月)の追加建築,2024年日本建築学会 作品賞","prefecture":"山口","contractor":"","structural_designer":"","landscape_designer":"","shinkenchiku_url":""},{"id":11525,"title":"GLAN FABRIQUE","architect":"河上友信","year":2004.0,"address":"大阪府茨木市駅前1-8-28","latitude":34.81551742553711,"longitude":135.5652618408203,"category":"ギャラリー/カフェ/低層オフィス","big_category":"ミュージアム,商業施設,企業施設","description":"明治末期築の木造邸宅をリノベーション&コンバージョンした、クリエイティブの為のオルタナティブスペース","image_url":"","tags":"Ver4.50(2022年6月)の追加建築","prefecture":"大阪","contractor":"","structural_designer":"","landscape_designer":"","shinkenchiku_url":""},{"id":11526,"title":"白石駅","architect":"日本国有鉄道仙台鉄道管理局","year":1959.0,"address":"宮城県白石市沢目","latitude":38.003509521484375,"longitude":140.62620544433594,"category":"駅","big_category":"インフラ","description":"","image_url":"","tags":"DOCOMOMO,Ver4.50(2022年6月)の追加建築","prefecture":"宮城","contractor":"","structural_designer":"","landscape_designer":"","shinkenchiku_url":""},{"id":11527,"title":"重城病院","architect":"家所亮二","year":2022.0,"address":"千葉県木更津市万石341-1","latitude":35.416969299316406,"longitude":139.93368530273438,"category":"病院","big_category":"医療施設","description":"","image_url":"","tags":"Ver4.50(2022年6月)の追加建築","prefecture":"千葉","contractor":"","structural_designer":"","landscape_designer":"","shinkenchiku_url":""},{"id":11528,"title":"花 西海","architect":"設計機構ワークス","year":2022.0,"address":"長崎県東彼杵郡波佐見町折敷瀬郷1661","latitude":33.142112731933594,"longitude":129.9036102294922,"category":"店舗/低層オフィス","big_category":"商業施設,企業施設","description":"","image_url":"","tags":"Ver4.50(2022年6月)の追加建築","prefecture":"長崎","contractor":"上山建設","structural_designer":"","landscape_designer":"","shinkenchiku_url":""},{"id":11529,"title":"西武ドーム","architect":"池原義郎+鹿島建設","year":1979.0,"address":"埼玉県所沢市大字上山口2135","latitude":35.76852798461914,"longitude":139.4205322265625,"category":"スタジアム","big_category":"レジャー施設","description":"1997～1998年度にかけてドーム化された。設計アドバイザーに石山建一（社会人野球チーム監督）、ドーム化工事の設計を鹿島建設","image_url":"","tags":"Ver4.50(2022年6月)の追加建築","prefecture":"埼玉","contractor":"","structural_designer":"","landscape_designer":"","shinkenchiku_url":""},{"id":11530,"title":"立誠ガーデンヒューリック 京都 旧立誠小学校","architect":"竹中工務店","year":2020.0,"address":"京都府京都市中京区備前島町310-2","latitude":35.00596237182617,"longitude":135.77027893066406,"category":"ホテル","big_category":"宿泊","description":"1927年竣工・立誠小学校の改装","image_url":"","tags":"Ver4.50(2022年6月)の追加建築","prefecture":"京都","contractor":"竹中工務店・古瀬建設JV","structural_designer":"","landscape_designer":"","shinkenchiku_url":""},{"id":11531,"title":"白石市いきいきプラザ","architect":"芦原太郎","year":1998.0,"address":"宮城県白石市沢端町4-1","latitude":38.004451751708984,"longitude":140.61891174316406,"category":"公民館・交流施設","big_category":"公共施設","description":"1964年竣工の市民会館の改修。閉鎖中も建築は現存","image_url":"","tags":"Ver4.50(2022年6月)の追加建築","prefecture":"宮城","contractor":"","structural_designer":"","landscape_designer":"","shinkenchiku_url":""},{"id":11532,"title":"金刀比羅宮","architect":"伊東忠太","year":1951.0,"address":"東京都港区虎ノ門1-2-7","latitude":35.66959762573242,"longitude":139.74803161621094,"category":"寺院","big_category":"宗教","description":"","image_url":"","tags":"Ver4.50(2022年6月)の追加建築","prefecture":"東京","contractor":"","structural_designer":"","landscape_designer":"","shinkenchiku_url":""},{"id":11533,"title":"F5 小椋歯科クリニック","architect":"石田敏明","year":1998.0,"address":"東京都中野区本町2-44-12","latitude":35.695884704589844,"longitude":139.6816864013672,"category":"個人医院/住宅","big_category":"医療施設,住宅","description":"","image_url":"","tags":"Ver4.50(2022年6月)の追加建築","prefecture":"東京","contractor":"","structural_designer":"","landscape_designer":"","shinkenchiku_url":""},{"id":11534,"title":"ハーモニースクエア","architect":"日本設計","year":1997.0,"address":"東京都中野区本町1-32-2","latitude":35.69620895385742,"longitude":139.68344116210938,"category":"オフィスビル","big_category":"企業施設","description":"","image_url":"","tags":"Ver4.50(2022年6月)の追加建築","prefecture":"東京","contractor":"","structural_designer":"","landscape_designer":"","shinkenchiku_url":""},{"id":11535,"title":"住友中野坂上ビル","architect":"INA新建築研究所","year":1999.0,"address":"東京都中野区中央1-38-1","latitude":35.697288513183594,"longitude":139.68357849121094,"category":"オフィスビル","big_category":"企業施設","description":"","image_url":"","tags":"Ver4.50(2022年6月)の追加建築","prefecture":"東京","contractor":"","structural_designer":"","landscape_designer":"","shinkenchiku_url":""},{"id":11536,"title":"中野坂上エスアイン","architect":"木村優","year":1991.0,"address":"東京都中野区中央2-28-31","latitude":35.698665618896484,"longitude":139.68069458007812,"category":"集合住宅","big_category":"住宅","description":"","image_url":"","tags":"Ver4.50(2022年6月)の追加建築","prefecture":"東京","contractor":"","structural_designer":"","landscape_designer":"","shinkenchiku_url":""},{"id":11537,"title":"APPROPRIATE PROPORTION 直島・家プロジェクト 護王神社","architect":"杉本博司+木村優","year":2002.0,"address":"香川県香川郡直島町宮ノ浦820","latitude":34.45975875854492,"longitude":133.9984893798828,"category":"寺院/ギャラリー/オブジェ","big_category":"宗教,ミュージアム,ミュージアム","description":"","image_url":"","tags":"瀬戸内国際芸術祭,Ver4.50(2022年6月)の追加建築","prefecture":"香川","contractor":"","structural_designer":"","landscape_designer":"","shinkenchiku_url":""},{"id":11538,"title":"shells court","architect":"吉富興産","year":2013.0,"address":"東京都中野区中央2-31-5","latitude":35.69784164428711,"longitude":139.6789093017578,"category":"集合住宅","big_category":"住宅","description":"","image_url":"","tags":"Ver4.50(2022年6月)の追加建築","prefecture":"東京","contractor":"","structural_designer":"","landscape_designer":"","shinkenchiku_url":""},{"id":11539,"title":"中野第一小学校","architect":"山下設計","year":2021.0,"address":"東京都中野区本町3-16","latitude":35.69599914550781,"longitude":139.67745971679688,"category":"学校","big_category":"教育","description":"","image_url":"","tags":"Ver4.50(2022年6月)の追加建築","prefecture":"東京","contractor":"","structural_designer":"","landscape_designer":"","shinkenchiku_url":""},{"id":11540,"title":"八津御嶽神社","architect":"長島孝一","year":1998.0,"address":"東京都中野区本町2-7-6","latitude":35.69257354736328,"longitude":139.67942810058594,"category":"寺院","big_category":"宗教","description":"現在13億円で売りに出されている","image_url":"","tags":"Ver4.50(2022年6月)の追加建築","prefecture":"東京","contractor":"","structural_designer":"","landscape_designer":"","shinkenchiku_url":""},{"id":11541,"title":"中野坂上セントラルビル","architect":"住宅・都市整備公団+小宮山昭","year":1996.0,"address":"東京都中野区本町2-46-2","latitude":35.69618225097656,"longitude":139.68226623535156,"category":"オフィスビル","big_category":"企業施設","description":"","image_url":"","tags":"Ver4.50(2022年6月)の追加建築","prefecture":"東京","contractor":"","structural_designer":"","landscape_designer":"","shinkenchiku_url":""},{"id":11542,"title":"中野坂上サンブライトツイン・アネックス棟","architect":"住宅・都市整備公団+西田勝彦+山本・堀アーキテクツ","year":1996.0,"address":"東京都中野区本町2-46-1","latitude":35.6966552734375,"longitude":139.68209838867188,"category":"オフィスビル/店舗","big_category":"企業施設,商業施設","description":"隣接したガソリンスタンドがアネックス棟","image_url":"","tags":"Ver4.50(2022年6月)の追加建築","prefecture":"東京","contractor":"","structural_designer":"","landscape_designer":"","shinkenchiku_url":""},{"id":11543,"title":"レジデンス中野坂上","architect":"住宅・都市整備公団+西田勝彦","year":1995.0,"address":"東京都中野区本町2-46-3","latitude":35.696136474609375,"longitude":139.68154907226562,"category":"集合住宅","big_category":"住宅","description":"","image_url":"","tags":"Ver4.50(2022年6月)の追加建築","prefecture":"東京","contractor":"","structural_designer":"","landscape_designer":"","shinkenchiku_url":""},{"id":11544,"title":"明治村 三重県尋常師範学校・蔵持小学校","architect":"清水義八","year":1888.0,"address":"愛知県犬山市内山1","latitude":35.34011459350586,"longitude":136.98797607421875,"category":"学校/テーマパーク","big_category":"教育,レジャー施設","description":"","image_url":"","tags":"登録有形文化財,Ver4.50(2022年6月)の追加建築","prefecture":"愛知","contractor":"","structural_designer":"","landscape_designer":"","shinkenchiku_url":""},{"id":11545,"title":"明治村 赤坂離宮正門哨舎","architect":"片山東熊","year":1908.0,"address":"愛知県犬山市内山1","latitude":35.33975601196289,"longitude":136.9883270263672,"category":"警察・消防署/テーマパーク","big_category":"公共施設,レジャー施設","description":"","image_url":"","tags":"登録有形文化財,Ver4.50(2022年6月)の追加建築","prefecture":"愛知","contractor":"","structural_designer":"","landscape_designer":"","shinkenchiku_url":""},{"id":11546,"title":"明治村 聖ヨハネ教会堂","architect":"ジェームズ・ガーディナー","year":1907.0,"address":"愛知県犬山市内山1","latitude":35.339115142822266,"longitude":136.9890594482422,"category":"教会/テーマパーク","big_category":"宗教,レジャー施設","description":"","image_url":"","tags":"登録有形文化財,Ver4.50(2022年6月)の追加建築","prefecture":"愛知","contractor":"","structural_designer":"","landscape_designer":"","shinkenchiku_url":""},{"id":11547,"title":"明治村 西郷從道邸","architect":"ジュール・レスカス","year":1877.0,"address":"愛知県犬山市内山1","latitude":35.340091705322266,"longitude":136.99021911621094,"category":"洋館/テーマパーク","big_category":"近代建築/遺産,レジャー施設","description":"","image_url":"","tags":"重要文化財,Ver4.50(2022年6月)の追加建築","prefecture":"愛知","contractor":"","structural_designer":"","landscape_designer":"","shinkenchiku_url":""},{"id":11548,"title":"明治村 三重県庁舎","architect":"清水義八","year":1879.0,"address":"愛知県犬山市内山1","latitude":35.340911865234375,"longitude":136.98912048339844,"category":"庁舎/テーマパーク","big_category":"公共施設,レジャー施設","description":"","image_url":"","tags":"重要文化財,Ver4.50(2022年6月)の追加建築","prefecture":"愛知","contractor":"","structural_designer":"","landscape_designer":"","shinkenchiku_url":""},{"id":11549,"title":"明治村 芝川又右衛門邸","architect":"武田五一","year":1911.0,"address":"愛知県犬山市内山1","latitude":35.34141159057617,"longitude":136.99224853515625,"category":"洋館/テーマパーク","big_category":"近代建築/遺産,レジャー施設","description":"","image_url":"","tags":"重要文化財,Ver4.50(2022年6月)の追加建築","prefecture":"愛知","contractor":"","structural_designer":"","landscape_designer":"","shinkenchiku_url":""},{"id":11550,"title":"明治村 菅島燈台付属官舎","architect":"ヘンリー・ブラントン","year":1873.0,"address":"愛知県犬山市内山1","latitude":35.34173583984375,"longitude":136.99391174316406,"category":"洋館/テーマパーク","big_category":"近代建築/遺産,レジャー施設","description":"","image_url":"","tags":"重要文化財,Ver4.50(2022年6月)の追加建築","prefecture":"愛知","contractor":"","structural_designer":"","landscape_designer":"","shinkenchiku_url":""}]}