{"page":220,"total_pages":290,"items_per_page":50,"total_items":14467,"items":[{"id":10951,"title":"天理教品川分教会","architect":"エイバンバ+原浩人","year":2021.0,"address":"東京都品川区荏原1-6-10","latitude":35.62077331542969,"longitude":139.7139434814453,"category":"宗教施設","big_category":"宗教","description":"","image_url":"","tags":"Ver4.20(2021年12月)の追加建築","prefecture":"東京","contractor":"","structural_designer":"","landscape_designer":"","shinkenchiku_url":""},{"id":10952,"title":"こやまかわせみクリニック","architect":"原浩人+吉岡寛之+松野由夏","year":2016.0,"address":"岐阜県本巣郡北方町高屋1564","latitude":35.421226501464844,"longitude":136.68533325195312,"category":"個人医院/カフェ","big_category":"医療施設,商業施設","description":"","image_url":"","tags":"Ver4.20(2021年12月)の追加建築","prefecture":"岐阜","contractor":"","structural_designer":"","landscape_designer":"","shinkenchiku_url":""},{"id":10953,"title":"ホタペストリー","architect":"原浩人","year":2018.0,"address":"長野県飯田市育良町2-17-7","latitude":35.50356674194336,"longitude":137.80209350585938,"category":"店舗/住宅","big_category":"商業施設,住宅","description":"","image_url":"","tags":"Ver4.20(2021年12月)の追加建築","prefecture":"長野","contractor":"","structural_designer":"","landscape_designer":"","shinkenchiku_url":""},{"id":10954,"title":"テイクベーカリーアンドカフェ","architect":"田中裕之","year":2021.0,"address":"鹿児島県鹿屋市北田町5-5","latitude":31.38770294189453,"longitude":130.84954833984375,"category":"店舗/カフェ","big_category":"商業施設,商業施設","description":"","image_url":"","tags":"Ver4.20(2021年12月)の追加建築","prefecture":"鹿児島","contractor":"","structural_designer":"","landscape_designer":"","shinkenchiku_url":""},{"id":10955,"title":"石垣市役所新庁舎","architect":"隈研吾+洲鎌裕治","year":2021.0,"address":"沖縄県石垣市真栄里672","latitude":24.345094680786133,"longitude":124.18464660644531,"category":"庁舎","big_category":"公共施設","description":"","image_url":"","tags":"Ver4.20(2021年12月)の追加建築,新建築2022年3月号","prefecture":"沖縄","contractor":"","structural_designer":"","landscape_designer":"","shinkenchiku_url":""},{"id":10956,"title":"八戸市公会堂","architect":"石本建築事務所","year":1975.0,"address":"青森県八戸市内丸1-1-1","latitude":40.51321029663086,"longitude":141.48825073242188,"category":"ホール・劇場","big_category":"文化施設","description":"","image_url":"","tags":"Ver4.20(2021年12月)の追加建築","prefecture":"青森","contractor":"","structural_designer":"","landscape_designer":"","shinkenchiku_url":""},{"id":10957,"title":"世界真光文明教団 主座世界総本山本殿","architect":"鹿島建設","year":1987.0,"address":"静岡県伊豆市冷川1524-4","latitude":34.92060089111328,"longitude":139.0177459716797,"category":"宗教施設","big_category":"宗教","description":"受付をすれば見学可能","image_url":"","tags":"Ver4.20(2021年12月)の追加建築","prefecture":"静岡","contractor":"","structural_designer":"","landscape_designer":"","shinkenchiku_url":""},{"id":10958,"title":"手柄山慰霊塔","architect":"高谷隆太郎","year":1956.0,"address":"兵庫県姫路市西延末475","latitude":34.8226203918457,"longitude":134.67495727539062,"category":"オブジェ","big_category":"ミュージアム","description":"","image_url":"","tags":"Ver4.20(2021年12月)の追加建築","prefecture":"兵庫","contractor":"","structural_designer":"","landscape_designer":"","shinkenchiku_url":""},{"id":10959,"title":"桜丘町のビル","architect":"石川素樹","year":2018.0,"address":"東京都渋谷区桜丘町28","latitude":35.65568542480469,"longitude":139.6992950439453,"category":"集合住宅","big_category":"住宅","description":"","image_url":"","tags":"Ver4.20(2021年12月)の追加建築","prefecture":"東京","contractor":"","structural_designer":"","landscape_designer":"","shinkenchiku_url":""},{"id":10960,"title":"玖珂クリニック研修所","architect":"沖本初","year":2010.0,"address":"広島県廿日市市阿品4-52-11-13","latitude":34.31858444213867,"longitude":132.3080596923828,"category":"個人医院/住宅","big_category":"医療施設,住宅","description":"第7回中国建築文化賞 構造部門受賞","image_url":"","tags":"Ver4.20(2021年12月)の追加建築","prefecture":"広島","contractor":"","structural_designer":"","landscape_designer":"","shinkenchiku_url":""},{"id":10961,"title":"アンデルセン芸北100年農場 ゲストハウス・休憩棟","architect":"沖本初","year":2007.0,"address":"広島県山県郡北広島町大字西区八幡原字滝平10871-3","latitude":34.71603012084961,"longitude":132.16358947753906,"category":"住宅","big_category":"住宅","description":"","image_url":"","tags":"Ver4.20(2021年12月)の追加建築","prefecture":"広島","contractor":"","structural_designer":"","landscape_designer":"","shinkenchiku_url":""},{"id":10962,"title":"石崎本店ビル","architect":"沖本初","year":1998.0,"address":"広島県広島市中区大手町2-7-5","latitude":34.39216613769531,"longitude":132.456298828125,"category":"オフィスビル","big_category":"企業施設","description":"","image_url":"","tags":"Ver4.20(2021年12月)の追加建築","prefecture":"広島","contractor":"","structural_designer":"","landscape_designer":"","shinkenchiku_url":""},{"id":10963,"title":"今井広島ビル","architect":"沖本初","year":2001.0,"address":"広島県広島市中区小町1-20","latitude":34.38835144042969,"longitude":132.4591064453125,"category":"オフィスビル","big_category":"企業施設","description":"","image_url":"","tags":"Ver4.20(2021年12月)の追加建築","prefecture":"広島","contractor":"","structural_designer":"","landscape_designer":"","shinkenchiku_url":""},{"id":10964,"title":"KAME17th","architect":"沖本初","year":null,"address":"広島県広島市佐伯区坪井1-33-49","latitude":34.37390899658203,"longitude":132.35195922851562,"category":"集合住宅","big_category":"住宅","description":"","image_url":"","tags":"Ver4.20(2021年12月)の追加建築","prefecture":"広島","contractor":"","structural_designer":"","landscape_designer":"","shinkenchiku_url":""},{"id":10965,"title":"岡村医院","architect":"松山将勝","year":2009.0,"address":"広島県呉市三条3-2-5","latitude":34.24808883666992,"longitude":132.55422973632812,"category":"個人医院","big_category":"医療施設","description":"呉市美しい街づくり賞　受賞","image_url":"","tags":"Ver4.20(2021年12月)の追加建築","prefecture":"広島","contractor":"","structural_designer":"","landscape_designer":"","shinkenchiku_url":""},{"id":10966,"title":"尾道市御調支所庁舎","architect":"o+h","year":2019.0,"address":"広島県尾道市御調町市245","latitude":34.51088333129883,"longitude":133.1455078125,"category":"庁舎","big_category":"公共施設","description":"","image_url":"","tags":"Ver4.20(2021年12月)の追加建築","prefecture":"広島","contractor":"","structural_designer":"","landscape_designer":"","shinkenchiku_url":""},{"id":10967,"title":"一場木工所オフィス","architect":"山田敏博","year":2020.0,"address":"広島県三次市上志和地町195-1","latitude":34.73967361450195,"longitude":132.80128479003906,"category":"低層オフィス","big_category":"企業施設","description":"","image_url":"","tags":"Ver4.20(2021年12月)の追加建築","prefecture":"広島","contractor":"","structural_designer":"","landscape_designer":"","shinkenchiku_url":""},{"id":10968,"title":"盛田昭夫塾","architect":"ラウンドテーブル","year":2020.0,"address":"愛知県常滑市小鈴谷亀井戸7-4","latitude":34.83127975463867,"longitude":136.8667755126953,"category":"博物館","big_category":"ミュージアム","description":"ソニー創始者盛田昭夫とその妻の人となりを紹介する記念館です。","image_url":"","tags":"Ver4.20(2021年12月)の追加建築","prefecture":"愛知","contractor":"","structural_designer":"","landscape_designer":"","shinkenchiku_url":""},{"id":10969,"title":"コミュニティセンター アルベロベッロ","architect":"o+h","year":2021.0,"address":"福島県郡山市安積町笹川関谷田3-6","latitude":37.34458923339844,"longitude":140.35838317871094,"category":"養護施設","big_category":"医療施設","description":"","image_url":"","tags":"Ver4.20(2021年12月)の追加建築","prefecture":"福島","contractor":"","structural_designer":"","landscape_designer":"","shinkenchiku_url":""},{"id":10970,"title":"牡蠣祝","architect":"中本一哉","year":2016.0,"address":"広島県廿日市市宮島町422","latitude":34.297027587890625,"longitude":132.32164001464844,"category":"レストラン","big_category":"商業施設","description":"","image_url":"","tags":"Ver4.20(2021年12月)の追加建築","prefecture":"広島","contractor":"","structural_designer":"","landscape_designer":"","shinkenchiku_url":""},{"id":10971,"title":"はらみちを美術館","architect":"山嵜雄二郎","year":2006.0,"address":"広島県三次市君田町泉吉田311-3","latitude":34.89830780029297,"longitude":132.849365234375,"category":"美術館","big_category":"ミュージアム","description":"","image_url":"","tags":"Ver4.20(2021年12月)の追加建築","prefecture":"広島","contractor":"","structural_designer":"","landscape_designer":"","shinkenchiku_url":""},{"id":10972,"title":"道の駅 来夢とごうち","architect":"山嵜雄二郎","year":1995.0,"address":"広島県山県郡安芸太田町上殿632-2","latitude":34.5744514465332,"longitude":132.2698974609375,"category":"PA・道の駅","big_category":"インフラ","description":"","image_url":"","tags":"Ver4.20(2021年12月)の追加建築","prefecture":"広島","contractor":"","structural_designer":"","landscape_designer":"","shinkenchiku_url":""},{"id":10973,"title":"福山東警察署 野上交番","architect":"川口祥茄+横山翔平+山本秀人","year":2016.0,"address":"広島県福山市千代田町1-1-1","latitude":34.467620849609375,"longitude":133.36856079101562,"category":"警察・消防署","big_category":"公共施設","description":"ひろしま建築学生チャレンジコンペ2014作品（広島工業大学）","image_url":"","tags":"Ver4.20(2021年12月)の追加建築","prefecture":"広島","contractor":"","structural_designer":"","landscape_designer":"","shinkenchiku_url":""},{"id":10974,"title":"御幸松広場トイレ","architect":"阪口雄大+赤岸一成+斉藤綾花","year":2017.0,"address":"広島県広島市南区宇品海岸2","latitude":34.35326385498047,"longitude":132.4614715576172,"category":"トイレ","big_category":"公共施設","description":"ひろしま建築学生チャレンジコンペ2015作品（広島工業大学）","image_url":"","tags":"Ver4.20(2021年12月)の追加建築","prefecture":"広島","contractor":"フロイデ","structural_designer":"","landscape_designer":"","shinkenchiku_url":""},{"id":10975,"title":"県立広島工業高等学校 野球部・弓道部部室","architect":"藤原陽平+林聖人+岡田直果","year":2018.0,"address":"広島県広島市南区出汐2-4-75","latitude":34.3742561340332,"longitude":132.4737548828125,"category":"学校","big_category":"教育","description":"ひろしま建築学生チャレンジコンペ2016作品（広島工業大学）","image_url":"","tags":"Ver4.20(2021年12月)の追加建築","prefecture":"広島","contractor":"","structural_designer":"","landscape_designer":"","shinkenchiku_url":""},{"id":10976,"title":"瀬戸内海国立公園高見山トイレ","architect":"白須颯樹+澤井遥香","year":2020.0,"address":"広島県尾道市向島町字高見20161-6","latitude":34.370174407958984,"longitude":133.2081756591797,"category":"トイレ","big_category":"公共施設","description":"ひろしま建築学生チャレンジコンペ2018作品（安田女子大学）","image_url":"","tags":"Ver4.20(2021年12月)の追加建築","prefecture":"広島","contractor":"","structural_designer":"","landscape_designer":"","shinkenchiku_url":""},{"id":10977,"title":"旧広島みなと公園トイレ","architect":"石川誠","year":2017.0,"address":"広島県広島市南区宇品海岸1","latitude":34.35296630859375,"longitude":132.45835876464844,"category":"トイレ","big_category":"公共施設","description":"ひろしま建築設計コンペU-40作品","image_url":"","tags":"Ver4.20(2021年12月)の追加建築","prefecture":"広島","contractor":"","structural_designer":"","landscape_designer":"","shinkenchiku_url":""},{"id":10978,"title":"三倉岳県立自然公園内トイレ","architect":"安井大揮+中村睦美+土器屋葉子","year":2019.0,"address":"広島県大竹市栗谷町","latitude":34.30852127075195,"longitude":132.15904235839844,"category":"トイレ","big_category":"公共施設","description":"ひろしま建築学生チャレンジコンペ2017作品（滋賀県立大学）","image_url":"","tags":"Ver4.20(2021年12月)の追加建築","prefecture":"広島","contractor":"","structural_designer":"","landscape_designer":"","shinkenchiku_url":""},{"id":10979,"title":"平和大橋","architect":"イサム・ノグチ","year":1952.0,"address":"広島県広島市","latitude":34.3903923034668,"longitude":132.4536895751953,"category":"橋","big_category":"インフラ","description":"","image_url":"","tags":"Ver4.20(2021年12月)の追加建築","prefecture":"広島","contractor":"","structural_designer":"","landscape_designer":"","shinkenchiku_url":""},{"id":10980,"title":"西平和大橋","architect":"イサム・ノグチ","year":1952.0,"address":"広島県広島市","latitude":34.391502380371094,"longitude":132.44918823242188,"category":"橋","big_category":"インフラ","description":"","image_url":"","tags":"Ver4.20(2021年12月)の追加建築","prefecture":"広島","contractor":"","structural_designer":"","landscape_designer":"","shinkenchiku_url":""},{"id":10981,"title":"広島アンデルセン","architect":"大成建設","year":2020.0,"address":"広島県広島市中区本通7-1","latitude":34.39301681518555,"longitude":132.45840454101562,"category":"店舗","big_category":"商業施設","description":"","image_url":"","tags":"Ver4.20(2021年12月)の追加建築,新建築2022年1月号","prefecture":"広島","contractor":"","structural_designer":"","landscape_designer":"","shinkenchiku_url":""},{"id":10982,"title":"ヤマカビル","architect":"メタボルテックスアーキテクツ","year":2015.0,"address":"宮城県仙台市若林区荒井6-12-2","latitude":38.244537353515625,"longitude":140.947509765625,"category":"集合住宅/店舗","big_category":"住宅,商業施設","description":"共同住宅、飲食店、歯科等の用途です。","image_url":"","tags":"Ver4.20(2021年12月)の追加建築","prefecture":"宮城","contractor":"","structural_designer":"","landscape_designer":"","shinkenchiku_url":""},{"id":10983,"title":"アライデザインセンター1","architect":"メタボルテックスアーキテクツ","year":2015.0,"address":"宮城県仙台市若林区荒井7-37-10","latitude":38.241764068603516,"longitude":140.94784545898438,"category":"オフィスビル/カフェ","big_category":"企業施設,商業施設","description":"オフィスビル、近代建築2016年2月号","image_url":"","tags":"Ver4.20(2021年12月)の追加建築","prefecture":"宮城","contractor":"","structural_designer":"","landscape_designer":"","shinkenchiku_url":""},{"id":10984,"title":"アライデザインセンター2","architect":"メタボルテックスアーキテクツ","year":2016.0,"address":"宮城県仙台市若林区荒井東1-8-4","latitude":38.23948669433594,"longitude":140.95094299316406,"category":"個人医院/モール/幼稚園","big_category":"医療施設,商業施設,教育","description":"","image_url":"","tags":"Ver4.20(2021年12月)の追加建築","prefecture":"宮城","contractor":"","structural_designer":"","landscape_designer":"","shinkenchiku_url":""},{"id":10985,"title":"広島聖公会学園 栄光こども園","architect":"エーアンドディー設計企画","year":2013.0,"address":"広島県広島市中区江波西2-32-1","latitude":34.36731719970703,"longitude":132.42967224121094,"category":"幼稚園","big_category":"教育","description":"","image_url":"","tags":"Ver4.20(2021年12月)の追加建築","prefecture":"広島","contractor":"","structural_designer":"","landscape_designer":"","shinkenchiku_url":""},{"id":10986,"title":"ちゃいるどらんど荒井こども園","architect":"メタボルテックスアーキテクツ","year":2016.0,"address":"仙台市若林区荒井東1-8-3","latitude":38.239871978759766,"longitude":140.95086669921875,"category":"幼稚園","big_category":"教育","description":"","image_url":"","tags":"Ver4.20(2021年12月)の追加建築","prefecture":"仙台","contractor":"","structural_designer":"","landscape_designer":"","shinkenchiku_url":""},{"id":10987,"title":"Crede hair's 井口店","architect":"中本尋之","year":2020.0,"address":"広島県広島市西区井口4-2-35","latitude":34.368614196777344,"longitude":132.3744659423828,"category":"美容院","big_category":"商業施設","description":"","image_url":"","tags":"Ver4.20(2021年12月)の追加建築","prefecture":"広島","contractor":"","structural_designer":"","landscape_designer":"","shinkenchiku_url":""},{"id":10988,"title":"仙台GIGS","architect":"メタボルテックスアーキテクツ","year":2017.0,"address":"宮城県仙台市若林区荒井東1-4-1","latitude":38.2430534362793,"longitude":140.9490509033203,"category":"ホール・劇場","big_category":"文化施設","description":"仙台のライブハウス、荒井駅前の活性化も担う","image_url":"","tags":"Ver4.20(2021年12月)の追加建築","prefecture":"宮城","contractor":"","structural_designer":"","landscape_designer":"","shinkenchiku_url":""},{"id":10989,"title":"横浜こどもホスピス うみとそらのおうち","architect":"岡田新一設計事務所","year":2021.0,"address":"神奈川県横浜市金沢区六浦東1-49-5","latitude":35.32569122314453,"longitude":139.62889099121094,"category":"養護施設","big_category":"医療施設","description":"","image_url":"","tags":"Ver4.20(2021年12月)の追加建築","prefecture":"神奈川","contractor":"大洋建設","structural_designer":"","landscape_designer":"","shinkenchiku_url":""},{"id":10990,"title":"流山おおたかの森S・C","architect":"日建設計","year":2007.0,"address":"千葉県流山市おおたかの森南1-5-1","latitude":35.870269775390625,"longitude":139.9265899658203,"category":"モール","big_category":"商業施設","description":"","image_url":"","tags":"Ver4.20(2021年12月)の追加建築","prefecture":"千葉","contractor":"","structural_designer":"","landscape_designer":"","shinkenchiku_url":""},{"id":10991,"title":"THE KITA","architect":"隈研吾","year":2020.0,"address":"東京都渋谷区千駄ケ谷3-12-1","latitude":35.676902770996094,"longitude":139.70523071289062,"category":"集合住宅","big_category":"住宅","description":"","image_url":"","tags":"Ver4.20(2021年12月)の追加建築","prefecture":"東京","contractor":"","structural_designer":"","landscape_designer":"","shinkenchiku_url":""},{"id":10992,"title":"新富士のホスピス 緩和ケア病棟 いまここ","architect":"山﨑健太郎","year":2020.0,"address":"静岡県富士市中島327","latitude":35.16272735595703,"longitude":138.6491241455078,"category":"養護施設","big_category":"医療施設","description":"","image_url":"","tags":"Ver4.20(2021年12月)の追加建築,新建築2022年4月号,2021年度JIA優秀建築賞","prefecture":"静岡","contractor":"","structural_designer":"","landscape_designer":"","shinkenchiku_url":""},{"id":10993,"title":"志段味循環型モデル住宅","architect":"荒川修作+マドリン・ギンズ","year":2005.0,"address":"愛知県名古屋市守山区下志段味南荒田603","latitude":35.24020767211914,"longitude":137.01321411132812,"category":"住宅","big_category":"住宅","description":"愛知万博の一環で建てられた。現在見学可能かどうかは不明","image_url":"","tags":"Ver4.20(2021年12月)の追加建築","prefecture":"愛知","contractor":"徳倉建設","structural_designer":"","landscape_designer":"","shinkenchiku_url":""},{"id":10994,"title":"ガーデンテラス福岡ホテル&リゾート","architect":"小川博央","year":2020.0,"address":"福岡県福岡市西区小戸2-3-55","latitude":33.594417572021484,"longitude":130.31814575195312,"category":"ホテル","big_category":"宿泊","description":"","image_url":"","tags":"Ver4.20(2021年12月)の追加建築","prefecture":"福岡","contractor":"","structural_designer":"","landscape_designer":"","shinkenchiku_url":""},{"id":10995,"title":"三本松の小屋 ThinKnit BASE","architect":"小川博央","year":2019.0,"address":"香川県東かがわ市川東588-5","latitude":34.24362564086914,"longitude":134.33209228515625,"category":"店舗","big_category":"商業施設","description":"","image_url":"","tags":"Ver4.20(2021年12月)の追加建築","prefecture":"香川","contractor":"","structural_designer":"","landscape_designer":"","shinkenchiku_url":""},{"id":10996,"title":"Sakura Passage Funeral Hall メモリードホール桜並木通り","architect":"百枝優","year":2019.0,"address":"福岡県福岡市博多区西春町3-1-5","latitude":33.540950775146484,"longitude":130.4663543701172,"category":"斎場","big_category":"公共施設","description":"","image_url":"","tags":"Ver4.20(2021年12月)の追加建築","prefecture":"福岡","contractor":"","structural_designer":"","landscape_designer":"","shinkenchiku_url":""},{"id":10997,"title":"Four Funeral Houses メモリードホール春日","architect":"百枝優","year":2018.0,"address":"福岡県春日市昇町6-72-2","latitude":33.52125549316406,"longitude":130.4518585205078,"category":"斎場","big_category":"公共施設","description":"","image_url":"","tags":"Ver4.20(2021年12月)の追加建築","prefecture":"福岡","contractor":"","structural_designer":"","landscape_designer":"","shinkenchiku_url":""},{"id":10998,"title":"Funeral Hall K メモリードホール金の隈","architect":"小川博央","year":2021.0,"address":"福岡県福岡市博多区金の隈1-28-73","latitude":33.561866760253906,"longitude":130.46925354003906,"category":"斎場","big_category":"公共施設","description":"","image_url":"","tags":"Ver4.20(2021年12月)の追加建築","prefecture":"福岡","contractor":"","structural_designer":"","landscape_designer":"","shinkenchiku_url":""},{"id":10999,"title":"Funeral Hall S 佐々メモリードホール","architect":"小川博央","year":2019.0,"address":"長崎県北松浦郡佐々町本田原免52-3","latitude":33.24162673950195,"longitude":129.65196228027344,"category":"斎場","big_category":"公共施設","description":"","image_url":"","tags":"Ver4.20(2021年12月)の追加建築","prefecture":"長崎","contractor":"","structural_designer":"","landscape_designer":"","shinkenchiku_url":""},{"id":11000,"title":"Wooden Chapel ガーデンベルズ宮崎","architect":"小川博央","year":2020.0,"address":"宮崎県宮崎市神宮東2-13-15","latitude":31.9373722076416,"longitude":131.42691040039062,"category":"結婚式場","big_category":"宗教","description":"","image_url":"","tags":"Ver4.20(2021年12月)の追加建築","prefecture":"宮崎","contractor":"","structural_designer":"","landscape_designer":"","shinkenchiku_url":""}]}