{"page":274,"total_pages":290,"items_per_page":50,"total_items":14467,"items":[{"id":13651,"title":"House in TOYAMA 庭家一如 kureha","architect":"丸山航","year":2023.0,"address":"富山県富山市吉作837","latitude":36.710575103759766,"longitude":137.16253662109375,"category":"コテージ/住宅","big_category":"宿泊,住宅","description":"用途：宿泊施設・ゲストハウス。住宅特集2024 4月号掲載。DFA Design for Asia Awards/ Bronze award","image_url":"","tags":"Ver5.40(2024年7月)の追加建築","prefecture":"富山","contractor":"","structural_designer":"","landscape_designer":"","shinkenchiku_url":"https://www.niwa-ya-ichi-nyo.com/"},{"id":13652,"title":"小千谷市ひと・まち・文化共創拠点 ホントカ。","architect":"平田晃久","year":2024.0,"address":"新潟県小千谷市本町1-13-35","latitude":37.3099365234375,"longitude":138.79934692382812,"category":"図書館","big_category":"文化施設","description":"建築は竣工済。2024年8月31日プレオープン、9月28日正式オープン予定","image_url":"","tags":"Ver5.40(2024年7月)の追加建築,新建築2024年11月号","prefecture":"新潟","contractor":"","structural_designer":"","landscape_designer":"","shinkenchiku_url":""},{"id":13653,"title":"ナカノサウステラ 住友不動産中野駅前ビル","architect":"アール・アイ・エー","year":2024.0,"address":"東京都中野区中野2-24-11","latitude":35.70504379272461,"longitude":139.66680908203125,"category":"オフィスビル","big_category":"企業施設","description":"","image_url":"","tags":"Ver5.40(2024年7月)の追加建築","prefecture":"東京","contractor":"西松建設","structural_designer":"","landscape_designer":"","shinkenchiku_url":""},{"id":13654,"title":"勝山館跡ガイダンス施設","architect":"広瀬鎌二+文化財保存計画協会","year":2004.0,"address":"北海道檜山郡上ノ国町勝山427","latitude":41.79985427856445,"longitude":140.0971221923828,"category":"博物館","big_category":"ミュージアム","description":"","image_url":"","tags":"Ver5.40(2024年7月)の追加建築","prefecture":"北海道","contractor":"","structural_designer":"","landscape_designer":"","shinkenchiku_url":""},{"id":13655,"title":"厚沢部町山村開発センター・役場庁舎","architect":"北海道開発コンサルタント","year":1976.0,"address":"北海道檜山郡厚沢部町新町207","latitude":41.92097473144531,"longitude":140.22525024414062,"category":"庁舎/公共施設","big_category":"公共施設,公共施設","description":"","image_url":"","tags":"Ver5.40(2024年7月)の追加建築","prefecture":"北海道","contractor":"","structural_designer":"","landscape_designer":"","shinkenchiku_url":""},{"id":13656,"title":"美江寺歯科医院","architect":"杉下均建築工房","year":2007.0,"address":"岐阜県瑞穂市美江寺498-3","latitude":35.41237258911133,"longitude":136.6623077392578,"category":"個人医院","big_category":"医療施設","description":"","image_url":"","tags":"Ver5.50(2024年11月)の追加建築","prefecture":"岐阜","contractor":"","structural_designer":"","landscape_designer":"","shinkenchiku_url":""},{"id":13657,"title":"SHINJUKU NEW VILLA","architect":"南俊允","year":2024.0,"address":"東京都新宿区西新宿4-8-11","latitude":35.68844223022461,"longitude":139.68438720703125,"category":"集合住宅","big_category":"住宅","description":"","image_url":"","tags":"新建築2024年8月号,Ver5.50(2024年11月)の追加建築","prefecture":"東京","contractor":"","structural_designer":"","landscape_designer":"","shinkenchiku_url":""},{"id":13658,"title":"8 Houses 桜新町テラス","architect":"三家大地+齋藤由和","year":2024.0,"address":"東京都世田谷区弦巻4-7-4","latitude":35.63517379760742,"longitude":139.6424102783203,"category":"住宅/集合住宅","big_category":"住宅,住宅","description":"","image_url":"","tags":"新建築2024年8月号,Ver5.50(2024年11月)の追加建築","prefecture":"東京","contractor":"","structural_designer":"","landscape_designer":"","shinkenchiku_url":""},{"id":13659,"title":"神宮前のヴォイドインフラ 神宮前マンション","architect":"北山恒","year":2024.0,"address":"東京都渋谷区神宮前3-15-19","latitude":35.67059326171875,"longitude":139.70965576171875,"category":"集合住宅","big_category":"住宅","description":"","image_url":"","tags":"新建築2024年8月号,Ver5.50(2024年11月)の追加建築","prefecture":"東京","contractor":"","structural_designer":"","landscape_designer":"","shinkenchiku_url":""},{"id":13660,"title":"NESTING五城目 森山ビレッジ","architect":"秋吉浩気","year":2023.0,"address":"秋田県南秋田郡五城目町小池森山下89-7","latitude":39.95372772216797,"longitude":140.1073455810547,"category":"コテージ","big_category":"宿泊","description":"","image_url":"","tags":"新建築2024年8月号,Ver5.50(2024年11月)の追加建築","prefecture":"秋田","contractor":"","structural_designer":"","landscape_designer":"","shinkenchiku_url":""},{"id":13661,"title":"ちっちゃい辻堂 久根下","architect":"山田貴宏","year":2023.0,"address":"神奈川県藤沢市辻堂元町3-15-30","latitude":35.331260681152344,"longitude":139.4519805908203,"category":"住宅/集合住宅","big_category":"住宅,住宅","description":"","image_url":"","tags":"新建築2024年8月号,Ver5.50(2024年11月)の追加建築","prefecture":"神奈川","contractor":"深建工房","structural_designer":"","landscape_designer":"クロマツプロジェクト","shinkenchiku_url":""},{"id":13662,"title":"ちっちゃい辻堂 出口","architect":"山田貴宏","year":2024.0,"address":"神奈川県藤沢市辻堂5-4-25","latitude":35.32942581176758,"longitude":139.45132446289062,"category":"住宅/集合住宅","big_category":"住宅,住宅","description":"","image_url":"","tags":"新建築2024年8月号,Ver5.50(2024年11月)の追加建築","prefecture":"神奈川","contractor":"深建工房","structural_designer":"","landscape_designer":"クロマツプロジェクト","shinkenchiku_url":""},{"id":13663,"title":"鈴森village","architect":"三浦丈典","year":2023.0,"address":"埼玉県和光市本町13-40","latitude":35.78590393066406,"longitude":139.610595703125,"category":"集合住宅/店舗","big_category":"住宅,商業施設","description":"","image_url":"","tags":"新建築2024年8月号,Ver5.50(2024年11月)の追加建築","prefecture":"埼玉","contractor":"","structural_designer":"","landscape_designer":"","shinkenchiku_url":""},{"id":13664,"title":"TANNERAUM","architect":"板坂留五+佐藤熊弥","year":2020.0,"address":"東京都中央区日本橋浜町2-1-5 2F","latitude":35.68557357788086,"longitude":139.78689575195312,"category":"店舗/ギャラリー","big_category":"商業施設,ミュージアム","description":"設計協力：佐藤熊弥","image_url":"","tags":"新建築2024年8月号,Ver5.50(2024年11月)の追加建築","prefecture":"東京","contractor":"","structural_designer":"","landscape_designer":"","shinkenchiku_url":""},{"id":13665,"title":"新桜ケ丘のアトリエ サクラアトリエ一級建築士事務所","architect":"菊池公市+池田純平","year":2024.0,"address":"神奈川県横浜市保土ケ谷区新桜ケ丘1-60-17","latitude":35.45014190673828,"longitude":139.56163024902344,"category":"低層オフィス/住宅","big_category":"企業施設,住宅","description":"","image_url":"","tags":"新建築2024年8月号,Ver5.50(2024年11月)の追加建築","prefecture":"神奈川","contractor":"","structural_designer":"","landscape_designer":"","shinkenchiku_url":""},{"id":13666,"title":"TONARINI","architect":"沼野井諭","year":2023.0,"address":"北海道札幌市北区北14条西4-2-5","latitude":43.077659606933594,"longitude":141.34716796875,"category":"集合住宅/店舗","big_category":"住宅,商業施設","description":"","image_url":"","tags":"新建築2024年8月号,Ver5.50(2024年11月)の追加建築","prefecture":"北海道","contractor":"テスク","structural_designer":"","landscape_designer":"","shinkenchiku_url":"https://tonarini-n14.com"},{"id":13667,"title":"親園南区自治会館","architect":"沼野井諭","year":2024.0,"address":"栃木県大田原市親園1345","latitude":36.81890869140625,"longitude":140.00997924804688,"category":"公民館・交流施設","big_category":"公共施設","description":"","image_url":"","tags":"Ver5.50(2024年11月)の追加建築","prefecture":"栃木","contractor":"","structural_designer":"","landscape_designer":"","shinkenchiku_url":""},{"id":13668,"title":"東京理科大学 TUSグローバルレジデンス","architect":"竹中工務店","year":2024.0,"address":"千葉県野田市山崎2668-1","latitude":35.919769287109375,"longitude":139.910400390625,"category":"寮/大学","big_category":"住宅,教育","description":"","image_url":"","tags":"新建築2024年8月号,Ver5.50(2024年11月)の追加建築","prefecture":"千葉","contractor":"竹中工務店","structural_designer":"","landscape_designer":"","shinkenchiku_url":""},{"id":13669,"title":"Niseko Bokka","architect":"waiwai","year":2023.0,"address":"北海道虻田郡ニセコ町字曽我889-1","latitude":42.83864212036133,"longitude":140.67709350585938,"category":"住宅","big_category":"住宅","description":"賃貸住宅","image_url":"","tags":"新建築2024年8月号,Ver5.50(2024年11月)の追加建築","prefecture":"北海道","contractor":"","structural_designer":"","landscape_designer":"","shinkenchiku_url":""},{"id":13670,"title":"小樽国際インフォメーションセンター","architect":"waiwai","year":2024.0,"address":"北海道小樽市港町5-3","latitude":43.20014190673828,"longitude":141.0031280517578,"category":"観光施設/店舗","big_category":"レジャー施設,商業施設","description":"","image_url":"","tags":"Ver5.50(2024年11月)の追加建築","prefecture":"北海道","contractor":"","structural_designer":"","landscape_designer":"","shinkenchiku_url":""},{"id":13671,"title":"AISEIKAN HILL 愛生舘ラボ","architect":"waiwai","year":2023.0,"address":"北海道札幌市中央区宮の森3-12-1-1","latitude":43.05722427368164,"longitude":141.29971313476562,"category":"テナントビル/シェアオフィス","big_category":"商業施設,商業施設","description":"","image_url":"","tags":"Ver5.50(2024年11月)の追加建築","prefecture":"北海道","contractor":"","structural_designer":"","landscape_designer":"","shinkenchiku_url":""},{"id":13672,"title":"DIMORA ROSSA","architect":"waiwai","year":2022.0,"address":"東京都国分寺市本多1-3-22","latitude":35.703731536865234,"longitude":139.48196411132812,"category":"集合住宅","big_category":"住宅","description":"","image_url":"","tags":"Ver5.50(2024年11月)の追加建築","prefecture":"東京","contractor":"","structural_designer":"","landscape_designer":"","shinkenchiku_url":""},{"id":13673,"title":"界 雲仙","architect":"waiwai+杉本貴志","year":2022.0,"address":"長崎県雲仙市小浜町雲仙321","latitude":32.741573333740234,"longitude":130.26158142089844,"category":"ホテル/旅館","big_category":"宿泊,宿泊","description":"総合監修・内装：杉本貴志","image_url":"","tags":"Ver5.50(2024年11月)の追加建築","prefecture":"長崎","contractor":"","structural_designer":"","landscape_designer":"","shinkenchiku_url":""},{"id":13674,"title":"えがく家 ウェルネストホーム 東京花小金井モデルハウス","architect":"waiwai","year":2022.0,"address":"東京都小平市花小金井4-37-8","latitude":35.740211486816406,"longitude":139.51324462890625,"category":"住宅","big_category":"住宅","description":"モデルハウス。見学は要予約","image_url":"","tags":"Ver5.50(2024年11月)の追加建築","prefecture":"東京","contractor":"","structural_designer":"","landscape_designer":"","shinkenchiku_url":""},{"id":13675,"title":"特別養護老人ホーム桜木園","architect":"waiwai","year":2020.0,"address":"青森県むつ市中央2-23-1","latitude":41.29058837890625,"longitude":141.18472290039062,"category":"養護施設","big_category":"医療施設","description":"","image_url":"","tags":"Ver5.50(2024年11月)の追加建築","prefecture":"青森","contractor":"","structural_designer":"","landscape_designer":"","shinkenchiku_url":""},{"id":13676,"title":"ノウドひきふね","architect":"waiwai","year":2024.0,"address":"東京都墨田区東向島2-29-13","latitude":35.71849060058594,"longitude":139.81727600097656,"category":"公民館・交流施設/シェアオフィス","big_category":"公共施設,商業施設","description":"","image_url":"","tags":"Ver5.50(2024年11月)の追加建築","prefecture":"東京","contractor":"","structural_designer":"","landscape_designer":"","shinkenchiku_url":""},{"id":13677,"title":"こしかけ窓の集合住宅 コージーコート四谷坂町","architect":"吉川真理子","year":2024.0,"address":"東京都新宿区四谷坂町6-32","latitude":35.69059371948242,"longitude":139.7269744873047,"category":"集合住宅","big_category":"住宅","description":"","image_url":"","tags":"新建築2024年8月号,Ver5.50(2024年11月)の追加建築","prefecture":"東京","contractor":"","structural_designer":"","landscape_designer":"","shinkenchiku_url":""},{"id":13678,"title":"シミズヤマハウス","architect":"古谷俊一","year":2024.0,"address":"神奈川県川崎市高津区下作延4-20-6","latitude":35.60029983520508,"longitude":139.60279846191406,"category":"集合住宅","big_category":"住宅","description":"","image_url":"","tags":"新建築2024年8月号,Ver5.50(2024年11月)の追加建築","prefecture":"神奈川","contractor":"栄港建設","structural_designer":"","landscape_designer":"","shinkenchiku_url":""},{"id":13679,"title":"nook 等々力みはらしテラス","architect":"飯田善彦","year":2022.0,"address":"東京都世田谷区野毛2-19-2","latitude":35.60465621948242,"longitude":139.6407470703125,"category":"集合住宅","big_category":"住宅","description":"","image_url":"","tags":"新建築2024年8月号,Ver5.50(2024年11月)の追加建築","prefecture":"東京","contractor":"","structural_designer":"ロウファットストラクチュア","landscape_designer":"","shinkenchiku_url":""},{"id":13680,"title":"国立テラス","architect":"黒川智之","year":2024.0,"address":"東京都国立市東2-14-74","latitude":35.69343185424805,"longitude":139.4507293701172,"category":"集合住宅","big_category":"住宅","description":"","image_url":"","tags":"新建築2024年8月号,Ver5.50(2024年11月)の追加建築","prefecture":"東京","contractor":"","structural_designer":"","landscape_designer":"","shinkenchiku_url":""},{"id":13681,"title":"京都鳩居堂 第三店舗","architect":"内藤廣","year":2024.0,"address":"京都府京都市中京区下本能寺前町520","latitude":35.00994110107422,"longitude":135.766845703125,"category":"店舗/ギャラリー","big_category":"商業施設,ミュージアム","description":"","image_url":"","tags":"新建築2024年9月号,Ver5.50(2024年11月)の追加建築","prefecture":"京都","contractor":"","structural_designer":"","landscape_designer":"","shinkenchiku_url":""},{"id":13682,"title":"京都鳩居堂 別館 第二店舗","architect":"内藤廣","year":2020.0,"address":"京都府京都市中京区下本能寺前町521","latitude":35.00981140136719,"longitude":135.7672882080078,"category":"店舗/カフェ","big_category":"商業施設,商業施設","description":"","image_url":"","tags":"新建築2021年7月号,Ver5.50(2024年11月)の追加建築","prefecture":"京都","contractor":"","structural_designer":"","landscape_designer":"","shinkenchiku_url":""},{"id":13683,"title":"SLOW ART CENTER NAGOYA","architect":"安井建築設計+西田司+一色ヒロタカ+山谷浩介 他","year":2024.0,"address":"愛知県名古屋市中区錦3-16-5","latitude":35.170562744140625,"longitude":136.90756225585938,"category":"温泉/レストラン/ギャラリー","big_category":"宿泊,商業施設,ミュージアム","description":"","image_url":"","tags":"新建築2024年9月号,Ver5.50(2024年11月)の追加建築","prefecture":"愛知","contractor":"","structural_designer":"","landscape_designer":"","shinkenchiku_url":""},{"id":13684,"title":"タルキプロジェクト デイサービスアルゴ弐番館・四番館","architect":"IN STUDIO","year":2023.0,"address":"東京都東村山市恩多町1-57-3","latitude":35.7515869140625,"longitude":139.48927307128906,"category":"福祉センター","big_category":"医療施設","description":"","image_url":"","tags":"新建築2024年9月号,Ver5.50(2024年11月)の追加建築","prefecture":"東京","contractor":"Best Stage","structural_designer":"MOF","landscape_designer":"","shinkenchiku_url":""},{"id":13685,"title":"タルキプロジェクト 畑テラス ブルーベリーセンター","architect":"IN STUDIO","year":2018.0,"address":"東京都東久留米市柳窪1-10-19","latitude":35.74836349487305,"longitude":139.49595642089844,"category":"店舗","big_category":"商業施設","description":"","image_url":"","tags":"新建築2024年9月号,Ver5.50(2024年11月)の追加建築","prefecture":"東京","contractor":"IN STUDIO","structural_designer":"","landscape_designer":"","shinkenchiku_url":""},{"id":13686,"title":"タルキプロジェクト MIDORIYA","architect":"IN STUDIO","year":2017.0,"address":"東京都東久留米市滝山5-12-20","latitude":35.746681213378906,"longitude":139.50241088867188,"category":"店舗","big_category":"商業施設","description":"","image_url":"","tags":"新建築2024年9月号,Ver5.50(2024年11月)の追加建築","prefecture":"東京","contractor":"奈良山園+IN STUDIO","structural_designer":"","landscape_designer":"","shinkenchiku_url":""},{"id":13687,"title":"タルキプロジェクト ブックセンター滝山","architect":"IN STUDIO","year":2021.0,"address":"東京都東久留米市滝山5-12-3","latitude":35.7467155456543,"longitude":139.50196838378906,"category":"店舗","big_category":"商業施設","description":"","image_url":"","tags":"新建築2024年9月号,Ver5.50(2024年11月)の追加建築","prefecture":"東京","contractor":"奈良山園+IN STUDIO","structural_designer":"","landscape_designer":"","shinkenchiku_url":""},{"id":13688,"title":"タルキプロジェクト 野崎書林","architect":"IN STUDIO","year":2020.0,"address":"東京都東久留米市本町1-3-1 東久留米本町ビル1F","latitude":35.760807037353516,"longitude":139.5330047607422,"category":"店舗","big_category":"商業施設","description":"","image_url":"","tags":"新建築2024年9月号,Ver5.50(2024年11月)の追加建築","prefecture":"東京","contractor":"奈良山園","structural_designer":"","landscape_designer":"","shinkenchiku_url":""},{"id":13689,"title":"伊豆市津波避難複合施設 テラッセ オレンジ トイ","architect":"今井公太郎+日本工営都市空間","year":2024.0,"address":"静岡県伊豆市土肥2657-6","latitude":34.910118103027344,"longitude":138.79025268554688,"category":"展望台","big_category":"レジャー施設","description":"","image_url":"","tags":"新建築2024年9月号,Ver5.50(2024年11月)の追加建築","prefecture":"静岡","contractor":"","structural_designer":"","landscape_designer":"","shinkenchiku_url":""},{"id":13690,"title":"エディオンピースウイング広島","architect":"東畑建築事務所+仙田満+大成建設+復建調査設計","year":2024.0,"address":"広島県広島市中区基町15-2-1","latitude":34.40162658691406,"longitude":132.45387268066406,"category":"スタジアム","big_category":"レジャー施設","description":"基本計画策定支援としてPwC・昭和設計・福山コンサルタントJV","image_url":"","tags":"新建築2024年9月号,Ver5.50(2024年11月)の追加建築","prefecture":"広島","contractor":"大成・フジタ・広成・東畑・EDI・復建・あい・シーケィJV","structural_designer":"","landscape_designer":"","shinkenchiku_url":""},{"id":13691,"title":"make SPACE Park KSB Annex","architect":"前田圭介","year":2024.0,"address":"香川県高松市上之町2-7-15","latitude":34.321048736572266,"longitude":134.04734802246094,"category":"低層オフィス","big_category":"企業施設","description":"","image_url":"","tags":"新建築2024年10月号,Ver5.50(2024年11月)の追加建築","prefecture":"香川","contractor":"菅組","structural_designer":"山田憲明構造設計事務所","landscape_designer":"荻野景観設計","shinkenchiku_url":""},{"id":13692,"title":"うなぎ四代目菊川 京都祇園店","architect":"前田圭介","year":2023.0,"address":"京都府京都市東山区大和大路通新橋上る元吉町70-7","latitude":35.00576400756836,"longitude":135.77340698242188,"category":"レストラン/料亭","big_category":"商業施設,商業施設","description":"","image_url":"","tags":"Ver5.50(2024年11月)の追加建築","prefecture":"京都","contractor":"","structural_designer":"","landscape_designer":"","shinkenchiku_url":""},{"id":13693,"title":"サントリー登美の丘ワイナリー","architect":"前田圭介","year":2022.0,"address":"山梨県甲斐市大垈2786","latitude":35.710304260253906,"longitude":138.51194763183594,"category":"醸造所/レストラン/店舗","big_category":"商業施設,商業施設,商業施設","description":"","image_url":"","tags":"Ver5.50(2024年11月)の追加建築","prefecture":"山梨","contractor":"","structural_designer":"","landscape_designer":"","shinkenchiku_url":""},{"id":13694,"title":"入江豊三郎本店","architect":"前田圭介","year":2022.0,"address":"広島県福山市鞆町鞆534","latitude":34.384334564208984,"longitude":133.3833770751953,"category":"醸造所/店舗","big_category":"商業施設,商業施設","description":"","image_url":"","tags":"Ver5.50(2024年11月)の追加建築","prefecture":"広島","contractor":"","structural_designer":"","landscape_designer":"","shinkenchiku_url":""},{"id":13695,"title":"鮨 やくしどう","architect":"前田圭介","year":2021.0,"address":"広島県尾道市十四日元町3-25 1F","latitude":34.409515380859375,"longitude":133.2037353515625,"category":"レストラン/料亭","big_category":"商業施設,商業施設","description":"","image_url":"","tags":"Ver5.50(2024年11月)の追加建築","prefecture":"広島","contractor":"","structural_designer":"","landscape_designer":"","shinkenchiku_url":""},{"id":13696,"title":"鞆一商店","architect":"前田圭介","year":2021.0,"address":"広島県福山市鞆町鞆843-1","latitude":34.382789611816406,"longitude":133.38084411621094,"category":"カフェ","big_category":"商業施設","description":"","image_url":"","tags":"Ver5.50(2024年11月)の追加建築","prefecture":"広島","contractor":"","structural_designer":"","landscape_designer":"","shinkenchiku_url":""},{"id":13697,"title":"古川製作所新社屋+工場","architect":"長坂常","year":2023.0,"address":"群馬県太田市脇屋町1029-3","latitude":36.31168746948242,"longitude":139.327880859375,"category":"低層オフィス/工場","big_category":"企業施設,企業施設","description":"","image_url":"","tags":"Ver5.50(2024年11月)の追加建築,新建築2025年1月号","prefecture":"群馬","contractor":"関東建設工業","structural_designer":"テクトニカ","landscape_designer":"","shinkenchiku_url":""},{"id":13698,"title":"安土みどり城 大林環境技術研究所本社","architect":"藤森照信+前田由利","year":2024.0,"address":"滋賀県近江八幡市安土町上豊浦1664-1","latitude":35.144813537597656,"longitude":136.1321258544922,"category":"低層オフィス/研究施設","big_category":"企業施設,教育","description":"","image_url":"","tags":"新建築2024年11月号,Ver5.50(2024年11月)の追加建築","prefecture":"滋賀","contractor":"片山工務店","structural_designer":"","landscape_designer":"","shinkenchiku_url":""},{"id":13699,"title":"おおオフィス 社会保険労務士法人桑原事務所","architect":"藤森照信+佐田祐一","year":2023.0,"address":"山口県防府市大字高井1143-1","latitude":34.07480239868164,"longitude":131.55421447753906,"category":"低層オフィス","big_category":"企業施設","description":"","image_url":"","tags":"新建築2024年11月号,Ver5.50(2024年11月)の追加建築","prefecture":"山口","contractor":"","structural_designer":"","landscape_designer":"","shinkenchiku_url":""},{"id":13700,"title":"国際鯨類施設","architect":"阪根宏彦","year":2024.0,"address":"和歌山県太地町太地1770-1","latitude":33.5810432434082,"longitude":135.9554443359375,"category":"研究施設","big_category":"教育","description":"","image_url":"","tags":"新建築2024年10月号,Ver5.50(2024年11月)の追加建築","prefecture":"和歌山","contractor":"","structural_designer":"","landscape_designer":"","shinkenchiku_url":""}]}