{"page":27,"total_pages":290,"items_per_page":50,"total_items":14467,"items":[{"id":1301,"title":"石原なち子記念体育館","architect":"長島孝一","year":1980.0,"address":"山梨県山梨市市川1514","latitude":35.710472106933594,"longitude":138.67385864257812,"category":"体育館","big_category":"レジャー施設","description":"","image_url":"https://farm8.staticflickr.com/7320/13555443755_68fed3f6d6_h.jpg","tags":"2009年JIA25年賞","prefecture":"山梨","contractor":"","structural_designer":"","landscape_designer":"","shinkenchiku_url":""},{"id":1302,"title":"レイク相模カントリークラブ","architect":"磯崎新","year":1989.0,"address":"山梨県上野原市棡原5000","latitude":35.66557693481445,"longitude":139.1029815673828,"category":"クラブハウス","big_category":"レジャー施設","description":"","image_url":"","tags":"","prefecture":"山梨","contractor":"","structural_designer":"","landscape_designer":"","shinkenchiku_url":""},{"id":1303,"title":"身延山久遠寺 宝蔵","architect":"内井昭蔵","year":1976.0,"address":"山梨県南巨摩郡身延町身延3567","latitude":35.38203430175781,"longitude":138.42498779296875,"category":"寺院","big_category":"宗教","description":"","image_url":"","tags":"DOCOMOMO","prefecture":"山梨","contractor":"","structural_designer":"","landscape_designer":"","shinkenchiku_url":""},{"id":1304,"title":"山梨県立博物館","architect":"梓設計","year":2005.0,"address":"山梨県笛吹市御坂町成田1501-1","latitude":35.640289306640625,"longitude":138.64849853515625,"category":"博物館","big_category":"ミュージアム","description":"","image_url":"","tags":"","prefecture":"山梨","contractor":"","structural_designer":"","landscape_designer":"","shinkenchiku_url":""},{"id":1305,"title":"南アルプス市健康福祉センター","architect":"日建設計","year":2010.0,"address":"山梨県南アルプス市飯野2806-1","latitude":35.64026641845703,"longitude":138.462890625,"category":"福祉センター","big_category":"医療施設","description":"","image_url":"","tags":"","prefecture":"山梨","contractor":"","structural_designer":"","landscape_designer":"","shinkenchiku_url":""},{"id":1306,"title":"木の国サイト情報館","architect":"北川原温","year":2001.0,"address":"山梨県南アルプス市上今諏訪850-1","latitude":35.64046096801758,"longitude":138.50071716308594,"category":"博物館","big_category":"ミュージアム","description":"","image_url":"https://farm8.staticflickr.com/7412/8947116183_1207602bce_h.jpg","tags":"","prefecture":"山梨","contractor":"","structural_designer":"","landscape_designer":"","shinkenchiku_url":""},{"id":1307,"title":"韮崎東ケ丘病院","architect":"原広司","year":2004.0,"address":"山梨県韮崎市穂坂町宮久保1216","latitude":35.72170639038086,"longitude":138.46054077148438,"category":"病院","big_category":"医療施設","description":"","image_url":"","tags":"","prefecture":"山梨","contractor":"","structural_designer":"","landscape_designer":"","shinkenchiku_url":""},{"id":1308,"title":"山梨県立 富士湧水の里水族館","architect":"飯田都之麿","year":2001.0,"address":"山梨県南都留郡忍野村忍草3098-1","latitude":35.45561599731445,"longitude":138.82403564453125,"category":"水族館","big_category":"レジャー施設","description":"","image_url":"","tags":"","prefecture":"山梨","contractor":"","structural_designer":"","landscape_designer":"","shinkenchiku_url":""},{"id":1309,"title":"久保田一竹美術館","architect":"久保田一竹","year":1994.0,"address":"山梨県南都留郡富士河口湖町河口2255","latitude":35.52748107910156,"longitude":138.7595672607422,"category":"美術館","big_category":"ミュージアム","description":"","image_url":"","tags":"","prefecture":"山梨","contractor":"","structural_designer":"","landscape_designer":"","shinkenchiku_url":""},{"id":1310,"title":"TRIF レジーナリゾート富士","architect":"窪田茂","year":2008.0,"address":"山梨県南都留郡富士河口湖町小立7160","latitude":35.46734619140625,"longitude":138.74685668945312,"category":"ホテル","big_category":"宿泊","description":"","image_url":"","tags":"","prefecture":"山梨","contractor":"","structural_designer":"","landscape_designer":"","shinkenchiku_url":""},{"id":1311,"title":"ほうとう不動","architect":"保坂猛","year":2010.0,"address":"山梨県南都留郡富士河口湖町船津東恋路2458","latitude":35.49113464355469,"longitude":138.75709533691406,"category":"レストラン","big_category":"商業施設","description":"","image_url":"https://lh3.googleusercontent.com/-tzc5hDhiOA8/U55h9rY9d_I/AAAAAAABN_0/ugA8Z0soM74/s1280/lr-4118458.jpg","tags":"","prefecture":"山梨","contractor":"","structural_designer":"","landscape_designer":"","shinkenchiku_url":""},{"id":1312,"title":"河口湖ステラシアター","architect":"斎藤義+仙田満","year":1995.0,"address":"山梨県南都留郡富士河口湖町船津5577","latitude":35.48020935058594,"longitude":138.75955200195312,"category":"ホール・劇場","big_category":"文化施設","description":"2007年に可動式屋根が設置","image_url":"https://farm4.staticflickr.com/3817/13605597734_a9370ced90_h.jpg","tags":"","prefecture":"山梨","contractor":"","structural_designer":"","landscape_designer":"","shinkenchiku_url":""},{"id":1313,"title":"フジヤマミュージアム","architect":"大江匡","year":2003.0,"address":"山梨県富士吉田市新西原5-5597-103","latitude":35.484519958496094,"longitude":138.77951049804688,"category":"美術館","big_category":"ミュージアム","description":"富士急ハイランド隣接","image_url":"","tags":"","prefecture":"山梨","contractor":"","structural_designer":"","landscape_designer":"","shinkenchiku_url":""},{"id":1314,"title":"富士川町役場ますほ文化ホール","architect":"大宇根弘司","year":1992.0,"address":"山梨県南巨摩郡富士川町天神中條820-1","latitude":35.5662727355957,"longitude":138.46002197265625,"category":"ホール・劇場","big_category":"文化施設","description":"","image_url":"","tags":"","prefecture":"山梨","contractor":"","structural_designer":"","landscape_designer":"","shinkenchiku_url":""},{"id":1315,"title":"リゾナーレ八ヶ岳","architect":"マリオ・ベリーニ","year":1992.0,"address":"山梨県北杜市小淵沢町129-1","latitude":35.870269775390625,"longitude":138.3263702392578,"category":"ホテル","big_category":"宿泊","description":"","image_url":"","tags":"","prefecture":"山梨","contractor":"","structural_designer":"","landscape_designer":"","shinkenchiku_url":""},{"id":1316,"title":"アルソア本社","architect":"マリオ・ベリーニ","year":1997.0,"address":"山梨県北杜市小淵沢町2961","latitude":35.877716064453125,"longitude":138.31588745117188,"category":"低層オフィス/オフィスビル/企業施設","big_category":"企業施設,企業施設,企業施設","description":"レストラン有り","image_url":"","tags":"","prefecture":"山梨","contractor":"","structural_designer":"","landscape_designer":"","shinkenchiku_url":""},{"id":1317,"title":"リゾナーレ八ヶ岳 もくもく湯","architect":"クライン・ダイサム・アーキテクツ","year":2006.0,"address":"山梨県北杜市小淵沢町129-1","latitude":35.869873046875,"longitude":138.32736206054688,"category":"温泉","big_category":"宿泊","description":"","image_url":"","tags":"","prefecture":"山梨","contractor":"","structural_designer":"","landscape_designer":"","shinkenchiku_url":""},{"id":1318,"title":"素透撫STOVE","architect":"杉本博司","year":2013.0,"address":"山梨県北杜市長坂町中丸4551","latitude":35.82166290283203,"longitude":138.3535919189453,"category":"レストラン","big_category":"商業施設","description":"","image_url":"","tags":"","prefecture":"山梨","contractor":"","structural_designer":"","landscape_designer":"","shinkenchiku_url":""},{"id":1319,"title":"清里フォトアートミュージアム","architect":"栗生明","year":1998.0,"address":"山梨県北杜市高根町清里3545-1222","latitude":35.88304901123047,"longitude":138.43209838867188,"category":"美術館","big_category":"ミュージアム","description":"","image_url":"","tags":"","prefecture":"山梨","contractor":"","structural_designer":"","landscape_designer":"","shinkenchiku_url":""},{"id":1320,"title":"清里現代美術館","architect":"室井建造","year":1990.0,"address":"山梨県北杜市高根町清里3545-3519","latitude":35.91282272338867,"longitude":138.43199157714844,"category":"美術館","big_category":"ミュージアム","description":"3月～12月まで無休。1月は1日～７日まで開館（土・日祭日開館）　2月は土・日祭日のみ開館","image_url":"","tags":"","prefecture":"山梨","contractor":"","structural_designer":"","landscape_designer":"","shinkenchiku_url":""},{"id":1321,"title":"平山郁夫シルクロード美術館","architect":"水澤工務店","year":2004.0,"address":"山梨県北杜市長坂町小荒間2000-6","latitude":35.87920379638672,"longitude":138.359375,"category":"美術館","big_category":"ミュージアム","description":"","image_url":"","tags":"","prefecture":"山梨","contractor":"","structural_designer":"","landscape_designer":"","shinkenchiku_url":""},{"id":1322,"title":"リゾナーレ八ヶ岳 ブリラーレ","architect":"クライン・ダイサム・アーキテクツ","year":2004.0,"address":"山梨県北杜市小淵沢町129-1","latitude":35.8688850402832,"longitude":138.32696533203125,"category":"ホテル","big_category":"宿泊","description":"","image_url":"","tags":"","prefecture":"山梨","contractor":"","structural_designer":"","landscape_designer":"","shinkenchiku_url":""},{"id":1323,"title":"高根ふれあい交流ホール 八ヶ岳やまびこホール","architect":"柳澤孝彦","year":2002.0,"address":"山梨県北杜市高根町村山北割3315","latitude":35.83804702758789,"longitude":138.41079711914062,"category":"ホール・劇場","big_category":"文化施設","description":"","image_url":"","tags":"","prefecture":"山梨","contractor":"","structural_designer":"","landscape_designer":"","shinkenchiku_url":""},{"id":1324,"title":"白州・尾白の森名水公園べるが 森の研修・宿泊室","architect":"内田文雄","year":1996.0,"address":"山梨県北杜市白州町白須8056","latitude":35.798728942871094,"longitude":138.3120574951172,"category":"公園/研修施設","big_category":"レジャー施設,教育","description":"","image_url":"","tags":"新建築1997年8月号","prefecture":"山梨","contractor":"","structural_designer":"","landscape_designer":"","shinkenchiku_url":""},{"id":1325,"title":"リゾナーレ八ヶ岳 ガーデンチャペル ZONA","architect":"クライン・ダイサム・アーキテクツ","year":2004.0,"address":"山梨県北杜市小淵沢町129-1","latitude":35.87028884887695,"longitude":138.3267822265625,"category":"結婚式場","big_category":"宗教","description":"","image_url":"","tags":"","prefecture":"山梨","contractor":"","structural_designer":"","landscape_designer":"","shinkenchiku_url":""},{"id":1326,"title":"清里バスターミナル","architect":"堀池秀人","year":1987.0,"address":"山梨県北杜市高根町清里3545-2753","latitude":35.91947937011719,"longitude":138.43753051757812,"category":"駅","big_category":"インフラ","description":"取り壊し済み","image_url":"","tags":"","prefecture":"山梨","contractor":"","structural_designer":"","landscape_designer":"","shinkenchiku_url":""},{"id":1327,"title":"延命の湯 スパティオ小淵沢","architect":"毛綱毅曠","year":1998.0,"address":"山梨県北杜市小淵沢町2968-1","latitude":35.87882614135742,"longitude":138.3168182373047,"category":"ホテル/PA・道の駅","big_category":"宿泊,インフラ","description":"","image_url":"","tags":"","prefecture":"山梨","contractor":"","structural_designer":"","landscape_designer":"","shinkenchiku_url":""},{"id":1328,"title":"中村キース・ヘリング美術館","architect":"北川原温","year":2007.0,"address":"山梨県北杜市小淵沢町10249-7","latitude":35.88740921020508,"longitude":138.318603515625,"category":"美術館","big_category":"ミュージアム","description":"2015年に増築","image_url":"https://lh3.googleusercontent.com/-7M7MhseZwu0/Ts-O_Q_UvqI/AAAAAAAADwg/X5sa62kWpyk/s1024/PB250579.JPG","tags":"2008年村野藤吾賞,2008年度日本建築大賞,新建築2015年12月号","prefecture":"山梨","contractor":"","structural_designer":"","landscape_designer":"","shinkenchiku_url":""},{"id":1329,"title":"光の美術館 CLAVE GALERIE","architect":"安藤忠雄","year":2011.0,"address":"山梨県北杜市長坂町中丸2072","latitude":35.8222541809082,"longitude":138.35302734375,"category":"美術館","big_category":"ミュージアム","description":"","image_url":"https://farm8.staticflickr.com/7448/8942817777_e0536e7efa_h.jpg","tags":"","prefecture":"山梨","contractor":"","structural_designer":"","landscape_designer":"","shinkenchiku_url":""},{"id":1330,"title":"茶室 徹","architect":"藤森照信","year":2006.0,"address":"山梨県北杜市長坂町中丸2072","latitude":35.821659088134766,"longitude":138.35281372070312,"category":"茶室","big_category":"住宅","description":"","image_url":"https://farm4.staticflickr.com/3704/8943991813_97fe361a41_h.jpg","tags":"","prefecture":"山梨","contractor":"","structural_designer":"","landscape_designer":"","shinkenchiku_url":""},{"id":1331,"title":"清春白樺美術館 ／ ジョルジュ・ルオー記念館","architect":"谷口吉生","year":1983.0,"address":"山梨県北杜市長坂町中丸2072","latitude":35.822540283203125,"longitude":138.35372924804688,"category":"美術館","big_category":"ミュージアム","description":"","image_url":"https://lh3.googleusercontent.com/-MII92Qa6GoE/TyVH-2TnX7I/AAAAAAAAGGg/KyDcHSq6Fp8/s1024/P1070635.JPG","tags":"","prefecture":"山梨","contractor":"","structural_designer":"","landscape_designer":"","shinkenchiku_url":""},{"id":1332,"title":"聚光院伊東別院","architect":"吉村順三","year":1997.0,"address":"静岡県伊東市富戸1301-104","latitude":34.92819595336914,"longitude":139.1377716064453,"category":"寺院","big_category":"宗教","description":"要予約もここ一年は見学を受け付けていない。千住博の襖絵","image_url":"https://lh3.googleusercontent.com/-rOEMKCBo9tM/U55jokZlkZI/AAAAAAABOJI/0j9XJ967qmY/s1024/lr-3257882.jpg","tags":"","prefecture":"静岡","contractor":"","structural_designer":"","landscape_designer":"","shinkenchiku_url":""},{"id":1333,"title":"イズ・ブックカフェ","architect":"アトリエ・ワン","year":2012.0,"address":"静岡県伊東市八幡野1033-7","latitude":34.88174819946289,"longitude":139.1231689453125,"category":"カフェ/住宅","big_category":"商業施設,住宅","description":"","image_url":"https://lh3.googleusercontent.com/-SLVhUZRkT7k/U55l07IxiII/AAAAAAABOTk/wpdNKnabRkM/s1024/lr-3257834.jpg","tags":"","prefecture":"静岡","contractor":"","structural_designer":"","landscape_designer":"","shinkenchiku_url":""},{"id":1334,"title":"野間自由幼稚園","architect":"安藤忠雄","year":2003.0,"address":"静岡県伊東市竹の内1-3-57","latitude":34.96889877319336,"longitude":139.09535217285156,"category":"幼稚園","big_category":"教育","description":"","image_url":"","tags":"","prefecture":"静岡","contractor":"","structural_designer":"","landscape_designer":"","shinkenchiku_url":""},{"id":1335,"title":"怪しい「少年少女博物館」 旧EXマシン1990 別荘情報館","architect":"難波和彦","year":1990.0,"address":"静岡県伊東市富戸街道下1029-64","latitude":34.891544342041016,"longitude":139.11679077148438,"category":"博物館","big_category":"ミュージアム","description":"","image_url":"","tags":"","prefecture":"静岡","contractor":"","structural_designer":"","landscape_designer":"","shinkenchiku_url":""},{"id":1336,"title":"坐漁荘","architect":"不明","year":null,"address":"静岡県伊東市八幡野1741","latitude":34.865596771240234,"longitude":139.0966033935547,"category":"和風住宅","big_category":"住宅","description":"現在は旅館として復元。明治村に移築。","image_url":"","tags":"","prefecture":"静岡","contractor":"","structural_designer":"","landscape_designer":"","shinkenchiku_url":""},{"id":1337,"title":"川奈ホテル 田舎家","architect":"仰木魯堂","year":1936.0,"address":"静岡県伊東市川奈1459","latitude":34.94039535522461,"longitude":139.14035034179688,"category":"レストラン","big_category":"商業施設","description":"","image_url":"https://lh3.googleusercontent.com/--Kv8Fqp14Vg/U55k-MQKlNI/AAAAAAABOPc/ogIyEIHaixs/s1024/lr-3257893.jpg","tags":"","prefecture":"静岡","contractor":"","structural_designer":"","landscape_designer":"","shinkenchiku_url":""},{"id":1338,"title":"伊豆高原アフリカンアートギャラリー","architect":"小宮山昭","year":2003.0,"address":"静岡県伊東市富戸1317","latitude":34.908416748046875,"longitude":139.10943603515625,"category":"ギャラリー","big_category":"ミュージアム","description":"","image_url":"","tags":"","prefecture":"静岡","contractor":"","structural_designer":"","landscape_designer":"","shinkenchiku_url":""},{"id":1339,"title":"伊豆ドールガーデン","architect":"アーキテクトファイブ","year":1998.0,"address":"静岡県伊東市八幡野1118-2","latitude":34.8870735168457,"longitude":139.11373901367188,"category":"博物館","big_category":"ミュージアム","description":"","image_url":"","tags":"","prefecture":"静岡","contractor":"","structural_designer":"","landscape_designer":"","shinkenchiku_url":""},{"id":1340,"title":"伊豆テディベア・ミュージアム","architect":"アーキテクトファイブ","year":1998.0,"address":"静岡県伊東市八幡野1064-2","latitude":34.87778091430664,"longitude":139.11151123046875,"category":"博物館","big_category":"ミュージアム","description":"","image_url":"https://lh3.googleusercontent.com/-MFj9BOTZA0s/U55hgAZ3yYI/AAAAAAABN9I/7nSLKKCE60c/s1024/lr-3257802.jpg","tags":"","prefecture":"静岡","contractor":"","structural_designer":"","landscape_designer":"","shinkenchiku_url":""},{"id":1341,"title":"三養荘","architect":"村野藤吾","year":1988.0,"address":"静岡県伊豆の国市墹之上270","latitude":35.039249420166016,"longitude":138.93492126464844,"category":"ホテル","big_category":"宿泊","description":"","image_url":"","tags":"","prefecture":"静岡","contractor":"","structural_designer":"","landscape_designer":"","shinkenchiku_url":""},{"id":1342,"title":"古奈別荘 旧久保政吉別荘","architect":"不明","year":1934.0,"address":"静岡県伊豆の国市古奈31","latitude":35.036102294921875,"longitude":138.93626403808594,"category":"旅館","big_category":"宿泊","description":"","image_url":"","tags":"","prefecture":"静岡","contractor":"","structural_designer":"","landscape_designer":"","shinkenchiku_url":""},{"id":1343,"title":"韮山文化センター 韮山時代劇場","architect":"象設計集団","year":1995.0,"address":"静岡県伊豆の国市四日町772","latitude":35.05195999145508,"longitude":138.94625854492188,"category":"総合文化施設","big_category":"文化施設","description":"","image_url":"https://farm3.staticflickr.com/2852/9759120185_d6c31e6d32_h.jpg","tags":"","prefecture":"静岡","contractor":"","structural_designer":"","landscape_designer":"","shinkenchiku_url":""},{"id":1344,"title":"Point Perry","architect":"入江経一","year":2011.0,"address":"静岡県下田市3-17-1","latitude":34.67097473144531,"longitude":138.94520568847656,"category":"住宅","big_category":"住宅","description":"","image_url":"https://lh3.googleusercontent.com/-8knaH0zLSb4/U55h_1IOi1I/AAAAAAABN_8/jj0V0keNfsw/s1440/lr-3257778.jpg","tags":"","prefecture":"静岡","contractor":"","structural_designer":"","landscape_designer":"","shinkenchiku_url":""},{"id":1345,"title":"下田プリンスホテル","architect":"黒川紀章","year":1973.0,"address":"静岡県下田市白浜1547-1","latitude":34.6961555480957,"longitude":138.9732208251953,"category":"ホテル","big_category":"宿泊","description":"","image_url":"https://lh3.googleusercontent.com/-EslkM1AASu0/U55kemr5UrI/AAAAAAABOM8/sfzLGsWb9lw/s1024/lr-3257648.jpg","tags":"","prefecture":"静岡","contractor":"","structural_designer":"","landscape_designer":"","shinkenchiku_url":""},{"id":1346,"title":"ベイ・ステージ下田 開国下田みなと","architect":"シーラカンスK&H","year":2000.0,"address":"静岡県下田市外ヶ岡1-1","latitude":34.67481994628906,"longitude":138.9508819580078,"category":"PA・道の駅/観光施設","big_category":"インフラ,レジャー施設","description":"","image_url":"https://lh3.googleusercontent.com/-hininrETpPQ/U55oog7rlfI/AAAAAAABOho/NNEyQo3ZvcU/s1280/lr-3257705.jpg","tags":"","prefecture":"静岡","contractor":"","structural_designer":"","landscape_designer":"","shinkenchiku_url":""},{"id":1347,"title":"ねむの木こども美術館　どんぐり","architect":"藤森照信","year":2006.0,"address":"静岡県掛川市上垂木3399-1","latitude":34.828643798828125,"longitude":137.99742126464844,"category":"美術館","big_category":"ミュージアム","description":"","image_url":"https://farm8.staticflickr.com/7289/8932148183_3ecad4b2d8_h.jpg","tags":"","prefecture":"静岡","contractor":"","structural_designer":"","landscape_designer":"","shinkenchiku_url":""},{"id":1348,"title":"資生堂アートハウス","architect":"谷口吉生+高宮眞介","year":1978.0,"address":"静岡県掛川市下俣751-1","latitude":34.765785217285156,"longitude":138.00051879882812,"category":"美術館","big_category":"ミュージアム","description":"","image_url":"https://farm6.staticflickr.com/5461/8943992887_c4b9049168_h.jpg","tags":"1979年日本建築学会 作品賞,2009年JIA25年賞","prefecture":"静岡","contractor":"","structural_designer":"","landscape_designer":"","shinkenchiku_url":""},{"id":1349,"title":"ねむの木こども美術館　緑の中","architect":"坂茂","year":1999.0,"address":"静岡県掛川市上垂木3534","latitude":34.82933044433594,"longitude":138.0030517578125,"category":"美術館","big_category":"ミュージアム","description":"","image_url":"https://farm3.staticflickr.com/2809/8927325350_b5fd6a2fe9_h.jpg","tags":"","prefecture":"静岡","contractor":"","structural_designer":"","landscape_designer":"","shinkenchiku_url":""},{"id":1350,"title":"吉田町立図書館","architect":"岡田新一","year":1999.0,"address":"静岡県榛原郡吉田町片岡404","latitude":34.780208587646484,"longitude":138.2510986328125,"category":"図書館","big_category":"文化施設","description":"","image_url":"","tags":"","prefecture":"静岡","contractor":"","structural_designer":"","landscape_designer":"","shinkenchiku_url":""}]}