{"page":179,"total_pages":290,"items_per_page":50,"total_items":14467,"items":[{"id":8901,"title":"なんばスカイオ","architect":"大林組","year":2018.0,"address":"大阪府大阪市中央区難波5-1-60","latitude":34.66375732421875,"longitude":135.50091552734375,"category":"テナントビル/オフィスビル","big_category":"商業施設,企業施設","description":"南海会館ビルの建て替え","image_url":"","tags":"新建築2019年11月号,Ver3.20(2019年12月)の追加建築","prefecture":"大阪","contractor":"大林組・竹中工務店・南海辰村建設共同企業体","structural_designer":"","landscape_designer":"","shinkenchiku_url":""},{"id":8902,"title":"日本橋室町三井タワー コレド室町テラス","architect":"シーザー・ペリ+日本設計","year":2019.0,"address":"東京都中央区日本橋室町3-2-1","latitude":35.68782043457031,"longitude":139.77256774902344,"category":"複合ビル","big_category":"企業施設","description":"","image_url":"","tags":"新建築2019年12月号,Ver3.20(2019年12月)の追加建築","prefecture":"東京","contractor":"鹿島・清水・佐藤工業特定業務代行共同事業体","structural_designer":"","landscape_designer":"","shinkenchiku_url":""},{"id":8903,"title":"新港ふ頭客船ターミナル 横浜ハンマーヘッド","architect":"梓設計","year":2019.0,"address":"神奈川県横浜市中区新港2-14-1","latitude":35.456092834472656,"longitude":139.64186096191406,"category":"港/モール/ホテル","big_category":"インフラ,商業施設,宿泊","description":"","image_url":"","tags":"新建築2019年12月号,Ver3.20(2019年12月)の追加建築","prefecture":"神奈川","contractor":"五洋建設","structural_designer":"","landscape_designer":"","shinkenchiku_url":""},{"id":8904,"title":"オト リバーサイドテラス","architect":"アール・アイ・エー","year":2019.0,"address":"愛知県岡崎市上明大寺町2-14-1","latitude":34.95246887207031,"longitude":137.16958618164062,"category":"モール/ホテル","big_category":"商業施設,宿泊","description":"","image_url":"","tags":"新建築2019年12月号,Ver3.20(2019年12月)の追加建築","prefecture":"愛知","contractor":"スターツCAM","structural_designer":"","landscape_designer":"","shinkenchiku_url":""},{"id":8905,"title":"プレイアトレ土浦","architect":"谷尻誠+ジェイアール東日本建築設計事務所","year":2018.0,"address":"茨城県土浦市有明町1-30","latitude":36.07789993286133,"longitude":140.20559692382812,"category":"テナントビル/ホテル","big_category":"商業施設,宿泊","description":"駅ビルの改修","image_url":"","tags":"新建築2019年12月号,Ver3.20(2019年12月)の追加建築","prefecture":"茨城","contractor":"安藤・間","structural_designer":"","landscape_designer":"","shinkenchiku_url":""},{"id":8906,"title":"前田建設工業 ICI CAMP","architect":"前田建設工業+マウントフジアーキテクツスタジオ","year":2019.0,"address":"茨城県取手市寺田5270","latitude":35.9093017578125,"longitude":140.05496215820312,"category":"研修施設/企業施設","big_category":"教育,企業施設","description":"","image_url":"","tags":"新建築2019年12月号,Ver3.20(2019年12月)の追加建築","prefecture":"茨城","contractor":"前田建設工業","structural_designer":"","landscape_designer":"","shinkenchiku_url":""},{"id":8907,"title":"近畿大学 6・7号館 ACADEMIC THEATER ANNEX THE GARAGE","architect":"NTTファシリティーズ","year":2019.0,"address":"大阪府東大阪市小若江3-4-1","latitude":34.64997482299805,"longitude":135.5878143310547,"category":"大学","big_category":"教育","description":"","image_url":"","tags":"新建築2019年12月号,Ver3.20(2019年12月)の追加建築","prefecture":"大阪","contractor":"フジタ","structural_designer":"","landscape_designer":"","shinkenchiku_url":""},{"id":8908,"title":"近畿大学 E-cube","architect":"類設計室","year":2006.0,"address":"大阪府東大阪市小若江3-4-1","latitude":34.652198791503906,"longitude":135.5863494873047,"category":"大学/ホール・劇場","big_category":"教育,文化施設","description":"","image_url":"","tags":"Ver3.20(2019年12月)の追加建築","prefecture":"大阪","contractor":"","structural_designer":"","landscape_designer":"","shinkenchiku_url":""},{"id":8909,"title":"梓設計新社屋 HANEDA SKY CAMPUS","architect":"梓設計","year":2019.0,"address":"東京都大田区羽田旭町10-11","latitude":35.555381774902344,"longitude":139.75099182128906,"category":"オフィスビル","big_category":"企業施設","description":"","image_url":"","tags":"新建築2019年12月号,Ver3.20(2019年12月)の追加建築,2022年日本建築学会 作品選集新人賞","prefecture":"東京","contractor":"日鉄エンジニアリング・JALファシリティーズ","structural_designer":"","landscape_designer":"","shinkenchiku_url":""},{"id":8910,"title":"竹中技術研究所","architect":"竹中工務店","year":1993.0,"address":"千葉県印西市大塚1-5-2","latitude":35.804176330566406,"longitude":140.119384765625,"category":"研究施設","big_category":"教育","description":"2019年にリニューアル工事","image_url":"","tags":"新建築2019年12月号,Ver3.20(2019年12月)の追加建築,2020年JIA25年賞 登録作品","prefecture":"千葉","contractor":"竹中工務店","structural_designer":"","landscape_designer":"","shinkenchiku_url":""},{"id":8911,"title":"日立製作所中央研究所 協創棟","architect":"大林組+日立建設設計","year":2019.0,"address":"東京都国分寺市東恋ケ窪1-280","latitude":35.70316696166992,"longitude":139.47300720214844,"category":"研究施設","big_category":"教育","description":"","image_url":"","tags":"新建築2019年12月号,Ver3.20(2019年12月)の追加建築","prefecture":"東京","contractor":"大林組","structural_designer":"","landscape_designer":"","shinkenchiku_url":""},{"id":8912,"title":"国立循環器病研究センター","architect":"佐藤総合計画","year":2019.0,"address":"大阪府吹田市岸部新町6-1","latitude":34.779296875,"longitude":135.54104614257812,"category":"病院/研究施設","big_category":"医療施設,教育","description":"","image_url":"","tags":"新建築2019年12月号,Ver3.20(2019年12月)の追加建築","prefecture":"大阪","contractor":"竹中工務店","structural_designer":"","landscape_designer":"","shinkenchiku_url":""},{"id":8913,"title":"東京医科大学病院","architect":"大林組","year":2019.0,"address":"東京都新宿区西新宿6-7-1","latitude":35.6937255859375,"longitude":139.6920166015625,"category":"病院","big_category":"医療施設","description":"","image_url":"","tags":"新建築2019年12月号,Ver3.20(2019年12月)の追加建築","prefecture":"東京","contractor":"大林組","structural_designer":"","landscape_designer":"","shinkenchiku_url":""},{"id":8914,"title":"長崎みなとメディカルセンター","architect":"久米設計+大成建設+松林建築設計+池田設計","year":2014.0,"address":"長崎県長崎市新地町6-39","latitude":32.73957061767578,"longitude":129.87245178222656,"category":"病院","big_category":"医療施設","description":"","image_url":"","tags":"新建築2019年12月号,Ver3.20(2019年12月)の追加建築","prefecture":"長崎","contractor":"","structural_designer":"","landscape_designer":"","shinkenchiku_url":""},{"id":8915,"title":"松戸市立総合医療センター","architect":"佐藤総合計画","year":2017.0,"address":"千葉県松戸市千駄堀993-1","latitude":35.80283737182617,"longitude":139.932861328125,"category":"病院","big_category":"医療施設","description":"","image_url":"","tags":"新建築2019年12月号,Ver3.20(2019年12月)の追加建築","prefecture":"千葉","contractor":"清水建設","structural_designer":"","landscape_designer":"","shinkenchiku_url":""},{"id":8916,"title":"香月メディカルビル","architect":"三菱地所","year":2018.0,"address":"広島県広島市中区三川町7-1","latitude":34.389827728271484,"longitude":132.46202087402344,"category":"病院/オフィスビル","big_category":"医療施設,企業施設","description":"オフィスビルの改修","image_url":"","tags":"新建築2019年12月号,Ver3.20(2019年12月)の追加建築","prefecture":"広島","contractor":"鹿島建設","structural_designer":"","landscape_designer":"","shinkenchiku_url":""},{"id":8917,"title":"カヤック まちの社員食堂","architect":"彦根建築設計事務所","year":2018.0,"address":"神奈川県鎌倉市御成町11-12","latitude":35.318389892578125,"longitude":139.54959106445312,"category":"レストラン","big_category":"商業施設","description":"鎌倉市内在勤の人のみ利用出来る食堂","image_url":"","tags":"Ver3.20(2019年12月)の追加建築","prefecture":"神奈川","contractor":"","structural_designer":"","landscape_designer":"","shinkenchiku_url":""},{"id":8918,"title":"蒲江ふれあい児童館 旧蒲江中学校特別教室棟","architect":"青木茂","year":1985.0,"address":"大分県佐伯市蒲江大字蒲江浦5101-25","latitude":32.80259323120117,"longitude":131.92510986328125,"category":"児童施設","big_category":"教育","description":"","image_url":"","tags":"Ver3.20(2019年12月)の追加建築","prefecture":"大分","contractor":"","structural_designer":"","landscape_designer":"","shinkenchiku_url":""},{"id":8919,"title":"鶴御崎自然公園レストハウス 鶴見半島ビジターセンター","architect":"青木茂","year":1988.0,"address":"大分県佐伯市米水津大字浦代浦","latitude":32.93572235107422,"longitude":132.07736206054688,"category":"PA・道の駅","big_category":"インフラ","description":"閉鎖中","image_url":"","tags":"Ver3.20(2019年12月)の追加建築","prefecture":"大分","contractor":"","structural_designer":"","landscape_designer":"","shinkenchiku_url":""},{"id":8920,"title":"鉄輪温泉 もと湯の宿黒田や 旧アートホテル石松","architect":"青木茂","year":1991.0,"address":"大分県別府市大字鉄輪御幸3組","latitude":33.314666748046875,"longitude":131.47412109375,"category":"旅館","big_category":"宿泊","description":"旧館の改修と新館の増築","image_url":"","tags":"Ver3.20(2019年12月)の追加建築","prefecture":"大分","contractor":"","structural_designer":"","landscape_designer":"","shinkenchiku_url":""},{"id":8921,"title":"長崎出島ワーフ","architect":"青木茂","year":2000.0,"address":"長崎県長崎市出島町1-1-109","latitude":32.74397659301758,"longitude":129.87066650390625,"category":"モール","big_category":"商業施設","description":"","image_url":"","tags":"Ver3.20(2019年12月)の追加建築","prefecture":"長崎","contractor":"","structural_designer":"","landscape_designer":"","shinkenchiku_url":""},{"id":8922,"title":"ギャラリー 明風 旧井上匡四郎邸","architect":"遠藤新","year":1939.0,"address":"神奈川県三浦郡葉山町堀内810","latitude":35.276390075683594,"longitude":139.5747833251953,"category":"住宅/ギャラリー","big_category":"住宅,ミュージアム","description":"年に数回ギャラリーとして公開予定","image_url":"","tags":"Ver3.20(2019年12月)の追加建築","prefecture":"神奈川","contractor":"","structural_designer":"","landscape_designer":"","shinkenchiku_url":""},{"id":8923,"title":"葉山加地邸 旧加地邸","architect":"遠藤新","year":1928.0,"address":"神奈川県三浦郡葉山町一色1706","latitude":35.26579666137695,"longitude":139.58172607421875,"category":"住宅/コテージ","big_category":"住宅,宿泊","description":"2020年3月に一般公開、4月に宿泊施設として営業予定。神谷修平、戸井田設計により改修","image_url":"","tags":"Ver3.20(2019年12月)の追加建築,2022年日本建築学会 作品選集新人賞,第31回AACA 特別賞","prefecture":"神奈川","contractor":"","structural_designer":"","landscape_designer":"","shinkenchiku_url":""},{"id":8924,"title":"立命館大学 以学館","architect":"富家宏泰","year":1965.0,"address":"京都府京都市北区等持院北町56-1","latitude":35.03156280517578,"longitude":135.725341796875,"category":"大学","big_category":"教育","description":"","image_url":"","tags":"Ver3.20(2019年12月)の追加建築","prefecture":"京都","contractor":"","structural_designer":"","landscape_designer":"","shinkenchiku_url":""},{"id":8925,"title":"聖路加幼稚園","architect":"武基雄","year":1967.0,"address":"神奈川県鎌倉市稲村ガ崎4-2-5","latitude":35.30630874633789,"longitude":139.52059936523438,"category":"幼稚園","big_category":"教育","description":"","image_url":"","tags":"Ver3.20(2019年12月)の追加建築","prefecture":"神奈川","contractor":"","structural_designer":"","landscape_designer":"","shinkenchiku_url":""},{"id":8926,"title":"常立寺","architect":"武基雄","year":1969.0,"address":"神奈川県藤沢市片瀬3-14-3","latitude":35.31266403198242,"longitude":139.48828125,"category":"寺院","big_category":"宗教","description":"事務所棟、庫裡、客殿が武基雄設計","image_url":"","tags":"Ver3.20(2019年12月)の追加建築","prefecture":"神奈川","contractor":"","structural_designer":"","landscape_designer":"","shinkenchiku_url":""},{"id":8927,"title":"渋谷パルコ・ヒューリックビル","architect":"竹中工務店","year":2019.0,"address":"東京都渋谷区宇田川町15-1","latitude":35.662078857421875,"longitude":139.6987762451172,"category":"テナントビル","big_category":"商業施設","description":"","image_url":"","tags":"Ver3.20(2019年12月)の追加建築,新建築2020年1月号","prefecture":"東京","contractor":"竹中工務店","structural_designer":"","landscape_designer":"","shinkenchiku_url":""},{"id":8928,"title":"グレンバラ美術館","architect":"川添純一郎","year":2019.0,"address":"兵庫県姫路市町田120","latitude":34.864994049072266,"longitude":134.64027404785156,"category":"美術館","big_category":"ミュージアム","description":"一般には非公開","image_url":"","tags":"Ver3.20(2019年12月)の追加建築","prefecture":"兵庫","contractor":"","structural_designer":"","landscape_designer":"","shinkenchiku_url":""},{"id":8929,"title":"嘸旦 -MUTAN-","architect":"緒方慎一郎+黒崎敏","year":2019.0,"address":"石川県小松市高堂町ト-18","latitude":36.437679290771484,"longitude":136.48069763183594,"category":"ギャラリー","big_category":"ミュージアム","description":"","image_url":"","tags":"Ver3.20(2019年12月)の追加建築","prefecture":"石川","contractor":"","structural_designer":"","landscape_designer":"","shinkenchiku_url":""},{"id":8930,"title":"カンガルーホテル","architect":"黒崎敏","year":2009.0,"address":"東京都台東区日本堤1-21-11","latitude":35.72646713256836,"longitude":139.7998046875,"category":"ホテル","big_category":"宿泊","description":"","image_url":"","tags":"Ver3.20(2019年12月)の追加建築","prefecture":"東京","contractor":"","structural_designer":"","landscape_designer":"","shinkenchiku_url":""},{"id":8931,"title":"フルーヴ","architect":"黒崎敏","year":2013.0,"address":"静岡県浜松市浜北区染地台3-12-7","latitude":34.78862762451172,"longitude":137.74395751953125,"category":"美容院","big_category":"商業施設","description":"","image_url":"","tags":"Ver3.20(2019年12月)の追加建築","prefecture":"静岡","contractor":"","structural_designer":"","landscape_designer":"","shinkenchiku_url":""},{"id":8932,"title":"ラ・ポーザ","architect":"黒崎敏","year":2008.0,"address":"福島県郡山市愛宕町1-27","latitude":37.38963317871094,"longitude":140.3771514892578,"category":"店舗","big_category":"商業施設","description":"","image_url":"","tags":"Ver3.20(2019年12月)の追加建築","prefecture":"福島","contractor":"","structural_designer":"","landscape_designer":"","shinkenchiku_url":""},{"id":8933,"title":"フルーフィ","architect":"黒崎敏","year":2003.0,"address":"茨城県つくば市吾妻3-10-3","latitude":36.090003967285156,"longitude":140.10975646972656,"category":"美容院","big_category":"商業施設","description":"","image_url":"","tags":"Ver3.20(2019年12月)の追加建築","prefecture":"茨城","contractor":"","structural_designer":"","landscape_designer":"","shinkenchiku_url":""},{"id":8934,"title":"ARUMIK","architect":"黒崎敏","year":2003.0,"address":"茨城県つくば市二の宮2-17-13","latitude":36.06266784667969,"longitude":140.12269592285156,"category":"テナントビル/住宅","big_category":"商業施設,住宅","description":"","image_url":"","tags":"Ver3.20(2019年12月)の追加建築","prefecture":"茨城","contractor":"","structural_designer":"","landscape_designer":"","shinkenchiku_url":""},{"id":8935,"title":"横川定光院 客殿","architect":"増田友也","year":1970.0,"address":"滋賀県大津市坂本本町4225","latitude":35.09896469116211,"longitude":135.85394287109375,"category":"寺院","big_category":"宗教","description":"","image_url":"","tags":"Ver3.20(2019年12月)の追加建築","prefecture":"滋賀","contractor":"","structural_designer":"","landscape_designer":"","shinkenchiku_url":""},{"id":8936,"title":"鈴与別館","architect":"後藤周平","year":2019.0,"address":"静岡県静岡市清水区入船町12-1","latitude":35.009765625,"longitude":138.4924774169922,"category":"低層オフィス","big_category":"企業施設","description":"隣接した本社五階のリニューアルも手がけている","image_url":"","tags":"Ver3.20(2019年12月)の追加建築","prefecture":"静岡","contractor":"","structural_designer":"","landscape_designer":"","shinkenchiku_url":""},{"id":8937,"title":"西友 市ヶ尾店","architect":"菊竹清訓","year":1983.0,"address":"神奈川県横浜市青葉区市ケ尾町1055-5","latitude":35.55003356933594,"longitude":139.54104614257812,"category":"店舗","big_category":"商業施設","description":"","image_url":"","tags":"Ver3.20(2019年12月)の追加建築","prefecture":"神奈川","contractor":"","structural_designer":"","landscape_designer":"","shinkenchiku_url":""},{"id":8938,"title":"ビショップ 出西店","architect":"尾﨑大介","year":2019.0,"address":"島根県出雲市斐川町出西字高林1358-3","latitude":35.35806655883789,"longitude":132.7958984375,"category":"店舗","big_category":"商業施設","description":"","image_url":"","tags":"Ver3.20(2019年12月)の追加建築","prefecture":"島根","contractor":"","structural_designer":"","landscape_designer":"","shinkenchiku_url":""},{"id":8939,"title":"アレン記念館","architect":"ウィリアム・メレル・ヴォーリズ","year":1941.0,"address":"岩手県久慈市本町3-12","latitude":40.18446731567383,"longitude":141.76881408691406,"category":"博物館/住宅/洋館","big_category":"ミュージアム,住宅,近代建築/遺産","description":"","image_url":"","tags":"Ver3.20(2019年12月)の追加建築","prefecture":"岩手","contractor":"","structural_designer":"","landscape_designer":"","shinkenchiku_url":""},{"id":8940,"title":"DDD HOTEL","architect":"二俣公一","year":2019.0,"address":"東京都中央区日本橋馬喰町2-2-1","latitude":35.69528579711914,"longitude":139.7835235595703,"category":"ホテル","big_category":"宿泊","description":"","image_url":"","tags":"Ver3.20(2019年12月)の追加建築","prefecture":"東京","contractor":"","structural_designer":"","landscape_designer":"","shinkenchiku_url":""},{"id":8941,"title":"イルヴェントの白い寮","architect":"二俣公一","year":2011.0,"address":"香川県小豆郡土庄町豊島家浦2358","latitude":34.48700714111328,"longitude":134.0595245361328,"category":"コテージ/住宅/寮","big_category":"宿泊,住宅,住宅","description":"一棟貸しとして宿泊可能","image_url":"","tags":"Ver3.20(2019年12月)の追加建築","prefecture":"香川","contractor":"","structural_designer":"","landscape_designer":"","shinkenchiku_url":""},{"id":8942,"title":"山口酒造場改修計画","architect":"二俣公一","year":2017.0,"address":"福岡県久留米市北野町今山534-1","latitude":33.343597412109375,"longitude":130.58187866210938,"category":"醸造所","big_category":"商業施設","description":"","image_url":"","tags":"Ver3.20(2019年12月)の追加建築","prefecture":"福岡","contractor":"","structural_designer":"","landscape_designer":"","shinkenchiku_url":""},{"id":8943,"title":"あさひ会計セミナー棟","architect":"古谷誠章","year":2019.0,"address":"山形県山形市東原町2-1-29","latitude":38.244041442871094,"longitude":140.3421173095703,"category":"低層オフィス","big_category":"企業施設","description":"","image_url":"","tags":"Ver3.20(2019年12月)の追加建築","prefecture":"山形","contractor":"","structural_designer":"","landscape_designer":"","shinkenchiku_url":""},{"id":8944,"title":"感泣亭","architect":"生田勉+Eureka+三浦清史","year":1964.0,"address":"神奈川県川崎市中原区木月3-14-12","latitude":35.5641975402832,"longitude":139.6497039794922,"category":"住宅/公民館・交流施設","big_category":"住宅,公共施設","description":"2012年にEureka+三浦清史により改修・増築。水曜日のみコミュニティスペースとして開放されている","image_url":"","tags":"Ver3.20(2019年12月)の追加建築","prefecture":"神奈川","contractor":"","structural_designer":"","landscape_designer":"","shinkenchiku_url":""},{"id":8945,"title":"パンとエスプレッソと嵐山庭園","architect":"木元洋佑+平岡敬造","year":2019.0,"address":"京都府京都市右京区嵯峨天龍寺芒ノ馬場町45-15","latitude":35.01485824584961,"longitude":135.67491149902344,"category":"店舗/カフェ","big_category":"商業施設,商業施設","description":"","image_url":"","tags":"Ver3.20(2019年12月)の追加建築","prefecture":"京都","contractor":"","structural_designer":"","landscape_designer":"","shinkenchiku_url":""},{"id":8946,"title":"botanico","architect":"中本尋之","year":2019.0,"address":"広島県呉市中央3-12-15","latitude":34.2481803894043,"longitude":132.56483459472656,"category":"店舗","big_category":"商業施設","description":"","image_url":"","tags":"Ver3.20(2019年12月)の追加建築","prefecture":"広島","contractor":"","structural_designer":"","landscape_designer":"","shinkenchiku_url":""},{"id":8947,"title":"両国湯屋 江戸遊","architect":"久保都島建築設計","year":2019.0,"address":"東京都墨田区亀沢1-5-8","latitude":35.696807861328125,"longitude":139.79847717285156,"category":"温泉","big_category":"宿泊","description":"","image_url":"","tags":"Ver3.20(2019年12月)の追加建築","prefecture":"東京","contractor":"","structural_designer":"","landscape_designer":"","shinkenchiku_url":""},{"id":8948,"title":"ハレザ池袋ホール棟 東京建物 Brillia HALL","architect":"鹿島建設","year":2019.0,"address":"東京都豊島区東池袋1-19-1","latitude":35.73188781738281,"longitude":139.71571350097656,"category":"ホール・劇場/オフィスビル/公共施設","big_category":"文化施設,企業施設,公共施設","description":"","image_url":"","tags":"Ver3.20(2019年12月)の追加建築,新建築2020年3月号","prefecture":"東京","contractor":"鹿島建設","structural_designer":"","landscape_designer":"","shinkenchiku_url":""},{"id":8949,"title":"藍住町総合文化ホール","architect":"久米設計","year":2019.0,"address":"徳島県板野郡藍住町奥野矢上前32-1","latitude":34.12765121459961,"longitude":134.4977264404297,"category":"ホール・劇場","big_category":"文化施設","description":"","image_url":"","tags":"Ver3.20(2019年12月)の追加建築","prefecture":"徳島","contractor":"","structural_designer":"","landscape_designer":"","shinkenchiku_url":""},{"id":8950,"title":"プラッツ習志野 北館","architect":"三上建築事務所","year":2019.0,"address":"埼玉県習志野市本大久保3-8-19","latitude":35.68492126464844,"longitude":140.0471649169922,"category":"図書館/ホール・劇場/公民館・交流施設","big_category":"文化施設,文化施設,公共施設","description":"北館の別棟、民間付帯施設は建設中（2020～21年竣工予定）","image_url":"","tags":"Ver3.20(2019年12月)の追加建築","prefecture":"埼玉","contractor":"","structural_designer":"","landscape_designer":"","shinkenchiku_url":""}]}