{"page":65,"total_pages":290,"items_per_page":50,"total_items":14467,"items":[{"id":3201,"title":"聖オルバン教会","architect":"アントニン・レーモンド","year":1956.0,"address":"東京都港区芝公園3-6-25","latitude":35.659996032714844,"longitude":139.7438201904297,"category":"教会","big_category":"宗教","description":"","image_url":"","tags":"","prefecture":"東京","contractor":"","structural_designer":"","landscape_designer":"","shinkenchiku_url":""},{"id":3202,"title":"掬水亭","architect":"池原義郎","year":1990.0,"address":"埼玉県所沢市山口2942","latitude":35.769283294677734,"longitude":139.43927001953125,"category":"旅館","big_category":"宿泊","description":"","image_url":"","tags":"","prefecture":"埼玉","contractor":"","structural_designer":"","landscape_designer":"","shinkenchiku_url":""},{"id":3203,"title":"ヒアシンスハウス","architect":"立原道造","year":1938.0,"address":"埼玉県さいたま市南区別所4-12","latitude":35.85546112060547,"longitude":139.6408233642578,"category":"住宅","big_category":"住宅","description":"オリジナルは1938設計、別所沼公園に復元","image_url":"","tags":"","prefecture":"埼玉","contractor":"","structural_designer":"","landscape_designer":"","shinkenchiku_url":""},{"id":3204,"title":"学習院大学 北1号館／南2号館","architect":"前川國男","year":1960.0,"address":"東京都豊島区目白1-5-1","latitude":35.718788146972656,"longitude":139.7087860107422,"category":"大学","big_category":"教育","description":"ピラミッド校舎は現存せず。図書館は霞会館記念 学習院ミュージアムとして2025年オープン予定（別作品として分離して登録してあります）","image_url":"","tags":"","prefecture":"東京","contractor":"","structural_designer":"","landscape_designer":"","shinkenchiku_url":""},{"id":3205,"title":"日本看護協会ビル","architect":"黒川紀章","year":2004.0,"address":"東京都渋谷区神宮前5-8-2","latitude":35.66691970825195,"longitude":139.7079315185547,"category":"オフィスビル","big_category":"企業施設","description":"","image_url":"","tags":"","prefecture":"東京","contractor":"","structural_designer":"","landscape_designer":"","shinkenchiku_url":""},{"id":3206,"title":"杉並区立中央図書館","architect":"黒川紀章","year":1982.0,"address":"東京都杉並区荻窪3-40-23","latitude":35.70184326171875,"longitude":139.6267547607422,"category":"図書館","big_category":"文化施設","description":"日総建により2020年改修","image_url":"","tags":"新建築2021年3月号","prefecture":"東京","contractor":"","structural_designer":"","landscape_designer":"","shinkenchiku_url":""},{"id":3207,"title":"旧萬來舎","architect":"谷口吉郎+隈研吾","year":1952.0,"address":"東京都港区三田2-15-45 ‎","latitude":35.649253845214844,"longitude":139.74282836914062,"category":"大学","big_category":"教育","description":"オリジナルは1952年谷口吉郎＋イサム・ノグチで設計、2005年に隈研吾インテリアデザインで移築","image_url":"","tags":"","prefecture":"東京","contractor":"","structural_designer":"","landscape_designer":"","shinkenchiku_url":""},{"id":3208,"title":"吉行淳之介文学館","architect":"中村昌生","year":1999.0,"address":"静岡県掛川市上垂木3190-2","latitude":34.8254280090332,"longitude":137.9942626953125,"category":"博物館","big_category":"ミュージアム","description":"","image_url":"","tags":"","prefecture":"静岡","contractor":"","structural_designer":"","landscape_designer":"","shinkenchiku_url":""},{"id":3209,"title":"ロバハウス","architect":"村山雄一","year":1992.0,"address":"東京都立川市幸町6-22-32","latitude":35.730125427246094,"longitude":139.42306518554688,"category":"ホール・劇場","big_category":"文化施設","description":"","image_url":"","tags":"","prefecture":"東京","contractor":"","structural_designer":"","landscape_designer":"","shinkenchiku_url":""},{"id":3210,"title":"創造の森 農園レストラン","architect":"村山雄一","year":1987.0,"address":"栃木県那須塩原市高林369","latitude":36.98380661010742,"longitude":139.93389892578125,"category":"カフェ","big_category":"商業施設","description":"冬期休業","image_url":"","tags":"","prefecture":"栃木","contractor":"","structural_designer":"","landscape_designer":"","shinkenchiku_url":""},{"id":3211,"title":"リリエンベルグ","architect":"村山雄一","year":2000.0,"address":"神奈川県川崎市麻生区上麻生4-18-1","latitude":35.595245361328125,"longitude":139.50576782226562,"category":"店舗","big_category":"商業施設","description":"","image_url":"","tags":"","prefecture":"神奈川","contractor":"","structural_designer":"","landscape_designer":"","shinkenchiku_url":""},{"id":3212,"title":"気流舎","architect":"村山雄一","year":2007.0,"address":"東京都世田谷区代沢5-29-17","latitude":35.6579475402832,"longitude":139.66737365722656,"category":"カフェ","big_category":"商業施設","description":"","image_url":"","tags":"","prefecture":"東京","contractor":"","structural_designer":"","landscape_designer":"","shinkenchiku_url":""},{"id":3213,"title":"メゾン・ド・ガトー","architect":"村山雄一","year":2010.0,"address":"神奈川県厚木市森の里1-34-2","latitude":35.44549560546875,"longitude":139.30897521972656,"category":"店舗","big_category":"商業施設","description":"","image_url":"","tags":"","prefecture":"神奈川","contractor":"","structural_designer":"","landscape_designer":"","shinkenchiku_url":""},{"id":3214,"title":"東京ウエルズ沼津テクニカルセンター","architect":"山本理顕","year":2001.0,"address":"静岡県沼津市宮本98-79","latitude":35.149845123291016,"longitude":138.83865356445312,"category":"企業施設","big_category":"企業施設","description":"","image_url":"","tags":"","prefecture":"静岡","contractor":"","structural_designer":"","landscape_designer":"","shinkenchiku_url":""},{"id":3215,"title":"上野警察署 動物園前交番","architect":"黒川哲郎","year":1992.0,"address":"東京都台東区上野公園9-83","latitude":35.7169303894043,"longitude":139.7701873779297,"category":"警察・消防署","big_category":"公共施設","description":"","image_url":"","tags":"","prefecture":"東京","contractor":"","structural_designer":"","landscape_designer":"","shinkenchiku_url":""},{"id":3216,"title":"立教新座中学校・高等学校 旧立教高等学校本館校舎","architect":"アントニン・レーモンド","year":1960.0,"address":"埼玉県新座市北野1-2-25","latitude":35.81505584716797,"longitude":139.5675811767578,"category":"学校","big_category":"教育","description":"","image_url":"","tags":"","prefecture":"埼玉","contractor":"","structural_designer":"","landscape_designer":"","shinkenchiku_url":""},{"id":3217,"title":"ノートルダム清心女子大学 本館・東棟 旧清心高等女学校","architect":"アントニン・レーモンド","year":1929.0,"address":"岡山県岡山市北区伊福町2-16-9","latitude":34.67269515991211,"longitude":133.9171142578125,"category":"大学","big_category":"教育","description":"","image_url":"","tags":"DOCOMOMO","prefecture":"岡山","contractor":"⼤林組","structural_designer":"","landscape_designer":"","shinkenchiku_url":""},{"id":3218,"title":"フェリス女学院10号館 旧ライジングサン石油会社社宅","architect":"アントニン・レーモンド+ベドジフ・フォイエルシュタイン","year":1927.0,"address":"神奈川県横浜市中区山手町26","latitude":35.4361457824707,"longitude":139.64576721191406,"category":"大学","big_category":"教育","description":"","image_url":"","tags":"DOCOMOMO","prefecture":"神奈川","contractor":"","structural_designer":"","landscape_designer":"","shinkenchiku_url":""},{"id":3219,"title":"聖心女子学院 初等科校舎・教室","architect":"アントニン・レーモンド","year":1928.0,"address":"東京都港区白金4-11-1","latitude":35.64265441894531,"longitude":139.72605895996094,"category":"学校","big_category":"教育","description":"","image_url":"","tags":"","prefecture":"東京","contractor":"","structural_designer":"","landscape_designer":"","shinkenchiku_url":""},{"id":3220,"title":"豊岡市立出石中学校","architect":"宮脇檀","year":1999.0,"address":"兵庫県豊岡市出石町弘原202-1","latitude":35.46703338623047,"longitude":134.8689727783203,"category":"学校","big_category":"教育","description":"","image_url":"","tags":"","prefecture":"兵庫","contractor":"","structural_designer":"","landscape_designer":"","shinkenchiku_url":""},{"id":3221,"title":"星野リゾート リゾナーレ那須 別館 旧二期倶楽部 本館","architect":"渡辺明+クライン・ダイサム・アーキテクツ","year":1986.0,"address":"栃木県那須郡那須町高久乙道下2301","latitude":37.05796813964844,"longitude":139.97718811035156,"category":"ホテル","big_category":"宿泊","description":"星野リゾート傘下に。客室をクラインダイサムが改修。2019年11月1日オープン予定。東棟は2003年竣工山本・堀アーキテクツ設計。","image_url":"","tags":"","prefecture":"栃木","contractor":"","structural_designer":"","landscape_designer":"","shinkenchiku_url":""},{"id":3222,"title":"洛陽荘","architect":"渡辺明","year":2003.0,"address":"京都府京都市左京区岡崎法勝寺町77","latitude":35.01505661010742,"longitude":135.78866577148438,"category":"旅館","big_category":"宿泊","description":"","image_url":"","tags":"","prefecture":"京都","contractor":"","structural_designer":"","landscape_designer":"","shinkenchiku_url":""},{"id":3223,"title":"南青山SPICAギャラリー","architect":"渡辺明","year":1999.0,"address":"東京都港区南青山4-6-5","latitude":35.666446685791016,"longitude":139.7198028564453,"category":"ギャラリー","big_category":"ミュージアム","description":"","image_url":"","tags":"","prefecture":"東京","contractor":"","structural_designer":"","landscape_designer":"","shinkenchiku_url":""},{"id":3224,"title":"横浜市北山田地区センター","architect":"室伏次郎","year":1999.0,"address":"神奈川県横浜市都筑区北山田2-25-1","latitude":35.559085845947266,"longitude":139.59278869628906,"category":"公民館・交流施設","big_category":"公共施設","description":"","image_url":"","tags":"","prefecture":"神奈川","contractor":"","structural_designer":"","landscape_designer":"","shinkenchiku_url":""},{"id":3225,"title":"熊本県立天草工業高校","architect":"室伏次郎","year":1997.0,"address":"熊本県天草市亀場町亀川38-36","latitude":32.44584274291992,"longitude":130.20286560058594,"category":"学校","big_category":"教育","description":"くまもとアートポリス","image_url":"","tags":"","prefecture":"熊本","contractor":"","structural_designer":"","landscape_designer":"","shinkenchiku_url":""},{"id":3226,"title":"軽井沢オリンピック記念館","architect":"三輪正弘","year":1999.0,"address":"長野県北佐久郡軽井沢町発地1157-6","latitude":36.322689056396484,"longitude":138.597900390625,"category":"博物館","big_category":"ミュージアム","description":"","image_url":"","tags":"","prefecture":"長野","contractor":"","structural_designer":"","landscape_designer":"","shinkenchiku_url":""},{"id":3227,"title":"寿光院 釈迦堂 庫裏 書院","architect":"廣川明","year":1999.0,"address":"東京都江戸川区東小松川2-5-12","latitude":35.697120666503906,"longitude":139.86465454101562,"category":"寺院","big_category":"宗教","description":"","image_url":"","tags":"","prefecture":"東京","contractor":"","structural_designer":"","landscape_designer":"","shinkenchiku_url":""},{"id":3228,"title":"玉川地区地域活性化センター","architect":"アトリエノルド","year":1998.0,"address":"岩手県九戸郡野田村玉川第5地割45-4","latitude":40.08293533325195,"longitude":141.82748413085938,"category":"公民館・交流施設","big_category":"公共施設","description":"","image_url":"","tags":"","prefecture":"岩手","contractor":"","structural_designer":"","landscape_designer":"","shinkenchiku_url":""},{"id":3229,"title":"具志川ランセンター","architect":"長倉威彦+国建","year":1999.0,"address":"沖縄県うるま市字栄野比1212-4","latitude":26.400421142578125,"longitude":127.82630157470703,"category":"店舗","big_category":"商業施設","description":"","image_url":"","tags":"","prefecture":"沖縄","contractor":"","structural_designer":"","landscape_designer":"","shinkenchiku_url":""},{"id":3230,"title":"山寺芭蕉記念館","architect":"中村昌生","year":1989.0,"address":"山形県山形市山寺4223","latitude":38.30952835083008,"longitude":140.43893432617188,"category":"博物館","big_category":"ミュージアム","description":"","image_url":"","tags":"","prefecture":"山形","contractor":"","structural_designer":"","landscape_designer":"","shinkenchiku_url":""},{"id":3231,"title":"白鳥庭園 清羽亭","architect":"中村昌生","year":1990.0,"address":"愛知県名古屋市熱田区熱田西町2-5","latitude":35.126060485839844,"longitude":136.90066528320312,"category":"茶室","big_category":"住宅","description":"","image_url":"","tags":"","prefecture":"愛知","contractor":"","structural_designer":"","landscape_designer":"","shinkenchiku_url":""},{"id":3232,"title":"出羽遊心館","architect":"中村昌生","year":1994.0,"address":"山形県酒田市飯森山3-17-86","latitude":38.894229888916016,"longitude":139.81626892089844,"category":"ホール・劇場","big_category":"文化施設","description":"","image_url":"","tags":"公共建築百選","prefecture":"山形","contractor":"","structural_designer":"","landscape_designer":"","shinkenchiku_url":""},{"id":3233,"title":"新宿御苑 楽羽亭","architect":"中村昌生","year":1987.0,"address":"東京都新宿区内藤町 新宿御苑レストランゆりのき","latitude":35.686702728271484,"longitude":139.70814514160156,"category":"茶室","big_category":"住宅","description":"","image_url":"","tags":"","prefecture":"東京","contractor":"","structural_designer":"","landscape_designer":"","shinkenchiku_url":""},{"id":3234,"title":"大濠公園日本庭園 茶会館","architect":"中村昌生","year":1984.0,"address":"福岡県福岡市中央区大濠公園1","latitude":33.583038330078125,"longitude":130.37876892089844,"category":"茶室","big_category":"住宅","description":"","image_url":"","tags":"","prefecture":"福岡","contractor":"","structural_designer":"","landscape_designer":"","shinkenchiku_url":""},{"id":3235,"title":"むらさき野カントリークラブ 万葉亭","architect":"中村昌生","year":1989.0,"address":"岐阜県加茂郡八百津町久田見3115-1 ‎","latitude":35.523704528808594,"longitude":137.20545959472656,"category":"茶室","big_category":"住宅","description":"","image_url":"","tags":"","prefecture":"岐阜","contractor":"","structural_designer":"","landscape_designer":"","shinkenchiku_url":""},{"id":3236,"title":"駿府公園 紅葉山庭園 雲海・静月庵","architect":"中村昌生","year":2001.0,"address":"静岡県静岡市葵区駿府公園1-1 ","latitude":34.97996520996094,"longitude":138.3849334716797,"category":"茶室","big_category":"住宅","description":"","image_url":"","tags":"","prefecture":"静岡","contractor":"","structural_designer":"","landscape_designer":"","shinkenchiku_url":""},{"id":3237,"title":"セトレ マリーナびわ湖","architect":"芦澤竜一","year":2013.0,"address":"滋賀県守山市水保町1380","latitude":35.116722106933594,"longitude":135.94427490234375,"category":"ホテル","big_category":"宿泊","description":"","image_url":"","tags":"新建築2014年1月号","prefecture":"滋賀","contractor":"戸田建設","structural_designer":"S3 Associates","landscape_designer":"","shinkenchiku_url":"https://data.shinkenchiku.online/articles/SK_2014_01_150-0"},{"id":3238,"title":"セトレ ハイランドヴィラ ／ Wooden chapel","architect":"芦澤竜一","year":2008.0,"address":"兵庫県姫路市広嶺山224-26","latitude":34.87036895751953,"longitude":134.70396423339844,"category":"ホテル","big_category":"宿泊","description":"国民年金保養施設のリノベーション。2009年にWooden chapel増築","image_url":"","tags":"","prefecture":"兵庫","contractor":"","structural_designer":"","landscape_designer":"","shinkenchiku_url":""},{"id":3239,"title":"サニーヒルズ 南青山","architect":"隈研吾","year":2013.0,"address":"東京都港区南青山3-10-20","latitude":35.66569900512695,"longitude":139.71621704101562,"category":"店舗/カフェ","big_category":"商業施設,商業施設","description":"","image_url":"","tags":"新建築2014年1月号","prefecture":"東京","contractor":"佐藤秀","structural_designer":"佐藤淳構造設計事務所","landscape_designer":"","shinkenchiku_url":"https://data.shinkenchiku.online/articles/SK_2014_01_118-0"},{"id":3240,"title":"瀬戸内海国立公園 宮島弥山展望休憩所","architect":"三分一博志","year":2013.0,"address":"広島県廿日市市宮島町弥山","latitude":34.279544830322266,"longitude":132.3196563720703,"category":"公園","big_category":"レジャー施設","description":"基本デザイン設計：三分一博志 設計：広島県土木局営繕課","image_url":"","tags":"新建築2014年1月号","prefecture":"広島","contractor":"増岡組","structural_designer":"","landscape_designer":"","shinkenchiku_url":"https://data.shinkenchiku.online/articles/SK_2014_01_084-0"},{"id":3241,"title":"森の屋根ときのこ","architect":"西沢立衛+nendo","year":2013.0,"address":"京都府京都市左京区北白川瓜生山2-116","latitude":35.03683090209961,"longitude":135.79237365722656,"category":"オブジェ","big_category":"ミュージアム","description":"エキシビション。おそらく期間限定","image_url":"","tags":"新建築2014年1月号","prefecture":"京都","contractor":"山本興業","structural_designer":"Arup","landscape_designer":"","shinkenchiku_url":"https://data.shinkenchiku.online/articles/SK_2014_01_112-0"},{"id":3242,"title":"大東文化大学 東松山キャンパス M-COMMONS","architect":"日本設計","year":2013.0,"address":"埼玉県東松山市岩殿560","latitude":36.00133514404297,"longitude":139.36814880371094,"category":"大学","big_category":"教育","description":"","image_url":"","tags":"新建築2014年1月号","prefecture":"埼玉","contractor":"大成建設","structural_designer":"","landscape_designer":"オンサイト計画設計事務所","shinkenchiku_url":"https://data.shinkenchiku.online/articles/SK_2014_01_176-0"},{"id":3243,"title":"東京工業大学 緑が丘6号館","architect":"奥山信一+梓設計","year":2013.0,"address":"東京都目黒区大岡山2-12-1","latitude":35.608219146728516,"longitude":139.67901611328125,"category":"大学","big_category":"教育","description":"","image_url":"","tags":"新建築2014年1月号","prefecture":"東京","contractor":"戸田建設","structural_designer":"竹内徹研究室","landscape_designer":"","shinkenchiku_url":"https://data.shinkenchiku.online/articles/SK_2014_01_182-0"},{"id":3244,"title":"みずほコーポレート銀行本店 旧日本興業銀行本店","architect":"村野藤吾","year":1974.0,"address":"東京都千代田区丸の内1-3-3","latitude":35.68416976928711,"longitude":139.763916015625,"category":"オフィスビル/金融機関","big_category":"企業施設,企業施設","description":"解体","image_url":"","tags":"","prefecture":"東京","contractor":"","structural_designer":"","landscape_designer":"","shinkenchiku_url":""},{"id":3245,"title":"高槻日吉台教会","architect":"毛綱毅曠","year":1970.0,"address":"大阪府高槻市日吉台二番町3-16","latitude":34.87099075317383,"longitude":135.61398315429688,"category":"教会","big_category":"宗教","description":"","image_url":"","tags":"","prefecture":"大阪","contractor":"","structural_designer":"","landscape_designer":"","shinkenchiku_url":""},{"id":3246,"title":"ロームシアター京都 旧京都会館","architect":"前川國男+香山壽夫","year":1960.0,"address":"京都府京都市左京区岡崎最勝寺町13","latitude":35.01437759399414,"longitude":135.78067016601562,"category":"ホール・劇場","big_category":"文化施設","description":"2015年にメインホールを香山壽夫設計で新築。名称もロームシアター京都に。","image_url":"","tags":"1960年日本建築学会 作品賞,DOCOMOMO,新建築2016年3月号,第02回BCS賞 (1961),2021年公共建築賞","prefecture":"京都","contractor":"","structural_designer":"","landscape_designer":"","shinkenchiku_url":""},{"id":3247,"title":"J ROOM","architect":"安藤忠雄","year":1987.0,"address":"愛知県名古屋市中区錦3-15-35","latitude":35.17151641845703,"longitude":136.906982421875,"category":"オフィスビル","big_category":"企業施設","description":"2021年解体済み","image_url":"","tags":"","prefecture":"愛知","contractor":"","structural_designer":"","landscape_designer":"","shinkenchiku_url":""},{"id":3248,"title":"UR都市機構 公団南船場・在宅ワーク型住宅","architect":"安藤忠雄","year":2002.0,"address":"大阪府大阪市中央区南船場2-6-12","latitude":34.67619323730469,"longitude":135.5047607421875,"category":"集合住宅","big_category":"住宅","description":"","image_url":"","tags":"","prefecture":"大阪","contractor":"","structural_designer":"","landscape_designer":"","shinkenchiku_url":""},{"id":3249,"title":"BIGI 3rd","architect":"安藤忠雄","year":1986.0,"address":"大阪府大阪市中央区東心斎橋1-19-2","latitude":34.674591064453125,"longitude":135.50320434570312,"category":"オフィスビル","big_category":"企業施設","description":"","image_url":"","tags":"","prefecture":"大阪","contractor":"","structural_designer":"","landscape_designer":"","shinkenchiku_url":""},{"id":3250,"title":"B-Lock北山","architect":"安藤忠雄","year":1988.0,"address":"京都府京都市北区上賀茂岩ヶ垣内町41","latitude":35.05134582519531,"longitude":135.7637176513672,"category":"テナントビル","big_category":"商業施設","description":"","image_url":"","tags":"","prefecture":"京都","contractor":"","structural_designer":"","landscape_designer":"","shinkenchiku_url":""}]}