{"page":183,"total_pages":290,"items_per_page":50,"total_items":14467,"items":[{"id":9101,"title":"福祉型障がい児入所施設 まごころ園","architect":"山下秀之","year":2018.0,"address":"新潟県見附市田井町4476","latitude":37.501670837402344,"longitude":138.92588806152344,"category":"養護施設","big_category":"医療施設","description":"","image_url":"","tags":"第29回AACA賞,Ver3.30(2020年2月)の追加建築","prefecture":"新潟","contractor":"","structural_designer":"","landscape_designer":"","shinkenchiku_url":""},{"id":9102,"title":"由布市庄内公民館","architect":"昭和設計","year":2018.0,"address":"大分県由布市庄内町大龍1400","latitude":33.17880630493164,"longitude":131.4309539794922,"category":"公民館・交流施設","big_category":"公共施設","description":"","image_url":"","tags":"Ver3.30(2020年2月)の追加建築","prefecture":"大分","contractor":"","structural_designer":"","landscape_designer":"","shinkenchiku_url":""},{"id":9103,"title":"三浦工業本社ショールーム","architect":"竹中工務店","year":2018.0,"address":"愛媛県松山市堀江町7","latitude":33.89739227294922,"longitude":132.74937438964844,"category":"博物館/企業施設","big_category":"ミュージアム,企業施設","description":"","image_url":"","tags":"Ver3.30(2020年2月)の追加建築","prefecture":"愛媛","contractor":"","structural_designer":"","landscape_designer":"","shinkenchiku_url":""},{"id":9104,"title":"グローリー株式会社 百年記念会館 GLORY Collaboration Hub","architect":"NTTファシリティーズ","year":2018.0,"address":"兵庫県姫路市下手野1-83-30","latitude":34.84148025512695,"longitude":134.65225219726562,"category":"研修施設","big_category":"教育","description":"","image_url":"","tags":"Ver3.30(2020年2月)の追加建築,新建築2020年6月号","prefecture":"兵庫","contractor":"","structural_designer":"","landscape_designer":"","shinkenchiku_url":""},{"id":9105,"title":"ふふ 河口湖","architect":"竹中工務店","year":2018.0,"address":"山梨県南都留郡富士河口湖町河口水口2211-1","latitude":35.528236389160156,"longitude":138.7599334716797,"category":"ホテル","big_category":"宿泊","description":"","image_url":"","tags":"Ver3.30(2020年2月)の追加建築","prefecture":"山梨","contractor":"","structural_designer":"","landscape_designer":"","shinkenchiku_url":""},{"id":9106,"title":"女川町庁舎","architect":"竹中工務店","year":2018.0,"address":"宮城県牡鹿郡女川町女川浜女川212-2","latitude":38.44538879394531,"longitude":141.44320678710938,"category":"庁舎/総合文化施設/児童施設","big_category":"公共施設,文化施設,教育","description":"","image_url":"","tags":"Ver3.30(2020年2月)の追加建築","prefecture":"宮城","contractor":"","structural_designer":"","landscape_designer":"","shinkenchiku_url":""},{"id":9107,"title":"ホテルヴィスキオ大阪","architect":"安井建築設計","year":2018.0,"address":"大阪府大阪市北区芝田2-4-10","latitude":34.706214904785156,"longitude":135.49537658691406,"category":"ホテル","big_category":"宿泊","description":"","image_url":"","tags":"Ver3.30(2020年2月)の追加建築","prefecture":"大阪","contractor":"","structural_designer":"","landscape_designer":"","shinkenchiku_url":""},{"id":9108,"title":"洗足学園音楽大学 White Castle","architect":"竹中工務店","year":2018.0,"address":"神奈川県川崎市高津区久本2-3-1","latitude":35.5943603515625,"longitude":139.61676025390625,"category":"大学/ホール・劇場","big_category":"教育,文化施設","description":"","image_url":"","tags":"Ver3.30(2020年2月)の追加建築","prefecture":"神奈川","contractor":"","structural_designer":"","landscape_designer":"","shinkenchiku_url":""},{"id":9109,"title":"兵庫大学附属加古川幼稚園","architect":"竹中工務店","year":2018.0,"address":"兵庫県加古川市平岡町新在家230","latitude":34.747703552246094,"longitude":134.8807830810547,"category":"幼稚園","big_category":"教育","description":"","image_url":"","tags":"Ver3.30(2020年2月)の追加建築","prefecture":"兵庫","contractor":"竹中工務店","structural_designer":"","landscape_designer":"","shinkenchiku_url":""},{"id":9110,"title":"宝ホールディングス歴史記念館","architect":"竹中工務店","year":2017.0,"address":"京都府京都市伏見区竹中町609","latitude":34.93737030029297,"longitude":135.76248168945312,"category":"研修施設","big_category":"教育","description":"一般公開は予定されていない","image_url":"","tags":"Ver3.30(2020年2月)の追加建築","prefecture":"京都","contractor":"","structural_designer":"","landscape_designer":"","shinkenchiku_url":""},{"id":9111,"title":"千葉日本大学第一中学校・高等学校","architect":"竹中工務店","year":2017.0,"address":"千葉県船橋市習志野台8-34-1","latitude":35.718658447265625,"longitude":140.05850219726562,"category":"学校","big_category":"教育","description":"","image_url":"","tags":"Ver3.30(2020年2月)の追加建築","prefecture":"千葉","contractor":"","structural_designer":"","landscape_designer":"","shinkenchiku_url":""},{"id":9112,"title":"びわこ成蹊スポーツ大学 中央棟","architect":"竹中工務店","year":2017.0,"address":"滋賀県大津市北比良1204","latitude":35.226890563964844,"longitude":135.94927978515625,"category":"大学","big_category":"教育","description":"","image_url":"","tags":"Ver3.30(2020年2月)の追加建築","prefecture":"滋賀","contractor":"","structural_designer":"","landscape_designer":"","shinkenchiku_url":""},{"id":9113,"title":"神戸海星女子学院マリア幼稚園","architect":"竹中工務店","year":2017.0,"address":"兵庫県西宮市木津山町5-5-26","latitude":34.74598693847656,"longitude":135.32015991210938,"category":"幼稚園","big_category":"教育","description":"","image_url":"","tags":"Ver3.30(2020年2月)の追加建築","prefecture":"兵庫","contractor":"","structural_designer":"","landscape_designer":"","shinkenchiku_url":""},{"id":9114,"title":"井口洋夫記念ホール","architect":"竹中工務店","year":2018.0,"address":"愛知県長久手市横道41-1","latitude":35.17082214355469,"longitude":137.05540466308594,"category":"博物館/企業施設","big_category":"ミュージアム,企業施設","description":"見学出来るかは不明","image_url":"","tags":"Ver3.30(2020年2月)の追加建築","prefecture":"愛知","contractor":"","structural_designer":"","landscape_designer":"","shinkenchiku_url":""},{"id":9115,"title":"朝霧カントリークラブ クラブハウス","architect":"竹中工務店","year":2017.0,"address":"静岡県富士宮市根原380","latitude":35.404052734375,"longitude":138.60528564453125,"category":"クラブハウス","big_category":"レジャー施設","description":"","image_url":"","tags":"Ver3.30(2020年2月)の追加建築","prefecture":"静岡","contractor":"","structural_designer":"","landscape_designer":"","shinkenchiku_url":""},{"id":9116,"title":"天心聖教 長崎聖堂","architect":"竹中工務店","year":2017.0,"address":"長崎県長崎市女の都3-5-16","latitude":32.80708312988281,"longitude":129.88214111328125,"category":"宗教施設","big_category":"宗教","description":"","image_url":"","tags":"Ver3.30(2020年2月)の追加建築","prefecture":"長崎","contractor":"","structural_designer":"","landscape_designer":"","shinkenchiku_url":""},{"id":9117,"title":"天心聖教 仙台礼拝堂","architect":"竹中工務店","year":2014.0,"address":"宮城県仙台市青葉区栗生 天心聖教仙台礼拝堂","latitude":38.266273498535156,"longitude":140.7859344482422,"category":"宗教施設","big_category":"宗教","description":"","image_url":"","tags":"Ver3.30(2020年2月)の追加建築","prefecture":"宮城","contractor":"","structural_designer":"","landscape_designer":"","shinkenchiku_url":""},{"id":9118,"title":"寒川神社 社務所新館","architect":"竹中工務店","year":2016.0,"address":"神奈川県高座郡寒川町宮山 寒川神社","latitude":35.37867736816406,"longitude":139.3833770751953,"category":"寺院/宗教施設","big_category":"宗教,宗教","description":"","image_url":"","tags":"Ver3.30(2020年2月)の追加建築","prefecture":"神奈川","contractor":"","structural_designer":"","landscape_designer":"","shinkenchiku_url":""},{"id":9119,"title":"寒川神社 管理棟・休憩所 鎮守の杜Koyo","architect":"竹中工務店","year":2013.0,"address":"神奈川県高座郡寒川町宮山3861","latitude":35.37874984741211,"longitude":139.38194274902344,"category":"カフェ/宗教施設","big_category":"商業施設,宗教","description":"","image_url":"","tags":"Ver3.30(2020年2月)の追加建築","prefecture":"神奈川","contractor":"","structural_designer":"","landscape_designer":"","shinkenchiku_url":""},{"id":9120,"title":"無原罪聖母修道院 黙想","architect":"竹中工務店","year":2013.0,"address":"東京都練馬区上石神井4-32-11","latitude":35.72960662841797,"longitude":139.583251953125,"category":"宗教施設/研修施設","big_category":"宗教,教育","description":"","image_url":"","tags":"Ver3.30(2020年2月)の追加建築","prefecture":"東京","contractor":"","structural_designer":"","landscape_designer":"","shinkenchiku_url":""},{"id":9121,"title":"天心聖教 伊勢礼拝堂","architect":"竹中工務店","year":2012.0,"address":"三重県いなべ市大安町石榑東1860","latitude":35.10834503173828,"longitude":136.5220489501953,"category":"宗教施設","big_category":"宗教","description":"","image_url":"","tags":"Ver3.30(2020年2月)の追加建築","prefecture":"三重","contractor":"","structural_designer":"","landscape_designer":"","shinkenchiku_url":""},{"id":9122,"title":"神慈秀明会 名古屋支部","architect":"竹中工務店","year":2012.0,"address":"愛知県名古屋市千種区堀割町2-13","latitude":35.16810989379883,"longitude":136.9508819580078,"category":"宗教施設","big_category":"宗教","description":"","image_url":"","tags":"Ver3.30(2020年2月)の追加建築","prefecture":"愛知","contractor":"","structural_designer":"","landscape_designer":"","shinkenchiku_url":""},{"id":9123,"title":"正導会教団 神野修行所","architect":"竹中工務店","year":2011.0,"address":"兵庫県加古川市神野町福留761","latitude":34.76648712158203,"longitude":134.88754272460938,"category":"宗教施設","big_category":"宗教","description":"","image_url":"","tags":"Ver3.30(2020年2月)の追加建築","prefecture":"兵庫","contractor":"","structural_designer":"","landscape_designer":"","shinkenchiku_url":""},{"id":9124,"title":"南禅会館","architect":"竹中工務店","year":2011.0,"address":"京都府京都市左京区南禅寺福地町86","latitude":35.01149368286133,"longitude":135.79075622558594,"category":"研修施設/その他宿泊施設/宗教施設","big_category":"教育,宿泊,宗教","description":"誰でも宿泊可能","image_url":"","tags":"Ver3.30(2020年2月)の追加建築","prefecture":"京都","contractor":"","structural_designer":"","landscape_designer":"","shinkenchiku_url":""},{"id":9125,"title":"天心聖教 本部聖堂","architect":"竹中工務店","year":2006.0,"address":"東京都文京区本駒込6-10-21","latitude":35.73088455200195,"longitude":139.7451934814453,"category":"宗教施設","big_category":"宗教","description":"","image_url":"","tags":"Ver3.30(2020年2月)の追加建築","prefecture":"東京","contractor":"","structural_designer":"","landscape_designer":"","shinkenchiku_url":""},{"id":9126,"title":"妙智會 九州教会","architect":"竹中工務店","year":2005.0,"address":"福岡県福岡市早良区早良7-4","latitude":33.49512481689453,"longitude":130.3343505859375,"category":"宗教施設","big_category":"宗教","description":"","image_url":"","tags":"Ver3.30(2020年2月)の追加建築","prefecture":"福岡","contractor":"","structural_designer":"","landscape_designer":"","shinkenchiku_url":""},{"id":9127,"title":"大阪信愛女学院 聖堂","architect":"竹中工務店","year":2004.0,"address":"大阪府大阪市城東区古市2-7","latitude":34.71120071411133,"longitude":135.5595703125,"category":"教会","big_category":"宗教","description":"","image_url":"","tags":"Ver3.30(2020年2月)の追加建築","prefecture":"大阪","contractor":"","structural_designer":"","landscape_designer":"","shinkenchiku_url":""},{"id":9128,"title":"猿倉山ビール醸造所","architect":"鹿島建設","year":2018.0,"address":"新潟県南魚沼市193-1","latitude":37.11146926879883,"longitude":138.93246459960938,"category":"醸造所","big_category":"商業施設","description":"","image_url":"","tags":"Ver3.30(2020年2月)の追加建築","prefecture":"新潟","contractor":"","structural_designer":"","landscape_designer":"","shinkenchiku_url":""},{"id":9129,"title":"ラグーナベイコート倶楽部 ホテル&スパリゾート","architect":"安井建築設計","year":2019.0,"address":"愛知県蒲郡市海陽町2-9-1","latitude":34.805686950683594,"longitude":137.2808074951172,"category":"ホテル","big_category":"宿泊","description":"","image_url":"","tags":"Ver3.30(2020年2月)の追加建築","prefecture":"愛知","contractor":"","structural_designer":"","landscape_designer":"","shinkenchiku_url":""},{"id":9130,"title":"気仙沼図書館・気仙沼児童センター","architect":"岡田新一設計事務所","year":2018.0,"address":"宮城県気仙沼市笹が陣3-30","latitude":38.902034759521484,"longitude":141.57293701171875,"category":"図書館/児童施設","big_category":"文化施設,教育","description":"","image_url":"","tags":"Ver3.30(2020年2月)の追加建築","prefecture":"宮城","contractor":"","structural_designer":"","landscape_designer":"","shinkenchiku_url":""},{"id":9131,"title":"福島県立ふたば未来学園中学校・高等学校","architect":"辺見美津男+阿部直人","year":2018.0,"address":"福島県双葉郡広野町中央台1-6-3","latitude":37.213401794433594,"longitude":140.9954071044922,"category":"学校","big_category":"教育","description":"","image_url":"","tags":"Ver3.30(2020年2月)の追加建築","prefecture":"福島","contractor":"","structural_designer":"","landscape_designer":"","shinkenchiku_url":""},{"id":9132,"title":"習志野市新庁舎","architect":"佐藤総合計画","year":2018.0,"address":"千葉県習志野市鷺沼2-1-1","latitude":35.681610107421875,"longitude":140.02720642089844,"category":"庁舎","big_category":"公共施設","description":"","image_url":"","tags":"Ver3.30(2020年2月)の追加建築","prefecture":"千葉","contractor":"清水建設","structural_designer":"","landscape_designer":"","shinkenchiku_url":""},{"id":9133,"title":"ライフクリニック蓼科","architect":"八木惣一郎","year":2017.0,"address":"長野県茅野市豊平3317-1","latitude":36.021522521972656,"longitude":138.2060089111328,"category":"個人医院/カフェ","big_category":"医療施設,商業施設","description":"","image_url":"","tags":"Ver3.30(2020年2月)の追加建築","prefecture":"長野","contractor":"","structural_designer":"","landscape_designer":"","shinkenchiku_url":""},{"id":9134,"title":"レジーナリゾート 旧軽井沢","architect":"梓設計","year":2017.0,"address":"長野県北佐久郡軽井沢町大字軽井沢389−0111","latitude":36.346378326416016,"longitude":138.6191864013672,"category":"ホテル","big_category":"宿泊","description":"","image_url":"","tags":"Ver3.30(2020年2月)の追加建築","prefecture":"長野","contractor":"","structural_designer":"","landscape_designer":"","shinkenchiku_url":""},{"id":9135,"title":"丸山海苔店 筑波工場店","architect":"白浜誠","year":2012.0,"address":"茨城県つくばみらい市福岡2318-5","latitude":36.03053665161133,"longitude":140.04751586914062,"category":"店舗/工場","big_category":"商業施設,企業施設","description":"白浜誠設計という情報と隈研吾設計という情報がありました。白浜誠氏の独立とほぼ同時期の竣工なのでここでは白浜誠としておきます。","image_url":"","tags":"Ver3.30(2020年2月)の追加建築","prefecture":"茨城","contractor":"","structural_designer":"","landscape_designer":"","shinkenchiku_url":""},{"id":9136,"title":"宍戸庵 宍戸カントリークラブ クラブハウス","architect":"白浜誠","year":2019.0,"address":"茨城県笠間市南小泉1340","latitude":36.32539367675781,"longitude":140.2799835205078,"category":"クラブハウス","big_category":"レジャー施設","description":"西コース利用者のためのクラブハウス。正確な位置が若干ズレていると思われます","image_url":"","tags":"Ver3.30(2020年2月)の追加建築","prefecture":"茨城","contractor":"","structural_designer":"","landscape_designer":"","shinkenchiku_url":""},{"id":9137,"title":"クスリのアオキ本社","architect":"小堀哲夫","year":2019.0,"address":"石川県白山市横江町4街区1","latitude":36.54591369628906,"longitude":136.58493041992188,"category":"低層オフィス","big_category":"企業施設","description":"","image_url":"","tags":"Ver3.30(2020年2月)の追加建築","prefecture":"石川","contractor":"","structural_designer":"","landscape_designer":"","shinkenchiku_url":""},{"id":9138,"title":"龕建築デザイン事務所","architect":"泉本晋一","year":2004.0,"address":"埼玉県狭山市入間川4-20-31","latitude":35.852115631103516,"longitude":139.40318298339844,"category":"低層オフィス/レストラン","big_category":"企業施設,商業施設","description":"","image_url":"","tags":"Ver3.30(2020年2月)の追加建築","prefecture":"埼玉","contractor":"","structural_designer":"","landscape_designer":"","shinkenchiku_url":""},{"id":9139,"title":"新潟県立新発田高等学校","architect":"木村博幸","year":2009.0,"address":"新潟県新発田市豊町3-7-6","latitude":37.939693450927734,"longitude":139.33688354492188,"category":"学校","big_category":"教育","description":"","image_url":"","tags":"Ver3.30(2020年2月)の追加建築","prefecture":"新潟","contractor":"","structural_designer":"","landscape_designer":"","shinkenchiku_url":""},{"id":9140,"title":"国立妙高少年自然の家","architect":"木村博幸","year":1991.0,"address":"新潟県妙高市大字関山6323-2","latitude":36.91416549682617,"longitude":138.19561767578125,"category":"研修施設/コテージ","big_category":"教育,宿泊","description":"","image_url":"","tags":"Ver3.30(2020年2月)の追加建築","prefecture":"新潟","contractor":"","structural_designer":"","landscape_designer":"","shinkenchiku_url":""},{"id":9141,"title":"日本橋旧テーラー堀屋改修","architect":"三井嶺","year":2016.0,"address":"東京都中央区日本橋本町3-6-5","latitude":35.68894577026367,"longitude":139.7765655517578,"category":"テナントビル","big_category":"商業施設","description":"看板建築の改修。現在「江戸切子の店 華硝」が入居","image_url":"","tags":"第29回AACA 奨励賞,Ver3.30(2020年2月)の追加建築","prefecture":"東京","contractor":"","structural_designer":"","landscape_designer":"","shinkenchiku_url":""},{"id":9142,"title":"I Livビル","architect":"日建設計","year":2018.0,"address":"東京都中央区銀座5-7-6","latitude":35.67091369628906,"longitude":139.76438903808594,"category":"テナントビル/オフィスビル","big_category":"商業施設,企業施設","description":"","image_url":"","tags":"第29回AACA 美術工芸賞,Ver3.30(2020年2月)の追加建築","prefecture":"東京","contractor":"","structural_designer":"","landscape_designer":"","shinkenchiku_url":""},{"id":9143,"title":"伊根の舟屋 風雅","architect":"京谷友也","year":2018.0,"address":"京都府与謝郡伊根町字平田545","latitude":35.67491149902344,"longitude":135.28884887695312,"category":"古民家/コテージ","big_category":"近代建築/遺産,宿泊","description":"伊根浦の伝統的な建築を改修。一棟貸しの宿として運営","image_url":"","tags":"第28回AACA 奨励賞,Ver3.30(2020年2月)の追加建築","prefecture":"京都","contractor":"","structural_designer":"","landscape_designer":"","shinkenchiku_url":""},{"id":9144,"title":"薬師寺食堂 復興事業","architect":"竹中工務店+伊東豊雄","year":2017.0,"address":"奈良県奈良市西ノ京町375","latitude":34.66920852661133,"longitude":135.78433227539062,"category":"寺院","big_category":"宗教","description":"内部基本設計を伊東豊雄","image_url":"","tags":"第28回AACA 特別賞,Ver3.30(2020年2月)の追加建築","prefecture":"奈良","contractor":"","structural_designer":"","landscape_designer":"","shinkenchiku_url":""},{"id":9145,"title":"神宮前スタジオ A-gallery","architect":"三井嶺","year":2016.0,"address":"東京都渋谷区神宮前5-18-8","latitude":35.66545104980469,"longitude":139.7056427001953,"category":"ギャラリー","big_category":"ミュージアム","description":"","image_url":"","tags":"Ver3.30(2020年2月)の追加建築","prefecture":"東京","contractor":"","structural_designer":"","landscape_designer":"","shinkenchiku_url":""},{"id":9146,"title":"ヤキトリてっちゃん talking GORILLA","architect":"隈研吾","year":2019.0,"address":"東京都世田谷区北沢2-24-2 シモキタエキウエ","latitude":35.6612548828125,"longitude":139.66680908203125,"category":"店舗","big_category":"商業施設","description":"","image_url":"","tags":"Ver3.30(2020年2月)の追加建築","prefecture":"東京","contractor":"","structural_designer":"","landscape_designer":"","shinkenchiku_url":""},{"id":9147,"title":"日本橋三越本店 白く輝く森","architect":"隈研吾","year":2018.0,"address":"東京都中央区日本橋室町1-4-1 日本橋三越本店1F","latitude":35.685462951660156,"longitude":139.77349853515625,"category":"モール","big_category":"商業施設","description":"","image_url":"","tags":"Ver3.30(2020年2月)の追加建築","prefecture":"東京","contractor":"","structural_designer":"","landscape_designer":"","shinkenchiku_url":""},{"id":9148,"title":"土浦市営斎場","architect":"アール・アイ・エー","year":2016.0,"address":"茨城県土浦市田中2-16-33","latitude":36.0894889831543,"longitude":140.18360900878906,"category":"斎場","big_category":"公共施設","description":"","image_url":"","tags":"Ver3.30(2020年2月)の追加建築","prefecture":"茨城","contractor":"","structural_designer":"","landscape_designer":"","shinkenchiku_url":""},{"id":9149,"title":"仁淀川町本庁舎","architect":"久米設計+ASA設計事務所","year":2017.0,"address":"高知県吾川郡仁淀川町大崎200","latitude":33.575191497802734,"longitude":133.1709442138672,"category":"庁舎","big_category":"公共施設","description":"","image_url":"","tags":"Ver3.30(2020年2月)の追加建築","prefecture":"高知","contractor":"","structural_designer":"","landscape_designer":"","shinkenchiku_url":""},{"id":9150,"title":"お倉が浜Kidsクリニック","architect":"松山将勝","year":2018.0,"address":"宮崎県日向市大字財光寺1737-1","latitude":32.39897918701172,"longitude":131.6296844482422,"category":"個人医院","big_category":"医療施設","description":"","image_url":"","tags":"Ver3.30(2020年2月)の追加建築","prefecture":"宮崎","contractor":"","structural_designer":"","landscape_designer":"","shinkenchiku_url":""}]}