{"page":98,"total_pages":290,"items_per_page":50,"total_items":14467,"items":[{"id":4851,"title":"京都教育文化センター","architect":"西山夘三","year":1964.0,"address":"京都府京都市左京区聖護院川原町4-13","latitude":35.01820755004883,"longitude":135.7755126953125,"category":"展示・会議場/研修施設","big_category":"公共施設,教育","description":"","image_url":"","tags":"","prefecture":"京都","contractor":"","structural_designer":"","landscape_designer":"","shinkenchiku_url":""},{"id":4852,"title":"流山市おおたかの森小学校・中学校 おおたかの森センター こども図書館","architect":"シーラカンスアンドアソシエイツ","year":2015.0,"address":"千葉県流山市市野谷624-1","latitude":35.866981506347656,"longitude":139.9168243408203,"category":"学校/図書館/児童施設","big_category":"教育,文化施設,教育","description":"","image_url":"","tags":"2016年日本建築学会 作品賞,新建築2015年6月号","prefecture":"千葉","contractor":"","structural_designer":"","landscape_designer":"","shinkenchiku_url":""},{"id":4853,"title":"京都アートホステル クマグスク","architect":"ドットアーキテクツ","year":2015.0,"address":"京都府京都市中京区壬生馬場町37-3","latitude":35.006431579589844,"longitude":135.74600219726562,"category":"ホステル/ギャラリー","big_category":"宿泊,ミュージアム","description":"","image_url":"","tags":"新建築2016年3月号","prefecture":"京都","contractor":"","structural_designer":"","landscape_designer":"","shinkenchiku_url":""},{"id":4854,"title":"RIZE&WIN Brewing CO. BBQ&General Store","architect":"中村拓志","year":2015.0,"address":"徳島県勝浦郡上勝町正木平間237-2","latitude":33.91922378540039,"longitude":134.42666625976562,"category":"レストラン/店舗/工場","big_category":"商業施設,商業施設,企業施設","description":"2015年5月オープン予定","image_url":"","tags":"","prefecture":"徳島","contractor":"","structural_designer":"","landscape_designer":"","shinkenchiku_url":""},{"id":4855,"title":"直島パヴィリオン","architect":"藤本壮介","year":2015.0,"address":"香川県香川郡直島町（その他）-3771","latitude":34.455814361572266,"longitude":133.9754638671875,"category":"オブジェ","big_category":"ミュージアム","description":"","image_url":"","tags":"瀬戸内国際芸術祭,新建築2015年7月号","prefecture":"香川","contractor":"","structural_designer":"","landscape_designer":"","shinkenchiku_url":""},{"id":4856,"title":"キュープラザ原宿","architect":"クライン・ダイサム・アーキテクツ","year":2015.0,"address":"東京都渋谷区神宮前6-28-6","latitude":35.66693878173828,"longitude":139.70408630371094,"category":"テナントビル","big_category":"商業施設","description":"","image_url":"","tags":"","prefecture":"東京","contractor":"","structural_designer":"","landscape_designer":"","shinkenchiku_url":""},{"id":4857,"title":"なかまちテラス","architect":"妹島和世","year":2014.0,"address":"東京都小平市仲町145","latitude":35.73080062866211,"longitude":139.48492431640625,"category":"公民館・交流施設/図書館","big_category":"公共施設,文化施設","description":"","image_url":"","tags":"新建築2015年5月号","prefecture":"東京","contractor":"","structural_designer":"","landscape_designer":"","shinkenchiku_url":""},{"id":4858,"title":"A-School Project 葵メディカルアカデミー","architect":"藤原徹平","year":2015.0,"address":"埼玉県深谷市西島町3-14-4 ‎","latitude":36.19342041015625,"longitude":139.28048706054688,"category":"専門学校","big_category":"教育","description":"","image_url":"","tags":"新建築2015年5月号","prefecture":"埼玉","contractor":"","structural_designer":"","landscape_designer":"","shinkenchiku_url":""},{"id":4859,"title":"アストラムライン 新白島駅","architect":"シーラカンスアンドアソシエイツ","year":2015.0,"address":"広島県広島市中区西白島町1","latitude":34.408424377441406,"longitude":132.4608917236328,"category":"駅","big_category":"インフラ","description":"","image_url":"","tags":"新建築2016年1月号","prefecture":"広島","contractor":"","structural_designer":"","landscape_designer":"","shinkenchiku_url":""},{"id":4860,"title":"あさひ幼稚園","architect":"手塚建築研究所","year":2012.0,"address":"宮城県本吉郡南三陸町志津川字沼田100-62","latitude":38.68232345581055,"longitude":141.46055603027344,"category":"幼稚園","big_category":"教育","description":"竣工後増築された","image_url":"","tags":"新建築2017年7月号","prefecture":"宮城","contractor":"","structural_designer":"","landscape_designer":"","shinkenchiku_url":""},{"id":4861,"title":"読売北海道ビル","architect":"三菱地所","year":2006.0,"address":"北海道札幌市中央区北4条西4-","latitude":43.06630325317383,"longitude":141.3494110107422,"category":"オフィスビル","big_category":"企業施設","description":"","image_url":"","tags":"","prefecture":"北海道","contractor":"","structural_designer":"","landscape_designer":"","shinkenchiku_url":""},{"id":4862,"title":"前橋工科大学クラブハウス","architect":"石田敏明","year":2005.0,"address":"群馬県前橋市上佐鳥町460-1","latitude":36.364479064941406,"longitude":139.08096313476562,"category":"大学","big_category":"教育","description":"","image_url":"","tags":"","prefecture":"群馬","contractor":"","structural_designer":"","landscape_designer":"","shinkenchiku_url":""},{"id":4863,"title":"猪苗代のギャラリー","architect":"柴﨑恭秀","year":2013.0,"address":"福島県耶麻郡猪苗代町新町4925","latitude":37.563533782958984,"longitude":140.10777282714844,"category":"ギャラリー/住宅","big_category":"ミュージアム,住宅","description":"案内板は出ているが一般見学不可。","image_url":"","tags":"2015年日本建築学会 作品選奨,新建築2015年7月号","prefecture":"福島","contractor":"","structural_designer":"","landscape_designer":"","shinkenchiku_url":""},{"id":4864,"title":"浦添大公園南エントランス管理事務所","architect":"金城春野","year":2014.0,"address":"沖縄県浦添市伊祖5- ‎浦添大公園","latitude":26.25456428527832,"longitude":127.72665405273438,"category":"公共施設","big_category":"公共施設","description":"","image_url":"","tags":"","prefecture":"沖縄","contractor":"","structural_designer":"","landscape_designer":"","shinkenchiku_url":""},{"id":4865,"title":"白馬東急ホテル","architect":"坂倉準三","year":1959.0,"address":"長野県北安曇郡白馬村北城八方4668","latitude":36.706146240234375,"longitude":137.83924865722656,"category":"ホテル","big_category":"宿泊","description":"恐らくメインロビー棟のみ現存","image_url":"","tags":"","prefecture":"長野","contractor":"","structural_designer":"","landscape_designer":"","shinkenchiku_url":""},{"id":4866,"title":"としまエコミューゼタウン","architect":"隈研吾+日本設計","year":2015.0,"address":"東京都豊島区南池袋2-45-1","latitude":35.72621154785156,"longitude":139.71665954589844,"category":"庁舎/集合住宅","big_category":"公共施設,住宅","description":"","image_url":"","tags":"新建築2015年5月号","prefecture":"東京","contractor":"","structural_designer":"","landscape_designer":"","shinkenchiku_url":""},{"id":4867,"title":"ベラビスタ境ガ浜 THE DECK & BLUE TERRACE","architect":"中村拓志","year":2014.0,"address":"広島県尾道市浦崎町大平木1344-2","latitude":34.39226150512695,"longitude":133.28759765625,"category":"ホテル","big_category":"宿泊","description":"ホテル内のプール、テラス部分の設計","image_url":"","tags":"","prefecture":"広島","contractor":"","structural_designer":"","landscape_designer":"","shinkenchiku_url":""},{"id":4868,"title":"ビオトープ大阪","architect":"谷尻誠","year":2014.0,"address":"大阪府大阪市西区南堀江1-16-1","latitude":34.67088317871094,"longitude":135.49542236328125,"category":"カフェ","big_category":"商業施設","description":"","image_url":"","tags":"","prefecture":"大阪","contractor":"","structural_designer":"","landscape_designer":"","shinkenchiku_url":""},{"id":4869,"title":"ブルーボトルコーヒー 青山カフェ","architect":"長坂常","year":2015.0,"address":"東京都港区南青山3-13-14","latitude":35.66525650024414,"longitude":139.7138671875,"category":"カフェ","big_category":"商業施設","description":"","image_url":"","tags":"","prefecture":"東京","contractor":"","structural_designer":"","landscape_designer":"","shinkenchiku_url":""},{"id":4870,"title":"相馬こどものみんなの家","architect":"伊東豊雄+クライン・ダイサム・アーキテクツ","year":2015.0,"address":"福島県相馬市北飯渕1-15-1","latitude":37.80361557006836,"longitude":140.9318084716797,"category":"児童施設","big_category":"教育","description":"見学の際は要事前連絡","image_url":"","tags":"","prefecture":"福島","contractor":"","structural_designer":"","landscape_designer":"","shinkenchiku_url":""},{"id":4871,"title":"気仙沼大谷のみんなの家","architect":"ヤン・チャオ+妹島和世+渡瀬正記","year":2013.0,"address":"宮城県気仙沼市本吉町大谷240-2","latitude":38.815494537353516,"longitude":141.57437133789062,"category":"公民館・交流施設","big_category":"公共施設","description":"見学には予約が必要","image_url":"","tags":"新建築2014年3月号","prefecture":"宮城","contractor":"鉄建建設","structural_designer":"浜田英明","landscape_designer":"","shinkenchiku_url":"https://data.shinkenchiku.online/articles/SK_2014_03_166-0"},{"id":4872,"title":"釜石漁師のみんなの家","architect":"伊東豊雄+山下保博+水上健二","year":2013.0,"address":"岩手県釜石市新浜町2-32-1","latitude":39.272422790527344,"longitude":141.90516662597656,"category":"公民館・交流施設","big_category":"公共施設","description":"見学の際は要事前連絡","image_url":"","tags":"","prefecture":"岩手","contractor":"","structural_designer":"","landscape_designer":"","shinkenchiku_url":""},{"id":4873,"title":"釜石みんなの広場","architect":"伊東豊雄","year":2014.0,"address":"岩手県釜石市鵜住居街第3地割12","latitude":39.33990478515625,"longitude":141.8502197265625,"category":"公民館・交流施設","big_category":"公共施設","description":"見学には予約が必要","image_url":"","tags":"","prefecture":"岩手","contractor":"","structural_designer":"","landscape_designer":"","shinkenchiku_url":""},{"id":4874,"title":"岩沼みんなの家","architect":"伊東豊雄","year":2013.0,"address":"宮城県岩沼市押分字南谷地24-1","latitude":38.11012649536133,"longitude":140.9056396484375,"category":"カフェ/店舗/公民館・交流施設","big_category":"商業施設,商業施設,公共施設","description":"","image_url":"","tags":"","prefecture":"宮城","contractor":"","structural_designer":"","landscape_designer":"","shinkenchiku_url":""},{"id":4875,"title":"子どもの村東北","architect":"松本純一郎+針生承一+SOY source建築設計+鈴木弘人","year":2014.0,"address":"宮城県仙台市太白区茂庭台2-16-9-1","latitude":38.23337173461914,"longitude":140.78309631347656,"category":"幼稚園","big_category":"教育","description":"","image_url":"","tags":"新建築2015年4月号","prefecture":"宮城","contractor":"","structural_designer":"","landscape_designer":"","shinkenchiku_url":""},{"id":4876,"title":"はあと保育園新山口","architect":"大野秀敏","year":2014.0,"address":"山口県山口市小郡平成町1-20","latitude":34.08823013305664,"longitude":131.4005584716797,"category":"幼稚園","big_category":"教育","description":"","image_url":"","tags":"2016年日本建築学会 作品選奨,新建築2015年4月号","prefecture":"山口","contractor":"","structural_designer":"","landscape_designer":"","shinkenchiku_url":""},{"id":4877,"title":"ふじようちえん キッズテラス","architect":"手塚建築研究所","year":2014.0,"address":"東京都立川市上砂町2-7-1","latitude":35.72208786010742,"longitude":139.3905792236328,"category":"幼稚園","big_category":"教育","description":"","image_url":"","tags":"新建築2015年4月号","prefecture":"東京","contractor":"","structural_designer":"","landscape_designer":"","shinkenchiku_url":""},{"id":4878,"title":"Ring Around a Tree ふじようちえん ツリーテラス","architect":"手塚建築研究所","year":2011.0,"address":"東京都立川市上砂町2-7-1","latitude":35.72160720825195,"longitude":139.39039611816406,"category":"幼稚園","big_category":"教育","description":"","image_url":"","tags":"2013年日本建築学会 作品選奨","prefecture":"東京","contractor":"","structural_designer":"","landscape_designer":"","shinkenchiku_url":""},{"id":4879,"title":"山元町ふじ幼稚園","architect":"手塚建築研究所","year":2012.0,"address":"宮城県亘理郡山元町山寺字上西田123-2","latitude":37.96870803833008,"longitude":140.87538146972656,"category":"幼稚園","big_category":"教育","description":"","image_url":"","tags":"","prefecture":"宮城","contractor":"","structural_designer":"","landscape_designer":"","shinkenchiku_url":""},{"id":4880,"title":"はくすい保育園","architect":"山﨑健太郎","year":2014.0,"address":"千葉県佐倉市岩名961-2","latitude":35.73784255981445,"longitude":140.21975708007812,"category":"幼稚園","big_category":"教育","description":"","image_url":"","tags":"新建築2015年4月号","prefecture":"千葉","contractor":"","structural_designer":"","landscape_designer":"","shinkenchiku_url":""},{"id":4881,"title":"新栄保育園","architect":"16A","year":2014.0,"address":"東京都新宿区百人町3-21-14","latitude":35.704952239990234,"longitude":139.6998291015625,"category":"幼稚園","big_category":"教育","description":"","image_url":"","tags":"新建築2015年4月号","prefecture":"東京","contractor":"","structural_designer":"","landscape_designer":"","shinkenchiku_url":""},{"id":4882,"title":"ゆたか幼稚園","architect":"菅原大輔","year":2014.0,"address":"埼玉県三郷市戸ヶ崎2-576","latitude":35.800628662109375,"longitude":139.86688232421875,"category":"幼稚園","big_category":"教育","description":"","image_url":"","tags":"新建築2015年4月号","prefecture":"埼玉","contractor":"","structural_designer":"","landscape_designer":"","shinkenchiku_url":""},{"id":4883,"title":"森のオフィス アクアプランネット 松阪本社屋","architect":"菅原大輔","year":2011.0,"address":"三重県松阪市大黒田町199","latitude":34.56472396850586,"longitude":136.5290069580078,"category":"低層オフィス","big_category":"企業施設","description":"","image_url":"","tags":"","prefecture":"三重","contractor":"","structural_designer":"","landscape_designer":"","shinkenchiku_url":""},{"id":4884,"title":"グローバルキッズ武蔵境園","architect":"石嶋寿和","year":2014.0,"address":"東京都武蔵野市境南町4-2-19","latitude":35.701881408691406,"longitude":139.5354766845703,"category":"幼稚園","big_category":"教育","description":"","image_url":"","tags":"新建築2015年4月号","prefecture":"東京","contractor":"","structural_designer":"","landscape_designer":"","shinkenchiku_url":""},{"id":4885,"title":"原西保育園","architect":"シーラカンスK&H","year":2015.0,"address":"福岡県福岡市早良区小田部3-24-15 ","latitude":33.56516647338867,"longitude":130.3311004638672,"category":"幼稚園","big_category":"教育","description":"","image_url":"","tags":"新建築2015年4月号","prefecture":"福岡","contractor":"","structural_designer":"","landscape_designer":"","shinkenchiku_url":""},{"id":4886,"title":"関東学院六浦こども園","architect":"仙田満","year":2013.0,"address":"神奈川県横浜市金沢区六浦東1-50-1","latitude":35.32317352294922,"longitude":139.6248016357422,"category":"幼稚園","big_category":"教育","description":"","image_url":"","tags":"新建築2015年4月号","prefecture":"神奈川","contractor":"","structural_designer":"","landscape_designer":"","shinkenchiku_url":""},{"id":4887,"title":"港北幼稚園","architect":"仙田満","year":2014.0,"address":"神奈川県横浜市都筑区早淵3-35-25","latitude":35.550987243652344,"longitude":139.60345458984375,"category":"幼稚園","big_category":"教育","description":"","image_url":"","tags":"新建築2015年4月号","prefecture":"神奈川","contractor":"","structural_designer":"","landscape_designer":"","shinkenchiku_url":""},{"id":4888,"title":"いなべ市立笠間保育園","architect":"アール・アイ・エー","year":2013.0,"address":"三重県いなべ市大安町門前533","latitude":35.08283615112305,"longitude":136.5513153076172,"category":"幼稚園","big_category":"教育","description":"2022年5月に出火・全焼","image_url":"","tags":"新建築2015年4月号","prefecture":"三重","contractor":"","structural_designer":"","landscape_designer":"","shinkenchiku_url":""},{"id":4889,"title":"山武市立なるとうこども園","architect":"日総建","year":2013.0,"address":"千葉県山武市成東210-3","latitude":35.59939956665039,"longitude":140.4120635986328,"category":"幼稚園","big_category":"教育","description":"","image_url":"","tags":"新建築2015年4月号","prefecture":"千葉","contractor":"","structural_designer":"","landscape_designer":"","shinkenchiku_url":""},{"id":4890,"title":"川通どれみ保育園","architect":"山下秀之+木村博幸","year":2014.0,"address":"新潟県三条市尾崎955-2","latitude":37.61985397338867,"longitude":138.90228271484375,"category":"幼稚園","big_category":"教育","description":"","image_url":"","tags":"新建築2015年4月号","prefecture":"新潟","contractor":"","structural_designer":"","landscape_designer":"","shinkenchiku_url":""},{"id":4891,"title":"杜のひかりこども園","architect":"D.I.G Architects+久田屋建築研究所","year":2014.0,"address":"愛知県豊田市大清水町大清水100-1","latitude":35.114768981933594,"longitude":137.1537628173828,"category":"幼稚園","big_category":"教育","description":"","image_url":"","tags":"新建築2015年4月号","prefecture":"愛知","contractor":"","structural_designer":"","landscape_designer":"","shinkenchiku_url":""},{"id":4892,"title":"日本キリスト教団 広島牛田教会／牛田教会学園 あやめ幼稚園","architect":"仲子盛進","year":2012.0,"address":"広島県広島市東区牛田中2-7-34","latitude":34.40995407104492,"longitude":132.4746856689453,"category":"幼稚園/教会","big_category":"教育,宗教","description":"","image_url":"","tags":"新建築2015年4月号","prefecture":"広島","contractor":"","structural_designer":"","landscape_designer":"","shinkenchiku_url":""},{"id":4893,"title":"大垣市立北幼保園","architect":"東畑建築事務所","year":2014.0,"address":"岐阜県大垣市室村町1-42-8","latitude":35.37437057495117,"longitude":136.61044311523438,"category":"幼稚園","big_category":"教育","description":"","image_url":"","tags":"新建築2015年4月号","prefecture":"岐阜","contractor":"","structural_designer":"","landscape_designer":"","shinkenchiku_url":""},{"id":4894,"title":"京都市上京区総合庁舎","architect":"東畑建築事務所","year":2014.0,"address":"京都府京都市上京区畠山町298","latitude":35.02965545654297,"longitude":135.75677490234375,"category":"庁舎","big_category":"公共施設","description":"","image_url":"","tags":"","prefecture":"京都","contractor":"","structural_designer":"","landscape_designer":"","shinkenchiku_url":""},{"id":4895,"title":"さかい利晶の杜","architect":"東畑建築事務所","year":2015.0,"address":"大阪府堺市堺区宿院町西2丁1-1","latitude":34.576229095458984,"longitude":135.4701385498047,"category":"観光施設/博物館","big_category":"レジャー施設,ミュージアム","description":"","image_url":"","tags":"","prefecture":"大阪","contractor":"","structural_designer":"","landscape_designer":"","shinkenchiku_url":""},{"id":4896,"title":"アルカスホール","architect":"東畑建築事務所","year":2011.0,"address":"大阪府寝屋川市早子町12-21","latitude":34.76392364501953,"longitude":135.62298583984375,"category":"ホール・劇場","big_category":"文化施設","description":"","image_url":"","tags":"","prefecture":"大阪","contractor":"","structural_designer":"","landscape_designer":"","shinkenchiku_url":""},{"id":4897,"title":"刈谷市総合文化センター","architect":"東畑建築事務所","year":2009.0,"address":"愛知県刈谷市若松町2-104","latitude":34.98921585083008,"longitude":137.0069122314453,"category":"ホール・劇場/ギャラリー","big_category":"文化施設,ミュージアム","description":"","image_url":"","tags":"","prefecture":"愛知","contractor":"","structural_designer":"","landscape_designer":"","shinkenchiku_url":""},{"id":4898,"title":"真庭市役所 本庁舎","architect":"東畑建築事務所","year":2011.0,"address":"岡山県真庭市久世2927-2","latitude":35.076133728027344,"longitude":133.7520751953125,"category":"庁舎","big_category":"公共施設","description":"","image_url":"","tags":"","prefecture":"岡山","contractor":"","structural_designer":"","landscape_designer":"","shinkenchiku_url":""},{"id":4899,"title":"西予市庁舎","architect":"東畑建築事務所","year":2011.0,"address":"愛媛県西予市宇和町卯之町3-434-1","latitude":33.36262512207031,"longitude":132.510986328125,"category":"庁舎","big_category":"公共施設","description":"","image_url":"","tags":"","prefecture":"愛媛","contractor":"","structural_designer":"","landscape_designer":"","shinkenchiku_url":""},{"id":4900,"title":"多摩大学 25周年記念 T-Studio","architect":"東畑建築事務所","year":2014.0,"address":"東京都多摩市聖ヶ丘4-1-1","latitude":35.63051223754883,"longitude":139.4642791748047,"category":"大学","big_category":"教育","description":"","image_url":"","tags":"","prefecture":"東京","contractor":"","structural_designer":"","landscape_designer":"","shinkenchiku_url":""}]}