{"page":156,"total_pages":290,"items_per_page":50,"total_items":14467,"items":[{"id":7751,"title":"大阪市立大学 第1体育館 旧大阪商科大学 体育館","architect":"伊藤正文","year":1933.0,"address":"大阪府大阪市住吉区杉本3-3-138","latitude":34.59308624267578,"longitude":135.50782775878906,"category":"大学/体育館","big_category":"教育,レジャー施設","description":"","image_url":"","tags":"Ver2.60(2018年8月)の追加建築","prefecture":"大阪","contractor":"","structural_designer":"","landscape_designer":"","shinkenchiku_url":""},{"id":7752,"title":"大阪市立大学 書庫 旧大阪商科大学 図書館第1書庫","architect":"伊藤正文","year":1934.0,"address":"大阪府大阪市住吉区杉本3-3-138","latitude":34.59120178222656,"longitude":135.50588989257812,"category":"大学","big_category":"教育","description":"","image_url":"","tags":"Ver2.60(2018年8月)の追加建築","prefecture":"大阪","contractor":"","structural_designer":"","landscape_designer":"","shinkenchiku_url":""},{"id":7753,"title":"南大阪教会 礼拝堂","architect":"村野藤吾","year":1981.0,"address":"大阪府大阪市阿倍野区阪南町1-30-5","latitude":34.63563919067383,"longitude":135.515625,"category":"教会","big_category":"宗教","description":"","image_url":"","tags":"Ver2.60(2018年8月)の追加建築","prefecture":"大阪","contractor":"","structural_designer":"","landscape_designer":"","shinkenchiku_url":""},{"id":7754,"title":"国立京都国際会館 イベントホール","architect":"大谷幸夫","year":1985.0,"address":"京都府京都市左京区岩倉大鷺町422","latitude":35.06232452392578,"longitude":135.78414916992188,"category":"ホール・劇場","big_category":"文化施設","description":"","image_url":"","tags":"Ver2.60(2018年8月)の追加建築","prefecture":"京都","contractor":"","structural_designer":"","landscape_designer":"","shinkenchiku_url":""},{"id":7755,"title":"源 ますのすしミュージアム","architect":"永田・北野建築研究所","year":1987.0,"address":"富山県富山市南央町37-6","latitude":36.6277961730957,"longitude":137.2044219970703,"category":"工場/店舗","big_category":"企業施設,商業施設","description":"","image_url":"","tags":"Ver2.60(2018年8月)の追加建築","prefecture":"富山","contractor":"","structural_designer":"","landscape_designer":"","shinkenchiku_url":""},{"id":7756,"title":"ジオン商事安治川配送センター ホワイトベース","architect":"永田・北野建築研究所","year":1988.0,"address":"大阪府大阪市西区安治川1-1-17","latitude":34.67955017089844,"longitude":135.47048950195312,"category":"企業施設","big_category":"企業施設","description":"","image_url":"","tags":"Ver2.60(2018年8月)の追加建築","prefecture":"大阪","contractor":"","structural_designer":"","landscape_designer":"","shinkenchiku_url":""},{"id":7757,"title":"日本電通 本社ビル","architect":"永田・北野建築研究所","year":1994.0,"address":"大阪府大阪市港区磯路2-21-1","latitude":34.66669464111328,"longitude":135.45838928222656,"category":"オフィスビル","big_category":"企業施設","description":"","image_url":"","tags":"Ver2.60(2018年8月)の追加建築","prefecture":"大阪","contractor":"","structural_designer":"","landscape_designer":"","shinkenchiku_url":""},{"id":7758,"title":"光世証券兜町ビル","architect":"永田・北野建築研究所","year":1999.0,"address":"東京都中央区日本橋兜町9-9","latitude":35.681251525878906,"longitude":139.7775115966797,"category":"オフィスビル/金融機関","big_category":"企業施設,企業施設","description":"","image_url":"","tags":"Ver2.60(2018年8月)の追加建築","prefecture":"東京","contractor":"","structural_designer":"","landscape_designer":"","shinkenchiku_url":""},{"id":7759,"title":"光世証券本社ビル","architect":"永田・北野建築研究所","year":2000.0,"address":"大阪府大阪市中央区北浜2-1-10","latitude":34.692169189453125,"longitude":135.50547790527344,"category":"オフィスビル/金融機関","big_category":"企業施設,企業施設","description":"","image_url":"","tags":"Ver2.60(2018年8月)の追加建築","prefecture":"大阪","contractor":"","structural_designer":"","landscape_designer":"","shinkenchiku_url":""},{"id":7760,"title":"橿原神宮 崇敬会館","architect":"奥村組","year":1999.0,"address":"奈良県橿原市久米町 928-4","latitude":34.485923767089844,"longitude":135.79112243652344,"category":"博物館","big_category":"ミュージアム","description":"","image_url":"","tags":"Ver2.60(2018年8月)の追加建築","prefecture":"奈良","contractor":"","structural_designer":"","landscape_designer":"","shinkenchiku_url":""},{"id":7761,"title":"三春町歴史民俗資料館・自由民権記念館","architect":"大高正人","year":1982.0,"address":"福島県田村郡三春町桜谷5","latitude":37.440128326416016,"longitude":140.49195861816406,"category":"博物館","big_category":"ミュージアム","description":"","image_url":"","tags":"Ver2.60(2018年8月)の追加建築","prefecture":"福島","contractor":"","structural_designer":"","landscape_designer":"","shinkenchiku_url":""},{"id":7762,"title":"三春町民体育館","architect":"大高正人","year":1978.0,"address":"福島県田村郡三春町貝山泉沢100","latitude":37.431541442871094,"longitude":140.49102783203125,"category":"体育館","big_category":"レジャー施設","description":"","image_url":"","tags":"Ver2.60(2018年8月)の追加建築,DOCOMOMO","prefecture":"福島","contractor":"大林組","structural_designer":"","landscape_designer":"","shinkenchiku_url":""},{"id":7763,"title":"三春ダム管理事務所・資料館","architect":"大高正人","year":1994.0,"address":"福島県田村郡三春町西方字中ノ内403-4","latitude":37.40498352050781,"longitude":140.47528076171875,"category":"公共施設/博物館","big_category":"公共施設,ミュージアム","description":"","image_url":"","tags":"Ver2.60(2018年8月)の追加建築","prefecture":"福島","contractor":"","structural_designer":"","landscape_designer":"","shinkenchiku_url":""},{"id":7764,"title":"福島ガイナックス 空想とアートのミュージアム 福島さくら遊学舎 旧三春町立桜中学校","architect":"香山壽夫","year":1991.0,"address":"福島県田村郡三春町鷹巣瀬山213","latitude":37.415042877197266,"longitude":140.47216796875,"category":"美術館","big_category":"ミュージアム","description":"","image_url":"","tags":"Ver2.60(2018年8月)の追加建築","prefecture":"福島","contractor":"","structural_designer":"","landscape_designer":"","shinkenchiku_url":""},{"id":7765,"title":"渋谷駅街区東口二階デッキ","architect":"内藤廣","year":2012.0,"address":"東京都渋谷区渋谷1-1-1","latitude":35.65882110595703,"longitude":139.70272827148438,"category":"橋/駅","big_category":"インフラ,インフラ","description":"","image_url":"","tags":"Ver2.60(2018年8月)の追加建築","prefecture":"東京","contractor":"","structural_designer":"","landscape_designer":"","shinkenchiku_url":""},{"id":7766,"title":"ショウナイホテル スイデンテラス","architect":"坂茂","year":2018.0,"address":"山形県鶴岡市北京田字下鳥ノ巣23-1","latitude":38.74693298339844,"longitude":139.82318115234375,"category":"ホテル","big_category":"宿泊","description":"","image_url":"","tags":"Ver2.60(2018年8月)の追加建築,新建築2019年7月号","prefecture":"山形","contractor":"","structural_designer":"","landscape_designer":"","shinkenchiku_url":""},{"id":7767,"title":"大石寺大講堂","architect":"横山公男","year":1958.0,"address":"静岡県富士宮市上条640","latitude":35.27989959716797,"longitude":138.5841064453125,"category":"寺院","big_category":"宗教","description":"","image_url":"","tags":"Ver2.60(2018年8月)の追加建築","prefecture":"静岡","contractor":"","structural_designer":"","landscape_designer":"","shinkenchiku_url":""},{"id":7768,"title":"バレル・バレー プラハ&GEN","architect":"玄・ベルトー・進来+畠中設計","year":1990.0,"address":"鹿児島県霧島市溝辺町麓876-15","latitude":31.79686737060547,"longitude":130.71372985839844,"category":"店舗/工場","big_category":"商業施設,企業施設","description":"","image_url":"","tags":"Ver2.60(2018年8月)の追加建築","prefecture":"鹿児島","contractor":"","structural_designer":"","landscape_designer":"","shinkenchiku_url":""},{"id":7769,"title":"宮崎県都城総合庁舎","architect":"安田臣","year":1972.0,"address":"宮崎県都城市北原町24-21","latitude":31.731929779052734,"longitude":131.0785675048828,"category":"庁舎","big_category":"公共施設","description":"","image_url":"","tags":"Ver2.60(2018年8月)の追加建築","prefecture":"宮崎","contractor":"","structural_designer":"","landscape_designer":"","shinkenchiku_url":""},{"id":7770,"title":"Mallmall まるまる 旧都城大丸センターモール","architect":"会田友朗+益田設計事務所","year":2018.0,"address":"宮崎県都城市中町16-15","latitude":31.725175857543945,"longitude":131.06539916992188,"category":"総合文化施設/図書館","big_category":"文化施設,文化施設","description":"ショッピングセンターのリノベーション","image_url":"","tags":"Ver2.60(2018年8月)の追加建築","prefecture":"宮崎","contractor":"","structural_designer":"","landscape_designer":"","shinkenchiku_url":""},{"id":7771,"title":"箱根山テラス","architect":"会田友朗+久野紀光","year":2014.0,"address":"岩手県陸前高田市小友町茗荷1-232","latitude":39.011268615722656,"longitude":141.68995666503906,"category":"ホテル","big_category":"宿泊","description":"","image_url":"","tags":"Ver2.60(2018年8月)の追加建築","prefecture":"岩手","contractor":"長谷川建設","structural_designer":"","landscape_designer":"","shinkenchiku_url":""},{"id":7772,"title":"信州みよたクラインガルテン 大星の杜・面替","architect":"会田友朗+久野紀光","year":2015.0,"address":"長野県北佐久郡御代田町面替601","latitude":36.29901123046875,"longitude":138.52215576171875,"category":"コテージ","big_category":"宿泊","description":"","image_url":"","tags":"Ver2.60(2018年8月)の追加建築","prefecture":"長野","contractor":"堀内組","structural_designer":"","landscape_designer":"","shinkenchiku_url":""},{"id":7773,"title":"大村市役所","architect":"安田臣","year":1964.0,"address":"長崎県大村市玖島1-25","latitude":32.89996337890625,"longitude":129.95822143554688,"category":"庁舎","big_category":"公共施設","description":"","image_url":"","tags":"Ver2.60(2018年8月)の追加建築","prefecture":"長崎","contractor":"","structural_designer":"","landscape_designer":"","shinkenchiku_url":""},{"id":7774,"title":"中村健法律経済事務所","architect":"村野藤吾","year":1936.0,"address":"大阪府大阪市中央区北浜2-4-10","latitude":34.69123840332031,"longitude":135.50535583496094,"category":"オフィスビル","big_category":"企業施設","description":"","image_url":"","tags":"Ver2.60(2018年8月)の追加建築","prefecture":"大阪","contractor":"","structural_designer":"","landscape_designer":"","shinkenchiku_url":""},{"id":7775,"title":"NCU Bicycle Park 名古屋市立大学 北千種キャンパス駐輪場","architect":"久野紀光","year":2009.0,"address":"愛知県名古屋市千種区北千種2-1-10","latitude":35.181312561035156,"longitude":136.9481201171875,"category":"駐車・駐輪場","big_category":"公共施設","description":"","image_url":"","tags":"Ver2.60(2018年8月)の追加建築","prefecture":"愛知","contractor":"","structural_designer":"","landscape_designer":"","shinkenchiku_url":""},{"id":7776,"title":"日本プレスセンタービル","architect":"日建設計","year":1976.0,"address":"東京都千代田区内幸町2-2-1","latitude":35.670936584472656,"longitude":139.75425720214844,"category":"オフィスビル","big_category":"企業施設","description":"","image_url":"","tags":"Ver2.60(2018年8月)の追加建築,2019年JIA25年賞 登録作品","prefecture":"東京","contractor":"清水建設・竹中工務店","structural_designer":"","landscape_designer":"","shinkenchiku_url":""},{"id":7777,"title":"神奈川県青少年センター","architect":"前川國男","year":1962.0,"address":"神奈川県横浜市西区紅葉ケ丘9-1","latitude":35.45168685913086,"longitude":139.6260528564453,"category":"児童施設","big_category":"教育","description":"","image_url":"","tags":"Ver2.60(2018年8月)の追加建築,DOCOMOMO","prefecture":"神奈川","contractor":"清水建設","structural_designer":"","landscape_designer":"","shinkenchiku_url":""},{"id":7778,"title":"神奈川婦人会館","architect":"前川國男","year":1965.0,"address":"神奈川県横浜市西区紅葉ケ丘2","latitude":35.45241928100586,"longitude":139.6268310546875,"category":"ホール・劇場/公民館・交流施設","big_category":"文化施設,公共施設","description":"","image_url":"","tags":"Ver2.60(2018年8月)の追加建築,DOCOMOMO","prefecture":"神奈川","contractor":"松尾工務店","structural_designer":"","landscape_designer":"","shinkenchiku_url":""},{"id":7779,"title":"沼津市本通防火建築帯","architect":"池辺陽+今泉善一+坪井善勝","year":1953.0,"address":"静岡県沼津市町方町15","latitude":35.09833526611328,"longitude":138.857177734375,"category":"モール","big_category":"商業施設","description":"西側1953年、東側1954年に竣工","image_url":"","tags":"Ver2.60(2018年8月)の追加建築,DOCOMOMO","prefecture":"静岡","contractor":"","structural_designer":"","landscape_designer":"","shinkenchiku_url":""},{"id":7780,"title":"四季十楽","architect":"魚谷繁礼+田根剛","year":2016.0,"address":"京都府京都市上京区近衛町(油小路通)165","latitude":35.02040481567383,"longitude":135.75340270996094,"category":"ホテル/旅館","big_category":"宿泊,宿泊","description":"門扉、サロンの設計を田根剛が担当","image_url":"","tags":"Ver2.60(2018年8月)の追加建築","prefecture":"京都","contractor":"","structural_designer":"","landscape_designer":"","shinkenchiku_url":""},{"id":7781,"title":"栃木県庁研修館","architect":"菊竹清訓","year":1979.0,"address":"栃木県宇都宮市塙田1-1","latitude":36.566463470458984,"longitude":139.8835906982422,"category":"研修施設/公共施設","big_category":"教育,公共施設","description":"","image_url":"","tags":"Ver2.60(2018年8月)の追加建築","prefecture":"栃木","contractor":"","structural_designer":"","landscape_designer":"","shinkenchiku_url":""},{"id":7782,"title":"東京オート 上三川店","architect":"丸山欣也","year":1984.0,"address":"栃木県河内郡上三川町上三川4425","latitude":36.42930221557617,"longitude":139.9056854248047,"category":"店舗","big_category":"商業施設","description":"","image_url":"","tags":"Ver2.60(2018年8月)の追加建築","prefecture":"栃木","contractor":"","structural_designer":"","landscape_designer":"","shinkenchiku_url":""},{"id":7783,"title":"八多ふれあいセンター・児童館","architect":"いるか設計集団","year":1992.0,"address":"兵庫県神戸市北区八多町附物393","latitude":34.82166290283203,"longitude":135.1971893310547,"category":"公民館・交流施設/公園/児童施設","big_category":"公共施設,レジャー施設,教育","description":"","image_url":"","tags":"Ver2.60(2018年8月)の追加建築","prefecture":"兵庫","contractor":"","structural_designer":"","landscape_designer":"","shinkenchiku_url":""},{"id":7784,"title":"玄武洞ミュージアム","architect":"いるか設計集団","year":2018.0,"address":"兵庫県豊岡市赤石1362","latitude":35.58938980102539,"longitude":134.80345153808594,"category":"博物館","big_category":"ミュージアム","description":"","image_url":"","tags":"Ver2.60(2018年8月)の追加建築","prefecture":"兵庫","contractor":"","structural_designer":"","landscape_designer":"","shinkenchiku_url":""},{"id":7785,"title":"認定こども園 キッズキャンパス","architect":"いるか設計集団","year":2015.0,"address":"兵庫県神戸市北区藤原台南町1-7-5","latitude":34.8118896484375,"longitude":135.21034240722656,"category":"幼稚園","big_category":"教育","description":"","image_url":"","tags":"Ver2.60(2018年8月)の追加建築","prefecture":"兵庫","contractor":"","structural_designer":"","landscape_designer":"","shinkenchiku_url":""},{"id":7786,"title":"城崎温泉 一の湯","architect":"いるか設計集団+岡田信一郎","year":1998.0,"address":"兵庫県豊岡市城崎町湯島415-1","latitude":35.62614059448242,"longitude":134.8095245361328,"category":"温泉","big_category":"宿泊","description":"1940年に岡田信一郎設計で元の建築が竣工。その後一端解体、1998年にいるか設計集団により復元。","image_url":"","tags":"Ver2.60(2018年8月)の追加建築","prefecture":"兵庫","contractor":"","structural_designer":"","landscape_designer":"","shinkenchiku_url":""},{"id":7787,"title":"ガモウ 小山支店","architect":"鈴木エドワード","year":2001.0,"address":"栃木県小山市駅東通り1-34-4","latitude":36.30912780761719,"longitude":139.81224060058594,"category":"店舗/低層オフィス","big_category":"商業施設,企業施設","description":"","image_url":"","tags":"Ver2.60(2018年8月)の追加建築","prefecture":"栃木","contractor":"","structural_designer":"","landscape_designer":"","shinkenchiku_url":""},{"id":7788,"title":"トスラブ館山ルアーナ","architect":"日建設計","year":2014.0,"address":"千葉県館山市洲宮833-1","latitude":34.951358795166016,"longitude":139.83106994628906,"category":"ホテル","big_category":"宿泊","description":"","image_url":"","tags":"Ver2.60(2018年8月)の追加建築","prefecture":"千葉","contractor":"","structural_designer":"","landscape_designer":"","shinkenchiku_url":""},{"id":7789,"title":"香川県警察本部庁舎","architect":"丹下健三","year":1997.0,"address":"香川県高松市番町4-1-10","latitude":34.34012985229492,"longitude":134.0424041748047,"category":"警察・消防署","big_category":"公共施設","description":"","image_url":"","tags":"Ver2.60(2018年8月)の追加建築","prefecture":"香川","contractor":"","structural_designer":"","landscape_designer":"","shinkenchiku_url":""},{"id":7790,"title":"あいおいニッセイ同和損保 盛岡ビル","architect":"丹下健三","year":1999.0,"address":"岩手県盛岡市開運橋通3-47","latitude":39.701961517333984,"longitude":141.14215087890625,"category":"オフィスビル","big_category":"企業施設","description":"","image_url":"","tags":"Ver2.60(2018年8月)の追加建築","prefecture":"岩手","contractor":"","structural_designer":"","landscape_designer":"","shinkenchiku_url":""},{"id":7791,"title":"うきはコミュニティーズ","architect":"迫慶一郎","year":2016.0,"address":"福岡県うきは市浮羽町朝田 うきはコミュニティーズ","latitude":33.33766555786133,"longitude":130.7887420654297,"category":"幼稚園/養護施設","big_category":"教育,医療施設","description":"","image_url":"","tags":"Ver2.60(2018年8月)の追加建築","prefecture":"福岡","contractor":"","structural_designer":"","landscape_designer":"","shinkenchiku_url":""},{"id":7792,"title":"福岡ステップス どろんこ保育園","architect":"迫慶一郎","year":2015.0,"address":"福岡県福岡市博多区住吉1-2-50","latitude":33.5885124206543,"longitude":130.41136169433594,"category":"幼稚園","big_category":"教育","description":"","image_url":"","tags":"Ver2.60(2018年8月)の追加建築","prefecture":"福岡","contractor":"","structural_designer":"","landscape_designer":"","shinkenchiku_url":""},{"id":7793,"title":"久留米モノリス エバーガーデン久留米中央町","architect":"迫慶一郎","year":2015.0,"address":"福岡県久留米市中央町16-33","latitude":33.318634033203125,"longitude":130.50482177734375,"category":"養護施設","big_category":"医療施設","description":"","image_url":"","tags":"Ver2.60(2018年8月)の追加建築","prefecture":"福岡","contractor":"","structural_designer":"","landscape_designer":"","shinkenchiku_url":""},{"id":7794,"title":"Modelia Brut KAGURAZAKA","architect":"佐々木龍一+奥村梨枝子","year":2018.0,"address":"東京都新宿区横寺町41-4","latitude":35.701602935791016,"longitude":139.7354278564453,"category":"集合住宅","big_category":"住宅","description":"","image_url":"","tags":"Ver2.60(2018年8月)の追加建築","prefecture":"東京","contractor":"","structural_designer":"","landscape_designer":"","shinkenchiku_url":""},{"id":7795,"title":"CLT低層住宅 HUT","architect":"S.O.Y.建築環境研究所","year":2018.0,"address":"山梨県南都留山中湖村平野3764-1","latitude":35.429115295410156,"longitude":138.8661346435547,"category":"住宅","big_category":"住宅","description":"フェザント山中湖内の一施設と思われる。利用可能かどうかは不明","image_url":"","tags":"Ver2.60(2018年8月)の追加建築","prefecture":"山梨","contractor":"","structural_designer":"","landscape_designer":"","shinkenchiku_url":""},{"id":7796,"title":"シーラカンスハウス 氷室アパートメント","architect":"シーラカンスアンドアソシエイツ","year":1987.0,"address":"大阪府枚方市尊延寺1-1-12","latitude":34.80631637573242,"longitude":135.725341796875,"category":"集合住宅","big_category":"住宅","description":"","image_url":"","tags":"Ver2.60(2018年8月)の追加建築","prefecture":"大阪","contractor":"","structural_designer":"","landscape_designer":"","shinkenchiku_url":""},{"id":7797,"title":"加古川市立図書館 旧加古川公会堂","architect":"置塩章","year":1935.0,"address":"兵庫県加古川市加古川町木村226-1","latitude":34.76605987548828,"longitude":134.83251953125,"category":"図書館/洋館","big_category":"文化施設,近代建築/遺産","description":"","image_url":"","tags":"Ver2.60(2018年8月)の追加建築","prefecture":"兵庫","contractor":"","structural_designer":"","landscape_designer":"","shinkenchiku_url":""},{"id":7798,"title":"日本芸術会館","architect":"村井敬","year":2018.0,"address":"兵庫県神戸市中央区湊島中町7-4-1","latitude":34.66804504394531,"longitude":135.21669006347656,"category":"美術館","big_category":"ミュージアム","description":"","image_url":"","tags":"Ver2.60(2018年8月)の追加建築","prefecture":"兵庫","contractor":"","structural_designer":"","landscape_designer":"","shinkenchiku_url":""},{"id":7799,"title":"可児市子育て健康プラザ mano","architect":"香山壽夫","year":2018.0,"address":"岐阜県可児市下恵土5076","latitude":35.42237091064453,"longitude":137.056396484375,"category":"福祉センター/児童施設/公共施設","big_category":"医療施設,教育,公共施設","description":"","image_url":"","tags":"Ver2.60(2018年8月)の追加建築","prefecture":"岐阜","contractor":"","structural_designer":"","landscape_designer":"","shinkenchiku_url":""},{"id":7800,"title":"大谷鉄工所 淡路事業所","architect":"伊東豊雄","year":2018.0,"address":"兵庫県淡路市夢舞台2-45","latitude":34.5704345703125,"longitude":135.01560974121094,"category":"工場/低層オフィス","big_category":"企業施設,企業施設","description":"","image_url":"","tags":"Ver2.60(2018年8月)の追加建築","prefecture":"兵庫","contractor":"森長組","structural_designer":"","landscape_designer":"","shinkenchiku_url":""}]}