{"page":54,"total_pages":290,"items_per_page":50,"total_items":14467,"items":[{"id":2651,"title":"Bamboo Basket 2 高松中央高等学校体育館・事務棟","architect":"大江匡","year":1999.0,"address":"香川県高松市松島町1-14-8","latitude":34.33991241455078,"longitude":134.06016540527344,"category":"体育館/学校","big_category":"レジャー施設,教育","description":"","image_url":"","tags":"","prefecture":"香川","contractor":"","structural_designer":"","landscape_designer":"","shinkenchiku_url":""},{"id":2652,"title":"高松市水道資料館","architect":"不明","year":null,"address":"香川県高松市鶴市町御殿1360","latitude":34.33339309692383,"longitude":134.01548767089844,"category":"洋館","big_category":"近代建築/遺産","description":"","image_url":"","tags":"","prefecture":"香川","contractor":"","structural_designer":"","landscape_designer":"","shinkenchiku_url":""},{"id":2653,"title":"香南アグリーム","architect":"宮崎浩","year":2002.0,"address":"香川県高松市香南町岡1270-13","latitude":34.22247314453125,"longitude":134.01913452148438,"category":"駅","big_category":"インフラ","description":"","image_url":"","tags":"","prefecture":"香川","contractor":"","structural_designer":"","landscape_designer":"","shinkenchiku_url":""},{"id":2654,"title":"瀬戸内国際芸術祭","architect":"不明","year":2011.0,"address":"香川県高松市サンポート1-1","latitude":34.456748962402344,"longitude":133.98989868164062,"category":"芸術祭・芸術村","big_category":"ミュージアム","description":"2013年　トリエンナーレ","image_url":"","tags":"瀬戸内国際芸術祭","prefecture":"香川","contractor":"","structural_designer":"","landscape_designer":"","shinkenchiku_url":""},{"id":2655,"title":"香川県庁舎 東館","architect":"丹下健三","year":1958.0,"address":"香川県高松市番町4-1-10","latitude":34.34009552001953,"longitude":134.0439453125,"category":"庁舎","big_category":"公共施設","description":"2019年12月に松田平田設計により耐震改修","image_url":"","tags":"公共建築百選,DOCOMOMO,第01回BCS賞 (1960),新建築2020年3月号,重要文化財","prefecture":"香川","contractor":"","structural_designer":"","landscape_designer":"","shinkenchiku_url":""},{"id":2656,"title":"香川県立体育館","architect":"丹下健三","year":1964.0,"address":"香川県高松市福岡町2-18-26","latitude":34.345367431640625,"longitude":134.0636749267578,"category":"体育館","big_category":"レジャー施設","description":"閉鎖中。外観は見学可能。","image_url":"","tags":"","prefecture":"香川","contractor":"","structural_designer":"","landscape_designer":"","shinkenchiku_url":""},{"id":2657,"title":"瀬戸内海歴史民俗資料館","architect":"山本忠司","year":1973.0,"address":"香川県高松市亀水町1412-2","latitude":34.37821960449219,"longitude":133.9309844970703,"category":"美術館","big_category":"ミュージアム","description":"","image_url":"","tags":"1974年日本建築学会 作品賞,公共建築百選,DOCOMOMO,2004年JIA25年賞","prefecture":"香川","contractor":"","structural_designer":"","landscape_designer":"","shinkenchiku_url":""},{"id":2658,"title":"男木交流館","architect":"齊藤正","year":2010.0,"address":"香川県高松市男木町1986","latitude":34.42223358154297,"longitude":134.05413818359375,"category":"港/オブジェ","big_category":"インフラ,ミュージアム","description":"","image_url":"","tags":"瀬戸内国際芸術祭","prefecture":"香川","contractor":"","structural_designer":"","landscape_designer":"","shinkenchiku_url":""},{"id":2659,"title":"イサムノグチ庭園美術館","architect":"イサム・ノグチ+山本忠司","year":1969.0,"address":"香川県高松市牟礼町牟礼3519","latitude":34.35535430908203,"longitude":134.1263427734375,"category":"美術館/庭園","big_category":"ミュージアム,文化施設","description":"1969年イサム家、作業蔵竣工。1982年展示蔵竣工。","image_url":"","tags":"","prefecture":"香川","contractor":"","structural_designer":"","landscape_designer":"","shinkenchiku_url":""},{"id":2660,"title":"百十四銀行 本店","architect":"日建設計","year":1966.0,"address":"香川県高松市亀井町5-1","latitude":34.34101486206055,"longitude":134.0481719970703,"category":"金融機関/オフィスビル","big_category":"企業施設,企業施設","description":"","image_url":"","tags":"DOCOMOMO","prefecture":"香川","contractor":"","structural_designer":"","landscape_designer":"","shinkenchiku_url":""},{"id":2661,"title":"四国村ギャラリー","architect":"安藤忠雄","year":2001.0,"address":"香川県高松市屋島中町91","latitude":34.34379577636719,"longitude":134.10824584960938,"category":"テーマパーク/美術館","big_category":"レジャー施設,ミュージアム","description":"","image_url":"","tags":"","prefecture":"香川","contractor":"","structural_designer":"","landscape_designer":"","shinkenchiku_url":""},{"id":2662,"title":"高松市美術館","architect":"佐藤総合計画","year":1988.0,"address":"香川県高松市紺屋町10-4","latitude":34.34414291381836,"longitude":134.04917907714844,"category":"美術館","big_category":"ミュージアム","description":"","image_url":"","tags":"2017年JIA25年賞 登録作品","prefecture":"香川","contractor":"","structural_designer":"","landscape_designer":"","shinkenchiku_url":""},{"id":2663,"title":"瀬戸大橋記念館","architect":"山本忠司","year":1994.0,"address":"香川県坂出市番の州緑町6-13","latitude":34.35268783569336,"longitude":133.8261260986328,"category":"博物館","big_category":"ミュージアム","description":"","image_url":"","tags":"","prefecture":"香川","contractor":"","structural_designer":"","landscape_designer":"","shinkenchiku_url":""},{"id":2664,"title":"瀬戸大橋記念公園 マリンドーム","architect":"木島安史","year":1988.0,"address":"香川県坂出市番の州緑町6-13","latitude":34.35336685180664,"longitude":133.82693481445312,"category":"ホール・劇場","big_category":"文化施設","description":"","image_url":"","tags":"","prefecture":"香川","contractor":"鹿島建設","structural_designer":"","landscape_designer":"","shinkenchiku_url":""},{"id":2665,"title":"西園寺 無量寿堂／本堂","architect":"相田武文","year":1987.0,"address":"香川県坂出市中央町2-9","latitude":34.3183479309082,"longitude":133.85040283203125,"category":"寺院","big_category":"宗教","description":"無量寿堂の竣工が1987年、本堂を1999年に増築","image_url":"","tags":"","prefecture":"香川","contractor":"","structural_designer":"","landscape_designer":"","shinkenchiku_url":""},{"id":2666,"title":"坂出市郷土資料館 旧坂出商業学校本館","architect":"不明","year":1920.0,"address":"香川県坂出市寿町1-3-5","latitude":34.314186096191406,"longitude":133.84988403320312,"category":"洋館","big_category":"近代建築/遺産","description":"","image_url":"","tags":"","prefecture":"香川","contractor":"","structural_designer":"","landscape_designer":"","shinkenchiku_url":""},{"id":2667,"title":"坂出人工土地","architect":"大高正人","year":1968.0,"address":"香川県坂出市京町2-1-9","latitude":34.31587219238281,"longitude":133.856689453125,"category":"公共施設/集合住宅","big_category":"公共施設,住宅","description":"","image_url":"","tags":"DOCOMOMO","prefecture":"香川","contractor":"","structural_designer":"","landscape_designer":"","shinkenchiku_url":""},{"id":2668,"title":"香川県立東山魁夷 せとうち美術館","architect":"谷口吉生","year":2004.0,"address":"香川県坂出市沙弥島224-13","latitude":34.349342346191406,"longitude":133.82412719726562,"category":"美術館","big_category":"ミュージアム","description":"","image_url":"","tags":"","prefecture":"香川","contractor":"","structural_designer":"","landscape_designer":"","shinkenchiku_url":""},{"id":2669,"title":"ル・ポール粟島","architect":"多田善昭","year":1989.0,"address":"香川県三豊市詫間町粟島1418-2","latitude":34.26888656616211,"longitude":133.63160705566406,"category":"ホテル","big_category":"宿泊","description":"","image_url":"","tags":"","prefecture":"香川","contractor":"","structural_designer":"","landscape_designer":"","shinkenchiku_url":""},{"id":2670,"title":"オリーブ記念館","architect":"山本忠司","year":null,"address":"香川県小豆郡小豆島町西村1941-1","latitude":34.472869873046875,"longitude":134.27371215820312,"category":"博物館","big_category":"ミュージアム","description":"","image_url":"","tags":"","prefecture":"香川","contractor":"","structural_designer":"","landscape_designer":"","shinkenchiku_url":""},{"id":2671,"title":"香川県立善通寺第一高等学校同窓会館 静修館","architect":"多田善昭","year":1987.0,"address":"香川県善通寺市文京町1-1-5","latitude":34.2271728515625,"longitude":133.78924560546875,"category":"学校","big_category":"教育","description":"","image_url":"","tags":"2012年JIA25年賞","prefecture":"香川","contractor":"","structural_designer":"","landscape_designer":"","shinkenchiku_url":""},{"id":2672,"title":"四国学院大学 図書館","architect":"多田善昭+昭和設計","year":2006.0,"address":"香川県善通寺市文京町3-2-1","latitude":34.2266731262207,"longitude":133.78253173828125,"category":"図書館","big_category":"文化施設","description":"","image_url":"","tags":"","prefecture":"香川","contractor":"","structural_designer":"","landscape_designer":"","shinkenchiku_url":""},{"id":2673,"title":"旧善通寺偕行社","architect":"不明","year":1903.0,"address":"香川県善通寺市文京町2-1-1","latitude":34.2277946472168,"longitude":133.78720092773438,"category":"洋館","big_category":"近代建築/遺産","description":"","image_url":"","tags":"重要文化財","prefecture":"香川","contractor":"","structural_designer":"","landscape_designer":"","shinkenchiku_url":""},{"id":2674,"title":"旧善通寺偕行社 付属棟","architect":"多田善昭","year":2008.0,"address":"香川県善通寺市文京町2-1-1","latitude":34.22766876220703,"longitude":133.78811645507812,"category":"カフェ","big_category":"商業施設","description":"","image_url":"","tags":"","prefecture":"香川","contractor":"","structural_designer":"","landscape_designer":"","shinkenchiku_url":""},{"id":2675,"title":"善通寺市総合会館","architect":"萩原克彦","year":1985.0,"address":"香川県善通寺市文京町2-1-4","latitude":34.227176666259766,"longitude":133.7882843017578,"category":"公民館・交流施設","big_category":"公共施設","description":"","image_url":"","tags":"","prefecture":"香川","contractor":"","structural_designer":"","landscape_designer":"","shinkenchiku_url":""},{"id":2676,"title":"直島町役場","architect":"石井和紘","year":1983.0,"address":"香川県香川郡直島町本村1122-1","latitude":34.459712982177734,"longitude":133.9957275390625,"category":"庁舎","big_category":"公共施設","description":"","image_url":"","tags":"","prefecture":"香川","contractor":"","structural_designer":"","landscape_designer":"","shinkenchiku_url":""},{"id":2677,"title":"直島小学校","architect":"石井和紘","year":1970.0,"address":"香川県香川郡直島町1600","latitude":34.45892333984375,"longitude":133.98605346679688,"category":"学校","big_category":"教育","description":"","image_url":"","tags":"DOCOMOMO","prefecture":"香川","contractor":"","structural_designer":"","landscape_designer":"","shinkenchiku_url":""},{"id":2678,"title":"地中美術館","architect":"安藤忠雄","year":2004.0,"address":"香川県香川郡直島町3449-1","latitude":34.4499397277832,"longitude":133.98597717285156,"category":"美術館","big_category":"ミュージアム","description":"","image_url":"","tags":"瀬戸内国際芸術祭","prefecture":"香川","contractor":"","structural_designer":"","landscape_designer":"","shinkenchiku_url":""},{"id":2679,"title":"李禹煥美術館","architect":"安藤忠雄","year":2010.0,"address":"香川県香川郡直島町字倉浦1390","latitude":34.44913101196289,"longitude":133.9886474609375,"category":"美術館","big_category":"ミュージアム","description":"","image_url":"","tags":"瀬戸内国際芸術祭","prefecture":"香川","contractor":"","structural_designer":"","landscape_designer":"","shinkenchiku_url":""},{"id":2680,"title":"南寺","architect":"安藤忠雄+ジェームズ・タレル","year":1999.0,"address":"香川県香川郡直島町（その他）-729","latitude":34.45883560180664,"longitude":133.99693298339844,"category":"美術館","big_category":"ミュージアム","description":"","image_url":"","tags":"瀬戸内国際芸術祭","prefecture":"香川","contractor":"","structural_designer":"","landscape_designer":"","shinkenchiku_url":""},{"id":2681,"title":"海の駅なおしま","architect":"SANAA","year":2006.0,"address":"香川県香川郡直島町2249-40","latitude":34.45697021484375,"longitude":133.97457885742188,"category":"港","big_category":"インフラ","description":"","image_url":"","tags":"瀬戸内国際芸術祭","prefecture":"香川","contractor":"","structural_designer":"","landscape_designer":"","shinkenchiku_url":""},{"id":2682,"title":"安藤ミュージアム","architect":"安藤忠雄","year":2013.0,"address":"香川県香川郡（その他）直島町736-2","latitude":34.45937728881836,"longitude":133.99700927734375,"category":"美術館","big_category":"ミュージアム","description":"","image_url":"","tags":"瀬戸内国際芸術祭","prefecture":"香川","contractor":"","structural_designer":"","landscape_designer":"","shinkenchiku_url":""},{"id":2683,"title":"本村ラウンジ&アーカイブ","architect":"西沢立衛","year":2006.0,"address":"香川県香川郡直島町850-2","latitude":34.46100616455078,"longitude":133.9972381591797,"category":"観光施設/カフェ","big_category":"レジャー施設,商業施設","description":"","image_url":"","tags":"瀬戸内国際芸術祭","prefecture":"香川","contractor":"","structural_designer":"","landscape_designer":"","shinkenchiku_url":""},{"id":2684,"title":"豊島横尾館","architect":"永山祐子","year":2013.0,"address":"香川県小豆郡土庄町豊島家浦2359","latitude":34.48685073852539,"longitude":134.0596160888672,"category":"美術館","big_category":"ミュージアム","description":"","image_url":"","tags":"瀬戸内国際芸術祭","prefecture":"香川","contractor":"","structural_designer":"","landscape_designer":"","shinkenchiku_url":""},{"id":2685,"title":"海のレストラン","architect":"二俣公一","year":2013.0,"address":"香川県小豆郡土庄町豊島家浦","latitude":34.49370574951172,"longitude":134.0669708251953,"category":"レストラン","big_category":"商業施設","description":"","image_url":"","tags":"","prefecture":"香川","contractor":"","structural_designer":"","landscape_designer":"","shinkenchiku_url":""},{"id":2686,"title":"豊島美術館","architect":"西沢立衛","year":2010.0,"address":"香川県小豆郡土庄町豊島唐櫃607","latitude":34.489585876464844,"longitude":134.09127807617188,"category":"美術館","big_category":"ミュージアム","description":"","image_url":"","tags":"2012年日本建築学会 作品賞,2012年村野藤吾賞,2011年度日本建築家協会賞,瀬戸内国際芸術祭","prefecture":"香川","contractor":"","structural_designer":"","landscape_designer":"","shinkenchiku_url":""},{"id":2687,"title":"イカワエックスパーク","architect":"昭和設計","year":2003.0,"address":"徳島県三好市井川町西井川1911-1","latitude":34.03300094604492,"longitude":133.85853576660156,"category":"公園","big_category":"レジャー施設","description":"","image_url":"","tags":"","prefecture":"徳島","contractor":"","structural_designer":"","landscape_designer":"","shinkenchiku_url":""},{"id":2688,"title":"小松島市保健センター／ミリカホール","architect":"丹下健三","year":1998.0,"address":"徳島県小松島市小松島町新港9-10","latitude":34.01009750366211,"longitude":134.58856201171875,"category":"福祉センター/ホール・劇場","big_category":"医療施設,文化施設","description":"","image_url":"","tags":"","prefecture":"徳島","contractor":"","structural_designer":"","landscape_designer":"","shinkenchiku_url":""},{"id":2689,"title":"松茂町第二体育館","architect":"竹原義二","year":2005.0,"address":"徳島県板野郡松茂町中喜来群恵312-5","latitude":34.142826080322266,"longitude":134.58889770507812,"category":"体育館","big_category":"レジャー施設","description":"","image_url":"","tags":"2007年日本建築学会 作品選奨","prefecture":"徳島","contractor":"","structural_designer":"","landscape_designer":"","shinkenchiku_url":""},{"id":2690,"title":"旧三河家住宅","architect":"不明","year":null,"address":"徳島県徳島市富田浜4-7","latitude":34.06646728515625,"longitude":134.5560760498047,"category":"洋館","big_category":"近代建築/遺産","description":"","image_url":"","tags":"重要文化財","prefecture":"徳島","contractor":"","structural_designer":"","landscape_designer":"","shinkenchiku_url":""},{"id":2691,"title":"美馬市立脇町図書館","architect":"いるか設計集団","year":1986.0,"address":"徳島県美馬市脇町大字脇町154-1","latitude":34.06803894042969,"longitude":134.1481475830078,"category":"図書館","big_category":"文化施設","description":"","image_url":"","tags":"1987年吉田五十八賞","prefecture":"徳島","contractor":"","structural_designer":"","landscape_designer":"","shinkenchiku_url":""},{"id":2692,"title":"大塚国際美術館","architect":"坂倉建築研究所","year":1998.0,"address":"徳島県鳴門市鳴門町土佐泊浦字福池65-1","latitude":34.23251724243164,"longitude":134.63772583007812,"category":"美術館","big_category":"ミュージアム","description":"","image_url":"","tags":"","prefecture":"徳島","contractor":"","structural_designer":"","landscape_designer":"","shinkenchiku_url":""},{"id":2693,"title":"鳴門市文化会館","architect":"増田友也","year":1982.0,"address":"徳島県鳴門市撫養町南浜字東浜24-7","latitude":34.17013931274414,"longitude":134.6112823486328,"category":"ホール・劇場","big_category":"文化施設","description":"","image_url":"","tags":"公共建築百選,DOCOMOMO","prefecture":"徳島","contractor":"安藤・間","structural_designer":"","landscape_designer":"","shinkenchiku_url":""},{"id":2694,"title":"脇町劇場／オデオン座","architect":"不明","year":1934.0,"address":"徳島県美馬市脇町猪尻字西分140-1","latitude":34.06820297241211,"longitude":134.1495819091797,"category":"洋館","big_category":"近代建築/遺産","description":"","image_url":"","tags":"","prefecture":"徳島","contractor":"","structural_designer":"","landscape_designer":"","shinkenchiku_url":""},{"id":2695,"title":"宇和島市歴史資料館","architect":"不明","year":1884.0,"address":"愛媛県宇和島市住吉町2-4-36","latitude":33.2264404296875,"longitude":132.5546112060547,"category":"洋館","big_category":"近代建築/遺産","description":"登録文化財","image_url":"","tags":"登録有形文化財","prefecture":"愛媛","contractor":"","structural_designer":"","landscape_designer":"","shinkenchiku_url":""},{"id":2696,"title":"木屋旅館","architect":"永山祐子","year":2012.0,"address":"愛媛県宇和島市本町追手2-8-2","latitude":33.21858215332031,"longitude":132.56832885742188,"category":"旅館","big_category":"宿泊","description":"","image_url":"","tags":"","prefecture":"愛媛","contractor":"","structural_designer":"","landscape_designer":"","shinkenchiku_url":""},{"id":2697,"title":"小島の旧軍施設","architect":"不明","year":null,"address":"愛媛県今治市来島","latitude":34.117252349853516,"longitude":132.96963500976562,"category":"産業遺産","big_category":"近代建築/遺産","description":"","image_url":"","tags":"","prefecture":"愛媛","contractor":"","structural_designer":"","landscape_designer":"","shinkenchiku_url":""},{"id":2698,"title":"亀老山展望台","architect":"隈研吾","year":1994.0,"address":"愛媛県今治市吉海町名 亀老山","latitude":34.11998748779297,"longitude":133.03350830078125,"category":"展望台","big_category":"レジャー施設","description":"","image_url":"","tags":"","prefecture":"愛媛","contractor":"","structural_designer":"","landscape_designer":"","shinkenchiku_url":""},{"id":2699,"title":"燧風苑（すいふうえん）","architect":"佐藤総合計画","year":2004.0,"address":"愛媛県今治市山方町1-乙45","latitude":34.06557846069336,"longitude":132.98016357421875,"category":"斎場","big_category":"公共施設","description":"","image_url":"","tags":"","prefecture":"愛媛","contractor":"","structural_designer":"","landscape_designer":"","shinkenchiku_url":""},{"id":2700,"title":"栄福寺 演仏堂 ／ 納経棟","architect":"白川在","year":2011.0,"address":"愛媛県今治市玉川町八幡200","latitude":34.02971649169922,"longitude":132.97836303710938,"category":"寺院","big_category":"宗教","description":"","image_url":"","tags":"","prefecture":"愛媛","contractor":"","structural_designer":"","landscape_designer":"","shinkenchiku_url":""}]}