{"page":38,"total_pages":290,"items_per_page":50,"total_items":14467,"items":[{"id":1851,"title":"石川近代文学館 石川四高記念文化交流館 旧第四高等中学校本館","architect":"山口半六+久留正道","year":1891.0,"address":"石川県金沢市広坂2-2-5","latitude":36.5625114440918,"longitude":136.65560913085938,"category":"博物館","big_category":"ミュージアム","description":"","image_url":"","tags":"","prefecture":"石川","contractor":"","structural_designer":"","landscape_designer":"","shinkenchiku_url":""},{"id":1852,"title":"本多の森ホール 旧石川厚生年金会館","architect":"黒川紀章","year":1977.0,"address":"石川県金沢市石引4-17-1","latitude":36.55815505981445,"longitude":136.66500854492188,"category":"ホール・劇場","big_category":"文化施設","description":"","image_url":"","tags":"","prefecture":"石川","contractor":"","structural_designer":"","landscape_designer":"","shinkenchiku_url":""},{"id":1853,"title":"尾山神社神門","architect":"不明","year":null,"address":"石川県金沢市尾山町11-1","latitude":36.56630325317383,"longitude":136.65586853027344,"category":"寺院","big_category":"宗教","description":"","image_url":"","tags":"","prefecture":"石川","contractor":"","structural_designer":"","landscape_designer":"","shinkenchiku_url":""},{"id":1854,"title":"金沢聖霊修道院聖堂","architect":"マックス・ヒンデル","year":1931.0,"address":"石川県金沢市長町1-5-20","latitude":36.56547927856445,"longitude":136.65069580078125,"category":"教会","big_category":"宗教","description":"","image_url":"","tags":"","prefecture":"石川","contractor":"","structural_designer":"","landscape_designer":"","shinkenchiku_url":""},{"id":1855,"title":"石川県政記念しいのき迎賓館","architect":"矢橋賢吉+山下設計","year":1924.0,"address":"石川県金沢市広坂2-1-1","latitude":36.56241226196289,"longitude":136.65789794921875,"category":"総合文化施設","big_category":"文化施設","description":"2010年山下設計により移築改修","image_url":"","tags":"","prefecture":"石川","contractor":"","structural_designer":"","landscape_designer":"","shinkenchiku_url":""},{"id":1856,"title":"日本基督教団 金沢教会","architect":"香山壽夫","year":2002.0,"address":"石川県金沢市柿木畠5-2","latitude":36.56067657470703,"longitude":136.6551513671875,"category":"教会","big_category":"宗教","description":"","image_url":"","tags":"新建築2004年2月号","prefecture":"石川","contractor":"","structural_designer":"","landscape_designer":"","shinkenchiku_url":""},{"id":1857,"title":"石川県庁舎石引分室 旧陸軍第九師団司令部庁舎","architect":"不明","year":null,"address":"石川県金沢市石引4-18-3","latitude":36.55974197387695,"longitude":136.66358947753906,"category":"庁舎","big_category":"公共施設","description":"","image_url":"","tags":"","prefecture":"石川","contractor":"","structural_designer":"","landscape_designer":"","shinkenchiku_url":""},{"id":1858,"title":"室生犀星記念館 (石川)","architect":"森俊偉","year":2002.0,"address":"石川県金沢市千日町3-22","latitude":36.559024810791016,"longitude":136.64820861816406,"category":"博物館","big_category":"ミュージアム","description":"","image_url":"","tags":"","prefecture":"石川","contractor":"","structural_designer":"","landscape_designer":"","shinkenchiku_url":""},{"id":1859,"title":"石川県立歴史博物館 旧金沢陸軍兵器支廠兵器庫","architect":"陸軍省経理部","year":1909.0,"address":"石川県金沢市出羽町3-1","latitude":36.55870056152344,"longitude":136.66275024414062,"category":"洋館/博物館","big_category":"近代建築/遺産,ミュージアム","description":"1909年～1914年竣工。長村建築事務所により1986年改修、博物館として開館","image_url":"","tags":"公共建築百選","prefecture":"石川","contractor":"","structural_designer":"","landscape_designer":"","shinkenchiku_url":""},{"id":1860,"title":"石川県立自然史資料館","architect":"森俊偉","year":2006.0,"address":"石川県金沢市銚子町リ441","latitude":36.523094177246094,"longitude":136.70571899414062,"category":"博物館","big_category":"ミュージアム","description":"","image_url":"","tags":"","prefecture":"石川","contractor":"","structural_designer":"","landscape_designer":"","shinkenchiku_url":""},{"id":1861,"title":"鈴木大拙館","architect":"谷口吉生","year":2011.0,"address":"石川県金沢市本多町3-4-20","latitude":36.557777404785156,"longitude":136.6612548828125,"category":"博物館","big_category":"ミュージアム","description":"","image_url":"","tags":"2020年村野藤吾賞","prefecture":"石川","contractor":"","structural_designer":"","landscape_designer":"","shinkenchiku_url":""},{"id":1862,"title":"金沢市立玉川図書館","architect":"谷口吉生+谷口吉郎","year":1978.0,"address":"石川県金沢市玉川町2-20","latitude":36.569637298583984,"longitude":136.65174865722656,"category":"図書館","big_category":"文化施設","description":"","image_url":"","tags":"DOCOMOMO,新建築1979年7月号","prefecture":"石川","contractor":"","structural_designer":"","landscape_designer":"","shinkenchiku_url":""},{"id":1863,"title":"金沢21世紀美術館","architect":"SANAA","year":2004.0,"address":"石川県金沢市広坂1-2-1","latitude":36.56086730957031,"longitude":136.65826416015625,"category":"美術館","big_category":"ミュージアム","description":"","image_url":"","tags":"2006年日本建築学会 作品賞","prefecture":"石川","contractor":"","structural_designer":"","landscape_designer":"","shinkenchiku_url":""},{"id":1864,"title":"金沢市海みらい図書館","architect":"シーラカンスK&H","year":2011.0,"address":"石川県金沢市寺中町イ1-1","latitude":36.59434127807617,"longitude":136.6042938232422,"category":"図書館","big_category":"文化施設","description":"","image_url":"","tags":"2012年度日本建築家協会賞,2015年日本建築学会 作品選奨","prefecture":"石川","contractor":"","structural_designer":"","landscape_designer":"","shinkenchiku_url":""},{"id":1865,"title":"金沢駅 もてなしドーム/鼓門","architect":"トデック+白江龍三","year":2005.0,"address":"石川県金沢市木ノ新保町 もてなしドーム","latitude":36.57799530029297,"longitude":136.64877319335938,"category":"駅","big_category":"インフラ","description":"","image_url":"","tags":"新建築2005年11月号","prefecture":"石川","contractor":"","structural_designer":"","landscape_designer":"","shinkenchiku_url":""},{"id":1866,"title":"成巽閣","architect":"不明","year":1882.0,"address":"石川県金沢市兼六町1-2","latitude":36.561065673828125,"longitude":136.66317749023438,"category":"洋館","big_category":"近代建築/遺産","description":"","image_url":"","tags":"","prefecture":"石川","contractor":"","structural_designer":"","landscape_designer":"","shinkenchiku_url":""},{"id":1867,"title":"石川県能登島ガラス美術館","architect":"毛綱毅曠","year":1991.0,"address":"石川県七尾市能登島向田町125-10","latitude":37.137611389160156,"longitude":136.99652099609375,"category":"美術館","big_category":"ミュージアム","description":"","image_url":"","tags":"","prefecture":"石川","contractor":"","structural_designer":"","landscape_designer":"","shinkenchiku_url":""},{"id":1868,"title":"石川県七尾美術館","architect":"内井昭蔵","year":1995.0,"address":"石川県七尾市小丸山台1-1","latitude":37.044776916503906,"longitude":136.9536895751953,"category":"美術館","big_category":"ミュージアム","description":"","image_url":"","tags":"","prefecture":"石川","contractor":"","structural_designer":"","landscape_designer":"","shinkenchiku_url":""},{"id":1869,"title":"珠洲市多目的ホール ラポルトすず","architect":"長谷川逸子","year":2006.0,"address":"石川県珠洲市飯田町1-1-8","latitude":37.43327331542969,"longitude":137.2611846923828,"category":"総合文化施設","big_category":"文化施設","description":"","image_url":"","tags":"新建築2006年9月号","prefecture":"石川","contractor":"","structural_designer":"","landscape_designer":"","shinkenchiku_url":""},{"id":1870,"title":"禄剛埼灯台","architect":"不明","year":1883.0,"address":"石川県珠洲市狼煙町イ-51","latitude":37.52876663208008,"longitude":137.32460021972656,"category":"産業遺産","big_category":"近代建築/遺産","description":"","image_url":"","tags":"","prefecture":"石川","contractor":"","structural_designer":"","landscape_designer":"","shinkenchiku_url":""},{"id":1871,"title":"小松市公会堂","architect":"浦建築研究所","year":1959.0,"address":"石川県小松市丸の内公園町32","latitude":36.408721923828125,"longitude":136.44740295410156,"category":"公共施設","big_category":"公共施設","description":"","image_url":"","tags":"","prefecture":"石川","contractor":"","structural_designer":"","landscape_designer":"","shinkenchiku_url":""},{"id":1872,"title":"小松高等学校記念館","architect":"不明","year":null,"address":"石川県小松市丸内町二の丸15","latitude":36.41187286376953,"longitude":136.4469757080078,"category":"洋館","big_category":"近代建築/遺産","description":"","image_url":"","tags":"","prefecture":"石川","contractor":"","structural_designer":"","landscape_designer":"","shinkenchiku_url":""},{"id":1873,"title":"小松市立本陣記念美術館","architect":"黒川紀章","year":1990.0,"address":"石川県小松市丸の内公園町19","latitude":36.40890884399414,"longitude":136.4483184814453,"category":"美術館","big_category":"ミュージアム","description":"","image_url":"","tags":"新建築1990年9月号","prefecture":"石川","contractor":"","structural_designer":"","landscape_designer":"","shinkenchiku_url":""},{"id":1874,"title":"真脇ポーレポーレ","architect":"象設計集団","year":1993.0,"address":"石川県鳳珠郡能登町真脇19-110","latitude":37.309078216552734,"longitude":137.20895385742188,"category":"ホテル","big_category":"宿泊","description":"","image_url":"","tags":"","prefecture":"石川","contractor":"","structural_designer":"","landscape_designer":"","shinkenchiku_url":""},{"id":1875,"title":"能登町縄文真脇温泉","architect":"象設計集団","year":1993.0,"address":"石川県鳳珠郡能登町真脇19-39","latitude":37.30738830566406,"longitude":137.2079620361328,"category":"温泉","big_category":"宿泊","description":"5～11月、火・水曜日休。要予約。","image_url":"","tags":"","prefecture":"石川","contractor":"","structural_designer":"","landscape_designer":"","shinkenchiku_url":""},{"id":1876,"title":"JAISTギャラリー","architect":"松田達","year":2013.0,"address":"石川県能美市旭台1-1","latitude":36.44446563720703,"longitude":136.5928497314453,"category":"ギャラリー","big_category":"ミュージアム","description":"北陸先端科学技術大学院大学構内。見学は1週間前までに申し込み","image_url":"","tags":"","prefecture":"石川","contractor":"","structural_designer":"","landscape_designer":"","shinkenchiku_url":""},{"id":1877,"title":"浅蔵五十吉美術館","architect":"池原義郎","year":1994.0,"address":"石川県能美市泉台町南1","latitude":36.42810821533203,"longitude":136.52090454101562,"category":"美術館","big_category":"ミュージアム","description":"","image_url":"","tags":"公共建築百選,新建築1994年7月号","prefecture":"石川","contractor":"","structural_designer":"","landscape_designer":"","shinkenchiku_url":""},{"id":1878,"title":"松任海浜公園展望休憩所 ／ 野外ステージ","architect":"松島健","year":1992.0,"address":"石川県白山市徳光町3206-1","latitude":36.53816604614258,"longitude":136.52999877929688,"category":"公園","big_category":"レジャー施設","description":"","image_url":"","tags":"","prefecture":"石川","contractor":"","structural_designer":"","landscape_designer":"","shinkenchiku_url":""},{"id":1879,"title":"もく遊りん","architect":"水野一郎","year":1999.0,"address":"石川県白山市八幡町リ-1-6","latitude":36.440372467041016,"longitude":136.63995361328125,"category":"ギャラリー/体験施設","big_category":"ミュージアム,レジャー施設","description":"","image_url":"","tags":"","prefecture":"石川","contractor":"","structural_designer":"","landscape_designer":"","shinkenchiku_url":""},{"id":1880,"title":"パーク獅子吼獅子ワールド館","architect":"水野一郎","year":1996.0,"address":"石川県白山市八幡町リ110","latitude":36.439517974853516,"longitude":136.64114379882812,"category":"博物館","big_category":"ミュージアム","description":"","image_url":"","tags":"","prefecture":"石川","contractor":"","structural_designer":"","landscape_designer":"","shinkenchiku_url":""},{"id":1881,"title":"石川県ふれあい昆虫館","architect":"瀧光夫","year":1998.0,"address":"石川県白山市八幡町戌3","latitude":36.444087982177734,"longitude":136.6322021484375,"category":"博物館","big_category":"ミュージアム","description":"","image_url":"","tags":"","prefecture":"石川","contractor":"","structural_designer":"","landscape_designer":"","shinkenchiku_url":""},{"id":1882,"title":"石川県林業試験場展示館","architect":"瀧光夫","year":1984.0,"address":"石川県白山市三宮町ホ1","latitude":36.43178939819336,"longitude":136.63926696777344,"category":"博物館","big_category":"ミュージアム","description":"","image_url":"","tags":"1990年公共建築賞","prefecture":"石川","contractor":"","structural_designer":"","landscape_designer":"","shinkenchiku_url":""},{"id":1883,"title":"金沢工業大学 金沢工業大学1号館 旧本館","architect":"大谷幸夫","year":1969.0,"address":"石川県野々市市扇が丘7-1","latitude":36.53044891357422,"longitude":136.62789916992188,"category":"大学","big_category":"教育","description":"","image_url":"","tags":"1982年日本建築学会 作品賞,DOCOMOMO","prefecture":"石川","contractor":"","structural_designer":"","landscape_designer":"","shinkenchiku_url":""},{"id":1884,"title":"野々市町役場新庁舎","architect":"香山壽夫","year":2004.0,"address":"石川県野々市市三納1-1","latitude":36.519466400146484,"longitude":136.60968017578125,"category":"庁舎","big_category":"公共施設","description":"","image_url":"","tags":"新建築2005年8月号","prefecture":"石川","contractor":"","structural_designer":"","landscape_designer":"","shinkenchiku_url":""},{"id":1885,"title":"能登・門前ファミリーイン ビュー・サンセット","architect":"毛綱毅曠","year":1991.0,"address":"石川県輪島市門前町千代29-58","latitude":37.268882751464844,"longitude":136.73397827148438,"category":"ホテル","big_category":"宿泊","description":"展望台は地震災害により閉鎖中。老朽化してますが、それ以外は大体残っていました","image_url":"","tags":"新建築1991年11月号","prefecture":"石川","contractor":"","structural_designer":"","landscape_designer":"","shinkenchiku_url":""},{"id":1886,"title":"別所岳SA展望台 能登ゆめてらす","architect":"鍔隆弘","year":2010.0,"address":"石川県能登有料道路別所岳サービスエリア","latitude":37.17853927612305,"longitude":136.85711669921875,"category":"PA・道の駅/展望台","big_category":"インフラ,レジャー施設","description":"","image_url":"","tags":"","prefecture":"石川","contractor":"","structural_designer":"","landscape_designer":"","shinkenchiku_url":""},{"id":1887,"title":"おおい町里山文化交流センター”ぶらっと”","architect":"徳岡設計","year":2012.0,"address":"福井県大飯郡おおい町名田庄久坂3-21-1","latitude":35.39993667602539,"longitude":135.68186950683594,"category":"図書館","big_category":"文化施設","description":"","image_url":"","tags":"","prefecture":"福井","contractor":"","structural_designer":"","landscape_designer":"","shinkenchiku_url":""},{"id":1888,"title":"福井県立大学 福井キャンパス","architect":"川崎清","year":1992.0,"address":"福井県吉田郡永平寺町松岡兼定島4-1-1","latitude":36.10962677001953,"longitude":136.27755737304688,"category":"大学","big_category":"教育","description":"","image_url":"","tags":"","prefecture":"福井","contractor":"","structural_designer":"","landscape_designer":"","shinkenchiku_url":""},{"id":1889,"title":"サンドーム福井","architect":"岡崎甚幸+川口衞","year":1995.0,"address":"福井県越前市瓜生町5-1-1","latitude":35.92991638183594,"longitude":136.18621826171875,"category":"ホール・劇場","big_category":"文化施設","description":"","image_url":"","tags":"公共建築百選,新建築1995年8月号","prefecture":"福井","contractor":"","structural_designer":"","landscape_designer":"","shinkenchiku_url":""},{"id":1890,"title":"タケフナイフヴィレッジ","architect":"毛綱毅曠","year":1993.0,"address":"福井県越前市余川町22-91","latitude":35.887962341308594,"longitude":136.23655700683594,"category":"店舗","big_category":"商業施設","description":"","image_url":"","tags":"","prefecture":"福井","contractor":"","structural_designer":"","landscape_designer":"","shinkenchiku_url":""},{"id":1891,"title":"越前がにミュージアム","architect":"森俊偉","year":2000.0,"address":"福井県丹生郡越前町厨71-324-1","latitude":35.92173385620117,"longitude":135.9973602294922,"category":"博物館","big_category":"ミュージアム","description":"","image_url":"","tags":"","prefecture":"福井","contractor":"","structural_designer":"","landscape_designer":"","shinkenchiku_url":""},{"id":1892,"title":"勝山市福祉健康センター すこやか","architect":"大建met","year":2005.0,"address":"福井県勝山市郡町1-1-50","latitude":36.06892395019531,"longitude":136.49636840820312,"category":"公民館・交流施設","big_category":"公共施設","description":"","image_url":"","tags":"","prefecture":"福井","contractor":"","structural_designer":"","landscape_designer":"","shinkenchiku_url":""},{"id":1893,"title":"みくに龍翔館","architect":"ジョージ・アルノルド・エッセル","year":1882.0,"address":"福井県坂井市三国町緑ヶ丘4-2-1","latitude":36.21996307373047,"longitude":136.1513671875,"category":"洋館/博物館","big_category":"近代建築/遺産,ミュージアム","description":"元は小学校。1914年に取り壊され、元の設計を踏襲した上で博物館として1981年に竣工（再建）","image_url":"","tags":"","prefecture":"福井","contractor":"","structural_designer":"","landscape_designer":"","shinkenchiku_url":""},{"id":1894,"title":"ONO MEMORIAL","architect":"赤土善蔵","year":2005.0,"address":"福井県坂井市三国町緑ヶ丘3-6-13","latitude":36.220829010009766,"longitude":136.14869689941406,"category":"美術館","big_category":"ミュージアム","description":"３月から１１月までの金・土・日曜日及び祝日のみ開館","image_url":"","tags":"","prefecture":"福井","contractor":"","structural_designer":"","landscape_designer":"","shinkenchiku_url":""},{"id":1895,"title":"旧森田銀行本店","architect":"山田七五郎","year":1920.0,"address":"福井県坂井市三国町南本町3-3-26","latitude":36.21359634399414,"longitude":136.1495361328125,"category":"洋館/金融機関","big_category":"近代建築/遺産,企業施設","description":"","image_url":"","tags":"","prefecture":"福井","contractor":"","structural_designer":"","landscape_designer":"","shinkenchiku_url":""},{"id":1896,"title":"Transtation 大関 京福電鉄大関駅","architect":"遠藤秀平","year":1996.0,"address":"福井県坂井市坂井町大味30-25","latitude":36.18674087524414,"longitude":136.20413208007812,"category":"駅","big_category":"インフラ","description":"","image_url":"","tags":"","prefecture":"福井","contractor":"","structural_designer":"","landscape_designer":"","shinkenchiku_url":""},{"id":1897,"title":"福井県児童科学館 エンゼルランドふくい","architect":"仙田満","year":1998.0,"address":"福井県坂井市春江町東太郎丸3-1","latitude":36.131591796875,"longitude":136.21670532226562,"category":"児童施設","big_category":"教育","description":"","image_url":"","tags":"","prefecture":"福井","contractor":"","structural_designer":"","landscape_designer":"","shinkenchiku_url":""},{"id":1898,"title":"若狭三方縄文博物館","architect":"横内敏人","year":2000.0,"address":"福井県三方上中郡若狭町鳥浜122-12-1","latitude":35.55875778198242,"longitude":135.89634704589844,"category":"博物館","big_category":"ミュージアム","description":"","image_url":"","tags":"","prefecture":"福井","contractor":"","structural_designer":"","landscape_designer":"","shinkenchiku_url":""},{"id":1899,"title":"縄文プラザ 里山里海湖研究所","architect":"横内敏人","year":2002.0,"address":"福井県三方上中郡若狭町鳥浜122-12-1","latitude":35.559810638427734,"longitude":135.89344787597656,"category":"観光施設","big_category":"レジャー施設","description":"","image_url":"","tags":"","prefecture":"福井","contractor":"","structural_designer":"","landscape_designer":"","shinkenchiku_url":""},{"id":1900,"title":"福井県立恐竜博物館","architect":"黒川紀章","year":2000.0,"address":"福井県勝山市村岡町寺尾51-11","latitude":36.08270263671875,"longitude":136.50648498535156,"category":"博物館","big_category":"ミュージアム","description":"","image_url":"","tags":"新建築2001年1月号","prefecture":"福井","contractor":"","structural_designer":"","landscape_designer":"","shinkenchiku_url":""}]}