{"page":245,"total_pages":290,"items_per_page":50,"total_items":14467,"items":[{"id":12201,"title":"旧亀井喜一郎邸","architect":"関根要太郎","year":1921.0,"address":"北海道函館市元町15-28","latitude":41.76343536376953,"longitude":140.71340942382812,"category":"洋館","big_category":"近代建築/遺産","description":"","image_url":"","tags":"Ver4.90(2023年4月)の追加建築","prefecture":"北海道","contractor":"","structural_designer":"","landscape_designer":"","shinkenchiku_url":""},{"id":12202,"title":"旧相馬邸","architect":"筒井与三郎","year":1908.0,"address":"北海道函館市元町33-2","latitude":41.765228271484375,"longitude":140.7108917236328,"category":"古民家","big_category":"近代建築/遺産","description":"一般公開されている","image_url":"","tags":"重要文化財,Ver4.90(2023年4月)の追加建築","prefecture":"北海道","contractor":"","structural_designer":"","landscape_designer":"","shinkenchiku_url":""},{"id":12203,"title":"函館市地域交流まちづくりセンター 旧丸井今井百貨店","architect":"佐藤吉三郎+木田保造","year":1923.0,"address":"北海道函館市末広町4-19","latitude":41.7638053894043,"longitude":140.71694946289062,"category":"洋館/公民館・交流施設","big_category":"近代建築/遺産,公共施設","description":"","image_url":"","tags":"Ver4.90(2023年4月)の追加建築","prefecture":"北海道","contractor":"","structural_designer":"","landscape_designer":"","shinkenchiku_url":""},{"id":12204,"title":"函館YWCA会館","architect":"不明","year":1926.0,"address":"北海道函館市松陰町1-12","latitude":41.78639221191406,"longitude":140.75869750976562,"category":"洋館/組合施設","big_category":"近代建築/遺産,公共施設","description":"","image_url":"","tags":"登録有形文化財,Ver4.90(2023年4月)の追加建築","prefecture":"北海道","contractor":"","structural_designer":"","landscape_designer":"","shinkenchiku_url":""},{"id":12205,"title":"はこだて明治館 旧函館郵便局","architect":"逓信省","year":1911.0,"address":"北海道函館市豊川町11-17","latitude":41.766563415527344,"longitude":140.71888732910156,"category":"洋館/店舗","big_category":"近代建築/遺産,商業施設","description":"","image_url":"","tags":"Ver4.90(2023年4月)の追加建築","prefecture":"北海道","contractor":"","structural_designer":"","landscape_designer":"","shinkenchiku_url":""},{"id":12206,"title":"遺愛学院本館 ホワイトハウス 旧宣教師館","architect":"ジェームズ・ガーディナー","year":1908.0,"address":"北海道函館市杉並町23-11","latitude":41.78571319580078,"longitude":140.75698852539062,"category":"洋館/学校","big_category":"近代建築/遺産,教育","description":"","image_url":"","tags":"重要文化財,Ver4.90(2023年4月)の追加建築","prefecture":"北海道","contractor":"","structural_designer":"","landscape_designer":"","shinkenchiku_url":""},{"id":12207,"title":"太刀川家住宅店舗","architect":"山本佐之吉","year":1901.0,"address":"北海道函館市弁天町15-28","latitude":41.771366119384766,"longitude":140.70863342285156,"category":"洋館/古民家","big_category":"近代建築/遺産,近代建築/遺産","description":"洋館部分の竣工は1915年","image_url":"","tags":"重要文化財,Ver4.90(2023年4月)の追加建築","prefecture":"北海道","contractor":"","structural_designer":"","landscape_designer":"","shinkenchiku_url":""},{"id":12208,"title":"遺愛学院本館 旧遺愛女学校校舎","architect":"ジェームズ・ガーディナー","year":1908.0,"address":"北海道函館市杉並町23-11","latitude":41.78725814819336,"longitude":140.75738525390625,"category":"洋館/学校","big_category":"近代建築/遺産,教育","description":"","image_url":"","tags":"重要文化財,Ver4.90(2023年4月)の追加建築","prefecture":"北海道","contractor":"","structural_designer":"","landscape_designer":"","shinkenchiku_url":""},{"id":12209,"title":"函館大手町ハウス 旧浅野セメント函館営業所","architect":"不明","year":1918.0,"address":"北海道函館市大手町5-1","latitude":41.77051544189453,"longitude":140.7232208251953,"category":"洋館/カフェ","big_category":"近代建築/遺産,商業施設","description":"","image_url":"","tags":"登録有形文化財,Ver4.90(2023年4月)の追加建築","prefecture":"北海道","contractor":"","structural_designer":"","landscape_designer":"","shinkenchiku_url":""},{"id":12210,"title":"函館中華会館","architect":"不明","year":1910.0,"address":"北海道函館市大町1-20","latitude":41.768062591552734,"longitude":140.70948791503906,"category":"洋館","big_category":"近代建築/遺産","description":"日本国内で唯一現存する清朝末期の建築物。現在外観のみ見学可能","image_url":"","tags":"登録有形文化財,Ver4.90(2023年4月)の追加建築","prefecture":"北海道","contractor":"","structural_designer":"","landscape_designer":"","shinkenchiku_url":""},{"id":12211,"title":"五島軒本店旧館","architect":"亀井勝次郎+竹下茂","year":1934.0,"address":"北海道函館市末広町4-13","latitude":41.763427734375,"longitude":140.7161865234375,"category":"洋館","big_category":"近代建築/遺産","description":"","image_url":"","tags":"登録有形文化財,Ver4.90(2023年4月)の追加建築","prefecture":"北海道","contractor":"","structural_designer":"","landscape_designer":"","shinkenchiku_url":""},{"id":12212,"title":"北海道教育大学 函館校北方教育資料室 旧函館師範学校","architect":"不明","year":1914.0,"address":"北海道函館市八幡町1-2","latitude":41.79381561279297,"longitude":140.74046325683594,"category":"洋館","big_category":"近代建築/遺産","description":"函館師範学校本館の中央部分を保存","image_url":"","tags":"登録有形文化財,Ver4.90(2023年4月)の追加建築","prefecture":"北海道","contractor":"","structural_designer":"","landscape_designer":"","shinkenchiku_url":""},{"id":12213,"title":"函館市公民館","architect":"小南武一","year":1933.0,"address":"北海道函館市青柳町12-17","latitude":41.75977325439453,"longitude":140.71575927734375,"category":"洋館","big_category":"近代建築/遺産","description":"","image_url":"","tags":"Ver4.90(2023年4月)の追加建築","prefecture":"北海道","contractor":"","structural_designer":"","landscape_designer":"","shinkenchiku_url":""},{"id":12214,"title":"函館市文学館 旧第一銀行函館支店","architect":"西村好時","year":1921.0,"address":"北海道函館市末広町22-5","latitude":41.766334533691406,"longitude":140.71328735351562,"category":"博物館/洋館","big_category":"ミュージアム,近代建築/遺産","description":"","image_url":"","tags":"Ver4.90(2023年4月)の追加建築","prefecture":"北海道","contractor":"","structural_designer":"","landscape_designer":"","shinkenchiku_url":""},{"id":12215,"title":"函館市北方民族資料館 旧日本銀行函館支店","architect":"平松浅一","year":1926.0,"address":"北海道函館市末広町21-7","latitude":41.76717758178711,"longitude":140.7119598388672,"category":"博物館/洋館","big_category":"ミュージアム,近代建築/遺産","description":"","image_url":"","tags":"Ver4.90(2023年4月)の追加建築","prefecture":"北海道","contractor":"","structural_designer":"","landscape_designer":"","shinkenchiku_url":""},{"id":12216,"title":"はこだて工芸舎 旧梅津商店","architect":"不明","year":1935.0,"address":"北海道函館市末広町8-8","latitude":41.76403045654297,"longitude":140.71905517578125,"category":"洋館/ギャラリー","big_category":"近代建築/遺産,ミュージアム","description":"","image_url":"","tags":"Ver4.90(2023年4月)の追加建築","prefecture":"北海道","contractor":"","structural_designer":"","landscape_designer":"","shinkenchiku_url":""},{"id":12217,"title":"函館市臨海研究所 旧函館西警察署庁舎","architect":"不明","year":1926.0,"address":"北海道函館市大町13-1","latitude":41.77077865600586,"longitude":140.71005249023438,"category":"洋館/研究施設","big_category":"近代建築/遺産,教育","description":"","image_url":"","tags":"Ver4.90(2023年4月)の追加建築","prefecture":"北海道","contractor":"","structural_designer":"","landscape_designer":"","shinkenchiku_url":""},{"id":12218,"title":"旧堤商会事務所","architect":"不明","year":1916.0,"address":"北海道函館市弁天町15-12","latitude":41.7715950012207,"longitude":140.70822143554688,"category":"洋館/カフェ","big_category":"近代建築/遺産,商業施設","description":"","image_url":"","tags":"Ver4.90(2023年4月)の追加建築","prefecture":"北海道","contractor":"","structural_designer":"","landscape_designer":"","shinkenchiku_url":""},{"id":12219,"title":"カルバートパーク","architect":"伊藤孝紀","year":2021.0,"address":"愛知県海部郡蟹江町蟹江新田下芝切183","latitude":35.121604919433594,"longitude":136.7846221923828,"category":"カフェ/児童施設","big_category":"商業施設,教育","description":"","image_url":"","tags":"Ver4.90(2023年4月)の追加建築","prefecture":"愛知","contractor":"","structural_designer":"","landscape_designer":"","shinkenchiku_url":""},{"id":12220,"title":"テラスヴィラ 癒穏","architect":"藤本高志","year":2021.0,"address":"和歌山県西牟婁郡白浜町2998-63","latitude":33.673667907714844,"longitude":135.339111328125,"category":"コテージ","big_category":"宿泊","description":"二棟のゲストハウス、一棟貸しヴィラ","image_url":"","tags":"Ver4.90(2023年4月)の追加建築","prefecture":"和歌山","contractor":"","structural_designer":"","landscape_designer":"","shinkenchiku_url":""},{"id":12221,"title":"大和ミュージアム 大型旋盤施設","architect":"阪根宏彦","year":2023.0,"address":"広島県呉市宝町5-20","latitude":34.241519927978516,"longitude":132.55462646484375,"category":"博物館","big_category":"ミュージアム","description":"阪根・大和興業デザインビルド。戦艦大和の主砲製造した大型旋盤の展示施設","image_url":"","tags":"Ver4.90(2023年4月)の追加建築,新建築2024年10月号","prefecture":"広島","contractor":"","structural_designer":"","landscape_designer":"","shinkenchiku_url":""},{"id":12222,"title":"メゾンフェニックスⅢ","architect":"宮森洋一郎","year":2018.0,"address":"広島県呉市中央1-6-3","latitude":34.24457550048828,"longitude":132.55943298339844,"category":"集合住宅","big_category":"住宅","description":"","image_url":"","tags":"Ver4.90(2023年4月)の追加建築","prefecture":"広島","contractor":"","structural_designer":"","landscape_designer":"","shinkenchiku_url":""},{"id":12223,"title":"杏庵","architect":"鍵山昌信","year":2022.0,"address":"広島県呉市豊町御手洗255-2","latitude":34.1799201965332,"longitude":132.86805725097656,"category":"コテージ/古民家","big_category":"宿泊,近代建築/遺産","description":"","image_url":"","tags":"Ver4.90(2023年4月)の追加建築","prefecture":"広島","contractor":"","structural_designer":"","landscape_designer":"","shinkenchiku_url":""},{"id":12224,"title":"tsubuta SANK!","architect":"鍵山昌信","year":2022.0,"address":"広島県尾道市向島町15321-5","latitude":34.3693733215332,"longitude":133.1754150390625,"category":"店舗/カフェ","big_category":"商業施設,商業施設","description":"","image_url":"","tags":"Ver4.90(2023年4月)の追加建築","prefecture":"広島","contractor":"","structural_designer":"","landscape_designer":"","shinkenchiku_url":""},{"id":12225,"title":"丹波山村役場","architect":"橋本尚樹+太陽⼯業","year":2023.0,"address":"⼭梨県北都留郡丹波⼭村2450","latitude":35.79170608520508,"longitude":138.917724609375,"category":"庁舎","big_category":"公共施設","description":"","image_url":"","tags":"Ver4.90(2023年4月)の追加建築,新建築2023年12月号","prefecture":"⼭梨","contractor":"","structural_designer":"","landscape_designer":"","shinkenchiku_url":""},{"id":12226,"title":"あぷりこっと保育園 エミタス久本","architect":"吉田明弘+TDLアーキテクツ","year":2018.0,"address":"神奈川県川崎市高津区久本2-8-18","latitude":35.59528350830078,"longitude":139.61212158203125,"category":"幼稚園","big_category":"教育","description":"","image_url":"","tags":"Ver4.90(2023年4月)の追加建築","prefecture":"神奈川","contractor":"","structural_designer":"","landscape_designer":"","shinkenchiku_url":""},{"id":12227,"title":"ガーデンスクエア鵠沼","architect":"石田敏明+TDLアーキテクツ","year":2021.0,"address":"神奈川県藤沢市鵠沼桜が岡3-12-1","latitude":35.328243255615234,"longitude":139.47654724121094,"category":"住宅","big_category":"住宅","description":"3棟の分譲住宅","image_url":"","tags":"Ver4.90(2023年4月)の追加建築","prefecture":"神奈川","contractor":"","structural_designer":"","landscape_designer":"","shinkenchiku_url":""},{"id":12228,"title":"ザ・オオサカ・テラス","architect":"藤本高志","year":2022.0,"address":"大阪府大阪市北区黒崎町11-1","latitude":34.70784378051758,"longitude":135.5089111328125,"category":"テナントビル","big_category":"商業施設","description":"","image_url":"","tags":"Ver4.90(2023年4月)の追加建築","prefecture":"大阪","contractor":"","structural_designer":"","landscape_designer":"","shinkenchiku_url":""},{"id":12229,"title":"ひろしまゲートパーク","architect":"大成建設","year":2023.0,"address":"広島県広島市中区基町5-25","latitude":34.3970947265625,"longitude":132.45486450195312,"category":"広場/公園/モール","big_category":"文化施設,レジャー施設,商業施設","description":"旧広島市民球場跡地","image_url":"","tags":"Ver4.90(2023年4月)の追加建築,新建築2023年7月号","prefecture":"広島","contractor":"大成建設","structural_designer":"","landscape_designer":"","shinkenchiku_url":""},{"id":12230,"title":"方南ローカルグッドブリュワーズ","architect":"齋藤隆太郎","year":2022.0,"address":"東京都杉並区方南2-11-7","latitude":35.68244934082031,"longitude":139.6582794189453,"category":"店舗","big_category":"商業施設","description":"","image_url":"","tags":"Ver4.90(2023年4月)の追加建築","prefecture":"東京","contractor":"ルーヴィス","structural_designer":"","landscape_designer":"","shinkenchiku_url":""},{"id":12231,"title":"蒲郡の店舗併用住宅 カルム","architect":"hm+architects","year":2019.0,"address":"愛知県蒲郡市三谷北通1-141","latitude":34.8200569152832,"longitude":137.2505645751953,"category":"店舗/住宅","big_category":"商業施設,住宅","description":"","image_url":"","tags":"Ver4.90(2023年4月)の追加建築","prefecture":"愛知","contractor":"丸中建設","structural_designer":"","landscape_designer":"","shinkenchiku_url":""},{"id":12232,"title":"湖と山と弧 さめうらテントパーク","architect":"伊原慶+和久田幸佑","year":2021.0,"address":"高知県土佐郡土佐町田井146-1","latitude":33.7495231628418,"longitude":133.54307556152344,"category":"公園/トイレ","big_category":"レジャー施設,公共施設","description":"炊事棟・トイレ棟・シャワー棟など","image_url":"","tags":"Ver4.90(2023年4月)の追加建築","prefecture":"高知","contractor":"宮崎技建","structural_designer":"","landscape_designer":"","shinkenchiku_url":""},{"id":12233,"title":"大三島みんなのワイナリー醸造所","architect":"曽我部昌史+吉岡寛之+マチデザイン+長谷川明","year":2019.0,"address":"愛媛県今治市大三島町宗方5208-2","latitude":34.19438934326172,"longitude":132.95362854003906,"category":"醸造所","big_category":"商業施設","description":"2018年～2019年設置されていた来島海峡サービスエリア仮設店舗を移築・再建築","image_url":"","tags":"Ver4.90(2023年4月)の追加建築","prefecture":"愛媛","contractor":"","structural_designer":"","landscape_designer":"","shinkenchiku_url":""},{"id":12234,"title":"大宮交通公園 特定公園施設 杜の家","architect":"赤熊宏紀","year":2021.0,"address":"京都府京都市北区大宮西脇台町17-1","latitude":35.053321838378906,"longitude":135.74359130859375,"category":"公園/公民館・交流施設","big_category":"レジャー施設,公共施設","description":"","image_url":"","tags":"Ver4.90(2023年4月)の追加建築","prefecture":"京都","contractor":"","structural_designer":"","landscape_designer":"","shinkenchiku_url":""},{"id":12235,"title":"管の広場","architect":"T2Pアーキテクツ","year":2022.0,"address":"神奈川県厚木市森の里若宮5-1","latitude":35.44215774536133,"longitude":139.31776428222656,"category":"広場/トイレ/企業施設","big_category":"文化施設,公共施設,企業施設","description":"","image_url":"","tags":"Ver4.90(2023年4月)の追加建築","prefecture":"神奈川","contractor":"","structural_designer":"","landscape_designer":"","shinkenchiku_url":""},{"id":12236,"title":"インフラスタンド KAWAYA-DESIGN","architect":"高橋真理奈","year":2022.0,"address":"埼玉県所沢市西新井町21-3","latitude":35.79340362548828,"longitude":139.47137451171875,"category":"トイレ","big_category":"公共施設","description":"","image_url":"","tags":"Ver4.90(2023年4月)の追加建築,新建築2024年1月号","prefecture":"埼玉","contractor":"21世紀工務店","structural_designer":"","landscape_designer":"","shinkenchiku_url":""},{"id":12237,"title":"ツインコート甲子園","architect":"木村博昭","year":1992.0,"address":"兵庫県西宮市甲子園浜田町9-26","latitude":34.729164123535156,"longitude":135.36102294921875,"category":"集合住宅","big_category":"住宅","description":"","image_url":"","tags":"Ver4.90(2023年4月)の追加建築","prefecture":"兵庫","contractor":"","structural_designer":"","landscape_designer":"","shinkenchiku_url":""},{"id":12238,"title":"東急歌舞伎町タワー","architect":"永山祐子+久米設計+東急設計コンサルタント","year":2023.0,"address":"東京都新宿区歌舞伎町1-29-1","latitude":35.6956672668457,"longitude":139.70059204101562,"category":"テナントビル/ホテル","big_category":"商業施設,宿泊","description":"","image_url":"","tags":"Ver4.90(2023年4月)の追加建築,新建築2023年5月号","prefecture":"東京","contractor":"","structural_designer":"","landscape_designer":"","shinkenchiku_url":""},{"id":12239,"title":"本照寺 納骨堂","architect":"松山将勝","year":2021.0,"address":"佐賀県鳥栖市本町1-886","latitude":33.376747131347656,"longitude":130.51333618164062,"category":"寺院","big_category":"宗教","description":"","image_url":"","tags":"Ver4.90(2023年4月)の追加建築,新建築2023年5月号","prefecture":"佐賀","contractor":"","structural_designer":"","landscape_designer":"","shinkenchiku_url":""},{"id":12240,"title":"奄美星宿","architect":"松山将勝","year":2021.0,"address":"鹿児島県奄美市笠利町大字喜瀬3529-1","latitude":28.45723533630371,"longitude":129.65240478515625,"category":"コテージ","big_category":"宿泊","description":"","image_url":"","tags":"Ver4.90(2023年4月)の追加建築","prefecture":"鹿児島","contractor":"","structural_designer":"","landscape_designer":"","shinkenchiku_url":""},{"id":12241,"title":"さくさくファーム","architect":"松山将勝","year":2021.0,"address":"福岡県行橋市金屋676-2","latitude":33.73439407348633,"longitude":130.99575805664062,"category":"店舗","big_category":"商業施設","description":"","image_url":"","tags":"Ver4.90(2023年4月)の追加建築","prefecture":"福岡","contractor":"","structural_designer":"","landscape_designer":"","shinkenchiku_url":""},{"id":12242,"title":"LIFE MEDICAL CARE いずみ","architect":"清水義文","year":2021.0,"address":"東京都西東京市泉町3-6-9","latitude":35.741310119628906,"longitude":139.5532684326172,"category":"医療施設","big_category":"医療施設","description":"","image_url":"","tags":"Ver4.90(2023年4月)の追加建築","prefecture":"東京","contractor":"","structural_designer":"","landscape_designer":"","shinkenchiku_url":""},{"id":12243,"title":"Hair room TOARU","architect":"関口貴人+新明工産","year":2023.0,"address":"埼玉県飯能市双柳225-1","latitude":35.84937286376953,"longitude":139.3299560546875,"category":"美容院","big_category":"商業施設","description":"","image_url":"","tags":"Ver4.90(2023年4月)の追加建築","prefecture":"埼玉","contractor":"","structural_designer":"","landscape_designer":"","shinkenchiku_url":""},{"id":12244,"title":"シーフォートスクエア シーフォートタワー","architect":"アール・アイ・エー","year":1992.0,"address":"東京都品川区東品川2-3-15","latitude":35.62438201904297,"longitude":139.7512969970703,"category":"ホテル/集合住宅","big_category":"宿泊,住宅","description":"","image_url":"","tags":"Ver4.90(2023年4月)の追加建築","prefecture":"東京","contractor":"","structural_designer":"","landscape_designer":"","shinkenchiku_url":""},{"id":12245,"title":"深川東京モダン館 旧東京市深川食堂","architect":"東京市","year":1932.0,"address":"東京都江東区門前仲町1-19-15","latitude":35.674102783203125,"longitude":139.79490661621094,"category":"観光施設/カフェ","big_category":"レジャー施設,商業施設","description":"","image_url":"","tags":"登録有形文化財,Ver4.90(2023年4月)の追加建築","prefecture":"東京","contractor":"","structural_designer":"","landscape_designer":"","shinkenchiku_url":""},{"id":12246,"title":"BULLET TOWER サントラスビル","architect":"堀池秀人","year":1989.0,"address":"東京都江東区亀戸2-23-9","latitude":35.6982536315918,"longitude":139.8244171142578,"category":"複合ビル","big_category":"企業施設","description":"","image_url":"","tags":"Ver4.90(2023年4月)の追加建築","prefecture":"東京","contractor":"","structural_designer":"","landscape_designer":"","shinkenchiku_url":""},{"id":12247,"title":"ライティングハウスTOKYO","architect":"カール・ベンクス","year":2006.0,"address":"東京都江東区亀戸3-6-26","latitude":35.70342254638672,"longitude":139.82154846191406,"category":"古民家/企業施設","big_category":"近代建築/遺産,企業施設","description":"十日町市の古民家を移築。ショールーム","image_url":"","tags":"Ver4.90(2023年4月)の追加建築","prefecture":"東京","contractor":"","structural_designer":"","landscape_designer":"","shinkenchiku_url":""},{"id":12248,"title":"カールベンクス古民家カフェ 澁い","architect":"カール・ベンクス","year":2010.0,"address":"新潟県十日町市松代2074-1","latitude":37.13449478149414,"longitude":138.6093292236328,"category":"古民家/カフェ","big_category":"近代建築/遺産,商業施設","description":"","image_url":"","tags":"Ver4.90(2023年4月)の追加建築","prefecture":"新潟","contractor":"","structural_designer":"","landscape_designer":"","shinkenchiku_url":""},{"id":12249,"title":"カールベンクス古民家ゲストハウス","architect":"カール・ベンクス","year":2018.0,"address":"新潟県十日町市松代3345","latitude":37.13386917114258,"longitude":138.610107421875,"category":"古民家/コテージ","big_category":"近代建築/遺産,宿泊","description":"","image_url":"","tags":"Ver4.90(2023年4月)の追加建築","prefecture":"新潟","contractor":"","structural_designer":"","landscape_designer":"","shinkenchiku_url":""},{"id":12250,"title":"AROUND ARCHITECTURE COFFEE","architect":"工藤浩平","year":2021.0,"address":"東京都練馬区北町3-21-4","latitude":35.768680572509766,"longitude":139.64976501464844,"category":"カフェ/住宅","big_category":"商業施設,住宅","description":"","image_url":"","tags":"Ver4.90(2023年4月)の追加建築","prefecture":"東京","contractor":"","structural_designer":"","landscape_designer":"","shinkenchiku_url":""}]}