{"page":142,"total_pages":290,"items_per_page":50,"total_items":14467,"items":[{"id":7051,"title":"湯河原駅前広場","architect":"隈研吾","year":2017.0,"address":"神奈川県足柄下郡湯河原町土肥1-1","latitude":35.14570617675781,"longitude":139.10208129882812,"category":"広場/駅","big_category":"文化施設,インフラ","description":"","image_url":"","tags":"Ver2.20(2017年11月)の追加建築","prefecture":"神奈川","contractor":"","structural_designer":"","landscape_designer":"","shinkenchiku_url":""},{"id":7052,"title":"高知県自治会館新庁舎","architect":"細木茂","year":2016.0,"address":"高知県高知市本町4-1-35","latitude":33.55925750732422,"longitude":133.53298950195312,"category":"庁舎","big_category":"公共施設","description":"","image_url":"","tags":"Ver2.20(2017年11月)の追加建築,新建築2017年11月号","prefecture":"高知","contractor":"","structural_designer":"","landscape_designer":"","shinkenchiku_url":""},{"id":7053,"title":"すくも商銀信用組合","architect":"平山昌信","year":2017.0,"address":"高知県宿毛市宿毛5508","latitude":32.930973052978516,"longitude":132.71055603027344,"category":"金融機関","big_category":"企業施設","description":"","image_url":"","tags":"Ver2.20(2017年11月)の追加建築,新建築2017年11月号","prefecture":"高知","contractor":"","structural_designer":"","landscape_designer":"","shinkenchiku_url":""},{"id":7054,"title":"国分寺フレーバーライフ社本社ビル","architect":"スタジオ・クハラ・ヤギ","year":2017.0,"address":"東京都国分寺市本町4-1-12","latitude":35.70056915283203,"longitude":139.47860717773438,"category":"オフィスビル","big_category":"企業施設","description":"","image_url":"","tags":"Ver2.20(2017年11月)の追加建築,新建築2017年11月号","prefecture":"東京","contractor":"","structural_designer":"","landscape_designer":"","shinkenchiku_url":""},{"id":7055,"title":"もものうらビレッジ メインハウス / 三角庵 / 炭庵","architect":"アトリエ・ワン+ドットアーキテクツ+佐藤布武+貝島桃代","year":2017.0,"address":"宮城県石巻市桃浦ウトキ","latitude":38.39750289916992,"longitude":141.43438720703125,"category":"コテージ/研修施設","big_category":"宿泊,教育","description":"全体計画：貝島桃代+佐藤布武","image_url":"","tags":"Ver2.20(2017年11月)の追加建築,新建築2017年11月号","prefecture":"宮城","contractor":"","structural_designer":"","landscape_designer":"","shinkenchiku_url":""},{"id":7056,"title":"東日本大震災津波物故者納骨堂","architect":"東京建設コンサルタント+乾久美子","year":2017.0,"address":"岩手県上閉伊郡大槌町小鎚第32地割字金崎126-34","latitude":39.36151123046875,"longitude":141.89849853515625,"category":"霊園","big_category":"宗教","description":"詳細な場所は不明","image_url":"","tags":"Ver2.20(2017年11月)の追加建築,新建築2017年11月号","prefecture":"岩手","contractor":"","structural_designer":"","landscape_designer":"","shinkenchiku_url":""},{"id":7057,"title":"ふたば 富岡本社屋","architect":"はりゅうウッドスタジオ","year":2017.0,"address":"福島県双葉郡富岡町大字小浜字中央592","latitude":37.33711624145508,"longitude":141.01849365234375,"category":"低層オフィス","big_category":"企業施設","description":"","image_url":"","tags":"Ver2.20(2017年11月)の追加建築,新建築2017年11月号","prefecture":"福島","contractor":"","structural_designer":"","landscape_designer":"","shinkenchiku_url":""},{"id":7058,"title":"ふたば 郡山社屋","architect":"はりゅうウッドスタジオ","year":2017.0,"address":"福島県郡山市安積3-157-2","latitude":37.3564338684082,"longitude":140.36607360839844,"category":"低層オフィス","big_category":"企業施設","description":"","image_url":"","tags":"Ver2.20(2017年11月)の追加建築,新建築2017年11月号","prefecture":"福島","contractor":"","structural_designer":"","landscape_designer":"","shinkenchiku_url":""},{"id":7059,"title":"東急池上線戸越銀座駅","architect":"鈴木靖+東京急行電鉄","year":2016.0,"address":"東京都品川区平塚2-16-1","latitude":35.61597442626953,"longitude":139.71502685546875,"category":"駅","big_category":"インフラ","description":"","image_url":"","tags":"Ver2.20(2017年11月)の追加建築,新建築2017年11月号","prefecture":"東京","contractor":"","structural_designer":"","landscape_designer":"","shinkenchiku_url":""},{"id":7060,"title":"道の駅 和紙の里ひがしちちぶ 農産物直売所他","architect":"松本康弘","year":2016.0,"address":"埼玉県秩父郡東秩父村御堂441","latitude":36.05251693725586,"longitude":139.2033233642578,"category":"PA・道の駅","big_category":"インフラ","description":"","image_url":"","tags":"Ver2.20(2017年11月)の追加建築,新建築2017年11月号","prefecture":"埼玉","contractor":"","structural_designer":"","landscape_designer":"","shinkenchiku_url":""},{"id":7061,"title":"道の駅 和紙の里ひがしちちぶ バスターミナル","architect":"水谷意匠","year":2016.0,"address":"埼玉県秩父郡東秩父村御堂441","latitude":36.0528678894043,"longitude":139.2032928466797,"category":"駅/PA・道の駅","big_category":"インフラ,インフラ","description":"","image_url":"","tags":"Ver2.20(2017年11月)の追加建築,新建築2017年11月号","prefecture":"埼玉","contractor":"","structural_designer":"","landscape_designer":"","shinkenchiku_url":""},{"id":7062,"title":"妙全院 客殿","architect":"原尚","year":2017.0,"address":"東京都町田市広袴2-14-23","latitude":35.596214294433594,"longitude":139.47161865234375,"category":"寺院","big_category":"宗教","description":"","image_url":"","tags":"Ver2.20(2017年11月)の追加建築","prefecture":"東京","contractor":"","structural_designer":"","landscape_designer":"","shinkenchiku_url":""},{"id":7063,"title":"大学セミナーハウス Dining Hall やまゆり","architect":"嶋田幸男+齊藤祐子","year":2016.0,"address":"東京都八王子市下柚木1987-1","latitude":35.629249572753906,"longitude":139.3657989501953,"category":"レストラン","big_category":"商業施設","description":"","image_url":"","tags":"Ver2.20(2017年11月)の追加建築","prefecture":"東京","contractor":"","structural_designer":"","landscape_designer":"","shinkenchiku_url":""},{"id":7064,"title":"明治神宮 CAFE 杜のテラス","architect":"オークヴィレッジ木造建築研究所","year":2016.0,"address":"東京都渋谷区代々木神園町11","latitude":35.66972351074219,"longitude":139.70179748535156,"category":"カフェ","big_category":"商業施設","description":"","image_url":"","tags":"Ver2.20(2017年11月)の追加建築","prefecture":"東京","contractor":"","structural_designer":"","landscape_designer":"","shinkenchiku_url":""},{"id":7065,"title":"つるぎ町役場庁舎改修","architect":"多田善昭","year":1971.0,"address":"徳島県美馬郡つるぎ町貞光字東浦1-3","latitude":34.03731155395508,"longitude":134.0640869140625,"category":"庁舎","big_category":"公共施設","description":"1971年竣工の庁舎を2017年改修。元の設計者は不明。","image_url":"","tags":"Ver2.20(2017年11月)の追加建築","prefecture":"徳島","contractor":"","structural_designer":"","landscape_designer":"","shinkenchiku_url":""},{"id":7066,"title":"たまご専門店danran","architect":"多田善昭","year":2017.0,"address":"香川県木田郡三木町井上1-1","latitude":34.287567138671875,"longitude":134.138916015625,"category":"店舗","big_category":"商業施設","description":"","image_url":"","tags":"Ver2.20(2017年11月)の追加建築","prefecture":"香川","contractor":"","structural_designer":"","landscape_designer":"","shinkenchiku_url":""},{"id":7067,"title":"涸沢ヒュッテ新館","architect":"吉阪隆正","year":1963.0,"address":"長野県松本市安曇4469-1","latitude":36.29390335083008,"longitude":137.66336059570312,"category":"観光施設","big_category":"レジャー施設","description":"","image_url":"","tags":"Ver2.20(2017年11月)の追加建築","prefecture":"長野","contractor":"","structural_designer":"","landscape_designer":"","shinkenchiku_url":""},{"id":7068,"title":"野沢温泉ロッヂ","architect":"吉阪隆正","year":1969.0,"address":"長野県下高井郡下高井郡野沢温泉村豊郷豊郷大湯7812","latitude":36.92068099975586,"longitude":138.45156860351562,"category":"ホテル","big_category":"宿泊","description":"2017年改修再オープン。隣地に古谷俊一設計の新館","image_url":"","tags":"Ver2.20(2017年11月)の追加建築","prefecture":"長野","contractor":"","structural_designer":"","landscape_designer":"","shinkenchiku_url":""},{"id":7069,"title":"黒沢池ヒュッテ","architect":"吉阪隆正","year":1969.0,"address":"新潟県妙高市 黒沢池ヒュッテ","latitude":36.90642547607422,"longitude":138.1016082763672,"category":"コテージ","big_category":"宿泊","description":"airbnbで宿泊可能","image_url":"","tags":"Ver2.20(2017年11月)の追加建築","prefecture":"新潟","contractor":"","structural_designer":"","landscape_designer":"","shinkenchiku_url":""},{"id":7070,"title":"国民宿舎 天望立山荘","architect":"吉阪隆正","year":1963.0,"address":"富山県中新川郡立山町弥陀ケ原","latitude":36.56673812866211,"longitude":137.55731201171875,"category":"ホテル","big_category":"宿泊","description":"","image_url":"","tags":"Ver2.20(2017年11月)の追加建築","prefecture":"富山","contractor":"","structural_designer":"","landscape_designer":"","shinkenchiku_url":""},{"id":7071,"title":"旅館くらしき","architect":"浦辺鎮太郎","year":1957.0,"address":"岡山県倉敷市本町4-1","latitude":34.59580612182617,"longitude":133.772216796875,"category":"旅館","big_category":"宿泊","description":"","image_url":"","tags":"Ver2.20(2017年11月)の追加建築","prefecture":"岡山","contractor":"","structural_designer":"","landscape_designer":"","shinkenchiku_url":""},{"id":7072,"title":"天橋立温泉 文珠荘","architect":"吉村順三","year":1966.0,"address":"京都府宮津市文珠510","latitude":35.556373596191406,"longitude":135.18563842773438,"category":"旅館","big_category":"宿泊","description":"","image_url":"","tags":"Ver2.20(2017年11月)の追加建築","prefecture":"京都","contractor":"","structural_designer":"","landscape_designer":"","shinkenchiku_url":""},{"id":7073,"title":"京都大学 桂キャンパス","architect":"日建設計","year":2004.0,"address":"京都府京都市西京区京都大学桂","latitude":34.980926513671875,"longitude":135.68043518066406,"category":"大学","big_category":"教育","description":"","image_url":"","tags":"Ver2.20(2017年11月)の追加建築","prefecture":"京都","contractor":"","structural_designer":"","landscape_designer":"","shinkenchiku_url":""},{"id":7074,"title":"イノテックス・ジャパン ギャラリー","architect":"ヤツシャハルアーキテクツ","year":2013.0,"address":"栃木県足利市緑町1-3-1","latitude":36.33692932128906,"longitude":139.43746948242188,"category":"ギャラリー/企業施設","big_category":"ミュージアム,企業施設","description":"","image_url":"","tags":"Ver2.20(2017年11月)の追加建築","prefecture":"栃木","contractor":"","structural_designer":"","landscape_designer":"","shinkenchiku_url":""},{"id":7075,"title":"グランフロント大阪","architect":"日建設計+三菱地所+NTTファシリティーズ+安藤忠雄","year":2013.0,"address":"大阪府大阪市北区大深町4-1","latitude":34.70427703857422,"longitude":135.49481201171875,"category":"複合施設/オフィスビル/ホール・劇場","big_category":"商業施設,企業施設,文化施設","description":"うめきた広場 基本デザイン・デザイン監修：安藤忠雄","image_url":"","tags":"Ver2.20(2017年11月)の追加建築","prefecture":"大阪","contractor":"","structural_designer":"","landscape_designer":"","shinkenchiku_url":""},{"id":7076,"title":"山梨県立愛宕山少年自然の家","architect":"仙田満","year":1973.0,"address":"山梨県甲府市愛宕町358-1","latitude":35.67307662963867,"longitude":138.58682250976562,"category":"研修施設/児童施設","big_category":"教育,教育","description":"","image_url":"","tags":"Ver2.20(2017年11月)の追加建築","prefecture":"山梨","contractor":"","structural_designer":"","landscape_designer":"","shinkenchiku_url":""},{"id":7077,"title":"Miriz 渡辺総合保険事務所","architect":"菊池佳晴","year":2014.0,"address":"宮城県柴田郡大河原町広表29-14","latitude":38.046817779541016,"longitude":140.71580505371094,"category":"低層オフィス/店舗","big_category":"企業施設,商業施設","description":"","image_url":"","tags":"Ver2.20(2017年11月)の追加建築","prefecture":"宮城","contractor":"","structural_designer":"","landscape_designer":"","shinkenchiku_url":""},{"id":7078,"title":"宮津武田病院","architect":"沖種郎","year":1971.0,"address":"京都府宮津市鶴賀2059-1","latitude":35.53641891479492,"longitude":135.19821166992188,"category":"病院","big_category":"医療施設","description":"","image_url":"","tags":"Ver2.20(2017年11月)の追加建築","prefecture":"京都","contractor":"","structural_designer":"","landscape_designer":"","shinkenchiku_url":""},{"id":7079,"title":"与謝医師会館","architect":"沖種郎","year":1960.0,"address":"京都府宮津市字鶴賀2109-3","latitude":35.53398132324219,"longitude":135.1976318359375,"category":"組合施設","big_category":"公共施設","description":"","image_url":"","tags":"Ver2.20(2017年11月)の追加建築","prefecture":"京都","contractor":"","structural_designer":"","landscape_designer":"","shinkenchiku_url":""},{"id":7080,"title":"舞鶴市総合文化会館","architect":"加藤邦男+深田建築事務所","year":1983.0,"address":"京都府舞鶴市字浜2021","latitude":35.476768493652344,"longitude":135.388671875,"category":"ホール・劇場","big_category":"文化施設","description":"","image_url":"","tags":"Ver2.20(2017年11月)の追加建築","prefecture":"京都","contractor":"","structural_designer":"","landscape_designer":"","shinkenchiku_url":""},{"id":7081,"title":"舞鶴市引揚記念館 記念公園","architect":"加藤邦男","year":1995.0,"address":"京都府舞鶴市平1584","latitude":35.50950241088867,"longitude":135.39671325683594,"category":"博物館/公園","big_category":"ミュージアム,レジャー施設","description":"","image_url":"","tags":"Ver2.20(2017年11月)の追加建築","prefecture":"京都","contractor":"","structural_designer":"","landscape_designer":"","shinkenchiku_url":""},{"id":7082,"title":"関西日仏交流会館 ヴィラ九条山","architect":"加藤邦男","year":1992.0,"address":"京都府京都市山科区日ノ岡夷谷町17-22","latitude":35.00498580932617,"longitude":135.79295349121094,"category":"研修施設","big_category":"教育","description":"","image_url":"","tags":"Ver2.20(2017年11月)の追加建築","prefecture":"京都","contractor":"","structural_designer":"","landscape_designer":"","shinkenchiku_url":""},{"id":7083,"title":"徳島阿波おどり空港","architect":"梓設計","year":2000.0,"address":"徳島県板野郡松茂町豊久字朝日野16-2","latitude":34.1345100402832,"longitude":134.61798095703125,"category":"空港","big_category":"インフラ","description":"","image_url":"","tags":"Ver2.20(2017年11月)の追加建築","prefecture":"徳島","contractor":"","structural_designer":"","landscape_designer":"","shinkenchiku_url":""},{"id":7084,"title":"朝倉市秋月博物館","architect":"徳岡設計","year":2017.0,"address":"福岡県朝倉市秋月野鳥532-2","latitude":33.46930694580078,"longitude":130.69398498535156,"category":"博物館","big_category":"ミュージアム","description":"","image_url":"","tags":"Ver2.20(2017年11月)の追加建築","prefecture":"福岡","contractor":"","structural_designer":"","landscape_designer":"","shinkenchiku_url":""},{"id":7085,"title":"秋田オーパ","architect":"青木茂","year":2017.0,"address":"秋田県秋田市千秋久保田町4-2","latitude":39.7177848815918,"longitude":140.1282501220703,"category":"テナントビル","big_category":"商業施設","description":"昭和49年竣工の百貨店をリファイニング","image_url":"","tags":"Ver2.20(2017年11月)の追加建築,新建築2018年4月号","prefecture":"秋田","contractor":"","structural_designer":"","landscape_designer":"","shinkenchiku_url":""},{"id":7086,"title":"武生公会堂記念館","architect":"武生土建","year":1929.0,"address":"福井県越前市蓬莱町8-8","latitude":35.90174865722656,"longitude":136.16831970214844,"category":"博物館","big_category":"ミュージアム","description":"","image_url":"","tags":"Ver2.20(2017年11月)の追加建築","prefecture":"福井","contractor":"","structural_designer":"","landscape_designer":"","shinkenchiku_url":""},{"id":7087,"title":"日華化学イノベーションセンター","architect":"小堀哲夫","year":2017.0,"address":"福井県福井市文京4-23-1","latitude":36.07962417602539,"longitude":136.20889282226562,"category":"低層オフィス/研究施設","big_category":"企業施設,教育","description":"","image_url":"","tags":"Ver2.20(2017年11月)の追加建築,新建築2018年1月号,2018年度JIA日本建築大賞,2022年日本建築学会 作品選奨","prefecture":"福井","contractor":"","structural_designer":"","landscape_designer":"","shinkenchiku_url":""},{"id":7088,"title":"Found Harajuku","architect":"谷尻誠","year":2017.0,"address":"東京都渋谷区神宮前1-20-2","latitude":35.67172622680664,"longitude":139.70484924316406,"category":"低層オフィス","big_category":"企業施設","description":"","image_url":"","tags":"Ver2.20(2017年11月)の追加建築","prefecture":"東京","contractor":"","structural_designer":"","landscape_designer":"","shinkenchiku_url":""},{"id":7089,"title":"ひぐらしガーデン","architect":"谷尻誠","year":2016.0,"address":"東京都荒川区西日暮里2−6−7","latitude":35.7318229675293,"longitude":139.77394104003906,"category":"店舗","big_category":"商業施設","description":"","image_url":"","tags":"Ver2.20(2017年11月)の追加建築","prefecture":"東京","contractor":"","structural_designer":"","landscape_designer":"","shinkenchiku_url":""},{"id":7090,"title":"古我邸","architect":"桜井小太郎","year":1916.0,"address":"神奈川県鎌倉市扇ガ谷1-7-23","latitude":35.321964263916016,"longitude":139.5487823486328,"category":"レストラン/洋館/結婚式場","big_category":"商業施設,近代建築/遺産,宗教","description":"","image_url":"","tags":"Ver2.20(2017年11月)の追加建築","prefecture":"神奈川","contractor":"","structural_designer":"","landscape_designer":"","shinkenchiku_url":""},{"id":7091,"title":"セブンハーツ 旧小寺敬一邸","architect":"ウィリアム・メレル・ヴォーリズ","year":1930.0,"address":"兵庫県神戸市東灘区住吉山手4-9-14","latitude":34.72840118408203,"longitude":135.25564575195312,"category":"洋館/住宅","big_category":"近代建築/遺産,住宅","description":"輸入家具のショールームとの情報もあるが詳細不明","image_url":"","tags":"Ver2.20(2017年11月)の追加建築","prefecture":"兵庫","contractor":"","structural_designer":"","landscape_designer":"","shinkenchiku_url":""},{"id":7092,"title":"ギノザリゾート 美らの教会","architect":"大堀伸","year":2017.0,"address":"沖縄県国頭郡宜野座村惣慶下袋原396-398-1182","latitude":26.468502044677734,"longitude":127.96808624267578,"category":"結婚式場","big_category":"宗教","description":"","image_url":"","tags":"Ver2.20(2017年11月)の追加建築","prefecture":"沖縄","contractor":"","structural_designer":"","landscape_designer":"","shinkenchiku_url":""},{"id":7093,"title":"白の教会","architect":"日建設計","year":2014.0,"address":"沖縄県国頭郡本部町備瀬148-1","latitude":26.699861526489258,"longitude":127.87931060791016,"category":"結婚式場","big_category":"宗教","description":"","image_url":"","tags":"Ver2.20(2017年11月)の追加建築","prefecture":"沖縄","contractor":"","structural_designer":"","landscape_designer":"","shinkenchiku_url":""},{"id":7094,"title":"広島県立総合体育館 広島グリーンアリーナ","architect":"日建設計","year":1993.0,"address":"広島県広島市中区基町4-1","latitude":34.39940643310547,"longitude":132.45509338378906,"category":"体育館","big_category":"レジャー施設","description":"","image_url":"","tags":"Ver2.20(2017年11月)の追加建築","prefecture":"広島","contractor":"","structural_designer":"","landscape_designer":"","shinkenchiku_url":""},{"id":7095,"title":"いしうちの森","architect":"宮森洋一郎","year":2007.0,"address":"広島県広島市佐伯区五日市町石内3912","latitude":34.411598205566406,"longitude":132.38075256347656,"category":"公共施設","big_category":"公共施設","description":"","image_url":"","tags":"Ver2.20(2017年11月)の追加建築","prefecture":"広島","contractor":"","structural_designer":"","landscape_designer":"","shinkenchiku_url":""},{"id":7096,"title":"広島県情報プラザ 広島県立図書館","architect":"佐藤総合計画","year":1988.0,"address":"広島県広島市中区千田町3-7-47","latitude":34.37718963623047,"longitude":132.45404052734375,"category":"図書館","big_category":"文化施設","description":"","image_url":"","tags":"Ver2.20(2017年11月)の追加建築","prefecture":"広島","contractor":"","structural_designer":"","landscape_designer":"","shinkenchiku_url":""},{"id":7097,"title":"筆の里工房","architect":"村田相互設計","year":1994.0,"address":"広島県安芸郡熊野町中溝5-17-1","latitude":34.34276580810547,"longitude":132.5753936767578,"category":"博物館","big_category":"ミュージアム","description":"","image_url":"","tags":"Ver2.20(2017年11月)の追加建築","prefecture":"広島","contractor":"","structural_designer":"","landscape_designer":"","shinkenchiku_url":""},{"id":7098,"title":"茨木カンツリー倶楽部ハウス","architect":"渡辺節","year":1963.0,"address":"大阪府茨木市中穂積25","latitude":34.823875427246094,"longitude":135.54168701171875,"category":"クラブハウス","big_category":"レジャー施設","description":"","image_url":"","tags":"Ver2.20(2017年11月)の追加建築","prefecture":"大阪","contractor":"","structural_designer":"","landscape_designer":"","shinkenchiku_url":""},{"id":7099,"title":"近藤悠三記念館","architect":"間宮晨一千","year":2017.0,"address":"京都府京都市東山区清水1-287","latitude":34.994808197021484,"longitude":135.7816619873047,"category":"ギャラリー","big_category":"ミュージアム","description":"","image_url":"","tags":"Ver2.20(2017年11月)の追加建築","prefecture":"京都","contractor":"","structural_designer":"","landscape_designer":"","shinkenchiku_url":""},{"id":7100,"title":"川崎市スポーツ・文化総合センター カルッツかわさき","architect":"日本設計+鹿島建設","year":2017.0,"address":"神奈川県川崎市川崎区富士見1-1-4","latitude":35.52973175048828,"longitude":139.70846557617188,"category":"ホール・劇場/体育館","big_category":"文化施設,レジャー施設","description":"","image_url":"","tags":"Ver2.20(2017年11月)の追加建築","prefecture":"神奈川","contractor":"","structural_designer":"","landscape_designer":"","shinkenchiku_url":""}]}