{"page":135,"total_pages":290,"items_per_page":50,"total_items":14467,"items":[{"id":6701,"title":"明治大学付属中野八王子中学校・高等学校 ","architect":"五味道雄","year":1984.0,"address":"東京都八王子市戸吹町1100","latitude":35.706966400146484,"longitude":139.28330993652344,"category":"学校","big_category":"教育","description":"","image_url":"","tags":"2008年JIA25年賞,Ver1.95(2017年6月)の追加建築","prefecture":"東京","contractor":"","structural_designer":"","landscape_designer":"","shinkenchiku_url":""},{"id":6702,"title":"東大和市立中央図書館","architect":"坂倉建築研究所","year":1982.0,"address":"東京都東大和市中央3-930","latitude":35.74470138549805,"longitude":139.42703247070312,"category":"図書館","big_category":"文化施設","description":"","image_url":"","tags":"2010年JIA25年賞,Ver1.95(2017年6月)の追加建築","prefecture":"東京","contractor":"","structural_designer":"","landscape_designer":"","shinkenchiku_url":""},{"id":6703,"title":"聖コロンバン会本部","architect":"長島孝一","year":1979.0,"address":"東京都世田谷区上用賀4-1-10","latitude":35.63447952270508,"longitude":139.6310577392578,"category":"教会/集合住宅","big_category":"宗教,住宅","description":"","image_url":"","tags":"2010年JIA25年賞,Ver1.95(2017年6月)の追加建築","prefecture":"東京","contractor":"","structural_designer":"","landscape_designer":"","shinkenchiku_url":""},{"id":6704,"title":"大龍堂書店","architect":"吉村篤一","year":1982.0,"address":"京都府京都市中京区新椹木町竹屋町上西革堂175","latitude":35.01621627807617,"longitude":135.7686309814453,"category":"店舗","big_category":"商業施設","description":"","image_url":"","tags":"2010年JIA25年賞,Ver1.95(2017年6月)の追加建築","prefecture":"京都","contractor":"","structural_designer":"","landscape_designer":"","shinkenchiku_url":""},{"id":6705,"title":"ゆりが丘ヴィレッジ","architect":"井出共治","year":1986.0,"address":"神奈川県川崎市麻生区高石5-21","latitude":35.60683059692383,"longitude":139.52273559570312,"category":"集合住宅","big_category":"住宅","description":"","image_url":"","tags":"2011年JIA25年賞,Ver1.95(2017年6月)の追加建築","prefecture":"神奈川","contractor":"","structural_designer":"","landscape_designer":"","shinkenchiku_url":""},{"id":6706,"title":"トヨタ東京本社ビル","architect":"日建設計","year":1982.0,"address":"東京都文京区後楽1-4-18","latitude":35.7037239074707,"longitude":139.74887084960938,"category":"オフィスビル","big_category":"企業施設","description":"","image_url":"","tags":"2011年JIA25年賞,Ver1.95(2017年6月)の追加建築","prefecture":"東京","contractor":"","structural_designer":"","landscape_designer":"","shinkenchiku_url":""},{"id":6707,"title":"スタンレー電気技術研究所 本棟","architect":"阿部勤","year":1985.0,"address":"神奈川県横浜市青葉区荏田西1-3-1","latitude":35.556148529052734,"longitude":139.54995727539062,"category":"研究施設","big_category":"教育","description":"","image_url":"","tags":"2011年JIA25年賞,Ver1.95(2017年6月)の追加建築,新建築 1986年2月号","prefecture":"神奈川","contractor":"","structural_designer":"","landscape_designer":"","shinkenchiku_url":""},{"id":6708,"title":"セントメリーズ・ロッジ","architect":"小沢明","year":1987.0,"address":"群馬県吾妻郡嬬恋村干俣377-1611","latitude":36.54526901245117,"longitude":138.46949768066406,"category":"研修施設","big_category":"教育","description":"","image_url":"","tags":"2012年JIA25年賞,Ver1.95(2017年6月)の追加建築","prefecture":"群馬","contractor":"","structural_designer":"","landscape_designer":"","shinkenchiku_url":""},{"id":6709,"title":"浦安市立中央図書館","architect":"佐藤総合計画","year":1982.0,"address":"千葉県浦安市猫実1-2-1","latitude":35.65547180175781,"longitude":139.9020233154297,"category":"図書館","big_category":"文化施設","description":"","image_url":"","tags":"2012年JIA25年賞,Ver1.95(2017年6月)の追加建築","prefecture":"千葉","contractor":"","structural_designer":"","landscape_designer":"","shinkenchiku_url":""},{"id":6710,"title":"サントリーホール","architect":"安井建築設計","year":1986.0,"address":"東京都港区赤坂1-13-1","latitude":35.66692352294922,"longitude":139.7408447265625,"category":"ホール・劇場","big_category":"文化施設","description":"","image_url":"","tags":"2012年JIA25年賞,Ver1.95(2017年6月)の追加建築","prefecture":"東京","contractor":"","structural_designer":"","landscape_designer":"","shinkenchiku_url":""},{"id":6711,"title":"大阪城ホール","architect":"日建設計","year":1983.0,"address":"大阪府大阪市中央区大阪城3-1","latitude":34.689613342285156,"longitude":135.5300750732422,"category":"ホール・劇場","big_category":"文化施設","description":"","image_url":"","tags":"2013年JIA25年賞,Ver1.95(2017年6月)の追加建築","prefecture":"大阪","contractor":"","structural_designer":"","landscape_designer":"","shinkenchiku_url":""},{"id":6712,"title":"熊本県立図書館","architect":"安井建築設計","year":1985.0,"address":"熊本県熊本市出水2-5-1","latitude":32.786128997802734,"longitude":130.73513793945312,"category":"図書館","big_category":"文化施設","description":"","image_url":"","tags":"2013年JIA25年賞,Ver1.95(2017年6月)の追加建築","prefecture":"熊本","contractor":"","structural_designer":"","landscape_designer":"","shinkenchiku_url":""},{"id":6713,"title":"ヒルサイド久末","architect":"井出共治","year":1985.0,"address":"神奈川県川崎市高津区久末474-1","latitude":35.5634880065918,"longitude":139.6173858642578,"category":"集合住宅","big_category":"住宅","description":"","image_url":"","tags":"2013年JIA25年賞,Ver1.95(2017年6月)の追加建築","prefecture":"神奈川","contractor":"","structural_designer":"","landscape_designer":"","shinkenchiku_url":""},{"id":6714,"title":"新宿グリーンタワービル","architect":"日建設計","year":1986.0,"address":"東京都新宿区西新宿6-14-1","latitude":35.69230270385742,"longitude":139.6896514892578,"category":"オフィスビル","big_category":"企業施設","description":"","image_url":"","tags":"2013年JIA25年賞,Ver1.95(2017年6月)の追加建築","prefecture":"東京","contractor":"","structural_designer":"","landscape_designer":"","shinkenchiku_url":""},{"id":6715,"title":"ホンダ青山ビル","architect":"椎名政夫+石本建築事務所+安藤・間","year":1985.0,"address":"東京都港区南青山2-1-1","latitude":35.67211151123047,"longitude":139.72381591796875,"category":"オフィスビル","big_category":"企業施設","description":"","image_url":"","tags":"2013年JIA25年賞,Ver1.95(2017年6月)の追加建築","prefecture":"東京","contractor":"","structural_designer":"","landscape_designer":"","shinkenchiku_url":""},{"id":6716,"title":"播磨屋本店 生野総本店","architect":"竹中工務店","year":1988.0,"address":"兵庫県朝来市生野町円山字京田30","latitude":35.19321823120117,"longitude":134.7933349609375,"category":"店舗","big_category":"商業施設","description":"","image_url":"","tags":"2013年JIA25年賞,Ver1.95(2017年6月)の追加建築","prefecture":"兵庫","contractor":"","structural_designer":"","landscape_designer":"","shinkenchiku_url":""},{"id":6717,"title":"第五福竜丸展示館","architect":"杉重彦","year":1976.0,"address":"東京都江東区夢の島2-1-1","latitude":35.65097427368164,"longitude":139.82632446289062,"category":"博物館","big_category":"ミュージアム","description":"","image_url":"","tags":"2013年JIA25年賞,Ver1.95(2017年6月)の追加建築","prefecture":"東京","contractor":"","structural_designer":"","landscape_designer":"","shinkenchiku_url":""},{"id":6718,"title":"有楽町センタービル","architect":"竹中工務店","year":1984.0,"address":"東京都千代田区有楽町2-5-1","latitude":35.67362976074219,"longitude":139.76242065429688,"category":"オフィスビル","big_category":"企業施設","description":"","image_url":"","tags":"2013年JIA25年賞,Ver1.95(2017年6月)の追加建築","prefecture":"東京","contractor":"","structural_designer":"","landscape_designer":"","shinkenchiku_url":""},{"id":6719,"title":"調布市総合体育館","architect":"久米設計","year":1985.0,"address":"東京都調布市深大寺北町2-1-65","latitude":35.672428131103516,"longitude":139.55181884765625,"category":"体育館","big_category":"レジャー施設","description":"","image_url":"","tags":"2014年JIA25年賞,Ver1.95(2017年6月)の追加建築","prefecture":"東京","contractor":"","structural_designer":"","landscape_designer":"","shinkenchiku_url":""},{"id":6720,"title":"京王プラザホテル 本館","architect":"日本設計+鹿島建設","year":1971.0,"address":"東京都新宿区西新宿2-2-1","latitude":35.68952941894531,"longitude":139.69447326660156,"category":"ホテル","big_category":"宿泊","description":"","image_url":"","tags":"2014年JIA25年賞,Ver1.95(2017年6月)の追加建築,DOCOMOMO","prefecture":"東京","contractor":"鹿島建設","structural_designer":"","landscape_designer":"","shinkenchiku_url":""},{"id":6721,"title":"東京ドーム","architect":"日建設計+竹中工務店","year":1988.0,"address":"東京都文京区後楽1-3-61","latitude":35.705570220947266,"longitude":139.75181579589844,"category":"スタジアム","big_category":"レジャー施設","description":"","image_url":"","tags":"2014年JIA25年賞,Ver1.95(2017年6月)の追加建築","prefecture":"東京","contractor":"","structural_designer":"","landscape_designer":"","shinkenchiku_url":""},{"id":6722,"title":"三井住友海上 駿河台ビル","architect":"日建設計","year":1984.0,"address":"東京都千代田区神田駿河台3-9","latitude":35.69658279418945,"longitude":139.76434326171875,"category":"オフィスビル","big_category":"企業施設","description":"","image_url":"","tags":"2014年JIA25年賞,Ver1.95(2017年6月)の追加建築","prefecture":"東京","contractor":"","structural_designer":"","landscape_designer":"","shinkenchiku_url":""},{"id":6723,"title":"大阪ガスビル 北館","architect":"安井建築設計","year":1966.0,"address":"大阪府大阪市中央区道修町4-2-41","latitude":34.68830490112305,"longitude":135.5001983642578,"category":"オフィスビル","big_category":"企業施設","description":"","image_url":"","tags":"2015年JIA25年賞 受賞作品,Ver1.95(2017年6月)の追加建築","prefecture":"大阪","contractor":"","structural_designer":"","landscape_designer":"","shinkenchiku_url":""},{"id":6724,"title":"パティオ新蒲田三-","architect":"小沢明","year":1989.0,"address":"東京都大田区新蒲田3-7-6","latitude":35.55746078491211,"longitude":139.70457458496094,"category":"集合住宅","big_category":"住宅","description":"","image_url":"","tags":"2015年JIA25年賞 登録作品,Ver1.95(2017年6月)の追加建築","prefecture":"東京","contractor":"","structural_designer":"","landscape_designer":"","shinkenchiku_url":""},{"id":6725,"title":"沖縄市民会館","architect":"竹中工務店","year":1980.0,"address":"沖縄県沖縄市八重島1-1-1","latitude":26.343603134155273,"longitude":127.80069732666016,"category":"ホール・劇場","big_category":"文化施設","description":"","image_url":"","tags":"2015年JIA25年賞 登録作品,Ver1.95(2017年6月)の追加建築","prefecture":"沖縄","contractor":"","structural_designer":"","landscape_designer":"","shinkenchiku_url":""},{"id":6726,"title":"横浜みなと博物館","architect":"三菱地所","year":1988.0,"address":"神奈川県横浜市西区みなとみらい2-1-1","latitude":35.453495025634766,"longitude":139.63284301757812,"category":"博物館","big_category":"ミュージアム","description":"","image_url":"","tags":"2015年JIA25年賞 登録作品,Ver1.95(2017年6月)の追加建築","prefecture":"神奈川","contractor":"","structural_designer":"","landscape_designer":"","shinkenchiku_url":""},{"id":6727,"title":"宮城県行政庁舎","architect":"三菱地所","year":1989.0,"address":"宮城県仙台市青葉区本町3-8-1","latitude":38.26871109008789,"longitude":140.8722381591797,"category":"庁舎","big_category":"公共施設","description":"","image_url":"","tags":"2015年JIA25年賞 登録作品,Ver1.95(2017年6月)の追加建築","prefecture":"宮城","contractor":"","structural_designer":"","landscape_designer":"","shinkenchiku_url":""},{"id":6728,"title":"俳優座ビル","architect":"白鳳建築設計事務所","year":1980.0,"address":"東京都港区六本木4-9-2","latitude":35.663761138916016,"longitude":139.7325897216797,"category":"オフィスビル","big_category":"企業施設","description":"","image_url":"","tags":"2015年JIA25年賞 登録作品,Ver1.95(2017年6月)の追加建築","prefecture":"東京","contractor":"","structural_designer":"","landscape_designer":"","shinkenchiku_url":""},{"id":6729,"title":"釈迦堂遺跡博物館","architect":"安井建築設計","year":1988.0,"address":"山梨県笛吹市一宮町千米寺764","latitude":35.64442825317383,"longitude":138.7154541015625,"category":"博物館","big_category":"ミュージアム","description":"","image_url":"","tags":"2015年JIA25年賞 登録作品,Ver1.95(2017年6月)の追加建築","prefecture":"山梨","contractor":"","structural_designer":"","landscape_designer":"","shinkenchiku_url":""},{"id":6730,"title":"目黒区美術館","architect":"日本設計","year":1987.0,"address":"東京都目黒区目黒2−4−36","latitude":35.6348762512207,"longitude":139.7077178955078,"category":"美術館","big_category":"ミュージアム","description":"","image_url":"","tags":"2015年JIA25年賞 登録作品,Ver1.95(2017年6月)の追加建築","prefecture":"東京","contractor":"","structural_designer":"","landscape_designer":"","shinkenchiku_url":""},{"id":6731,"title":"天城ホームステッド","architect":"村田政真","year":1968.0,"address":"静岡県伊豆市冷川1524-80","latitude":34.89618682861328,"longitude":139.03871154785156,"category":"研修施設","big_category":"教育","description":"","image_url":"","tags":"2015年JIA25年賞 登録作品,Ver1.95(2017年6月)の追加建築","prefecture":"静岡","contractor":"","structural_designer":"","landscape_designer":"","shinkenchiku_url":""},{"id":6732,"title":"熊本県庁舎","architect":"久米設計","year":1967.0,"address":"熊本県熊本市中央区水前寺6-18-1","latitude":32.789764404296875,"longitude":130.7415771484375,"category":"庁舎","big_category":"公共施設","description":"","image_url":"","tags":"2015年JIA25年賞 登録作品,Ver1.95(2017年6月)の追加建築","prefecture":"熊本","contractor":"","structural_designer":"","landscape_designer":"","shinkenchiku_url":""},{"id":6733,"title":"アビタ・ファリーヌ","architect":"伊坂デザイン工房","year":1986.0,"address":"東京都文京区弥生2-20-12","latitude":35.71796417236328,"longitude":139.76258850097656,"category":"集合住宅","big_category":"住宅","description":"","image_url":"","tags":"2015年JIA25年賞 登録作品,Ver1.95(2017年6月)の追加建築","prefecture":"東京","contractor":"","structural_designer":"","landscape_designer":"","shinkenchiku_url":""},{"id":6734,"title":"日本ベクトンディッキンソン 福島工場","architect":"竹中工務店","year":1987.0,"address":"福島県福島市土船五反田","latitude":37.749935150146484,"longitude":140.3889923095703,"category":"工場","big_category":"企業施設","description":"","image_url":"","tags":"2015年JIA25年賞 登録作品,Ver1.95(2017年6月)の追加建築","prefecture":"福島","contractor":"","structural_designer":"","landscape_designer":"","shinkenchiku_url":""},{"id":6735,"title":"東京理科大学 長万部キャンパス","architect":"竹中工務店","year":1987.0,"address":"北海道山越郡長万部町富野102-1","latitude":42.50788116455078,"longitude":140.3643341064453,"category":"大学","big_category":"教育","description":"","image_url":"","tags":"2015年JIA25年賞 登録作品,Ver1.95(2017年6月)の追加建築","prefecture":"北海道","contractor":"","structural_designer":"","landscape_designer":"","shinkenchiku_url":""},{"id":6736,"title":"伊藤忠商事 東京本社ビル","architect":"日建設計","year":1980.0,"address":"東京都港区北青山2-5-1","latitude":35.6715202331543,"longitude":139.7193145751953,"category":"オフィスビル","big_category":"企業施設","description":"","image_url":"","tags":"2015年JIA25年賞 登録作品,Ver1.95(2017年6月)の追加建築","prefecture":"東京","contractor":"","structural_designer":"","landscape_designer":"","shinkenchiku_url":""},{"id":6737,"title":"御堂ビル","architect":"竹中工務店","year":1965.0,"address":"大阪府大阪市中央区本町4-1-13","latitude":34.68408966064453,"longitude":135.5001678466797,"category":"オフィスビル","big_category":"企業施設","description":"2017年リニューアル整備完了","image_url":"","tags":"2015年JIA25年賞 登録作品,Ver1.95(2017年6月)の追加建築,新建築2018年4月号,登録有形文化財","prefecture":"大阪","contractor":"","structural_designer":"","landscape_designer":"","shinkenchiku_url":""},{"id":6738,"title":"金山町立金山小学校","architect":"林寛治","year":1977.0,"address":"山形県最上郡金山町金山108-2","latitude":38.883636474609375,"longitude":140.3416748046875,"category":"学校","big_category":"教育","description":"","image_url":"","tags":"2015年JIA25年賞 登録作品,Ver1.95(2017年6月)の追加建築","prefecture":"山形","contractor":"","structural_designer":"","landscape_designer":"","shinkenchiku_url":""},{"id":6739,"title":"大阪ステーションシティ・サウスゲートビルディング","architect":"安井建築設計","year":1983.0,"address":"大阪府大阪市北区梅田3-1-1","latitude":34.701778411865234,"longitude":135.49635314941406,"category":"テナントビル","big_category":"商業施設","description":"","image_url":"","tags":"2015年JIA25年賞 登録作品,Ver1.95(2017年6月)の追加建築","prefecture":"大阪","contractor":"","structural_designer":"","landscape_designer":"","shinkenchiku_url":""},{"id":6740,"title":"鹿児島空港ターミナルビル","architect":"安井建築設計","year":1972.0,"address":"鹿児島県霧島市溝辺町麓822","latitude":31.801105499267578,"longitude":130.71600341796875,"category":"空港","big_category":"インフラ","description":"","image_url":"","tags":"2015年JIA25年賞 登録作品,Ver1.95(2017年6月)の追加建築","prefecture":"鹿児島","contractor":"","structural_designer":"","landscape_designer":"","shinkenchiku_url":""},{"id":6741,"title":"大阪ガーデンパレス","architect":"安井建築設計","year":1982.0,"address":"大阪府大阪市淀川区西宮原1-3-35","latitude":34.73173522949219,"longitude":135.4908905029297,"category":"ホテル","big_category":"宿泊","description":"","image_url":"","tags":"2015年JIA25年賞 登録作品,Ver1.95(2017年6月)の追加建築","prefecture":"大阪","contractor":"","structural_designer":"","landscape_designer":"","shinkenchiku_url":""},{"id":6742,"title":"浄水オークパティオ","architect":"武田正義","year":1991.0,"address":"福岡県福岡市中央区薬院4-2-28","latitude":33.57937240600586,"longitude":130.39755249023438,"category":"集合住宅","big_category":"住宅","description":"","image_url":"","tags":"2016年JIA25年賞 受賞作品,Ver1.95(2017年6月)の追加建築","prefecture":"福岡","contractor":"","structural_designer":"","landscape_designer":"","shinkenchiku_url":""},{"id":6743,"title":"鹿児島加治屋町教会・敬愛幼稚園","architect":"光吉健次+茂木謙悟","year":1976.0,"address":"鹿児島県鹿児島市加治屋町5-6","latitude":31.58470916748047,"longitude":130.54933166503906,"category":"教会/幼稚園","big_category":"宗教,教育","description":"","image_url":"","tags":"2016年JIA25年賞 登録作品,Ver1.95(2017年6月)の追加建築","prefecture":"鹿児島","contractor":"","structural_designer":"","landscape_designer":"","shinkenchiku_url":""},{"id":6744,"title":"サンハイツ金沢八景","architect":"竹中工務店","year":1973.0,"address":"神奈川県横浜市金沢区六浦南3-5-1","latitude":35.317588806152344,"longitude":139.6136932373047,"category":"集合住宅","big_category":"住宅","description":"","image_url":"","tags":"2016年JIA25年賞 登録作品,Ver1.95(2017年6月)の追加建築","prefecture":"神奈川","contractor":"","structural_designer":"","landscape_designer":"","shinkenchiku_url":""},{"id":6745,"title":"中央区庁舎・京橋図書館","architect":"佐藤武夫","year":1969.0,"address":"東京都中央区築地1-1-1","latitude":35.67057418823242,"longitude":139.77200317382812,"category":"庁舎/図書館","big_category":"公共施設,文化施設","description":"","image_url":"","tags":"2016年JIA25年賞 登録作品,Ver1.95(2017年6月)の追加建築","prefecture":"東京","contractor":"","structural_designer":"","landscape_designer":"","shinkenchiku_url":""},{"id":6746,"title":"ヒルトン東京ベイ","architect":"日本設計","year":1988.0,"address":"千葉県浦安市舞浜1-8","latitude":35.62699508666992,"longitude":139.8736572265625,"category":"ホテル","big_category":"宿泊","description":"","image_url":"","tags":"2016年JIA25年賞 登録作品,Ver1.95(2017年6月)の追加建築","prefecture":"千葉","contractor":"","structural_designer":"","landscape_designer":"","shinkenchiku_url":""},{"id":6747,"title":"イセザキ・モール","architect":"竹中工務店","year":1978.0,"address":"神奈川県横浜市中区伊勢佐木町","latitude":35.445133209228516,"longitude":139.63375854492188,"category":"都市計画","big_category":"公共施設","description":"","image_url":"","tags":"2016年JIA25年賞 登録作品,Ver1.95(2017年6月)の追加建築","prefecture":"神奈川","contractor":"","structural_designer":"","landscape_designer":"","shinkenchiku_url":""},{"id":6748,"title":"たかみや瑠璃倶楽リゾート","architect":"丹下健三","year":1995.0,"address":"山形県山形市蔵王温泉三度川1118−7","latitude":38.161293029785156,"longitude":140.3938751220703,"category":"ホテル","big_category":"宿泊","description":"","image_url":"","tags":"Ver1.95(2017年6月)の追加建築","prefecture":"山形","contractor":"","structural_designer":"","landscape_designer":"","shinkenchiku_url":""},{"id":6749,"title":"津田塾大学 星野あい記念図書館","architect":"丹下健三","year":1954.0,"address":"東京都小平市津田町2-1-1","latitude":35.72247314453125,"longitude":139.4654541015625,"category":"図書館","big_category":"文化施設","description":"","image_url":"","tags":"Ver1.95(2017年6月)の追加建築","prefecture":"東京","contractor":"","structural_designer":"","landscape_designer":"","shinkenchiku_url":""},{"id":6750,"title":"東京聖心インターナショナル・スクール","architect":"丹下健三","year":1968.0,"address":"東京都渋谷区広尾4-3-1","latitude":35.65184783935547,"longitude":139.72134399414062,"category":"学校","big_category":"教育","description":"","image_url":"","tags":"Ver1.95(2017年6月)の追加建築","prefecture":"東京","contractor":"","structural_designer":"","landscape_designer":"","shinkenchiku_url":""}]}