{"page":249,"total_pages":290,"items_per_page":50,"total_items":14467,"items":[{"id":12401,"title":"屋形原の共同住宅 mihiro345","architect":"松井大佑","year":2021.0,"address":"福岡県福岡市南区屋形原3-4-5","latitude":33.53731155395508,"longitude":130.41270446777344,"category":"集合住宅","big_category":"住宅","description":"","image_url":"","tags":"Ver5.00(2023年7月)の追加建築","prefecture":"福岡","contractor":"","structural_designer":"","landscape_designer":"","shinkenchiku_url":""},{"id":12402,"title":"文照堂ホテル","architect":"松井大佑","year":2020.0,"address":"福岡県福岡市博多区博多駅前2-12-13","latitude":33.591121673583984,"longitude":130.41522216796875,"category":"ホテル","big_category":"宿泊","description":"","image_url":"","tags":"Ver5.00(2023年7月)の追加建築","prefecture":"福岡","contractor":"","structural_designer":"","landscape_designer":"","shinkenchiku_url":""},{"id":12403,"title":"Luxe training","architect":"種昻哲","year":2022.0,"address":"富山県富山市婦中町道場544-6","latitude":36.64664840698242,"longitude":137.16102600097656,"category":"スポーツ施設","big_category":"レジャー施設","description":"自動車ショールームを改修","image_url":"","tags":"Ver5.00(2023年7月)の追加建築","prefecture":"富山","contractor":"","structural_designer":"","landscape_designer":"","shinkenchiku_url":""},{"id":12404,"title":"Houscape アールギャラリー 小牧展示場 センターハウス","architect":"丹羽浩之+種昻哲","year":2021.0,"address":"愛知県小牧市西之島330","latitude":35.29375076293945,"longitude":136.89663696289062,"category":"店舗/低層オフィス","big_category":"商業施設,企業施設","description":"","image_url":"","tags":"Ver5.00(2023年7月)の追加建築","prefecture":"愛知","contractor":"","structural_designer":"","landscape_designer":"","shinkenchiku_url":""},{"id":12405,"title":"淡路の温浴施設 アクアイグニス淡路島","architect":"OHArchitecture","year":2022.0,"address":"兵庫県淡路市夢舞台2-28","latitude":34.569217681884766,"longitude":135.02052307128906,"category":"温泉","big_category":"宿泊","description":"","image_url":"","tags":"Ver5.00(2023年7月)の追加建築","prefecture":"兵庫","contractor":"","structural_designer":"","landscape_designer":"","shinkenchiku_url":""},{"id":12406,"title":"横浜Y医院 山口医院","architect":"野口修","year":2022.0,"address":"神奈川県横浜市西区戸部町3-101","latitude":35.45293045043945,"longitude":139.62338256835938,"category":"個人医院","big_category":"医療施設","description":"","image_url":"","tags":"Ver5.00(2023年7月)の追加建築","prefecture":"神奈川","contractor":"","structural_designer":"","landscape_designer":"","shinkenchiku_url":""},{"id":12407,"title":"JINS 西条店","architect":"岡田宰","year":2022.0,"address":"愛媛県西条市新田142-1","latitude":33.93022537231445,"longitude":133.1924285888672,"category":"店舗","big_category":"商業施設","description":"","image_url":"","tags":"Ver5.00(2023年7月)の追加建築","prefecture":"愛媛","contractor":"","structural_designer":"","landscape_designer":"","shinkenchiku_url":""},{"id":12408,"title":"inaya","architect":"橋本卓磨","year":2022.0,"address":"兵庫県淡路市志筑2809-1","latitude":34.432228088378906,"longitude":134.89990234375,"category":"店舗","big_category":"商業施設","description":"","image_url":"","tags":"Ver5.00(2023年7月)の追加建築","prefecture":"兵庫","contractor":"","structural_designer":"","landscape_designer":"","shinkenchiku_url":""},{"id":12409,"title":"Orto Cafe","architect":"PLANNING ES","year":2020.0,"address":"福岡県福岡市中央区渡辺通3-2-8","latitude":33.585933685302734,"longitude":130.40565490722656,"category":"カフェ","big_category":"商業施設","description":"","image_url":"","tags":"Ver5.00(2023年7月)の追加建築","prefecture":"福岡","contractor":"","structural_designer":"","landscape_designer":"","shinkenchiku_url":""},{"id":12410,"title":"志免町の共同住宅 トロワ片峰","architect":"PLANNING ES","year":2023.0,"address":"福岡県糟屋郡志免町片峰2-1-1","latitude":33.58665084838867,"longitude":130.47763061523438,"category":"集合住宅","big_category":"住宅","description":"","image_url":"","tags":"Ver5.00(2023年7月)の追加建築","prefecture":"福岡","contractor":"","structural_designer":"","landscape_designer":"","shinkenchiku_url":""},{"id":12411,"title":"江戸前鮨 二鶴 おもたせ","architect":"PLANNING ES","year":2021.0,"address":"福岡県北九州市小倉北区足立1-4-31","latitude":33.868839263916016,"longitude":130.8983154296875,"category":"店舗","big_category":"商業施設","description":"","image_url":"","tags":"Ver5.00(2023年7月)の追加建築","prefecture":"福岡","contractor":"","structural_designer":"","landscape_designer":"","shinkenchiku_url":""},{"id":12412,"title":"VISCHE","architect":"PLANNING ES","year":2020.0,"address":"福岡県福津市宮司3-16-10","latitude":33.77766418457031,"longitude":130.48471069335938,"category":"美容院","big_category":"商業施設","description":"","image_url":"","tags":"Ver5.00(2023年7月)の追加建築","prefecture":"福岡","contractor":"","structural_designer":"","landscape_designer":"","shinkenchiku_url":""},{"id":12413,"title":"KARAE","architect":"PLANNING ES","year":2019.0,"address":"佐賀県唐津市京町1783","latitude":33.44721221923828,"longitude":129.96914672851562,"category":"モール/テナントビル","big_category":"商業施設,商業施設","description":"","image_url":"","tags":"Ver5.00(2023年7月)の追加建築","prefecture":"佐賀","contractor":"","structural_designer":"","landscape_designer":"","shinkenchiku_url":""},{"id":12414,"title":"ヴェントゥーノ アネックスコールセンター","architect":"PLANNING ES","year":2017.0,"address":"福岡県福岡市博多区春町2-7-7","latitude":33.54336929321289,"longitude":130.4697723388672,"category":"低層オフィス","big_category":"企業施設","description":"","image_url":"","tags":"Ver5.00(2023年7月)の追加建築","prefecture":"福岡","contractor":"","structural_designer":"","landscape_designer":"","shinkenchiku_url":""},{"id":12415,"title":"NERO BOTANICA","architect":"PLANNING ES","year":2012.0,"address":"福岡県飯塚市忠隈71-4","latitude":33.6240348815918,"longitude":130.6888885498047,"category":"テナントビル","big_category":"商業施設","description":"","image_url":"","tags":"Ver5.00(2023年7月)の追加建築","prefecture":"福岡","contractor":"","structural_designer":"","landscape_designer":"","shinkenchiku_url":""},{"id":12416,"title":"Gran-DEPO","architect":"PLANNING ES","year":2012.0,"address":"福岡県福津市中央3-2","latitude":33.764320373535156,"longitude":130.4872589111328,"category":"モール/テナントビル","big_category":"商業施設,商業施設","description":"","image_url":"","tags":"Ver5.00(2023年7月)の追加建築","prefecture":"福岡","contractor":"","structural_designer":"","landscape_designer":"","shinkenchiku_url":""},{"id":12417,"title":"大倉喜八郎別邸 蔵春閣","architect":"今村吉之助+大成建設","year":1912.0,"address":"新潟県新発田市諏訪町1-9-20","latitude":37.94388198852539,"longitude":139.3317108154297,"category":"古民家","big_category":"近代建築/遺産","description":"1912年東京に竣工後、1959年に千葉に移築。2023年に新潟県新発田市に移築された","image_url":"","tags":"Ver5.00(2023年7月)の追加建築,登録有形文化財,新建築2024年4月号","prefecture":"新潟","contractor":"","structural_designer":"","landscape_designer":"","shinkenchiku_url":""},{"id":12418,"title":"ホーユーヘアカラーミュージアム","architect":"石本建築事務所","year":2023.0,"address":"愛知県名古屋市東区徳川町903","latitude":35.18296813964844,"longitude":136.93260192871094,"category":"博物館","big_category":"ミュージアム","description":"","image_url":"","tags":"Ver5.00(2023年7月)の追加建築","prefecture":"愛知","contractor":"鹿島建設","structural_designer":"","landscape_designer":"","shinkenchiku_url":""},{"id":12419,"title":"美作文化センター","architect":"茜建築設計事務所","year":1973.0,"address":"岡山県美作市湯郷826-4","latitude":34.99184036254883,"longitude":134.13327026367188,"category":"ホール・劇場","big_category":"文化施設","description":"","image_url":"","tags":"Ver5.00(2023年7月)の追加建築","prefecture":"岡山","contractor":"","structural_designer":"","landscape_designer":"","shinkenchiku_url":""},{"id":12420,"title":"JINS パワーモール前橋みなみ店","architect":"谷尻誠","year":2013.0,"address":"群馬県前橋市新堀町868","latitude":36.33142852783203,"longitude":139.0951385498047,"category":"店舗","big_category":"商業施設","description":"","image_url":"","tags":"Ver5.00(2023年7月)の追加建築","prefecture":"群馬","contractor":"","structural_designer":"","landscape_designer":"","shinkenchiku_url":""},{"id":12421,"title":"TRUNK（HOTEL） YOYOGI PARK","architect":"芦沢啓治","year":2023.0,"address":"東京都渋谷区富ケ谷1-15-2","latitude":35.66679763793945,"longitude":139.69235229492188,"category":"ホテル","big_category":"宿泊","description":"2023年9月オープン予定。インテリアデザインとしてNorm Architects","image_url":"","tags":"Ver5.00(2023年7月)の追加建築,新建築2024年2月号","prefecture":"東京","contractor":"","structural_designer":"","landscape_designer":"","shinkenchiku_url":""},{"id":12422,"title":"佐嘉平川屋 武雄温泉本店","architect":"芦沢啓治","year":2022.0,"address":"佐賀県武雄市武雄町大字武雄7411","latitude":33.196266174316406,"longitude":130.01502990722656,"category":"店舗/レストラン","big_category":"商業施設,商業施設","description":"","image_url":"","tags":"Ver5.00(2023年7月)の追加建築","prefecture":"佐賀","contractor":"","structural_designer":"","landscape_designer":"","shinkenchiku_url":""},{"id":12423,"title":"飛龍館","architect":"渡辺豊和","year":1985.0,"address":"福井県大飯郡おおい町大島45-29","latitude":35.53150939941406,"longitude":135.6571502685547,"category":"旅館","big_category":"宿泊","description":"","image_url":"","tags":"Ver5.00(2023年7月)の追加建築","prefecture":"福井","contractor":"","structural_designer":"","landscape_designer":"","shinkenchiku_url":""},{"id":12424,"title":"鈍考 / 喫茶 芳","architect":"堀部安嗣","year":2023.0,"address":"京都府京都市左京区上高野掃部林町4-9","latitude":35.06046676635742,"longitude":135.80162048339844,"category":"図書館/カフェ","big_category":"文化施設,商業施設","description":"私設図書館。施設使用料として2000円。ウェブサイトから要予約","image_url":"","tags":"Ver5.00(2023年7月)の追加建築","prefecture":"京都","contractor":"","structural_designer":"","landscape_designer":"","shinkenchiku_url":""},{"id":12425,"title":"倉敷SOLA","architect":"楢村徹","year":2022.0,"address":"岡山県倉敷市中央1-4-13","latitude":34.595272064208984,"longitude":133.7715301513672,"category":"古民家/モール","big_category":"近代建築/遺産,商業施設","description":"","image_url":"","tags":"Ver5.00(2023年7月)の追加建築","prefecture":"岡山","contractor":"","structural_designer":"","landscape_designer":"","shinkenchiku_url":""},{"id":12426,"title":"聖マルコ教会","architect":"元田稔","year":1959.0,"address":"東京都府中市美好町3-8-2","latitude":35.67041778564453,"longitude":139.46742248535156,"category":"教会","big_category":"宗教","description":"","image_url":"","tags":"Ver5.00(2023年7月)の追加建築","prefecture":"東京","contractor":"","structural_designer":"","landscape_designer":"","shinkenchiku_url":""},{"id":12427,"title":"日本基督教団 高井戸教会","architect":"元田稔","year":1961.0,"address":"東京都杉並区高井戸西1-27-18","latitude":35.68229675292969,"longitude":139.61444091796875,"category":"教会","big_category":"宗教","description":"","image_url":"","tags":"Ver5.00(2023年7月)の追加建築","prefecture":"東京","contractor":"","structural_designer":"","landscape_designer":"","shinkenchiku_url":""},{"id":12428,"title":"大森聖アグネス教会","architect":"元田稔","year":1956.0,"address":"東京都大田区南馬込1-58-8","latitude":35.58913040161133,"longitude":139.71278381347656,"category":"教会","big_category":"宗教","description":"","image_url":"","tags":"Ver5.00(2023年7月)の追加建築","prefecture":"東京","contractor":"","structural_designer":"","landscape_designer":"","shinkenchiku_url":""},{"id":12429,"title":"六花亭 札幌本店","architect":"竹中工務店","year":2014.0,"address":"北海道札幌市中央区北4条西6-3-3","latitude":43.06596374511719,"longitude":141.34657287597656,"category":"店舗/オフィスビル","big_category":"商業施設,企業施設","description":"","image_url":"","tags":"Ver5.00(2023年7月)の追加建築","prefecture":"北海道","contractor":"","structural_designer":"","landscape_designer":"","shinkenchiku_url":""},{"id":12430,"title":"札幌時計台ビル","architect":"清水建設","year":1982.0,"address":"北海道札幌市中央区北１条西2-1","latitude":43.06315231323242,"longitude":141.3534698486328,"category":"オフィスビル","big_category":"企業施設","description":"","image_url":"","tags":"Ver5.00(2023年7月)の追加建築","prefecture":"北海道","contractor":"","structural_designer":"","landscape_designer":"","shinkenchiku_url":""},{"id":12431,"title":"クロスホテル札幌","architect":"大江匡","year":2007.0,"address":"北海道札幌市中央区北二条西2-23","latitude":43.06404113769531,"longitude":141.3533172607422,"category":"ホテル","big_category":"宿泊","description":"","image_url":"","tags":"Ver5.00(2023年7月)の追加建築","prefecture":"北海道","contractor":"岩田地崎建設","structural_designer":"","landscape_designer":"","shinkenchiku_url":""},{"id":12432,"title":"札幌中央警察署","architect":"岡田新一","year":1998.0,"address":"北海道札幌市中央区北1条西5-4-4","latitude":43.062137603759766,"longitude":141.349609375,"category":"警察・消防署","big_category":"公共施設","description":"","image_url":"","tags":"Ver5.00(2023年7月)の追加建築","prefecture":"北海道","contractor":"","structural_designer":"","landscape_designer":"","shinkenchiku_url":""},{"id":12433,"title":"大同札幌ビル","architect":"日建設計","year":2020.0,"address":"北海道札幌市中央区北3条西3-1","latitude":43.06464767456055,"longitude":141.35153198242188,"category":"複合ビル","big_category":"企業施設","description":"","image_url":"","tags":"Ver5.00(2023年7月)の追加建築","prefecture":"北海道","contractor":"大林組","structural_designer":"","landscape_designer":"","shinkenchiku_url":""},{"id":12434,"title":"札幌富国生命 越山ビル","architect":"清水建設","year":2017.0,"address":"北海道札幌市中央区北2条西3-1-20","latitude":43.06417465209961,"longitude":141.3516387939453,"category":"複合ビル","big_category":"企業施設","description":"","image_url":"","tags":"Ver5.00(2023年7月)の追加建築","prefecture":"北海道","contractor":"清水建設・伊藤組土建共同企業体","structural_designer":"","landscape_designer":"","shinkenchiku_url":""},{"id":12435,"title":"竹山食品工業","architect":"竹山実","year":null,"address":"北海道札幌市中央区南5条東1","latitude":43.056121826171875,"longitude":141.3587646484375,"category":"低層オフィス","big_category":"企業施設","description":"竹山食品は2023年1月に廃業","image_url":"","tags":"Ver5.00(2023年7月)の追加建築","prefecture":"北海道","contractor":"","structural_designer":"","landscape_designer":"","shinkenchiku_url":""},{"id":12436,"title":"札幌市立資生館小学校","architect":"アトリエブンク","year":2005.0,"address":"北海道札幌市中央区南3条西7","latitude":43.055660247802734,"longitude":141.34759521484375,"category":"学校","big_category":"教育","description":"","image_url":"","tags":"Ver5.00(2023年7月)の追加建築","prefecture":"北海道","contractor":"","structural_designer":"","landscape_designer":"","shinkenchiku_url":""},{"id":12437,"title":"ロイトン札幌","architect":"大成建設","year":1992.0,"address":"北海道札幌市中央区北1条西11","latitude":43.06086730957031,"longitude":141.33973693847656,"category":"ホテル","big_category":"宿泊","description":"","image_url":"","tags":"Ver5.00(2023年7月)の追加建築","prefecture":"北海道","contractor":"","structural_designer":"","landscape_designer":"","shinkenchiku_url":""},{"id":12438,"title":"ソラリア西鉄札幌ホテル","architect":"竹中工務店","year":2021.0,"address":"北海道札幌市中央区北4条西5-1-2","latitude":43.06552505493164,"longitude":141.34849548339844,"category":"ホテル","big_category":"宿泊","description":"","image_url":"","tags":"Ver5.00(2023年7月)の追加建築","prefecture":"北海道","contractor":"","structural_designer":"","landscape_designer":"","shinkenchiku_url":""},{"id":12439,"title":"日本基督教団 信濃村教会","architect":"ウィリアム・メレル・ヴォーリズ","year":1958.0,"address":"長野県上水内郡信濃町大字柏原369−2","latitude":36.808128356933594,"longitude":138.20590209960938,"category":"教会","big_category":"宗教","description":"","image_url":"","tags":"Ver5.00(2023年7月)の追加建築","prefecture":"長野","contractor":"","structural_designer":"","landscape_designer":"","shinkenchiku_url":""},{"id":12440,"title":"ライオンズマンション富岡","architect":"岡田新一","year":1987.0,"address":"北海道小樽市富岡1-32-113","latitude":43.19203186035156,"longitude":140.98716735839844,"category":"集合住宅","big_category":"住宅","description":"","image_url":"","tags":"Ver5.00(2023年7月)の追加建築","prefecture":"北海道","contractor":"","structural_designer":"","landscape_designer":"","shinkenchiku_url":""},{"id":12441,"title":"新日本海フェリー小樽フェリーターミナル","architect":"竹中工務店","year":1994.0,"address":"北海道小樽市築港7-2","latitude":43.190826416015625,"longitude":141.01858520507812,"category":"港","big_category":"インフラ","description":"","image_url":"","tags":"Ver5.00(2023年7月)の追加建築","prefecture":"北海道","contractor":"","structural_designer":"","landscape_designer":"","shinkenchiku_url":""},{"id":12442,"title":"オーセントホテル小樽","architect":"竹中工務店","year":1998.0,"address":"北海道小樽市稲穂2-15-1","latitude":43.19583511352539,"longitude":140.99754333496094,"category":"ホテル","big_category":"宿泊","description":"","image_url":"","tags":"Ver5.00(2023年7月)の追加建築","prefecture":"北海道","contractor":"竹中工務店","structural_designer":"","landscape_designer":"","shinkenchiku_url":""},{"id":12443,"title":"石屋製菓 北広島工場","architect":"清水建設","year":2017.0,"address":"北海道北広島市中央6-14-1","latitude":42.976036071777344,"longitude":141.56504821777344,"category":"工場","big_category":"企業施設","description":"","image_url":"","tags":"Ver5.00(2023年7月)の追加建築","prefecture":"北海道","contractor":"","structural_designer":"","landscape_designer":"","shinkenchiku_url":""},{"id":12444,"title":"ユニ東武ゴルフクラブ","architect":"黒川雅之","year":1993.0,"address":"北海道夕張郡由仁町山形132","latitude":43.02751159667969,"longitude":141.7600860595703,"category":"クラブハウス","big_category":"レジャー施設","description":"","image_url":"","tags":"Ver5.00(2023年7月)の追加建築","prefecture":"北海道","contractor":"","structural_designer":"","landscape_designer":"","shinkenchiku_url":""},{"id":12445,"title":"朝里温泉スキー場 センターハウス","architect":"アトリエブンク","year":1987.0,"address":"北海道小樽市朝里川温泉1-394","latitude":43.14346694946289,"longitude":141.03680419921875,"category":"クラブハウス","big_category":"レジャー施設","description":"","image_url":"","tags":"Ver5.00(2023年7月)の追加建築","prefecture":"北海道","contractor":"","structural_designer":"","landscape_designer":"","shinkenchiku_url":""},{"id":12446,"title":"道の駅 望羊中山","architect":"岡田新一","year":null,"address":"北海道虻田郡喜茂別町川上345","latitude":42.85594177246094,"longitude":141.0971221923828,"category":"PA・道の駅","big_category":"インフラ","description":"","image_url":"","tags":"Ver5.00(2023年7月)の追加建築","prefecture":"北海道","contractor":"","structural_designer":"","landscape_designer":"","shinkenchiku_url":""},{"id":12447,"title":"中山峠スキー場","architect":"岡田新一","year":null,"address":"北海道虻田郡喜茂別町川上345","latitude":42.85063552856445,"longitude":141.0954132080078,"category":"クラブハウス","big_category":"レジャー施設","description":"","image_url":"","tags":"Ver5.00(2023年7月)の追加建築","prefecture":"北海道","contractor":"","structural_designer":"","landscape_designer":"","shinkenchiku_url":""},{"id":12448,"title":"中村記念病院 付属看護学校","architect":"竹山実","year":1987.0,"address":"北海道札幌市南区石山2条9-7-1","latitude":42.9609375,"longitude":141.3157501220703,"category":"専門学校","big_category":"教育","description":"","image_url":"","tags":"Ver5.00(2023年7月)の追加建築","prefecture":"北海道","contractor":"","structural_designer":"","landscape_designer":"","shinkenchiku_url":""},{"id":12449,"title":"Building MC","architect":"TOASt+GANEMAR","year":2023.0,"address":"神奈川県川崎市多摩区登戸2085","latitude":35.61796951293945,"longitude":139.5640869140625,"category":"集合住宅/テナントビル","big_category":"住宅,商業施設","description":"","image_url":"","tags":"Ver5.00(2023年7月)の追加建築","prefecture":"神奈川","contractor":"","structural_designer":"","landscape_designer":"","shinkenchiku_url":""},{"id":12450,"title":"横浜ランドマークタワー 展望フロア スカイガーデン","architect":"アラキ+ササキアーキテクツ","year":2020.0,"address":"神奈川県横浜市西区みなとみらい2-2-1 横浜ランドマークタワー69F","latitude":35.45451354980469,"longitude":139.63140869140625,"category":"展望台","big_category":"レジャー施設","description":"","image_url":"","tags":"Ver5.00(2023年7月)の追加建築","prefecture":"神奈川","contractor":"","structural_designer":"","landscape_designer":"","shinkenchiku_url":""}]}