{"page":72,"total_pages":290,"items_per_page":50,"total_items":14467,"items":[{"id":3551,"title":"さがみ湖リゾート プレジャーフォレスト ワイルドクッキングガーデン","architect":"山田貴宏","year":2011.0,"address":"神奈川県相模原市緑区若柳1634","latitude":35.6029167175293,"longitude":139.20082092285156,"category":"レストラン","big_category":"商業施設","description":"","image_url":"","tags":"","prefecture":"神奈川","contractor":"","structural_designer":"","landscape_designer":"","shinkenchiku_url":""},{"id":3552,"title":"森の回廊 - L∞P 大谷歯科矯正歯科","architect":"前田圭介","year":2013.0,"address":"愛媛県松山市和泉南6-2-6","latitude":33.81185531616211,"longitude":132.76010131835938,"category":"個人医院","big_category":"医療施設","description":"","image_url":"","tags":"","prefecture":"愛媛","contractor":"","structural_designer":"","landscape_designer":"","shinkenchiku_url":""},{"id":3553,"title":"Peanuts こどもえんつくし 乳児棟","architect":"前田圭介","year":2012.0,"address":"広島県福山市木之庄町5-17-36","latitude":34.49910354614258,"longitude":133.35899353027344,"category":"幼稚園","big_category":"教育","description":"","image_url":"","tags":"","prefecture":"広島","contractor":"","structural_designer":"","landscape_designer":"","shinkenchiku_url":""},{"id":3554,"title":"ここち Comfort Gallery 器","architect":"前田圭介","year":2013.0,"address":"広島県福山市田尻町1974-1","latitude":34.42271423339844,"longitude":133.38540649414062,"category":"ギャラリー","big_category":"ミュージアム","description":"","image_url":"","tags":"","prefecture":"広島","contractor":"","structural_designer":"","landscape_designer":"","shinkenchiku_url":""},{"id":3555,"title":"鞆の浦 ＠ cafe","architect":"前田圭介","year":2006.0,"address":"広島県福山市鞆町鞆844","latitude":34.382572174072266,"longitude":133.38075256347656,"category":"カフェ","big_category":"商業施設","description":"","image_url":"","tags":"","prefecture":"広島","contractor":"","structural_designer":"","landscape_designer":"","shinkenchiku_url":""},{"id":3556,"title":"旧佐伯邸","architect":"村野藤吾","year":1965.0,"address":"奈良県奈良市登美ヶ丘2-1-4","latitude":34.71059036254883,"longitude":135.74757385253906,"category":"和風住宅","big_category":"住宅","description":"松伯美術館に隣接","image_url":"","tags":"","prefecture":"奈良","contractor":"","structural_designer":"","landscape_designer":"","shinkenchiku_url":""},{"id":3557,"title":"山本清記念財団 旧山本清邸","architect":"岡田孝男","year":1938.0,"address":"兵庫県西宮市結善町1-24","latitude":34.74649429321289,"longitude":135.3308868408203,"category":"和風住宅","big_category":"住宅","description":"要予約","image_url":"","tags":"","prefecture":"兵庫","contractor":"","structural_designer":"","landscape_designer":"","shinkenchiku_url":""},{"id":3558,"title":"神戸市立中央図書館","architect":"鬼頭梓","year":1981.0,"address":"兵庫県神戸市中央区楠町7-2-1","latitude":34.68562316894531,"longitude":135.1741485595703,"category":"図書館","big_category":"文化施設","description":"","image_url":"","tags":"","prefecture":"兵庫","contractor":"","structural_designer":"","landscape_designer":"","shinkenchiku_url":""},{"id":3559,"title":"旧古河鉱業若松ビル","architect":"大林組","year":1919.0,"address":"福岡県北九州市若松区本町1-11-18","latitude":33.90240478515625,"longitude":130.81268310546875,"category":"洋館","big_category":"近代建築/遺産","description":"","image_url":"","tags":"","prefecture":"福岡","contractor":"","structural_designer":"","landscape_designer":"","shinkenchiku_url":""},{"id":3560,"title":"黒崎ひびしんホール","architect":"日本設計","year":2012.0,"address":"福岡県北九州市八幡西区岸の浦2-1-1","latitude":33.86137771606445,"longitude":130.76486206054688,"category":"ホール・劇場","big_category":"文化施設","description":"","image_url":"","tags":"","prefecture":"福岡","contractor":"","structural_designer":"","landscape_designer":"","shinkenchiku_url":""},{"id":3561,"title":"ホテルD ホテル スターリゾート菅平","architect":"伊東豊雄","year":1977.0,"address":"長野県上田市菅平高原1278-1885","latitude":36.52839279174805,"longitude":138.34909057617188,"category":"ホテル","big_category":"宿泊","description":"改装によってだいぶ雰囲気が変わったとのこと","image_url":"","tags":"","prefecture":"長野","contractor":"","structural_designer":"","landscape_designer":"","shinkenchiku_url":""},{"id":3562,"title":"ホンダクリオ世田谷ショールーム","architect":"伊東豊雄","year":1986.0,"address":"東京都世田谷区砧1-10-7","latitude":35.63567352294922,"longitude":139.61656188964844,"category":"店舗","big_category":"商業施設","description":"","image_url":"","tags":"","prefecture":"東京","contractor":"","structural_designer":"","landscape_designer":"","shinkenchiku_url":""},{"id":3563,"title":"神田Mビル ウメムラメイショウビル","architect":"伊東豊雄","year":1987.0,"address":"東京都千代田区神田須田町1-19-10","latitude":35.69694519042969,"longitude":139.76890563964844,"category":"オフィスビル","big_category":"企業施設","description":"","image_url":"","tags":"","prefecture":"東京","contractor":"","structural_designer":"","landscape_designer":"","shinkenchiku_url":""},{"id":3564,"title":"中目黒Tビル","architect":"伊東豊雄","year":1990.0,"address":"東京都目黒区東山1-17-16","latitude":35.64658737182617,"longitude":139.69410705566406,"category":"オフィスビル","big_category":"企業施設","description":"","image_url":"","tags":"","prefecture":"東京","contractor":"","structural_designer":"","landscape_designer":"","shinkenchiku_url":""},{"id":3565,"title":"浅草橋Iビル","architect":"伊東豊雄","year":1989.0,"address":"東京都台東区浅草橋2-5-1","latitude":35.698909759521484,"longitude":139.78509521484375,"category":"オフィスビル","big_category":"企業施設","description":"","image_url":"","tags":"","prefecture":"東京","contractor":"","structural_designer":"","landscape_designer":"","shinkenchiku_url":""},{"id":3566,"title":"南青山Fビル","architect":"伊東豊雄","year":1991.0,"address":"東京都港区南青山4-17-3","latitude":35.665687561035156,"longitude":139.71678161621094,"category":"オフィスビル","big_category":"企業施設","description":"","image_url":"","tags":"","prefecture":"東京","contractor":"","structural_designer":"","landscape_designer":"","shinkenchiku_url":""},{"id":3567,"title":"伊東建築塾 恵比寿スタジオ","architect":"伊東豊雄","year":2013.0,"address":"東京都渋谷区恵比寿3-32-12","latitude":35.642417907714844,"longitude":139.71746826171875,"category":"オフィスビル","big_category":"企業施設","description":"見学は要予約","image_url":"","tags":"","prefecture":"東京","contractor":"","structural_designer":"","landscape_designer":"","shinkenchiku_url":""},{"id":3568,"title":"SUMIKA パヴィリオン","architect":"伊東豊雄","year":2008.0,"address":"栃木県宇都宮市今泉4-15-16","latitude":36.564334869384766,"longitude":139.8988800048828,"category":"低層オフィス","big_category":"企業施設","description":"陸前高田市に「ほんまるの家」として移設","image_url":"","tags":"","prefecture":"栃木","contractor":"","structural_designer":"","landscape_designer":"","shinkenchiku_url":""},{"id":3569,"title":"コールハウス","architect":"藤森照信","year":2008.0,"address":"栃木県宇都宮市清住1-9-21","latitude":36.567108154296875,"longitude":139.87725830078125,"category":"住宅","big_category":"住宅","description":"現存。","image_url":"","tags":"","prefecture":"栃木","contractor":"","structural_designer":"","landscape_designer":"","shinkenchiku_url":""},{"id":3570,"title":"宇都宮のハウス","architect":"西沢大良","year":2008.0,"address":"栃木県宇都宮市星が丘1-5","latitude":36.56916427612305,"longitude":139.87606811523438,"category":"住宅","big_category":"住宅","description":"まだ現存する？","image_url":"","tags":"","prefecture":"栃木","contractor":"","structural_designer":"","landscape_designer":"","shinkenchiku_url":""},{"id":3571,"title":"レスポワールBLANC岡本","architect":"永山祐子","year":2013.0,"address":"兵庫県神戸市東灘区本山北町3-11-7","latitude":34.72806930541992,"longitude":135.27764892578125,"category":"カフェ","big_category":"商業施設","description":"閉店","image_url":"","tags":"","prefecture":"兵庫","contractor":"","structural_designer":"","landscape_designer":"","shinkenchiku_url":""},{"id":3572,"title":"Sisii KOBE","architect":"永山祐子","year":2010.0,"address":"兵庫県神戸市中央区海岸通1-2-19","latitude":34.68677520751953,"longitude":135.18881225585938,"category":"店舗","big_category":"商業施設","description":"","image_url":"","tags":"","prefecture":"兵庫","contractor":"","structural_designer":"","landscape_designer":"","shinkenchiku_url":""},{"id":3573,"title":"URBANPREM南青山","architect":"永山祐子","year":2008.0,"address":"東京都港区南青山3-8-5","latitude":35.66718673706055,"longitude":139.7154998779297,"category":"オフィスビル","big_category":"企業施設","description":"","image_url":"","tags":"","prefecture":"東京","contractor":"","structural_designer":"","landscape_designer":"","shinkenchiku_url":""},{"id":3574,"title":"カヤバ珈琲","architect":"永山祐子","year":2009.0,"address":"東京都台東区谷中6-1-29","latitude":35.72114562988281,"longitude":139.7707061767578,"category":"カフェ","big_category":"商業施設","description":"","image_url":"","tags":"","prefecture":"東京","contractor":"","structural_designer":"","landscape_designer":"","shinkenchiku_url":""},{"id":3575,"title":"GALLERY nicolai bergmann 旧LUCE TOYO KITCHEN STYLE","architect":"妹島和世","year":2012.0,"address":"東京都港区南青山5-5-20","latitude":35.66331481933594,"longitude":139.7129364013672,"category":"ギャラリー","big_category":"ミュージアム","description":"GALLERY nicolai bergmannも2022年で閉鎖","image_url":"","tags":"","prefecture":"東京","contractor":"","structural_designer":"","landscape_designer":"","shinkenchiku_url":""},{"id":3576,"title":"TAKEO KIKUCHI 渋谷明治通り本店","architect":"長坂常","year":2012.0,"address":"東京都渋谷区神宮前6-25-10","latitude":35.66596984863281,"longitude":139.7033233642578,"category":"テナントビル","big_category":"商業施設","description":"","image_url":"","tags":"","prefecture":"東京","contractor":"","structural_designer":"","landscape_designer":"","shinkenchiku_url":""},{"id":3577,"title":"fields 福島支店","architect":"永山祐子","year":2003.0,"address":"福島県郡山市菜根屋敷25-3","latitude":37.38453674316406,"longitude":140.35914611816406,"category":"企業施設","big_category":"企業施設","description":"ショールーム？","image_url":"","tags":"","prefecture":"福島","contractor":"","structural_designer":"","landscape_designer":"","shinkenchiku_url":""},{"id":3578,"title":"満願寺","architect":"吉田五十八","year":1970.0,"address":"東京都世田谷区等々力3-15-1","latitude":35.610084533691406,"longitude":139.65000915527344,"category":"寺院","big_category":"宗教","description":"","image_url":"","tags":"","prefecture":"東京","contractor":"","structural_designer":"","landscape_designer":"","shinkenchiku_url":""},{"id":3579,"title":"KEYAKI GARDEN","architect":"堀部安嗣","year":2008.0,"address":"東京都世田谷区玉川田園調布2-8-1","latitude":35.601497650146484,"longitude":139.66456604003906,"category":"集合住宅","big_category":"住宅","description":"","image_url":"","tags":"","prefecture":"東京","contractor":"","structural_designer":"","landscape_designer":"","shinkenchiku_url":""},{"id":3580,"title":"屋久島メッセンジャー","architect":"堀部安嗣","year":2010.0,"address":"鹿児島県熊毛郡屋久島町小瀬田413-76","latitude":30.3740234375,"longitude":130.66412353515625,"category":"店舗","big_category":"商業施設","description":"","image_url":"","tags":"","prefecture":"鹿児島","contractor":"","structural_designer":"","landscape_designer":"","shinkenchiku_url":""},{"id":3581,"title":"里山十帖","architect":"岩佐十良","year":2013.0,"address":"新潟県南魚沼市大沢1209-6","latitude":37.020565032958984,"longitude":138.80154418945312,"category":"ホテル","big_category":"宿泊","description":"","image_url":"","tags":"","prefecture":"新潟","contractor":"","structural_designer":"","landscape_designer":"","shinkenchiku_url":""},{"id":3582,"title":"沖縄県看護研修センター","architect":"飯田善彦","year":2013.0,"address":"沖縄県島尻郡南風原町字新川272-17","latitude":26.20632553100586,"longitude":127.7254638671875,"category":"研修施設","big_category":"教育","description":"","image_url":"","tags":"","prefecture":"沖縄","contractor":"","structural_designer":"","landscape_designer":"","shinkenchiku_url":""},{"id":3583,"title":"さいたま市立職員研修センター 旧大宮市総合研修センター","architect":"鈴木恂","year":1992.0,"address":"埼玉県さいたま市見沼区堀崎町48-1","latitude":35.93443298339844,"longitude":139.65744018554688,"category":"総合文化施設","big_category":"文化施設","description":"","image_url":"","tags":"","prefecture":"埼玉","contractor":"","structural_designer":"","landscape_designer":"","shinkenchiku_url":""},{"id":3584,"title":"三春町立中郷コミュニティースクール 三春町立中郷小学校","architect":"鈴木恂","year":1990.0,"address":"福島県田村郡三春町柴原神久保235","latitude":37.411434173583984,"longitude":140.4864501953125,"category":"学校","big_category":"教育","description":"小学校、公民館、幼稚園が併設","image_url":"","tags":"","prefecture":"福島","contractor":"","structural_designer":"","landscape_designer":"","shinkenchiku_url":""},{"id":3585,"title":"千葉こどもの国キッズダム","architect":"鈴木恂","year":1971.0,"address":"千葉県市原市山倉1487","latitude":35.48932647705078,"longitude":140.1327667236328,"category":"児童施設","big_category":"教育","description":"","image_url":"","tags":"","prefecture":"千葉","contractor":"","structural_designer":"","landscape_designer":"","shinkenchiku_url":""},{"id":3586,"title":"龍谷寺妙光堂","architect":"鈴木恂","year":1979.0,"address":"新潟県南魚沼市大崎3455","latitude":37.129878997802734,"longitude":138.94715881347656,"category":"寺院","big_category":"宗教","description":"","image_url":"","tags":"","prefecture":"新潟","contractor":"","structural_designer":"","landscape_designer":"","shinkenchiku_url":""},{"id":3587,"title":"東京家政大学 教育会館／小講堂／8号館","architect":"鈴木恂","year":1997.0,"address":"東京都板橋区加賀1-18-1","latitude":35.75577163696289,"longitude":139.7200927734375,"category":"大学","big_category":"教育","description":"","image_url":"","tags":"","prefecture":"東京","contractor":"","structural_designer":"","landscape_designer":"","shinkenchiku_url":""},{"id":3588,"title":"早稲田大学 大久保キャンパス新研究棟 62号E館／62号W館","architect":"鈴木恂","year":1997.0,"address":"東京都新宿区大久保3-4","latitude":35.70643615722656,"longitude":139.70510864257812,"category":"大学","big_category":"教育","description":"","image_url":"","tags":"","prefecture":"東京","contractor":"","structural_designer":"","landscape_designer":"","shinkenchiku_url":""},{"id":3589,"title":"早稲田大学 理工学総合センター 研究棟 55号館","architect":"鈴木恂","year":1993.0,"address":"東京都新宿区大久保3-4","latitude":35.70600509643555,"longitude":139.70838928222656,"category":"大学","big_category":"教育","description":"","image_url":"","tags":"1995年日本建築学会 作品選奨","prefecture":"東京","contractor":"","structural_designer":"","landscape_designer":"","shinkenchiku_url":""},{"id":3590,"title":"早稲田大学 大久保キャンパス学生ラウンジ","architect":"鈴木恂","year":1994.0,"address":"東京都新宿区大久保3-4","latitude":35.7060546875,"longitude":139.70669555664062,"category":"大学","big_category":"教育","description":"","image_url":"","tags":"","prefecture":"東京","contractor":"","structural_designer":"","landscape_designer":"","shinkenchiku_url":""},{"id":3591,"title":"尾鈴山蒸留所","architect":"武田光史","year":1998.0,"address":"宮崎県児湯郡木城町石河内656-17","latitude":32.22164535522461,"longitude":131.42111206054688,"category":"店舗","big_category":"商業施設","description":"","image_url":"","tags":"","prefecture":"宮崎","contractor":"","structural_designer":"","landscape_designer":"","shinkenchiku_url":""},{"id":3592,"title":"RIBBON CHAPEL","architect":"中村拓志","year":2013.0,"address":"広島県尾道市浦崎町1344-2","latitude":34.39362335205078,"longitude":133.28656005859375,"category":"結婚式場/展望台","big_category":"宗教,レジャー施設","description":"","image_url":"","tags":"新建築2014年7月号","prefecture":"広島","contractor":"ピーエス三菱","structural_designer":"Arup","landscape_designer":"","shinkenchiku_url":"https://data.shinkenchiku.online/articles/SK_2014_07_113-0"},{"id":3593,"title":"物質試行37 佐木島プロジェクト","architect":"鈴木了二","year":1995.0,"address":"広島県三原市鷺浦町須波794","latitude":34.35892105102539,"longitude":133.1151885986328,"category":"研修施設","big_category":"教育","description":"保養所。使われてないとの噂も。","image_url":"","tags":"1997年日本建築学会 作品賞","prefecture":"広島","contractor":"","structural_designer":"","landscape_designer":"","shinkenchiku_url":""},{"id":3594,"title":"物質試行33 成城山 耕雲寺","architect":"鈴木了二","year":1991.0,"address":"東京都世田谷区砧7-12-22","latitude":35.63789367675781,"longitude":139.6070098876953,"category":"寺院","big_category":"宗教","description":"","image_url":"","tags":"","prefecture":"東京","contractor":"","structural_designer":"","landscape_designer":"","shinkenchiku_url":""},{"id":3595,"title":"浄土真宗本願寺派竜王山 信行寺西本堂","architect":"宮崎浩","year":1998.0,"address":"東京都練馬区練馬2-14-18","latitude":35.742313385009766,"longitude":139.65199279785156,"category":"寺院","big_category":"宗教","description":"","image_url":"","tags":"","prefecture":"東京","contractor":"","structural_designer":"","landscape_designer":"","shinkenchiku_url":""},{"id":3596,"title":"SOFT AND HAIRY HOUSE モーカフェ","architect":"ウシダ・フィンドレイ・パートナーシップ","year":1994.0,"address":"茨城県つくば市山中480-38","latitude":36.0653076171875,"longitude":140.07916259765625,"category":"住宅/カフェ","big_category":"住宅,商業施設","description":"現在はカフェとして営業中","image_url":"","tags":"","prefecture":"茨城","contractor":"","structural_designer":"","landscape_designer":"","shinkenchiku_url":""},{"id":3597,"title":"日本イエス・キリスト教団垂水教会","architect":"西島正樹","year":1995.0,"address":"兵庫県神戸市垂水区高丸1-1-22","latitude":34.63419723510742,"longitude":135.05474853515625,"category":"教会","big_category":"宗教","description":"","image_url":"","tags":"1996年日本建築学会 作品選奨","prefecture":"兵庫","contractor":"","structural_designer":"","landscape_designer":"","shinkenchiku_url":""},{"id":3598,"title":"青谷福音ルーテル教会","architect":"西島正樹","year":2009.0,"address":"兵庫県神戸市中央区中島通2-3-6","latitude":34.71324920654297,"longitude":135.2085723876953,"category":"教会","big_category":"宗教","description":"","image_url":"","tags":"","prefecture":"兵庫","contractor":"","structural_designer":"","landscape_designer":"","shinkenchiku_url":""},{"id":3599,"title":"西川口キリスト教会","architect":"西島正樹","year":2010.0,"address":"埼玉県戸田市喜沢1-2-13","latitude":35.81559753417969,"longitude":139.69769287109375,"category":"教会","big_category":"宗教","description":"","image_url":"","tags":"","prefecture":"埼玉","contractor":"","structural_designer":"","landscape_designer":"","shinkenchiku_url":""},{"id":3600,"title":"くすぬち平和文化館","architect":"西島正樹","year":1998.0,"address":"沖縄県沖縄市安慶田1-29","latitude":26.332977294921875,"longitude":127.81005096435547,"category":"児童施設","big_category":"教育","description":"絵本書店、紙芝居劇場","image_url":"","tags":"","prefecture":"沖縄","contractor":"","structural_designer":"","landscape_designer":"","shinkenchiku_url":""}]}