{"page":114,"total_pages":290,"items_per_page":50,"total_items":14467,"items":[{"id":5651,"title":"慶應義塾大学 日吉寄宿舎 旧慶應義塾寄宿舎","architect":"谷口吉郎","year":1937.0,"address":"神奈川県横浜市港北区箕輪町1-11-19","latitude":35.54743194580078,"longitude":139.6483917236328,"category":"寮/大学","big_category":"住宅,教育","description":"2012年三菱地所設計により南寮改修","image_url":"","tags":"DOCOMOMO,新建築2014年2月号","prefecture":"神奈川","contractor":"","structural_designer":"","landscape_designer":"","shinkenchiku_url":"https://data.shinkenchiku.online/articles/SK_2014_02_184-0"},{"id":5652,"title":"三輪そうめん山本本社","architect":"竹中工務店","year":1983.0,"address":"奈良県桜井市箸中880","latitude":34.539573669433594,"longitude":135.83689880371094,"category":"体験施設/低層オフィス/レストラン","big_category":"レジャー施設,企業施設,商業施設","description":"","image_url":"","tags":"1981年吉田五十八賞,2014年JIA25年賞","prefecture":"奈良","contractor":"","structural_designer":"","landscape_designer":"","shinkenchiku_url":""},{"id":5653,"title":"東近江市庁舎 旧八日市庁舎","architect":"小根田守","year":1977.0,"address":"滋賀県東近江市八日市緑町10-5","latitude":35.112613677978516,"longitude":136.20762634277344,"category":"庁舎","big_category":"公共施設","description":"","image_url":"","tags":"公共建築百選","prefecture":"滋賀","contractor":"","structural_designer":"","landscape_designer":"","shinkenchiku_url":""},{"id":5654,"title":"東京都水道局 研修・開発センター","architect":"日建設計","year":2005.0,"address":"東京都世田谷区玉川田園調布1-19-1","latitude":35.60087585449219,"longitude":139.66087341308594,"category":"公共施設/研究施設","big_category":"公共施設,教育","description":"","image_url":"","tags":"2012年公共建築賞","prefecture":"東京","contractor":"","structural_designer":"","landscape_designer":"","shinkenchiku_url":""},{"id":5655,"title":"グランドプラザ","architect":"日本設計","year":2007.0,"address":"富山県富山市総曲輪3-8-39","latitude":36.6893424987793,"longitude":137.21371459960938,"category":"モール","big_category":"商業施設","description":"","image_url":"","tags":"2012年公共建築賞","prefecture":"富山","contractor":"","structural_designer":"","landscape_designer":"","shinkenchiku_url":""},{"id":5656,"title":"慈愛会谷山病院","architect":"日建設計","year":2006.0,"address":"鹿児島県鹿児島市小原町8-1","latitude":31.540971755981445,"longitude":130.53187561035156,"category":"病院","big_category":"医療施設","description":"","image_url":"","tags":"2012年公共建築賞・特別賞","prefecture":"鹿児島","contractor":"","structural_designer":"","landscape_designer":"","shinkenchiku_url":""},{"id":5657,"title":"熊本県こども総合療育センター","architect":"日建設計","year":2005.0,"address":"熊本県宇城市松橋町豊福2900","latitude":32.64426040649414,"longitude":130.70111083984375,"category":"病院","big_category":"医療施設","description":"","image_url":"","tags":"2010年公共建築賞・特別賞","prefecture":"熊本","contractor":"","structural_designer":"","landscape_designer":"","shinkenchiku_url":""},{"id":5658,"title":"石川県庁舎","architect":"山下設計","year":2002.0,"address":"石川県金沢市鞍月1-1","latitude":36.594566345214844,"longitude":136.625732421875,"category":"庁舎","big_category":"公共施設","description":"","image_url":"","tags":"2008年公共建築賞","prefecture":"石川","contractor":"","structural_designer":"","landscape_designer":"","shinkenchiku_url":""},{"id":5659,"title":"京都芸術センター 旧京都市立明倫小学校","architect":"佐藤総合計画","year":2000.0,"address":"京都府京都市中京区室町通蛸薬師下る山伏山町546-2","latitude":35.00542068481445,"longitude":135.75840759277344,"category":"総合文化施設","big_category":"文化施設","description":"旧京都市立明倫小学校は1931年竣工","image_url":"","tags":"2006年公共建築賞・特別賞","prefecture":"京都","contractor":"","structural_designer":"","landscape_designer":"","shinkenchiku_url":""},{"id":5660,"title":"新潟市北区文化会館","architect":"松田平田設計","year":2010.0,"address":"新潟県新潟市北区東栄町1-1-5","latitude":37.91305160522461,"longitude":139.221923828125,"category":"ホール・劇場","big_category":"文化施設","description":"","image_url":"","tags":"","prefecture":"新潟","contractor":"","structural_designer":"","landscape_designer":"","shinkenchiku_url":""},{"id":5661,"title":"新潟市食育花育センター","architect":"松田平田設計","year":2011.0,"address":"新潟県新潟市中央区清五郎401","latitude":37.8798713684082,"longitude":139.05043029785156,"category":"体験施設/博物館","big_category":"レジャー施設,ミュージアム","description":"","image_url":"","tags":"","prefecture":"新潟","contractor":"","structural_designer":"","landscape_designer":"","shinkenchiku_url":""},{"id":5662,"title":"みなとぴあ","architect":"松田平田設計","year":2003.0,"address":"新潟県新潟市中央区柳島町2-10","latitude":37.9298095703125,"longitude":139.0577392578125,"category":"博物館/洋館","big_category":"ミュージアム,近代建築/遺産","description":"","image_url":"","tags":"","prefecture":"新潟","contractor":"","structural_designer":"","landscape_designer":"","shinkenchiku_url":""},{"id":5663,"title":"徳島県立文学書道館","architect":"松田平田設計","year":2002.0,"address":"徳島県徳島市中前川町2-22-1","latitude":34.08006286621094,"longitude":134.55406188964844,"category":"博物館","big_category":"ミュージアム","description":"","image_url":"","tags":"","prefecture":"徳島","contractor":"","structural_designer":"","landscape_designer":"","shinkenchiku_url":""},{"id":5664,"title":"四国中央市 川之江図書館","architect":"松田平田設計","year":2003.0,"address":"愛媛県四国中央市川之江町2242-1","latitude":34.011329650878906,"longitude":133.57962036132812,"category":"図書館","big_category":"文化施設","description":"","image_url":"","tags":"","prefecture":"愛媛","contractor":"","structural_designer":"","landscape_designer":"","shinkenchiku_url":""},{"id":5665,"title":"やまと郡山城ホール","architect":"松田平田設計","year":2001.0,"address":"奈良県大和郡山市北郡山町211-3","latitude":34.6519660949707,"longitude":135.78236389160156,"category":"ホール・劇場","big_category":"文化施設","description":"","image_url":"","tags":"","prefecture":"奈良","contractor":"","structural_designer":"","landscape_designer":"","shinkenchiku_url":""},{"id":5666,"title":"小杉放菴記念日光美術館","architect":"松田平田設計","year":1997.0,"address":"栃木県日光市山内2388-3","latitude":36.75471878051758,"longitude":139.6053009033203,"category":"美術館","big_category":"ミュージアム","description":"","image_url":"","tags":"","prefecture":"栃木","contractor":"","structural_designer":"","landscape_designer":"","shinkenchiku_url":""},{"id":5667,"title":"那須野が原博物館","architect":"松田平田設計","year":2004.0,"address":"栃木県那須塩原市三島5-1","latitude":36.899723052978516,"longitude":139.9690399169922,"category":"博物館","big_category":"ミュージアム","description":"","image_url":"","tags":"","prefecture":"栃木","contractor":"","structural_designer":"","landscape_designer":"","shinkenchiku_url":""},{"id":5668,"title":"岩出市立岩出図書館","architect":"松田平田設計","year":2005.0,"address":"和歌山県岩出市根来1472-1","latitude":34.283939361572266,"longitude":135.30978393554688,"category":"図書館","big_category":"文化施設","description":"","image_url":"","tags":"","prefecture":"和歌山","contractor":"","structural_designer":"","landscape_designer":"","shinkenchiku_url":""},{"id":5669,"title":"日鉱記念館","architect":"松田平田設計","year":1985.0,"address":"茨城県日立市宮田町3585","latitude":36.6319580078125,"longitude":140.6008758544922,"category":"博物館","big_category":"ミュージアム","description":"","image_url":"","tags":"","prefecture":"茨城","contractor":"","structural_designer":"","landscape_designer":"","shinkenchiku_url":""},{"id":5670,"title":"群馬県立産業技術センター","architect":"松田平田設計","year":2003.0,"address":"群馬県太田市吉沢町1058-5","latitude":36.354251861572266,"longitude":139.3732147216797,"category":"研究施設/公共施設","big_category":"教育,公共施設","description":"","image_url":"","tags":"","prefecture":"群馬","contractor":"","structural_designer":"","landscape_designer":"","shinkenchiku_url":""},{"id":5671,"title":"Kai・遊・パーク","architect":"松田平田設計","year":2006.0,"address":"山梨県甲斐市西八幡1896-2","latitude":35.64051055908203,"longitude":138.52146911621094,"category":"プール/公園","big_category":"レジャー施設,レジャー施設","description":"","image_url":"","tags":"","prefecture":"山梨","contractor":"","structural_designer":"","landscape_designer":"","shinkenchiku_url":""},{"id":5672,"title":"東京理科大学 薬学部 野田校舎","architect":"松田平田設計","year":2003.0,"address":"千葉県野田市山崎2641","latitude":35.918060302734375,"longitude":139.90907287597656,"category":"大学","big_category":"教育","description":"","image_url":"","tags":"","prefecture":"千葉","contractor":"","structural_designer":"","landscape_designer":"","shinkenchiku_url":""},{"id":5673,"title":"横浜市立サイエンスフロンティア高等学校","architect":"松田平田設計","year":2008.0,"address":"神奈川県横浜市鶴見区小野町6","latitude":35.49839401245117,"longitude":139.67823791503906,"category":"学校","big_category":"教育","description":"","image_url":"","tags":"","prefecture":"神奈川","contractor":"","structural_designer":"","landscape_designer":"","shinkenchiku_url":""},{"id":5674,"title":"ハイアットリージェンシー箱根リゾート&スパ","architect":"松田平田設計","year":2005.0,"address":"神奈川県足柄下郡箱根町強羅 ハイアットリージェンシー箱根リゾート&スパ","latitude":35.25008773803711,"longitude":139.03733825683594,"category":"ホテル","big_category":"宿泊","description":"","image_url":"","tags":"","prefecture":"神奈川","contractor":"","structural_designer":"","landscape_designer":"","shinkenchiku_url":""},{"id":5675,"title":"吉祥寺駅末広通り自転車駐車場","architect":"黒川哲郎","year":1994.0,"address":"東京都武蔵野市吉祥寺南町2-5-7","latitude":35.70196533203125,"longitude":139.58175659179688,"category":"駐車・駐輪場","big_category":"公共施設","description":"","image_url":"","tags":"1998年公共建築賞,新建築1994年7月号","prefecture":"東京","contractor":"","structural_designer":"","landscape_designer":"","shinkenchiku_url":""},{"id":5676,"title":"兵庫県立リハビリテーション中央病院","architect":"兵庫県都市住宅局営繕課","year":1992.0,"address":"兵庫県神戸市西区曙町1070","latitude":34.67063522338867,"longitude":134.97622680664062,"category":"病院","big_category":"医療施設","description":"","image_url":"","tags":"1996年公共建築賞","prefecture":"兵庫","contractor":"","structural_designer":"","landscape_designer":"","shinkenchiku_url":""},{"id":5677,"title":"葛尾村立葛尾中学校三春校 旧要田中学校","architect":"近藤道男","year":1994.0,"address":"福島県田村郡三春町熊耳八ツ田213","latitude":37.462181091308594,"longitude":140.51974487304688,"category":"学校","big_category":"教育","description":"","image_url":"","tags":"1996年公共建築賞・特別賞","prefecture":"福島","contractor":"","structural_designer":"","landscape_designer":"","shinkenchiku_url":""},{"id":5678,"title":"陸別町役場","architect":"岡田新一","year":1988.0,"address":"北海道足寄郡陸別町陸別東1条3-1","latitude":43.46897506713867,"longitude":143.7472381591797,"category":"庁舎","big_category":"公共施設","description":"","image_url":"","tags":"1994年公共建築賞・特別賞","prefecture":"北海道","contractor":"","structural_designer":"","landscape_designer":"","shinkenchiku_url":""},{"id":5679,"title":"下関港国際ターミナル","architect":"下関市土木建築部建築課","year":1988.0,"address":"山口県下関市東大和町1-10-50","latitude":33.947818756103516,"longitude":130.92620849609375,"category":"港","big_category":"インフラ","description":"","image_url":"","tags":"1992年公共建築賞・特別賞","prefecture":"山口","contractor":"","structural_designer":"","landscape_designer":"","shinkenchiku_url":""},{"id":5680,"title":"江東区立東陽図書館","architect":"梓設計","year":1985.0,"address":"東京都江東区東陽2-3-6","latitude":35.66718292236328,"longitude":139.81715393066406,"category":"図書館","big_category":"文化施設","description":"","image_url":"","tags":"1990年公共建築賞,2010年JIA25年賞","prefecture":"東京","contractor":"","structural_designer":"","landscape_designer":"","shinkenchiku_url":""},{"id":5681,"title":"加須げんきプラザ 旧加須青年の家","architect":"坂倉建築研究所","year":1985.0,"address":"埼玉県加須市花崎456","latitude":36.10638427734375,"longitude":139.6313934326172,"category":"研修施設/児童施設","big_category":"教育,教育","description":"","image_url":"","tags":"1988年公共建築賞","prefecture":"埼玉","contractor":"","structural_designer":"","landscape_designer":"","shinkenchiku_url":""},{"id":5682,"title":"宮内庁 正倉院事務所","architect":"日建設計","year":2008.0,"address":"奈良県奈良市雑司町雑司町129","latitude":34.69052505493164,"longitude":135.83731079101562,"category":"公共施設/研究施設","big_category":"公共施設,教育","description":"","image_url":"","tags":"2014年公共建築賞・特別賞","prefecture":"奈良","contractor":"","structural_designer":"","landscape_designer":"","shinkenchiku_url":""},{"id":5683,"title":"泉ガーデン","architect":"日建設計","year":2002.0,"address":"東京都港区六本木1-6-1","latitude":35.66461181640625,"longitude":139.739501953125,"category":"複合ビル","big_category":"企業施設","description":"","image_url":"","tags":"2005年度日本建築家協会賞,2005年日本建築学会 作品選奨","prefecture":"東京","contractor":"","structural_designer":"","landscape_designer":"","shinkenchiku_url":""},{"id":5684,"title":"Dancing trees, Singing birds BirdPark目黒","architect":"中村拓志","year":2007.0,"address":"東京都目黒区目黒1-1-33","latitude":35.637752532958984,"longitude":139.7125701904297,"category":"集合住宅","big_category":"住宅","description":"","image_url":"","tags":"2008年度日本建築家協会賞","prefecture":"東京","contractor":"","structural_designer":"","landscape_designer":"","shinkenchiku_url":""},{"id":5685,"title":"MAZDA Zoom-Zoom スタジアム広島","architect":"仙田満","year":2009.0,"address":"広島県広島市南区南蟹屋2-3-1","latitude":34.3918342590332,"longitude":132.4846649169922,"category":"スタジアム","big_category":"レジャー施設","description":"日本建築家協会賞受賞者名：仙田満、奥田實、佐藤尚巳、金箱温春","image_url":"","tags":"2010年度日本建築家協会賞","prefecture":"広島","contractor":"","structural_designer":"","landscape_designer":"","shinkenchiku_url":""},{"id":5686,"title":"西脇市民会館","architect":"根津耕一郎","year":1965.0,"address":"兵庫県西脇市郷瀬町605","latitude":34.99431228637695,"longitude":134.9693145751953,"category":"ホール・劇場","big_category":"文化施設","description":"建て替えが検討されている","image_url":"","tags":"","prefecture":"兵庫","contractor":"","structural_designer":"","landscape_designer":"","shinkenchiku_url":""},{"id":5687,"title":"西脇市庁舎","architect":"根津耕一郎","year":1968.0,"address":"兵庫県西脇市郷瀬町605","latitude":34.99338912963867,"longitude":134.96934509277344,"category":"庁舎","big_category":"公共施設","description":"建て替えが決定","image_url":"","tags":"","prefecture":"兵庫","contractor":"","structural_designer":"","landscape_designer":"","shinkenchiku_url":""},{"id":5688,"title":"小松精練 本社改修 fa-bo","architect":"隈研吾","year":2015.0,"address":"石川県能美市浜町ヌ-167","latitude":36.44654083251953,"longitude":136.4482879638672,"category":"低層オフィス/博物館","big_category":"企業施設,ミュージアム","description":"2015/11/13に改修竣工。2021年に資料館機能を備えた。一般見学可能","image_url":"","tags":"新建築2016年1月号","prefecture":"石川","contractor":"","structural_designer":"","landscape_designer":"","shinkenchiku_url":""},{"id":5689,"title":"東京ソワール表参道ビル","architect":"宮脇檀","year":1991.0,"address":"東京都渋谷区神宮前4-3-4","latitude":35.6666259765625,"longitude":139.71080017089844,"category":"テナントビル","big_category":"商業施設","description":"","image_url":"","tags":"","prefecture":"東京","contractor":"","structural_designer":"","landscape_designer":"","shinkenchiku_url":""},{"id":5690,"title":"南陽市文化会館","architect":"株式会社大建設計","year":2015.0,"address":"山形県南陽市三間通430-2","latitude":38.05434036254883,"longitude":140.14830017089844,"category":"ホール・劇場","big_category":"文化施設","description":"","image_url":"","tags":"新建築2015年11月号","prefecture":"山形","contractor":"","structural_designer":"","landscape_designer":"","shinkenchiku_url":""},{"id":5691,"title":"認定こども園 さざなみの森 吹の棟","architect":"竹原義二","year":2015.0,"address":"広島県東広島市西条町寺家261","latitude":34.428585052490234,"longitude":132.70547485351562,"category":"幼稚園","big_category":"教育","description":"","image_url":"","tags":"2014年日本建築学会 作品選奨,新建築2015年11月号","prefecture":"広島","contractor":"大和建設","structural_designer":"","landscape_designer":"","shinkenchiku_url":""},{"id":5692,"title":"八幡市立子ども・子育て支援センター すくすくの杜","architect":"森村政悦","year":2015.0,"address":"京都府八幡市欽明台中央12-4","latitude":34.83879852294922,"longitude":135.71897888183594,"category":"児童施設","big_category":"教育","description":"","image_url":"","tags":"新建築2015年11月号","prefecture":"京都","contractor":"","structural_designer":"","landscape_designer":"","shinkenchiku_url":""},{"id":5693,"title":"みやむら動物病院","architect":"鈴木敏彦+ビルディングランドスケープ","year":2015.0,"address":"東京都江戸川区中央2-5-15","latitude":35.707889556884766,"longitude":139.87191772460938,"category":"個人医院","big_category":"医療施設","description":"","image_url":"","tags":"新建築2015年11月号","prefecture":"東京","contractor":"","structural_designer":"","landscape_designer":"","shinkenchiku_url":""},{"id":5694,"title":"南小国町役場","architect":"仙田満","year":2015.0,"address":"熊本県阿蘇郡南小国町大字赤馬場143","latitude":33.09828186035156,"longitude":131.0708465576172,"category":"庁舎","big_category":"公共施設","description":"","image_url":"","tags":"新建築2015年11月号","prefecture":"熊本","contractor":"","structural_designer":"","landscape_designer":"","shinkenchiku_url":""},{"id":5695,"title":"仙台市泉岳自然ふれあい館","architect":"関・空間設計","year":2014.0,"address":"宮城県仙台市泉区福岡字岳山9-8","latitude":38.390567779541016,"longitude":140.7183837890625,"category":"児童施設/体験施設/研修施設","big_category":"教育,レジャー施設,教育","description":"","image_url":"","tags":"新建築2015年11月号","prefecture":"宮城","contractor":"","structural_designer":"","landscape_designer":"","shinkenchiku_url":""},{"id":5696,"title":"宮畑遺跡史跡公園体験学習施設","architect":"古市徹雄+株式会社大建設計+鈴木設計","year":2015.0,"address":"福島県福島市岡島宮田78","latitude":37.790462493896484,"longitude":140.5158233642578,"category":"博物館/体験施設","big_category":"ミュージアム,レジャー施設","description":"","image_url":"","tags":"新建築2015年11月号","prefecture":"福島","contractor":"","structural_designer":"","landscape_designer":"","shinkenchiku_url":""},{"id":5697,"title":"つくばみらい市立陽光台小学校","architect":"梓設計+岡野建築設計","year":2015.0,"address":"茨城県つくばみらい市陽光台3-1","latitude":35.99475860595703,"longitude":140.04373168945312,"category":"学校","big_category":"教育","description":"","image_url":"","tags":"新建築2015年11月号","prefecture":"茨城","contractor":"","structural_designer":"","landscape_designer":"","shinkenchiku_url":""},{"id":5698,"title":"福島県国見町庁舎","architect":"ジェイアール東日本建築設計事務所+田畑光三","year":2015.0,"address":"福島県伊達郡国見町藤田一丁田二2-1","latitude":37.8768196105957,"longitude":140.5492401123047,"category":"庁舎","big_category":"公共施設","description":"","image_url":"","tags":"新建築2015年11月号","prefecture":"福島","contractor":"","structural_designer":"","landscape_designer":"","shinkenchiku_url":""},{"id":5699,"title":"ATグループ本社 北館","architect":"竹中工務店","year":2015.0,"address":"愛知県名古屋市昭和区高辻町6-8","latitude":35.13962936401367,"longitude":136.91783142089844,"category":"店舗/低層オフィス","big_category":"商業施設,企業施設","description":"","image_url":"","tags":"新建築2015年11月号","prefecture":"愛知","contractor":"","structural_designer":"","landscape_designer":"","shinkenchiku_url":""},{"id":5700,"title":"WEEK神山","architect":"伊藤暁+坂東幸輔+須磨一清","year":2015.0,"address":"徳島県名西郡神山町下分字地野57","latitude":33.96875762939453,"longitude":134.3383331298828,"category":"ホテル/低層オフィス","big_category":"宿泊,企業施設","description":"","image_url":"","tags":"新建築2015年11月号","prefecture":"徳島","contractor":"","structural_designer":"","landscape_designer":"","shinkenchiku_url":""}]}