{"page":261,"total_pages":290,"items_per_page":50,"total_items":14467,"items":[{"id":13001,"title":"福島エコムスパビリオン・SUS福島工場","architect":"山本理顕","year":2005.0,"address":"福島県須賀川市虹の台21-1","latitude":37.25279235839844,"longitude":6053097472.0,"category":"低層オフィス/工場","big_category":"企業施設,企業施設","description":"","image_url":"","tags":"新建築2005年11月号,Ver5.20(2024年1月)の追加建築","prefecture":"福島","contractor":"","structural_designer":"","landscape_designer":"","shinkenchiku_url":""},{"id":13002,"title":"NST 新潟総合テレビ","architect":"清水建設","year":2004.0,"address":"新潟県新潟市八千代2-3-1","latitude":37.91463088989258,"longitude":139.051025390625,"category":"オフィスビル","big_category":"企業施設","description":"","image_url":"","tags":"新建築2005年11月号,Ver5.20(2024年1月)の追加建築","prefecture":"新潟","contractor":"","structural_designer":"","landscape_designer":"","shinkenchiku_url":""},{"id":13003,"title":"オーディオテクニカフクイ新社屋","architect":"竹中工務店","year":2010.0,"address":"福井県越前市戸谷町87-1","latitude":35.91916275024414,"longitude":136.22068786621094,"category":"低層オフィス","big_category":"企業施設","description":"","image_url":"","tags":"新建築2011年7月号,Ver5.20(2024年1月)の追加建築","prefecture":"福井","contractor":"","structural_designer":"","landscape_designer":"","shinkenchiku_url":""},{"id":13004,"title":"メトログリーン東陽町","architect":"橋本文隆+帝都高速度交通営団","year":1995.0,"address":"東京都江東区新砂1-6-40","latitude":35.667640686035156,"longitude":139.82432556152344,"category":"スポーツ施設","big_category":"レジャー施設","description":"","image_url":"","tags":"新建築1995年8月号,Ver5.20(2024年1月)の追加建築","prefecture":"東京","contractor":"","structural_designer":"","landscape_designer":"","shinkenchiku_url":""},{"id":13005,"title":"鯖江市アイアイ鯖江・健康福祉センター","architect":"岡崎甚幸+川口衞","year":1995.0,"address":"福井県鯖江市水落町2-30-1","latitude":35.961570739746094,"longitude":136.18780517578125,"category":"福祉センター","big_category":"医療施設","description":"","image_url":"","tags":"新建築1995年8月号,Ver5.20(2024年1月)の追加建築","prefecture":"福井","contractor":"","structural_designer":"","landscape_designer":"","shinkenchiku_url":""},{"id":13006,"title":"旧越乃甘露 Y FACTORY","architect":"木村博昭","year":1993.0,"address":"福井県丹生郡越前町岩開9-53-5","latitude":35.95903778076172,"longitude":136.12416076660156,"category":"店舗","big_category":"商業施設","description":"現在は眼鏡店?","image_url":"","tags":"新建築1995年8月号,Ver5.20(2024年1月)の追加建築","prefecture":"福井","contractor":"","structural_designer":"","landscape_designer":"","shinkenchiku_url":""},{"id":13007,"title":"鈴木木材工業本社","architect":"城戸崎和佐","year":1997.0,"address":"長崎県佐世保市沖新町2-18","latitude":33.14543533325195,"longitude":129.75,"category":"低層オフィス","big_category":"企業施設","description":"","image_url":"","tags":"新建築1998年2月号,Ver5.20(2024年1月)の追加建築","prefecture":"長崎","contractor":"","structural_designer":"","landscape_designer":"","shinkenchiku_url":""},{"id":13008,"title":"竹川病院","architect":"城戸崎博孝","year":2007.0,"address":"東京都板橋区桜川2-19-1","latitude":35.7588005065918,"longitude":139.67898559570312,"category":"病院","big_category":"医療施設","description":"","image_url":"","tags":"Ver5.20(2024年1月)の追加建築","prefecture":"東京","contractor":"","structural_designer":"","landscape_designer":"","shinkenchiku_url":""},{"id":13009,"title":"西宮マリナパークシティ","architect":"坂倉建築研究所","year":2004.0,"address":"兵庫県西宮市西宮浜4-12-5","latitude":34.71156311035156,"longitude":135.32647705078125,"category":"集合住宅","big_category":"住宅","description":"","image_url":"","tags":"新建築2005年1月号,Ver5.20(2024年1月)の追加建築","prefecture":"兵庫","contractor":"","structural_designer":"","landscape_designer":"","shinkenchiku_url":""},{"id":13010,"title":"NHK神戸放送会館","architect":"大林組+日本設計+イチケン","year":2004.0,"address":"兵庫県神戸市中央区中山手通2-24-7","latitude":34.69524002075195,"longitude":135.1883087158203,"category":"低層オフィス","big_category":"企業施設","description":"","image_url":"","tags":"新建築2005年1月号,Ver5.20(2024年1月)の追加建築","prefecture":"兵庫","contractor":"","structural_designer":"","landscape_designer":"","shinkenchiku_url":""},{"id":13011,"title":"サントリー商品開発センター","architect":"大江匡","year":2004.0,"address":"神奈川県川崎市中原区今井上町13-2","latitude":35.57856369018555,"longitude":139.6477508544922,"category":"研究施設","big_category":"教育","description":"","image_url":"","tags":"新建築2005年1月号,Ver5.20(2024年1月)の追加建築","prefecture":"神奈川","contractor":"","structural_designer":"","landscape_designer":"","shinkenchiku_url":""},{"id":13012,"title":"高橋内科クリニック","architect":"アトリエ・ワン","year":2004.0,"address":"埼玉県さいたま市緑区東浦和4-5-7","latitude":35.86537170410156,"longitude":139.7024383544922,"category":"個人医院","big_category":"医療施設","description":"","image_url":"","tags":"新建築2005年1月号,Ver5.20(2024年1月)の追加建築","prefecture":"埼玉","contractor":"","structural_designer":"","landscape_designer":"","shinkenchiku_url":""},{"id":13013,"title":"弁三ビル","architect":"吉原慎一郎","year":1954.0,"address":"神奈川県横浜市中区弁天通3-4-8","latitude":35.44769287109375,"longitude":139.63821411132812,"category":"テナントビル/集合住宅","big_category":"商業施設,住宅","description":"","image_url":"","tags":"Ver5.20(2024年1月)の追加建築","prefecture":"神奈川","contractor":"大林組","structural_designer":"","landscape_designer":"","shinkenchiku_url":""},{"id":13014,"title":"吉田町第一名店ビル","architect":"宮内初太郎","year":1957.0,"address":"神奈川県横浜市中区吉田町4-6","latitude":35.445865631103516,"longitude":139.63290405273438,"category":"テナントビル/集合住宅","big_category":"商業施設,住宅","description":"","image_url":"","tags":"Ver5.20(2024年1月)の追加建築","prefecture":"神奈川","contractor":"","structural_designer":"","landscape_designer":"","shinkenchiku_url":""},{"id":13015,"title":"横浜マリンタワー","architect":"清水建設","year":1961.0,"address":"神奈川県横浜市中区山下町14-1","latitude":35.44392013549805,"longitude":139.65086364746094,"category":"展望台/観光施設","big_category":"レジャー施設,レジャー施設","description":"","image_url":"","tags":"Ver5.20(2024年1月)の追加建築","prefecture":"神奈川","contractor":"","structural_designer":"","landscape_designer":"","shinkenchiku_url":""},{"id":13016,"title":"野毛都橋商店街ビル","architect":"吉原慎一郎","year":1964.0,"address":"神奈川県横浜市中区野毛町1-16-31","latitude":35.446571350097656,"longitude":139.6305694580078,"category":"テナントビル","big_category":"商業施設","description":"","image_url":"","tags":"Ver5.20(2024年1月)の追加建築","prefecture":"神奈川","contractor":"小俣組","structural_designer":"","landscape_designer":"","shinkenchiku_url":""},{"id":13017,"title":"相模女子大学 1号館","architect":"吉武泰水","year":1964.0,"address":"神奈川県相模原市南区文京2-1-1","latitude":35.53382873535156,"longitude":139.4287872314453,"category":"大学","big_category":"教育","description":"","image_url":"","tags":"Ver5.20(2024年1月)の追加建築","prefecture":"神奈川","contractor":"熊谷組","structural_designer":"","landscape_designer":"","shinkenchiku_url":""},{"id":13018,"title":"昭和シェル石油 中央研究所","architect":"千代田化工建設+森京介","year":1966.0,"address":"神奈川県愛甲郡愛川町中津4052-2","latitude":35.51713180541992,"longitude":139.3420867919922,"category":"研究施設","big_category":"教育","description":"GoogleMaps上では閉業とある","image_url":"","tags":"Ver5.20(2024年1月)の追加建築","prefecture":"神奈川","contractor":"","structural_designer":"","landscape_designer":"","shinkenchiku_url":""},{"id":13019,"title":"淨教寺本堂","architect":"岸熊吉","year":1968.0,"address":"奈良県奈良市上三条町18","latitude":34.6823844909668,"longitude":135.8251495361328,"category":"寺院","big_category":"宗教","description":"","image_url":"","tags":"Ver5.20(2024年1月)の追加建築","prefecture":"奈良","contractor":"伸和建設","structural_designer":"","landscape_designer":"","shinkenchiku_url":""},{"id":13020,"title":"御所市立名柄小学校","architect":"久米設計","year":1990.0,"address":"奈良県御所市名柄185","latitude":34.44112014770508,"longitude":135.7151336669922,"category":"学校","big_category":"教育","description":"","image_url":"","tags":"Ver5.20(2024年1月)の追加建築","prefecture":"奈良","contractor":"鍛冶田工務店","structural_designer":"","landscape_designer":"","shinkenchiku_url":""},{"id":13021,"title":"ローレルコート エスタ萩の台","architect":"アール・アイ・エー","year":1990.0,"address":"奈良県生駒市萩の台5-1-3","latitude":34.652931213378906,"longitude":135.7116241455078,"category":"集合住宅","big_category":"住宅","description":"","image_url":"","tags":"Ver5.20(2024年1月)の追加建築","prefecture":"奈良","contractor":"","structural_designer":"","landscape_designer":"","shinkenchiku_url":""},{"id":13022,"title":"薬師寺西塔","architect":"浅野清","year":1981.0,"address":"奈良県奈良市西ノ京町457","latitude":34.668087005615234,"longitude":135.78390502929688,"category":"寺院","big_category":"宗教","description":"クレジット：薬師寺西塔設計委員会","image_url":"","tags":"Ver5.20(2024年1月)の追加建築","prefecture":"奈良","contractor":"","structural_designer":"","landscape_designer":"","shinkenchiku_url":""},{"id":13023,"title":"オンザパーク","architect":"苅部寛子+吉川真理子","year":2014.0,"address":"神奈川県横浜市保土ケ谷区西谷4-23-15","latitude":35.47769546508789,"longitude":139.5605926513672,"category":"集合住宅","big_category":"住宅","description":"","image_url":"","tags":"新建築2015年2月号,Ver5.20(2024年1月)の追加建築","prefecture":"神奈川","contractor":"","structural_designer":"","landscape_designer":"","shinkenchiku_url":""},{"id":13024,"title":"クアッド五本木","architect":"カスヤアーキテクツオフィス","year":2014.0,"address":"東京都目黒区五本木2-3-12","latitude":35.63569641113281,"longitude":139.6859130859375,"category":"集合住宅","big_category":"住宅","description":"","image_url":"","tags":"新建築2015年2月号,Ver5.20(2024年1月)の追加建築","prefecture":"東京","contractor":"","structural_designer":"","landscape_designer":"","shinkenchiku_url":""},{"id":13025,"title":"アリウェイ戸越","architect":"駒田建築設計事務所","year":2014.0,"address":"東京都品川区戸越1-23-11","latitude":35.615875244140625,"longitude":139.71987915039062,"category":"集合住宅","big_category":"住宅","description":"","image_url":"","tags":"新建築2015年2月号,Ver5.20(2024年1月)の追加建築","prefecture":"東京","contractor":"","structural_designer":"","landscape_designer":"","shinkenchiku_url":""},{"id":13026,"title":"3×3 CUBE 椎名町","architect":"横河健","year":2014.0,"address":"東京都豊島区南長崎2-12-20","latitude":35.72538757324219,"longitude":139.69081115722656,"category":"集合住宅","big_category":"住宅","description":"","image_url":"","tags":"新建築2015年2月号,Ver5.20(2024年1月)の追加建築","prefecture":"東京","contractor":"","structural_designer":"","landscape_designer":"","shinkenchiku_url":""},{"id":13027,"title":"尾山台のコンプレックス 尾山台萬八ビル","architect":"久野靖広","year":2014.0,"address":"東京都世田谷区等々力5-5-12","latitude":35.60749053955078,"longitude":139.65377807617188,"category":"集合住宅/テナントビル","big_category":"住宅,商業施設","description":"","image_url":"","tags":"新建築2015年2月号,Ver5.20(2024年1月)の追加建築","prefecture":"東京","contractor":"","structural_designer":"","landscape_designer":"","shinkenchiku_url":""},{"id":13028,"title":"善教寺 光の納骨堂","architect":"安藤忠雄","year":2022.0,"address":"兵庫県西宮市鳴尾町4-10-7","latitude":34.715919494628906,"longitude":135.36862182617188,"category":"寺院","big_category":"宗教","description":"","image_url":"","tags":"Ver5.20(2024年1月)の追加建築","prefecture":"兵庫","contractor":"","structural_designer":"","landscape_designer":"","shinkenchiku_url":""},{"id":13029,"title":"徳島木のおもちゃ美術館","architect":"藤原洋平","year":2021.0,"address":"徳島県板野郡板野町那東字キビガ谷45-22","latitude":34.151126861572266,"longitude":134.43931579589844,"category":"児童施設/博物館","big_category":"教育,ミュージアム","description":"","image_url":"","tags":"Ver5.20(2024年1月)の追加建築","prefecture":"徳島","contractor":"","structural_designer":"","landscape_designer":"","shinkenchiku_url":""},{"id":13030,"title":"城野団地リノベーション","architect":"馬場正尊+らいおん建築事務所+北九州家守舎","year":2014.0,"address":"福岡県北九州市小倉北区城野団地1","latitude":33.86252975463867,"longitude":130.89144897460938,"category":"集合住宅/都市計画","big_category":"住宅,公共施設","description":"1958～63年竣工の団地改修","image_url":"","tags":"新建築2015年2月号,Ver5.20(2024年1月)の追加建築","prefecture":"福岡","contractor":"","structural_designer":"","landscape_designer":"","shinkenchiku_url":""},{"id":13031,"title":"KGMコート","architect":"設計組織ADH","year":2014.0,"address":"東京都目黒区中央町1-11-3","latitude":35.62759017944336,"longitude":139.692626953125,"category":"集合住宅","big_category":"住宅","description":"","image_url":"","tags":"新建築2015年2月号,Ver5.20(2024年1月)の追加建築","prefecture":"東京","contractor":"","structural_designer":"","landscape_designer":"","shinkenchiku_url":""},{"id":13032,"title":"大槌町大ケ口一丁目町営住宅","architect":"久慈設計+UR都市機構","year":2013.0,"address":"岩手県上閉伊郡大槌町大ケ口1-1","latitude":39.368873596191406,"longitude":141.89175415039062,"category":"都市計画/住宅","big_category":"公共施設,住宅","description":"","image_url":"","tags":"新建築2015年2月号,Ver5.20(2024年1月)の追加建築","prefecture":"岩手","contractor":"","structural_designer":"","landscape_designer":"","shinkenchiku_url":""},{"id":13033,"title":"女川町営運動公園住宅","architect":"UR都市機構+照沼博志","year":2014.0,"address":"宮城県牡鹿郡女川町女川浜字大原520","latitude":38.45009231567383,"longitude":141.44105529785156,"category":"集合住宅","big_category":"住宅","description":"","image_url":"","tags":"新建築2015年2月号,Ver5.20(2024年1月)の追加建築","prefecture":"宮城","contractor":"","structural_designer":"","landscape_designer":"","shinkenchiku_url":""},{"id":13034,"title":"堀川出水団地第1棟・第2棟 改修","architect":"アール・アイ・エー+馬場正尊+地域にねざす設計舎TAPROOT+原田博史","year":2014.0,"address":"京都府京都市上京区桝屋町28","latitude":35.02143478393555,"longitude":135.7515869140625,"category":"集合住宅","big_category":"住宅","description":"1950～53年竣工の団地、カフェ、福祉施設改修","image_url":"","tags":"新建築2015年2月号,Ver5.20(2024年1月)の追加建築","prefecture":"京都","contractor":"","structural_designer":"","landscape_designer":"","shinkenchiku_url":""},{"id":13035,"title":"シビックルーフH","architect":"設計組織ADH","year":1998.0,"address":"三重県津市久居新町 久居駅","latitude":34.67625427246094,"longitude":136.47769165039062,"category":"駅/広場","big_category":"インフラ,文化施設","description":"駅前広場のルーフ","image_url":"","tags":"新建築1999年4月号,Ver5.20(2024年1月)の追加建築","prefecture":"三重","contractor":"","structural_designer":"","landscape_designer":"","shinkenchiku_url":""},{"id":13036,"title":"CIRCO","architect":"設計組織ADH","year":2011.0,"address":"東京都世田谷区駒沢1-7-13","latitude":35.63109588623047,"longitude":139.66030883789062,"category":"集合住宅","big_category":"住宅","description":"","image_url":"","tags":"新建築2012年2月号,Ver5.20(2024年1月)の追加建築","prefecture":"東京","contractor":"","structural_designer":"","landscape_designer":"","shinkenchiku_url":""},{"id":13037,"title":"モデルナ","architect":"設計組織ADH","year":2006.0,"address":"東京都港区白金6-21-4","latitude":35.644222259521484,"longitude":139.72222900390625,"category":"集合住宅","big_category":"住宅","description":"","image_url":"","tags":"新建築2006年8月号,Ver5.20(2024年1月)の追加建築","prefecture":"東京","contractor":"","structural_designer":"","landscape_designer":"","shinkenchiku_url":""},{"id":13038,"title":"飯田橋サクラパーク 飯田橋グラン・ブルーム パークコート千代田富士見ザ・タワー","architect":"日建設計+前田建設工業","year":2015.0,"address":"東京都千代田区富士見2-10-2","latitude":35.698970794677734,"longitude":139.74378967285156,"category":"複合ビル/オフィスビル/集合住宅","big_category":"企業施設,企業施設,住宅","description":"","image_url":"","tags":"新建築2015年2月号,Ver5.20(2024年1月)の追加建築","prefecture":"東京","contractor":"","structural_designer":"","landscape_designer":"","shinkenchiku_url":""},{"id":13039,"title":"多賀城市営桜木住宅","architect":"UR都市機構+三井所清典+関・空間設計","year":2014.0,"address":"宮城県多賀城市桜木2-4","latitude":38.290130615234375,"longitude":141.01611328125,"category":"集合住宅","big_category":"住宅","description":"","image_url":"","tags":"新建築2015年2月号,Ver5.20(2024年1月)の追加建築","prefecture":"宮城","contractor":"","structural_designer":"","landscape_designer":"","shinkenchiku_url":""},{"id":13040,"title":"Fujisawa サスティナブル・スマートタウン","architect":"パナソニックホームズ","year":2013.0,"address":"神奈川県藤沢市辻堂元町6-21-1","latitude":35.33464050292969,"longitude":139.4641571044922,"category":"都市計画","big_category":"公共施設","description":"マスタープラン・設計全体監修：パナホーム分譲技術部一級建築士事務所（現パナソニックホームズ）","image_url":"","tags":"新建築2015年3月号,Ver5.20(2024年1月)の追加建築","prefecture":"神奈川","contractor":"","structural_designer":"","landscape_designer":"","shinkenchiku_url":""},{"id":13041,"title":"島津製作所E1号館","architect":"三菱地所","year":2014.0,"address":"京都府京都市中京区西ノ京桑原町1","latitude":35.00925827026367,"longitude":135.72885131835938,"category":"オフィスビル","big_category":"企業施設","description":"","image_url":"","tags":"新建築2015年3月号,Ver5.20(2024年1月)の追加建築","prefecture":"京都","contractor":"","structural_designer":"","landscape_designer":"","shinkenchiku_url":""},{"id":13042,"title":"小田部保育園","architect":"yHa architects","year":2014.0,"address":"福岡県福岡市早良区小田部3-18-7","latitude":33.56618118286133,"longitude":130.33087158203125,"category":"幼稚園","big_category":"教育","description":"","image_url":"","tags":"新建築2015年4月号,Ver5.20(2024年1月)の追加建築","prefecture":"福岡","contractor":"","structural_designer":"","landscape_designer":"","shinkenchiku_url":""},{"id":13043,"title":"東京日本橋タワー","architect":"日建設計","year":2015.0,"address":"東京都中央区日本橋2-7","latitude":35.681854248046875,"longitude":139.77427673339844,"category":"複合ビル","big_category":"企業施設","description":"","image_url":"","tags":"新建築2015年5月号,Ver5.20(2024年1月)の追加建築","prefecture":"東京","contractor":"","structural_designer":"","landscape_designer":"","shinkenchiku_url":""},{"id":13044,"title":"品川シーズンテラス","architect":"NTTファシリティーズ+大成建設+NTT都市開発+日本水工設計","year":2015.0,"address":"東京都港区港南1-2-70","latitude":35.63255310058594,"longitude":139.74319458007812,"category":"複合ビル","big_category":"企業施設","description":"","image_url":"","tags":"新建築2015年5月号,Ver5.20(2024年1月)の追加建築","prefecture":"東京","contractor":"","structural_designer":"","landscape_designer":"","shinkenchiku_url":""},{"id":13045,"title":"成田国際空港 第2旅客ターミナル連絡通路","architect":"日建設計+梓設計","year":2013.0,"address":"千葉県成田市古込1-1","latitude":35.77463150024414,"longitude":140.3906707763672,"category":"空港","big_category":"インフラ","description":"","image_url":"","tags":"新建築2015年5月号,Ver5.20(2024年1月)の追加建築","prefecture":"千葉","contractor":"","structural_designer":"","landscape_designer":"","shinkenchiku_url":""},{"id":13046,"title":"清水建設技術研究所 先端地震防災研究棟","architect":"清水建設","year":2015.0,"address":"東京都江東区越中島3-4-17","latitude":35.66250228881836,"longitude":139.7972412109375,"category":"研究施設","big_category":"教育","description":"","image_url":"","tags":"新建築2015年5月号,Ver5.20(2024年1月)の追加建築","prefecture":"東京","contractor":"","structural_designer":"","landscape_designer":"","shinkenchiku_url":""},{"id":13047,"title":"イワタニ水素ステーション 芝公園","architect":"大林組","year":2015.0,"address":"東京都港区芝公園4-6-15","latitude":35.65578842163086,"longitude":139.74537658691406,"category":"店舗","big_category":"商業施設","description":"","image_url":"","tags":"新建築2015年6月号,Ver5.20(2024年1月)の追加建築","prefecture":"東京","contractor":"","structural_designer":"","landscape_designer":"","shinkenchiku_url":""},{"id":13048,"title":"関沢の共同住宅 ENYA","architect":"鈴木淳史","year":2015.0,"address":"埼玉県富士見市関沢3-10-8","latitude":35.838016510009766,"longitude":139.5455780029297,"category":"集合住宅/住宅","big_category":"住宅,住宅","description":"","image_url":"","tags":"新建築2015年8月号,Ver5.20(2024年1月)の追加建築","prefecture":"埼玉","contractor":"","structural_designer":"","landscape_designer":"","shinkenchiku_url":""},{"id":13049,"title":"はなわこども園","architect":"鈴木淳史+岡松利彦","year":2020.0,"address":"福島県東白川郡塙町塙材木町70-10","latitude":36.95973587036133,"longitude":140.41085815429688,"category":"幼稚園","big_category":"教育","description":"","image_url":"","tags":"Ver5.20(2024年1月)の追加建築","prefecture":"福島","contractor":"","structural_designer":"","landscape_designer":"","shinkenchiku_url":""},{"id":13050,"title":"京都タナカ集合住宅 SENTEUR2","architect":"田中昭成","year":2015.0,"address":"京都府京都市左京区田中上玄京町24-3","latitude":35.033599853515625,"longitude":135.77713012695312,"category":"集合住宅","big_category":"住宅","description":"","image_url":"","tags":"新建築2015年8月号,Ver5.20(2024年1月)の追加建築","prefecture":"京都","contractor":"","structural_designer":"","landscape_designer":"","shinkenchiku_url":""}]}