{"page":76,"total_pages":290,"items_per_page":50,"total_items":14467,"items":[{"id":3751,"title":"道の駅 なかせん","architect":"黒川紀章","year":1997.0,"address":"秋田県大仙市長野高畑95-1","latitude":39.53853988647461,"longitude":140.53318786621094,"category":"PA・道の駅","big_category":"インフラ","description":"","image_url":"","tags":"","prefecture":"秋田","contractor":"","structural_designer":"","landscape_designer":"","shinkenchiku_url":""},{"id":3752,"title":"ロートリサーチビレッジ京都 旧バイエル薬品中央研究所","architect":"黒川紀章","year":1994.0,"address":"京都府木津川市州見台6-5-1-3","latitude":34.714473724365234,"longitude":135.8311767578125,"category":"企業施設","big_category":"企業施設","description":"","image_url":"","tags":"","prefecture":"京都","contractor":"","structural_designer":"","landscape_designer":"","shinkenchiku_url":""},{"id":3753,"title":"ルーブル彫刻美術館","architect":"黒川紀章","year":1987.0,"address":"三重県津市白山町佐田1957","latitude":34.67862319946289,"longitude":136.35064697265625,"category":"美術館","big_category":"ミュージアム","description":"","image_url":"","tags":"","prefecture":"三重","contractor":"","structural_designer":"","landscape_designer":"","shinkenchiku_url":""},{"id":3754,"title":"蒲郡市戦没者慰霊平和塔","architect":"黒川紀章","year":1977.0,"address":"愛知県蒲郡市水竹町清水川 中央公園","latitude":34.83835983276367,"longitude":137.22877502441406,"category":"オブジェ","big_category":"ミュージアム","description":"中央公園内","image_url":"","tags":"","prefecture":"愛知","contractor":"","structural_designer":"","landscape_designer":"","shinkenchiku_url":""},{"id":3755,"title":"大津プリンスホテル","architect":"丹下健三","year":1989.0,"address":"滋賀県大津市におの浜4-7-7","latitude":35.0051155090332,"longitude":135.88845825195312,"category":"ホテル","big_category":"宿泊","description":"","image_url":"","tags":"","prefecture":"滋賀","contractor":"","structural_designer":"","landscape_designer":"","shinkenchiku_url":""},{"id":3756,"title":"彦根城博物館","architect":"早川正夫","year":1988.0,"address":"滋賀県彦根市金亀町1-1","latitude":35.275634765625,"longitude":136.25355529785156,"category":"博物館","big_category":"ミュージアム","description":"","image_url":"","tags":"","prefecture":"滋賀","contractor":"","structural_designer":"","landscape_designer":"","shinkenchiku_url":""},{"id":3757,"title":"山口県林業会館","architect":"中村稔","year":1967.0,"address":"山口県山口市駅通り2-4-17","latitude":34.17393112182617,"longitude":131.4794921875,"category":"組合施設","big_category":"公共施設","description":"","image_url":"","tags":"","prefecture":"山口","contractor":"","structural_designer":"","landscape_designer":"","shinkenchiku_url":""},{"id":3758,"title":"Pleats.I","architect":"小川博央","year":2013.0,"address":"埼玉県入間市豊岡4-1-1","latitude":35.834800720214844,"longitude":139.39065551757812,"category":"結婚式場","big_category":"宗教","description":"","image_url":"","tags":"","prefecture":"埼玉","contractor":"","structural_designer":"","landscape_designer":"","shinkenchiku_url":""},{"id":3759,"title":"ホテルムーンビーチ","architect":"国建","year":1972.0,"address":"沖縄県国頭郡恩納村字前兼久1203","latitude":26.45111846923828,"longitude":127.80301666259766,"category":"ホテル","big_category":"宿泊","description":"","image_url":"","tags":"2002年JIA25年賞,DOCOMOMO","prefecture":"沖縄","contractor":"","structural_designer":"","landscape_designer":"","shinkenchiku_url":""},{"id":3760,"title":"那覇市立石嶺中学校","architect":"末吉栄三","year":1988.0,"address":"沖縄県那覇市首里石嶺町2-109","latitude":26.226316452026367,"longitude":127.73117065429688,"category":"学校","big_category":"教育","description":"","image_url":"","tags":"1992年公共建築賞","prefecture":"沖縄","contractor":"","structural_designer":"","landscape_designer":"","shinkenchiku_url":""},{"id":3761,"title":"うるま市立中央図書館","architect":"鬼頭梓","year":1991.0,"address":"沖縄県うるま市平良川128","latitude":26.365144729614258,"longitude":127.84890747070312,"category":"図書館","big_category":"文化施設","description":"","image_url":"","tags":"","prefecture":"沖縄","contractor":"","structural_designer":"","landscape_designer":"","shinkenchiku_url":""},{"id":3762,"title":"那覇市立小禄南小学校・幼稚園","architect":"末吉栄三","year":1992.0,"address":"沖縄県那覇市小禄4-14-1","latitude":26.18971824645996,"longitude":127.67302703857422,"category":"学校","big_category":"教育","description":"","image_url":"","tags":"","prefecture":"沖縄","contractor":"","structural_designer":"","landscape_designer":"","shinkenchiku_url":""},{"id":3763,"title":"那覇市立城東小学校","architect":"末吉栄三","year":2007.0,"address":"沖縄県那覇市首里石嶺町2-74","latitude":26.223026275634766,"longitude":127.73223114013672,"category":"学校","big_category":"教育","description":"","image_url":"","tags":"","prefecture":"沖縄","contractor":"","structural_designer":"","landscape_designer":"","shinkenchiku_url":""},{"id":3764,"title":"武生市体育館","architect":"日新設計","year":1968.0,"address":"福井県越前市高瀬2-8-23","latitude":35.89921188354492,"longitude":136.1556854248047,"category":"体育館","big_category":"レジャー施設","description":"","image_url":"","tags":"","prefecture":"福井","contractor":"","structural_designer":"","landscape_designer":"","shinkenchiku_url":""},{"id":3765,"title":"善導寺","architect":"渡邊洋治","year":1961.0,"address":"新潟県糸魚川市清崎10-3","latitude":37.038387298583984,"longitude":137.8592529296875,"category":"寺院","big_category":"宗教","description":"","image_url":"","tags":"DOCOMOMO","prefecture":"新潟","contractor":"","structural_designer":"","landscape_designer":"","shinkenchiku_url":""},{"id":3766,"title":"九州大学 椎木講堂","architect":"内藤廣","year":2014.0,"address":"福岡県福岡市西区元岡744","latitude":33.59905242919922,"longitude":130.22500610351562,"category":"大学/ホール・劇場","big_category":"教育,文化施設","description":"","image_url":"","tags":"新建築2014年7月号","prefecture":"福岡","contractor":"竹中工務店","structural_designer":"川口衞構造設計事務所","landscape_designer":"","shinkenchiku_url":"https://data.shinkenchiku.online/articles/SK_2014_07_076-0"},{"id":3767,"title":"清水市忠霊塔","architect":"吉田五十八","year":1959.0,"address":"静岡県静岡市清水区迎山町2081-1","latitude":34.97805404663086,"longitude":138.4933624267578,"category":"オブジェ","big_category":"ミュージアム","description":"","image_url":"","tags":"","prefecture":"静岡","contractor":"","structural_designer":"","landscape_designer":"","shinkenchiku_url":""},{"id":3768,"title":"白石市ふれあいプラザ","architect":"竹山聖","year":2003.0,"address":"宮城県白石市本町27","latitude":38.00139617919922,"longitude":140.62217712402344,"category":"公共施設","big_category":"公共施設","description":"","image_url":"","tags":"","prefecture":"宮城","contractor":"","structural_designer":"","landscape_designer":"","shinkenchiku_url":""},{"id":3769,"title":"山鹿市立山鹿小学校","architect":"シーラカンスK&H","year":2013.0,"address":"熊本県山鹿市山鹿351","latitude":33.01343536376953,"longitude":130.69305419921875,"category":"学校","big_category":"教育","description":"","image_url":"","tags":"","prefecture":"熊本","contractor":"","structural_designer":"","landscape_designer":"","shinkenchiku_url":""},{"id":3770,"title":"オガールプラザ","architect":"松永安光+中居敬一都市建築設計","year":2012.0,"address":"岩手県紫波郡紫波町紫波中央駅前2-3-3","latitude":39.55415725708008,"longitude":141.15744018554688,"category":"モール/公民館・交流施設/図書館","big_category":"商業施設,公共施設,文化施設","description":"","image_url":"","tags":"","prefecture":"岩手","contractor":"","structural_designer":"","landscape_designer":"","shinkenchiku_url":""},{"id":3771,"title":"杉並区大宮前体育館","architect":"青木淳","year":2014.0,"address":"東京都杉並区南荻窪2-1-1","latitude":35.696800231933594,"longitude":139.6105499267578,"category":"体育館","big_category":"レジャー施設","description":"","image_url":"","tags":"新建築2014年7月号","prefecture":"東京","contractor":"白石・渡辺・国際建設共同企業体","structural_designer":"金箱構造設計事務所","landscape_designer":"","shinkenchiku_url":"https://data.shinkenchiku.online/articles/SK_2014_07_041-0"},{"id":3772,"title":"ONOMICHI U2","architect":"谷尻誠","year":2014.0,"address":"広島県尾道市西御所町5-11","latitude":34.40192794799805,"longitude":133.18988037109375,"category":"ホテル/レストラン","big_category":"宿泊,商業施設","description":"","image_url":"","tags":"新建築2014年5月号","prefecture":"広島","contractor":"大和建設","structural_designer":"Arup","landscape_designer":"","shinkenchiku_url":"https://data.shinkenchiku.online/articles/SK_2014_05_142-0"},{"id":3773,"title":"ふじのくに千本松フォーラム プラサヴェルデ","architect":"長谷川逸子","year":2014.0,"address":"静岡県沼津市大手町1-1-4","latitude":35.10345458984375,"longitude":138.86097717285156,"category":"展示・会議場/ホテル","big_category":"公共施設,宿泊","description":"","image_url":"","tags":"","prefecture":"静岡","contractor":"","structural_designer":"","landscape_designer":"","shinkenchiku_url":""},{"id":3774,"title":"狭山の森礼拝堂 狭山湖畔霊園 森の教会","architect":"中村拓志","year":2014.0,"address":"埼玉県所沢市大字上山口1966","latitude":35.77119827270508,"longitude":139.42349243164062,"category":"宗教施設/教会/霊園","big_category":"宗教,宗教,宗教","description":"","image_url":"","tags":"2014年度JIA優秀建築賞,新建築2014年7月号","prefecture":"埼玉","contractor":"清水建設","structural_designer":"Arup","landscape_designer":"","shinkenchiku_url":"https://data.shinkenchiku.online/articles/SK_2014_07_102-0"},{"id":3775,"title":"森の空中基地 くすくす","architect":"中村拓志","year":2014.0,"address":"静岡県熱海市水口町2-13-1","latitude":35.09086990356445,"longitude":139.06341552734375,"category":"ホテル","big_category":"宿泊","description":"リゾナーレ熱海内","image_url":"","tags":"","prefecture":"静岡","contractor":"","structural_designer":"","landscape_designer":"","shinkenchiku_url":""},{"id":3776,"title":"札幌市立大学 芸術の森キャンパス 旧札幌市立高等専門学校","architect":"清家清+石本建築事務所","year":1995.0,"address":"北海道札幌市南区芸術の森1-","latitude":42.944637298583984,"longitude":141.34071350097656,"category":"大学","big_category":"教育","description":"","image_url":"","tags":"","prefecture":"北海道","contractor":"","structural_designer":"","landscape_designer":"","shinkenchiku_url":""},{"id":3777,"title":"伊豆・三津シーパラダイス","architect":"清家清","year":1977.0,"address":"静岡県沼津市内浦長浜3-1","latitude":35.01948165893555,"longitude":138.89596557617188,"category":"水族館","big_category":"レジャー施設","description":"","image_url":"","tags":"","prefecture":"静岡","contractor":"","structural_designer":"","landscape_designer":"","shinkenchiku_url":""},{"id":3778,"title":"横浜・八景島シーパラダイス","architect":"清家清","year":1993.0,"address":"神奈川県横浜市金沢区八景島","latitude":35.3360595703125,"longitude":139.6446075439453,"category":"水族館","big_category":"レジャー施設","description":"","image_url":"","tags":"","prefecture":"神奈川","contractor":"","structural_designer":"","landscape_designer":"","shinkenchiku_url":""},{"id":3779,"title":"新富良野プリンスホテル","architect":"清家清","year":1988.0,"address":"北海道富良野市中御料 ‎新富良野プリンスホテル","latitude":43.32326889038086,"longitude":142.35482788085938,"category":"ホテル","big_category":"宿泊","description":"","image_url":"","tags":"","prefecture":"北海道","contractor":"","structural_designer":"","landscape_designer":"","shinkenchiku_url":""},{"id":3780,"title":"水上高原ホテル200 旧水上高原プリンス","architect":"清家清","year":1984.0,"address":"群馬県利根郡みなかみ町藤原6152-1","latitude":36.85527420043945,"longitude":139.076171875,"category":"ホテル","big_category":"宿泊","description":"","image_url":"","tags":"","prefecture":"群馬","contractor":"","structural_designer":"","landscape_designer":"","shinkenchiku_url":""},{"id":3781,"title":"野尻湖ホテル エルボスコ 旧野尻湖プリンス","architect":"清家清","year":1983.0,"address":"長野県上水内郡信濃町古海4847","latitude":36.834228515625,"longitude":138.23416137695312,"category":"ホテル","big_category":"宿泊","description":"","image_url":"","tags":"","prefecture":"長野","contractor":"","structural_designer":"","landscape_designer":"","shinkenchiku_url":""},{"id":3782,"title":"横須賀芸術劇場","architect":"丹下健三","year":1993.0,"address":"神奈川県横須賀市本町3-27","latitude":35.280948638916016,"longitude":139.662353515625,"category":"ホール・劇場","big_category":"文化施設","description":"","image_url":"","tags":"","prefecture":"神奈川","contractor":"","structural_designer":"","landscape_designer":"","shinkenchiku_url":""},{"id":3783,"title":"南アルプス芦安山岳館","architect":"丹下健三","year":2003.0,"address":"山梨県南アルプス市芦安芦倉1570","latitude":35.63315200805664,"longitude":138.3614501953125,"category":"博物館","big_category":"ミュージアム","description":"","image_url":"","tags":"","prefecture":"山梨","contractor":"","structural_designer":"","landscape_designer":"","shinkenchiku_url":""},{"id":3784,"title":"君津市民文化ホール","architect":"丹下健三","year":1990.0,"address":"千葉県君津市三直622","latitude":35.3177375793457,"longitude":139.93431091308594,"category":"ホール・劇場","big_category":"文化施設","description":"","image_url":"","tags":"","prefecture":"千葉","contractor":"","structural_designer":"","landscape_designer":"","shinkenchiku_url":""},{"id":3785,"title":"国際連合大学","architect":"丹下健三","year":1992.0,"address":"東京都渋谷区神宮前5-53-70","latitude":35.66238021850586,"longitude":139.70831298828125,"category":"大学","big_category":"教育","description":"","image_url":"","tags":"","prefecture":"東京","contractor":"","structural_designer":"","landscape_designer":"","shinkenchiku_url":""},{"id":3786,"title":"WHO神戸センター","architect":"丹下健三","year":1998.0,"address":"兵庫県神戸市中央区脇浜海岸通1-5-1","latitude":34.69901657104492,"longitude":135.21664428710938,"category":"オフィスビル","big_category":"企業施設","description":"","image_url":"","tags":"","prefecture":"兵庫","contractor":"","structural_designer":"","landscape_designer":"","shinkenchiku_url":""},{"id":3787,"title":"広島国際会議場","architect":"丹下健三","year":1989.0,"address":"広島県広島市中区中島町1-5","latitude":34.39208984375,"longitude":132.45098876953125,"category":"展示・会議場","big_category":"公共施設","description":"","image_url":"","tags":"","prefecture":"広島","contractor":"","structural_designer":"","landscape_designer":"","shinkenchiku_url":""},{"id":3788,"title":"草月会館","architect":"丹下健三","year":1977.0,"address":"東京都港区赤坂7-2-21","latitude":35.674156188964844,"longitude":139.72930908203125,"category":"ホール・劇場/オフィスビル/組合施設","big_category":"文化施設,企業施設,公共施設","description":"","image_url":"","tags":"2008年JIA25年賞","prefecture":"東京","contractor":"","structural_designer":"","landscape_designer":"","shinkenchiku_url":""},{"id":3789,"title":"駐日クウェート大使館","architect":"丹下健三","year":1970.0,"address":"東京都港区三田4-13-12","latitude":35.6453857421875,"longitude":139.74154663085938,"category":"公共施設","big_category":"公共施設","description":"解体予定とのことだったが中止された？","image_url":"","tags":"","prefecture":"東京","contractor":"","structural_designer":"","landscape_designer":"","shinkenchiku_url":""},{"id":3790,"title":"kotoriku","architect":"平田晃久","year":2014.0,"address":"東京都目黒区洗足 2-1-1","latitude":35.61237716674805,"longitude":139.6955108642578,"category":"集合住宅","big_category":"住宅","description":"","image_url":"","tags":"新建築2014年8月号","prefecture":"東京","contractor":"辰","structural_designer":"tmsd萬田隆構造設計事務所","landscape_designer":"","shinkenchiku_url":"https://data.shinkenchiku.online/articles/SK_2014_08_150-0"},{"id":3791,"title":"花畑団地27号棟","architect":"藤田雄介","year":2014.0,"address":"東京都足立区花畑5-10-28","latitude":35.8074951171875,"longitude":139.80792236328125,"category":"集合住宅","big_category":"住宅","description":"","image_url":"","tags":"","prefecture":"東京","contractor":"","structural_designer":"","landscape_designer":"","shinkenchiku_url":""},{"id":3792,"title":"智積院会館","architect":"増田友也","year":1966.0,"address":"京都府京都市東山区東瓦町964","latitude":34.98735427856445,"longitude":135.7764129638672,"category":"寺院/ホテル","big_category":"宗教,宿泊","description":"","image_url":"","tags":"","prefecture":"京都","contractor":"","structural_designer":"","landscape_designer":"","shinkenchiku_url":""},{"id":3793,"title":"京都国立博物館 平成知新館","architect":"谷口吉生","year":2014.0,"address":"京都府京都市東山区茶屋町527","latitude":34.990577697753906,"longitude":135.77256774902344,"category":"博物館","big_category":"ミュージアム","description":"2014年9月オープン予定","image_url":"","tags":"2018年公共建築賞,新建築2014年12月号","prefecture":"京都","contractor":"戸田建設","structural_designer":"構造計画研究所","landscape_designer":"","shinkenchiku_url":"https://data.shinkenchiku.online/articles/SK_2014_12_040-0"},{"id":3794,"title":"上信電鉄 上州富岡駅","architect":"TNA","year":2014.0,"address":"群馬県富岡市富岡1599-3 ‎","latitude":36.26033020019531,"longitude":138.89224243164062,"category":"駅","big_category":"インフラ","description":"","image_url":"","tags":"2015年日本建築学会 作品賞,新建築2014年5月号","prefecture":"群馬","contractor":"佐藤産業","structural_designer":"小西泰孝建築構造設計","landscape_designer":"","shinkenchiku_url":"https://data.shinkenchiku.online/articles/SK_2014_05_040-0"},{"id":3795,"title":"鎮守の森「もうもう工房」レストラン","architect":"吉柳満","year":1998.0,"address":"岡山県美作市豊国原182","latitude":35.02354431152344,"longitude":134.1618194580078,"category":"レストラン","big_category":"商業施設","description":"","image_url":"","tags":"","prefecture":"岡山","contractor":"","structural_designer":"","landscape_designer":"","shinkenchiku_url":""},{"id":3796,"title":"金沢美術工芸大学 柳宗理記念デザイン研究所","architect":"不明","year":2014.0,"address":"石川県金沢市尾張町2-12-1","latitude":36.57122039794922,"longitude":136.6629180908203,"category":"博物館","big_category":"ミュージアム","description":"","image_url":"","tags":"","prefecture":"石川","contractor":"","structural_designer":"","landscape_designer":"","shinkenchiku_url":""},{"id":3797,"title":"eコラボ つるがしま","architect":"藤村龍至+シーラカンスK&H","year":2014.0,"address":"埼玉県鶴ヶ島市鶴ヶ丘331-1","latitude":35.93510055541992,"longitude":139.41416931152344,"category":"博物館","big_category":"ミュージアム","description":"要電話予約","image_url":"","tags":"新建築2014年4月号","prefecture":"埼玉","contractor":"栁川工務店","structural_designer":"佐藤淳構造設計事務所","landscape_designer":"","shinkenchiku_url":"https://data.shinkenchiku.online/articles/SK_2014_04_146-0"},{"id":3798,"title":"わらべ館 旧鳥取県立図書館","architect":"置塩章+山本浩三","year":1930.0,"address":"鳥取県鳥取市西町3-202","latitude":35.504276275634766,"longitude":134.2334442138672,"category":"博物館","big_category":"ミュージアム","description":"1995年改修・復元","image_url":"","tags":"新建築1995年8月号","prefecture":"鳥取","contractor":"","structural_designer":"","landscape_designer":"","shinkenchiku_url":""},{"id":3799,"title":"雲仙観光ホテル","architect":"竹中工務店","year":1935.0,"address":"長崎県雲仙市小浜町雲仙320","latitude":32.74156951904297,"longitude":130.26165771484375,"category":"ホテル","big_category":"宿泊","description":"","image_url":"","tags":"登録有形文化財","prefecture":"長崎","contractor":"","structural_designer":"","landscape_designer":"","shinkenchiku_url":""},{"id":3800,"title":"古江中央霊園","architect":"坂倉建築研究所","year":2008.0,"address":"広島県広島市西区田方1-551-3","latitude":34.38441848754883,"longitude":132.40228271484375,"category":"霊園","big_category":"宗教","description":"","image_url":"","tags":"","prefecture":"広島","contractor":"","structural_designer":"","landscape_designer":"","shinkenchiku_url":""}]}