{"page":88,"total_pages":290,"items_per_page":50,"total_items":14467,"items":[{"id":4351,"title":"マルヤガーデンズ","architect":"光吉健次+みかんぐみ","year":1960.0,"address":"鹿児島県鹿児島市呉服町6-5","latitude":31.59092140197754,"longitude":130.55703735351562,"category":"店舗/テナントビル","big_category":"商業施設,商業施設","description":"2010年にみかんぐみにより改修","image_url":"","tags":"","prefecture":"鹿児島","contractor":"","structural_designer":"","landscape_designer":"","shinkenchiku_url":""},{"id":4352,"title":"SHIBUYA-AX","architect":"みかんぐみ","year":2000.0,"address":"東京都渋谷区神南2-2-1-1","latitude":35.66608428955078,"longitude":139.69998168945312,"category":"ホール・劇場","big_category":"文化施設","description":"2014/5/31をもって営業終了","image_url":"","tags":"","prefecture":"東京","contractor":"","structural_designer":"","landscape_designer":"","shinkenchiku_url":""},{"id":4353,"title":"若竹寮","architect":"みかんぐみ","year":2013.0,"address":"新潟県上越市御殿山町14-45","latitude":37.117549896240234,"longitude":138.22779846191406,"category":"児童施設/養護施設","big_category":"教育,医療施設","description":"","image_url":"","tags":"","prefecture":"新潟","contractor":"","structural_designer":"","landscape_designer":"","shinkenchiku_url":""},{"id":4354,"title":"横浜市立あかね台中学校","architect":"みかんぐみ","year":2011.0,"address":"神奈川県横浜市青葉区あかね台2-8-2","latitude":35.5411491394043,"longitude":139.48487854003906,"category":"学校","big_category":"教育","description":"","image_url":"","tags":"","prefecture":"神奈川","contractor":"","structural_designer":"","landscape_designer":"","shinkenchiku_url":""},{"id":4355,"title":"東京大学 柏キャンパス 生命棟","architect":"伊東豊雄+みかんぐみ","year":2001.0,"address":"千葉県柏市柏の葉5-1-5","latitude":35.900814056396484,"longitude":139.9346466064453,"category":"大学","big_category":"教育","description":"","image_url":"","tags":"","prefecture":"千葉","contractor":"","structural_designer":"","landscape_designer":"","shinkenchiku_url":""},{"id":4356,"title":"特別養護老人ホーム 紅梅荘","architect":"みかんぐみ","year":2012.0,"address":"山形県最上郡最上町向町683","latitude":38.759857177734375,"longitude":140.5172119140625,"category":"養護施設","big_category":"医療施設","description":"","image_url":"","tags":"","prefecture":"山形","contractor":"","structural_designer":"","landscape_designer":"","shinkenchiku_url":""},{"id":4357,"title":"札幌の保育園 さっぽろ夢保育園","architect":"みかんぐみ","year":2009.0,"address":"北海道札幌市東区北36条東17-1-30","latitude":43.10692596435547,"longitude":141.37161254882812,"category":"幼稚園","big_category":"教育","description":"","image_url":"","tags":"","prefecture":"北海道","contractor":"","structural_designer":"","landscape_designer":"","shinkenchiku_url":""},{"id":4358,"title":"横浜の保育園 ゆめいろ保育園","architect":"みかんぐみ","year":2006.0,"address":"神奈川県横浜市鶴見区矢向3-11-48","latitude":35.53628158569336,"longitude":139.6768798828125,"category":"幼稚園","big_category":"教育","description":"","image_url":"","tags":"","prefecture":"神奈川","contractor":"","structural_designer":"","landscape_designer":"","shinkenchiku_url":""},{"id":4359,"title":"マーチエキュート神田万世橋","architect":"みかんぐみ+ジェイアール東日本建築設計事務所+永山祐子","year":2013.0,"address":"東京都千代田区神田須田町1-25-4","latitude":35.69697570800781,"longitude":139.77005004882812,"category":"橋/モール/ギャラリー","big_category":"インフラ,商業施設,ミュージアム","description":"Art Columnの空間設計は永山祐子","image_url":"","tags":"","prefecture":"東京","contractor":"","structural_designer":"","landscape_designer":"","shinkenchiku_url":""},{"id":4360,"title":"季節魚料理 お好み鉄板焼き 梓","architect":"みかんぐみ","year":2014.0,"address":"神奈川県横浜市戸塚区戸塚町4000","latitude":35.39876174926758,"longitude":139.5316619873047,"category":"レストラン","big_category":"商業施設","description":"","image_url":"","tags":"","prefecture":"神奈川","contractor":"","structural_designer":"","landscape_designer":"","shinkenchiku_url":""},{"id":4361,"title":"京王フローラルガーデン Ange","architect":"みかんぐみ","year":2000.0,"address":"東京都調布市多摩川4-38","latitude":35.64513397216797,"longitude":139.53590393066406,"category":"公園","big_category":"レジャー施設","description":"","image_url":"","tags":"","prefecture":"東京","contractor":"","structural_designer":"","landscape_designer":"","shinkenchiku_url":""},{"id":4362,"title":"佐久島弘法プロジェクト","architect":"みかんぐみ","year":2010.0,"address":"愛知県西尾市一色町佐久島","latitude":34.722225189208984,"longitude":137.04820251464844,"category":"オブジェ","big_category":"ミュージアム","description":"","image_url":"","tags":"","prefecture":"愛知","contractor":"","structural_designer":"","landscape_designer":"","shinkenchiku_url":""},{"id":4363,"title":"バンカート スタジオNYK","architect":"みかんぐみ","year":2008.0,"address":"神奈川県横浜市中区海岸通3-9 BankART Studio NYK","latitude":35.450103759765625,"longitude":139.63990783691406,"category":"ギャラリー","big_category":"ミュージアム","description":"","image_url":"","tags":"","prefecture":"神奈川","contractor":"","structural_designer":"","landscape_designer":"","shinkenchiku_url":""},{"id":4364,"title":"黄金町高架下新スタジオ Site-A","architect":"柳澤潤","year":2011.0,"address":"神奈川県横浜市中区黄金町1- 黄金町芸術センターＳｉｔｅ―Ａギャラリー","latitude":35.44153594970703,"longitude":139.62539672851562,"category":"ギャラリー","big_category":"ミュージアム","description":"","image_url":"","tags":"","prefecture":"神奈川","contractor":"","structural_designer":"","landscape_designer":"","shinkenchiku_url":""},{"id":4365,"title":"仏生山まちぐるみ旅館 縁側の客室","architect":"岡昇平","year":2007.0,"address":"香川県高松市仏生山町甲2489-1","latitude":34.27627182006836,"longitude":134.04847717285156,"category":"旅館/住宅","big_category":"宿泊,住宅","description":"元個人住宅。一棟貸しの旅館、温泉施設。","image_url":"","tags":"","prefecture":"香川","contractor":"","structural_designer":"","landscape_designer":"","shinkenchiku_url":""},{"id":4366,"title":"高屋敷農村公園","architect":"吉阪隆正","year":1978.0,"address":"青森県八戸市市川町高森131","latitude":40.587894439697266,"longitude":141.43687438964844,"category":"公園/オブジェ","big_category":"レジャー施設,ミュージアム","description":"","image_url":"","tags":"","prefecture":"青森","contractor":"","structural_designer":"","landscape_designer":"","shinkenchiku_url":""},{"id":4367,"title":"梅原龍三郎アトリエ","architect":"吉田五十八","year":1952.0,"address":"山梨県北杜市長坂町中丸2072","latitude":35.82268142700195,"longitude":138.35272216796875,"category":"和風住宅/ギャラリー","big_category":"住宅,ミュージアム","description":"清春芸術村に移築","image_url":"","tags":"","prefecture":"山梨","contractor":"","structural_designer":"","landscape_designer":"","shinkenchiku_url":""},{"id":4368,"title":"諏訪市文化センター 旧北沢文化会館","architect":"吉田五十八","year":1962.0,"address":"長野県諏訪市湖岸通り5-12-18","latitude":36.044677734375,"longitude":138.11126708984375,"category":"ホール・劇場","big_category":"文化施設","description":"","image_url":"","tags":"登録有形文化財","prefecture":"長野","contractor":"","structural_designer":"","landscape_designer":"","shinkenchiku_url":""},{"id":4369,"title":"成田山新勝寺 本堂","architect":"吉田五十八","year":1968.0,"address":"千葉県成田市成田1","latitude":35.785221099853516,"longitude":140.31748962402344,"category":"寺院","big_category":"宗教","description":"","image_url":"","tags":"","prefecture":"千葉","contractor":"","structural_designer":"","landscape_designer":"","shinkenchiku_url":""},{"id":4370,"title":"中宮寺 本堂","architect":"吉田五十八","year":1968.0,"address":"奈良県生駒郡斑鳩町法隆寺北1-1-2","latitude":34.614967346191406,"longitude":135.7395782470703,"category":"寺院","big_category":"宗教","description":"","image_url":"","tags":"","prefecture":"奈良","contractor":"","structural_designer":"","landscape_designer":"","shinkenchiku_url":""},{"id":4371,"title":"外務省外交史料館","architect":"吉田五十八","year":1972.0,"address":"東京都港区麻布台1-5-3","latitude":35.661102294921875,"longitude":139.7395782470703,"category":"博物館/研究施設","big_category":"ミュージアム,教育","description":"","image_url":"","tags":"","prefecture":"東京","contractor":"","structural_designer":"","landscape_designer":"","shinkenchiku_url":""},{"id":4372,"title":"駒澤大学 深沢キャンパス洋館 旧三越シルバーハウス","architect":"吉田五十八","year":1972.0,"address":"東京都世田谷区深沢6-8-18","latitude":35.62508773803711,"longitude":139.65469360351562,"category":"大学","big_category":"教育","description":"","image_url":"","tags":"","prefecture":"東京","contractor":"","structural_designer":"","landscape_designer":"","shinkenchiku_url":""},{"id":4373,"title":"外務省飯倉公館","architect":"吉田五十八","year":1972.0,"address":"東京都港区麻布台1-5-3","latitude":35.661319732666016,"longitude":139.73924255371094,"category":"住宅/公共施設","big_category":"住宅,公共施設","description":"","image_url":"","tags":"","prefecture":"東京","contractor":"","structural_designer":"","landscape_designer":"","shinkenchiku_url":""},{"id":4374,"title":"知る区ロード休憩所 みみのオアシス","architect":"六角鬼丈","year":1991.0,"address":"東京都杉並区宮前2-12","latitude":35.69391632080078,"longitude":139.6116180419922,"category":"公園/オブジェ","big_category":"レジャー施設,ミュージアム","description":"","image_url":"","tags":"","prefecture":"東京","contractor":"","structural_designer":"","landscape_designer":"","shinkenchiku_url":""},{"id":4375,"title":"知る区ロード休憩所 ときのオアシス","architect":"六角鬼丈","year":1992.0,"address":"東京都杉並区天沼3-31","latitude":35.70744705200195,"longitude":139.6220703125,"category":"公園/オブジェ","big_category":"レジャー施設,ミュージアム","description":"","image_url":"","tags":"","prefecture":"東京","contractor":"","structural_designer":"","landscape_designer":"","shinkenchiku_url":""},{"id":4376,"title":"知る区ロード休憩所 はだしのオアシス","architect":"六角鬼丈","year":1993.0,"address":"東京都杉並区善福寺2-18","latitude":35.712310791015625,"longitude":139.59402465820312,"category":"公園/オブジェ","big_category":"レジャー施設,ミュージアム","description":"","image_url":"","tags":"","prefecture":"東京","contractor":"","structural_designer":"","landscape_designer":"","shinkenchiku_url":""},{"id":4377,"title":"知る区ロード休憩所 はなのオアシス","architect":"六角鬼丈","year":1993.0,"address":"東京都杉並区阿佐谷北2-18","latitude":35.70610809326172,"longitude":139.6336669921875,"category":"公園/オブジェ","big_category":"レジャー施設,ミュージアム","description":"","image_url":"","tags":"","prefecture":"東京","contractor":"","structural_designer":"","landscape_designer":"","shinkenchiku_url":""},{"id":4378,"title":"東京武道館","architect":"六角鬼丈","year":1990.0,"address":"東京都足立区綾瀬3-20-1","latitude":35.765865325927734,"longitude":139.82566833496094,"category":"体育館","big_category":"レジャー施設","description":"","image_url":"","tags":"1991年日本建築学会 作品賞","prefecture":"東京","contractor":"","structural_designer":"","landscape_designer":"","shinkenchiku_url":""},{"id":4379,"title":"雑創の森学園 そよかぜ幼稚園","architect":"六角鬼丈","year":1977.0,"address":"京都府京田辺市大住虚空蔵谷55","latitude":34.82661437988281,"longitude":135.73641967773438,"category":"幼稚園","big_category":"教育","description":"","image_url":"","tags":"1979年吉田五十八賞","prefecture":"京都","contractor":"","structural_designer":"","landscape_designer":"","shinkenchiku_url":""},{"id":4380,"title":"ちとせ保育園","architect":"六角鬼丈","year":2000.0,"address":"岡山県岡山市東区益野町40","latitude":34.660194396972656,"longitude":133.9991912841797,"category":"幼稚園","big_category":"教育","description":"","image_url":"","tags":"","prefecture":"岡山","contractor":"","structural_designer":"","landscape_designer":"","shinkenchiku_url":""},{"id":4381,"title":"カナダ保育園","architect":"六角鬼丈","year":2003.0,"address":"岡山県岡山市東区金田1127-1","latitude":34.63082504272461,"longitude":134.0203399658203,"category":"幼稚園","big_category":"教育","description":"","image_url":"","tags":"","prefecture":"岡山","contractor":"","structural_designer":"","landscape_designer":"","shinkenchiku_url":""},{"id":4382,"title":"アクアパーク","architect":"六角鬼丈","year":2002.0,"address":"埼玉県吉川市大字中井90","latitude":35.889827728271484,"longitude":139.8636016845703,"category":"公園","big_category":"レジャー施設","description":"","image_url":"","tags":"","prefecture":"埼玉","contractor":"","structural_designer":"","landscape_designer":"","shinkenchiku_url":""},{"id":4383,"title":"国立国会図書館 新館","architect":"前川國男","year":1986.0,"address":"東京都千代田区永田町1-10-1","latitude":35.679229736328125,"longitude":139.74415588378906,"category":"図書館","big_category":"文化施設","description":"","image_url":"","tags":"","prefecture":"東京","contractor":"","structural_designer":"","landscape_designer":"","shinkenchiku_url":""},{"id":4384,"title":"東京大学 山上会館","architect":"前川國男","year":1986.0,"address":"東京都文京区本郷7-3-1","latitude":35.7120246887207,"longitude":139.76271057128906,"category":"大学/ホール・劇場","big_category":"教育,文化施設","description":"","image_url":"","tags":"","prefecture":"東京","contractor":"","structural_designer":"","landscape_designer":"","shinkenchiku_url":""},{"id":4385,"title":"横浜市中区役所","architect":"前川國男","year":1983.0,"address":"神奈川県横浜市中区日本大通35","latitude":35.44474792480469,"longitude":139.6422119140625,"category":"庁舎","big_category":"公共施設","description":"","image_url":"","tags":"","prefecture":"神奈川","contractor":"","structural_designer":"","landscape_designer":"","shinkenchiku_url":""},{"id":4386,"title":"国立音楽大学 講堂","architect":"前川國男","year":1983.0,"address":"東京都立川市柏町5-5-1","latitude":35.7322998046875,"longitude":139.4114227294922,"category":"大学/ホール・劇場","big_category":"教育,文化施設","description":"","image_url":"","tags":"","prefecture":"東京","contractor":"","structural_designer":"","landscape_designer":"","shinkenchiku_url":""},{"id":4387,"title":"国際基督教大学博物館 湯浅八郎記念館","architect":"前川國男","year":1982.0,"address":"東京都三鷹市大沢3-10-2","latitude":35.688690185546875,"longitude":139.53106689453125,"category":"博物館/大学","big_category":"ミュージアム,教育","description":"","image_url":"","tags":"","prefecture":"東京","contractor":"","structural_designer":"","landscape_designer":"","shinkenchiku_url":""},{"id":4388,"title":"白河市歴史民俗資料館","architect":"前川國男","year":1979.0,"address":"福島県白河市中田7-1","latitude":37.12059020996094,"longitude":140.22853088378906,"category":"博物館","big_category":"ミュージアム","description":"","image_url":"","tags":"","prefecture":"福島","contractor":"","structural_designer":"","landscape_designer":"","shinkenchiku_url":""},{"id":4389,"title":"国立西洋美術館 新館","architect":"前川國男","year":1979.0,"address":"東京都台東区上野公園7-7","latitude":35.71571350097656,"longitude":139.7760467529297,"category":"美術館","big_category":"ミュージアム","description":"","image_url":"","tags":"","prefecture":"東京","contractor":"","structural_designer":"","landscape_designer":"","shinkenchiku_url":""},{"id":4390,"title":"藤枝市立図書館 岡出山図書館","architect":"前川國男","year":1979.0,"address":"静岡県藤枝市藤枝5-19-1","latitude":34.869873046875,"longitude":138.2579345703125,"category":"図書館","big_category":"文化施設","description":"","image_url":"","tags":"","prefecture":"静岡","contractor":"","structural_designer":"","landscape_designer":"","shinkenchiku_url":""},{"id":4391,"title":"白河市文化センター","architect":"前川國男","year":1977.0,"address":"福島県白河市中田町140","latitude":37.12111282348633,"longitude":140.2286834716797,"category":"ホール・劇場","big_category":"文化施設","description":"","image_url":"","tags":"","prefecture":"福島","contractor":"","structural_designer":"","landscape_designer":"","shinkenchiku_url":""},{"id":4392,"title":"世田谷区郷土資料館 旧館","architect":"前川國男","year":1964.0,"address":"東京都世田谷区世田谷1-29-18","latitude":35.64142990112305,"longitude":139.64723205566406,"category":"博物館","big_category":"ミュージアム","description":"","image_url":"","tags":"","prefecture":"東京","contractor":"","structural_designer":"","landscape_designer":"","shinkenchiku_url":""},{"id":4393,"title":"国立国会図書館 本館","architect":"前川國男","year":1961.0,"address":"東京都千代田区永田町1-10-1","latitude":35.67842483520508,"longitude":139.74423217773438,"category":"図書館","big_category":"文化施設","description":"","image_url":"","tags":"","prefecture":"東京","contractor":"","structural_designer":"","landscape_designer":"","shinkenchiku_url":""},{"id":4394,"title":"NHK富士見ヶ丘クラブハウス","architect":"前川國男","year":1954.0,"address":"東京都杉並区久我山2-2-1","latitude":35.68142318725586,"longitude":139.60552978515625,"category":"クラブハウス/レストラン/ホール・劇場","big_category":"レジャー施設,商業施設,文化施設","description":"2016年解体","image_url":"","tags":"","prefecture":"東京","contractor":"","structural_designer":"","landscape_designer":"","shinkenchiku_url":""},{"id":4395,"title":"青森県立弘前中央高等学校 講堂","architect":"前川國男","year":1954.0,"address":"青森県弘前市蔵主町7-1","latitude":40.60933303833008,"longitude":140.46908569335938,"category":"学校/ホール・劇場","big_category":"教育,文化施設","description":"","image_url":"","tags":"DOCOMOMO","prefecture":"青森","contractor":"","structural_designer":"","landscape_designer":"","shinkenchiku_url":""},{"id":4396,"title":"学習院女子大学 図書館","architect":"前川國男","year":1982.0,"address":"東京都新宿区戸山3-20-1","latitude":35.707523345947266,"longitude":139.71177673339844,"category":"大学/図書館","big_category":"教育,文化施設","description":"","image_url":"","tags":"","prefecture":"東京","contractor":"","structural_designer":"","landscape_designer":"","shinkenchiku_url":""},{"id":4397,"title":"UR都市機構 技術研究所","architect":"不明","year":null,"address":"東京都八王子市石川町2683-3","latitude":35.67473220825195,"longitude":139.36492919921875,"category":"研究施設","big_category":"教育","description":"要予約、または特別一般公開日有り。集合住宅歴史館には前川國男設計の晴海高層アパートの一室などが展示されている","image_url":"","tags":"","prefecture":"東京","contractor":"","structural_designer":"","landscape_designer":"","shinkenchiku_url":""},{"id":4398,"title":"札幌北広島クラッセホテル 旧札幌北広島プリンスホテル","architect":"渡辺明","year":1991.0,"address":"北海道北広島市中の沢316-1","latitude":42.97226333618164,"longitude":141.5283203125,"category":"ホテル","big_category":"宿泊","description":"","image_url":"","tags":"","prefecture":"北海道","contractor":"","structural_designer":"","landscape_designer":"","shinkenchiku_url":""},{"id":4399,"title":"豊岡市立八条小学校 体育館／豊岡市八条地区公民館","architect":"渡辺豊和","year":1989.0,"address":"兵庫県豊岡市九日市下町402","latitude":35.52928161621094,"longitude":134.82363891601562,"category":"公民館・交流施設/体育館/学校","big_category":"公共施設,レジャー施設,教育","description":"","image_url":"","tags":"","prefecture":"兵庫","contractor":"","structural_designer":"","landscape_designer":"","shinkenchiku_url":""},{"id":4400,"title":"岩手県営体育館","architect":"小林美夫","year":1967.0,"address":"岩手県盛岡市青山2-4-1","latitude":39.72479248046875,"longitude":141.1153106689453,"category":"体育館","big_category":"レジャー施設","description":"","image_url":"","tags":"DOCOMOMO","prefecture":"岩手","contractor":"","structural_designer":"","landscape_designer":"","shinkenchiku_url":""}]}