{"page":108,"total_pages":290,"items_per_page":50,"total_items":14467,"items":[{"id":5351,"title":"ホテルルビノ京都堀川","architect":"村野藤吾","year":1972.0,"address":"京都府京都市上京区三町目（東堀川通）7","latitude":35.021827697753906,"longitude":135.75262451171875,"category":"ホテル","big_category":"宿泊","description":"2023年3月で閉館予定","image_url":"","tags":"","prefecture":"京都","contractor":"","structural_designer":"","landscape_designer":"","shinkenchiku_url":""},{"id":5352,"title":"大阪府中河内府民センター","architect":"村野藤吾","year":1973.0,"address":"大阪府八尾市荘内町2-1-36","latitude":34.62610626220703,"longitude":135.60894775390625,"category":"公共施設","big_category":"公共施設","description":"","image_url":"","tags":"","prefecture":"大阪","contractor":"","structural_designer":"","landscape_designer":"","shinkenchiku_url":""},{"id":5353,"title":"高栄茅場町ビル","architect":"村野藤吾","year":1975.0,"address":"東京都中央区日本橋茅場町2-12-7","latitude":35.67853927612305,"longitude":139.7796173095703,"category":"オフィスビル","big_category":"企業施設","description":"","image_url":"","tags":"","prefecture":"東京","contractor":"","structural_designer":"","landscape_designer":"","shinkenchiku_url":""},{"id":5354,"title":"麹町ダイビル 旧大阪ビルヂング","architect":"村野藤吾","year":1976.0,"address":"東京都千代田区麹町5-7-1","latitude":35.68301773071289,"longitude":139.73402404785156,"category":"オフィスビル","big_category":"企業施設","description":"","image_url":"","tags":"","prefecture":"東京","contractor":"","structural_designer":"","landscape_designer":"","shinkenchiku_url":""},{"id":5355,"title":"UR都市機構壬生坊城アパート 旧壬生市街地住宅","architect":"村野藤吾","year":1976.0,"address":"京都府京都市中京区壬生坊城町48-3","latitude":35.00595474243164,"longitude":135.7454376220703,"category":"集合住宅","big_category":"住宅","description":"","image_url":"","tags":"","prefecture":"京都","contractor":"","structural_designer":"","landscape_designer":"","shinkenchiku_url":""},{"id":5356,"title":"黒田電気 名古屋支社","architect":"村野藤吾","year":1981.0,"address":"愛知県名古屋市瑞穂区洲山町3-42-2","latitude":35.1185417175293,"longitude":136.93910217285156,"category":"オフィスビル","big_category":"企業施設","description":"","image_url":"","tags":"","prefecture":"愛知","contractor":"","structural_designer":"","landscape_designer":"","shinkenchiku_url":""},{"id":5357,"title":"グランドプリンスホテル新高輪","architect":"村野藤吾","year":1982.0,"address":"東京都港区高輪3-13-1","latitude":35.62990951538086,"longitude":139.73348999023438,"category":"ホテル","big_category":"宿泊","description":"","image_url":"","tags":"","prefecture":"東京","contractor":"","structural_designer":"","landscape_designer":"","shinkenchiku_url":""},{"id":5358,"title":"内幸町ダイビル","architect":"村野藤吾","year":1983.0,"address":"東京都千代田区内幸町1-3-3","latitude":35.66937255859375,"longitude":139.7569122314453,"category":"オフィスビル","big_category":"企業施設","description":"","image_url":"","tags":"","prefecture":"東京","contractor":"","structural_designer":"","landscape_designer":"","shinkenchiku_url":""},{"id":5359,"title":"スターツ笠間ゴルフ倶楽部 クラブハウス","architect":"村野藤吾","year":1985.0,"address":"茨城県笠間市池野辺2340-1","latitude":36.41176986694336,"longitude":140.32496643066406,"category":"クラブハウス","big_category":"レジャー施設","description":"","image_url":"","tags":"","prefecture":"茨城","contractor":"","structural_designer":"","landscape_designer":"","shinkenchiku_url":""},{"id":5360,"title":"近三ビルヂング 旧森五商店東京支店","architect":"村野藤吾+竹中工務店","year":1931.0,"address":"東京都中央区日本橋室町4-1-21","latitude":35.68860626220703,"longitude":139.7720184326172,"category":"オフィスビル","big_category":"企業施設","description":"竹中工務店による改修","image_url":"","tags":"DOCOMOMO,新建築2018年4月号","prefecture":"東京","contractor":"","structural_designer":"","landscape_designer":"","shinkenchiku_url":""},{"id":5361,"title":"中島商店","architect":"村野藤吾","year":1932.0,"address":"石川県金沢市十間町8-1","latitude":36.570247650146484,"longitude":136.6580352783203,"category":"店舗","big_category":"商業施設","description":"","image_url":"","tags":"","prefecture":"石川","contractor":"","structural_designer":"","landscape_designer":"","shinkenchiku_url":""},{"id":5362,"title":"ウェスティン都ホテル京都","architect":"村野藤吾","year":1936.0,"address":"京都府京都市東山区東山区粟田口華頂町1","latitude":35.00868225097656,"longitude":135.78781127929688,"category":"ホテル","big_category":"宿泊","description":"","image_url":"","tags":"","prefecture":"京都","contractor":"","structural_designer":"","landscape_designer":"","shinkenchiku_url":""},{"id":5363,"title":"京都高島屋","architect":"村野藤吾","year":1951.0,"address":"京都府京都市下京区四条通河原町西入真町52","latitude":35.003089904785156,"longitude":135.76852416992188,"category":"モール","big_category":"商業施設","description":"","image_url":"","tags":"","prefecture":"京都","contractor":"","structural_designer":"","landscape_designer":"","shinkenchiku_url":""},{"id":5364,"title":"関西大学 第一学舎2号館 旧法文学舎","architect":"村野藤吾","year":1967.0,"address":"大阪府吹田市千里山東3-6-13","latitude":34.776676177978516,"longitude":135.5101318359375,"category":"大学","big_category":"教育","description":"","image_url":"","tags":"DOCOMOMO","prefecture":"大阪","contractor":"","structural_designer":"","landscape_designer":"","shinkenchiku_url":""},{"id":5365,"title":"コムラードドウトンビル","architect":"村野藤吾","year":1955.0,"address":"大阪府大阪市中央区道頓堀1-6-15","latitude":34.668853759765625,"longitude":135.5017852783203,"category":"テナントビル","big_category":"商業施設","description":"","image_url":"","tags":"","prefecture":"大阪","contractor":"","structural_designer":"","landscape_designer":"","shinkenchiku_url":""},{"id":5366,"title":"よみうりホール 旧読売会館","architect":"村野藤吾","year":1957.0,"address":"東京都千代田区有楽町1-11-1","latitude":35.67548370361328,"longitude":139.762939453125,"category":"店舗/ホール・劇場","big_category":"商業施設,文化施設","description":"","image_url":"","tags":"","prefecture":"東京","contractor":"","structural_designer":"","landscape_designer":"","shinkenchiku_url":""},{"id":5367,"title":"金属プレス健保会館","architect":"鈴木恂","year":1987.0,"address":"東京都墨田区両国4-30-7","latitude":35.69431686401367,"longitude":139.79698181152344,"category":"組合施設/オフィスビル","big_category":"公共施設,企業施設","description":"","image_url":"","tags":"","prefecture":"東京","contractor":"","structural_designer":"","landscape_designer":"","shinkenchiku_url":""},{"id":5368,"title":"マニン・ビル","architect":"鈴木恂","year":1986.0,"address":"東京都渋谷区神宮前2-22-12","latitude":35.67494583129883,"longitude":139.71058654785156,"category":"オフィスビル","big_category":"企業施設","description":"解体","image_url":"","tags":"","prefecture":"東京","contractor":"","structural_designer":"","landscape_designer":"","shinkenchiku_url":""},{"id":5369,"title":"望月印刷第三工場","architect":"鈴木恂","year":1971.0,"address":"東京都墨田区業平1-6-2","latitude":35.707984924316406,"longitude":139.80824279785156,"category":"工場/低層オフィス","big_category":"企業施設,企業施設","description":"","image_url":"","tags":"","prefecture":"東京","contractor":"","structural_designer":"","landscape_designer":"","shinkenchiku_url":""},{"id":5370,"title":"LiF集合住宅","architect":"鈴木恂","year":2003.0,"address":"愛知県名古屋市名東区本郷1-43","latitude":35.18080520629883,"longitude":137.01319885253906,"category":"集合住宅","big_category":"住宅","description":"","image_url":"","tags":"","prefecture":"愛知","contractor":"","structural_designer":"","landscape_designer":"","shinkenchiku_url":""},{"id":5371,"title":"梅若能楽学院会館","architect":"大江宏","year":1961.0,"address":"東京都中野区東中野2-6-14","latitude":35.701656341552734,"longitude":139.6818084716797,"category":"ホール・劇場","big_category":"文化施設","description":"","image_url":"","tags":"","prefecture":"東京","contractor":"","structural_designer":"","landscape_designer":"","shinkenchiku_url":""},{"id":5372,"title":"乃木神社","architect":"大江宏","year":1962.0,"address":"東京都港区赤坂8-11-27","latitude":35.668888092041016,"longitude":139.72796630859375,"category":"寺院","big_category":"宗教","description":"","image_url":"","tags":"","prefecture":"東京","contractor":"","structural_designer":"","landscape_designer":"","shinkenchiku_url":""},{"id":5373,"title":"法政大学 市ヶ谷田町校舎 旧62年館","architect":"大江宏","year":1962.0,"address":"東京都新宿区市谷田町2-33","latitude":35.69557189941406,"longitude":139.73703002929688,"category":"大学","big_category":"教育","description":"2008年に改修","image_url":"","tags":"1958年日本建築学会 作品賞","prefecture":"東京","contractor":"","structural_designer":"","landscape_designer":"","shinkenchiku_url":""},{"id":5374,"title":"Casa de Mexico 在日メキシコ大使館","architect":"大江宏","year":1963.0,"address":"東京都千代田区永田町2-15-1","latitude":35.67691421508789,"longitude":139.73951721191406,"category":"公共施設","big_category":"公共施設","description":"","image_url":"","tags":"","prefecture":"東京","contractor":"","structural_designer":"","landscape_designer":"","shinkenchiku_url":""},{"id":5375,"title":"普連土学園 中学校・高等学校","architect":"大江宏","year":1966.0,"address":"東京都港区三田4-14-16","latitude":35.64620590209961,"longitude":139.7410888671875,"category":"学校","big_category":"教育","description":"","image_url":"","tags":"DOCOMOMO","prefecture":"東京","contractor":"","structural_designer":"","landscape_designer":"","shinkenchiku_url":""},{"id":5376,"title":"乃木会館","architect":"大江宏","year":1968.0,"address":"東京都港区赤坂8-11-27","latitude":35.66831970214844,"longitude":139.72837829589844,"category":"結婚式場","big_category":"宗教","description":"","image_url":"","tags":"","prefecture":"東京","contractor":"","structural_designer":"","landscape_designer":"","shinkenchiku_url":""},{"id":5377,"title":"マリアンハウス","architect":"大江宏","year":1968.0,"address":"東京都調布市佐須町5-28-6","latitude":35.662322998046875,"longitude":139.56077575683594,"category":"教会","big_category":"宗教","description":"","image_url":"","tags":"","prefecture":"東京","contractor":"","structural_designer":"","landscape_designer":"","shinkenchiku_url":""},{"id":5378,"title":"香川県立丸亀武道館 旧丸亀高等学校武道館","architect":"大江宏","year":1973.0,"address":"香川県丸亀市城南町63-5","latitude":34.28232192993164,"longitude":133.79763793945312,"category":"体育館","big_category":"レジャー施設","description":"","image_url":"","tags":"","prefecture":"香川","contractor":"光建設","structural_designer":"","landscape_designer":"","shinkenchiku_url":""},{"id":5379,"title":"伊勢神宮 内宮神楽殿","architect":"大江宏","year":1978.0,"address":"三重県伊勢市宇治館町1","latitude":34.45530700683594,"longitude":136.72434997558594,"category":"寺院","big_category":"宗教","description":"","image_url":"","tags":"","prefecture":"三重","contractor":"","structural_designer":"","landscape_designer":"","shinkenchiku_url":""},{"id":5380,"title":"高山祭屋台会館","architect":"大江宏","year":1988.0,"address":"岐阜県高山市桜町178","latitude":36.148475646972656,"longitude":137.26014709472656,"category":"博物館","big_category":"ミュージアム","description":"","image_url":"","tags":"新建築1988年10月号","prefecture":"岐阜","contractor":"間組","structural_designer":"","landscape_designer":"","shinkenchiku_url":""},{"id":5381,"title":"大塚文庫","architect":"大江宏","year":1989.0,"address":"東京都目黒区自由が丘3-6-25","latitude":35.610252380371094,"longitude":139.66458129882812,"category":"ギャラリー/住宅","big_category":"ミュージアム,住宅","description":"","image_url":"","tags":"","prefecture":"東京","contractor":"","structural_designer":"","landscape_designer":"","shinkenchiku_url":""},{"id":5382,"title":"参議院副議長公邸","architect":"内井昭蔵","year":1993.0,"address":"東京都港区麻布永坂町25","latitude":35.657867431640625,"longitude":139.7369384765625,"category":"住宅/公共施設","big_category":"住宅,公共施設","description":"","image_url":"","tags":"","prefecture":"東京","contractor":"","structural_designer":"","landscape_designer":"","shinkenchiku_url":""},{"id":5383,"title":"広島県民文化センター","architect":"佐藤総合計画","year":1985.0,"address":"広島県広島市中区大手町1-5-3","latitude":34.39457321166992,"longitude":132.45545959472656,"category":"ホール・劇場","big_category":"文化施設","description":"","image_url":"","tags":"","prefecture":"広島","contractor":"藤田・日成JV","structural_designer":"","landscape_designer":"","shinkenchiku_url":""},{"id":5384,"title":"TORRE稲荷町","architect":"宮森洋一郎","year":1995.0,"address":"広島県広島市南区稲荷町3-20","latitude":34.3921012878418,"longitude":132.4704132080078,"category":"テナントビル/オフィスビル","big_category":"商業施設,企業施設","description":"","image_url":"","tags":"","prefecture":"広島","contractor":"","structural_designer":"","landscape_designer":"","shinkenchiku_url":""},{"id":5385,"title":"東平塚のアトリエ 宮森洋一郎建築設計室","architect":"宮森洋一郎","year":1998.0,"address":"広島県広島市中区東平塚町1-1","latitude":34.38855743408203,"longitude":132.4693603515625,"category":"オフィスビル/住宅","big_category":"企業施設,住宅","description":"","image_url":"","tags":"","prefecture":"広島","contractor":"","structural_designer":"","landscape_designer":"","shinkenchiku_url":""},{"id":5386,"title":"比治山本町のアトリエ 村上徹建築設計事務所","architect":"村上徹","year":1998.0,"address":"広島県広島市南区比治山本町1-27","latitude":34.386680603027344,"longitude":132.4711456298828,"category":"住宅/低層オフィス","big_category":"住宅,企業施設","description":"","image_url":"","tags":"","prefecture":"広島","contractor":"","structural_designer":"","landscape_designer":"","shinkenchiku_url":""},{"id":5387,"title":"DHハウス三滝","architect":"井口博幸","year":1998.0,"address":"広島県広島市西区三滝本町2-7-16","latitude":34.41669464111328,"longitude":132.4459686279297,"category":"集合住宅","big_category":"住宅","description":"","image_url":"","tags":"","prefecture":"広島","contractor":"","structural_designer":"","landscape_designer":"","shinkenchiku_url":""},{"id":5388,"title":"CUBE HOUSE","architect":"遠藤吉生","year":2000.0,"address":"広島県広島市西区大芝2-10-24","latitude":34.42082595825195,"longitude":132.4607696533203,"category":"集合住宅","big_category":"住宅","description":"","image_url":"","tags":"","prefecture":"広島","contractor":"","structural_designer":"","landscape_designer":"","shinkenchiku_url":""},{"id":5389,"title":"ブリーズコート中野","architect":"宮森洋一郎","year":2000.0,"address":"広島県広島市安佐南区祇園3-17-14","latitude":34.441043853759766,"longitude":132.45970153808594,"category":"集合住宅","big_category":"住宅","description":"","image_url":"","tags":"","prefecture":"広島","contractor":"","structural_designer":"","landscape_designer":"","shinkenchiku_url":""},{"id":5390,"title":"HmD complex ヘアサロン ブルーム","architect":"kw+hgアーキテクツ","year":2000.0,"address":"広島県広島市南区出汐2-2-14","latitude":34.37739181518555,"longitude":132.47618103027344,"category":"店舗/住宅","big_category":"商業施設,住宅","description":"","image_url":"","tags":"","prefecture":"広島","contractor":"","structural_designer":"","landscape_designer":"","shinkenchiku_url":""},{"id":5391,"title":"岡山市庁舎","architect":"山下寿郎","year":1968.0,"address":"岡山県岡山市北区大供1-1-1","latitude":34.655147552490234,"longitude":133.91966247558594,"category":"庁舎","big_category":"公共施設","description":"","image_url":"","tags":"","prefecture":"岡山","contractor":"","structural_designer":"","landscape_designer":"","shinkenchiku_url":""},{"id":5392,"title":"創和設計","architect":"石井修","year":1982.0,"address":"岡山県岡山市北区野田屋町2-10-5","latitude":34.66761779785156,"longitude":133.92543029785156,"category":"低層オフィス","big_category":"企業施設","description":"","image_url":"","tags":"2011年JIA25年賞","prefecture":"岡山","contractor":"清水建設","structural_designer":"","landscape_designer":"","shinkenchiku_url":""},{"id":5393,"title":"倉敷建築工房・楢村徹設計室オフィス","architect":"楢村徹","year":2000.0,"address":"岡山県倉敷市東町1-3","latitude":34.59769821166992,"longitude":133.77584838867188,"category":"住宅/低層オフィス","big_category":"住宅,企業施設","description":"","image_url":"","tags":"","prefecture":"岡山","contractor":"","structural_designer":"","landscape_designer":"","shinkenchiku_url":""},{"id":5394,"title":"夢空間はしまや","architect":"楢村徹","year":1997.0,"address":"岡山県倉敷市東町1-20","latitude":34.59745407104492,"longitude":133.77572631835938,"category":"ギャラリー/カフェ","big_category":"ミュージアム,商業施設","description":"","image_url":"","tags":"","prefecture":"岡山","contractor":"","structural_designer":"","landscape_designer":"","shinkenchiku_url":""},{"id":5395,"title":"吉井旅館","architect":"楢村徹","year":1997.0,"address":"岡山県倉敷市本町1-29","latitude":34.59647750854492,"longitude":133.7730255126953,"category":"旅館","big_category":"宿泊","description":"","image_url":"","tags":"","prefecture":"岡山","contractor":"","structural_designer":"","landscape_designer":"","shinkenchiku_url":""},{"id":5396,"title":"大環新社屋","architect":"村上徹","year":1995.0,"address":"岡山県津山市東一宮73-1","latitude":35.10127258300781,"longitude":134.00634765625,"category":"低層オフィス","big_category":"企業施設","description":"","image_url":"","tags":"","prefecture":"岡山","contractor":"","structural_designer":"","landscape_designer":"","shinkenchiku_url":""},{"id":5397,"title":"山口銀行別館 やまぎん史料館","architect":"長野宇平治","year":1921.0,"address":"山口県下関市観音崎町10-6","latitude":33.95301055908203,"longitude":130.93846130371094,"category":"金融機関/洋館","big_category":"企業施設,近代建築/遺産","description":"","image_url":"","tags":"","prefecture":"山口","contractor":"","structural_designer":"","landscape_designer":"","shinkenchiku_url":""},{"id":5398,"title":"防府市地域交流センター アスピラート","architect":"日本設計","year":1998.0,"address":"山口県防府市戎町1-1-28","latitude":34.05374526977539,"longitude":131.5701446533203,"category":"総合文化施設","big_category":"文化施設","description":"","image_url":"","tags":"","prefecture":"山口","contractor":"","structural_designer":"","landscape_designer":"","shinkenchiku_url":""},{"id":5399,"title":"防府天満宮茶室 芳松庵","architect":"大江宏","year":1991.0,"address":"山口県防府市松崎町11-1","latitude":34.062618255615234,"longitude":131.57455444335938,"category":"茶室","big_category":"住宅","description":"","image_url":"","tags":"","prefecture":"山口","contractor":"","structural_designer":"","landscape_designer":"","shinkenchiku_url":""},{"id":5400,"title":"山陰合同銀行本店","architect":"日建設計","year":1997.0,"address":"島根県松江市魚町10","latitude":35.46604919433594,"longitude":133.05442810058594,"category":"金融機関/オフィスビル","big_category":"企業施設,企業施設","description":"","image_url":"","tags":"","prefecture":"島根","contractor":"","structural_designer":"","landscape_designer":"","shinkenchiku_url":""}]}