{"page":92,"total_pages":290,"items_per_page":50,"total_items":14467,"items":[{"id":4551,"title":"国士舘大学 メイプルセンチュリーホール","architect":"久米設計","year":2012.0,"address":"東京都世田谷区若林4-32-5","latitude":35.64811325073242,"longitude":139.65432739257812,"category":"大学","big_category":"教育","description":"","image_url":"","tags":"新建築2014年10月号","prefecture":"東京","contractor":"鹿島建設","structural_designer":"久米設計","landscape_designer":"","shinkenchiku_url":"https://data.shinkenchiku.online/articles/SK_2014_10_056-0"},{"id":4552,"title":"成田国際空港 第2旅客ターミナルビル 寛ぎの大空間","architect":"クライン・ダイサム・アーキテクツ","year":2015.0,"address":"千葉県成田市古込1-1","latitude":35.77348327636719,"longitude":140.3882293701172,"category":"空港/カフェ","big_category":"インフラ,商業施設","description":"","image_url":"","tags":"","prefecture":"千葉","contractor":"","structural_designer":"","landscape_designer":"","shinkenchiku_url":""},{"id":4553,"title":"グランツリー武蔵小杉","architect":"東急設計","year":2014.0,"address":"神奈川県川崎市中原区新丸子東3-1135","latitude":35.573577880859375,"longitude":139.66102600097656,"category":"モール","big_category":"商業施設","description":"","image_url":"","tags":"","prefecture":"神奈川","contractor":"","structural_designer":"","landscape_designer":"","shinkenchiku_url":""},{"id":4554,"title":"資生堂銀座ビル","architect":"竹中工務店","year":2013.0,"address":"東京都中央区銀座7-5","latitude":35.669925689697266,"longitude":139.76126098632812,"category":"オフィスビル","big_category":"企業施設","description":"JIA優秀建築賞受賞者名：濱野裕司、美島康人","image_url":"","tags":"2014年度JIA優秀建築賞","prefecture":"東京","contractor":"","structural_designer":"","landscape_designer":"","shinkenchiku_url":""},{"id":4555,"title":"町屋Cafe&Dining 恋しき","architect":"今川忠男","year":2012.0,"address":"広島県府中市府中町178","latitude":34.57533645629883,"longitude":133.23291015625,"category":"カフェ/和風住宅","big_category":"商業施設,住宅","description":"","image_url":"","tags":"","prefecture":"広島","contractor":"","structural_designer":"","landscape_designer":"","shinkenchiku_url":""},{"id":4556,"title":"日本圧着端子製造 本社","architect":"Atelier KISHISHITA+都倉泰信","year":2013.0,"address":"大阪市中央区道修町3-4-7","latitude":34.688751220703125,"longitude":135.50247192382812,"category":"オフィスビル","big_category":"企業施設","description":"","image_url":"","tags":"第12回芦原義信賞","prefecture":"大阪","contractor":"","structural_designer":"","landscape_designer":"","shinkenchiku_url":""},{"id":4557,"title":"沼田小学校","architect":"アトリエブンク","year":2012.0,"address":"北海道雨竜郡沼田町本通6-3-26","latitude":43.808650970458984,"longitude":141.92626953125,"category":"学校","big_category":"教育","description":"","image_url":"","tags":"","prefecture":"北海道","contractor":"","structural_designer":"","landscape_designer":"","shinkenchiku_url":""},{"id":4558,"title":"来迎寺","architect":"山本想太郎","year":2013.0,"address":"千葉県松戸市松戸2175","latitude":35.786643981933594,"longitude":139.8948211669922,"category":"寺院","big_category":"宗教","description":"","image_url":"","tags":"新建築2014年3月号","prefecture":"千葉","contractor":"佐藤秀","structural_designer":"増田建築構造事務所","landscape_designer":"","shinkenchiku_url":"https://data.shinkenchiku.online/articles/SK_2014_03_136-0"},{"id":4559,"title":"勝浦町立勝浦中学校","architect":"株式会社大建設計","year":2012.0,"address":"徳島県勝浦郡勝浦町久国久保田45-1","latitude":33.93354797363281,"longitude":134.5106201171875,"category":"学校","big_category":"教育","description":"","image_url":"","tags":"","prefecture":"徳島","contractor":"","structural_designer":"","landscape_designer":"","shinkenchiku_url":""},{"id":4560,"title":"糸満漁民食堂","architect":"山﨑健太郎","year":2013.0,"address":"沖縄県糸満市西崎町4-17","latitude":26.13928985595703,"longitude":127.65982818603516,"category":"レストラン","big_category":"商業施設","description":"","image_url":"","tags":"","prefecture":"沖縄","contractor":"","structural_designer":"","landscape_designer":"","shinkenchiku_url":""},{"id":4561,"title":"Cafe&Dining SAKAE","architect":"山﨑健太郎","year":2011.0,"address":"神奈川県横浜市中区吉田町5-1 第一吉田ビル2階","latitude":35.44620132446289,"longitude":139.6323699951172,"category":"レストラン","big_category":"商業施設","description":"","image_url":"","tags":"","prefecture":"神奈川","contractor":"","structural_designer":"","landscape_designer":"","shinkenchiku_url":""},{"id":4562,"title":"アル・カリーナ","architect":"山﨑健太郎","year":2009.0,"address":"千葉県佐倉市染井野4-7-1","latitude":35.71892547607422,"longitude":140.1918487548828,"category":"店舗/カフェ","big_category":"商業施設,商業施設","description":"","image_url":"","tags":"","prefecture":"千葉","contractor":"","structural_designer":"","landscape_designer":"","shinkenchiku_url":""},{"id":4563,"title":"若鶴大正蔵","architect":"蜂谷俊雄","year":2013.0,"address":"富山県砺波市三郎丸208","latitude":36.655792236328125,"longitude":136.97030639648438,"category":"店舗/博物館","big_category":"商業施設,ミュージアム","description":"見学は1日3回、完全電話予約制","image_url":"","tags":"","prefecture":"富山","contractor":"","structural_designer":"","landscape_designer":"","shinkenchiku_url":""},{"id":4564,"title":"アロン化成ものづくりセンター","architect":"森下修","year":2011.0,"address":"愛知県東海市新宝町30-6","latitude":35.0571174621582,"longitude":136.8955535888672,"category":"研究施設/企業施設","big_category":"教育,企業施設","description":"条件付きで見学可能","image_url":"","tags":"","prefecture":"愛知","contractor":"","structural_designer":"","landscape_designer":"","shinkenchiku_url":""},{"id":4565,"title":"燕市庁舎","architect":"梓設計","year":2013.0,"address":"新潟県燕市吉田西太田1934","latitude":37.67314910888672,"longitude":138.8822479248047,"category":"庁舎","big_category":"公共施設","description":"","image_url":"","tags":"新建築2016年4月号","prefecture":"新潟","contractor":"","structural_designer":"","landscape_designer":"","shinkenchiku_url":""},{"id":4566,"title":"香林坊ラモーダ","architect":"日本設計","year":2011.0,"address":"石川県金沢市香林坊2-4-30","latitude":36.564109802246094,"longitude":136.65342712402344,"category":"テナントビル","big_category":"商業施設","description":"","image_url":"","tags":"","prefecture":"石川","contractor":"","structural_designer":"","landscape_designer":"","shinkenchiku_url":""},{"id":4567,"title":"明治大学 創立130周年記念 和泉図書館","architect":"松田平田設計","year":2012.0,"address":"東京都杉並区永福1-9-1","latitude":35.67085647583008,"longitude":139.64820861816406,"category":"大学/図書館","big_category":"教育,文化施設","description":"","image_url":"","tags":"","prefecture":"東京","contractor":"","structural_designer":"","landscape_designer":"","shinkenchiku_url":""},{"id":4568,"title":"江東区立有明小学校・中学校","architect":"久米設計","year":2011.0,"address":"東京都江東区有明2-10-1","latitude":35.6401252746582,"longitude":139.796142578125,"category":"学校","big_category":"教育","description":"","image_url":"","tags":"","prefecture":"東京","contractor":"","structural_designer":"","landscape_designer":"","shinkenchiku_url":""},{"id":4569,"title":"高野山ゲストハウス Kokuu","architect":"アルファヴィル","year":2012.0,"address":"和歌山県伊都郡高野町高野山49-43","latitude":34.21598815917969,"longitude":135.6065673828125,"category":"ホステル","big_category":"宿泊","description":"","image_url":"","tags":"","prefecture":"和歌山","contractor":"","structural_designer":"","landscape_designer":"","shinkenchiku_url":""},{"id":4570,"title":"静岡ガス 本社ビル","architect":"日建設計","year":2013.0,"address":"静岡県静岡市駿河区八幡1-5-38","latitude":34.97373962402344,"longitude":138.39508056640625,"category":"オフィスビル","big_category":"企業施設","description":"","image_url":"","tags":"","prefecture":"静岡","contractor":"","structural_designer":"","landscape_designer":"","shinkenchiku_url":""},{"id":4571,"title":"愛知県立芸術大学 音楽学部校舎","architect":"日建設計","year":2013.0,"address":"愛知県長久手市岩作三ヶ峯1-114","latitude":35.16843032836914,"longitude":137.0673828125,"category":"大学","big_category":"教育","description":"","image_url":"","tags":"","prefecture":"愛知","contractor":"","structural_designer":"","landscape_designer":"","shinkenchiku_url":""},{"id":4572,"title":"特別養護老人ホーム えびの涼風園 新館","architect":"呉屋彦四郎+塩田能也","year":2013.0,"address":"宮崎県えびの市岡松143","latitude":32.04169845581055,"longitude":130.7560577392578,"category":"養護施設","big_category":"医療施設","description":"","image_url":"","tags":"新建築2014年3月号","prefecture":"宮崎","contractor":"坂下・山本特定建設工事共同企業体","structural_designer":"河合構造設計","landscape_designer":"","shinkenchiku_url":"https://data.shinkenchiku.online/articles/SK_2014_03_090-0"},{"id":4573,"title":"特別養護老人ホーム えびの涼風園","architect":"呉屋彦四郎","year":1999.0,"address":"宮崎県えびの市岡松143","latitude":32.041648864746094,"longitude":130.7554473876953,"category":"養護施設","big_category":"医療施設","description":"","image_url":"","tags":"","prefecture":"宮崎","contractor":"","structural_designer":"","landscape_designer":"","shinkenchiku_url":""},{"id":4574,"title":"東村山むさしの認定こども園","architect":"呉屋彦四郎+ジャクエツ+村松基安","year":2013.0,"address":"東京都東村山市廻田町2-14-1","latitude":35.75413131713867,"longitude":139.4486846923828,"category":"幼稚園","big_category":"教育","description":"","image_url":"","tags":"新建築2014年6月号","prefecture":"東京","contractor":"松井建設","structural_designer":"川上構造デザイン+河合構造設計","landscape_designer":"","shinkenchiku_url":"https://data.shinkenchiku.online/articles/SK_2014_06_168-0"},{"id":4575,"title":"山形BPOガーデン","architect":"久米設計","year":2013.0,"address":"山形県酒田市京田4-1-1","latitude":38.872657775878906,"longitude":139.83570861816406,"category":"低層オフィス","big_category":"企業施設","description":"","image_url":"","tags":"","prefecture":"山形","contractor":"","structural_designer":"","landscape_designer":"","shinkenchiku_url":""},{"id":4576,"title":"おかやま山陽高校 90周年記念館","architect":"大角雄三","year":2013.0,"address":"岡山県浅口市鴨方町六条院中2069","latitude":34.521873474121094,"longitude":133.58175659179688,"category":"学校","big_category":"教育","description":"","image_url":"","tags":"","prefecture":"岡山","contractor":"","structural_designer":"","landscape_designer":"","shinkenchiku_url":""},{"id":4577,"title":"おかやま山陽高校 80周年記念館","architect":"大角雄三","year":2003.0,"address":"岡山県浅口市鴨方町六条院中2069","latitude":34.52269744873047,"longitude":133.58229064941406,"category":"学校","big_category":"教育","description":"","image_url":"","tags":"","prefecture":"岡山","contractor":"","structural_designer":"","landscape_designer":"","shinkenchiku_url":""},{"id":4578,"title":"廣榮堂 藤原店","architect":"大角雄三","year":2007.0,"address":"岡山県岡山市中区藤原60","latitude":34.674171447753906,"longitude":133.95887756347656,"category":"店舗","big_category":"商業施設","description":"","image_url":"","tags":"","prefecture":"岡山","contractor":"","structural_designer":"","landscape_designer":"","shinkenchiku_url":""},{"id":4579,"title":"中河原保育園","architect":"古谷誠章","year":2012.0,"address":"群馬県高崎市新町1402","latitude":36.264747619628906,"longitude":139.10952758789062,"category":"幼稚園","big_category":"教育","description":"","image_url":"","tags":"","prefecture":"群馬","contractor":"","structural_designer":"","landscape_designer":"","shinkenchiku_url":""},{"id":4580,"title":"愛光みのり保育園","architect":"深江康之","year":2013.0,"address":"京都府木津川市木津（大字）初田35","latitude":34.73369216918945,"longitude":135.83641052246094,"category":"幼稚園","big_category":"教育","description":"","image_url":"","tags":"","prefecture":"京都","contractor":"","structural_designer":"","landscape_designer":"","shinkenchiku_url":""},{"id":4581,"title":"灘中学校・高等学校 新校舎","architect":"日建設計","year":2013.0,"address":"兵庫県神戸市東灘区魚崎北町8-5-1","latitude":34.719154357910156,"longitude":135.26841735839844,"category":"学校","big_category":"教育","description":"","image_url":"","tags":"","prefecture":"兵庫","contractor":"","structural_designer":"","landscape_designer":"","shinkenchiku_url":""},{"id":4582,"title":"読売新聞東京本社ビル","architect":"日建設計","year":2013.0,"address":"東京都千代田区大手町1-7-1 ‎","latitude":35.68708801269531,"longitude":139.7650146484375,"category":"オフィスビル","big_category":"企業施設","description":"","image_url":"","tags":"新建築2014年4月号","prefecture":"東京","contractor":"清水建設","structural_designer":"日建設計","landscape_designer":"","shinkenchiku_url":"https://data.shinkenchiku.online/articles/SK_2014_04_078-0"},{"id":4583,"title":"はじまりの教会 妙智會群馬教会","architect":"竹中工務店","year":2012.0,"address":"群馬県太田市熊野町23-11","latitude":36.305137634277344,"longitude":139.37850952148438,"category":"教会/寺院","big_category":"宗教,宗教","description":"","image_url":"","tags":"","prefecture":"群馬","contractor":"","structural_designer":"","landscape_designer":"","shinkenchiku_url":""},{"id":4584,"title":"押上駅前自転車駐車場","architect":"日建設計","year":2012.0,"address":"東京都墨田区押上1-8-25","latitude":35.71136474609375,"longitude":139.81407165527344,"category":"駐車・駐輪場","big_category":"公共施設","description":"","image_url":"","tags":"","prefecture":"東京","contractor":"","structural_designer":"","landscape_designer":"","shinkenchiku_url":""},{"id":4585,"title":"ラカーサ安城店","architect":"鵜飼昭年","year":2014.0,"address":"愛知県安城市篠目町竜田86-5","latitude":34.97983932495117,"longitude":137.06764221191406,"category":"カフェ/企業施設","big_category":"商業施設,企業施設","description":"","image_url":"","tags":"","prefecture":"愛知","contractor":"","structural_designer":"","landscape_designer":"","shinkenchiku_url":""},{"id":4586,"title":"おかげ庵 上飯田店","architect":"鵜飼昭年","year":2013.0,"address":"愛知県名古屋市北区織部町1-1","latitude":35.20166015625,"longitude":136.92938232421875,"category":"店舗/カフェ","big_category":"商業施設,商業施設","description":"","image_url":"","tags":"","prefecture":"愛知","contractor":"","structural_designer":"","landscape_designer":"","shinkenchiku_url":""},{"id":4587,"title":"東京都庭園美術館 新館","architect":"久米設計+杉本博司","year":2014.0,"address":"東京都港区白金台5-21-9","latitude":35.636966705322266,"longitude":139.7187957763672,"category":"美術館","big_category":"ミュージアム","description":"","image_url":"","tags":"2016年日本建築学会 作品選奨","prefecture":"東京","contractor":"","structural_designer":"","landscape_designer":"","shinkenchiku_url":""},{"id":4588,"title":"トーヨーキッチンスタイル ザ・ハウス","architect":"橋本夕紀夫","year":2014.0,"address":"愛知県名古屋市名東区一社2-21","latitude":35.168338775634766,"longitude":136.99851989746094,"category":"店舗","big_category":"商業施設","description":"ショールーム、バー、屋上庭園など。屋上庭園は要予約","image_url":"","tags":"","prefecture":"愛知","contractor":"","structural_designer":"","landscape_designer":"","shinkenchiku_url":""},{"id":4589,"title":"長澤歯科医院","architect":"松葉邦彦","year":2014.0,"address":"東京都八王子市東浅川町513","latitude":35.64468765258789,"longitude":139.29759216308594,"category":"個人医院/住宅","big_category":"医療施設,住宅","description":"","image_url":"","tags":"","prefecture":"東京","contractor":"","structural_designer":"","landscape_designer":"","shinkenchiku_url":""},{"id":4590,"title":"GARDEN SALON II","architect":"古森弘一","year":2005.0,"address":"福岡県北九州市小倉南区津田南町4-8","latitude":33.82560348510742,"longitude":130.91709899902344,"category":"結婚式場","big_category":"宗教","description":"","image_url":"","tags":"","prefecture":"福岡","contractor":"","structural_designer":"","landscape_designer":"","shinkenchiku_url":""},{"id":4591,"title":"西法寺 納骨堂","architect":"古森弘一","year":2007.0,"address":"福岡県北九州市八幡西区町上津役西4-9-34","latitude":33.821739196777344,"longitude":130.75135803222656,"category":"寺院","big_category":"宗教","description":"","image_url":"","tags":"","prefecture":"福岡","contractor":"","structural_designer":"","landscape_designer":"","shinkenchiku_url":""},{"id":4592,"title":"森の風レストラン かなかな","architect":"古森弘一","year":2004.0,"address":"福岡県築上郡上毛町東上3037-2","latitude":33.53639602661133,"longitude":131.1522216796875,"category":"レストラン","big_category":"商業施設","description":"","image_url":"","tags":"","prefecture":"福岡","contractor":"","structural_designer":"","landscape_designer":"","shinkenchiku_url":""},{"id":4593,"title":"石川県こまつ芸術劇場うらら","architect":"川崎清","year":2003.0,"address":"石川県小松市土居原町710","latitude":36.40322494506836,"longitude":136.45220947265625,"category":"ホール・劇場","big_category":"文化施設","description":"","image_url":"","tags":"","prefecture":"石川","contractor":"","structural_designer":"","landscape_designer":"","shinkenchiku_url":""},{"id":4594,"title":"福岡市動植物園","architect":"瀧光夫","year":1980.0,"address":"福岡県福岡市中央区小笹5-1-1","latitude":33.57113265991211,"longitude":130.38980102539062,"category":"動植物園","big_category":"レジャー施設","description":"","image_url":"","tags":"","prefecture":"福岡","contractor":"","structural_designer":"","landscape_designer":"","shinkenchiku_url":""},{"id":4595,"title":"hase bldg.8","architect":"シーラカンスアンドアソシエイツ","year":2011.0,"address":"愛知県名古屋市中区大須3-2-17","latitude":35.16169738769531,"longitude":136.90440368652344,"category":"テナントビル","big_category":"商業施設","description":"","image_url":"","tags":"","prefecture":"愛知","contractor":"","structural_designer":"","landscape_designer":"","shinkenchiku_url":""},{"id":4596,"title":"国立国語研究所","architect":"槇文彦","year":2004.0,"address":"東京都立川市緑町10-2","latitude":35.710689544677734,"longitude":139.4098663330078,"category":"研究施設","big_category":"教育","description":"","image_url":"","tags":"新建築2005年1月号","prefecture":"東京","contractor":"","structural_designer":"","landscape_designer":"","shinkenchiku_url":""},{"id":4597,"title":"尾鷲小学校","architect":"シーラカンスアンドアソシエイツ","year":2012.0,"address":"三重県尾鷲市中村町4-58","latitude":34.07302474975586,"longitude":136.1942138671875,"category":"学校","big_category":"教育","description":"","image_url":"","tags":"2015年日本建築学会 作品選奨","prefecture":"三重","contractor":"","structural_designer":"","landscape_designer":"","shinkenchiku_url":""},{"id":4598,"title":"愛知淑徳大学 長久手キャンパス 9号棟","architect":"シーラカンスアンドアソシエイツ","year":2004.0,"address":"愛知県愛知郡長久手町長湫片平9","latitude":35.15645980834961,"longitude":137.03211975097656,"category":"大学","big_category":"教育","description":"","image_url":"","tags":"","prefecture":"愛知","contractor":"","structural_designer":"","landscape_designer":"","shinkenchiku_url":""},{"id":4599,"title":"愛知淑徳大学 星が丘キャンパス 1号館","architect":"日本設計","year":2004.0,"address":"愛知県名古屋市千種区桜が丘23","latitude":35.16572570800781,"longitude":136.98764038085938,"category":"大学","big_category":"教育","description":"","image_url":"","tags":"","prefecture":"愛知","contractor":"","structural_designer":"","landscape_designer":"","shinkenchiku_url":""},{"id":4600,"title":"ツダ・ジュウイカ 小嶋獣医科","architect":"シーラカンスアンドアソシエイツ","year":2003.0,"address":"大阪府枚方市津田西町3-16-10","latitude":34.80446243286133,"longitude":135.6985626220703,"category":"個人医院","big_category":"医療施設","description":"","image_url":"","tags":"","prefecture":"大阪","contractor":"","structural_designer":"","landscape_designer":"","shinkenchiku_url":""}]}