{"page":259,"total_pages":290,"items_per_page":50,"total_items":14467,"items":[{"id":12901,"title":"松本三の丸スクエア","architect":"岩岡竜夫+森昌樹","year":2022.0,"address":"長野県松本市大手3-44-1","latitude":36.236854553222656,"longitude":137.9683380126953,"category":"個人医院/住宅","big_category":"医療施設,住宅","description":"","image_url":"","tags":"新建築2023年9月号,Ver5.20(2024年1月)の追加建築","prefecture":"長野","contractor":"","structural_designer":"","landscape_designer":"","shinkenchiku_url":""},{"id":12902,"title":"飯田高校正門","architect":"北川原温","year":1996.0,"address":"長野県飯田市上郷黒田450","latitude":35.51704788208008,"longitude":137.84228515625,"category":"オブジェ","big_category":"ミュージアム","description":"","image_url":"","tags":"新建築1997年7月号,Ver5.20(2024年1月)の追加建築","prefecture":"長野","contractor":"","structural_designer":"","landscape_designer":"","shinkenchiku_url":""},{"id":12903,"title":"大桑村歴史民俗資料館","architect":"宮本忠長","year":1986.0,"address":"長野県木曽郡大桑村殿1-58","latitude":35.70061111450195,"longitude":137.69142150878906,"category":"博物館","big_category":"ミュージアム","description":"","image_url":"","tags":"新建築1987年8月号,Ver5.20(2024年1月)の追加建築","prefecture":"長野","contractor":"","structural_designer":"","landscape_designer":"","shinkenchiku_url":""},{"id":12904,"title":"上松町立上松小学校","architect":"宮本忠長","year":1986.0,"address":"長野県木曽郡上松町緑町2-709","latitude":35.78037643432617,"longitude":137.69485473632812,"category":"学校","big_category":"教育","description":"","image_url":"","tags":"新建築1987年2月号,Ver5.20(2024年1月)の追加建築","prefecture":"長野","contractor":"","structural_designer":"","landscape_designer":"","shinkenchiku_url":""},{"id":12905,"title":"木曽くらしの工芸館","architect":"福川裕一+西郷真理子","year":1994.0,"address":"長野県塩尻市木曽平沢2272-7","latitude":35.98615646362305,"longitude":137.84259033203125,"category":"博物館/店舗","big_category":"ミュージアム,商業施設","description":"","image_url":"","tags":"新建築1994年8月号,Ver5.20(2024年1月)の追加建築","prefecture":"長野","contractor":"","structural_designer":"","landscape_designer":"","shinkenchiku_url":""},{"id":12906,"title":"松本木工館","architect":"GK設計","year":1987.0,"address":"長野県松本市野溝木工1-10-17","latitude":36.2030029296875,"longitude":137.9569549560547,"category":"低層オフィス","big_category":"企業施設","description":"","image_url":"","tags":"新建築1987年8月号,Ver5.20(2024年1月)の追加建築","prefecture":"長野","contractor":"","structural_designer":"","landscape_designer":"","shinkenchiku_url":""},{"id":12907,"title":"松本市音楽文化ホール","architect":"國方秀男+日総建","year":1985.0,"address":"長野県松本市島内4351","latitude":36.24521255493164,"longitude":137.94525146484375,"category":"ホール・劇場","big_category":"文化施設","description":"","image_url":"","tags":"新建築1986年3月号,Ver5.20(2024年1月)の追加建築","prefecture":"長野","contractor":"","structural_designer":"","landscape_designer":"","shinkenchiku_url":""},{"id":12908,"title":"開運堂 松風庵","architect":"竹中工務店","year":1985.0,"address":"長野県松本市開智2-3-30","latitude":36.24258804321289,"longitude":137.97088623046875,"category":"店舗","big_category":"商業施設","description":"","image_url":"","tags":"新建築1986年8月号,Ver5.20(2024年1月)の追加建築","prefecture":"長野","contractor":"","structural_designer":"","landscape_designer":"","shinkenchiku_url":""},{"id":12909,"title":"南砺市立複合教育施設 アーパス","architect":"藤野雅統","year":1998.0,"address":"富山県南砺市利賀村184","latitude":36.45586395263672,"longitude":137.0298309326172,"category":"学校/公民館・交流施設","big_category":"教育,公共施設","description":"","image_url":"","tags":"新建築1999年12月号,Ver5.20(2024年1月)の追加建築","prefecture":"富山","contractor":"","structural_designer":"","landscape_designer":"","shinkenchiku_url":""},{"id":12910,"title":"城端中学校","architect":"田中光+水野一郎","year":1986.0,"address":"富山県南砺市泉沢700","latitude":36.50640106201172,"longitude":136.89515686035156,"category":"学校","big_category":"教育","description":"","image_url":"","tags":"新建築1987年9月号,Ver5.20(2024年1月)の追加建築","prefecture":"富山","contractor":"","structural_designer":"","landscape_designer":"","shinkenchiku_url":""},{"id":12911,"title":"越中八尾観光会館 曳山展示館","architect":"國方秀男+日総建","year":1984.0,"address":"富山県富山市八尾町上新町2898-1","latitude":36.57610321044922,"longitude":137.13070678710938,"category":"博物館/公民館・交流施設","big_category":"ミュージアム,公共施設","description":"","image_url":"","tags":"新建築1985年9月号,Ver5.20(2024年1月)の追加建築","prefecture":"富山","contractor":"","structural_designer":"","landscape_designer":"","shinkenchiku_url":""},{"id":12912,"title":"白雨館","architect":"坂本昭","year":1999.0,"address":"大阪府藤井寺市春日丘1-6-31","latitude":34.56960678100586,"longitude":135.59266662597656,"category":"集合住宅/専門学校","big_category":"住宅,教育","description":"","image_url":"","tags":"新建築1999年8月号,Ver5.20(2024年1月)の追加建築","prefecture":"大阪","contractor":"","structural_designer":"","landscape_designer":"","shinkenchiku_url":""},{"id":12913,"title":"ELEVEN VILLAGE 吹屋 旧吹屋国際交流ヴィラ","architect":"石井和紘","year":1988.0,"address":"岡山県高梁市成羽町吹屋836","latitude":34.861392974853516,"longitude":133.47079467773438,"category":"コテージ","big_category":"宿泊","description":"現在はゲストハウスとして宿泊可能","image_url":"","tags":"Ver5.20(2024年1月)の追加建築","prefecture":"岡山","contractor":"","structural_designer":"","landscape_designer":"","shinkenchiku_url":""},{"id":12914,"title":"新宿外科医院","architect":"谷内田章夫","year":1993.0,"address":"千葉県千葉市中央区新宿2-16-13","latitude":35.60671615600586,"longitude":140.1139678955078,"category":"個人医院","big_category":"医療施設","description":"","image_url":"","tags":"Ver5.20(2024年1月)の追加建築","prefecture":"千葉","contractor":"","structural_designer":"","landscape_designer":"","shinkenchiku_url":""},{"id":12915,"title":"旧渡文ホーム・ファニッシング研究所","architect":"竹中工務店","year":1990.0,"address":"京都府木津川市相楽台3-1-4","latitude":34.731849670410156,"longitude":135.79183959960938,"category":"低層オフィス/研究施設","big_category":"企業施設,教育","description":"営業停止中?建築は現存","image_url":"","tags":"新建築1990年10月号,Ver5.20(2024年1月)の追加建築","prefecture":"京都","contractor":"","structural_designer":"","landscape_designer":"","shinkenchiku_url":""},{"id":12916,"title":"姫路市立城内図書館 日本城郭研究室","architect":"久米設計","year":1990.0,"address":"兵庫県姫路市本町68-258","latitude":34.84209442138672,"longitude":134.69723510742188,"category":"図書館/研究施設","big_category":"文化施設,教育","description":"","image_url":"","tags":"新建築1990年10月号,Ver5.20(2024年1月)の追加建築","prefecture":"兵庫","contractor":"","structural_designer":"","landscape_designer":"","shinkenchiku_url":""},{"id":12917,"title":"富山産業展示館 テクノホール","architect":"三四五建築研究所+内井昭蔵","year":1983.0,"address":"富山県富山市友杉1682","latitude":36.640647888183594,"longitude":137.1971893310547,"category":"展示・会議場","big_category":"公共施設","description":"監修:内井昭蔵","image_url":"","tags":"新建築1984年1月号,Ver5.20(2024年1月)の追加建築","prefecture":"富山","contractor":"","structural_designer":"","landscape_designer":"","shinkenchiku_url":""},{"id":12918,"title":"富山高校100周年記念館","architect":"山本公也","year":1985.0,"address":"富山県富山市太郎丸1-1","latitude":36.67264938354492,"longitude":137.21823120117188,"category":"学校","big_category":"教育","description":"","image_url":"","tags":"新建築1986年8月号,Ver5.20(2024年1月)の追加建築","prefecture":"富山","contractor":"","structural_designer":"","landscape_designer":"","shinkenchiku_url":""},{"id":12919,"title":"射水市立堀岡小学校","architect":"森俊偉","year":2002.0,"address":"富山県射水市海竜町118-2","latitude":36.772979736328125,"longitude":137.1263885498047,"category":"学校","big_category":"教育","description":"","image_url":"","tags":"新建築2006年4月号,Ver5.20(2024年1月)の追加建築","prefecture":"富山","contractor":"","structural_designer":"","landscape_designer":"","shinkenchiku_url":""},{"id":12920,"title":"フードシティ グリーンベル","architect":"栗生明","year":1985.0,"address":"富山県高岡市鐘紡町1-19","latitude":36.73418045043945,"longitude":137.00259399414062,"category":"店舗","big_category":"商業施設","description":"おそらく建物は現存。外観は見る影もないが改修されてスギドラッグ等が入居している","image_url":"","tags":"新建築1985年7月号,Ver5.20(2024年1月)の追加建築","prefecture":"富山","contractor":"","structural_designer":"","landscape_designer":"","shinkenchiku_url":""},{"id":12921,"title":"鳩山ニュータウン情報センター カーニバルタワー","architect":"栗生明","year":1987.0,"address":"埼玉県比企郡鳩山町松ヶ丘1-2-2","latitude":35.98775863647461,"longitude":139.35479736328125,"category":"公共施設/店舗","big_category":"公共施設,商業施設","description":"","image_url":"","tags":"新建築1987年9月号,Ver5.20(2024年1月)の追加建築","prefecture":"埼玉","contractor":"","structural_designer":"","landscape_designer":"","shinkenchiku_url":""},{"id":12922,"title":"金沢工業大学 24号館 工学基礎実技センター","architect":"水野一郎+田中光","year":1990.0,"address":"石川県野々市市高橋町12-6","latitude":36.53173828125,"longitude":136.6294708251953,"category":"大学","big_category":"教育","description":"","image_url":"","tags":"新建築1990年12月号,Ver5.20(2024年1月)の追加建築","prefecture":"石川","contractor":"","structural_designer":"","landscape_designer":"","shinkenchiku_url":""},{"id":12923,"title":"大町エネルギー博物館","architect":"エーシーエ設計","year":1982.0,"address":"長野県大町市平2112-38","latitude":36.51518249511719,"longitude":137.79344177246094,"category":"博物館","big_category":"ミュージアム","description":"","image_url":"","tags":"新建築1982年11月号,Ver5.20(2024年1月)の追加建築","prefecture":"長野","contractor":"","structural_designer":"","landscape_designer":"","shinkenchiku_url":""},{"id":12924,"title":"信州新町美術館・化石博物館","architect":"エーシーエ設計","year":1981.0,"address":"長野県長野市信州新町上条88-3","latitude":36.571998596191406,"longitude":138.02066040039062,"category":"博物館/美術館","big_category":"ミュージアム,ミュージアム","description":"","image_url":"","tags":"Ver5.20(2024年1月)の追加建築","prefecture":"長野","contractor":"","structural_designer":"","landscape_designer":"","shinkenchiku_url":""},{"id":12925,"title":"加古川ウェルネスパーク","architect":"日建設計","year":1997.0,"address":"兵庫県加古川市東神吉町天下原370","latitude":34.79701232910156,"longitude":134.83741760253906,"category":"体育館/図書館/ホール・劇場","big_category":"レジャー施設,文化施設,文化施設","description":"","image_url":"","tags":"新建築1998年6月号,Ver5.20(2024年1月)の追加建築","prefecture":"兵庫","contractor":"","structural_designer":"","landscape_designer":"","shinkenchiku_url":""},{"id":12926,"title":"新井クリニック","architect":"小林克弘","year":1997.0,"address":"千葉県八千代市勝田台北3-4-27","latitude":35.71822738647461,"longitude":140.12648010253906,"category":"個人医院","big_category":"医療施設","description":"","image_url":"","tags":"新建築1998年6月号,Ver5.20(2024年1月)の追加建築","prefecture":"千葉","contractor":"","structural_designer":"","landscape_designer":"","shinkenchiku_url":""},{"id":12927,"title":"酒ミュージアム 白鹿記念酒造博物館 酒蔵館","architect":"大林組","year":1998.0,"address":"兵庫県西宮市浜町4-2","latitude":34.72856140136719,"longitude":135.33746337890625,"category":"博物館","big_category":"ミュージアム","description":"","image_url":"","tags":"新建築1998年6月号,Ver5.20(2024年1月)の追加建築","prefecture":"兵庫","contractor":"","structural_designer":"","landscape_designer":"","shinkenchiku_url":""},{"id":12928,"title":"茨城県営滑川アパート","architect":"長谷川逸子+横須賀満夫","year":1998.0,"address":"茨城県日立市滑川町2-18-12","latitude":36.613529205322266,"longitude":140.6658935546875,"category":"集合住宅","big_category":"住宅","description":"","image_url":"","tags":"新建築1998年6月号,Ver5.20(2024年1月)の追加建築","prefecture":"茨城","contractor":"","structural_designer":"","landscape_designer":"","shinkenchiku_url":""},{"id":12929,"title":"高崎シティホール 高崎市役所","architect":"久米設計","year":1998.0,"address":"群馬県高崎市高松町35-1","latitude":36.32201385498047,"longitude":139.0034942626953,"category":"庁舎","big_category":"公共施設","description":"","image_url":"","tags":"新建築1998年6月号,Ver5.20(2024年1月)の追加建築","prefecture":"群馬","contractor":"","structural_designer":"","landscape_designer":"","shinkenchiku_url":""},{"id":12930,"title":"伊勢遺跡史跡公園 展示施設","architect":"平田晃久","year":2023.0,"address":"滋賀県守山市伊勢町81","latitude":35.04009246826172,"longitude":135.9883270263672,"category":"公園/博物館","big_category":"レジャー施設,ミュージアム","description":"","image_url":"","tags":"新建築2024年1月号,Ver5.20(2024年1月)の追加建築","prefecture":"滋賀","contractor":"","structural_designer":"","landscape_designer":"","shinkenchiku_url":""},{"id":12931,"title":"川場村役場 新庁舎 川場ベース","architect":"宮崎浩","year":2023.0,"address":"群馬県利根郡川場村谷地188","latitude":36.69194793701172,"longitude":139.10324096679688,"category":"庁舎/ホール・劇場","big_category":"公共施設,文化施設","description":"","image_url":"","tags":"新建築2024年1月号,Ver5.20(2024年1月)の追加建築","prefecture":"群馬","contractor":"","structural_designer":"","landscape_designer":"","shinkenchiku_url":""},{"id":12932,"title":"MUFG PARK / LIBRARY　","architect":"三菱地所","year":2023.0,"address":"東京都西東京市柳沢4-4-40","latitude":35.7183723449707,"longitude":139.54989624023438,"category":"公園/図書館","big_category":"レジャー施設,文化施設","description":"","image_url":"","tags":"新建築2024年1月号,Ver5.20(2024年1月)の追加建築","prefecture":"東京","contractor":"","structural_designer":"","landscape_designer":"","shinkenchiku_url":""},{"id":12933,"title":"青森市新市庁舎","architect":"佐藤総合計画+八洲建築設計事務所+福士晴也+フクシアンドフクシ建築事務所","year":2019.0,"address":"青森県青森市中央1-22-5","latitude":40.82254409790039,"longitude":140.7471160888672,"category":"庁舎","big_category":"公共施設","description":"クレジット：佐藤総合計画・青森建築家集団","image_url":"","tags":"新建築2024年1月号,Ver5.20(2024年1月)の追加建築","prefecture":"青森","contractor":"","structural_designer":"","landscape_designer":"","shinkenchiku_url":""},{"id":12934,"title":"seven x seven 糸島","architect":"Studio PDP","year":2023.0,"address":"福岡県福岡市西区西浦266","latitude":33.64241027832031,"longitude":130.20220947265625,"category":"ホテル","big_category":"宿泊","description":"2024年3月1日プレオープン、4月26日開業予定","image_url":"","tags":"Ver5.20(2024年1月)の追加建築","prefecture":"福岡","contractor":"","structural_designer":"","landscape_designer":"","shinkenchiku_url":""},{"id":12935,"title":"和國商店","architect":"隈研吾+岡庭建設","year":2023.0,"address":"東京都東村山市青葉町2-5-6","latitude":35.76152038574219,"longitude":139.4873809814453,"category":"店舗/カフェ","big_category":"商業施設,商業施設","description":"デザイン監修：隈研吾。2024年1月19日オープン予定","image_url":"","tags":"Ver5.20(2024年1月)の追加建築","prefecture":"東京","contractor":"","structural_designer":"","landscape_designer":"","shinkenchiku_url":""},{"id":12936,"title":"十津川村 災害対策本部拠点施設","architect":"藤村龍至","year":2023.0,"address":"奈良県吉野郡十津川村小原225-1","latitude":33.98872375488281,"longitude":135.792724609375,"category":"公共施設","big_category":"公共施設","description":"","image_url":"","tags":"Ver5.20(2024年1月)の追加建築,新建築2024年10月号","prefecture":"奈良","contractor":"","structural_designer":"","landscape_designer":"","shinkenchiku_url":""},{"id":12937,"title":"西郷南洲顕彰館","architect":"ゲンプラン設計","year":1978.0,"address":"鹿児島県鹿児島市上竜尾町2-1","latitude":31.605926513671875,"longitude":130.5581817626953,"category":"博物館","big_category":"ミュージアム","description":"クレジット：鹿児島県建築課","image_url":"","tags":"Ver5.20(2024年1月)の追加建築","prefecture":"鹿児島","contractor":"","structural_designer":"","landscape_designer":"","shinkenchiku_url":""},{"id":12938,"title":"B.B.BOX やいづ 橋本組 新社屋","architect":"伊藤孝紀+橋本組","year":2022.0,"address":"静岡県焼津市本町2-2-1","latitude":34.86789321899414,"longitude":1146084224.0,"category":"オフィスビル","big_category":"企業施設","description":"","image_url":"","tags":"Ver5.20(2024年1月)の追加建築","prefecture":"静岡","contractor":"","structural_designer":"","landscape_designer":"","shinkenchiku_url":""},{"id":12939,"title":"山崎設備設計新社屋","architect":"石嶋寿和","year":2023.0,"address":"石川県小松市長田町ロ20-2","latitude":36.42259979248047,"longitude":136.4775390625,"category":"低層オフィス","big_category":"企業施設","description":"","image_url":"","tags":"Ver5.20(2024年1月)の追加建築","prefecture":"石川","contractor":"","structural_designer":"","landscape_designer":"","shinkenchiku_url":""},{"id":12940,"title":"Whale Brewing 呼子クラフトビール醸造所","architect":"二俣公一","year":2023.0,"address":"佐賀県唐津市呼子町呼子3764-4","latitude":33.538246154785156,"longitude":129.89529418945312,"category":"醸造所","big_category":"商業施設","description":"","image_url":"","tags":"Ver5.20(2024年1月)の追加建築","prefecture":"佐賀","contractor":"","structural_designer":"","landscape_designer":"","shinkenchiku_url":""},{"id":12941,"title":"庭の床 福武トレス Fギャラリー","architect":"TNA","year":2023.0,"address":"岡山県岡山市北区津島福居2-5-6","latitude":34.69282150268555,"longitude":133.9204864501953,"category":"ギャラリー/庭園","big_category":"ミュージアム,文化施設","description":"2024年5月17日より一般公開。予約受付開始中。隣接地に手塚建築研究所設計の「山すその家」（2006年竣工）もある","image_url":"","tags":"新建築2023年9月号,Ver5.20(2024年1月)の追加建築","prefecture":"岡山","contractor":"","structural_designer":"","landscape_designer":"","shinkenchiku_url":""},{"id":12942,"title":"日本圧着端子製造 津山寮","architect":"森山博之","year":2019.0,"address":"岡山県津山市院庄1172","latitude":35.06575012207031,"longitude":133.94931030273438,"category":"寮","big_category":"住宅","description":"","image_url":"","tags":"新建築2023年2月号,Ver5.20(2024年1月)の追加建築","prefecture":"岡山","contractor":"","structural_designer":"","landscape_designer":"","shinkenchiku_url":""},{"id":12943,"title":"TAMAKAWA UPCYCLING BASE","architect":"宮城島崇人","year":2022.0,"address":"福島県石川郡玉川村小高中畷47","latitude":37.21147918701172,"longitude":140.40878295898438,"category":"工場","big_category":"企業施設","description":"","image_url":"","tags":"新建築2023年3月号,Ver5.20(2024年1月)の追加建築","prefecture":"福島","contractor":"","structural_designer":"","landscape_designer":"","shinkenchiku_url":""},{"id":12944,"title":"直島の長屋 宮浦寮","architect":"三分一博志","year":2023.0,"address":"香川県香川郡直島町宮浦","latitude":34.45600509643555,"longitude":133.97628784179688,"category":"寮","big_category":"住宅","description":"","image_url":"","tags":"新建築2023年10月号,Ver5.20(2024年1月)の追加建築","prefecture":"香川","contractor":"","structural_designer":"","landscape_designer":"","shinkenchiku_url":""},{"id":12945,"title":"スパイスカレーと珈琲 ティケ thik hai!","architect":"荻原雅史","year":2020.0,"address":"長野県佐久市茂田井観音寺3660-10","latitude":36.28377914428711,"longitude":138.34500122070312,"category":"レストラン/住宅","big_category":"商業施設,住宅","description":"","image_url":"","tags":"Ver5.20(2024年1月)の追加建築","prefecture":"長野","contractor":"平林組","structural_designer":"","landscape_designer":"","shinkenchiku_url":""},{"id":12946,"title":"スペラール砧","architect":"篠原聡子","year":2003.0,"address":"東京都世田谷区砧4-10-18","latitude":35.640403747558594,"longitude":139.6137237548828,"category":"集合住宅","big_category":"住宅","description":"","image_url":"","tags":"Ver5.20(2024年1月)の追加建築","prefecture":"東京","contractor":"","structural_designer":"","landscape_designer":"","shinkenchiku_url":""},{"id":12947,"title":"もんとパーク","architect":"前田茂樹","year":2020.0,"address":"大阪府泉大津市東雲町1","latitude":34.50411605834961,"longitude":135.40792846679688,"category":"公園","big_category":"レジャー施設","description":"","image_url":"","tags":"Ver5.20(2024年1月)の追加建築","prefecture":"大阪","contractor":"","structural_designer":"","landscape_designer":"","shinkenchiku_url":""},{"id":12948,"title":"大阪府営泉大津なぎさ住宅","architect":"篠原聡子","year":1999.0,"address":"大阪府泉大津市なぎさ町1-1","latitude":34.508811950683594,"longitude":135.40142822265625,"category":"集合住宅","big_category":"住宅","description":"","image_url":"","tags":"Ver5.20(2024年1月)の追加建築","prefecture":"大阪","contractor":"","structural_designer":"","landscape_designer":"","shinkenchiku_url":""},{"id":12949,"title":"Yビル","architect":"中山英之","year":2009.0,"address":"東京都港区白金台5-18-2","latitude":35.63705825805664,"longitude":139.72372436523438,"category":"テナントビル","big_category":"商業施設","description":"","image_url":"","tags":"新建築2010年3月号,Ver5.20(2024年1月)の追加建築","prefecture":"東京","contractor":"","structural_designer":"","landscape_designer":"","shinkenchiku_url":""},{"id":12950,"title":"タニックスビル","architect":"竹中工務店","year":2011.0,"address":"三重県四日市市浜田町5-28","latitude":34.96573257446289,"longitude":136.61923217773438,"category":"オフィスビル","big_category":"企業施設","description":"住友電装本社","image_url":"","tags":"Ver5.20(2024年1月)の追加建築","prefecture":"三重","contractor":"","structural_designer":"","landscape_designer":"","shinkenchiku_url":""}]}