{"page":197,"total_pages":290,"items_per_page":50,"total_items":14467,"items":[{"id":9801,"title":"銀座長州屋ビル","architect":"毛綱毅曠","year":1998.0,"address":"東京都中央区銀座3-10-4","latitude":35.671485900878906,"longitude":139.76841735839844,"category":"テナントビル","description":"","image_url":""},{"id":9802,"title":"北海道釧路湖陵高等学校","architect":"毛綱毅曠","year":1990.0,"address":"北海道釧路市緑ケ岡3-1-31","latitude":42.98215866088867,"longitude":144.4093780517578,"category":"学校","description":"","image_url":""},{"id":9803,"title":"東京大学 目白台インターナショナル・ビレッジ","architect":"千葉学+今井公太郎+鴻池組","year":2019.0,"address":"東京都文京区目白台3-28-6","latitude":35.71718978881836,"longitude":139.72569274902344,"category":"寮","description":"設計クレジット：東京大学キャンパス計画室・東京大学施設部・鴻池組","image_url":""},{"id":9804,"title":"TAKANAWA SITE","architect":"千葉学","year":2020.0,"address":"東京都港区高輪1-19-10","latitude":35.63932418823242,"longitude":139.73367309570312,"category":"集合住宅","description":"","image_url":""},{"id":9805,"title":"AWAZUKU HOUSE","architect":"studio velocity","year":2020.0,"address":"愛知県額田郡幸田町大字深溝海谷16","latitude":34.82906723022461,"longitude":137.18284606933594,"category":"住宅","description":"","image_url":""},{"id":9806,"title":"中央ラインハウス小金井","architect":"北山恒+谷内田章夫+木下道郎","year":2020.0,"address":"東京都小金井市緑町1-3","latitude":35.70148849487305,"longitude":139.51821899414062,"category":"集合住宅","description":"","image_url":""},{"id":9807,"title":"はねとくも","architect":"モクチン企画","year":2020.0,"address":"埼玉県戸田市下戸田2-5-11","latitude":35.815818786621094,"longitude":139.684326171875,"category":"集合住宅","description":"","image_url":""},{"id":9808,"title":"南行徳 FROMM","architect":"トミトアーキテクチャ","year":2019.0,"address":"千葉県市川市南行徳1-12-11","latitude":35.67204666137695,"longitude":139.90487670898438,"category":"集合住宅","description":"シェアハウス","image_url":""},{"id":9809,"title":"亀崎3軒長屋","architect":"久野紀光+寺嶋利治","year":2017.0,"address":"愛知県半田市亀崎町3-153","latitude":34.9172477722168,"longitude":136.96914672851562,"category":"店舗/古民家","description":"築100年超の木造3軒長屋のコンバージョン。お菓子やさんとコーヒー店が入居","image_url":""},{"id":9810,"title":"プラウド上原フォレスト","architect":"竹中工務店","year":2020.0,"address":"東京都渋谷区上原2-14-2","latitude":35.665977478027344,"longitude":139.6821746826172,"category":"集合住宅","description":"","image_url":""},{"id":9811,"title":"ミドリノオカテラス","architect":"SUEP.","year":2020.0,"address":"東京都世田谷区野沢3-22","latitude":35.63016891479492,"longitude":139.6732635498047,"category":"集合住宅","description":"","image_url":""},{"id":9812,"title":"ニコタマテラス","architect":"奥野公章","year":2020.0,"address":"東京都世田谷区瀬田4-9","latitude":35.62012481689453,"longitude":139.62545776367188,"category":"集合住宅","description":"","image_url":""},{"id":9813,"title":"セタガヤテラス","architect":"若松均","year":2020.0,"address":"東京都世田谷区世田谷1-31","latitude":35.64078903198242,"longitude":139.64956665039062,"category":"集合住宅","description":"","image_url":""},{"id":9814,"title":"角花","architect":"川辺直哉","year":2020.0,"address":"東京都豊島区南長崎4-2-3","latitude":35.72293472290039,"longitude":139.68545532226562,"category":"集合住宅/ホテル/カフェ","description":"","image_url":""},{"id":9815,"title":"大池薬局ビル","architect":"浅井裕雄","year":2018.0,"address":"愛知県名古屋市中区千代田3-4-3","latitude":35.156272888183594,"longitude":136.91188049316406,"category":"集合住宅/店舗","description":"","image_url":""},{"id":9816,"title":"双葉町のアパートメント","architect":"MMAAA","year":2020.0,"address":"東京都板橋区双葉町27-17","latitude":35.75890350341797,"longitude":139.70278930664062,"category":"集合住宅","description":"","image_url":""},{"id":9817,"title":"早稲田大学 107号館 所沢紺碧寮","architect":"山下設計","year":2020.0,"address":"埼玉県所沢市三ケ島5-1279-1","latitude":35.790164947509766,"longitude":139.4002227783203,"category":"寮","description":"","image_url":""},{"id":9818,"title":"アネシス茶屋ヶ坂","architect":"清水建設","year":2020.0,"address":"愛知県名古屋市千種区赤坂町1-29-2","latitude":35.18266296386719,"longitude":136.9617156982422,"category":"集合住宅/寮","description":"","image_url":""},{"id":9819,"title":"横浜北仲ノット","architect":"鹿島建設","year":2020.0,"address":"神奈川県横浜市中区北仲通5-57-3","latitude":35.45122528076172,"longitude":139.6359100341797,"category":"集合住宅/複合施設","description":"","image_url":""},{"id":9820,"title":"照護寺 本堂・庫裏","architect":"浅井裕雄","year":2018.0,"address":"愛知県大府市共和町3-22-12","latitude":35.03135681152344,"longitude":136.954345703125,"category":"寺院","description":"","image_url":""},{"id":9821,"title":"泉柳寺 納骨礼拝堂","architect":"浅井裕雄","year":2018.0,"address":"愛知県東海市荒尾町泉4","latitude":35.03879165649414,"longitude":136.91412353515625,"category":"寺院","description":"","image_url":""},{"id":9822,"title":"ラ・カボット","architect":"浅井裕雄","year":2016.0,"address":"愛知県名古屋市中区新栄2-20-6","latitude":35.168216705322266,"longitude":136.920166015625,"category":"レストラン","description":"","image_url":""},{"id":9823,"title":"勝浦市芸術文化交流センター キュステ","architect":"山下設計","year":2014.0,"address":"千葉県勝浦市沢倉523-1","latitude":35.15318298339844,"longitude":140.3219757080078,"category":"ホール・劇場","description":"","image_url":""},{"id":9824,"title":"ウポポイ 民族共生象徴空間 国立アイヌ民族博物館","architect":"久米設計","year":2020.0,"address":"北海道白老郡白老町若草町2-3-2","latitude":42.559669494628906,"longitude":141.36593627929688,"category":"博物館","description":"","image_url":""},{"id":9825,"title":"ウポポイ 民族共生象徴空間 国立民族共生公園 体験交流ホール","architect":"アトリエブンク+総合設備計画","year":2020.0,"address":"北海道白老郡白老町若草町2-3-2","latitude":42.559669494628906,"longitude":141.36392211914062,"category":"博物館/ホール・劇場","description":"","image_url":""},{"id":9826,"title":"東日本大震災・原子力災害伝承館","architect":"渡部和生","year":2020.0,"address":"福島県双葉郡双葉町大字中野高田39","latitude":37.45817565917969,"longitude":141.02731323242188,"category":"博物館","description":"","image_url":""},{"id":9827,"title":"THE HIRAMATSU京都","architect":"日建設計","year":2020.0,"address":"京都府京都市中京区役行者町361","latitude":35.009559631347656,"longitude":135.75790405273438,"category":"ホテル","description":"","image_url":""},{"id":9828,"title":"ザ・ホテル青龍 京都清水 旧京都市立清水小学校","architect":"東急設計コンサルタント","year":2020.0,"address":"京都府京都市東山区清水2-204-2","latitude":34.997352600097656,"longitude":135.7797088623047,"category":"ホテル","description":"1933年竣工の小学校を改修","image_url":""},{"id":9829,"title":"MIYASHITA PARK","architect":"竹中工務店+日建設計","year":2020.0,"address":"東京都渋谷区渋谷1-26-5","latitude":35.6619758605957,"longitude":139.70179748535156,"category":"公園/モール","description":"","image_url":""},{"id":9830,"title":"新宿住友ビル","architect":"日建設計+大成建設","year":1974.0,"address":"東京都新宿区西新宿2-6-1","latitude":35.69126510620117,"longitude":139.692626953125,"category":"オフィスビル/広場","description":"2020年の改修で屋内広場が竣工","image_url":""},{"id":9831,"title":"福島ロボットテストフィールド 研究棟","architect":"山本・堀アーキテクツ+URリンケージ","year":2019.0,"address":"福島県南相馬市原町区萱浜新赤沼83","latitude":37.63129806518555,"longitude":141.01124572753906,"category":"研究施設","description":"","image_url":""},{"id":9832,"title":"オービック御堂筋ビル","architect":"鹿島建設","year":2020.0,"address":"大阪府大阪市中央区平野4-2-3","latitude":34.68717575073242,"longitude":135.50021362304688,"category":"オフィスビル/テナントビル","description":"","image_url":""},{"id":9833,"title":"双葉町産業交流センター","architect":"関・空間設計","year":2020.0,"address":"福島県双葉郡双葉町大字中野高田39","latitude":37.4572639465332,"longitude":141.02670288085938,"category":"展示・会議場/レストラン","description":"","image_url":""},{"id":9834,"title":"生闘学舎","architect":"高須賀晋","year":1980.0,"address":"東京都三宅村三宅島三宅村阿古440","latitude":34.07727813720703,"longitude":139.48016357421875,"category":"住宅","description":"","image_url":""},{"id":9835,"title":"染と茶 可部店 旧虹山画荘","architect":"高須賀晋","year":1973.0,"address":"広島県広島市安佐北区亀山7-13-5","latitude":34.5296745300293,"longitude":132.48843383789062,"category":"レストラン","description":"ステーキハウス店","image_url":""},{"id":9836,"title":"龍雲院 白山道場","architect":"高須賀晋","year":1978.0,"address":"東京都文京区白山5-5-5","latitude":35.72132110595703,"longitude":139.75025939941406,"category":"寺院","description":"","image_url":""},{"id":9837,"title":"工学院大学 軽井沢学寮","architect":"高須賀晋","year":1980.0,"address":"長野県北佐久郡軽井沢町大字軽井沢1338-98","latitude":36.368892669677734,"longitude":138.6268310546875,"category":"寮/住宅","description":"","image_url":""},{"id":9838,"title":"石原歯科医院","architect":"周防貴之","year":2018.0,"address":"岡山県岡山市東区目黒町28-3","latitude":34.66828918457031,"longitude":133.9999542236328,"category":"個人医院","description":"","image_url":""},{"id":9839,"title":"Chim↑Pom通り","architect":"周防貴之+Chim↑Pom","year":2018.0,"address":"東京都杉並区高円寺北3-4-11","latitude":35.706321716308594,"longitude":139.64707946777344,"category":"ギャラリー","description":"","image_url":""},{"id":9840,"title":"YPSILON Aoyama イプシロン 青山","architect":"谷尻誠","year":2016.0,"address":"東京都港区南青山5-16-1 青山ビル1F","latitude":35.66117477416992,"longitude":139.71417236328125,"category":"レストラン","description":"内装設計","image_url":""},{"id":9841,"title":"シモノロ・パーマネント 旧下野呂内小学校","architect":"吉田周一郎","year":2018.0,"address":"徳島県三好市池田町西山中塚1063","latitude":34.061058044433594,"longitude":133.79554748535156,"category":"店舗/カフェ","description":"旧下野呂内小学校を改装","image_url":""},{"id":9842,"title":"下館・時の蔵トイレ","architect":"吉田周一郎","year":2009.0,"address":"茨城県筑西市甲939","latitude":36.310726165771484,"longitude":139.97947692871094,"category":"トイレ","description":"","image_url":""},{"id":9843,"title":"篁","architect":"森田一弥","year":2014.0,"address":"京都府京都市東山区中之町238-1 東山祇園ビル1-A","latitude":35.00614929199219,"longitude":135.77552795410156,"category":"店舗","description":"内装設計","image_url":""},{"id":9844,"title":"ばんてら","architect":"森田一弥","year":2017.0,"address":"京都市中京区御幸町通錦小路上る舟屋町373-3 セザール御幸町1F","latitude":35.005279541015625,"longitude":135.7662811279297,"category":"店舗","description":"内装設計","image_url":""},{"id":9845,"title":"河合塾新宿校","architect":"日建設計","year":2005.0,"address":"東京都新宿区西新宿7-12-1","latitude":35.693580627441406,"longitude":139.69683837890625,"category":"専門学校","description":"","image_url":""},{"id":9846,"title":"池田20世紀美術館","architect":"井上武吉","year":1975.0,"address":"静岡県伊東市十足614","latitude":34.92164993286133,"longitude":139.10549926757812,"category":"美術館","description":"","image_url":""},{"id":9847,"title":"清澄庭園","architect":"不明","year":1880.0,"address":"東京都江東区清澄3-3","latitude":35.68062973022461,"longitude":139.79779052734375,"category":"公園","description":"深川親睦園の竣工年を記載","image_url":""},{"id":9848,"title":"清澄庭園 涼亭","architect":"保岡勝也+三菱地所","year":1909.0,"address":"東京都江東区清澄3-3","latitude":35.67997360229492,"longitude":139.797607421875,"category":"茶室","description":"","image_url":""},{"id":9849,"title":"保刈歯科醫院","architect":"保岡勝也","year":1936.0,"address":"埼玉県川越市仲町6-6","latitude":35.92151641845703,"longitude":139.4826202392578,"category":"個人医院/洋館","description":"","image_url":""},{"id":9850,"title":"旧第八十五銀行松山支店倉庫","architect":"保岡勝也","year":1931.0,"address":"埼玉県東松山市材木町5","latitude":36.04131317138672,"longitude":139.4046630859375,"category":"洋館","description":"","image_url":""}]}