{"page":13,"total_pages":290,"items_per_page":50,"total_items":14467,"items":[{"id":601,"title":"アーツ前橋 前橋市美術館","architect":"水谷俊博+坂倉建築研究所","year":2013.0,"address":"群馬県前橋市千代田町5-1","latitude":36.390716552734375,"longitude":139.0715789794922,"category":"美術館","big_category":"ミュージアム","description":"2013年秋開館。元は1987年竣工前橋西武ウォーク館を改修。","image_url":"","tags":"","prefecture":"群馬","contractor":"","structural_designer":"","landscape_designer":"","shinkenchiku_url":""},{"id":602,"title":"共愛学園前橋国際大学 4号館 KYOAI COMMONS","architect":"乾久美子","year":2011.0,"address":"群馬県前橋市小屋原町1154-4","latitude":36.35915756225586,"longitude":139.14427185058594,"category":"大学","big_category":"教育","description":"","image_url":"","tags":"2015年日本建築学会 作品選奨","prefecture":"群馬","contractor":"","structural_designer":"","landscape_designer":"","shinkenchiku_url":""},{"id":603,"title":"エルミタージュカレーム","architect":"KUS","year":2002.0,"address":"群馬県前橋市茂木町1170-1","latitude":36.410770416259766,"longitude":139.14627075195312,"category":"カフェ/店舗","big_category":"商業施設,商業施設","description":"","image_url":"","tags":"","prefecture":"群馬","contractor":"","structural_designer":"","landscape_designer":"","shinkenchiku_url":""},{"id":604,"title":"旧アメリカン・ボード宣教師館","architect":"不明","year":null,"address":"群馬県前橋市小屋原町1115-3","latitude":36.359107971191406,"longitude":139.1410675048828,"category":"洋館","big_category":"近代建築/遺産","description":"要事前申し込み","image_url":"","tags":"","prefecture":"群馬","contractor":"","structural_designer":"","landscape_designer":"","shinkenchiku_url":""},{"id":605,"title":"前橋市蚕糸記念館","architect":"不明","year":1912.0,"address":"群馬県前橋市敷島町262","latitude":36.419532775878906,"longitude":139.05026245117188,"category":"洋館","big_category":"近代建築/遺産","description":"県指定重要文化財","image_url":"","tags":"重要文化財","prefecture":"群馬","contractor":"","structural_designer":"","landscape_designer":"","shinkenchiku_url":""},{"id":606,"title":"前橋市水道資料館","architect":"不明","year":1929.0,"address":"群馬県前橋市敷島町216","latitude":36.41670608520508,"longitude":139.05438232421875,"category":"洋館","big_category":"近代建築/遺産","description":"敷島浄水場内","image_url":"","tags":"","prefecture":"群馬","contractor":"","structural_designer":"","landscape_designer":"","shinkenchiku_url":""},{"id":607,"title":"総社資料館","architect":"不明","year":null,"address":"群馬県前橋市総社町総社1500","latitude":36.408416748046875,"longitude":139.0402069091797,"category":"洋館","big_category":"近代建築/遺産","description":"","image_url":"","tags":"","prefecture":"群馬","contractor":"","structural_designer":"","landscape_designer":"","shinkenchiku_url":""},{"id":608,"title":"草津片岡鶴太郎美術館","architect":"泉幸甫","year":1998.0,"address":"群馬県吾妻郡草津町大字草津513-6","latitude":36.62406921386719,"longitude":138.59225463867188,"category":"美術館","big_category":"ミュージアム","description":"","image_url":"","tags":"","prefecture":"群馬","contractor":"","structural_designer":"","landscape_designer":"","shinkenchiku_url":""},{"id":609,"title":"草津音楽の森 国際コンサートホール","architect":"吉村順三","year":1991.0,"address":"群馬県吾妻郡草津町草津 草津音楽の森国際コンサートホール","latitude":36.63547897338867,"longitude":138.59608459472656,"category":"ホール・劇場","big_category":"文化施設","description":"","image_url":"","tags":"","prefecture":"群馬","contractor":"","structural_designer":"","landscape_designer":"","shinkenchiku_url":""},{"id":610,"title":"OTA HOUSE MUSEUM","architect":"シーラカンスアンドアソシエイツ","year":2004.0,"address":"群馬県太田市鳥山上町1654-2","latitude":36.32040023803711,"longitude":139.34471130371094,"category":"住宅/ギャラリー","big_category":"住宅,ミュージアム","description":"年数回の展覧会のみ","image_url":"","tags":"","prefecture":"群馬","contractor":"","structural_designer":"","landscape_designer":"","shinkenchiku_url":""},{"id":611,"title":"Paltown 城西の杜集会所","architect":"小嶋一浩","year":2004.0,"address":"群馬県太田市城西町716-1","latitude":36.31222915649414,"longitude":139.33824157714844,"category":"公民館・交流施設","big_category":"公共施設","description":"","image_url":"","tags":"新建築2005年1月号","prefecture":"群馬","contractor":"","structural_designer":"","landscape_designer":"","shinkenchiku_url":""},{"id":612,"title":"テクノプラザおおた","architect":"長谷川逸子","year":2008.0,"address":"群馬県太田市本町29-1","latitude":36.29785919189453,"longitude":139.37466430664062,"category":"公共施設/研究施設","big_category":"公共施設,教育","description":"","image_url":"","tags":"","prefecture":"群馬","contractor":"","structural_designer":"","landscape_designer":"","shinkenchiku_url":""},{"id":613,"title":"本陣市営住宅 太田行政センター","architect":"長谷川逸子","year":2005.0,"address":"群馬県太田市本町20-1","latitude":36.29658889770508,"longitude":139.3741912841797,"category":"公共施設","big_category":"公共施設","description":"","image_url":"","tags":"","prefecture":"群馬","contractor":"","structural_designer":"","landscape_designer":"","shinkenchiku_url":""},{"id":614,"title":"ぐんま国際アカデミー","architect":"シーラカンスアンドアソシエイツ","year":2005.0,"address":"群馬県太田市西本町69-1","latitude":36.292240142822266,"longitude":139.36026000976562,"category":"学校","big_category":"教育","description":"","image_url":"","tags":"2007年度日本建築家協会賞,2007年日本建築学会 作品選奨","prefecture":"群馬","contractor":"","structural_designer":"","landscape_designer":"","shinkenchiku_url":""},{"id":615,"title":"太田市休泊行政センター 旧太田市総合ふれあいセンター","architect":"今村雅樹","year":1998.0,"address":"群馬県太田市龍舞町4053","latitude":36.28947830200195,"longitude":139.4160614013672,"category":"公民館・交流施設/温泉","big_category":"公共施設,宿泊","description":"","image_url":"","tags":"2001年日本建築学会 作品選奨","prefecture":"群馬","contractor":"","structural_designer":"","landscape_designer":"","shinkenchiku_url":""},{"id":616,"title":"太田市沢野中央小学校","architect":"今村雅樹","year":2002.0,"address":"群馬県太田市富沢町73","latitude":36.26333999633789,"longitude":139.35800170898438,"category":"学校","big_category":"教育","description":"","image_url":"","tags":"","prefecture":"群馬","contractor":"","structural_designer":"","landscape_designer":"","shinkenchiku_url":""},{"id":617,"title":"史跡金山城跡ガイダンス施設・金山地域交流センター","architect":"隈研吾","year":2009.0,"address":"群馬県太田市金山町40-30","latitude":36.3129768371582,"longitude":139.37513732910156,"category":"博物館","big_category":"ミュージアム","description":"","image_url":"https://farm6.staticflickr.com/5339/8909992917_c4a6656852_h.jpg","tags":"","prefecture":"群馬","contractor":"","structural_designer":"","landscape_designer":"","shinkenchiku_url":""},{"id":618,"title":"旧吾妻第三小学校","architect":"不明","year":null,"address":"群馬県吾妻郡中之条町大字中之条947-1","latitude":36.58946228027344,"longitude":138.84280395507812,"category":"洋館","big_category":"近代建築/遺産","description":"","image_url":"","tags":"","prefecture":"群馬","contractor":"","structural_designer":"","landscape_designer":"","shinkenchiku_url":""},{"id":619,"title":"旧廣盛酒造所再生計画","architect":"松葉邦彦+福島慶介","year":2011.0,"address":"群馬県吾妻郡中之条町大字中之条町909-16","latitude":36.58835983276367,"longitude":138.84083557128906,"category":"博物館","big_category":"ミュージアム","description":"","image_url":"https://farm6.staticflickr.com/5478/11239822106_388e6312eb_h.jpg","tags":"第11回芦原義信 優秀賞","prefecture":"群馬","contractor":"","structural_designer":"","landscape_designer":"","shinkenchiku_url":""},{"id":620,"title":"中之条町ふるさと交流センター 「つむじ」","architect":"宮本五月夫","year":2011.0,"address":"群馬県吾妻郡中之条町中之条町（大字）938","latitude":36.58867645263672,"longitude":138.84226989746094,"category":"複合施設","big_category":"商業施設","description":"","image_url":"https://farm6.staticflickr.com/5530/11239636706_eb50a8469a_h.jpg","tags":"","prefecture":"群馬","contractor":"","structural_designer":"","landscape_designer":"","shinkenchiku_url":""},{"id":621,"title":"鬼めしセンター 岩窟ホール","architect":"池原義郎","year":1970.0,"address":"群馬県吾妻郡嬬恋村鎌原 鬼めしセンター","latitude":36.44508743286133,"longitude":138.53724670410156,"category":"カフェ","big_category":"商業施設","description":"","image_url":"","tags":"","prefecture":"群馬","contractor":"","structural_designer":"","landscape_designer":"","shinkenchiku_url":""},{"id":622,"title":"鬼石多目的ホール","architect":"妹島和世","year":2005.0,"address":"群馬県藤岡市鬼石158","latitude":36.15811538696289,"longitude":139.056884765625,"category":"公民館・交流施設/総合文化施設","big_category":"公共施設,文化施設","description":"","image_url":"https://lh3.googleusercontent.com/-lH3SY4lXG7o/T63JySZlTUI/AAAAAAAAKfo/oc1Q3ZigxDQ/s1024/P4248047.jpg","tags":"","prefecture":"群馬","contractor":"","structural_designer":"","landscape_designer":"","shinkenchiku_url":""},{"id":623,"title":"群馬県立自然史博物館・かぶら文化ホール","architect":"内井昭蔵","year":1996.0,"address":"群馬県富岡市上黒岩1674-1","latitude":36.26973342895508,"longitude":138.8671417236328,"category":"博物館","big_category":"ミュージアム","description":"","image_url":"","tags":"","prefecture":"群馬","contractor":"","structural_designer":"","landscape_designer":"","shinkenchiku_url":""},{"id":624,"title":"ガラス/影 レイクウッド富岡ゴルフクラブハウス","architect":"隈研吾","year":1996.0,"address":"群馬県富岡市小桑原432","latitude":36.289794921875,"longitude":138.93817138671875,"category":"クラブハウス/レストラン","big_category":"レジャー施設,商業施設","description":"","image_url":"","tags":"","prefecture":"群馬","contractor":"","structural_designer":"","landscape_designer":"","shinkenchiku_url":""},{"id":625,"title":"富岡市立美術博物館・福沢一郎記念美術館","architect":"柳澤孝彦","year":1995.0,"address":"群馬県富岡市黒川351-1","latitude":36.268211364746094,"longitude":138.86488342285156,"category":"美術館","big_category":"ミュージアム","description":"","image_url":"","tags":"","prefecture":"群馬","contractor":"","structural_designer":"","landscape_designer":"","shinkenchiku_url":""},{"id":626,"title":"富岡製糸場","architect":"エドモン・オーギュスト・バスチャン","year":1872.0,"address":"群馬県富岡市富岡1-1","latitude":36.25545120239258,"longitude":138.8879852294922,"category":"産業遺産","big_category":"近代建築/遺産","description":"2014年に繰糸所、西置繭所、東置繭所が国宝に指定された。2020年5月に西置繭所保存整備・耐震改修など","image_url":"","tags":"新建築2021年3月号,2022年日本建築学会 作品賞","prefecture":"群馬","contractor":"","structural_designer":"","landscape_designer":"","shinkenchiku_url":""},{"id":627,"title":"彩の国さいたま芸術劇場","architect":"香山壽夫","year":1994.0,"address":"埼玉県さいたま市中央区上峰3-15-1","latitude":35.87723922729492,"longitude":139.62191772460938,"category":"ホール・劇場","big_category":"文化施設","description":"2024年2月、2年かけた改修が完了しリニューアルオープン。改修設計も香山壽夫","image_url":"","tags":"1996年日本建築学会 作品賞,1995年村野藤吾賞","prefecture":"埼玉","contractor":"","structural_designer":"","landscape_designer":"","shinkenchiku_url":""},{"id":628,"title":"埼玉県立近代美術館","architect":"黒川紀章","year":1982.0,"address":"埼玉県さいたま市浦和区常盤9-30-1","latitude":35.869625091552734,"longitude":139.64292907714844,"category":"美術館","big_category":"ミュージアム","description":"タレル作品有り、椅子で有名","image_url":"","tags":"","prefecture":"埼玉","contractor":"","structural_designer":"","landscape_designer":"","shinkenchiku_url":""},{"id":629,"title":"芝浦工業大学 大宮キャンパス2号館","architect":"堀越英嗣","year":2011.0,"address":"埼玉県さいたま市見沼区深作307","latitude":35.95173263549805,"longitude":139.65345764160156,"category":"大学","big_category":"教育","description":"","image_url":"","tags":"","prefecture":"埼玉","contractor":"","structural_designer":"","landscape_designer":"","shinkenchiku_url":""},{"id":630,"title":"芝浦工業大学 斉藤記念館","architect":"相田武文","year":1990.0,"address":"埼玉県さいたま市見沼区大字深作307","latitude":35.95087432861328,"longitude":139.65419006347656,"category":"大学","big_category":"教育","description":"","image_url":"","tags":"","prefecture":"埼玉","contractor":"","structural_designer":"","landscape_designer":"","shinkenchiku_url":""},{"id":631,"title":"鉄道博物館","architect":"ジェイアール東日本建築設計事務所","year":2007.0,"address":"埼玉県さいたま市大宮区大成町3-47","latitude":35.922115325927734,"longitude":139.61766052246094,"category":"博物館","big_category":"ミュージアム","description":"","image_url":"","tags":"","prefecture":"埼玉","contractor":"鹿島建設","structural_designer":"","landscape_designer":"","shinkenchiku_url":""},{"id":632,"title":"埼玉県立歴史と民俗の博物館","architect":"前川國男","year":1971.0,"address":"埼玉県さいたま市大宮区高鼻町4-219","latitude":35.92118453979492,"longitude":139.63009643554688,"category":"博物館","big_category":"ミュージアム","description":"","image_url":"","tags":"公共建築百選,2002年JIA25年賞","prefecture":"埼玉","contractor":"","structural_designer":"","landscape_designer":"","shinkenchiku_url":""},{"id":633,"title":"ときがわ町体育センター せせらぎホール 旧都幾川村文化体育センター","architect":"鈴木恂","year":1997.0,"address":"埼玉県比企郡ときがわ町関堀148-1","latitude":36.00334930419922,"longitude":139.27442932128906,"category":"体育館","big_category":"レジャー施設","description":"","image_url":"","tags":"","prefecture":"埼玉","contractor":"","structural_designer":"","landscape_designer":"","shinkenchiku_url":""},{"id":634,"title":"さいたま梨花カントリークラブ 旧武蔵丘陵カントリークラブ","architect":"磯崎新","year":1987.0,"address":"埼玉県比企郡ときがわ町西平2042","latitude":35.99155044555664,"longitude":139.24571228027344,"category":"クラブハウス","big_category":"レジャー施設","description":"","image_url":"","tags":"","prefecture":"埼玉","contractor":"","structural_designer":"","landscape_designer":"","shinkenchiku_url":""},{"id":635,"title":"埼玉県立大学","architect":"山本理顕","year":1999.0,"address":"埼玉県越谷市三野宮820","latitude":35.92997741699219,"longitude":139.7552490234375,"category":"大学","big_category":"教育","description":"","image_url":"","tags":"","prefecture":"埼玉","contractor":"","structural_designer":"","landscape_designer":"","shinkenchiku_url":""},{"id":636,"title":"さいたま文学館・桶川市民ホール","architect":"柳澤孝彦","year":1997.0,"address":"埼玉県桶川市若宮1-5-9","latitude":35.996192932128906,"longitude":139.56063842773438,"category":"博物館","big_category":"ミュージアム","description":"","image_url":"","tags":"","prefecture":"埼玉","contractor":"","structural_designer":"","landscape_designer":"","shinkenchiku_url":""},{"id":637,"title":"埼玉県環境科学国際センター","architect":"横河健","year":2000.0,"address":"埼玉県加須市上種足914","latitude":36.0850830078125,"longitude":139.560302734375,"category":"博物館","big_category":"ミュージアム","description":"展示館などを見学可能","image_url":"","tags":"2002年日本建築学会 作品選奨","prefecture":"埼玉","contractor":"","structural_designer":"","landscape_designer":"","shinkenchiku_url":""},{"id":638,"title":"国営武蔵丘陵森林公園森林公園中央口センター棟","architect":"柳澤孝彦","year":2010.0,"address":"埼玉県比企郡滑川町山田738","latitude":36.085365295410156,"longitude":139.37252807617188,"category":"公園","big_category":"レジャー施設","description":"","image_url":"","tags":"","prefecture":"埼玉","contractor":"","structural_designer":"","landscape_designer":"","shinkenchiku_url":""},{"id":639,"title":"日本工業大学 百年記念館","architect":"小川次郎","year":2007.0,"address":"埼玉県南埼玉郡宮代町学園台4-1","latitude":36.02521896362305,"longitude":139.71315002441406,"category":"博物館","big_category":"ミュージアム","description":"","image_url":"","tags":"2010年日本建築学会 作品選奨","prefecture":"埼玉","contractor":"","structural_designer":"","landscape_designer":"","shinkenchiku_url":""},{"id":640,"title":"コミュニティセンター進修館","architect":"象設計集団","year":1980.0,"address":"埼玉県南埼玉郡宮代町笠原1-1-1 ","latitude":36.022762298583984,"longitude":139.72352600097656,"category":"公民館・交流施設","big_category":"公共施設","description":"","image_url":"","tags":"2008年JIA25年賞","prefecture":"埼玉","contractor":"","structural_designer":"","landscape_designer":"","shinkenchiku_url":""},{"id":641,"title":"宮代町立笠原小学校","architect":"象設計集団","year":1982.0,"address":"埼玉県南埼玉郡宮代町百間1105","latitude":36.01934051513672,"longitude":139.72137451171875,"category":"学校","big_category":"教育","description":"","image_url":"","tags":"","prefecture":"埼玉","contractor":"","structural_designer":"","landscape_designer":"","shinkenchiku_url":""},{"id":642,"title":"NEWLAND","architect":"山本和豊+二俣公一+トラフ建築設計事務所","year":2013.0,"address":"埼玉県熊谷市江南中央2-3-5","latitude":36.114925384521484,"longitude":139.33657836914062,"category":"モール/店舗","big_category":"商業施設,商業施設","description":"","image_url":"","tags":"","prefecture":"埼玉","contractor":"","structural_designer":"","landscape_designer":"","shinkenchiku_url":""},{"id":643,"title":"熊谷文化創造館 さくらめいと","architect":"池原義郎","year":1997.0,"address":"埼玉県熊谷市拾六間111-1","latitude":36.16557693481445,"longitude":139.32730102539062,"category":"ホール・劇場","big_category":"文化施設","description":"","image_url":"","tags":"","prefecture":"埼玉","contractor":"","structural_designer":"","landscape_designer":"","shinkenchiku_url":""},{"id":644,"title":"彩の国くまがやドーム","architect":"石本建築事務所","year":2003.0,"address":"埼玉県熊谷市大字上川上300","latitude":36.16636657714844,"longitude":139.4095458984375,"category":"スタジアム","big_category":"レジャー施設","description":"","image_url":"","tags":"","prefecture":"埼玉","contractor":"","structural_designer":"","landscape_designer":"","shinkenchiku_url":""},{"id":645,"title":"戸田市立芦原小学校","architect":"小泉雅生","year":2005.0,"address":"埼玉県戸田市大字新曽1961","latitude":35.824737548828125,"longitude":139.66123962402344,"category":"学校","big_category":"教育","description":"","image_url":"","tags":"","prefecture":"埼玉","contractor":"","structural_designer":"","landscape_designer":"","shinkenchiku_url":""},{"id":646,"title":"カップマルタンの休憩小屋（再現）","architect":"ル・コルビュジエ","year":1952.0,"address":"埼玉県行田市前谷333","latitude":36.11410903930664,"longitude":139.45726013183594,"category":"住宅","big_category":"住宅","description":"2010～11年に卒業制作として休憩小屋を実測・再現。隣地にアトリエも再現されている","image_url":"","tags":"","prefecture":"埼玉","contractor":"","structural_designer":"","landscape_designer":"","shinkenchiku_url":""},{"id":647,"title":"鴻巣市文化センター クレアこうのす","architect":"小泉雅生+シーラカンスアンドアソシエイツ","year":2000.0,"address":"埼玉県鴻巣市中央29-1","latitude":36.067501068115234,"longitude":139.5225067138672,"category":"ホール・劇場/総合文化施設","big_category":"文化施設,文化施設","description":"","image_url":"","tags":"2002年日本建築学会 作品選奨","prefecture":"埼玉","contractor":"","structural_designer":"","landscape_designer":"","shinkenchiku_url":""},{"id":648,"title":"川里ふるさと館","architect":"相田武文","year":1993.0,"address":"埼玉県鴻巣市関新田1281-1","latitude":36.09893035888672,"longitude":139.52645874023438,"category":"図書館/公共施設","big_category":"文化施設,公共施設","description":"","image_url":"","tags":"新建築1994年7月号","prefecture":"埼玉","contractor":"","structural_designer":"","landscape_designer":"","shinkenchiku_url":""},{"id":649,"title":"城西大学 経営学部棟","architect":"studio SUMO","year":2006.0,"address":"埼玉県坂戸市けやき台1-1","latitude":35.93244171142578,"longitude":139.3392791748047,"category":"大学","big_category":"教育","description":"","image_url":"","tags":"","prefecture":"埼玉","contractor":"","structural_designer":"","landscape_designer":"","shinkenchiku_url":""},{"id":650,"title":"坂戸歴史民俗資料館 旧勝呂小学校校舎","architect":"不明","year":null,"address":"埼玉県坂戸市石井1800-2","latitude":35.97657775878906,"longitude":139.41941833496094,"category":"洋館","big_category":"近代建築/遺産","description":"","image_url":"","tags":"","prefecture":"埼玉","contractor":"","structural_designer":"","landscape_designer":"","shinkenchiku_url":""}]}