{"page":33,"total_pages":290,"items_per_page":50,"total_items":14467,"items":[{"id":1601,"title":"茅野市民館","architect":"古谷誠章","year":2005.0,"address":"長野県茅野市仲町1-22","latitude":35.99427032470703,"longitude":138.1527099609375,"category":"総合文化施設/ギャラリー/図書館","big_category":"文化施設,ミュージアム,文化施設","description":"","image_url":"https://farm4.staticflickr.com/3752/8921277183_461857915a_h.jpg","tags":"2007年日本建築学会 作品賞,2006年度日本建築家協会賞,2007年日本建築学会 作品選奨,新建築2005年11月号","prefecture":"長野","contractor":"","structural_designer":"","landscape_designer":"","shinkenchiku_url":""},{"id":1602,"title":"茅野市神長官守矢史料館","architect":"藤森照信","year":1991.0,"address":"長野県茅野市宮川389-1","latitude":35.995513916015625,"longitude":138.1279754638672,"category":"美術館","big_category":"ミュージアム","description":"","image_url":"https://farm6.staticflickr.com/5502/9454551635_2d34bee89b_h.jpg","tags":"","prefecture":"長野","contractor":"","structural_designer":"","landscape_designer":"","shinkenchiku_url":""},{"id":1603,"title":"駒ヶ根高原美術館","architect":"ヤマウラ一級建築士事務所","year":1993.0,"address":"長野県駒ヶ根市赤穂88","latitude":35.73524856567383,"longitude":137.89816284179688,"category":"美術館","big_category":"ミュージアム","description":"","image_url":"","tags":"","prefecture":"長野","contractor":"","structural_designer":"","landscape_designer":"","shinkenchiku_url":""},{"id":1604,"title":"駒ヶ根郷土館","architect":"不明","year":1922.0,"address":"長野県駒ヶ根市赤穂24","latitude":35.73369598388672,"longitude":137.90231323242188,"category":"洋館","big_category":"近代建築/遺産","description":"","image_url":"","tags":"","prefecture":"長野","contractor":"","structural_designer":"","landscape_designer":"","shinkenchiku_url":""},{"id":1605,"title":"軽井沢の山荘","architect":"吉村順三","year":1962.0,"address":"長野県北佐久郡軽井沢町軽井沢","latitude":36.363426208496094,"longitude":138.63998413085938,"category":"住宅","big_category":"住宅","description":"","image_url":"","tags":"","prefecture":"長野","contractor":"","structural_designer":"","landscape_designer":"","shinkenchiku_url":""},{"id":1606,"title":"軽井沢ルヴァン美術館","architect":"坂倉アトリエ+西村伊作","year":1997.0,"address":"長野県北佐久郡軽井沢町長倉957-10","latitude":36.32756042480469,"longitude":138.58482360839844,"category":"美術館","big_category":"ミュージアム","description":"設計は坂倉アトリエ。1921年に西村伊作が創立した文化学院の最初の校舎をほぼ再現との記述があるため西村伊作の名前を併記してあります。","image_url":"","tags":"","prefecture":"長野","contractor":"","structural_designer":"","landscape_designer":"","shinkenchiku_url":""},{"id":1607,"title":"旧軽井沢倶楽部ハウス","architect":"團紀彦","year":1996.0,"address":"長野県北佐久郡軽井沢町大字軽井沢1370-329","latitude":36.372047424316406,"longitude":138.62290954589844,"category":"レストラン","big_category":"商業施設","description":"","image_url":"","tags":"","prefecture":"長野","contractor":"","structural_designer":"","landscape_designer":"","shinkenchiku_url":""},{"id":1608,"title":"田崎美術館","architect":"原広司","year":1986.0,"address":"長野県北佐久郡軽井沢町大字長倉横吹2141-279","latitude":36.35858154296875,"longitude":138.58360290527344,"category":"美術館","big_category":"ミュージアム","description":"","image_url":"","tags":"1986年日本建築学会 作品賞","prefecture":"長野","contractor":"","structural_designer":"","landscape_designer":"","shinkenchiku_url":""},{"id":1609,"title":"脇田邸","architect":"吉村順三","year":1970.0,"address":"長野県北佐久郡軽井沢町旧道1570-4","latitude":36.35118103027344,"longitude":138.6337127685547,"category":"住宅","big_category":"住宅","description":"毎年秋に数日程度一般公開。2019年は11/3～6","image_url":"","tags":"","prefecture":"長野","contractor":"","structural_designer":"","landscape_designer":"","shinkenchiku_url":""},{"id":1610,"title":"ギャラリー桜の木 軽井沢店","architect":"中村拓志","year":2007.0,"address":"長野県北佐久郡軽井沢町軽井沢(大字)1151-21","latitude":36.34983825683594,"longitude":138.63461303710938,"category":"ギャラリー","big_category":"ミュージアム","description":"","image_url":"","tags":"","prefecture":"長野","contractor":"","structural_designer":"","landscape_designer":"","shinkenchiku_url":""},{"id":1611,"title":"平岡篤頼文庫","architect":"内藤廣","year":2009.0,"address":"長野県北佐久郡軽井沢町追分5675","latitude":36.33730697631836,"longitude":138.53968811035156,"category":"博物館","big_category":"ミュージアム","description":"","image_url":"","tags":"","prefecture":"長野","contractor":"","structural_designer":"","landscape_designer":"","shinkenchiku_url":""},{"id":1612,"title":"ショーハウス記念館","architect":"不明","year":1888.0,"address":"長野県北佐久郡軽井沢町軽井沢(大字)57-1","latitude":36.362144470214844,"longitude":138.63900756835938,"category":"洋館","big_category":"近代建築/遺産","description":"11/1～3/31は休館","image_url":"","tags":"","prefecture":"長野","contractor":"","structural_designer":"","landscape_designer":"","shinkenchiku_url":""},{"id":1613,"title":"軽井沢クリークガーデン","architect":"山本良介","year":2005.0,"address":"長野県北佐久郡軽井沢町軽井沢（大字）-701","latitude":36.36027908325195,"longitude":138.6377410888672,"category":"結婚式場","big_category":"宗教","description":"","image_url":"","tags":"","prefecture":"長野","contractor":"","structural_designer":"","landscape_designer":"","shinkenchiku_url":""},{"id":1614,"title":"脇田美術館","architect":"鹿島建設","year":1991.0,"address":"長野県北佐久郡軽井沢町旧道1570-4","latitude":36.35093688964844,"longitude":138.6334991455078,"category":"美術館","big_category":"ミュージアム","description":"","image_url":"","tags":"","prefecture":"長野","contractor":"","structural_designer":"","landscape_designer":"","shinkenchiku_url":""},{"id":1615,"title":"軽井沢大賀ホール","architect":"鹿島建設","year":2004.0,"address":"長野県北佐久郡軽井沢町軽井沢東28-4","latitude":36.34571075439453,"longitude":138.6384735107422,"category":"ホール・劇場","big_category":"文化施設","description":"","image_url":"","tags":"","prefecture":"長野","contractor":"","structural_designer":"","landscape_designer":"","shinkenchiku_url":""},{"id":1616,"title":"軽井沢町歴史民俗資料館分室市村記念館 旧近衛別荘","architect":"不明","year":1918.0,"address":"長野県北佐久郡軽井沢町大字長倉2112-21","latitude":36.34482955932617,"longitude":138.60508728027344,"category":"洋館","big_category":"近代建築/遺産","description":"","image_url":"","tags":"","prefecture":"長野","contractor":"","structural_designer":"","landscape_designer":"","shinkenchiku_url":""},{"id":1617,"title":"軽井沢・プリンスショッピングプラザ　ニューイースト・ピッコラロトンダ","architect":"池原義郎","year":1998.0,"address":"長野県北佐久郡軽井沢町軽井沢(大字)1178-79","latitude":36.340789794921875,"longitude":138.63780212402344,"category":"モール","big_category":"商業施設","description":"2000年にニューウェスト、2004年にニューイースト","image_url":"","tags":"","prefecture":"長野","contractor":"","structural_designer":"","landscape_designer":"","shinkenchiku_url":""},{"id":1618,"title":"飯箸邸 旧ドメイヌ・ドゥ・ミクニ","architect":"坂倉準三","year":1941.0,"address":"長野県北佐久郡軽井沢町追分46-13","latitude":36.33036422729492,"longitude":138.52906799316406,"category":"住宅/レストラン","big_category":"住宅,商業施設","description":"ドメイヌ・ドゥ・ミクニは2023年閉店し、2023年末にイタリアン「飯箸邸」としてオープン。住宅時の名称も飯箸邸。","image_url":"","tags":"DOCOMOMO","prefecture":"長野","contractor":"","structural_designer":"","landscape_designer":"","shinkenchiku_url":""},{"id":1619,"title":"軽井沢千住博美術館","architect":"西沢立衛","year":2011.0,"address":"長野県北佐久郡軽井沢町長倉815","latitude":36.335453033447266,"longitude":138.59730529785156,"category":"美術館","big_category":"ミュージアム","description":"","image_url":"https://farm9.staticflickr.com/8547/8923863041_17a1145b15_h.jpg","tags":"","prefecture":"長野","contractor":"","structural_designer":"","landscape_designer":"","shinkenchiku_url":""},{"id":1620,"title":"軽井沢 石の教会 内村鑑三記念堂","architect":"ケンドリック・ケロッグ","year":1988.0,"address":"長野県北佐久郡軽井沢町長倉3366","latitude":36.3555908203125,"longitude":138.58767700195312,"category":"教会","big_category":"宗教","description":"","image_url":"https://farm8.staticflickr.com/7412/8954815565_af69987f5f_h.jpg","tags":"","prefecture":"長野","contractor":"","structural_designer":"","landscape_designer":"","shinkenchiku_url":""},{"id":1621,"title":"セゾン現代美術館","architect":"菊竹清訓","year":1997.0,"address":"長野県北佐久郡軽井沢町長倉2140","latitude":36.36772918701172,"longitude":138.58340454101562,"category":"美術館","big_category":"ミュージアム","description":"","image_url":"https://lh3.googleusercontent.com/-4Ush6ImqZzE/UdzU-a6iPfI/AAAAAAAA96o/763owZi8YTg/s1024/lr-6141167.jpg","tags":"","prefecture":"長野","contractor":"","structural_designer":"","landscape_designer":"","shinkenchiku_url":""},{"id":1622,"title":"軽井沢ニューアートミュージアム","architect":"西森陸雄","year":2007.0,"address":"長野県北佐久郡軽井沢町軽井沢1151-5","latitude":36.34953689575195,"longitude":138.63465881347656,"category":"美術館","big_category":"ミュージアム","description":"4/27開館","image_url":"https://lh3.googleusercontent.com/-o5lG5KFZ6sU/UCi2UWL0VTI/AAAAAAAAV0c/Gx1fbTvrbZM/s1024/lr-6273758.jpg","tags":"","prefecture":"長野","contractor":"","structural_designer":"","landscape_designer":"","shinkenchiku_url":""},{"id":1623,"title":"軽井沢聖パウロカトリック教会","architect":"アントニン・レーモンド","year":1935.0,"address":"長野県北佐久郡軽井沢町軽井沢（大字）-179","latitude":36.35973358154297,"longitude":138.6341094970703,"category":"教会","big_category":"宗教","description":"","image_url":"https://lh3.googleusercontent.com/-VO2BhaYp4BQ/UCipcHoeU4I/AAAAAAAASeU/O0GayfrUjpQ/s1024/lr-6273819.jpg","tags":"DOCOMOMO","prefecture":"長野","contractor":"","structural_designer":"","landscape_designer":"","shinkenchiku_url":""},{"id":1624,"title":"朝吹山荘 睡鳩荘","architect":"ウィリアム・メレル・ヴォーリズ","year":1931.0,"address":"長野県北佐久郡軽井沢町塩沢湖217 軽井沢タリアセン内","latitude":36.3294677734375,"longitude":138.59776306152344,"category":"住宅","big_category":"住宅","description":"","image_url":"https://farm3.staticflickr.com/2880/9259919270_14f4690577_h.jpg","tags":"","prefecture":"長野","contractor":"","structural_designer":"","landscape_designer":"","shinkenchiku_url":""},{"id":1625,"title":"ザ・プリンス軽井沢","architect":"清家清","year":1982.0,"address":"長野県北佐久郡軽井沢町軽井沢(大字) ザ・プリンス軽井沢","latitude":36.329620361328125,"longitude":138.637451171875,"category":"ホテル","big_category":"宿泊","description":"","image_url":"https://farm3.staticflickr.com/2859/9457355404_cdec2f3d80_h.jpg","tags":"","prefecture":"長野","contractor":"","structural_designer":"","landscape_designer":"","shinkenchiku_url":""},{"id":1626,"title":"軽井沢夏の家 ペイネ美術館","architect":"アントニン・レーモンド","year":1933.0,"address":"長野県北佐久郡軽井沢町塩沢湖217 軽井沢タリアセン内","latitude":36.3291015625,"longitude":138.59446716308594,"category":"美術館","big_category":"ミュージアム","description":"","image_url":"https://farm8.staticflickr.com/7300/9259110826_fae11c79ba_h.jpg","tags":"重要文化財","prefecture":"長野","contractor":"","structural_designer":"","landscape_designer":"","shinkenchiku_url":""},{"id":1627,"title":"ハルニレテラス","architect":"東利恵","year":2009.0,"address":"長野県北佐久郡軽井沢町長倉2148-7","latitude":36.35917663574219,"longitude":138.59042358398438,"category":"モール","big_category":"商業施設","description":"","image_url":"https://lh3.googleusercontent.com/-PU7iKPQDTM8/UOg4oTY2mWI/AAAAAAAAyqg/lTriCHf8Ojo/s1024/lr-203725.jpg","tags":"","prefecture":"長野","contractor":"","structural_designer":"","landscape_designer":"","shinkenchiku_url":""},{"id":1628,"title":"旧三笠ホテル","architect":"不明","year":1905.0,"address":"長野県北佐久郡軽井沢町軽井沢1339-342","latitude":36.373199462890625,"longitude":138.62623596191406,"category":"ホテル/博物館/洋館","big_category":"宿泊,ミュージアム,近代建築/遺産","description":"","image_url":"https://lh3.googleusercontent.com/-hw5Z0Eu3NZs/UOg6QYFPZ_I/AAAAAAAAy2k/lflfWqB82W8/s1024/lr-203771.jpg","tags":"重要文化財","prefecture":"長野","contractor":"","structural_designer":"","landscape_designer":"","shinkenchiku_url":""},{"id":1629,"title":"軽井沢千住博美術館 付属施設","architect":"安井秀夫","year":2011.0,"address":"長野県軽井沢町長倉塩沢815","latitude":36.335838317871094,"longitude":138.59616088867188,"category":"店舗","big_category":"商業施設","description":"","image_url":"https://lh3.googleusercontent.com/-O-vEtPP1WS0/TsUysRNdExI/AAAAAAAAC3s/cPmrDDaR7d4/s1024/PB040010.JPG","tags":"","prefecture":"長野","contractor":"","structural_designer":"","landscape_designer":"","shinkenchiku_url":""},{"id":1630,"title":"フォレスターナ軽井沢","architect":"清野燿聖","year":2008.0,"address":"長野県北佐久郡軽井沢町軽井沢(大字)1062-69","latitude":36.33369827270508,"longitude":138.63258361816406,"category":"結婚式場","big_category":"宗教","description":"","image_url":"https://lh3.googleusercontent.com/-RdgbIKKLBv8/UdzUGaWy9zI/AAAAAAAA92Y/Vo73FfGEBqc/s1440/lr-6140957.jpg","tags":"","prefecture":"長野","contractor":"","structural_designer":"","landscape_designer":"","shinkenchiku_url":""},{"id":1631,"title":"軽井沢プリンスホテル イースト","architect":"黒川紀章","year":1973.0,"address":"長野県北佐久郡軽井沢町軽井沢(大字)1016-75","latitude":36.33875274658203,"longitude":138.63906860351562,"category":"ホテル","big_category":"宿泊","description":"","image_url":"https://lh3.googleusercontent.com/-K1ThkOhypps/UdzTrWWAaLI/AAAAAAAA9zs/dOUjH4f117Y/s1024/lr-6141017.jpg","tags":"","prefecture":"長野","contractor":"","structural_designer":"","landscape_designer":"","shinkenchiku_url":""},{"id":1632,"title":"軽井沢高原文庫","architect":"GK設計","year":1985.0,"address":"長野県北佐久郡軽井沢町塩沢湖217 軽井沢タリアセン内","latitude":36.32721710205078,"longitude":138.59716796875,"category":"博物館","big_category":"ミュージアム","description":"","image_url":"https://lh3.googleusercontent.com/-moftJYIpqOs/UdzWJbVO3II/AAAAAAAA-AQ/VL7t6bn21NI/s1024/lr-6141134.jpg","tags":"","prefecture":"長野","contractor":"","structural_designer":"","landscape_designer":"","shinkenchiku_url":""},{"id":1633,"title":"八ヶ岳美術館 原村歴史民俗資料館","architect":"村野藤吾","year":1979.0,"address":"長野県諏訪郡原村17217-1611","latitude":35.96805191040039,"longitude":138.2769012451172,"category":"美術館","big_category":"ミュージアム","description":"","image_url":"https://farm4.staticflickr.com/3691/8936108747_3c0072c690_h.jpg","tags":"2010年JIA25年賞","prefecture":"長野","contractor":"","structural_designer":"","landscape_designer":"","shinkenchiku_url":""},{"id":1634,"title":"エコールみよた","architect":"仙田満","year":2002.0,"address":"長野県北佐久郡御代田町馬瀬口1901","latitude":36.32158660888672,"longitude":138.5061492919922,"category":"総合文化施設","big_category":"文化施設","description":"","image_url":"","tags":"","prefecture":"長野","contractor":"","structural_designer":"","landscape_designer":"","shinkenchiku_url":""},{"id":1635,"title":"更埴市教育資料館 旧屋代小学校","architect":"不明","year":1888.0,"address":"長野県更埴市屋代2111","latitude":36.5360107421875,"longitude":138.1253662109375,"category":"洋館","big_category":"近代建築/遺産","description":"","image_url":"","tags":"","prefecture":"長野","contractor":"","structural_designer":"","landscape_designer":"","shinkenchiku_url":""},{"id":1636,"title":"歴史公園信州高山 一茶ゆかりの里 一茶館","architect":"岡田新一","year":1996.0,"address":"長野県上高井郡高山村高井5161-1","latitude":36.68028259277344,"longitude":138.35928344726562,"category":"博物館","big_category":"ミュージアム","description":"","image_url":"","tags":"","prefecture":"長野","contractor":"","structural_designer":"","landscape_designer":"","shinkenchiku_url":""},{"id":1637,"title":"旧中込学校","architect":"不明","year":null,"address":"長野県佐久市中込1877-1","latitude":36.23710632324219,"longitude":138.47256469726562,"category":"洋館","big_category":"近代建築/遺産","description":"","image_url":"","tags":"","prefecture":"長野","contractor":"","structural_designer":"","landscape_designer":"","shinkenchiku_url":""},{"id":1638,"title":"佐久市こども未来館","architect":"仙田満","year":2001.0,"address":"長野県佐久市岩村田","latitude":36.271568298339844,"longitude":138.475830078125,"category":"児童施設","big_category":"教育","description":"","image_url":"","tags":"","prefecture":"長野","contractor":"","structural_designer":"","landscape_designer":"","shinkenchiku_url":""},{"id":1639,"title":"奥村土牛記念美術館","architect":"不明","year":1990.0,"address":"長野県南佐久郡佐久穂町大字穂積1429-1","latitude":36.13420486450195,"longitude":138.47666931152344,"category":"美術館","big_category":"ミュージアム","description":"","image_url":"","tags":"","prefecture":"長野","contractor":"","structural_designer":"","landscape_designer":"","shinkenchiku_url":""},{"id":1640,"title":"森工房","architect":"原広司","year":1981.0,"address":"長野県埴科郡坂城町大字坂城四ツ屋9180-1","latitude":36.456905364990234,"longitude":138.1915740966797,"category":"美術館","big_category":"ミュージアム","description":"","image_url":"","tags":"","prefecture":"長野","contractor":"","structural_designer":"","landscape_designer":"","shinkenchiku_url":""},{"id":1641,"title":"山ノ内町立志賀高原ロマン美術館","architect":"黒川紀章","year":1997.0,"address":"長野県下高井郡山ノ内町平穏1465","latitude":36.72795867919922,"longitude":138.4441680908203,"category":"美術館","big_category":"ミュージアム","description":"","image_url":"","tags":"","prefecture":"長野","contractor":"","structural_designer":"","landscape_designer":"","shinkenchiku_url":""},{"id":1642,"title":"金具屋 渋温泉","architect":"不明","year":null,"address":"長野県下高井郡山ノ内町大字平穏2202","latitude":36.734771728515625,"longitude":138.4329376220703,"category":"旅館","big_category":"宿泊","description":"","image_url":"","tags":"","prefecture":"長野","contractor":"","structural_designer":"","landscape_designer":"","shinkenchiku_url":""},{"id":1643,"title":"志賀山文庫 旧渋沢信雄邸","architect":"不明","year":1938.0,"address":"長野県下高井郡山ノ内町平穏1393-6","latitude":36.729331970214844,"longitude":138.44171142578125,"category":"洋館","big_category":"近代建築/遺産","description":"","image_url":"","tags":"","prefecture":"長野","contractor":"","structural_designer":"","landscape_designer":"","shinkenchiku_url":""},{"id":1644,"title":"小海町高原美術館","architect":"安藤忠雄","year":1997.0,"address":"長野県南佐久郡小海町豊里5918-2","latitude":36.05894470214844,"longitude":138.44049072265625,"category":"美術館","big_category":"ミュージアム","description":"","image_url":"https://farm9.staticflickr.com/8550/8888776828_df5551b095_h.jpg","tags":"","prefecture":"長野","contractor":"","structural_designer":"","landscape_designer":"","shinkenchiku_url":""},{"id":1645,"title":"小山敬三美術館","architect":"村野藤吾","year":1975.0,"address":"長野県小諸市丁221","latitude":36.328697204589844,"longitude":138.41513061523438,"category":"美術館","big_category":"ミュージアム","description":"","image_url":"","tags":"新建築1976年1月号","prefecture":"長野","contractor":"","structural_designer":"","landscape_designer":"","shinkenchiku_url":""},{"id":1646,"title":"安藤百福記念 自然体験活動指導者養成センター","architect":"隈研吾","year":2010.0,"address":"長野県小諸市大久保1100","latitude":36.3237190246582,"longitude":138.39459228515625,"category":"研修施設","big_category":"教育","description":"","image_url":"","tags":"新建築2010年7月号","prefecture":"長野","contractor":"","structural_designer":"","landscape_designer":"","shinkenchiku_url":""},{"id":1647,"title":"小谷村郷土館","architect":"不明","year":null,"address":"長野県北安曇郡小谷村中小谷丙131","latitude":36.77924346923828,"longitude":137.90818786621094,"category":"洋館","big_category":"近代建築/遺産","description":"","image_url":"","tags":"","prefecture":"長野","contractor":"","structural_designer":"","landscape_designer":"","shinkenchiku_url":""},{"id":1648,"title":"小布施町立図書館 まちとしょテラソ","architect":"古谷誠章","year":2009.0,"address":"長野県上高井郡小布施町小布施1491-2","latitude":36.69773483276367,"longitude":138.31251525878906,"category":"図書館","big_category":"文化施設","description":"","image_url":"https://farm8.staticflickr.com/7406/9260497844_cc23eb5baf_h.jpg","tags":"2012年日本建築学会 作品選奨","prefecture":"長野","contractor":"","structural_designer":"","landscape_designer":"","shinkenchiku_url":""},{"id":1649,"title":"信州小布施 北斎館","architect":"宮本忠長","year":1976.0,"address":"長野県上高井郡小布施町大字小布施東町485","latitude":36.69163513183594,"longitude":138.31912231445312,"category":"博物館","big_category":"ミュージアム","description":"","image_url":"","tags":"","prefecture":"長野","contractor":"","structural_designer":"","landscape_designer":"","shinkenchiku_url":""},{"id":1650,"title":"安曇野ちひろ美術館","architect":"内藤廣","year":1996.0,"address":"長野県北安曇郡松川村（その他）-3358-24","latitude":36.41493225097656,"longitude":137.8441619873047,"category":"美術館","big_category":"ミュージアム","description":"","image_url":"https://farm6.staticflickr.com/5343/9260149134_31b8f61e44_h.jpg","tags":"","prefecture":"長野","contractor":"","structural_designer":"","landscape_designer":"","shinkenchiku_url":""}]}