{"page":23,"total_pages":290,"items_per_page":50,"total_items":14467,"items":[{"id":1101,"title":"順天堂大学センチュリータワー","architect":"ノーマン・フォスター","year":1991.0,"address":"東京都文京区本郷2-2-9","latitude":35.70232391357422,"longitude":139.75973510742188,"category":"大学/オフィスビル","description":"","image_url":""},{"id":1102,"title":"東京カテドラル聖マリア大聖堂","architect":"丹下健三","year":1964.0,"address":"東京都文京区関口3-16-15","latitude":35.71426010131836,"longitude":139.72653198242188,"category":"教会","description":"","image_url":"https://farm8.staticflickr.com/7455/8907723067_a7126ede05_h.jpg"},{"id":1103,"title":"Treform","architect":"西沢立衛+小川晋一+千葉学","year":2012.0,"address":"東京都豊島区南大塚2-17-3","latitude":35.726314544677734,"longitude":139.7322235107422,"category":"集合住宅","description":"W棟：西沢立衛/E棟：千葉学/N棟：小川晋一","image_url":""},{"id":1104,"title":"昭和鉄道高等学校","architect":"北川原温","year":2004.0,"address":"東京都豊島区池袋本町2-10-1","latitude":35.740318298339844,"longitude":139.7096710205078,"category":"学校","description":"","image_url":""},{"id":1105,"title":"立教大学 図書館","architect":"丹下健三","year":1960.0,"address":"東京都豊島区西池袋3-34-1","latitude":35.730316162109375,"longitude":139.70184326171875,"category":"図書館","description":"","image_url":""},{"id":1106,"title":"雑司が谷旧宣教師館","architect":"ジョン・マッケーレブ","year":1907.0,"address":"東京都豊島区雑司が谷1-25-5","latitude":35.72074508666992,"longitude":139.7205810546875,"category":"洋館","description":"","image_url":""},{"id":1107,"title":"熊谷守一美術館","architect":"岡秀世","year":1985.0,"address":"東京都豊島区千早2-27-6","latitude":35.73373031616211,"longitude":139.6908721923828,"category":"美術館","description":"","image_url":""},{"id":1108,"title":"和世陀:幻想の響き ドラード早稲田","architect":"梵寿綱","year":1984.0,"address":"東京都新宿区早稲田鶴巻町517","latitude":35.7082633972168,"longitude":139.72190856933594,"category":"集合住宅","description":"平日のみ。Art Complex04","image_url":""},{"id":1109,"title":"東京音楽大学100周年記念本館","architect":"久米設計","year":2007.0,"address":"東京都豊島区南池袋3-4-5","latitude":35.72310256958008,"longitude":139.71437072753906,"category":"大学","description":"","image_url":""},{"id":1110,"title":"切手の博物館","architect":"谷口宗彦","year":1996.0,"address":"東京都豊島区目白1-4-23","latitude":35.718292236328125,"longitude":139.705810546875,"category":"博物館","description":"","image_url":""},{"id":1111,"title":"自由学園 明日館","architect":"フランク・ロイド・ライト+遠藤新","year":1927.0,"address":"東京都豊島区西池袋2-31-3","latitude":35.726688385009766,"longitude":139.70726013183594,"category":"学校","description":"","image_url":"https://farm4.staticflickr.com/3773/8958704256_b8f277e16a_h.jpg"},{"id":1112,"title":"旧古河庭園 大谷美術館","architect":"ジョサイア・コンドル","year":1917.0,"address":"東京都北区西ヶ原1-27 ","latitude":35.74308395385742,"longitude":139.74588012695312,"category":"洋館","description":"復葉書による事前の申込み","image_url":""},{"id":1113,"title":"東京都北清掃工場","architect":"石山修武","year":1998.0,"address":"東京都北区志茂1-2-36","latitude":35.77584457397461,"longitude":139.7319793701172,"category":"工場/公共施設","description":"","image_url":""},{"id":1114,"title":"渋沢史料館","architect":"佐藤総合計画","year":1998.0,"address":"東京都北区西ヶ原2-16-1","latitude":35.7491569519043,"longitude":139.73927307128906,"category":"博物館","description":"","image_url":""},{"id":1115,"title":"青淵文庫／晩香廬","architect":"田辺淳吉","year":1917.0,"address":"東京都北区西ヶ原2-16-1","latitude":35.74917221069336,"longitude":139.73974609375,"category":"図書館","description":"","image_url":""},{"id":1116,"title":"ヌーヴェル赤羽台 3・4号棟 B1街区","architect":"古谷誠章+篠原聡子+日東設計","year":2010.0,"address":"東京都北区赤羽台2-3-4","latitude":35.776649475097656,"longitude":139.71400451660156,"category":"集合住宅","description":"","image_url":""},{"id":1117,"title":"紙の博物館","architect":"佐藤総合計画","year":1997.0,"address":"東京都北区王子1-1-3","latitude":35.74986267089844,"longitude":139.7386932373047,"category":"博物館","description":"","image_url":""},{"id":1118,"title":"アサヒビール吾妻橋ビル／スーパードライホール","architect":"フィリップ・スタルク","year":1989.0,"address":"東京都墨田区吾妻橋1-23-1","latitude":35.70981216430664,"longitude":139.80029296875,"category":"企業施設","description":"","image_url":""},{"id":1119,"title":"東京スカイツリー","architect":"日建設計","year":2012.0,"address":"東京都墨田区押上1-1-2","latitude":35.70991516113281,"longitude":139.81077575683594,"category":"観光施設","description":"日本建築家協会賞受賞者名：亀井忠夫、慶伊道夫、吉野繁、土屋中、小西厚夫、土屋哲夫","image_url":""},{"id":1120,"title":"復興記念館","architect":"伊東忠太+佐野利器","year":1931.0,"address":"東京都墨田区横綱2-3-2","latitude":35.69986343383789,"longitude":139.79690551757812,"category":"博物館","description":"","image_url":""},{"id":1121,"title":"東京都慰霊堂 旧震災祈念堂","architect":"伊東忠太","year":1930.0,"address":"東京都墨田区横網2-3-2","latitude":35.699127197265625,"longitude":139.7960662841797,"category":"寺院","description":"","image_url":""},{"id":1122,"title":"YKK R&D センター","architect":"槇文彦","year":1993.0,"address":"東京都墨田区亀沢3-22-1","latitude":35.698585510253906,"longitude":139.80311584472656,"category":"企業施設","description":"","image_url":""},{"id":1123,"title":"ユートリア すみだ生涯学習センター","architect":"長谷川逸子","year":1994.0,"address":"東京都墨田区東向島2-38-7","latitude":35.72105026245117,"longitude":139.8183135986328,"category":"総合文化施設","description":"","image_url":""},{"id":1124,"title":"江戸東京博物館","architect":"菊竹清訓","year":1993.0,"address":"東京都墨田区横網1-4-1","latitude":35.69664764404297,"longitude":139.79595947265625,"category":"博物館","description":"","image_url":""},{"id":1125,"title":"東工大蔵前会館 Tokyo Tech Front","architect":"坂本一成","year":2009.0,"address":"東京都目黒区大岡山2-12-1","latitude":35.607460021972656,"longitude":139.68466186523438,"category":"大学","description":"","image_url":""},{"id":1126,"title":"東京大学生産技術研究所 アニヴァーサリーホール","architect":"遠藤克彦+今井公太郎","year":2013.0,"address":"東京都目黒区駒場4-6-1","latitude":35.6602783203125,"longitude":139.67694091796875,"category":"大学","description":"","image_url":""},{"id":1127,"title":"日本民芸館 西館 旧柳宗悦邸","architect":"柳宗悦","year":1935.0,"address":"東京都目黒区駒場4-3-33","latitude":35.66093063354492,"longitude":139.67892456054688,"category":"博物館/古民家","description":"","image_url":""},{"id":1128,"title":"東京大学 駒場地区キャンパス","architect":"原広司","year":2000.0,"address":"東京都目黒区駒場3-8-1","latitude":35.66012954711914,"longitude":139.68467712402344,"category":"大学","description":"","image_url":""},{"id":1129,"title":"東京工業大学 附属図書館","architect":"安田幸一+佐藤総合計画","year":2011.0,"address":"東京都目黒区大岡山2-12-1","latitude":35.60648727416992,"longitude":139.68399047851562,"category":"大学","description":"平日 11:00-, 14:00-, 15:00- （各回20分程度）","image_url":""},{"id":1130,"title":"東京工業大学 百年記念館","architect":"篠原一男","year":1987.0,"address":"東京都目黒区大岡山2-12-1","latitude":35.60688018798828,"longitude":139.684814453125,"category":"博物館","description":"","image_url":""},{"id":1131,"title":"CLASKA","architect":"インテンショナリーズ+トラフ建築設計事務所+UDS","year":2003.0,"address":"東京都目黒区中央町1-3-18","latitude":35.6286506652832,"longitude":139.69448852539062,"category":"ホテル","description":"","image_url":""},{"id":1132,"title":"旧前田侯爵邸洋館","architect":"塚本靖+高橋貞太郎","year":1929.0,"address":"東京都目黒区駒場4-3-55","latitude":35.66209411621094,"longitude":139.6800994873047,"category":"洋館","description":"","image_url":""},{"id":1133,"title":"郷さくら美術館（東京）","architect":"ブルースタジオ","year":2012.0,"address":"東京都目黒区上目黒1-7-13","latitude":35.64570617675781,"longitude":139.69993591308594,"category":"美術館","description":"","image_url":""},{"id":1134,"title":"目黒区総合庁舎 旧千代田生命本社ビル","architect":"村野藤吾","year":1966.0,"address":"東京都目黒区上目黒2-19-15","latitude":35.64137649536133,"longitude":139.6981658935547,"category":"庁舎","description":"","image_url":"https://farm3.staticflickr.com/2825/8935847121_77614727bb_h.jpg"},{"id":1135,"title":"ふじようちえん","architect":"手塚建築研究所","year":2007.0,"address":"東京都立川市上砂町2-7-1","latitude":35.72206497192383,"longitude":139.39015197753906,"category":"幼稚園","description":"毎年、特定の日に見学会が開催される","image_url":""},{"id":1136,"title":"花みどり文化センター","architect":"アトリエ・ワン+伊東豊雄","year":2006.0,"address":"東京都立川市緑町3173","latitude":35.703834533691406,"longitude":139.40768432617188,"category":"公園","description":"","image_url":""},{"id":1137,"title":"国立音楽大学 新1号館","architect":"松田平田設計","year":2011.0,"address":"東京都立川市柏町5-5-1","latitude":35.73173141479492,"longitude":139.4113311767578,"category":"大学","description":"","image_url":""},{"id":1138,"title":"立川市庁舎","architect":"野沢正光+山下設計","year":2010.0,"address":"東京都立川市泉町1156-9","latitude":35.71400451660156,"longitude":139.4078369140625,"category":"庁舎","description":"","image_url":""},{"id":1139,"title":"国立昭和記念公園 霧の森","architect":"北川原温","year":1992.0,"address":"東京都立川市緑町3173","latitude":35.71413040161133,"longitude":139.39068603515625,"category":"公園","description":"","image_url":""},{"id":1140,"title":"練馬区立牧野記念庭園","architect":"内藤廣","year":2010.0,"address":"東京都練馬区東大泉6-34-4","latitude":35.74631118774414,"longitude":139.58563232421875,"category":"美術館","description":"","image_url":""},{"id":1141,"title":"石神井アパートメント ドゥ・アジュール","architect":"SANAA","year":2011.0,"address":"東京都練馬区下石神井6-28-2","latitude":35.735958099365234,"longitude":139.604736328125,"category":"集合住宅","description":"","image_url":""},{"id":1142,"title":"石神井公園ふるさと文化館","architect":"山下設計","year":2010.0,"address":"東京都練馬区石神井町5-12-16","latitude":35.737548828125,"longitude":139.59951782226562,"category":"博物館","description":"","image_url":""},{"id":1143,"title":"巣鴨信用金庫 江古田支店","architect":"エマニュエル・ムホー","year":2012.0,"address":"東京都練馬区旭丘1-55-1","latitude":35.735321044921875,"longitude":139.6741943359375,"category":"金融機関","description":"","image_url":""},{"id":1144,"title":"ちひろ美術館・東京","architect":"内藤廣","year":2002.0,"address":"東京都練馬区下石神井4-7-2","latitude":35.728477478027344,"longitude":139.6050262451172,"category":"美術館","description":"","image_url":""},{"id":1145,"title":"まちの保育園 小竹向原","architect":"宇賀亮介","year":2011.0,"address":"東京都練馬区小竹町2-40-5","latitude":35.74369812011719,"longitude":139.67538452148438,"category":"幼稚園","description":"","image_url":""},{"id":1146,"title":"伊勢原市立図書館・子ども科学館","architect":"仙田満","year":1989.0,"address":"神奈川県伊勢原市田中76","latitude":35.403770446777344,"longitude":139.31393432617188,"category":"博物館","description":"","image_url":""},{"id":1147,"title":"横須賀美術館","architect":"山本理顕","year":2007.0,"address":"神奈川県横須賀市鴨居4-1","latitude":35.259666442871094,"longitude":139.73800659179688,"category":"美術館","description":"","image_url":""},{"id":1148,"title":"猿島公園","architect":"仙田満","year":2006.0,"address":"神奈川県横須賀市猿島1","latitude":35.28465270996094,"longitude":139.69358825683594,"category":"公園","description":"","image_url":""},{"id":1149,"title":"横須賀市健康安全科学センター","architect":"ワークステーション","year":2005.0,"address":"神奈川県横須賀市日の出町2-14","latitude":35.27774429321289,"longitude":139.67935180664062,"category":"公共施設","description":"","image_url":""},{"id":1150,"title":"カスヤの森現代美術館","architect":"洋建築企画","year":1994.0,"address":"神奈川県横須賀市平作7-12-11","latitude":35.258079528808594,"longitude":139.65065002441406,"category":"美術館","description":"","image_url":""}]}