{"page":86,"total_pages":290,"items_per_page":50,"total_items":14467,"items":[{"id":4251,"title":"日本銀行旧小樽支店金融資料館","architect":"辰野金吾+長野宇平治+岡田信一郎","year":1912.0,"address":"北海道小樽市色内1-11-16","latitude":43.196197509765625,"longitude":141.00035095214844,"category":"博物館/金融機関","big_category":"ミュージアム,企業施設","description":"","image_url":"","tags":"","prefecture":"北海道","contractor":"","structural_designer":"","landscape_designer":"","shinkenchiku_url":""},{"id":4252,"title":"BAYはこだて","architect":"岡田新一","year":1912.0,"address":"北海道函館市豊川町11","latitude":41.766719818115234,"longitude":140.7173309326172,"category":"モール","big_category":"商業施設","description":"1988年岡田新一により改修","image_url":"","tags":"","prefecture":"北海道","contractor":"","structural_designer":"","landscape_designer":"","shinkenchiku_url":""},{"id":4253,"title":"ひがし大雪自然館","architect":"アトリエaku","year":2013.0,"address":"北海道河東郡上士幌町ぬかびら源泉郷48-2","latitude":43.365840911865234,"longitude":143.19334411621094,"category":"博物館","big_category":"ミュージアム","description":"","image_url":"","tags":"","prefecture":"北海道","contractor":"","structural_designer":"","landscape_designer":"","shinkenchiku_url":""},{"id":4254,"title":"剣淵町学童保育施設 つちのこ館","architect":"アトリエaku","year":2010.0,"address":"北海道上川郡剣淵町西町23-2","latitude":44.09933853149414,"longitude":142.35316467285156,"category":"児童施設","big_category":"教育","description":"","image_url":"","tags":"","prefecture":"北海道","contractor":"","structural_designer":"","landscape_designer":"","shinkenchiku_url":""},{"id":4255,"title":"津別町多目的活動センター さんさん館","architect":"アトリエaku","year":2011.0,"address":"北海道網走郡津別町大通7","latitude":43.707679748535156,"longitude":144.02261352539062,"category":"公民館・交流施設","big_category":"公共施設","description":"","image_url":"","tags":"","prefecture":"北海道","contractor":"","structural_designer":"","landscape_designer":"","shinkenchiku_url":""},{"id":4256,"title":"MEON農苑","architect":"アトリエaku","year":2010.0,"address":"北海道千歳市蘭越1625-6","latitude":42.810726165771484,"longitude":141.58578491210938,"category":"カフェ/店舗","big_category":"商業施設,商業施設","description":"","image_url":"","tags":"","prefecture":"北海道","contractor":"","structural_designer":"","landscape_designer":"","shinkenchiku_url":""},{"id":4257,"title":"芸術の森 佐藤忠良記念子どもアトリエ","architect":"アトリエaku","year":2008.0,"address":"北海道札幌市南区芸術の森2-75","latitude":42.940818786621094,"longitude":141.3395233154297,"category":"美術館/児童施設","big_category":"ミュージアム,教育","description":"札幌芸術の森内","image_url":"","tags":"","prefecture":"北海道","contractor":"","structural_designer":"","landscape_designer":"","shinkenchiku_url":""},{"id":4258,"title":"北海道大学インフォメーションセンター エルムの森","architect":"アトリエaku","year":2010.0,"address":"北海道札幌市北区北8条西5-","latitude":43.070533752441406,"longitude":141.34710693359375,"category":"大学","big_category":"教育","description":"","image_url":"","tags":"","prefecture":"北海道","contractor":"","structural_designer":"","landscape_designer":"","shinkenchiku_url":""},{"id":4259,"title":"円山動物園 は虫類・両生類館","architect":"アトリエaku","year":2011.0,"address":"北海道札幌市中央区宮ヶ丘3-1","latitude":43.04871368408203,"longitude":141.3059844970703,"category":"動植物園","big_category":"レジャー施設","description":"","image_url":"","tags":"","prefecture":"北海道","contractor":"","structural_designer":"","landscape_designer":"","shinkenchiku_url":""},{"id":4260,"title":"イコロの森","architect":"アトリエaku","year":2008.0,"address":"北海道苫小牧市植苗565-1","latitude":42.73960876464844,"longitude":141.65402221679688,"category":"公園/カフェ","big_category":"レジャー施設,商業施設","description":"","image_url":"","tags":"","prefecture":"北海道","contractor":"","structural_designer":"","landscape_designer":"","shinkenchiku_url":""},{"id":4261,"title":"岩内厚生園","architect":"アトリエaku","year":null,"address":"北海道岩内郡岩内町宮園1-2","latitude":42.97531509399414,"longitude":140.51123046875,"category":"児童施設","big_category":"教育","description":"","image_url":"","tags":"","prefecture":"北海道","contractor":"","structural_designer":"","landscape_designer":"","shinkenchiku_url":""},{"id":4262,"title":"北海道大学 遠友学舎","architect":"アトリエaku","year":2001.0,"address":"北海道札幌市北区北18条西北海道大学 7- 遠友学舎","latitude":43.081459045410156,"longitude":141.3411407470703,"category":"大学/ホール・劇場","big_category":"教育,文化施設","description":"","image_url":"","tags":"","prefecture":"北海道","contractor":"","structural_designer":"","landscape_designer":"","shinkenchiku_url":""},{"id":4263,"title":"余別小学校","architect":"アトリエaku","year":2003.0,"address":"北海道積丹郡積丹町余別町544","latitude":43.32404327392578,"longitude":140.37966918945312,"category":"学校","big_category":"教育","description":"","image_url":"","tags":"","prefecture":"北海道","contractor":"","structural_designer":"","landscape_designer":"","shinkenchiku_url":""},{"id":4264,"title":"上士幌中学校","architect":"アトリエaku","year":2010.0,"address":"北海道河東郡上士幌町上士幌東4線243","latitude":43.23695373535156,"longitude":143.30235290527344,"category":"学校","big_category":"教育","description":"","image_url":"","tags":"","prefecture":"北海道","contractor":"","structural_designer":"","landscape_designer":"","shinkenchiku_url":""},{"id":4265,"title":"サロベツ湿原センター","architect":"アトリエaku","year":2011.0,"address":"北海道天塩郡豊富町字上サロベツ8662","latitude":45.111106872558594,"longitude":141.7040557861328,"category":"観光施設","big_category":"レジャー施設","description":"","image_url":"","tags":"","prefecture":"北海道","contractor":"","structural_designer":"","landscape_designer":"","shinkenchiku_url":""},{"id":4266,"title":"知床羅臼ビジターセンター","architect":"アトリエaku","year":2007.0,"address":"北海道目梨郡羅臼町湯ノ沢町6-27","latitude":44.03201675415039,"longitude":145.16139221191406,"category":"観光施設","big_category":"レジャー施設","description":"","image_url":"","tags":"","prefecture":"北海道","contractor":"","structural_designer":"","landscape_designer":"","shinkenchiku_url":""},{"id":4267,"title":"だて歴史の杜 伊達市観光物産館","architect":"アトリエaku","year":2000.0,"address":"北海道伊達市松ヶ枝町34-1","latitude":42.47172164916992,"longitude":140.87710571289062,"category":"PA・道の駅","big_category":"インフラ","description":"","image_url":"","tags":"","prefecture":"北海道","contractor":"","structural_designer":"","landscape_designer":"","shinkenchiku_url":""},{"id":4268,"title":"厚岸町立厚岸小学校","architect":"アトリエaku","year":null,"address":"北海道厚岸郡厚岸町梅香2-3","latitude":43.03673553466797,"longitude":144.8487091064453,"category":"学校","big_category":"教育","description":"","image_url":"","tags":"","prefecture":"北海道","contractor":"","structural_designer":"","landscape_designer":"","shinkenchiku_url":""},{"id":4269,"title":"岩見沢ガーデンテラス","architect":"アトリエaku","year":1993.0,"address":"北海道岩見沢市7条東5-","latitude":43.20298767089844,"longitude":141.7733612060547,"category":"公園","big_category":"レジャー施設","description":"","image_url":"","tags":"","prefecture":"北海道","contractor":"","structural_designer":"","landscape_designer":"","shinkenchiku_url":""},{"id":4270,"title":"中標津町立中標津東小学校","architect":"アトリエブンク","year":2010.0,"address":"北海道標津郡中標津町東7条南7-15","latitude":43.54869842529297,"longitude":144.9845428466797,"category":"学校","big_category":"教育","description":"","image_url":"","tags":"","prefecture":"北海道","contractor":"","structural_designer":"","landscape_designer":"","shinkenchiku_url":""},{"id":4271,"title":"京極中学校","architect":"アトリエブンク","year":2011.0,"address":"北海道虻田郡京極町三崎91","latitude":42.85757064819336,"longitude":140.88235473632812,"category":"学校","big_category":"教育","description":"","image_url":"","tags":"","prefecture":"北海道","contractor":"","structural_designer":"","landscape_designer":"","shinkenchiku_url":""},{"id":4272,"title":"水墨","architect":"アトリエブンク","year":2009.0,"address":"北海道虻田郡倶知安町山田191-29","latitude":42.8591423034668,"longitude":140.7034912109375,"category":"ホテル/集合住宅","big_category":"宿泊,住宅","description":"","image_url":"","tags":"","prefecture":"北海道","contractor":"","structural_designer":"","landscape_designer":"","shinkenchiku_url":""},{"id":4273,"title":"札幌バプテスト教会","architect":"アトリエブンク","year":2006.0,"address":"北海道札幌市中央区南22条西14-1-28","latitude":43.03007507324219,"longitude":141.33802795410156,"category":"教会","big_category":"宗教","description":"","image_url":"","tags":"","prefecture":"北海道","contractor":"","structural_designer":"","landscape_designer":"","shinkenchiku_url":""},{"id":4274,"title":"HOTEL TAIKI","architect":"アトリエブンク","year":2006.0,"address":"北海道広尾郡大樹町寿通2-18","latitude":42.48750305175781,"longitude":143.27694702148438,"category":"ホテル","big_category":"宿泊","description":"","image_url":"","tags":"","prefecture":"北海道","contractor":"","structural_designer":"","landscape_designer":"","shinkenchiku_url":""},{"id":4275,"title":"今金町立今金小学校","architect":"アトリエブンク","year":2005.0,"address":"北海道瀬棚郡今金町今金108-1","latitude":42.429443359375,"longitude":140.0188751220703,"category":"学校","big_category":"教育","description":"","image_url":"","tags":"","prefecture":"北海道","contractor":"","structural_designer":"","landscape_designer":"","shinkenchiku_url":""},{"id":4276,"title":"浄土宗 直行寺","architect":"アトリエブンク","year":2005.0,"address":"北海道小樽市緑1-23-8","latitude":43.18947219848633,"longitude":140.98538208007812,"category":"寺院","big_category":"宗教","description":"","image_url":"","tags":"","prefecture":"北海道","contractor":"","structural_designer":"","landscape_designer":"","shinkenchiku_url":""},{"id":4277,"title":"Lapin","architect":"保坂猛","year":2013.0,"address":"山梨県甲府市山宮町5014-12","latitude":35.69334030151367,"longitude":138.52784729003906,"category":"レストラン/住宅","big_category":"商業施設,住宅","description":"","image_url":"","tags":"","prefecture":"山梨","contractor":"","structural_designer":"","landscape_designer":"","shinkenchiku_url":""},{"id":4278,"title":"一六茶寮","architect":"中村好文","year":2008.0,"address":"愛媛県松山市道後湯之町20-15","latitude":33.85215377807617,"longitude":132.78604125976562,"category":"店舗/カフェ","big_category":"商業施設,商業施設","description":"","image_url":"","tags":"","prefecture":"愛媛","contractor":"","structural_designer":"","landscape_designer":"","shinkenchiku_url":""},{"id":4279,"title":"道後温泉本館","architect":"坂本又八郎","year":1894.0,"address":"愛媛県松山市道後湯之町5-6","latitude":33.851985931396484,"longitude":132.786376953125,"category":"温泉","big_category":"宿泊","description":"","image_url":"","tags":"","prefecture":"愛媛","contractor":"","structural_designer":"","landscape_designer":"","shinkenchiku_url":""},{"id":4280,"title":"世界一広いトイレ","architect":"藤本壮介","year":2012.0,"address":"千葉県市原市飯給943","latitude":35.32067108154297,"longitude":140.14227294921875,"category":"トイレ","big_category":"公共施設","description":"","image_url":"","tags":"","prefecture":"千葉","contractor":"","structural_designer":"","landscape_designer":"","shinkenchiku_url":""},{"id":4281,"title":"大多喜町立 大多喜小学校","architect":"小島広行","year":1997.0,"address":"千葉県夷隅郡大多喜町大多喜12-2 ‎","latitude":35.2841682434082,"longitude":140.24420166015625,"category":"学校","big_category":"教育","description":"","image_url":"","tags":"","prefecture":"千葉","contractor":"","structural_designer":"","landscape_designer":"","shinkenchiku_url":""},{"id":4282,"title":"城西国際大学","architect":"大田純穂","year":1990.0,"address":"千葉県東金市求名1","latitude":35.583133697509766,"longitude":140.3922882080078,"category":"大学","big_category":"教育","description":"","image_url":"","tags":"","prefecture":"千葉","contractor":"","structural_designer":"","landscape_designer":"","shinkenchiku_url":""},{"id":4283,"title":"ホテルニドム","architect":"ドーコン","year":1986.0,"address":"北海道苫小牧市植苗430","latitude":42.71622848510742,"longitude":141.65606689453125,"category":"ホテル","big_category":"宿泊","description":"","image_url":"","tags":"","prefecture":"北海道","contractor":"","structural_designer":"","landscape_designer":"","shinkenchiku_url":""},{"id":4284,"title":"池田ワイン城","architect":"不明","year":null,"address":"北海道中川郡池田町清見83","latitude":42.92025375366211,"longitude":143.45889282226562,"category":"観光施設/醸造所","big_category":"レジャー施設,商業施設","description":"","image_url":"","tags":"","prefecture":"北海道","contractor":"","structural_designer":"","landscape_designer":"","shinkenchiku_url":""},{"id":4285,"title":"bi.ble","architect":"内藤廣","year":2014.0,"address":"北海道上川郡美瑛町字北瑛第2","latitude":43.62411880493164,"longitude":142.44647216796875,"category":"カフェ/ホテル","big_category":"商業施設,宿泊","description":"小学校などを改修","image_url":"","tags":"","prefecture":"北海道","contractor":"","structural_designer":"","landscape_designer":"","shinkenchiku_url":""},{"id":4286,"title":"五稜郭タワー","architect":"清水建設","year":2006.0,"address":"北海道函館市五稜郭町43-9","latitude":41.794761657714844,"longitude":140.75405883789062,"category":"観光施設/展望台","big_category":"レジャー施設,レジャー施設","description":"","image_url":"","tags":"","prefecture":"北海道","contractor":"","structural_designer":"","landscape_designer":"","shinkenchiku_url":""},{"id":4287,"title":"函館ハリストス正教会","architect":"河村伊蔵","year":1916.0,"address":"北海道函館市元町3-13","latitude":41.76279067993164,"longitude":140.71217346191406,"category":"教会","big_category":"宗教","description":"","image_url":"","tags":"","prefecture":"北海道","contractor":"","structural_designer":"","landscape_designer":"","shinkenchiku_url":""},{"id":4288,"title":"函館蔦屋書店","architect":"梓設計","year":2013.0,"address":"北海道函館市石川町85-1","latitude":41.83074188232422,"longitude":140.735595703125,"category":"店舗","big_category":"商業施設","description":"","image_url":"","tags":"","prefecture":"北海道","contractor":"","structural_designer":"","landscape_designer":"","shinkenchiku_url":""},{"id":4289,"title":"函館大沼プリンスホテル","architect":"黒川紀章","year":1990.0,"address":"北海道亀田郡七飯町西大沼148","latitude":41.997249603271484,"longitude":140.6495819091797,"category":"ホテル","big_category":"宿泊","description":"","image_url":"","tags":"","prefecture":"北海道","contractor":"","structural_designer":"","landscape_designer":"","shinkenchiku_url":""},{"id":4290,"title":"ザ・ウィンザーホテル洞爺","architect":"ドーコン","year":1993.0,"address":"北海道虻田郡洞爺湖町清水 ザ・ウィンザーホテル洞爺","latitude":42.592041015625,"longitude":140.75999450683594,"category":"ホテル","big_category":"宿泊","description":"","image_url":"","tags":"","prefecture":"北海道","contractor":"","structural_designer":"","landscape_designer":"","shinkenchiku_url":""},{"id":4291,"title":"アルテ横浜","architect":"マイケル・グレイヴス","year":1992.0,"address":"神奈川県横浜市神奈川区大野町1-8","latitude":35.46815872192383,"longitude":139.63198852539062,"category":"集合住宅","big_category":"住宅","description":"","image_url":"","tags":"","prefecture":"神奈川","contractor":"","structural_designer":"","landscape_designer":"","shinkenchiku_url":""},{"id":4292,"title":"西新テングッドシティ","architect":"マイケル・グレイヴス","year":2001.0,"address":"福岡県福岡市早良区祖原1-1","latitude":33.58100128173828,"longitude":130.35826110839844,"category":"集合住宅/テナントビル/モール","big_category":"住宅,商業施設,商業施設","description":"","image_url":"","tags":"","prefecture":"福岡","contractor":"","structural_designer":"","landscape_designer":"","shinkenchiku_url":""},{"id":4293,"title":"ファミール月島グランスイートタワー","architect":"マイケル・グレイヴス","year":2002.0,"address":"東京都中央区佃2-19-1","latitude":35.66544723510742,"longitude":139.7855682373047,"category":"集合住宅","big_category":"住宅","description":"","image_url":"","tags":"","prefecture":"東京","contractor":"","structural_designer":"","landscape_designer":"","shinkenchiku_url":""},{"id":4294,"title":"西日本工業大学 デザイン学部小倉キャンパス","architect":"マイケル・グレイヴス","year":2006.0,"address":"福岡県北九州市小倉北区室町1-2-11","latitude":33.88665008544922,"longitude":130.87376403808594,"category":"大学","big_category":"教育","description":"リバーウォーク北九州の隣","image_url":"","tags":"","prefecture":"福岡","contractor":"","structural_designer":"","landscape_designer":"","shinkenchiku_url":""},{"id":4295,"title":"御堂筋ミナミビル","architect":"マイケル・グレイヴス","year":1990.0,"address":"大阪府大阪市中央区西心斎橋2-3-2","latitude":34.67023468017578,"longitude":135.49996948242188,"category":"オフィスビル","big_category":"企業施設","description":"","image_url":"","tags":"","prefecture":"大阪","contractor":"","structural_designer":"","landscape_designer":"","shinkenchiku_url":""},{"id":4296,"title":"はま松ハウス ガレージタケウチ","architect":"藤森照信+大嶋信道","year":2012.0,"address":"静岡県浜松市浜北区新原2891","latitude":34.806060791015625,"longitude":137.7791748046875,"category":"店舗/住宅","big_category":"商業施設,住宅","description":"","image_url":"","tags":"","prefecture":"静岡","contractor":"","structural_designer":"","landscape_designer":"","shinkenchiku_url":""},{"id":4297,"title":"八丈町庁舎・多目的ホール おじゃれ","architect":"新居千秋","year":2013.0,"address":"東京都八丈島八丈町大賀郷2551-2","latitude":33.109519958496094,"longitude":139.7909393310547,"category":"ホール・劇場/庁舎","big_category":"文化施設,公共施設","description":"","image_url":"","tags":"2017年日本建築学会 作品選奨","prefecture":"東京","contractor":"","structural_designer":"","landscape_designer":"","shinkenchiku_url":""},{"id":4298,"title":"新潟市秋葉区文化会館","architect":"新居千秋","year":2013.0,"address":"新潟県新潟市秋葉区新栄町4-23 新潟市秋葉区文化会館","latitude":37.78987503051758,"longitude":139.11895751953125,"category":"ホール・劇場","big_category":"文化施設","description":"","image_url":"","tags":"2016年日本建築学会 作品選奨,2016年村野藤吾賞","prefecture":"新潟","contractor":"","structural_designer":"","landscape_designer":"","shinkenchiku_url":""},{"id":4299,"title":"Brillia代官山プレステージ","architect":"新居千秋","year":2007.0,"address":"東京都渋谷区恵比寿西2-20-7","latitude":35.64846420288086,"longitude":139.7047576904297,"category":"集合住宅","big_category":"住宅","description":"","image_url":"","tags":"","prefecture":"東京","contractor":"","structural_designer":"","landscape_designer":"","shinkenchiku_url":""},{"id":4300,"title":"D'グランセ南青山ハイヴァリー","architect":"新居千秋","year":2006.0,"address":"東京都港区南青山2-5-6","latitude":35.67174530029297,"longitude":139.72337341308594,"category":"集合住宅","big_category":"住宅","description":"","image_url":"","tags":"","prefecture":"東京","contractor":"","structural_designer":"","landscape_designer":"","shinkenchiku_url":""}]}