{"page":262,"total_pages":290,"items_per_page":50,"total_items":14467,"items":[{"id":13051,"title":"芝エオス","architect":"田中昭成","year":2021.0,"address":"東京都港区芝3-27-1","latitude":35.65168380737305,"longitude":139.74569702148438,"category":"レストラン","description":"","image_url":""},{"id":13052,"title":"大森ロッヂ 運ぶ家 たぐい食堂","architect":"古谷俊一","year":2015.0,"address":"東京都大田区大森西3-21-5","latitude":35.57332229614258,"longitude":139.73171997070312,"category":"レストラン/住宅","description":"","image_url":""},{"id":13053,"title":"ブリリアシティ横浜磯子","architect":"大成建設+長谷工コーポレーション+INA新建築研究所","year":2014.0,"address":"神奈川県横浜市磯子区磯子台27","latitude":35.40176773071289,"longitude":139.61363220214844,"category":"集合住宅","description":"総合デザイン監修・外観ファサード：INA新建築研究所","image_url":""},{"id":13054,"title":"スカイズタワー&ガーデン","architect":"清水建設","year":2015.0,"address":"東京都江東区豊洲6-2-31","latitude":35.647300720214844,"longitude":139.7929229736328,"category":"集合住宅","description":"","image_url":""},{"id":13055,"title":"INPEX 直江津東雲寮","architect":"NTTファシリティーズ","year":2013.0,"address":"新潟県上越市東雲町2-1","latitude":37.1697998046875,"longitude":138.24378967285156,"category":"寮","description":"","image_url":""},{"id":13056,"title":"柳町歴史地区再生計画 旧森永家住宅","architect":"馬場正尊+石橋建築事務所","year":2015.0,"address":"佐賀県佐賀市柳町4-9","latitude":33.25383758544922,"longitude":130.30703735351562,"category":"古民家/店舗","description":"","image_url":""},{"id":13057,"title":"柳町歴史地区再生計画 旧久富家住宅","architect":"馬場正尊+石橋建築事務所","year":2015.0,"address":"佐賀県佐賀市柳町4-14","latitude":33.254058837890625,"longitude":130.30789184570312,"category":"古民家/店舗/カフェ","description":"","image_url":""},{"id":13058,"title":"ディーアイシービル","architect":"大林組","year":2015.0,"address":"東京都中央区日本橋3-7-20","latitude":35.679935455322266,"longitude":139.77272033691406,"category":"オフィスビル","description":"","image_url":""},{"id":13059,"title":"パークシティ大崎","architect":"日本設計","year":2015.0,"address":"東京都品川区北品川5-3-1","latitude":35.62242126464844,"longitude":139.73170471191406,"category":"複合ビル","description":"大崎ブライトタワー、大崎ブライトコア、大崎ブライトプラザ、Sumビル、パークシティ大崎ザ タワー、パークシティ大崎ザ レジデンスで構成される。座標、住所はパークシティ大崎ザ タワーの位置","image_url":""},{"id":13060,"title":"下川町のトドマツオフィス","architect":"内海彩+team Timberize","year":2015.0,"address":"北海道上川郡下川町一の橋607","latitude":44.31919860839844,"longitude":142.76710510253906,"category":"低層オフィス","description":"","image_url":""},{"id":13061,"title":"スパビレッジ・ホリカワ","architect":"住友林業","year":2015.0,"address":"福岡県久留米市花畑3-18-1","latitude":33.303951263427734,"longitude":130.51551818847656,"category":"養護施設","description":"","image_url":""},{"id":13062,"title":"昭和大学江東豊洲病院","architect":"佐藤総合計画","year":2013.0,"address":"東京都江東区豊洲5-1-38","latitude":35.6502799987793,"longitude":139.79624938964844,"category":"病院","description":"","image_url":""},{"id":13063,"title":"大崎市民病院","architect":"山下設計","year":2014.0,"address":"宮城県大崎市古川穂波3-8-1","latitude":38.56589126586914,"longitude":4022829056.0,"category":"病院","description":"","image_url":""},{"id":13064,"title":"総合せき損センター","architect":"山下設計","year":2014.0,"address":"福岡県飯塚市伊岐須550-4","latitude":33.6464958190918,"longitude":130.65231323242188,"category":"病院","description":"","image_url":""},{"id":13065,"title":"木の歯科 てらむら歯科","architect":"平沼孝啓","year":2014.0,"address":"大阪府箕面市桜ヶ丘2-4-20","latitude":34.824161529541016,"longitude":135.45777893066406,"category":"個人医院","description":"","image_url":""},{"id":13066,"title":"愛農学園農業高等学校 森館小谷校舎","architect":"野沢正光","year":2013.0,"address":"三重県伊賀市別府690","latitude":34.66743850708008,"longitude":136.18768310546875,"category":"学校","description":"","image_url":""},{"id":13067,"title":"マルコの蔵・広場","architect":"林寛治+片山和俊","year":2013.0,"address":"山形県最上郡金山町大字金山字金山町363-2","latitude":38.8842887878418,"longitude":140.33958435058594,"category":"博物館/広場/公民館・交流施設","description":"","image_url":""},{"id":13068,"title":"ミサワホーム 静岡事務所ビル","architect":"ミサワホーム総合研究所","year":2013.0,"address":"静岡市駿河区手越367","latitude":34.95644760131836,"longitude":138.3666534423828,"category":"低層オフィス","description":"","image_url":""},{"id":13069,"title":"大森歯科医院","architect":"織田博充","year":2022.0,"address":"岡山県総社市井手411-1","latitude":34.67278289794922,"longitude":133.76303100585938,"category":"個人医院","description":"","image_url":""},{"id":13070,"title":"神話の里トイレ","architect":"田中健一郎","year":2020.0,"address":"長崎県対馬市豊玉町仁位51-51-1","latitude":34.377479553222656,"longitude":129.31141662597656,"category":"トイレ","description":"","image_url":""},{"id":13071,"title":"たかはぎ認定こども園","architect":"梓設計","year":2022.0,"address":"茨城県高萩市本町4-5","latitude":36.7174186706543,"longitude":140.71551513671875,"category":"幼稚園","description":"茨城建築賞最優秀賞、ウッドデザイン賞、キッズデザイン賞","image_url":""},{"id":13072,"title":"さいき城山桜ホール","architect":"久米設計","year":2020.0,"address":"大分県佐伯市大手町2-2-28","latitude":32.95597457885742,"longitude":131.8938751220703,"category":"ホール・劇場","description":"","image_url":""},{"id":13073,"title":"HAIR LOOP","architect":"織田博充","year":2012.0,"address":"岡山県美作市北山316-1","latitude":35.02965545654297,"longitude":134.15675354003906,"category":"美容院/住宅","description":"","image_url":""},{"id":13074,"title":"南島原市口之津港ターミナルビル","architect":"田中健一郎","year":2020.0,"address":"長崎県南島原市口之津町丙4258-6","latitude":32.6092643737793,"longitude":130.18580627441406,"category":"港/博物館","description":"","image_url":""},{"id":13075,"title":"長崎県立ろう学校","architect":"田中健一郎","year":2017.0,"address":"長崎県大村市宮小路3-5-5","latitude":32.9553337097168,"longitude":129.942626953125,"category":"学校/専門学校","description":"","image_url":""},{"id":13076,"title":"吹田市立博物館","architect":"澤井正寛","year":1992.0,"address":"大阪府吹田市岸部北4-10-1","latitude":34.78339385986328,"longitude":135.52845764160156,"category":"博物館","description":"","image_url":""},{"id":13077,"title":"Cuvee J2 Hotel Osaka by 温故知新","architect":"小川晋一","year":2023.0,"address":"大阪府大阪市中央区南船場2-6-7","latitude":34.676185607910156,"longitude":135.50526428222656,"category":"ホテル","description":"","image_url":""},{"id":13078,"title":"下関市民会館","architect":"澤井正寛","year":1977.0,"address":"山口県下関市竹崎町4-5-1","latitude":33.948734283447266,"longitude":130.92535400390625,"category":"ホール・劇場","description":"","image_url":""},{"id":13079,"title":"東方学会本館","architect":"堀越三郎","year":1926.0,"address":"東京都千代田区西神田2-4-1","latitude":35.69790267944336,"longitude":139.75485229492188,"category":"組合施設/洋館","description":"堀越の父、上野清(1854-1924)が創立した東京中学校(現東京高等学校)の校舎として建設された。1934年、生徒数増加により東京中学校は大森区調布嶺町(現大田区鵜の木)に移転し、建物は中国人留学生支援団体である日華学会の所有となった。戦後、外務省所管の財団法人東方学会(現一般財団法人東方学会)の所有となり、千代田区景観まちづくり重要物件の指定を受けている。","image_url":""},{"id":13080,"title":"野沢温泉ロッヂ新館 GONDOLA HOUSE","architect":"古谷俊一","year":2023.0,"address":"長野県下高井郡野沢温泉村豊郷大湯7812","latitude":36.92073059082031,"longitude":138.45147705078125,"category":"ホテル","description":"吉阪隆正設計の旧館の隣に新築","image_url":""},{"id":13081,"title":"瀬田の杜Garden & Terrace","architect":"アール・アイ・エー","year":2021.0,"address":"東京都世田谷区瀬田2-10-18","latitude":35.61757278442383,"longitude":139.6312255859375,"category":"集合住宅","description":"A棟（マンション）、B・C棟（タウンハウス）、アネックス棟をガーデンコート。W棟・S棟（タウンハウス）をテラスコートとしている。","image_url":""},{"id":13082,"title":"SETAGAYA Qs-GARDEN ウエリスアイビー世田谷仙川","architect":"飛島建設+清水建設","year":2023.0,"address":"東京都世田谷区給田1-3-10","latitude":35.66096878051758,"longitude":139.5933074951172,"category":"集合住宅","description":"全体計画・開発計画・設計・ランドスケープデザイン：清水建設","image_url":""},{"id":13083,"title":"SETAGAYA Qs-GARDEN グランスイート世田谷仙川","architect":"長谷工コーポレーション+清水建設","year":2023.0,"address":"東京都世田谷区給田1-3-11","latitude":35.66130065917969,"longitude":139.59219360351562,"category":"集合住宅","description":"全体計画・開発計画・設計・ランドスケープデザイン：清水建設","image_url":""},{"id":13084,"title":"SETAGAYA Qs-GARDEN オウカス世田谷仙川","architect":"熊谷組+日建ハウジングシステム+清水建設","year":2023.0,"address":"東京都世田谷区給田1-1-11","latitude":35.66078567504883,"longitude":139.59469604492188,"category":"集合住宅/養護施設","description":"全体計画・開発計画・設計・ランドスケープデザイン：清水建設 基本設計・実施設計：熊谷組 基本設計・デザイン監修：日建ハウジングシステム","image_url":""},{"id":13085,"title":"グレーシア横浜十日市場 まちのツールボックス","architect":"西田司+東急設計コンサルタント","year":2023.0,"address":"神奈川県横浜市緑区十日市場町1481-20","latitude":35.522621154785156,"longitude":139.51495361328125,"category":"集合住宅","description":"まちのツールボックス企画デザイン監修：オンデザイン","image_url":""},{"id":13086,"title":"竹中育英会学生寮","architect":"竹中工務店","year":2023.0,"address":"東京都練馬区中村北2-9-12","latitude":35.735050201416016,"longitude":139.6433868408203,"category":"寮","description":"","image_url":""},{"id":13087,"title":"瀬田立体交叉点の集合住宅","architect":"若松均","year":2023.0,"address":"東京都世田谷区玉川台1-1-5","latitude":35.621620178222656,"longitude":139.63134765625,"category":"集合住宅","description":"","image_url":""},{"id":13088,"title":"弁天アパートメント","architect":"駒田建築設計事務所","year":2023.0,"address":"群馬県前橋市千代田町3-10-4","latitude":36.39481735229492,"longitude":139.07081604003906,"category":"集合住宅","description":"","image_url":""},{"id":13089,"title":"柳小路ハイツ","architect":"TAKiBI","year":2021.0,"address":"神奈川県藤沢市鵠沼藤が谷1-3","latitude":35.327205657958984,"longitude":139.48672485351562,"category":"集合住宅","description":"","image_url":""},{"id":13090,"title":"市中の立体山居 蓮山居","architect":"浅利幸男","year":2023.0,"address":"東京都品川区旗の台1-11-7","latitude":35.60763168334961,"longitude":139.7027130126953,"category":"集合住宅","description":"","image_url":""},{"id":13091,"title":"トパーズ新御徒町","architect":"永山祐子","year":2023.0,"address":"東京都台東区台東2-20-1","latitude":35.703250885009766,"longitude":139.7805938720703,"category":"集合住宅","description":"","image_url":""},{"id":13092,"title":"サステナブランシェ本行徳","architect":"長谷工コーポレーション","year":2023.0,"address":"千葉県市川市本行徳5-16","latitude":35.694549560546875,"longitude":139.92205810546875,"category":"集合住宅","description":"クレジット：長谷工リフォーム 1990年2月竣工、2023年9月改修","image_url":""},{"id":13093,"title":"URまちとくらしのミュージアム ミュージアム棟","architect":"設計組織ADH","year":2023.0,"address":"東京都北区赤羽台1-4-50","latitude":35.77677917480469,"longitude":139.71597290039062,"category":"博物館","description":"施設内に同潤会代官山アパートメント、蓮根団地、晴海高層アパート（前川國男）、多摩平団地テラスハウスなどが復元・展示されている。完全予約制","image_url":""},{"id":13094,"title":"東京大学 工学部3号館","architect":"内田祥三+類設計室+東京大学キャンパス計画室・同施設部","year":1939.0,"address":"東京都文京区本郷7-3-1","latitude":35.7143440246582,"longitude":139.76255798339844,"category":"大学","description":"2013年8月に内田祥三設計の3号館を解体後、同様の意匠で復元。復元後の基本設計：東京大学キャンパス計画室・同施設部+類設計室","image_url":""},{"id":13095,"title":"同志社大学 良心館","architect":"東畑建築事務所+類設計室","year":2013.0,"address":"京都府京都市上京区今出川通烏丸東入御所八幡町106","latitude":35.03099822998047,"longitude":135.75999450683594,"category":"大学","description":"","image_url":""},{"id":13096,"title":"NISHINOYAMA HOUSE 京都の集合住宅","architect":"妹島和世","year":2013.0,"address":"京都府京都市北区大宮西野山町","latitude":35.049678802490234,"longitude":135.7390594482422,"category":"集合住宅","description":"","image_url":""},{"id":13097,"title":"ザ・コンダーハウス 旧名古屋銀行本店","architect":"鈴木禎次+曽禰達蔵","year":1926.0,"address":"愛知県名古屋市中区錦2-20-25","latitude":35.1687126159668,"longitude":136.90130615234375,"category":"洋館/金融機関/結婚式場","description":"","image_url":""},{"id":13098,"title":"国際東船場113ビル 旧高原ビル","architect":"鈴木禎次","year":1932.0,"address":"徳島県徳島市東船場町1-13","latitude":34.07033157348633,"longitude":134.54891967773438,"category":"洋館/テナントビル/ギャラリー","description":"","image_url":""},{"id":13099,"title":"旧中埜家住宅","architect":"鈴木禎次","year":1911.0,"address":"愛知県半田市天王町1-30-2","latitude":34.89640808105469,"longitude":136.92721557617188,"category":"洋館","description":"","image_url":""},{"id":13100,"title":"鶴舞公園奏楽堂・噴水塔","architect":"鈴木禎次","year":1910.0,"address":"愛知県名古屋市昭和区鶴舞1-1-49","latitude":35.15538024902344,"longitude":136.9205322265625,"category":"公園/ホール・劇場","description":"","image_url":""}]}