{"page":269,"total_pages":290,"items_per_page":50,"total_items":14467,"items":[{"id":13401,"title":"酒田市日和山小幡楼","architect":"高谷時彦","year":2021.0,"address":"山形県酒田市日吉町2-9-37","latitude":38.918670654296875,"longitude":139.82943725585938,"category":"レストラン/洋館/カフェ","description":"老舗料亭の改修","image_url":""},{"id":13402,"title":"風間家旧別邸無量光苑釈迦堂 ティーハウス","architect":"高谷時彦","year":2016.0,"address":"山形県鶴岡市泉町6-20","latitude":38.72958755493164,"longitude":139.8292999267578,"category":"寺院/カフェ","description":"","image_url":""},{"id":13403,"title":"アイコンサルタント新社屋","architect":"川西康之","year":2024.0,"address":"高知県四万十市右山五月町1-4","latitude":32.98842239379883,"longitude":132.938232421875,"category":"低層オフィス","description":"","image_url":""},{"id":13404,"title":"神戸電鉄花山駅舎・広場","architect":"川西康之","year":2023.0,"address":"兵庫県神戸市北区花山台1-1","latitude":34.769569396972656,"longitude":135.18685913085938,"category":"駅/広場","description":"","image_url":""},{"id":13405,"title":"近鉄結崎駅舎・公園・広場","architect":"川西康之","year":2022.0,"address":"奈良県磯城郡川西町結崎584","latitude":34.584598541259766,"longitude":135.7844696044922,"category":"駅/広場/公園","description":"","image_url":""},{"id":13406,"title":"神戸電鉄大池駅舎","architect":"川西康之","year":2023.0,"address":"兵庫県神戸市北区西大池1-29","latitude":34.78068923950195,"longitude":135.1985626220703,"category":"駅","description":"","image_url":""},{"id":13407,"title":"亀の瀬地すべり歴史資料室","architect":"川西康之","year":2024.0,"address":"大阪府柏原市峠 亀の瀬地すべり歴史資料室","latitude":34.5809440612793,"longitude":135.67303466796875,"category":"博物館","description":"","image_url":""},{"id":13408,"title":"NSPビル","architect":"宮崎浩","year":1997.0,"address":"東京都中野区新井2-30-7","latitude":35.71018981933594,"longitude":139.66322326660156,"category":"オフィスビル/住宅","description":"","image_url":""},{"id":13409,"title":"インド大使館次席公邸","architect":"宮崎浩","year":2009.0,"address":"東京都世田谷区代沢3-15-6","latitude":35.65532684326172,"longitude":139.67356872558594,"category":"住宅/公共施設","description":"","image_url":""},{"id":13410,"title":"恵比寿グリーングラス","architect":"宮崎浩","year":2009.0,"address":"東京都渋谷区恵比寿南3-1-1","latitude":35.64596176147461,"longitude":139.70669555664062,"category":"オフィスビル","description":"","image_url":""},{"id":13411,"title":"神楽坂K's Place","architect":"宮崎浩","year":2010.0,"address":"東京都新宿区神楽坂6","latitude":35.70356369018555,"longitude":139.7353057861328,"category":"複合ビル","description":"","image_url":""},{"id":13412,"title":"目黒の集合住宅 Knot花房山 sEED花房山","architect":"宮崎浩","year":2014.0,"address":"東京都品川区上大崎3-10-49","latitude":35.63166046142578,"longitude":139.71701049804688,"category":"集合住宅","description":"","image_url":""},{"id":13413,"title":"遠軽町芸術文化交流プラザ メトロプラザ","architect":"石本建築事務所+日本都市設計","year":2022.0,"address":"北海道紋別郡遠軽町岩見通南1-1-14","latitude":44.05893325805664,"longitude":143.52056884765625,"category":"ホール・劇場","description":"","image_url":""},{"id":13414,"title":"彦根市スポーツ・文化交流センター プロシードアリーナHIKONE","architect":"石本建築事務所","year":2022.0,"address":"滋賀県彦根市小泉町640","latitude":35.24705505371094,"longitude":136.24453735351562,"category":"体育館/ホール・劇場/図書館","description":"","image_url":""},{"id":13415,"title":"境港市民交流センター みなとテラス","architect":"石本建築事務所+あおい総合設計","year":2022.0,"address":"鳥取県境港市上道町3000","latitude":35.538780212402344,"longitude":133.23219299316406,"category":"ホール・劇場/図書館","description":"","image_url":""},{"id":13416,"title":"川内駅コンベンションセンター SSプラザせんだい","architect":"石本建築事務所","year":2020.0,"address":"鹿児島県薩摩川内市平佐1-18","latitude":31.814924240112305,"longitude":130.31253051757812,"category":"ホール・劇場","description":"","image_url":""},{"id":13417,"title":"雄武町図書館","architect":"石本建築事務所","year":2019.0,"address":"北海道紋別郡雄武町雄武1031-25","latitude":44.58867263793945,"longitude":142.9580535888672,"category":"図書館","description":"","image_url":""},{"id":13418,"title":"金ヶ崎町立図書館","architect":"伊藤喜三郎建築研究所","year":1998.0,"address":"岩手県胆沢郡金ケ崎町西根西地蔵野5","latitude":39.198699951171875,"longitude":141.10621643066406,"category":"図書館","description":"","image_url":""},{"id":13419,"title":"ホテル京都エミナース 旧国民年金京都会館","architect":"伊藤喜三郎","year":1984.0,"address":"京都府京都市西京区大原野東境谷町2-4","latitude":34.96434783935547,"longitude":135.67547607421875,"category":"ホテル","description":"","image_url":""},{"id":13420,"title":"穴吹学園ホール 旧高松テルサ","architect":"伊藤喜三郎","year":1993.0,"address":"香川県高松市屋島西町2366-1","latitude":34.34660720825195,"longitude":134.08531188964844,"category":"専門学校/ホール・劇場","description":"","image_url":""},{"id":13421,"title":"南相馬市博物館 旧野馬追の里","architect":"伊藤喜三郎","year":1995.0,"address":"福島県南相馬市原町区牛来出口194","latitude":37.62342834472656,"longitude":140.96307373046875,"category":"博物館","description":"","image_url":""},{"id":13422,"title":"つくたべかん","architect":"伊藤喜三郎建築研究所","year":1997.0,"address":"山梨県南巨摩郡富士川町十谷2294-7","latitude":35.506492614746094,"longitude":138.39425659179688,"category":"体験施設/レストラン","description":"","image_url":""},{"id":13423,"title":"秋田県青少年交流センター ユースパル","architect":"伊藤喜三郎建築研究所","year":1999.0,"address":"秋田県秋田市寺内神屋敷3-1","latitude":39.731285095214844,"longitude":140.08180236816406,"category":"研修施設/公民館・交流施設","description":"","image_url":""},{"id":13424,"title":"休暇村南淡路","architect":"伊藤喜三郎建築研究所","year":2005.0,"address":"兵庫県南あわじ市福良丙870-1","latitude":34.24564743041992,"longitude":134.70469665527344,"category":"ホテル","description":"","image_url":""},{"id":13425,"title":"休暇村富士","architect":"伊藤喜三郎建築研究所","year":2000.0,"address":"静岡県富士宮市佐折634","latitude":35.341148376464844,"longitude":138.55340576171875,"category":"ホテル","description":"","image_url":""},{"id":13426,"title":"ハイジの村クララ館 明野ふるさと太陽館","architect":"伊藤喜三郎","year":1996.0,"address":"山梨県北杜市明野町浅尾5259-950","latitude":35.77839279174805,"longitude":138.46197509765625,"category":"ホテル","description":"","image_url":""},{"id":13427,"title":"秋田県森林学習交流館 ホテル・プラザクリプトン","architect":"伊藤喜三郎","year":1995.0,"address":"秋田県秋田市河辺戸島上祭沢38-4","latitude":39.626365661621094,"longitude":140.20281982421875,"category":"ホテル/博物館/体験施設","description":"","image_url":""},{"id":13428,"title":"オーベルジュ 音羽倶楽部","architect":"伊藤喜三郎","year":1994.0,"address":"群馬県前橋市神沢の森1-16","latitude":36.40016555786133,"longitude":139.18173217773438,"category":"ホテル","description":"","image_url":""},{"id":13429,"title":"休暇村紀州加太","architect":"伊藤喜三郎建築研究所","year":2016.0,"address":"和歌山県和歌山市深山483","latitude":34.292842864990234,"longitude":135.0724334716797,"category":"ホテル","description":"","image_url":""},{"id":13430,"title":"秋田県立博物館","architect":"安井建築設計","year":1974.0,"address":"秋田県秋田市金足鳰崎後山52","latitude":39.81732177734375,"longitude":140.0662078857422,"category":"博物館","description":"","image_url":""},{"id":13431,"title":"秋田県立武道館","architect":"山下設計","year":2004.0,"address":"秋田県秋田市新屋町砂奴寄2-2","latitude":39.726951599121094,"longitude":140.07679748535156,"category":"体育館","description":"","image_url":""},{"id":13432,"title":"蒲郡ベンチアートプロジェクト見果てぬ夢","architect":"竹山聖","year":2024.0,"address":"愛知県蒲郡市海陽町2-39","latitude":34.806217193603516,"longitude":137.27288818359375,"category":"オブジェ","description":"","image_url":""},{"id":13433,"title":"日本御廟","architect":"竹山聖","year":2024.0,"address":"大阪府枚方市禁野本町1-19-20","latitude":34.81686019897461,"longitude":135.65460205078125,"category":"霊園","description":"","image_url":""},{"id":13434,"title":"都留のサロン TOMI","architect":"竹山聖","year":2023.0,"address":"山梨県都留市上谷3-3-23","latitude":35.54877471923828,"longitude":138.90586853027344,"category":"低層オフィス/美容院","description":"","image_url":""},{"id":13435,"title":"Meguro 4chome Project 目黒メゾン","architect":"竹山聖","year":2022.0,"address":"東京都目黒区目黒4-4-26","latitude":35.63404846191406,"longitude":139.70265197753906,"category":"集合住宅","description":"","image_url":""},{"id":13436,"title":"あっぷるこども園","architect":"竹山聖","year":2014.0,"address":"大阪府豊中市蛍池中町3-8-7","latitude":34.79432678222656,"longitude":135.44796752929688,"category":"幼稚園","description":"","image_url":""},{"id":13437,"title":"イーストプラス","architect":"竹山聖","year":2007.0,"address":"東京都渋谷区東2-22-3","latitude":35.65423583984375,"longitude":139.70892333984375,"category":"テナントビル/オフィスビル","description":"","image_url":""},{"id":13438,"title":"堀内カラー 旧寛斎スーパービル","architect":"竹山聖","year":1997.0,"address":"東京都渋谷区神宮前3-41-6","latitude":35.6711540222168,"longitude":139.71339416503906,"category":"オフィスビル","description":"塔の家に隣接。外観は竣工当時より透明感を増した印象","image_url":""},{"id":13439,"title":"西新宿ホテル ホテルマイステイズ西新宿","architect":"竹山聖","year":1993.0,"address":"東京都新宿区西新宿7-14-14","latitude":35.695003509521484,"longitude":139.69735717773438,"category":"ホテル","description":"","image_url":""},{"id":13440,"title":"新開地アートゲート","architect":"竹山聖","year":1998.0,"address":"兵庫県神戸市兵庫区新開地3-3","latitude":34.67694854736328,"longitude":135.1714324951172,"category":"モール","description":"商店街にかかるフレーム","image_url":""},{"id":13441,"title":"D-HOTEL ホテル コンチネント ヴィジュー","architect":"竹山聖","year":1989.0,"address":"大阪府大阪市中央区道頓堀2-5-15","latitude":34.668418884277344,"longitude":135.49771118164062,"category":"ホテル","description":"","image_url":""},{"id":13442,"title":"新宮の外科医院 味八木医科歯科医院","architect":"竹山聖","year":1981.0,"address":"和歌山県新宮市神倉4-6-40","latitude":33.72019958496094,"longitude":135.9869842529297,"category":"個人医院","description":"","image_url":""},{"id":13443,"title":"目白セクエンツァ","architect":"竹山聖","year":1992.0,"address":"東京都新宿区下落合3-12-32","latitude":35.72142791748047,"longitude":139.6995086669922,"category":"集合住宅","description":"","image_url":""},{"id":13444,"title":"西村屋 本館","architect":"竹山聖","year":2021.0,"address":"兵庫県豊岡市城崎町湯島469","latitude":35.62529373168945,"longitude":134.8057098388672,"category":"旅館","description":"2021年、2022年改修","image_url":""},{"id":13445,"title":"妙見石原荘","architect":"竹山聖","year":2023.0,"address":"鹿児島県霧島市隼人町嘉例川4376","latitude":31.814321517944336,"longitude":130.75650024414062,"category":"旅館","description":"一部改修","image_url":""},{"id":13446,"title":"幕張ベイタウン グランパティオス公園西の街5番館","architect":"竹山聖","year":2001.0,"address":"千葉県千葉市美浜区打瀬2-1-25","latitude":35.642852783203125,"longitude":140.04251098632812,"category":"集合住宅","description":"","image_url":""},{"id":13447,"title":"ogc 雄勝文化会館 オービオン","architect":"荻津郁夫","year":1996.0,"address":"秋田県湯沢市横堀白銀町49-1","latitude":39.05977249145508,"longitude":140.44749450683594,"category":"ホール・劇場","description":"","image_url":""},{"id":13448,"title":"THE V-CITY 麻布十番 PLACE","architect":"三橋設計","year":2023.0,"address":"東京都港区麻布十番1-6-1","latitude":35.656700134277344,"longitude":139.73434448242188,"category":"オフィスビル","description":"","image_url":""},{"id":13449,"title":"あいわ苑","architect":"矢野青山建築設計事務所","year":2023.0,"address":"愛媛県大洲市大洲660-2","latitude":33.50616455078125,"longitude":132.546875,"category":"養護施設","description":"","image_url":""},{"id":13450,"title":"古平町複合施設 かなえーる","architect":"大成建設","year":2022.0,"address":"北海道古平郡古平町浜町50","latitude":43.26399230957031,"longitude":140.63864135742188,"category":"庁舎/公民館・交流施設/図書館","description":"","image_url":""}]}