{"page":204,"total_pages":290,"items_per_page":50,"total_items":14467,"items":[{"id":10151,"title":"石巻市複合文化施設 マルホンまきあーとテラス","architect":"藤本壮介","year":2021.0,"address":"宮城県石巻市開成1-7","latitude":38.45904541015625,"longitude":141.3060760498047,"category":"総合文化施設","big_category":"文化施設","description":"2021年3月利用開始予定。","image_url":"","tags":"Ver3.70(2021年1月)の追加建築,新建築2021年7月号","prefecture":"宮城","contractor":"大成建設・丸本組特定建設工事共同企業体","structural_designer":"","landscape_designer":"","shinkenchiku_url":""},{"id":10152,"title":"藤田美術館 新館","architect":"大成建設","year":2000.0,"address":"大阪府大阪市都島区網島町10-32","latitude":34.69499969482422,"longitude":135.52511596679688,"category":"美術館","big_category":"ミュージアム","description":"2021年4月一部利用開始。2022年4月リニューアルオープン予定。建築は竣工済み","image_url":"","tags":"Ver3.70(2021年1月)の追加建築,新建築2022年3月号","prefecture":"大阪","contractor":"","structural_designer":"","landscape_designer":"","shinkenchiku_url":""},{"id":10153,"title":"くつかけテラス","architect":"宮本忠長+トーニチコンサルタント","year":2013.0,"address":"長野県北佐久郡軽井沢町長倉3037-18","latitude":36.34773635864258,"longitude":138.5919189453125,"category":"駅/図書館/観光施設","big_category":"インフラ,文化施設,レジャー施設","description":"","image_url":"","tags":"Ver3.70(2021年1月)の追加建築","prefecture":"長野","contractor":"","structural_designer":"","landscape_designer":"","shinkenchiku_url":""},{"id":10154,"title":"みいちゃんのお菓子工房","architect":"水本純央","year":2020.0,"address":"滋賀県近江八幡市上田町1257-18","latitude":35.11497116088867,"longitude":136.10781860351562,"category":"店舗","big_category":"商業施設","description":"","image_url":"","tags":"Ver3.70(2021年1月)の追加建築","prefecture":"滋賀","contractor":"","structural_designer":"","landscape_designer":"","shinkenchiku_url":""},{"id":10155,"title":"長野県立美術館","architect":"宮崎浩","year":2021.0,"address":"長野県長野市箱清水1-4-4","latitude":36.661842346191406,"longitude":138.19102478027344,"category":"美術館","big_category":"ミュージアム","description":"長野県信濃美術館の建て替え。2021年4月オープン予定","image_url":"","tags":"Ver3.70(2021年1月)の追加建築,新建築2021年6月号,2022年日本建築学会 作品賞,第31回AACA賞,2021年度JIA日本建築大賞","prefecture":"長野","contractor":"清水・新津建設共同企業体","structural_designer":"","landscape_designer":"","shinkenchiku_url":""},{"id":10156,"title":"柳川市民文化会館 水都やながわ","architect":"日本設計","year":2020.0,"address":"福岡県柳川市上宮永町43-1","latitude":33.156097412109375,"longitude":130.40489196777344,"category":"ホール・劇場","big_category":"文化施設","description":"","image_url":"","tags":"Ver3.70(2021年1月)の追加建築","prefecture":"福岡","contractor":"","structural_designer":"","landscape_designer":"","shinkenchiku_url":""},{"id":10157,"title":"北見市新庁舎","architect":"久米設計+都市設計研究所+清和設計","year":2020.0,"address":"北海道北見市大通西3-1","latitude":43.802894592285156,"longitude":143.8947296142578,"category":"庁舎","big_category":"公共施設","description":"","image_url":"","tags":"Ver3.70(2021年1月)の追加建築","prefecture":"北海道","contractor":"","structural_designer":"","landscape_designer":"","shinkenchiku_url":""},{"id":10158,"title":"アファン ホースロッジ","architect":"古谷誠章","year":2016.0,"address":"長野県上水内郡信濃町大井2742-1830","latitude":36.7695426940918,"longitude":138.17982482910156,"category":"コテージ/企業施設","big_category":"宿泊,企業施設","description":"","image_url":"","tags":"Ver3.70(2021年1月)の追加建築","prefecture":"長野","contractor":"","structural_designer":"","landscape_designer":"","shinkenchiku_url":""},{"id":10159,"title":"砺波市立砺波図書館","architect":"三上建築事務所+押田建築設計事務所","year":2020.0,"address":"富山県砺波市幸町4-1","latitude":36.6367301940918,"longitude":136.95855712890625,"category":"図書館","big_category":"文化施設","description":"","image_url":"","tags":"Ver3.70(2021年1月)の追加建築","prefecture":"富山","contractor":"","structural_designer":"","landscape_designer":"","shinkenchiku_url":""},{"id":10160,"title":"菱屋","architect":"佐野文彦","year":2020.0,"address":"京都府福知山市菱屋52","latitude":35.30369186401367,"longitude":135.12501525878906,"category":"ホテル/旅館","big_category":"宿泊,宿泊","description":"","image_url":"","tags":"Ver3.70(2021年1月)の追加建築","prefecture":"京都","contractor":"","structural_designer":"","landscape_designer":"","shinkenchiku_url":""},{"id":10161,"title":"ダンデライオン・チョコレート京都東山一念坂店","architect":"佐野文彦","year":2018.0,"address":"京都府京都市東山区桝屋町363-6","latitude":34.99894714355469,"longitude":135.78033447265625,"category":"店舗","big_category":"商業施設","description":"","image_url":"","tags":"Ver3.70(2021年1月)の追加建築","prefecture":"京都","contractor":"","structural_designer":"","landscape_designer":"","shinkenchiku_url":""},{"id":10162,"title":"東京合宿所","architect":"伊原慶","year":2017.0,"address":"東京都板橋区双葉町45-1","latitude":35.75911331176758,"longitude":139.70242309570312,"category":"寮","big_category":"住宅","description":"","image_url":"","tags":"Ver3.70(2021年1月)の追加建築","prefecture":"東京","contractor":"","structural_designer":"","landscape_designer":"","shinkenchiku_url":""},{"id":10163,"title":"土直漆器","architect":"岸名大輔","year":2020.0,"address":"福井県鯖江市西袋町214","latitude":35.954471588134766,"longitude":136.27786254882812,"category":"店舗","big_category":"商業施設","description":"","image_url":"","tags":"Ver3.70(2021年1月)の追加建築","prefecture":"福井","contractor":"","structural_designer":"","landscape_designer":"","shinkenchiku_url":""},{"id":10164,"title":"さの会計事務所","architect":"岸名大輔","year":2018.0,"address":"福井県福井市羽水2-126","latitude":36.039642333984375,"longitude":136.22784423828125,"category":"低層オフィス","big_category":"企業施設","description":"","image_url":"","tags":"Ver3.70(2021年1月)の追加建築","prefecture":"福井","contractor":"","structural_designer":"","landscape_designer":"","shinkenchiku_url":""},{"id":10165,"title":"スナディッシュ","architect":"岸名大輔","year":2017.0,"address":"福井県福井市下江尻町10-16-1","latitude":35.994197845458984,"longitude":136.1916046142578,"category":"店舗","big_category":"商業施設","description":"","image_url":"","tags":"Ver3.70(2021年1月)の追加建築","prefecture":"福井","contractor":"","structural_designer":"","landscape_designer":"","shinkenchiku_url":""},{"id":10166,"title":"​木と光、六角形の看護施設","architect":"小木野貴光","year":2020.0,"address":"神奈川県伊勢原市下糟屋3005-2","latitude":35.406822204589844,"longitude":139.3204345703125,"category":"養護施設","big_category":"医療施設","description":"","image_url":"","tags":"Ver3.70(2021年1月)の追加建築","prefecture":"神奈川","contractor":"","structural_designer":"","landscape_designer":"","shinkenchiku_url":""},{"id":10167,"title":"中西プラスチック株式会社","architect":"藤原・室建築設計事務所","year":2019.0,"address":"大阪府大阪市西区靱本町1-16-14","latitude":34.68461990356445,"longitude":135.49435424804688,"category":"オフィスビル","big_category":"企業施設","description":"","image_url":"","tags":"Ver3.70(2021年1月)の追加建築","prefecture":"大阪","contractor":"","structural_designer":"","landscape_designer":"","shinkenchiku_url":""},{"id":10168,"title":"Studio AMBIDEX","architect":"藤原・室建築設計事務所","year":2016.0,"address":"東京都渋谷区元代々木町17-9","latitude":35.67106628417969,"longitude":139.68434143066406,"category":"オフィスビル","big_category":"企業施設","description":"","image_url":"","tags":"Ver3.70(2021年1月)の追加建築","prefecture":"東京","contractor":"","structural_designer":"","landscape_designer":"","shinkenchiku_url":""},{"id":10169,"title":"宝塚のフレンチレストラン Aux petits delices","architect":"藤原・室建築設計事務所","year":2018.0,"address":"兵庫県宝塚市野上2-4-18","latitude":34.79794692993164,"longitude":135.34872436523438,"category":"レストラン/住宅","big_category":"商業施設,住宅","description":"","image_url":"","tags":"Ver3.70(2021年1月)の追加建築","prefecture":"兵庫","contractor":"","structural_designer":"","landscape_designer":"","shinkenchiku_url":""},{"id":10170,"title":"西大寺の店舗+住宅","architect":"藤原・室建築設計事務所","year":2013.0,"address":"奈良県奈良市西大寺南町10-1","latitude":34.69214630126953,"longitude":135.78170776367188,"category":"店舗/住宅","big_category":"商業施設,住宅","description":"","image_url":"","tags":"Ver3.70(2021年1月)の追加建築","prefecture":"奈良","contractor":"","structural_designer":"","landscape_designer":"","shinkenchiku_url":""},{"id":10171,"title":"Mizo","architect":"藤原・室建築設計事務所","year":2019.0,"address":"京都府京都市中京区西ノ京小堀町1-7","latitude":35.01386260986328,"longitude":135.74241638183594,"category":"レストラン","big_category":"商業施設","description":"","image_url":"","tags":"Ver3.70(2021年1月)の追加建築","prefecture":"京都","contractor":"","structural_designer":"","landscape_designer":"","shinkenchiku_url":""},{"id":10172,"title":"泉の杜幼稚園","architect":"鈴木弘人","year":2020.0,"address":"宮城県仙台市泉区小角大満寺22-4","latitude":38.32801818847656,"longitude":140.79501342773438,"category":"幼稚園","big_category":"教育","description":"","image_url":"","tags":"Ver3.70(2021年1月)の追加建築","prefecture":"宮城","contractor":"","structural_designer":"","landscape_designer":"","shinkenchiku_url":""},{"id":10173,"title":"ラトリエナチュラル","architect":"塩路優介","year":2019.0,"address":"和歌山県有田郡有田川町水尻1289-4","latitude":34.051944732666016,"longitude":135.19725036621094,"category":"店舗","big_category":"商業施設","description":"","image_url":"","tags":"Ver3.70(2021年1月)の追加建築","prefecture":"和歌山","contractor":"","structural_designer":"","landscape_designer":"","shinkenchiku_url":""},{"id":10174,"title":"アンラタ和歌山市駅店","architect":"塩路優介","year":2020.0,"address":"和歌山県和歌山市西大工町1","latitude":34.23543930053711,"longitude":135.17237854003906,"category":"美容院","big_category":"商業施設","description":"","image_url":"","tags":"Ver3.70(2021年1月)の追加建築","prefecture":"和歌山","contractor":"","structural_designer":"","landscape_designer":"","shinkenchiku_url":""},{"id":10175,"title":"ひみつジャナイ基地","architect":"松本樹+愛媛建築研究所","year":2020.0,"address":"愛媛県松山市道後湯月町2-41","latitude":33.8515739440918,"longitude":132.78932189941406,"category":"公民館・交流施設/ギャラリー","big_category":"公共施設,ミュージアム","description":"","image_url":"","tags":"Ver3.70(2021年1月)の追加建築","prefecture":"愛媛","contractor":"","structural_designer":"","landscape_designer":"","shinkenchiku_url":""},{"id":10176,"title":"レクサス周南","architect":"坂野由典","year":2019.0,"address":"山口県周南市徳山6676-10","latitude":34.06121063232422,"longitude":131.8120574951172,"category":"店舗","big_category":"商業施設","description":"","image_url":"","tags":"Ver3.70(2021年1月)の追加建築","prefecture":"山口","contractor":"","structural_designer":"","landscape_designer":"","shinkenchiku_url":""},{"id":10177,"title":"沼田町 暮らしの安心センター","architect":"古谷誠章","year":2017.0,"address":"北海道沼田町雨竜郡南1条1-8-25","latitude":43.806339263916016,"longitude":141.93809509277344,"category":"福祉センター","big_category":"医療施設","description":"","image_url":"","tags":"Ver3.70(2021年1月)の追加建築","prefecture":"北海道","contractor":"","structural_designer":"","landscape_designer":"","shinkenchiku_url":""},{"id":10178,"title":"Maison KEI","architect":"内藤廣","year":2020.0,"address":"静岡県御殿場市東山527-1","latitude":35.296051025390625,"longitude":138.95797729492188,"category":"レストラン","big_category":"商業施設","description":"","image_url":"","tags":"Ver3.70(2021年1月)の追加建築","prefecture":"静岡","contractor":"","structural_designer":"","landscape_designer":"","shinkenchiku_url":""},{"id":10179,"title":"淡交社ビルヂング","architect":"谷口吉郎","year":1968.0,"address":"京都府京都市北区紫野宮西町19-1","latitude":35.038516998291016,"longitude":135.75198364257812,"category":"オフィスビル","big_category":"企業施設","description":"1977年増築","image_url":"","tags":"Ver3.70(2021年1月)の追加建築","prefecture":"京都","contractor":"","structural_designer":"","landscape_designer":"","shinkenchiku_url":""},{"id":10180,"title":"京懐石美濃吉本店 竹茂楼","architect":"今里隆","year":1992.0,"address":"京都府京都市左京区粟田口鳥居町65","latitude":35.01007843017578,"longitude":135.78521728515625,"category":"料亭","big_category":"商業施設","description":"","image_url":"","tags":"Ver3.70(2021年1月)の追加建築","prefecture":"京都","contractor":"","structural_designer":"","landscape_designer":"","shinkenchiku_url":""},{"id":10181,"title":"祇園会館","architect":"図師嘉彦","year":1958.0,"address":"京都府京都市東山区祇園町北側323","latitude":35.00462341308594,"longitude":135.77725219726562,"category":"ホール・劇場","big_category":"文化施設","description":"壁画は中村順平。屋上に増築あり","image_url":"","tags":"Ver3.70(2021年1月)の追加建築","prefecture":"京都","contractor":"","structural_designer":"","landscape_designer":"","shinkenchiku_url":""},{"id":10182,"title":"ユーハイムビル","architect":"芦原義信","year":1976.0,"address":"京都府京都市中京区米屋町393","latitude":35.00397872924805,"longitude":135.76905822753906,"category":"テナントビル","big_category":"商業施設","description":"","image_url":"","tags":"Ver3.70(2021年1月)の追加建築","prefecture":"京都","contractor":"","structural_designer":"","landscape_designer":"","shinkenchiku_url":""},{"id":10183,"title":"日吉ヶ丘高等学校","architect":"堀口捨己","year":1957.0,"address":"京都府京都市東山区今熊野悲田院山町5-22","latitude":34.97864532470703,"longitude":135.7758331298828,"category":"学校/茶室","big_category":"教育,住宅","description":"実習棟にあった茶室「雲岫席」もプレファブ平屋の建物内に移築され現存している","image_url":"","tags":"Ver3.70(2021年1月)の追加建築","prefecture":"京都","contractor":"","structural_designer":"","landscape_designer":"","shinkenchiku_url":""},{"id":10184,"title":"伏見稲荷大社儀式殿","architect":"横河建築設計事務所","year":1968.0,"address":"京都府京都市伏見区深草藪之内町68","latitude":34.96754455566406,"longitude":135.77186584472656,"category":"寺院","big_category":"宗教","description":"正確には横河工務所時代の設計（1969年横河建築設計事務所に改名）","image_url":"","tags":"Ver3.70(2021年1月)の追加建築","prefecture":"京都","contractor":"","structural_designer":"","landscape_designer":"","shinkenchiku_url":""},{"id":10185,"title":"大阪アメリカーナビル","architect":"吉村順三","year":1966.0,"address":"大阪府大阪市中央区農人橋1-4-33","latitude":34.6810188293457,"longitude":135.51522827148438,"category":"テナントビル","big_category":"商業施設","description":"","image_url":"","tags":"Ver3.70(2021年1月)の追加建築","prefecture":"大阪","contractor":"","structural_designer":"","landscape_designer":"","shinkenchiku_url":""},{"id":10186,"title":"日の丸自動車学校","architect":"芦原太郎","year":1996.0,"address":"東京都目黒区三田1-6-27","latitude":35.63882064819336,"longitude":139.71299743652344,"category":"専門学校","big_category":"教育","description":"","image_url":"","tags":"Ver3.70(2021年1月)の追加建築","prefecture":"東京","contractor":"","structural_designer":"","landscape_designer":"","shinkenchiku_url":""},{"id":10187,"title":"三井ガーデンホテル 神宮外苑の杜プレミア","architect":"日建設計+清水建設","year":2019.0,"address":"東京都新宿区霞ヶ丘町11-3","latitude":35.68003463745117,"longitude":139.7156982421875,"category":"ホテル","big_category":"宿泊","description":"","image_url":"","tags":"Ver3.70(2021年1月)の追加建築","prefecture":"東京","contractor":"","structural_designer":"","landscape_designer":"","shinkenchiku_url":""},{"id":10188,"title":"川越市保健所","architect":"隈研吾","year":2004.0,"address":"埼玉県川越市小ケ谷817-1","latitude":35.92652130126953,"longitude":139.45877075195312,"category":"福祉センター","big_category":"医療施設","description":"","image_url":"","tags":"Ver3.70(2021年1月)の追加建築","prefecture":"埼玉","contractor":"","structural_designer":"","landscape_designer":"","shinkenchiku_url":""},{"id":10189,"title":"旧齋藤家別邸","architect":"不明","year":1918.0,"address":"新潟県新潟市中央区西大畑町576","latitude":37.925926208496094,"longitude":139.04043579101562,"category":"古民家/和風住宅","big_category":"近代建築/遺産,住宅","description":"","image_url":"","tags":"Ver3.70(2021年1月)の追加建築","prefecture":"新潟","contractor":"","structural_designer":"","landscape_designer":"","shinkenchiku_url":""},{"id":10190,"title":"旧豊多摩監獄正門","architect":"後藤慶二","year":1915.0,"address":"東京都中野区新井3-37","latitude":35.71450424194336,"longitude":139.66201782226562,"category":"公共施設","big_category":"公共施設","description":"施工のほとんどが囚人によるもの。豊多摩監獄本館は現存せず。表門のみ現存。","image_url":"","tags":"Ver3.70(2021年1月)の追加建築","prefecture":"東京","contractor":"","structural_designer":"","landscape_designer":"","shinkenchiku_url":""},{"id":10191,"title":"上総鶴舞駅公衆トイレ","architect":"藤本壮介","year":2018.0,"address":"千葉県市原市池和田898-2","latitude":35.381378173828125,"longitude":140.1651611328125,"category":"トイレ","big_category":"公共施設","description":"","image_url":"","tags":"Ver3.70(2021年1月)の追加建築","prefecture":"千葉","contractor":"","structural_designer":"","landscape_designer":"","shinkenchiku_url":""},{"id":10192,"title":"亀崎公園の再編","architect":"市川大輔","year":2017.0,"address":"愛知県半田市亀崎町5-97","latitude":34.91543960571289,"longitude":136.9658966064453,"category":"公園","big_category":"レジャー施設","description":"","image_url":"","tags":"Ver3.70(2021年1月)の追加建築","prefecture":"愛知","contractor":"","structural_designer":"","landscape_designer":"","shinkenchiku_url":""},{"id":10193,"title":"新津図書館","architect":"創建築設計事務所","year":2014.0,"address":"新潟県新潟市秋葉区日宝町6-2","latitude":37.7963981628418,"longitude":139.12757873535156,"category":"図書館","big_category":"文化施設","description":"","image_url":"","tags":"Ver3.70(2021年1月)の追加建築","prefecture":"新潟","contractor":"","structural_designer":"","landscape_designer":"","shinkenchiku_url":""},{"id":10194,"title":"中之口先人館","architect":"創建築設計事務所","year":2000.0,"address":"新潟県新潟市西蒲区中之口363","latitude":37.712791442871094,"longitude":138.96859741210938,"category":"博物館","big_category":"ミュージアム","description":"","image_url":"","tags":"Ver3.70(2021年1月)の追加建築","prefecture":"新潟","contractor":"","structural_designer":"","landscape_designer":"","shinkenchiku_url":""},{"id":10195,"title":"中川政七商店 複合商業施設 鹿猿狐ビルヂング","architect":"内藤廣","year":2020.0,"address":"奈良県奈良市元林院町22","latitude":34.68111801147461,"longitude":135.82984924316406,"category":"モール/店舗","big_category":"商業施設,商業施設","description":"2021年春オープン予定","image_url":"","tags":"Ver3.80(2021年6月)の追加建築,新建築2022年1月号","prefecture":"奈良","contractor":"","structural_designer":"","landscape_designer":"","shinkenchiku_url":""},{"id":10196,"title":"glaminka SAYO集落","architect":"TEAMクラプトン","year":2020.0,"address":"兵庫県佐用郡佐用町若州577","latitude":35.12641143798828,"longitude":134.367431640625,"category":"コテージ/古民家","big_category":"宿泊,近代建築/遺産","description":"グランピングも楽しめる一棟貸古民家宿","image_url":"","tags":"Ver3.80(2021年6月)の追加建築","prefecture":"兵庫","contractor":"","structural_designer":"","landscape_designer":"","shinkenchiku_url":""},{"id":10197,"title":"淡路サービスエリア 下り線","architect":"隈研吾","year":1998.0,"address":"兵庫県淡路市岩屋2568","latitude":34.58309555053711,"longitude":135.01817321777344,"category":"PA・道の駅","big_category":"インフラ","description":"","image_url":"","tags":"Ver3.80(2021年6月)の追加建築","prefecture":"兵庫","contractor":"","structural_designer":"","landscape_designer":"","shinkenchiku_url":""},{"id":10198,"title":"平成学園 ひまわり幼稚園","architect":"隈研吾","year":2020.0,"address":"高知県南国市岡豊町1219-1","latitude":33.58797836303711,"longitude":133.61080932617188,"category":"幼稚園","big_category":"教育","description":"","image_url":"","tags":"Ver3.80(2021年6月)の追加建築","prefecture":"高知","contractor":"","structural_designer":"","landscape_designer":"","shinkenchiku_url":""},{"id":10199,"title":"HOTEL THE MITSUI KYOTO","architect":"清水建設+栗生明","year":2020.0,"address":"京都府京都市中京区二条油小路町284","latitude":35.01325988769531,"longitude":135.75308227539062,"category":"ホテル","big_category":"宿泊","description":"栗生明がマスターデザインアドバイザー","image_url":"","tags":"新建築2021年2月号,Ver3.80(2021年6月)の追加建築","prefecture":"京都","contractor":"","structural_designer":"","landscape_designer":"","shinkenchiku_url":""},{"id":10200,"title":"terrace H 日吉坂事務所オフィス","architect":"日吉坂事務所","year":2020.0,"address":"東京都渋谷区上原3-3-6","latitude":35.66758728027344,"longitude":139.6807861328125,"category":"低層オフィス/住宅","big_category":"企業施設,住宅","description":"","image_url":"","tags":"新建築2021年2月号,Ver3.80(2021年6月)の追加建築","prefecture":"東京","contractor":"","structural_designer":"","landscape_designer":"","shinkenchiku_url":""}]}