{"page":158,"total_pages":290,"items_per_page":50,"total_items":14467,"items":[{"id":7851,"title":"FAREウエハラノイエEAST","architect":"伊藤博之","year":2018.0,"address":"東京都渋谷区上原2-42","latitude":35.666481018066406,"longitude":139.6813201904297,"category":"集合住宅","description":"","image_url":""},{"id":7852,"title":"アイテラスガーデンズ目白","architect":"早草睦惠","year":2018.0,"address":"東京都豊島区目白5-18-23","latitude":35.72378921508789,"longitude":139.69622802734375,"category":"集合住宅","description":"","image_url":""},{"id":7853,"title":"パークコート青山 ザ・タワー","architect":"大林組","year":2018.0,"address":"東京都港区南青山2-3-3","latitude":35.6706657409668,"longitude":139.72352600097656,"category":"集合住宅","description":"","image_url":""},{"id":7854,"title":"アンソレイユ氷川台 旧早宮サンハイツ","architect":"青木茂","year":2017.0,"address":"東京都練馬区早宮1-3-13","latitude":35.751373291015625,"longitude":139.6625213623047,"category":"集合住宅","description":"元は1977年竣工。リファイニング建築","image_url":""},{"id":7855,"title":"パークティアラ北馬込 旧林マンション","architect":"青木茂","year":2018.0,"address":"東京都大田区北馬込1-17-6","latitude":35.59920120239258,"longitude":139.70462036132812,"category":"集合住宅","description":"元は1967年竣工。リファイニング建築","image_url":""},{"id":7856,"title":"望矩楼","architect":"藤森照信","year":2018.0,"address":"静岡県浜松市天竜区二俣町二俣130","latitude":34.86452865600586,"longitude":137.8196563720703,"category":"茶室","description":"秋野不矩美術館施設内。藤森照信展に合わせて建設された。会期後も残る予定。","image_url":""},{"id":7857,"title":"まんのう町立満濃中学校・町立図書館  ","architect":"大成建設+シーラカンスK&H","year":2013.0,"address":"香川県仲多度郡まんのう町吉野下957","latitude":34.187923431396484,"longitude":133.8479766845703,"category":"学校/図書館","description":"","image_url":""},{"id":7858,"title":"西白山台小学校","architect":"シーラカンスK&H+日本設計","year":2017.0,"address":"青森県八戸市西白山4-8-24","latitude":40.476898193359375,"longitude":141.4551544189453,"category":"学校","description":"","image_url":""},{"id":7859,"title":"菊間駅","architect":"山本忠司","year":1988.0,"address":"愛媛県今治市菊間町浜2072","latitude":34.0334358215332,"longitude":132.84092712402344,"category":"駅","description":"","image_url":""},{"id":7860,"title":"犬島 くらしの植物園・植物園カフェ","architect":"妹島和世+あかるい建築計画+松沢一応","year":2016.0,"address":"岡山県岡山市東区犬島53","latitude":34.56306457519531,"longitude":134.09869384765625,"category":"動植物園","description":"ニワトリ小屋・道具小屋の設計はあかるい建築計画。トイレ・コンポストトイレは松沢一応が設計。他、ランドスケープは明るい小屋。","image_url":""},{"id":7861,"title":"松山市民会館","architect":"石本建築事務所","year":1965.0,"address":"愛媛県松山市堀之内5","latitude":33.840919494628906,"longitude":132.7611083984375,"category":"ホール・劇場","description":"","image_url":""},{"id":7862,"title":"シナガワグース","architect":"坂倉建築研究所","year":1971.0,"address":"東京都港区高輪3-13-3","latitude":35.62980651855469,"longitude":139.73611450195312,"category":"ホテル","description":"","image_url":""},{"id":7863,"title":"千葉県総合スポーツセンター体育館","architect":"加藤渉","year":1972.0,"address":"千葉県千葉市稲毛区天台町323","latitude":35.649444580078125,"longitude":140.12185668945312,"category":"体育館","description":"","image_url":""},{"id":7864,"title":"120×120の森 檜の家 50周年記念モデルハウス","architect":"隈研吾","year":2018.0,"address":"東京都世田谷区瀬田5-20 ハウジングプラザ瀬田展示場内","latitude":35.625179290771484,"longitude":139.62631225585938,"category":"住宅","description":"日本ハウスＨＤ50周年記念モデルハウス。いつまであるかは不明。","image_url":""},{"id":7865,"title":"いるかホステル","architect":"本瀬齋田建築設計事務所","year":2018.0,"address":"富山県富山市奥田新町8-1","latitude":36.70509719848633,"longitude":137.2159881591797,"category":"ホステル","description":"","image_url":""},{"id":7866,"title":"琵琶湖マリオットホテル","architect":"レーモンド設計事務所","year":1985.0,"address":"滋賀県守山市今浜町十軒家2876","latitude":35.12527084350586,"longitude":135.95492553710938,"category":"ホテル","description":"","image_url":""},{"id":7867,"title":"白河市中心市街地市民交流センター マイタウン白河","architect":"青木茂","year":2016.0,"address":"福島県白河市本町2","latitude":37.127227783203125,"longitude":140.21478271484375,"category":"公民館・交流施設","description":"1971年竣工の建築をリファイニング","image_url":""},{"id":7868,"title":"真庭市立中央図書館 旧勝山振興局庁舎","architect":"青木茂","year":2018.0,"address":"岡山県真庭市勝山53-1","latitude":35.087589263916016,"longitude":133.69131469726562,"category":"図書館","description":"1980年竣工の建築をリファイニング","image_url":""},{"id":7869,"title":"アスプライム千代田富士見","architect":"青木茂","year":2018.0,"address":"東京都千代田区富士見2-4-12","latitude":35.70024108886719,"longitude":139.7460479736328,"category":"集合住宅","description":"1981年竣工の建築をリファイニング","image_url":""},{"id":7870,"title":"東福寺 涅槃堂","architect":"三浦慎","year":2005.0,"address":"東京都渋谷区渋谷3-10-6","latitude":35.656944274902344,"longitude":139.7053985595703,"category":"寺院","description":"","image_url":""},{"id":7871,"title":"ホテルリズベリオ赤坂","architect":"三浦慎","year":2015.0,"address":"東京都港区赤坂3-18-1","latitude":35.675498962402344,"longitude":139.73641967773438,"category":"ホテル","description":"","image_url":""},{"id":7872,"title":"愛育苑診療所","architect":"三浦慎","year":2003.0,"address":"東京都葛飾区水元3-13-6","latitude":35.78228759765625,"longitude":139.86346435546875,"category":"個人医院","description":"","image_url":""},{"id":7873,"title":"交流施設 ほんまるの家 旧SUMIKAパヴィリオン","architect":"伊東豊雄","year":2008.0,"address":"岩手県陸前高田市高田町字大町39","latitude":39.016841888427734,"longitude":141.62841796875,"category":"住宅/公民館・交流施設","description":"SUMIKAパヴィリオンを2018年に移設。","image_url":""},{"id":7874,"title":"伊予市本庁舎","architect":"日本設計","year":2018.0,"address":"愛媛県伊予市米湊820","latitude":33.75754165649414,"longitude":132.7037353515625,"category":"庁舎","description":"","image_url":""},{"id":7875,"title":"ツインリンクもてぎ","architect":"日本設計","year":1997.0,"address":"栃木県芳賀郡茂木町桧山120-1","latitude":36.53190231323242,"longitude":140.22537231445312,"category":"スポーツ施設/博物館","description":"","image_url":""},{"id":7876,"title":"福岡市博物館","architect":"佐藤総合計画","year":1990.0,"address":"福岡県福岡市早良区百道浜3-1-1","latitude":33.58976364135742,"longitude":130.3530731201172,"category":"博物館","description":"","image_url":""},{"id":7877,"title":"オーテピア高知図書館","architect":"佐藤総合計画+ライト岡田設計","year":2017.0,"address":"高知県高知市追手筋2-1-12","latitude":33.560882568359375,"longitude":133.53688049316406,"category":"図書館/博物館","description":"","image_url":""},{"id":7878,"title":"尼崎市立大庄公民館 旧大庄村役場","architect":"村野藤吾","year":1937.0,"address":"兵庫県尼崎市大庄西町3-6-14","latitude":34.72202682495117,"longitude":135.39065551757812,"category":"公民館・交流施設","description":"","image_url":""},{"id":7879,"title":"東京大学 総合研究博物館","architect":"香山壽夫","year":1983.0,"address":"東京都文京区本郷7-3-1","latitude":35.708595275878906,"longitude":139.76119995117188,"category":"博物館/大学","description":"","image_url":""},{"id":7880,"title":"聖アンデレ教会礼拝堂","architect":"香山壽夫","year":1996.0,"address":"東京都港区芝公園3-6-18","latitude":35.66016387939453,"longitude":139.7435760498047,"category":"教会","description":"","image_url":""},{"id":7881,"title":"厳律シトー会 灯台の聖母トラピスト大修道院 当別聖リタ教会堂","architect":"香山壽夫","year":1995.0,"address":"北海道北斗市三ツ石392","latitude":41.738372802734375,"longitude":140.57151794433594,"category":"教会","description":"","image_url":""},{"id":7882,"title":"長久手市立市が洞小学校","architect":"香山壽夫","year":2008.0,"address":"愛知県長久手市市が洞1-1203","latitude":35.16483688354492,"longitude":137.02894592285156,"category":"学校","description":"","image_url":""},{"id":7883,"title":"東京大学 法学部3号館","architect":"香山壽夫","year":2012.0,"address":"東京都文京区本郷7-3-1","latitude":35.71259689331055,"longitude":139.76023864746094,"category":"大学","description":"","image_url":""},{"id":7884,"title":"東京芸術劇場","architect":"芦原義信+松田平田設計+香山壽夫","year":1990.0,"address":"東京都豊島区西池袋1-8-1","latitude":35.729637145996094,"longitude":139.70799255371094,"category":"ホール・劇場","description":"2012年に松田平田設計、香山壽夫により改修","image_url":""},{"id":7885,"title":"桐光学園 20周年記念館","architect":"香山壽夫","year":1997.0,"address":"神奈川県川崎市麻生区栗木3-12-1","latitude":35.603458404541016,"longitude":139.47311401367188,"category":"学校/体育館","description":"","image_url":""},{"id":7886,"title":"関家具 ペガサスビル","architect":"青木茂","year":2015.0,"address":"福岡県大川市幡保172-3","latitude":33.19541931152344,"longitude":130.382080078125,"category":"店舗/オフィスビル","description":"リファイニング建築","image_url":""},{"id":7887,"title":"みなと銀行 芦屋駅前支店","architect":"青木茂","year":2014.0,"address":"兵庫県神戸市船戸町5-1","latitude":34.735809326171875,"longitude":135.30645751953125,"category":"金融機関","description":"リファイニング建築","image_url":""},{"id":7888,"title":"光第2ビル","architect":"青木茂","year":2016.0,"address":"福岡県大野城市中央1-7-2","latitude":33.52495574951172,"longitude":130.48422241210938,"category":"集合住宅","description":"リファイニング建築","image_url":""},{"id":7889,"title":"セドール笹塚","architect":"青木茂","year":2015.0,"address":"東京都杉並区方南1-2-12","latitude":35.67373275756836,"longitude":139.6605224609375,"category":"集合住宅","description":"リファイニング建築","image_url":""},{"id":7890,"title":"豊橋商工会議所ビル","architect":"青木茂","year":2014.0,"address":"愛知県豊橋市花田町字石塚42-1","latitude":34.76728439331055,"longitude":137.3826141357422,"category":"組合施設","description":"リファイニング建築","image_url":""},{"id":7891,"title":"医療法人髙野胃腸科","architect":"青木茂","year":2014.0,"address":"福岡県福岡市東区筥松2-24-11","latitude":33.6195068359375,"longitude":130.4286346435547,"category":"個人医院","description":"リファイニング建築","image_url":""},{"id":7892,"title":"佐賀地方・家庭裁判所 ","architect":"青木茂","year":2013.0,"address":"佐賀県佐賀市中の小路3-22","latitude":33.25322341918945,"longitude":130.29698181152344,"category":"公共施設","description":"リファイニング建築","image_url":""},{"id":7893,"title":"フジトランスコーポレーション新社屋","architect":"青木茂","year":2012.0,"address":"愛知県名古屋市港区入船1-7-41","latitude":35.0936393737793,"longitude":136.88328552246094,"category":"オフィスビル","description":"","image_url":""},{"id":7894,"title":"D.SIDE","architect":"青木茂","year":2014.0,"address":"福岡県福岡市中央区大名1-14-29","latitude":33.58768081665039,"longitude":130.3956298828125,"category":"テナントビル","description":"","image_url":""},{"id":7895,"title":"松崎幼稚園 講堂","architect":"青木茂","year":2014.0,"address":"山口県防府市天神2-5-22","latitude":34.057960510253906,"longitude":131.57467651367188,"category":"幼稚園","description":"","image_url":""},{"id":7896,"title":"ヒュッゲ カンダハイム","architect":"青木茂","year":2016.0,"address":"東京都大田区蒲田1-24-12","latitude":35.564571380615234,"longitude":139.71986389160156,"category":"集合住宅","description":"","image_url":""},{"id":7897,"title":"詩の里 ラソーレ早良南","architect":"青木茂","year":2011.0,"address":"福岡県福岡市早良区重留2-5-1","latitude":33.534942626953125,"longitude":130.3435516357422,"category":"養護施設/集合住宅","description":"","image_url":""},{"id":7898,"title":"大名ビューティーコンプレックス","architect":"青木茂","year":2010.0,"address":"福岡県福岡市中央区大名1-14-25","latitude":33.58760070800781,"longitude":130.3953399658203,"category":"テナントビル","description":"","image_url":""},{"id":7899,"title":"群馬県庁昭和庁舎","architect":"佐藤功一","year":1928.0,"address":"群馬県前橋市大手町1-1-1","latitude":36.39118194580078,"longitude":139.06085205078125,"category":"庁舎","description":"","image_url":""},{"id":7900,"title":"前橋市立図書館","architect":"高橋靗一","year":1974.0,"address":"群馬県前橋市大手町2-12-9","latitude":36.38939666748047,"longitude":139.0640869140625,"category":"図書館","description":"","image_url":""}]}