{"page":219,"total_pages":290,"items_per_page":50,"total_items":14467,"items":[{"id":10901,"title":"カトリック三篠教会","architect":"イグナチオ・グロッパー","year":1952.0,"address":"広島県広島市西区楠木町4-16-30","latitude":34.41535949707031,"longitude":132.45790100097656,"category":"教会","description":"","image_url":""},{"id":10902,"title":"山ニ証券 本社","architect":"西村好時","year":1936.0,"address":"東京都中央区日本橋兜町4-1","latitude":35.682525634765625,"longitude":139.77818298339844,"category":"金融機関","description":"","image_url":""},{"id":10903,"title":"日証館ビル","architect":"横河民輔","year":1928.0,"address":"東京都中央区日本橋兜町1-10","latitude":35.68338394165039,"longitude":139.77883911132812,"category":"金融機関","description":"","image_url":""},{"id":10904,"title":"白水社 本社","architect":"北山孝二郎","year":1984.0,"address":"東京都中央区日本橋茅場町2-2-8","latitude":35.679195404052734,"longitude":139.77781677246094,"category":"低層オフィス","description":"","image_url":""},{"id":10905,"title":"rassembler 中根","architect":"岡本浩","year":2019.0,"address":"東京都目黒区中根2-13-2","latitude":35.61688995361328,"longitude":139.67604064941406,"category":"集合住宅/店舗","description":"","image_url":""},{"id":10906,"title":"新島学園短期大学 講堂 新島の森","architect":"手塚建築研究所","year":2020.0,"address":"群馬県高崎市昭和町53","latitude":36.33738327026367,"longitude":139.00425720214844,"category":"大学/ホール・劇場","description":"","image_url":""},{"id":10907,"title":"Hulic &New Ginza 8","architect":"竹中工務店+隈研吾","year":2021.0,"address":"東京都中央区銀座8-9-7","latitude":35.6678466796875,"longitude":139.76187133789062,"category":"テナントビル","description":"デザイン監修：隈研吾","image_url":""},{"id":10908,"title":"ザ ロイヤルパーク キャンバス 札幌大通公園","architect":"三菱地所","year":2021.0,"address":"北海道札幌市中央区大通西1-12","latitude":43.0604362487793,"longitude":141.35598754882812,"category":"ホテル","description":"","image_url":""},{"id":10909,"title":"桐朋学園 宗次ホール","architect":"隈研吾","year":2021.0,"address":"東京都調布市若葉町1-41-1","latitude":35.65991973876953,"longitude":139.583740234375,"category":"大学/ホール・劇場","description":"基本設計・デザイン監修：隈研吾","image_url":""},{"id":10910,"title":"小田急線 参宮橋駅","architect":"フジタ","year":2020.0,"address":"東京都渋谷区代々木4-6","latitude":35.67863845825195,"longitude":139.69349670410156,"category":"駅","description":"","image_url":""},{"id":10911,"title":"HKJ 一松山 本興寺","architect":"新関謙一郎","year":2021.0,"address":"千葉県長生郡長生村一松丙301","latitude":35.396339416503906,"longitude":140.3677520751953,"category":"寺院","description":"","image_url":""},{"id":10912,"title":"cox","architect":"新関謙一郎","year":2015.0,"address":"茨城県つくば市小野崎448-1","latitude":36.07363510131836,"longitude":140.10997009277344,"category":"カフェ","description":"","image_url":""},{"id":10913,"title":"南予森林組合新事務所","architect":"SUEP.+新企画設計+金箱構造設計事務所","year":2021.0,"address":"愛媛県北宇和郡鬼北町大字奈良4073-7","latitude":33.24819564819336,"longitude":132.6697998046875,"category":"組合施設","description":"","image_url":""},{"id":10914,"title":"大山将棋記念館","architect":"原哲弘","year":2005.0,"address":"青森県上北郡おいらせ町下前田144-1","latitude":40.6046028137207,"longitude":141.43295288085938,"category":"博物館","description":"","image_url":""},{"id":10915,"title":"木舎 徳島県木材利用創造センター 林業人材育成棟","architect":"内野輝明","year":2018.0,"address":"徳島県徳島市南庄町5-1-9","latitude":34.06650924682617,"longitude":134.5084991455078,"category":"公共施設/組合施設","description":"","image_url":""},{"id":10916,"title":"徳島ヴォルティス クラブハウス","architect":"内野輝明","year":2021.0,"address":"徳島県板野郡板野町犬伏瓢谷2-22","latitude":34.15437316894531,"longitude":134.44473266601562,"category":"クラブハウス","description":"","image_url":""},{"id":10917,"title":"あすたむらんど徳島 徳島県子ども科学館","architect":"久米設計","year":2000.0,"address":"徳島県板野郡板野町那東キビガ谷45-22","latitude":34.1534423828125,"longitude":134.44125366210938,"category":"博物館/児童施設","description":"","image_url":""},{"id":10918,"title":"EAA OFFICE 遠藤建築アトリエ社屋","architect":"遠藤謙一良","year":2019.0,"address":"北海道札幌市中央区北4条西20-1-18","latitude":43.06221008300781,"longitude":141.324462890625,"category":"低層オフィス","description":"","image_url":""},{"id":10919,"title":"北海道立北の森づくり専門学院","architect":"遠藤謙一良","year":2021.0,"address":"北海道旭川市西神楽1線10号","latitude":43.69997787475586,"longitude":142.38198852539062,"category":"専門学校","description":"","image_url":""},{"id":10920,"title":"HOKKAIDO CLT PAVILION　","architect":"遠藤謙一良","year":2019.0,"address":"北海道旭川市西神楽1線10号","latitude":43.69928741455078,"longitude":142.3831329345703,"category":"研究施設","description":"","image_url":""},{"id":10921,"title":"イトイグループホールディングス社屋","architect":"遠藤謙一良","year":2020.0,"address":"北海道士別市朝日町中央4527-89","latitude":44.11392593383789,"longitude":142.58665466308594,"category":"低層オフィス","description":"","image_url":""},{"id":10922,"title":"KAKAMIGAHARA PARK BRIDGE","architect":"goboc設計事務所+西田拓馬","year":2021.0,"address":"岐阜県各務原市那加雲雀町30-1","latitude":35.40141677856445,"longitude":136.84429931640625,"category":"児童施設","description":"","image_url":""},{"id":10923,"title":"アグリケアガーデン かすみがうら","architect":"安藤邦廣","year":2019.0,"address":"茨城県かすみがうら市上稲吉38","latitude":36.13739776611328,"longitude":140.21786499023438,"category":"養護施設","description":"","image_url":""},{"id":10924,"title":"魚津市立星の杜小学校","architect":"東畑建築事務所+鈴木一級建築士事務所","year":2020.0,"address":"富山県魚津市住吉203","latitude":36.80406951904297,"longitude":137.39712524414062,"category":"学校","description":"","image_url":""},{"id":10925,"title":"流山市立おおぐろの森小学校","architect":"日本設計","year":2021.0,"address":"千葉県流山市大畔316-1","latitude":35.873748779296875,"longitude":139.91357421875,"category":"学校","description":"","image_url":""},{"id":10926,"title":"下石の通い所","architect":"ほとり建築事務所+魚谷剛紀","year":2020.0,"address":"岐阜県土岐市下石町910-1","latitude":35.324527740478516,"longitude":137.18556213378906,"category":"養護施設","description":"","image_url":""},{"id":10927,"title":"ジョルジュ・ギャラリー+コヒラカフェ","architect":"ドットアーキテクツ","year":2019.0,"address":"香川県小豆郡小豆島町馬木甲881-9","latitude":34.47459030151367,"longitude":134.3185577392578,"category":"ギャラリー/カフェ/美術館","description":"","image_url":""},{"id":10928,"title":"醤の郷現代美術館","architect":"ドットアーキテクツ","year":2021.0,"address":"香川県小豆郡小豆島町馬木36-2","latitude":34.47454071044922,"longitude":134.3181610107422,"category":"美術館","description":"瀬戸内瀬戸内国際芸術祭2022開催の2022年にグランドオープン予定。現在プレオープン中","image_url":""},{"id":10929,"title":"MOCA HISHIO ANNEX","architect":"ドットアーキテクツ","year":2021.0,"address":"香川県小豆郡小豆島町馬木甲882-2","latitude":34.47483825683594,"longitude":134.31884765625,"category":"美術館","description":"瀬戸内瀬戸内国際芸術祭2022開催の2022年にグランドオープン予定。現在プレオープン中","image_url":""},{"id":10930,"title":"笛吹みんなの広場","architect":"髙橋一平+東京ランドスケープ研究所","year":2021.0,"address":"山梨県笛吹市石和町松本1442-3","latitude":35.65620040893555,"longitude":138.6393585205078,"category":"公園/広場","description":"","image_url":""},{"id":10931,"title":"早稲田大学本庄高等学院 新体育館","architect":"日建設計","year":2020.0,"address":"埼玉県本庄市栗崎239-3","latitude":36.21192169189453,"longitude":139.17515563964844,"category":"学校/体育館","description":"","image_url":""},{"id":10932,"title":"BYAKU Narai 歳吉屋","architect":"竹中工務店","year":2021.0,"address":"長野県塩尻市奈良井551-3","latitude":35.96615219116211,"longitude":137.8123779296875,"category":"旅館/レストラン/温泉","description":"","image_url":""},{"id":10933,"title":"草津温泉 地蔵地区周辺再整備 裏草津","architect":"北山孝二郎","year":2021.0,"address":"群馬県吾妻郡草津町草津132-1","latitude":36.62289047241211,"longitude":138.5980224609375,"category":"カフェ/体験施設/図書館","description":"漫画図書館、カフェ、百年石別邸、手洗い湯など","image_url":""},{"id":10934,"title":"湯河原惣湯 Books and Retreat","architect":"岡昇平+アール・アイ・エー","year":2021.0,"address":"神奈川県足柄下郡湯河原町宮上566","latitude":35.145408630371094,"longitude":139.07406616210938,"category":"温泉/カフェ","description":"企画・監修・玄関テラス設計：アール・アイ・エー 惣湯テラス設計：岡昇平","image_url":""},{"id":10935,"title":"高浜町6次産業施設 UMIKARA","architect":"前田茂樹","year":2021.0,"address":"福井県大飯郡高浜町塩⼟5-1","latitude":35.49309539794922,"longitude":135.54713439941406,"category":"店舗/レストラン/モール","description":"","image_url":""},{"id":10936,"title":"三宅町交流まちづくりセンターMiiMo","architect":"前田茂樹","year":2021.0,"address":"奈良県磯城郡三宅町伴堂689","latitude":34.57328796386719,"longitude":135.7733154296875,"category":"公民館・交流施設/図書館","description":"","image_url":""},{"id":10937,"title":"海老名のアトリエ付きシェアハウス 海老名芸術高速","architect":"GROUP","year":2021.0,"address":"神奈川県海老名市大谷南2-8-33","latitude":35.437007904052734,"longitude":139.39913940429688,"category":"シェアオフィス/集合住宅","description":"","image_url":""},{"id":10938,"title":"瀬戸内醸造所 竹原直売所","architect":"菅原大輔","year":2021.0,"address":"広島県竹原市本町3-10-37","latitude":34.34640884399414,"longitude":132.91075134277344,"category":"店舗/醸造所","description":"","image_url":""},{"id":10939,"title":"板垣・辻・場","architect":"Buttondesign","year":2020.0,"address":"東京都足立区千住5-6-7","latitude":35.75455093383789,"longitude":139.8042755126953,"category":"レストラン/カフェ","description":"","image_url":""},{"id":10940,"title":"中山珈琲焙煎所","architect":"瀧尻賢","year":2021.0,"address":"京都府木津川市南加茂台9-15-2","latitude":34.737640380859375,"longitude":135.8654327392578,"category":"店舗/カフェ","description":"","image_url":""},{"id":10941,"title":"siki","architect":"中本尋之","year":2021.0,"address":"広島県広島市南区段原3-17-5 AIビル1F","latitude":34.3865966796875,"longitude":132.47984313964844,"category":"美容院","description":"","image_url":""},{"id":10942,"title":"京都の町家リノベーション るりフォトスタジオ","architect":"近森穣","year":2021.0,"address":"京都府京都市中京区冷泉町65","latitude":35.01396942138672,"longitude":135.7583770751953,"category":"店舗","description":"","image_url":""},{"id":10943,"title":"駐日ブラジル大使館","architect":"竹中工務店+戸田建設+ルイ・オオタケ","year":1982.0,"address":"東京都港区北青山2-11-12","latitude":35.67085266113281,"longitude":139.71456909179688,"category":"公共施設","description":"","image_url":""},{"id":10944,"title":"駐日ブラジル大使公邸","architect":"フジタ+ルイ・オオタケ","year":1982.0,"address":"東京都渋谷区代々木5-32-2","latitude":35.674102783203125,"longitude":139.6899871826172,"category":"公共施設/住宅","description":"","image_url":""},{"id":10945,"title":"マレーシア大使館","architect":"清水建設","year":1991.0,"address":"東京都渋谷区南平台20-16","latitude":35.65227508544922,"longitude":139.6954803466797,"category":"公共施設","description":"","image_url":""},{"id":10946,"title":"在東京タイ王国大使館","architect":"大成建設+宮崎浩","year":2012.0,"address":"東京都品川区上大崎3-14-6","latitude":35.63190460205078,"longitude":139.71954345703125,"category":"公共施設","description":"プランツアソシエイツが実施設計からプロジェクトコンサルタントとして参画","image_url":""},{"id":10947,"title":"タイ大使公邸 旧濱口吉右衛門邸","architect":"田辺泰+明石信道","year":1934.0,"address":"東京都品川区上大崎3-14-6","latitude":35.631736755371094,"longitude":139.71990966796875,"category":"公共施設/住宅/洋館","description":"","image_url":""},{"id":10948,"title":"IDEE SHOP 自由が丘","architect":"黒川紀章","year":2008.0,"address":"東京都目黒区自由が丘2-16-29","latitude":35.608760833740234,"longitude":139.66709899902344,"category":"店舗","description":"","image_url":""},{"id":10949,"title":"タマディック名古屋ビル","architect":"坂茂","year":2021.0,"address":"愛知県名古屋市中区丸の内2-15-24","latitude":35.174278259277344,"longitude":136.89825439453125,"category":"オフィスビル","description":"","image_url":""},{"id":10950,"title":"バオバブ保育園","architect":"西田司","year":2021.0,"address":"東京都多摩市一ノ宮1-20-3","latitude":35.65239715576172,"longitude":139.44129943847656,"category":"幼稚園","description":"","image_url":""}]}