{"page":47,"total_pages":290,"items_per_page":50,"total_items":14467,"items":[{"id":2301,"title":"神戸ファッション美術館","architect":"昭和設計+大成建設","year":1997.0,"address":"兵庫県神戸市東灘区向洋町中2-9-1","latitude":34.6883430480957,"longitude":135.27064514160156,"category":"美術館","description":"","image_url":""},{"id":2302,"title":"チャータードビル 旧チャータード銀行神戸支店","architect":"ジェイ・ヒル・モーガン","year":1938.0,"address":"兵庫県神戸市中央区海岸通9-2","latitude":34.68638610839844,"longitude":135.1927032470703,"category":"オフィスビル/洋館/ギャラリー","description":"柳原照弘のギャラリーも入居","image_url":""},{"id":2303,"title":"神港ビル 旧川崎汽船本社","architect":"木下益次郎","year":1939.0,"address":"兵庫県神戸市中央区海岸通8","latitude":34.6866569519043,"longitude":135.1922607421875,"category":"オフィスビル","description":"","image_url":""},{"id":2304,"title":"商船三井ビルディング 旧大阪商船神戸支店","architect":"渡辺節","year":1922.0,"address":"兵庫県神戸市中央区海岸通5","latitude":34.68667984008789,"longitude":135.19114685058594,"category":"オフィスビル","description":"","image_url":""},{"id":2305,"title":"神戸質屋会館","architect":"木村博昭","year":2004.0,"address":"兵庫県神戸市中央区中町通4-2-12","latitude":34.678226470947266,"longitude":135.17373657226562,"category":"企業施設","description":"","image_url":""},{"id":2306,"title":"シャルレ ポートアイランドビル 旧シャルレ本社ビル","architect":"石井修","year":1983.0,"address":"兵庫県神戸市中央区港島中町7-7-1","latitude":34.66707229614258,"longitude":135.2174530029297,"category":"オフィスビル","description":"","image_url":""},{"id":2307,"title":"兵庫県立美術館 原田の森ギャラリー","architect":"村野藤吾","year":1970.0,"address":"兵庫県神戸市灘区原田通3-8-30","latitude":34.708560943603516,"longitude":135.21395874023438,"category":"美術館","description":"","image_url":""},{"id":2308,"title":"人と防災未来センター","architect":"昭和設計","year":2002.0,"address":"兵庫県神戸市中央区脇浜海岸通1-5-2","latitude":34.69841003417969,"longitude":135.21531677246094,"category":"博物館","description":"","image_url":""},{"id":2309,"title":"自然体感展望台 六甲枝垂れ","architect":"三分一博志","year":2010.0,"address":"兵庫県神戸市灘区六甲山町五介山1877-9","latitude":34.76405715942383,"longitude":135.24673461914062,"category":"展望台","description":"","image_url":""},{"id":2310,"title":"兵庫県立美術館","architect":"安藤忠雄","year":2001.0,"address":"兵庫県神戸市中央区脇浜海岸通1-1-1","latitude":34.699249267578125,"longitude":135.2178497314453,"category":"美術館","description":"隣接したなぎさ公園も安藤忠雄設計。2019年5月に第二展示棟ANDO GALLERYが増築・竣工予定。安藤忠雄の常設作品展示施設になる予定。また青い林檎のオブジェ（青春のシンボル）も安藤忠雄製作","image_url":""},{"id":2311,"title":"六甲山荘","architect":"ウィリアム・メレル・ヴォーリズ","year":1934.0,"address":"兵庫県神戸市灘区六甲山町北六甲4-744","latitude":34.76094436645508,"longitude":135.23446655273438,"category":"住宅","description":"","image_url":""},{"id":2312,"title":"膜の教会 カトリックたかとり教会","architect":"坂茂","year":2007.0,"address":"兵庫県神戸市長田区海運町3-3-8","latitude":34.65133285522461,"longitude":135.1383514404297,"category":"教会","description":"","image_url":""},{"id":2313,"title":"リバーモール ウェスト","architect":"天藤久雄","year":1996.0,"address":"兵庫県神戸市東灘区向洋町中5-11-50","latitude":34.692039489746094,"longitude":135.26783752441406,"category":"モール","description":"","image_url":""},{"id":2314,"title":"フィッシュダンス","architect":"フランク・O・ゲーリー","year":1987.0,"address":"兵庫県神戸市中央区波止場町2-8","latitude":34.68478012084961,"longitude":135.18963623046875,"category":"オブジェ/カフェ","description":"取り壊しの可能性が報道された","image_url":""},{"id":2315,"title":"リバーモール イースト","architect":"安藤忠雄","year":1993.0,"address":"兵庫県神戸市東灘区向洋町中5-15","latitude":34.69050979614258,"longitude":135.26768493652344,"category":"モール","description":"","image_url":""},{"id":2316,"title":"なぎさ公園 マリンステージ","architect":"安藤忠雄","year":2001.0,"address":"兵庫県神戸市中央区脇浜海岸通1-4-1","latitude":34.697486877441406,"longitude":135.21376037597656,"category":"公園","description":"","image_url":""},{"id":2317,"title":"西宮トラピスト修道院","architect":"村野藤吾","year":1969.0,"address":"兵庫県西宮市鷲林寺3-46","latitude":34.77473068237305,"longitude":135.30938720703125,"category":"教会","description":"","image_url":""},{"id":2318,"title":"名塩地区 斜行エレベーター","architect":"遠藤剛生","year":1991.0,"address":"兵庫県西宮市東山台1-2-1","latitude":34.82741165161133,"longitude":135.3106231689453,"category":"公共施設/駅","description":"","image_url":""},{"id":2319,"title":"夙川サニーガーデン","architect":"安藤忠雄","year":1978.0,"address":"兵庫県西宮市北名次町10","latitude":34.753013610839844,"longitude":135.32997131347656,"category":"テナントビル","description":"","image_url":""},{"id":2320,"title":"リーストラクチャー苦楽園","architect":"八束はじめ","year":1991.0,"address":"兵庫県西宮市南越木岩町6-12","latitude":34.749942779541016,"longitude":135.32687377929688,"category":"テナントビル","description":"","image_url":""},{"id":2321,"title":"ギャラリー小さい芽","architect":"安藤忠雄","year":1996.0,"address":"兵庫県西宮市千歳町6-20","latitude":34.74120330810547,"longitude":135.33102416992188,"category":"ギャラリー","description":"","image_url":""},{"id":2322,"title":"Rooftecture 西宮","architect":"遠藤秀平","year":1998.0,"address":"兵庫県西宮市久保町12-3","latitude":34.72746276855469,"longitude":135.33961486816406,"category":"企業施設","description":"","image_url":""},{"id":2323,"title":"甲東アレイ","architect":"安藤忠雄","year":1978.0,"address":"兵庫県西宮市甲東園1-2‐10","latitude":34.76701736450195,"longitude":135.360595703125,"category":"テナントビル","description":"","image_url":""},{"id":2324,"title":"兵庫県立芸術文化センター","architect":"日建設計","year":2005.0,"address":"兵庫県西宮市高松町2-22","latitude":34.74358367919922,"longitude":135.35580444335938,"category":"ホール・劇場","description":"","image_url":""},{"id":2325,"title":"西宮商工会議所","architect":"村野藤吾","year":1966.0,"address":"兵庫県西宮市櫨塚町2-20","latitude":34.74095916748047,"longitude":135.34219360351562,"category":"オフィスビル/組合施設","description":"2021年解体","image_url":""},{"id":2326,"title":"武庫川女子大学 甲子園会館 旧甲子園ホテル","architect":"遠藤新","year":1930.0,"address":"兵庫県西宮市戸崎町1-13","latitude":34.73423767089844,"longitude":135.3778839111328,"category":"大学","description":"見学は要事前予約","image_url":""},{"id":2327,"title":"西宮市貝類館","architect":"安藤忠雄","year":1999.0,"address":"兵庫県西宮市西宮浜4-13-4","latitude":34.71209716796875,"longitude":135.32762145996094,"category":"博物館","description":"","image_url":""},{"id":2328,"title":"西脇市立古窯陶芸館","architect":"渡辺豊和","year":1982.0,"address":"兵庫県西脇市野村町1813-11","latitude":34.9762077331543,"longitude":134.9495849609375,"category":"博物館","description":"","image_url":""},{"id":2329,"title":"にしわき経緯度地球科学館","architect":"毛綱毅曠","year":1993.0,"address":"兵庫県西脇市上比延町334-2","latitude":34.99993896484375,"longitude":134.99874877929688,"category":"博物館","description":"","image_url":""},{"id":2330,"title":"西脇市岡之山美術館","architect":"磯崎新","year":1986.0,"address":"兵庫県西脇市上比延町345-1","latitude":35.002098083496094,"longitude":134.99794006347656,"category":"美術館","description":"","image_url":""},{"id":2331,"title":"川西市郷土館 旧平賀義美邸","architect":"不明","year":1918.0,"address":"兵庫県川西市下財町4-1","latitude":34.8979606628418,"longitude":135.40921020507812,"category":"洋館","description":"","image_url":""},{"id":2332,"title":"Rooftecture C 筑紫の丘斎場","architect":"遠藤秀平","year":2002.0,"address":"兵庫県揖保郡太子町佐用岡732","latitude":34.84657669067383,"longitude":134.57859802246094,"category":"斎場","description":"","image_url":""},{"id":2333,"title":"石像寺 四神相応の庭","architect":"重森三玲","year":1972.0,"address":"兵庫県丹波市市島町中竹田1003-1","latitude":35.24020767211914,"longitude":135.11973571777344,"category":"庭園","description":"","image_url":""},{"id":2334,"title":"TOTOシーウィンド淡路","architect":"安藤忠雄","year":1997.0,"address":"兵庫県淡路市里573-14","latitude":34.400634765625,"longitude":134.89346313476562,"category":"ホテル","description":"","image_url":""},{"id":2335,"title":"野島断層保存館","architect":"昭和設計","year":1998.0,"address":"兵庫県淡路市小倉177","latitude":34.54963302612305,"longitude":134.93771362304688,"category":"博物館","description":"","image_url":""},{"id":2336,"title":"淡路夢舞台・淡路夢舞台公苑温室","architect":"安藤忠雄","year":2000.0,"address":"兵庫県淡路市夢舞台2","latitude":34.56124496459961,"longitude":135.00865173339844,"category":"動植物園/ホテル/展示・会議場","description":"","image_url":""},{"id":2337,"title":"真言宗本福寺水御堂","architect":"安藤忠雄","year":1991.0,"address":"兵庫県淡路市浦1310","latitude":34.54637908935547,"longitude":134.98895263671875,"category":"寺院","description":"","image_url":""},{"id":2338,"title":"竹田城","architect":"不明","year":1431.0,"address":"兵庫県朝来市和田山町竹田213 ","latitude":35.29891586303711,"longitude":134.83656311035156,"category":"城郭","description":"","image_url":""},{"id":2339,"title":"戦没学徒記念 若人の広場","architect":"丹下健三","year":1967.0,"address":"兵庫県南あわじ市阿万塩屋町1779","latitude":34.23130416870117,"longitude":134.7146453857422,"category":"博物館/公園/展望台","description":"閉鎖中だったが2015年に丹下都市建築設計により改修・修復し再オープンした。","image_url":""},{"id":2340,"title":"緑の道しるべ　甍公園","architect":"山田脩二","year":2001.0,"address":"兵庫県南あわじ市湊90-1","latitude":34.32506561279297,"longitude":134.7347412109375,"category":"公園","description":"","image_url":""},{"id":2341,"title":"Looptecture F 福良港津波防災ステーション","architect":"遠藤秀平","year":2010.0,"address":"兵庫県南あわじ市福良甲1528-4","latitude":34.255882263183594,"longitude":134.71881103515625,"category":"博物館","description":"日本建築家協会賞受賞者名：遠藤秀平、陶器浩一","image_url":""},{"id":2342,"title":"Looptecture A 淡路人形浄瑠璃館","architect":"遠藤秀平","year":2012.0,"address":"兵庫県南あわじ市福良甲1528-1","latitude":34.25553894042969,"longitude":134.71925354003906,"category":"博物館","description":"","image_url":""},{"id":2343,"title":"コナヴィレッジ","architect":"長谷川逸子","year":1990.0,"address":"兵庫県尼崎市常松1-3-5","latitude":34.76567077636719,"longitude":135.3822479248047,"category":"集合住宅","description":"","image_url":""},{"id":2344,"title":"ソラリス","architect":"高松伸","year":1990.0,"address":"兵庫県尼崎市南武庫之荘1-8-24","latitude":34.75066375732422,"longitude":135.39443969726562,"category":"テナントビル","description":"","image_url":""},{"id":2345,"title":"キューブ南武庫之荘3","architect":"高松伸","year":1987.0,"address":"兵庫県尼崎市南武庫之荘5-19-11","latitude":34.749149322509766,"longitude":135.38693237304688,"category":"集合住宅","description":"","image_url":""},{"id":2346,"title":"尼崎市庁舎","architect":"村野藤吾","year":1962.0,"address":"兵庫県尼崎市東七松町1-23-1","latitude":34.73382568359375,"longitude":135.4064483642578,"category":"庁舎","description":"","image_url":""},{"id":2347,"title":"尼崎市大庄公民館 旧大庄村役場","architect":"村野藤吾","year":1938.0,"address":"兵庫県尼崎市大庄西町3-6-14","latitude":34.722023010253906,"longitude":135.39064025878906,"category":"公民館・交流施設","description":"登録有形文化財","image_url":""},{"id":2348,"title":"キューブAMX","architect":"高松伸","year":1988.0,"address":"兵庫県尼崎市武庫之荘3-17-8","latitude":34.7546501159668,"longitude":135.3859405517578,"category":"集合住宅","description":"","image_url":""},{"id":2349,"title":"キューブ南武庫之荘2","architect":"高松伸","year":1987.0,"address":"兵庫県尼崎市南武庫之荘4-19-23","latitude":34.745330810546875,"longitude":135.3870086669922,"category":"集合住宅","description":"","image_url":""},{"id":2350,"title":"ユニチカ記念館","architect":"不明","year":1900.0,"address":"兵庫県尼崎市東本町1-50","latitude":34.712772369384766,"longitude":135.42796325683594,"category":"洋館","description":"","image_url":""}]}