{"page":11,"total_pages":290,"items_per_page":50,"total_items":14467,"items":[{"id":501,"title":"中央公園レストハウス","architect":"坂倉建築研究所","year":1984.0,"address":"茨城県つくば市吾妻3","latitude":36.0854606628418,"longitude":140.11038208007812,"category":"公園","description":"","image_url":""},{"id":502,"title":"つくば文化会館アルス","architect":"石本建築事務所","year":1990.0,"address":"茨城県つくば市吾妻2-8","latitude":36.08430480957031,"longitude":140.1125030517578,"category":"総合文化施設","description":"","image_url":""},{"id":503,"title":"エポカルつくば　つくば国際会議場","architect":"坂倉建築研究所","year":1999.0,"address":"茨城県つくば市竹園2-20-3","latitude":36.07604217529297,"longitude":140.11703491210938,"category":"展示・会議場/公民館・交流施設","description":"","image_url":""},{"id":504,"title":"カスミつくばセンター","architect":"マイケル・グレイヴス","year":1992.0,"address":"茨城県つくば市西大橋599-1","latitude":36.07337188720703,"longitude":140.08428955078125,"category":"企業施設","description":"","image_url":""},{"id":505,"title":"筑波新都市記念館","architect":"大高正人","year":1976.0,"address":"茨城県つくば市二の宮2-20","latitude":36.06083297729492,"longitude":140.12193298339844,"category":"博物館","description":"","image_url":""},{"id":506,"title":"つくばメモリアルホール","architect":"関・空間設計","year":1999.0,"address":"茨城県つくば市玉取1766","latitude":36.129493713378906,"longitude":140.10874938964844,"category":"斎場","description":"","image_url":""},{"id":507,"title":"筑波大学 中央図書館","architect":"岡田新一","year":1979.0,"address":"茨城県つくば市天王台1-1-1","latitude":36.10900115966797,"longitude":140.1014404296875,"category":"図書館","description":"","image_url":""},{"id":508,"title":"ゆかりの森 宿舎「あかまつ」 ／ 昆虫館","architect":"納賀雄嗣","year":1984.0,"address":"茨城県つくば市遠東633","latitude":36.10663986206055,"longitude":140.0672149658203,"category":"博物館","description":"","image_url":""},{"id":509,"title":"つくばエキスポセンター","architect":"日本設計","year":1985.0,"address":"茨城県つくば市吾妻2-9","latitude":36.0865592956543,"longitude":140.1092987060547,"category":"博物館","description":"","image_url":""},{"id":510,"title":"つくば南3駐車場 旧つくば南1駐車場","architect":"伊東豊雄","year":1994.0,"address":"茨城県つくば市竹園1-4-1","latitude":36.07958984375,"longitude":140.11431884765625,"category":"駐車・駐輪場","description":"","image_url":""},{"id":511,"title":"つくば市立竹園西小学校","architect":"原広司","year":1990.0,"address":"茨城県つくば市竹園2-19-3","latitude":36.07749938964844,"longitude":140.11688232421875,"category":"学校","description":"","image_url":""},{"id":512,"title":"洞峰公園体育館","architect":"大高正人","year":1976.0,"address":"茨城県つくば市二の宮2-20","latitude":36.06157684326172,"longitude":140.1204376220703,"category":"体育館","description":"","image_url":""},{"id":513,"title":"つくば市立二の宮公民館","architect":"高橋靗一","year":1986.0,"address":"茨城県つくば市二の宮4-6-2","latitude":36.06092834472656,"longitude":140.1183624267578,"category":"公民館・交流施設","description":"","image_url":""},{"id":514,"title":"つくば市ふれあいプラザ","architect":"河野正博","year":2005.0,"address":"茨城県つくば市下岩崎2164-1","latitude":35.98109436035156,"longitude":140.1041717529297,"category":"公民館・交流施設/プール","description":"","image_url":""},{"id":515,"title":"つくばカピオ","architect":"谷口吉生","year":1996.0,"address":"茨城県つくば市竹園1-10-1","latitude":36.07866668701172,"longitude":140.1155242919922,"category":"総合文化施設","description":"","image_url":"https://lh3.googleusercontent.com/-h0OSkzD-snc/UCitUbp96pI/AAAAAAABGbI/P_jTGum1hwY/s1280/lr-7055470.jpg"},{"id":516,"title":"つくばセンタービル","architect":"磯崎新+納谷新","year":1983.0,"address":"茨城県つくば市吾妻1-10-1","latitude":36.0818977355957,"longitude":140.11412048339844,"category":"複合施設/ホテル/ホール・劇場","description":"納谷新により2022年4月に改修","image_url":"https://farm8.staticflickr.com/7290/8897281355_a2e09b4a77_h.jpg"},{"id":517,"title":"松見タワー","architect":"菊竹清訓","year":1976.0,"address":"茨城県つくば市天久保1-4 松見公園内","latitude":36.09087371826172,"longitude":140.10775756835938,"category":"公園/展望台","description":"","image_url":"https://lh3.googleusercontent.com/-8SBf0oJLRME/UCikDm707cI/AAAAAAAARro/ZSwhOa_2LsM/s1024/lr-7055587.jpg"},{"id":518,"title":"予科練平和記念館","architect":"吉村靖孝","year":2010.0,"address":"茨城県稲敷郡阿見町廻戸5-1","latitude":36.045589447021484,"longitude":140.22344970703125,"category":"博物館","description":"","image_url":""},{"id":519,"title":"笠間日動美術館","architect":"芦原太郎","year":1989.0,"address":"茨城県笠間市笠間978-4","latitude":36.38322830200195,"longitude":140.25755310058594,"category":"美術館","description":"東館の竣工が1989年。本館が1997年竣工","image_url":""},{"id":520,"title":"友部町立歴史民俗資料館","architect":"不明","year":1937.0,"address":"茨城県笠間市平町29","latitude":36.339927673339844,"longitude":140.2875213623047,"category":"洋館","description":"","image_url":""},{"id":521,"title":"笠間の家","architect":"伊東豊雄","year":1981.0,"address":"茨城県笠間市下市毛79-9","latitude":36.37239074707031,"longitude":140.25592041015625,"category":"住宅/カフェ","description":"","image_url":"https://farm6.staticflickr.com/5483/9255575800_8d486e1a0c_h.jpg"},{"id":522,"title":"春風萬里荘","architect":"不明","year":1965.0,"address":"茨城県笠間市下市毛1371-1","latitude":36.364402770996094,"longitude":140.25106811523438,"category":"古民家","description":"","image_url":"https://lh3.googleusercontent.com/-VXJf-nKFnuQ/Uf6HMhHB3WI/AAAAAAAA-tc/3W6PF2AAxDk/s1024/lr-6282459.jpg"},{"id":523,"title":"茨城県陶芸美術館","architect":"三上建築事務所","year":2000.0,"address":"茨城県笠間市笠間2345","latitude":36.37246322631836,"longitude":140.26316833496094,"category":"美術館","description":"","image_url":"https://lh3.googleusercontent.com/-AX_m3k4CL7A/Uf6GrViUmkI/AAAAAAAA-qo/vtsRZLnpIUw/s1280/lr-6282370.jpg"},{"id":524,"title":"牛久のギャラリー","architect":"堀部安嗣","year":2001.0,"address":"茨城県牛久市ひたち野東5-17-8","latitude":36.005271911621094,"longitude":140.1592254638672,"category":"ギャラリー/住宅","description":"所在地・住所を修正。2022年6月の段階ではギャラリーとして運営していた様子があるが、2022年11月の段階で売りに出ていた模様。","image_url":""},{"id":525,"title":"ひたち野リフレ","architect":"妹島和世","year":1998.0,"address":"茨城県牛久市ひたち野東1-33-6","latitude":36.007110595703125,"longitude":140.15948486328125,"category":"総合文化施設","description":"","image_url":""},{"id":526,"title":"牛久シャトー 旧醸造場施設 旧シャトーカミヤ","architect":"岡田時太郎","year":1903.0,"address":"茨城県牛久市中央3-20-1","latitude":35.97816848754883,"longitude":140.147705078125,"category":"洋館","description":"","image_url":""},{"id":527,"title":"小川芋銭記念館 雲魚亭","architect":"不明","year":1937.0,"address":"茨城県牛久市城中町2690-3","latitude":35.95574951171875,"longitude":140.12841796875,"category":"博物館","description":"","image_url":""},{"id":528,"title":"結城市民情報センター","architect":"三上建築事務所","year":2004.0,"address":"茨城県結城市国府町1-1-1","latitude":36.298519134521484,"longitude":139.873291015625,"category":"図書館","description":"","image_url":""},{"id":529,"title":"古河市スポーツフォーラム 古河ゴルフリンクス","architect":"早川邦彦","year":1991.0,"address":"茨城県古河市西町10-1","latitude":36.199005126953125,"longitude":139.69703674316406,"category":"スポーツ施設/クラブハウス","description":"","image_url":""},{"id":530,"title":"篆刻美術館","architect":"不明","year":null,"address":"茨城県古河市中央町2-4-18","latitude":36.19456100463867,"longitude":139.702880859375,"category":"洋館","description":"","image_url":""},{"id":531,"title":"古河総合公園 飲食施設","architect":"SANAA","year":1998.0,"address":"茨城県古河市鴻巣399ｰ1","latitude":36.177371978759766,"longitude":139.7002716064453,"category":"公園/カフェ","description":"","image_url":"https://farm6.staticflickr.com/5340/8922470971_a175170cd4_h.jpg"},{"id":532,"title":"古河総合公園 管理棟","architect":"内藤廣","year":1998.0,"address":"茨城県古河市鴻巣399ｰ1","latitude":36.177364349365234,"longitude":139.70199584960938,"category":"公園","description":"","image_url":"https://farm6.staticflickr.com/5329/8904165267_46dc70a15b_h.jpg"},{"id":533,"title":"茨城県自然博物館","architect":"仙田満","year":1994.0,"address":"茨城県坂東市大崎700","latitude":36.005184173583984,"longitude":139.91629028320312,"category":"博物館","description":"","image_url":""},{"id":534,"title":"真壁伝承館","architect":"設計組織ADH","year":2011.0,"address":"茨城県桜川市真壁町真壁198","latitude":36.277835845947266,"longitude":140.1005096435547,"category":"博物館/総合文化施設","description":"1/4～営業　月曜日休館。日本建築家協会賞 及び 日本建築学会 作品賞受賞者名：渡辺真理、木下庸子、新谷眞人","image_url":"https://farm4.staticflickr.com/3819/9256646386_d59b6baa69_h.jpg"},{"id":535,"title":"県南総合防災センター","architect":"隈研吾","year":2001.0,"address":"茨城県取手市椚木103","latitude":35.93049240112305,"longitude":140.10023498535156,"category":"公共施設","description":"","image_url":""},{"id":536,"title":"東京芸術大学 芸術資料館取手館","architect":"六角鬼丈","year":1994.0,"address":"茨城県取手市小文間5000","latitude":35.879581451416016,"longitude":140.11680603027344,"category":"美術館","description":"","image_url":""},{"id":537,"title":"CO2 常陸太田市総合福祉会館","architect":"石井和紘","year":2001.0,"address":"茨城県常陸太田市稲木町33","latitude":36.530582427978516,"longitude":140.5238800048828,"category":"福祉センター","description":"","image_url":""},{"id":538,"title":"常陸太田市郷土資料館","architect":"不明","year":1936.0,"address":"茨城県常陸太田市西二町2186","latitude":36.540245056152344,"longitude":140.5224609375,"category":"洋館","description":"","image_url":""},{"id":539,"title":"二水会館","architect":"不明","year":1913.0,"address":"茨城県水海道市天満町1606","latitude":36.01698684692383,"longitude":139.987548828125,"category":"洋館","description":"","image_url":""},{"id":540,"title":"水戸市立西部図書館","architect":"新居千秋","year":1989.0,"address":"茨城県水戸市堀町2311-1","latitude":36.39562225341797,"longitude":140.41990661621094,"category":"図書館","description":"","image_url":""},{"id":541,"title":"水戸市水道低区配水塔","architect":"後藤鶴松","year":1932.0,"address":"茨城県水戸市北見町2-11","latitude":36.378395080566406,"longitude":140.47491455078125,"category":"産業遺産","description":"","image_url":""},{"id":542,"title":"弘道館公園","architect":"不明","year":1841.0,"address":"茨城県水戸市三の丸1-6","latitude":36.37583923339844,"longitude":140.4772186279297,"category":"和風住宅","description":"","image_url":""},{"id":543,"title":"徳川ミュージアム","architect":"日建設計","year":1967.0,"address":"茨城県水戸市見川1-1215","latitude":36.371822357177734,"longitude":140.44686889648438,"category":"美術館","description":"","image_url":""},{"id":544,"title":"茨城県近代美術館","architect":"吉村順三","year":1988.0,"address":"茨城県水戸市千波町666-1","latitude":36.36782455444336,"longitude":140.46507263183594,"category":"美術館","description":"","image_url":""},{"id":545,"title":"茨城県立歴史館","architect":"森京介","year":1974.0,"address":"茨城県水戸市緑町2-1-15","latitude":36.37902069091797,"longitude":140.44984436035156,"category":"博物館","description":"","image_url":""},{"id":546,"title":"茨城県公館・知事公舎","architect":"大江宏","year":1974.0,"address":"茨城県水戸市大町2-1-13","latitude":36.37721252441406,"longitude":140.47230529785156,"category":"住宅","description":"","image_url":""},{"id":547,"title":"茨城県市町村会館","architect":"日本設計","year":1999.0,"address":"茨城県水戸市笠原町978-26","latitude":36.34318542480469,"longitude":140.44869995117188,"category":"公民館・交流施設/公共施設","description":"","image_url":""},{"id":548,"title":"水戸芸術館","architect":"磯崎新","year":1990.0,"address":"茨城県水戸市五軒町1-6-8","latitude":36.38038635253906,"longitude":140.4657745361328,"category":"美術館/展望台","description":"1/4～営業　月曜日休館","image_url":"https://farm8.staticflickr.com/7332/8908054546_488a13300c_h.jpg"},{"id":549,"title":"和紙人形美術館","architect":"三上建築事務所","year":2007.0,"address":"茨城県久慈郡大子町左貫1920","latitude":36.82731246948242,"longitude":140.28033447265625,"category":"美術館","description":"","image_url":""},{"id":550,"title":"大洗町幕末と明治の博物館","architect":"三上建築事務所","year":1997.0,"address":"茨城県東茨城郡大洗町磯浜町8231-4","latitude":36.321434020996094,"longitude":140.58306884765625,"category":"博物館","description":"","image_url":""}]}