{"page":171,"total_pages":290,"items_per_page":50,"total_items":14467,"items":[{"id":8501,"title":"聖母病院 聖堂","architect":"竹中工務店","year":2010.0,"address":"東京都新宿区中落合2-5","latitude":35.71986770629883,"longitude":139.6940460205078,"category":"教会","big_category":"宗教","description":"","image_url":"","tags":"Ver3.00(2019年8月)の追加建築","prefecture":"東京","contractor":"","structural_designer":"","landscape_designer":"","shinkenchiku_url":""},{"id":8502,"title":"茶道会館","architect":"北見米造","year":1950.0,"address":"東京都新宿区高田馬場3-39-17","latitude":35.71302032470703,"longitude":139.69537353515625,"category":"茶室/組合施設","big_category":"住宅,公共施設","description":"","image_url":"","tags":"Ver3.00(2019年8月)の追加建築","prefecture":"東京","contractor":"","structural_designer":"","landscape_designer":"","shinkenchiku_url":""},{"id":8503,"title":"日立目白クラブ 旧学習院昭和寮","architect":"森泰治","year":1928.0,"address":"東京都新宿区下落合2-13-28","latitude":35.71818542480469,"longitude":139.7042694091797,"category":"クラブハウス/企業施設","big_category":"レジャー施設,企業施設","description":"","image_url":"","tags":"Ver3.00(2019年8月)の追加建築","prefecture":"東京","contractor":"","structural_designer":"","landscape_designer":"","shinkenchiku_url":""},{"id":8504,"title":"エステーR&Dセンター","architect":"村田靖夫","year":2001.0,"address":"東京都新宿区下落合2-4-6","latitude":35.71654510498047,"longitude":139.701904296875,"category":"研究施設","big_category":"教育","description":"","image_url":"","tags":"Ver3.00(2019年8月)の追加建築","prefecture":"東京","contractor":"","structural_designer":"","landscape_designer":"","shinkenchiku_url":""},{"id":8505,"title":"新宿イーストサイドスクエア","architect":"三菱地所+日本設計","year":2012.0,"address":"東京都新宿区新宿6-27-30","latitude":35.6966667175293,"longitude":139.70863342285156,"category":"オフィスビル","big_category":"企業施設","description":"","image_url":"","tags":"Ver3.00(2019年8月)の追加建築","prefecture":"東京","contractor":"","structural_designer":"","landscape_designer":"","shinkenchiku_url":""},{"id":8506,"title":"早稲田松竹映画劇場","architect":"清水建設","year":1951.0,"address":"東京都新宿区高田馬場1-5-16","latitude":35.711612701416016,"longitude":139.70822143554688,"category":"ホール・劇場","big_category":"文化施設","description":"","image_url":"","tags":"Ver3.00(2019年8月)の追加建築","prefecture":"東京","contractor":"","structural_designer":"","landscape_designer":"","shinkenchiku_url":""},{"id":8507,"title":"早稲田奉仕園 スコットホール","architect":"ウィリアム・メレル・ヴォーリズ+今井兼次","year":1921.0,"address":"東京都新宿区西早稲田2-3-1","latitude":35.707740783691406,"longitude":139.71621704101562,"category":"ホール・劇場/教会","big_category":"文化施設,宗教","description":"ウィリアム・メレル・ヴォーリズ設計原案。今井兼次により設計完成。内藤多仲による施工管理","image_url":"","tags":"Ver3.00(2019年8月)の追加建築","prefecture":"東京","contractor":"","structural_designer":"","landscape_designer":"","shinkenchiku_url":""},{"id":8508,"title":"NWハウス","architect":"早川邦彦","year":1986.0,"address":"東京都新宿区西早稲田1-3-7","latitude":35.70849609375,"longitude":139.7173614501953,"category":"集合住宅","big_category":"住宅","description":"","image_url":"","tags":"Ver3.00(2019年8月)の追加建築","prefecture":"東京","contractor":"","structural_designer":"","landscape_designer":"","shinkenchiku_url":""},{"id":8509,"title":"新宿区立早稲田小学校","architect":"渡辺仁","year":1928.0,"address":"東京都新宿区早稲田南町25","latitude":35.703948974609375,"longitude":139.72344970703125,"category":"学校","big_category":"教育","description":"","image_url":"","tags":"Ver3.00(2019年8月)の追加建築","prefecture":"東京","contractor":"","structural_designer":"","landscape_designer":"","shinkenchiku_url":""},{"id":8510,"title":"幸國寺 琉璃殿","architect":"佐藤正己","year":2006.0,"address":"東京都新宿区原町2-17-9","latitude":35.70008850097656,"longitude":139.7244110107422,"category":"寺院","big_category":"宗教","description":"","image_url":"","tags":"Ver3.00(2019年8月)の追加建築","prefecture":"東京","contractor":"","structural_designer":"","landscape_designer":"","shinkenchiku_url":""},{"id":8511,"title":"東京女子医科大学 日本心臓血圧研究所","architect":"鹿島建設","year":1965.0,"address":"東京都新宿区若松町3","latitude":35.69822692871094,"longitude":139.7194366455078,"category":"病院/研究施設","big_category":"医療施設,教育","description":"","image_url":"","tags":"Ver3.00(2019年8月)の追加建築","prefecture":"東京","contractor":"","structural_designer":"","landscape_designer":"","shinkenchiku_url":""},{"id":8512,"title":"矢来能楽堂","architect":"大和建設","year":1952.0,"address":"東京都新宿区矢来町60","latitude":35.70286178588867,"longitude":139.73248291015625,"category":"ホール・劇場","big_category":"文化施設","description":"","image_url":"","tags":"Ver3.00(2019年8月)の追加建築","prefecture":"東京","contractor":"","structural_designer":"","landscape_designer":"","shinkenchiku_url":""},{"id":8513,"title":"集合住宅20K Vague","architect":"北山恒","year":2009.0,"address":"東京都新宿区二十騎町1-39","latitude":35.69822692871094,"longitude":139.73178100585938,"category":"集合住宅","big_category":"住宅","description":"","image_url":"","tags":"Ver3.00(2019年8月)の追加建築","prefecture":"東京","contractor":"","structural_designer":"","landscape_designer":"","shinkenchiku_url":""},{"id":8514,"title":"東京理科大学 神楽坂キャンパス","architect":"竹中工務店","year":1956.0,"address":"東京都新宿区神楽坂1-3","latitude":35.699432373046875,"longitude":139.74136352539062,"category":"大学","big_category":"教育","description":"1956年から順次竣工、2008年より改修","image_url":"","tags":"Ver3.00(2019年8月)の追加建築","prefecture":"東京","contractor":"","structural_designer":"","landscape_designer":"","shinkenchiku_url":""},{"id":8515,"title":"DNP市谷の杜","architect":"久米設計","year":2015.0,"address":"東京都新宿区市谷加賀町1-1-1","latitude":35.695621490478516,"longitude":139.73101806640625,"category":"オフィスビル","big_category":"企業施設","description":"","image_url":"","tags":"Ver3.00(2019年8月)の追加建築","prefecture":"東京","contractor":"","structural_designer":"","landscape_designer":"","shinkenchiku_url":""},{"id":8516,"title":"珈琲ロン","architect":"池田勝也","year":1968.0,"address":"東京都新宿区四谷1-2","latitude":35.68585205078125,"longitude":139.7288055419922,"category":"カフェ","big_category":"商業施設","description":"池田勝也単独設計説と高橋靗一との共同設計という説がある。また、2019年にはアソトシヒロデザインオフィスにより改修の計画があるという記述がある。現状どうなったかは不明","image_url":"","tags":"Ver3.00(2019年8月)の追加建築","prefecture":"東京","contractor":"","structural_designer":"","landscape_designer":"","shinkenchiku_url":""},{"id":8517,"title":"東京若葉キリスト教会","architect":"ウィリアム・メレル・ヴォーリズ+楠本菊實","year":1938.0,"address":"東京都新宿区若葉1-16-8","latitude":35.68310546875,"longitude":139.72779846191406,"category":"教会","big_category":"宗教","description":"1938年にヴォーリズ設計で竣工後、戦中空襲に備えて取り壊されるも1948年に同じ設計で建て直される。2013年に楠本菊實により改修","image_url":"","tags":"Ver3.00(2019年8月)の追加建築","prefecture":"東京","contractor":"","structural_designer":"","landscape_designer":"","shinkenchiku_url":""},{"id":8518,"title":"駐日韓国大使館 韓国文化院","architect":"日本設計+三友綜合建築士事務所","year":2009.0,"address":"東京都新宿区四谷4-4-10","latitude":35.68726348876953,"longitude":139.71722412109375,"category":"公共施設","big_category":"公共施設","description":"","image_url":"","tags":"Ver3.00(2019年8月)の追加建築","prefecture":"東京","contractor":"","structural_designer":"","landscape_designer":"","shinkenchiku_url":""},{"id":8519,"title":"須賀の杜 hare terrace","architect":"ブルースタジオ","year":2014.0,"address":"東京都新宿区須賀町5","latitude":35.68520736694336,"longitude":139.72305297851562,"category":"集合住宅","big_category":"住宅","description":"","image_url":"","tags":"Ver3.00(2019年8月)の追加建築","prefecture":"東京","contractor":"","structural_designer":"","landscape_designer":"","shinkenchiku_url":""},{"id":8520,"title":"伊勢丹新宿本店","architect":"清水建設","year":1933.0,"address":"東京都新宿区新宿3-14-1","latitude":35.69126892089844,"longitude":139.70469665527344,"category":"モール/テナントビル","big_category":"商業施設,商業施設","description":"","image_url":"","tags":"Ver3.00(2019年8月)の追加建築","prefecture":"東京","contractor":"","structural_designer":"","landscape_designer":"","shinkenchiku_url":""},{"id":8521,"title":"モード学園コクーンタワー","architect":"丹下憲孝","year":2008.0,"address":"東京都新宿区西新宿1-7-3","latitude":35.69160842895508,"longitude":139.69680786132812,"category":"専門学校/テナントビル/オフィスビル","big_category":"教育,商業施設,企業施設","description":"","image_url":"","tags":"Ver3.00(2019年8月)の追加建築","prefecture":"東京","contractor":"","structural_designer":"","landscape_designer":"","shinkenchiku_url":""},{"id":8522,"title":"紀伊國屋ビルディング","architect":"前川國男","year":1964.0,"address":"東京都新宿区新宿3-17-7","latitude":35.69224548339844,"longitude":139.7030029296875,"category":"テナントビル","big_category":"商業施設","description":"","image_url":"","tags":"DOCOMOMO,Ver3.00(2019年8月)の追加建築","prefecture":"東京","contractor":"","structural_designer":"","landscape_designer":"","shinkenchiku_url":""},{"id":8523,"title":"OPEN DOOR APARTMENT 2","architect":"木村松本建築設計事務所+小松一平","year":2019.0,"address":"京都府京都市左京区北白川瀬ノ内町28-3","latitude":35.0365104675293,"longitude":135.79046630859375,"category":"集合住宅","big_category":"住宅","description":"","image_url":"","tags":"新建築2019年8月号,Ver3.00(2019年8月)の追加建築","prefecture":"京都","contractor":"","structural_designer":"","landscape_designer":"","shinkenchiku_url":""},{"id":8524,"title":"toberu","architect":"o+h","year":2019.0,"address":"京都府京都市左京区吉田橘町32-12","latitude":35.02336883544922,"longitude":135.77542114257812,"category":"シェアオフィス","big_category":"商業施設","description":"","image_url":"","tags":"新建築2019年8月号,Ver3.00(2019年8月)の追加建築","prefecture":"京都","contractor":"","structural_designer":"","landscape_designer":"","shinkenchiku_url":""},{"id":8525,"title":"深大寺ガーデン","architect":"古谷俊一","year":2019.0,"address":"東京都調布市深大寺北町1−20-1","latitude":35.67526626586914,"longitude":139.54632568359375,"category":"レストラン/住宅","big_category":"商業施設,住宅","description":"基本構想：田丸雄一","image_url":"","tags":"新建築2019年8月号,Ver3.00(2019年8月)の追加建築","prefecture":"東京","contractor":"","structural_designer":"","landscape_designer":"","shinkenchiku_url":""},{"id":8526,"title":"つながるテラス","architect":"進藤強+千葉健史","year":2017.0,"address":"東京都江戸川区西瑞江3-2-11","latitude":35.69118118286133,"longitude":139.89210510253906,"category":"集合住宅","big_category":"住宅","description":"第一期竣工2017年、第二期2019年","image_url":"","tags":"新建築2019年8月号,Ver3.00(2019年8月)の追加建築","prefecture":"東京","contractor":"","structural_designer":"","landscape_designer":"","shinkenchiku_url":""},{"id":8527,"title":"南六郷ハウス","architect":"北山恒","year":2018.0,"address":"東京都大田区南六郷2-3-13","latitude":35.548500061035156,"longitude":139.72071838378906,"category":"集合住宅","big_category":"住宅","description":"","image_url":"","tags":"新建築2019年8月号,Ver3.00(2019年8月)の追加建築","prefecture":"東京","contractor":"櫻工舎","structural_designer":"","landscape_designer":"","shinkenchiku_url":""},{"id":8528,"title":"アサヒファシリティズ蛍池寮 楓","architect":"竹中工務店","year":2019.0,"address":"大阪府豊中市螢池東町4-7","latitude":34.79973602294922,"longitude":135.44921875,"category":"寮","big_category":"住宅","description":"","image_url":"","tags":"新建築2019年8月号,Ver3.00(2019年8月)の追加建築","prefecture":"大阪","contractor":"竹中工務店","structural_designer":"","landscape_designer":"","shinkenchiku_url":""},{"id":8529,"title":"玉川台のアパートメント","architect":"MMAAA","year":2019.0,"address":"東京都世田谷区玉川台2-21-6","latitude":35.6240119934082,"longitude":139.63182067871094,"category":"集合住宅","big_category":"住宅","description":"","image_url":"","tags":"新建築2019年8月号,Ver3.00(2019年8月)の追加建築","prefecture":"東京","contractor":"SAS","structural_designer":"","landscape_designer":"","shinkenchiku_url":""},{"id":8530,"title":"糸魚川市駅北大火復興住宅","architect":"スタジオ・クハラ・ヤギ+team Timberize+アジュールデザイン","year":2019.0,"address":"新潟県糸魚川市本町11","latitude":37.04569625854492,"longitude":137.85816955566406,"category":"集合住宅/公民館・交流施設","big_category":"住宅,公共施設","description":"","image_url":"","tags":"新建築2019年8月号,Ver3.00(2019年8月)の追加建築","prefecture":"新潟","contractor":"猪又・カネタ・後藤特定共同企業体","structural_designer":"","landscape_designer":"","shinkenchiku_url":""},{"id":8531,"title":"サービス付き高齢者向け住宅 ほっこり家","architect":"大月敏雄+齋藤隆太郎+佐藤晴男","year":2018.0,"address":"岩手県陸前高田市高田町山苗代","latitude":39.026920318603516,"longitude":141.64878845214844,"category":"住宅/都市計画","big_category":"住宅,公共施設","description":"","image_url":"","tags":"新建築2019年8月号,Ver3.00(2019年8月)の追加建築","prefecture":"岩手","contractor":"","structural_designer":"","landscape_designer":"","shinkenchiku_url":""},{"id":8532,"title":"日本圧着端子製造 横浜寮 RUBAN CLAIR","architect":"岡部憲明","year":2019.0,"address":"神奈川県横浜市港北区樽町4-4-36","latitude":35.52811813354492,"longitude":139.63807678222656,"category":"寮","big_category":"住宅","description":"","image_url":"","tags":"新建築2019年8月号,Ver3.00(2019年8月)の追加建築","prefecture":"神奈川","contractor":"","structural_designer":"","landscape_designer":"","shinkenchiku_url":""},{"id":8533,"title":"成安造形大学アパートメント YOHAKU","architect":"y+M design Office","year":2018.0,"address":"滋賀県大津市仰木の里東4-4-19","latitude":35.11070251464844,"longitude":135.90292358398438,"category":"寮","big_category":"住宅","description":"","image_url":"","tags":"新建築2019年8月号,Ver3.00(2019年8月)の追加建築","prefecture":"滋賀","contractor":"","structural_designer":"","landscape_designer":"","shinkenchiku_url":""},{"id":8534,"title":"15 Rooms","architect":"三家大地+FLOOAT","year":2019.0,"address":"東京都世田谷区代沢1-22-16","latitude":35.657257080078125,"longitude":139.67819213867188,"category":"集合住宅","big_category":"住宅","description":"","image_url":"","tags":"新建築2019年8月号,Ver3.00(2019年8月)の追加建築","prefecture":"東京","contractor":"","structural_designer":"","landscape_designer":"","shinkenchiku_url":""},{"id":8535,"title":"corte","architect":"伊藤博之","year":2019.0,"address":"東京都中央区月島3-4-7","latitude":35.66341781616211,"longitude":139.7809600830078,"category":"集合住宅","big_category":"住宅","description":"","image_url":"","tags":"新建築2019年8月号,Ver3.00(2019年8月)の追加建築","prefecture":"東京","contractor":"","structural_designer":"","landscape_designer":"","shinkenchiku_url":""},{"id":8536,"title":"門前仲町の集合住宅","architect":"篠崎弘之","year":2019.0,"address":"東京都江東区永代2-7-11","latitude":35.673362731933594,"longitude":139.79049682617188,"category":"集合住宅","big_category":"住宅","description":"","image_url":"","tags":"新建築2019年8月号,Ver3.00(2019年8月)の追加建築","prefecture":"東京","contractor":"","structural_designer":"","landscape_designer":"","shinkenchiku_url":""},{"id":8537,"title":"モリテラス","architect":"イッカ建築設計事務所","year":2019.0,"address":"東京都世田谷区太子堂2-14-22","latitude":35.64496612548828,"longitude":139.67227172851562,"category":"集合住宅","big_category":"住宅","description":"","image_url":"","tags":"新建築2019年8月号,Ver3.00(2019年8月)の追加建築","prefecture":"東京","contractor":"","structural_designer":"","landscape_designer":"","shinkenchiku_url":""},{"id":8538,"title":"幕張ベイパーク","architect":"光井純+熊谷組+ZGFアーキテクツ","year":2019.0,"address":"千葉県千葉市美浜区若葉3-1-19","latitude":35.64665603637695,"longitude":140.05108642578125,"category":"集合住宅","big_category":"住宅","description":"","image_url":"","tags":"新建築2019年8月号,Ver3.00(2019年8月)の追加建築","prefecture":"千葉","contractor":"","structural_designer":"","landscape_designer":"","shinkenchiku_url":""},{"id":8539,"title":"泉南動物病院","architect":"古谷俊一","year":2019.0,"address":"大阪府泉南郡熊取町野田3-2297-1","latitude":34.40222930908203,"longitude":135.3544158935547,"category":"個人医院","big_category":"医療施設","description":"","image_url":"","tags":"Ver3.00(2019年8月)の追加建築","prefecture":"大阪","contractor":"","structural_designer":"","landscape_designer":"","shinkenchiku_url":""},{"id":8540,"title":"三好市地域交流拠点施設 真鍋屋 MINDE","architect":"y+M design Office+京智健","year":2018.0,"address":"徳島県三好市池田町マ2226","latitude":34.02922439575195,"longitude":133.8096466064453,"category":"公民館・交流施設/モール/公共施設","big_category":"公共施設,商業施設,公共施設","description":"","image_url":"","tags":"Ver3.00(2019年8月)の追加建築","prefecture":"徳島","contractor":"","structural_designer":"","landscape_designer":"","shinkenchiku_url":""},{"id":8541,"title":"AOYAMA花苑","architect":"y+M design Office","year":2018.0,"address":"兵庫県姫路市下手野3-1-5","latitude":34.845088958740234,"longitude":134.64952087402344,"category":"店舗","big_category":"商業施設","description":"","image_url":"","tags":"Ver3.00(2019年8月)の追加建築,新建築2020年7月号","prefecture":"兵庫","contractor":"","structural_designer":"","landscape_designer":"","shinkenchiku_url":""},{"id":8542,"title":"Yバレエスクール","architect":"y+M design Office","year":2015.0,"address":"徳島県徳島市南庄町5-43","latitude":34.07127380371094,"longitude":134.5059356689453,"category":"専門学校","big_category":"教育","description":"","image_url":"","tags":"Ver3.00(2019年8月)の追加建築","prefecture":"徳島","contractor":"","structural_designer":"","landscape_designer":"","shinkenchiku_url":""},{"id":8543,"title":"竹林寺本坊・庫裏","architect":"堀部安嗣","year":2019.0,"address":"高知県高知市五台山3578","latitude":33.546730041503906,"longitude":133.57760620117188,"category":"寺院","big_category":"宗教","description":"","image_url":"","tags":"新建築2019年7月号,Ver3.00(2019年8月)の追加建築","prefecture":"高知","contractor":"","structural_designer":"","landscape_designer":"","shinkenchiku_url":""},{"id":8544,"title":"阿夫利神社 茶寮 石尊","architect":"堀部安嗣","year":2019.0,"address":"神奈川県伊勢原市大山12","latitude":35.431732177734375,"longitude":139.23855590820312,"category":"カフェ/寺院","big_category":"商業施設,宗教","description":"","image_url":"","tags":"新建築2019年7月号,Ver3.00(2019年8月)の追加建築","prefecture":"神奈川","contractor":"","structural_designer":"","landscape_designer":"","shinkenchiku_url":""},{"id":8545,"title":"資生堂グローバルイノベーションセンター S/PARK","architect":"鹿島建設","year":2019.0,"address":"神奈川県横浜市西区高島1-2-11","latitude":35.46153259277344,"longitude":139.6261749267578,"category":"博物館/研究施設/体験施設","big_category":"ミュージアム,教育,レジャー施設","description":"","image_url":"","tags":"新建築2019年7月号,Ver3.00(2019年8月)の追加建築","prefecture":"神奈川","contractor":"鹿島建設","structural_designer":"","landscape_designer":"","shinkenchiku_url":""},{"id":8546,"title":"EQ House","architect":"竹中工務店","year":2019.0,"address":"東京都港区六本木7-3-10","latitude":35.66619873046875,"longitude":139.72804260253906,"category":"店舗","big_category":"商業施設","description":"2年間（2021年3月頃）の期間限定パヴィリオン","image_url":"","tags":"新建築2019年7月号,Ver3.00(2019年8月)の追加建築","prefecture":"東京","contractor":"竹中工務店","structural_designer":"","landscape_designer":"","shinkenchiku_url":""},{"id":8547,"title":"敷島のパン屋 フール・ア・ボワ","architect":"藤野高志","year":2019.0,"address":"群馬県前橋市敷地町240","latitude":36.41584777832031,"longitude":139.04818725585938,"category":"店舗","big_category":"商業施設","description":"","image_url":"","tags":"新建築2019年7月号,Ver3.00(2019年8月)の追加建築","prefecture":"群馬","contractor":"","structural_designer":"","landscape_designer":"","shinkenchiku_url":""},{"id":8548,"title":"尾道造船 尾道造船所総合事務所","architect":"大成建設","year":2018.0,"address":"広島県尾道市山波町1005","latitude":34.41316223144531,"longitude":133.22982788085938,"category":"オフィスビル","big_category":"企業施設","description":"","image_url":"","tags":"新建築2019年7月号,Ver3.00(2019年8月)の追加建築","prefecture":"広島","contractor":"大成建設","structural_designer":"","landscape_designer":"","shinkenchiku_url":""},{"id":8549,"title":"まちのような国際学生寮 神奈川大学 新国際学生寮","architect":"西田司","year":2019.0,"address":"神奈川県横浜市神奈川区栗田谷36-53","latitude":35.48047637939453,"longitude":139.6197967529297,"category":"寮","big_category":"住宅","description":"","image_url":"","tags":"Ver3.00(2019年8月)の追加建築,新建築2020年2月号,2022年日本建築学会 作品選集新人賞","prefecture":"神奈川","contractor":"松井建設","structural_designer":"","landscape_designer":"","shinkenchiku_url":""},{"id":8550,"title":"さんぽう西村屋 本店","architect":"松井亮","year":2019.0,"address":"兵庫県豊岡市城崎町湯島463-2","latitude":35.62531661987305,"longitude":134.8059844970703,"category":"レストラン/モール/店舗","big_category":"商業施設,商業施設,商業施設","description":"","image_url":"","tags":"Ver3.00(2019年8月)の追加建築","prefecture":"兵庫","contractor":"","structural_designer":"","landscape_designer":"","shinkenchiku_url":""}]}