{"page":125,"total_pages":290,"items_per_page":50,"total_items":14467,"items":[{"id":6201,"title":"小田急 箱根レイクホテル","architect":"小川博央","year":1977.0,"address":"神奈川県足柄下郡箱根町湖尻桃源台","latitude":35.240203857421875,"longitude":138.9945831298828,"category":"ホテル","big_category":"宿泊","description":"2013年に小川博央の設計で全館リニューアル。元の設計者は不詳。","image_url":"","tags":"Ver1.90(2016年9月)の追加建築","prefecture":"神奈川","contractor":"","structural_designer":"","landscape_designer":"","shinkenchiku_url":""},{"id":6202,"title":"大和の湯","architect":"羽深隆雄","year":2005.0,"address":"千葉県成田市大竹1630","latitude":35.81705856323242,"longitude":140.27163696289062,"category":"温泉","big_category":"宿泊","description":"","image_url":"","tags":"Ver1.90(2016年9月)の追加建築","prefecture":"千葉","contractor":"","structural_designer":"","landscape_designer":"","shinkenchiku_url":""},{"id":6203,"title":"会津中央病院 イーストセンター","architect":"羽深隆雄","year":2015.0,"address":"福島県会津若松市鶴賀町1-1","latitude":37.52177810668945,"longitude":139.9453887939453,"category":"病院","big_category":"医療施設","description":"","image_url":"","tags":"Ver1.90(2016年9月)の追加建築","prefecture":"福島","contractor":"","structural_designer":"","landscape_designer":"","shinkenchiku_url":""},{"id":6204,"title":"四季彩一力","architect":"羽深隆雄","year":1994.0,"address":"福島県郡山市熱海町熱海4-161","latitude":37.4828987121582,"longitude":140.26844787597656,"category":"旅館","big_category":"宿泊","description":"","image_url":"","tags":"Ver1.90(2016年9月)の追加建築","prefecture":"福島","contractor":"","structural_designer":"","landscape_designer":"","shinkenchiku_url":""},{"id":6205,"title":"天然温泉 久松湯","architect":"プラネットワークス","year":2014.0,"address":"東京都練馬区桜台4-32-15","latitude":35.74138259887695,"longitude":139.66159057617188,"category":"温泉","big_category":"宿泊","description":"","image_url":"","tags":"Ver1.90(2016年9月)の追加建築","prefecture":"東京","contractor":"","structural_designer":"","landscape_designer":"","shinkenchiku_url":""},{"id":6206,"title":"べにや無何有","architect":"竹山聖","year":2006.0,"address":"石川県加賀市山代温泉13区55-1-3","latitude":36.28895950317383,"longitude":136.36309814453125,"category":"旅館","big_category":"宿泊","description":"2018年に特別室白緑、2022年に図書室も設計","image_url":"","tags":"Ver1.90(2016年9月)の追加建築","prefecture":"石川","contractor":"","structural_designer":"","landscape_designer":"","shinkenchiku_url":""},{"id":6207,"title":"西村屋 ホテル招月庭 レストランRicca","architect":"竹山聖","year":2011.0,"address":"兵庫県豊岡市城崎町湯島1016-2","latitude":35.62830352783203,"longitude":134.79896545410156,"category":"レストラン","big_category":"商業施設","description":"","image_url":"","tags":"Ver1.90(2016年9月)の追加建築","prefecture":"兵庫","contractor":"","structural_designer":"","landscape_designer":"","shinkenchiku_url":""},{"id":6208,"title":"ロテル・デュ・ラク","architect":"竹山聖","year":2004.0,"address":"滋賀県長浜市西浅井町大浦2064","latitude":35.46908187866211,"longitude":136.10702514648438,"category":"ホテル","big_category":"宿泊","description":"","image_url":"","tags":"Ver1.90(2016年9月)の追加建築","prefecture":"滋賀","contractor":"","structural_designer":"","landscape_designer":"","shinkenchiku_url":""},{"id":6209,"title":"鶴亭山 威光院","architect":"竹山聖","year":2012.0,"address":"東京都台東区寿2-6-8","latitude":35.709136962890625,"longitude":139.78863525390625,"category":"寺院","big_category":"宗教","description":"","image_url":"","tags":"Ver1.90(2016年9月)の追加建築","prefecture":"東京","contractor":"","structural_designer":"","landscape_designer":"","shinkenchiku_url":""},{"id":6210,"title":"ハーモニーホール駅","architect":"遠藤秀平","year":1997.0,"address":"福井県福井市今市町 ハーモニーホール駅","latitude":36.0139274597168,"longitude":136.20535278320312,"category":"駅","big_category":"インフラ","description":"","image_url":"","tags":"Ver1.90(2016年9月)の追加建築","prefecture":"福井","contractor":"","structural_designer":"","landscape_designer":"","shinkenchiku_url":""},{"id":6211,"title":"神戸国際中学校・高等学校 河野記念アルモニホール","architect":"竹中工務店","year":2011.0,"address":"兵庫県神戸市須磨区高倉台7-21-1","latitude":34.65806198120117,"longitude":135.09669494628906,"category":"学校/体育館","big_category":"教育,レジャー施設","description":"","image_url":"","tags":"第11回芦原義信賞,Ver1.90(2016年9月)の追加建築,2014年日本建築学会 作品選奨","prefecture":"兵庫","contractor":"","structural_designer":"","landscape_designer":"","shinkenchiku_url":""},{"id":6212,"title":"ドナルド・キーン・センター 柏崎","architect":"遠藤秀平","year":2013.0,"address":"新潟県柏崎市諏訪町10-17","latitude":37.37431716918945,"longitude":138.56129455566406,"category":"博物館","big_category":"ミュージアム","description":"","image_url":"","tags":"Ver1.90(2016年9月)の追加建築","prefecture":"新潟","contractor":"","structural_designer":"","landscape_designer":"","shinkenchiku_url":""},{"id":6213,"title":"Growtecture B ブルボン本社ビル","architect":"遠藤秀平","year":2015.0,"address":"新潟県柏崎市駅前1-3-1","latitude":37.364341735839844,"longitude":138.55484008789062,"category":"オフィスビル","big_category":"企業施設","description":"","image_url":"","tags":"Ver1.90(2016年9月)の追加建築","prefecture":"新潟","contractor":"","structural_designer":"","landscape_designer":"","shinkenchiku_url":""},{"id":6214,"title":"Rooftecture P パッソ","architect":"遠藤秀平","year":2012.0,"address":"滋賀県長浜市八幡東町291","latitude":35.38440704345703,"longitude":136.28025817871094,"category":"レストラン","big_category":"商業施設","description":"","image_url":"","tags":"Ver1.90(2016年9月)の追加建築","prefecture":"滋賀","contractor":"","structural_designer":"","landscape_designer":"","shinkenchiku_url":""},{"id":6215,"title":"Springtecture オーラッシュ天白","architect":"遠藤秀平","year":2005.0,"address":"愛知県名古屋市天白区野並3-150","latitude":35.10325241088867,"longitude":136.95693969726562,"category":"店舗","big_category":"商業施設","description":"","image_url":"","tags":"Ver1.90(2016年9月)の追加建築","prefecture":"愛知","contractor":"","structural_designer":"","landscape_designer":"","shinkenchiku_url":""},{"id":6216,"title":"Rooftecture ユーポス 大津店","architect":"遠藤秀平","year":2005.0,"address":"滋賀県大津市別保2-6-29","latitude":34.982547760009766,"longitude":135.89151000976562,"category":"店舗","big_category":"商業施設","description":"","image_url":"","tags":"Ver1.90(2016年9月)の追加建築","prefecture":"滋賀","contractor":"","structural_designer":"","landscape_designer":"","shinkenchiku_url":""},{"id":6217,"title":"Rooftecture オーラッシュ京都","architect":"遠藤秀平","year":2006.0,"address":"京都府京都市西京区樫原秤谷町13-2","latitude":34.97245407104492,"longitude":135.68484497070312,"category":"店舗","big_category":"商業施設","description":"","image_url":"","tags":"Ver1.90(2016年9月)の追加建築","prefecture":"京都","contractor":"","structural_designer":"","landscape_designer":"","shinkenchiku_url":""},{"id":6218,"title":"Rooftecture オーラッシュ奈良","architect":"遠藤秀平","year":2006.0,"address":"奈良県奈良市三条大路2-1-58","latitude":34.684059143066406,"longitude":135.79786682128906,"category":"店舗","big_category":"商業施設","description":"","image_url":"","tags":"Ver1.90(2016年9月)の追加建築","prefecture":"奈良","contractor":"","structural_designer":"","landscape_designer":"","shinkenchiku_url":""},{"id":6219,"title":"Rooftecture M'sR / M'sS 森の10居","architect":"遠藤秀平","year":2007.0,"address":"大阪府羽曳野市古市2-9-9","latitude":34.55369567871094,"longitude":135.61380004882812,"category":"集合住宅/レストラン","big_category":"住宅,商業施設","description":"","image_url":"","tags":"Ver1.90(2016年9月)の追加建築","prefecture":"大阪","contractor":"","structural_designer":"","landscape_designer":"","shinkenchiku_url":""},{"id":6220,"title":"東京消防庁 日本堤消防署二天門出張所庁舎","architect":"難波和彦","year":2006.0,"address":"東京都台東区浅草2-35-9","latitude":35.714229583740234,"longitude":139.7978057861328,"category":"警察・消防署","big_category":"公共施設","description":"","image_url":"","tags":"Ver1.90(2016年9月)の追加建築","prefecture":"東京","contractor":"","structural_designer":"","landscape_designer":"","shinkenchiku_url":""},{"id":6221,"title":"直島町総合福祉センター","architect":"石井和紘","year":1995.0,"address":"香川県香川郡直島町3694-1","latitude":34.45735168457031,"longitude":133.97886657714844,"category":"福祉センター/総合文化施設/プール","big_category":"医療施設,文化施設,レジャー施設","description":"","image_url":"","tags":"Ver1.90(2016年9月)の追加建築","prefecture":"香川","contractor":"","structural_designer":"","landscape_designer":"","shinkenchiku_url":""},{"id":6222,"title":"ふるさと海の家 つつじ荘","architect":"石井和紘","year":1991.0,"address":"香川県香川郡直島町352-1","latitude":34.445980072021484,"longitude":133.99839782714844,"category":"公民館・交流施設/カフェ","big_category":"公共施設,商業施設","description":"","image_url":"","tags":"Ver1.90(2016年9月)の追加建築","prefecture":"香川","contractor":"","structural_designer":"","landscape_designer":"","shinkenchiku_url":""},{"id":6223,"title":"Seto 常石造船新社宅","architect":"マウントフジアーキテクツスタジオ","year":2013.0,"address":"広島県福山市沼隈町大字常石","latitude":34.38817596435547,"longitude":133.30389404296875,"category":"集合住宅","big_category":"住宅","description":"","image_url":"","tags":"Ver1.90(2016年9月)の追加建築","prefecture":"広島","contractor":"","structural_designer":"","landscape_designer":"","shinkenchiku_url":""},{"id":6224,"title":"せとの森住宅","architect":"藤本壮介","year":2013.0,"address":"広島県福山市沼隈町大字常石1990","latitude":34.38960647583008,"longitude":133.30784606933594,"category":"都市計画/住宅","big_category":"公共施設,住宅","description":"","image_url":"","tags":"Ver1.90(2016年9月)の追加建築","prefecture":"広島","contractor":"","structural_designer":"","landscape_designer":"","shinkenchiku_url":""},{"id":6225,"title":"ポータラカ","architect":"千葉学","year":2015.0,"address":"和歌山県田辺市下三栖1483-15","latitude":33.729862213134766,"longitude":135.42037963867188,"category":"養護施設","big_category":"医療施設","description":"","image_url":"","tags":"Ver1.90(2016年9月)の追加建築,新建築2022年4月号","prefecture":"和歌山","contractor":"","structural_designer":"","landscape_designer":"","shinkenchiku_url":""},{"id":6226,"title":"こもれびの舎保育園","architect":"佐々木信明","year":2010.0,"address":"長崎県五島市大津550-3","latitude":32.68626022338867,"longitude":128.85690307617188,"category":"幼稚園","big_category":"教育","description":"","image_url":"","tags":"Ver1.90(2016年9月)の追加建築","prefecture":"長崎","contractor":"","structural_designer":"","landscape_designer":"","shinkenchiku_url":""},{"id":6227,"title":"旅たちの里 小ヶ倉斎苑","architect":"佐々木信明","year":1993.0,"address":"長崎県諫早市小ケ倉町636-21","latitude":32.81766891479492,"longitude":130.04714965820312,"category":"斎場","big_category":"公共施設","description":"","image_url":"","tags":"Ver1.90(2016年9月)の追加建築","prefecture":"長崎","contractor":"","structural_designer":"","landscape_designer":"","shinkenchiku_url":""},{"id":6228,"title":"大阪府立北野高等学校","architect":"竹山聖","year":2000.0,"address":"大阪府大阪市淀川区新北野2-5-13","latitude":34.71586608886719,"longitude":135.47738647460938,"category":"学校","big_category":"教育","description":"","image_url":"","tags":"Ver1.90(2016年9月)の追加建築","prefecture":"大阪","contractor":"","structural_designer":"","landscape_designer":"","shinkenchiku_url":""},{"id":6229,"title":"いずみ保育園","architect":"竹山聖","year":2010.0,"address":"大阪府豊中市螢池中町3-9-15","latitude":34.79401779174805,"longitude":135.44822692871094,"category":"幼稚園","big_category":"教育","description":"","image_url":"","tags":"Ver1.90(2016年9月)の追加建築","prefecture":"大阪","contractor":"","structural_designer":"","landscape_designer":"","shinkenchiku_url":""},{"id":6230,"title":"リストランテ キメラ","architect":"竹山聖","year":2007.0,"address":"京都府京都市東山区祇園町南側504","latitude":35.002418518066406,"longitude":135.77867126464844,"category":"レストラン","big_category":"商業施設","description":"","image_url":"","tags":"Ver1.90(2016年9月)の追加建築","prefecture":"京都","contractor":"","structural_designer":"","landscape_designer":"","shinkenchiku_url":""},{"id":6231,"title":"おはようクリニック","architect":"竹山聖","year":2004.0,"address":"長野県駒ヶ根市赤穂14635-6","latitude":35.74290466308594,"longitude":137.9420623779297,"category":"個人医院","big_category":"医療施設","description":"","image_url":"","tags":"Ver1.90(2016年9月)の追加建築","prefecture":"長野","contractor":"","structural_designer":"","landscape_designer":"","shinkenchiku_url":""},{"id":6232,"title":"チャペル アクティス","architect":"竹山聖","year":2005.0,"address":"京都府京都市上京区仕丁町334","latitude":35.02429962158203,"longitude":135.7564239501953,"category":"結婚式場","big_category":"宗教","description":"","image_url":"","tags":"Ver1.90(2016年9月)の追加建築","prefecture":"京都","contractor":"","structural_designer":"","landscape_designer":"","shinkenchiku_url":""},{"id":6233,"title":"幕張ベイタウン・パティオス8番街","architect":"清水建設+秋元和雄","year":1996.0,"address":"千葉県千葉市美浜区打瀬1-4","latitude":35.641258239746094,"longitude":140.04739379882812,"category":"集合住宅","big_category":"住宅","description":"","image_url":"","tags":"Ver1.90(2016年9月)の追加建築","prefecture":"千葉","contractor":"","structural_designer":"","landscape_designer":"","shinkenchiku_url":""},{"id":6234,"title":"長岡市民体育館","architect":"曽根幸一","year":1991.0,"address":"新潟県長岡市学校町1-2-1","latitude":37.439056396484375,"longitude":138.86141967773438,"category":"体育館","big_category":"レジャー施設","description":"","image_url":"","tags":"Ver1.90(2016年9月)の追加建築","prefecture":"新潟","contractor":"","structural_designer":"","landscape_designer":"","shinkenchiku_url":""},{"id":6235,"title":"パルテノン多摩","architect":"曽根幸一+古谷誠章+東畑建築事務所+森村設計","year":1992.0,"address":"東京都多摩市落合2-35","latitude":35.62164306640625,"longitude":139.42625427246094,"category":"ホール・劇場","big_category":"文化施設","description":"2021年12月に古谷誠章+東畑建築事務所+森村設計により改修された","image_url":"","tags":"Ver1.90(2016年9月)の追加建築,新建築2022年11月号","prefecture":"東京","contractor":"","structural_designer":"","landscape_designer":"","shinkenchiku_url":""},{"id":6236,"title":"稲城市体育館","architect":"曽根幸一","year":1993.0,"address":"東京都稲城市長峰1−1","latitude":35.631736755371094,"longitude":139.486083984375,"category":"体育館","big_category":"レジャー施設","description":"","image_url":"","tags":"Ver1.90(2016年9月)の追加建築","prefecture":"東京","contractor":"","structural_designer":"","landscape_designer":"","shinkenchiku_url":""},{"id":6237,"title":"Hand","architect":"小川晋一","year":2012.0,"address":"愛知県豊川市豊川町伊呂通48-5","latitude":34.821475982666016,"longitude":137.3963623046875,"category":"店舗/住宅","big_category":"商業施設,住宅","description":"","image_url":"","tags":"Ver1.90(2016年9月)の追加建築","prefecture":"愛知","contractor":"","structural_designer":"","landscape_designer":"","shinkenchiku_url":""},{"id":6238,"title":"恩賜林 謝恩碑","architect":"伊東忠太","year":1922.0,"address":"山梨県甲府市丸の内1-5-4","latitude":35.665157318115234,"longitude":138.5704803466797,"category":"オブジェ","big_category":"ミュージアム","description":"","image_url":"","tags":"Ver1.90(2016年9月)の追加建築","prefecture":"山梨","contractor":"","structural_designer":"","landscape_designer":"","shinkenchiku_url":""},{"id":6239,"title":"神戸改革派神学校","architect":"竹中工務店","year":1996.0,"address":"兵庫県神戸市北区菖蒲が丘3-1-3","latitude":34.84210968017578,"longitude":135.22454833984375,"category":"学校","big_category":"教育","description":"","image_url":"","tags":"Ver1.90(2016年9月)の追加建築","prefecture":"兵庫","contractor":"","structural_designer":"","landscape_designer":"","shinkenchiku_url":""},{"id":6240,"title":"リーテム東京工場","architect":"坂牛卓","year":2005.0,"address":"東京都大田区城南島3-2-9","latitude":35.57755661010742,"longitude":139.77987670898438,"category":"工場","big_category":"企業施設","description":"","image_url":"","tags":"第4回芦原義信賞,Ver1.90(2016年9月)の追加建築,2007年日本建築学会 作品選奨","prefecture":"東京","contractor":"","structural_designer":"","landscape_designer":"","shinkenchiku_url":""},{"id":6241,"title":"クローバー学園","architect":"坂牛卓","year":2011.0,"address":"山梨県甲州市塩山上塩後462","latitude":35.70767593383789,"longitude":138.71969604492188,"category":"児童施設/養護施設","big_category":"教育,医療施設","description":"","image_url":"","tags":"Ver1.90(2016年9月)の追加建築","prefecture":"山梨","contractor":"","structural_designer":"","landscape_designer":"","shinkenchiku_url":""},{"id":6242,"title":"するが幼稚園","architect":"坂牛卓","year":2005.0,"address":"静岡県富士市中島122","latitude":35.16431427001953,"longitude":138.64891052246094,"category":"幼稚園","big_category":"教育","description":"","image_url":"","tags":"Ver1.90(2016年9月)の追加建築,新建築2005年11月号","prefecture":"静岡","contractor":"","structural_designer":"","landscape_designer":"","shinkenchiku_url":""},{"id":6243,"title":"小諸商工会議所会館 ","architect":"坂牛卓","year":2013.0,"address":"長野県小諸市相生町3-3-3","latitude":36.32802963256836,"longitude":138.42567443847656,"category":"組合施設","big_category":"公共施設","description":"","image_url":"","tags":"Ver1.90(2016年9月)の追加建築","prefecture":"長野","contractor":"","structural_designer":"","landscape_designer":"","shinkenchiku_url":""},{"id":6244,"title":"横河電機 金沢事業所","architect":"大成建設","year":2005.0,"address":"石川県金沢市北陽台2-3","latitude":36.59782028198242,"longitude":136.71725463867188,"category":"低層オフィス","big_category":"企業施設","description":"","image_url":"","tags":"第6回芦原義信賞,Ver1.90(2016年9月)の追加建築","prefecture":"石川","contractor":"","structural_designer":"","landscape_designer":"","shinkenchiku_url":""},{"id":6245,"title":"聖ヨゼフ学園 京都暁星高等学校","architect":"竹中工務店","year":2003.0,"address":"京都府宮津市字獅子崎30","latitude":35.549827575683594,"longitude":135.21205139160156,"category":"学校","big_category":"教育","description":"","image_url":"","tags":"第3回芦原義信 奨励賞,Ver1.90(2016年9月)の追加建築","prefecture":"京都","contractor":"","structural_designer":"","landscape_designer":"","shinkenchiku_url":""},{"id":6246,"title":"まつびしビル","architect":"長岡正芳","year":2004.0,"address":"兵庫県姫路市魚町45","latitude":34.83194351196289,"longitude":134.68675231933594,"category":"テナントビル","big_category":"商業施設","description":"","image_url":"","tags":"第4回芦原義信 奨励賞,Ver1.90(2016年9月)の追加建築","prefecture":"兵庫","contractor":"","structural_designer":"","landscape_designer":"","shinkenchiku_url":""},{"id":6247,"title":"白鴎大学 はくおう幼稚園 おもちゃライブラリー","architect":"連健夫","year":2005.0,"address":"栃木県小山市大行寺1195","latitude":36.31306457519531,"longitude":139.7879180908203,"category":"幼稚園","big_category":"教育","description":"","image_url":"","tags":"第4回芦原義信 奨励賞,Ver1.90(2016年9月)の追加建築","prefecture":"栃木","contractor":"","structural_designer":"","landscape_designer":"","shinkenchiku_url":""},{"id":6248,"title":"ノティ","architect":"竹原義二","year":2005.0,"address":"大阪府吹田市芳野町13-8","latitude":34.75539779663086,"longitude":135.49085998535156,"category":"結婚式場","big_category":"宗教","description":"","image_url":"","tags":"第5回芦原義信 奨励賞,Ver1.90(2016年9月)の追加建築","prefecture":"大阪","contractor":"","structural_designer":"","landscape_designer":"","shinkenchiku_url":""},{"id":6249,"title":"虎ノ門琴平タワー","architect":"日建設計","year":2004.0,"address":"東京都港区虎ノ門1-2-8","latitude":35.66950225830078,"longitude":139.74838256835938,"category":"オフィスビル","big_category":"企業施設","description":"","image_url":"","tags":"第5回芦原義信 奨励賞,Ver1.90(2016年9月)の追加建築","prefecture":"東京","contractor":"","structural_designer":"","landscape_designer":"","shinkenchiku_url":""},{"id":6250,"title":"AGCモノづくり研修センター","architect":"竹中工務店","year":2006.0,"address":"神奈川県横浜市鶴見区弁天町","latitude":35.49607467651367,"longitude":139.6887664794922,"category":"研修施設/研究施設/企業施設","big_category":"教育,教育,企業施設","description":"","image_url":"","tags":"第6回芦原義信 奨励賞,Ver1.90(2016年9月)の追加建築,2008年日本建築学会 作品選奨","prefecture":"神奈川","contractor":"","structural_designer":"","landscape_designer":"","shinkenchiku_url":""}]}