{"page":254,"total_pages":290,"items_per_page":50,"total_items":14467,"items":[{"id":12651,"title":"猫屋町ビルヂング","architect":"谷尻誠","year":2023.0,"address":"広島県広島市中区猫屋町8-17","latitude":34.39495086669922,"longitude":132.44744873046875,"category":"オフィスビル/テナントビル/温泉","description":"サポーズデザインオフィスの広島事務所が入居","image_url":""},{"id":12652,"title":"東急プラザ原宿 ハラカド","architect":"日建設計+平田晃久","year":2023.0,"address":"東京都渋谷区神宮前6-31-21","latitude":35.66840362548828,"longitude":139.7049102783203,"category":"モール/テナントビル","description":"外装・屋上デザイン：平田晃久。2024年春開業予定","image_url":""},{"id":12653,"title":"鹿島市民文化ホール サクラス","architect":"古谷誠章","year":2023.0,"address":"佐賀県鹿島市納富分2643-1","latitude":33.104591369628906,"longitude":130.0985565185547,"category":"ホール・劇場","description":"","image_url":""},{"id":12654,"title":"L+ HIRAO LANDIC HOUSE & CAFE","architect":"谷尻誠","year":2022.0,"address":"福岡県福岡市南区大楠2-19-17","latitude":33.57340621948242,"longitude":130.40708923339844,"category":"店舗/カフェ","description":"","image_url":""},{"id":12655,"title":"NOT A HOTEL FUKUOKA","architect":"佐々木慧+NKS2アーキテクツ","year":2023.0,"address":"福岡県福岡市中央区大宮2-3-34","latitude":33.5761833190918,"longitude":130.40536499023438,"category":"ホテル/コテージ","description":"オーナーが利用しない日を一棟（一室）貸しのホテルとして利用可能","image_url":""},{"id":12656,"title":"DILLY DALLY","architect":"佐々木慧","year":2023.0,"address":"福岡県福津市宮司浜4-5-7","latitude":33.779727935791016,"longitude":130.46983337402344,"category":"レストラン/店舗","description":"","image_url":""},{"id":12657,"title":"NOT A HOTEL NASU MASTERPIECE","architect":"谷尻誠","year":2022.0,"address":"栃木県大田原市狭原1291-7","latitude":36.842105865478516,"longitude":140.09869384765625,"category":"ホテル/コテージ","description":"オーナーが利用しない日を一棟（一室）貸しのホテルとして利用可能","image_url":""},{"id":12658,"title":"NOT A HOTEL NASU THINK","architect":"谷尻誠","year":2022.0,"address":"栃木県大田原市狭原1291-7","latitude":36.84162521362305,"longitude":140.09866333007812,"category":"ホテル/コテージ","description":"オーナーが利用しない日を一棟（一室）貸しのホテルとして利用可能","image_url":""},{"id":12659,"title":"NOT A HOTEL AOSHIMA GARDEN/MASTERPIECE/CHILL/SURF","architect":"大堀伸","year":2022.0,"address":"宮崎県宮崎市青島2-241-1","latitude":31.80279541015625,"longitude":131.47006225585938,"category":"ホテル/コテージ","description":"オーナーが利用しない日を一棟（一室）貸しのホテルとして利用可能","image_url":""},{"id":12660,"title":"青天堂","architect":"水野茂朋","year":2023.0,"address":"佐賀県唐津市原1392-3","latitude":33.41578674316406,"longitude":129.9943389892578,"category":"レストラン","description":"","image_url":""},{"id":12661,"title":"妙善寺 本堂","architect":"パーシモンヒルズ・アーキテクツ","year":2023.0,"address":"埼玉県春日部市飯沼1","latitude":35.972900390625,"longitude":139.8115234375,"category":"寺院","description":"","image_url":""},{"id":12662,"title":"小豆島ゲートラウンジ オリーヴの森 The GATE LOUNGE","architect":"秋吉浩気","year":2023.0,"address":"香川県小豆郡土庄町甲2473","latitude":34.46683883666992,"longitude":134.16781616210938,"category":"店舗","description":"","image_url":""},{"id":12663,"title":"海のホテル島花 レジデンスヴィラ ガーデンヴィラ棟","architect":"丹下健三","year":null,"address":"兵庫県洲本市小路谷1280-6","latitude":34.326316833496094,"longitude":134.91529846191406,"category":"ホテル/コテージ","description":"ガーデンヴィラ棟は丹下健三設計の保養所を改修","image_url":""},{"id":12664,"title":"「ゼンカイ」ハウス","architect":"宮本佳明","year":1997.0,"address":"兵庫県宝塚市湯本町4-29","latitude":34.80572509765625,"longitude":135.34420776367188,"category":"住宅/低層オフィス","description":"","image_url":""},{"id":12665,"title":"京都市立芸術大学 崇仁キャンパス ／ 京都市立美術工芸高等学校","architect":"乾久美子+RING ARCHITECTS+藤原徹平+o+h 他","year":2023.0,"address":"京都府京都市下京区下之町57-1","latitude":34.986541748046875,"longitude":135.76339721679688,"category":"大学/学校","description":"乾・RING・フジワラボ・o＋h・吉村設計共同体","image_url":""},{"id":12666,"title":"シェア型レジデンス花園 reikyo garden hotel","architect":"T2Pアーキテクツ","year":2022.0,"address":"大阪府大阪市西成区鶴見橋1-7-27","latitude":34.647300720214844,"longitude":135.4961700439453,"category":"ホテル/ホステル","description":"","image_url":""},{"id":12667,"title":"カノリーリゾーツ白馬","architect":"GENETO建築設計","year":2022.0,"address":"長野県北安曇野北城白馬村1278-23","latitude":36.68645477294922,"longitude":137.84584045410156,"category":"ホテル","description":"","image_url":""},{"id":12668,"title":"金笛しょうゆパーク","architect":"木元洋佑","year":2019.0,"address":"埼玉県比企郡川島町上井草660","latitude":35.96833038330078,"longitude":139.46461486816406,"category":"店舗/レストラン/古民家","description":"改修","image_url":""},{"id":12669,"title":"河道屋 倖松庵","architect":"多田正治+遠藤正二郎","year":2023.0,"address":"京都府京都市下京区御幸町通高辻上る橘町448","latitude":35.000484466552734,"longitude":135.76632690429688,"category":"レストラン/古民家","description":"町家の改修","image_url":""},{"id":12670,"title":"有栖川DUPLEX","architect":"森山博之","year":2016.0,"address":"東京都港区南麻布5-13-9","latitude":35.65202331542969,"longitude":139.7235870361328,"category":"集合住宅","description":"","image_url":""},{"id":12671,"title":"TOGO HOUSE 東郷ファインアート","architect":"坂茂","year":2000.0,"address":"東京都港区南麻布5-11-12","latitude":35.653221130371094,"longitude":139.72291564941406,"category":"ギャラリー/住宅","description":"","image_url":""},{"id":12672,"title":"between the arts 旧Billboard Building / かんばんビル","architect":"クライン・ダイサム・アーキテクツ","year":2005.0,"address":"東京都港区元麻布2-2-10","latitude":35.65435028076172,"longitude":139.72633361816406,"category":"ギャラリー","description":"","image_url":""},{"id":12673,"title":"Esq広尾","architect":"テレデザイン","year":2007.0,"address":"東京都港区南麻布5-10-37","latitude":35.65414047241211,"longitude":139.72283935546875,"category":"オフィスビル","description":"","image_url":""},{"id":12674,"title":"ブリヂストングローバル研修センター","architect":"日本設計","year":2010.0,"address":"東京都港区南麻布5-1-7","latitude":35.6553840637207,"longitude":139.72303771972656,"category":"オフィスビル/研修施設","description":"","image_url":""},{"id":12675,"title":"虎ノ門ヒルズ ステーションタワー","architect":"レム・コールハース/OMA","year":2023.0,"address":"東京都港区虎ノ門2-6-3","latitude":35.66749954223633,"longitude":139.74700927734375,"category":"複合ビル","description":"","image_url":""},{"id":12676,"title":"吉田村ビレッジ","architect":"慶野正司","year":2021.0,"address":"栃木県下野市本吉田784","latitude":36.373958587646484,"longitude":139.91050720214844,"category":"モール","description":"","image_url":""},{"id":12677,"title":"みどり市立笠懸西小学校","architect":"石井設計","year":2022.0,"address":"群馬県みどり市笠懸町鹿3060-1","latitude":36.396263122558594,"longitude":139.27415466308594,"category":"学校","description":"","image_url":""},{"id":12678,"title":"大同大学 X棟","architect":"日建設計","year":2020.0,"address":"愛知県名古屋市南区滝春町10-3","latitude":35.078433990478516,"longitude":136.90687561035156,"category":"大学","description":"","image_url":""},{"id":12679,"title":"渋谷区ふれあい植物センター","architect":"谷尻誠","year":2023.0,"address":"東京都渋谷区東2-25-37","latitude":35.6533203125,"longitude":139.707763671875,"category":"動植物園","description":"改修。元の建築は2005年竣工","image_url":""},{"id":12680,"title":"OHAYOGOZAIMASUCOFFEE","architect":"N&C一級建築士事務所","year":2023.0,"address":"神奈川県横浜市青葉区鴨志田町545-13","latitude":35.56272888183594,"longitude":139.5037841796875,"category":"店舗","description":"同設計者が改修設計した2021郊外の住居の庭に増築","image_url":""},{"id":12681,"title":"高嶺の森のこども園","architect":"山下貴成","year":2023.0,"address":"静岡県御殿場市古沢字割地1181","latitude":35.342559814453125,"longitude":138.9072723388672,"category":"幼稚園","description":"","image_url":""},{"id":12682,"title":"リヒター・ラウム","architect":"不明","year":2023.0,"address":"長野県北佐久郡軽井沢町1323-1475","latitude":36.34608459472656,"longitude":138.61990356445312,"category":"ギャラリー","description":"ゲルハルト・リヒターの常設展示ギャラリー。オンライン事前予約制","image_url":""},{"id":12683,"title":"BBQ SPOT KASUGAI","architect":"篠元貴之+酒井悠行","year":2023.0,"address":"愛知県春日井市東野町茨沢21-3","latitude":35.27338790893555,"longitude":136.98980712890625,"category":"広場","description":"","image_url":""},{"id":12684,"title":"GLP ALFALINK相模原","architect":"佐藤可士和+竹中工務店+東急建設+日本GLP","year":2021.0,"address":"神奈川県相模原市中央区田名字赤坂3700-1","latitude":35.56239318847656,"longitude":139.3421630859375,"category":"企業施設/工場","description":"クリエイティブディレクション・デザイン監修：佐藤可士和 基本計画・監修：日本GLP 相模原1、2、共用棟：竹中工務店 相模原3、4：東急建設","image_url":""},{"id":12685,"title":"JINS かわじまインター店","architect":"髙濱史子","year":2023.0,"address":"埼玉県比企郡川島町上伊草210","latitude":35.97712326049805,"longitude":139.4669647216797,"category":"店舗","description":"2023年10月23日オープン予定","image_url":""},{"id":12686,"title":"Maebashi Shed 2 なか又 パワーモール前橋みなみ店","architect":"髙濱史子","year":2018.0,"address":"群馬県前橋市新堀町64-7","latitude":36.32927703857422,"longitude":139.0965576171875,"category":"店舗","description":"2020年テナント変更の際に同設計者により改修","image_url":""},{"id":12687,"title":"Maebashi Brick Warehouse 日本橋海鮮丼 つじ半 前橋店","architect":"髙濱史子","year":2019.0,"address":"群馬県前橋市千代田町2-7-20","latitude":36.39160919189453,"longitude":139.06890869140625,"category":"レストラン","description":"2020年テナント変更の際に同設計者により改修","image_url":""},{"id":12688,"title":"SHUTL","architect":"黒川紀章","year":2023.0,"address":"東京都中央区築地4-1-8","latitude":35.6673698425293,"longitude":139.76856994628906,"category":"ギャラリー","description":"中銀カプセルタワービル内にあったカプセル二つを移設したギャラリー。2023年10月7日オープン予定。ギャラリー設計者不詳。分かり次第追記・変更します","image_url":""},{"id":12689,"title":"テクノオートジャパンショールーム","architect":"島田智一","year":2023.0,"address":"高知県高知市はりまや町3-20-13","latitude":33.562984466552734,"longitude":133.54701232910156,"category":"店舗","description":"","image_url":""},{"id":12690,"title":"クボタグローバル技術研究所","architect":"大林組","year":2022.0,"address":"大阪府堺市堺区匠町1-11","latitude":34.59838104248047,"longitude":135.42796325683594,"category":"研究施設","description":"","image_url":""},{"id":12691,"title":"豊中市立庄内さくら学園・豊中市庄内コラボセンター","architect":"類設計室","year":2023.0,"address":"大阪府豊中市庄内幸町4-29-1","latitude":34.746986389160156,"longitude":135.4707489013672,"category":"学校/総合文化施設","description":"","image_url":""},{"id":12692,"title":"図図倉庫","architect":"佐藤研吾","year":2022.0,"address":"福島県相馬郡飯舘村深谷二本木前5-1","latitude":37.69729232788086,"longitude":140.7413787841797,"category":"公民館・交流施設/広場","description":"ホームセンターの改修","image_url":""},{"id":12693,"title":"TENOHA能代","architect":"工藤浩平","year":2023.0,"address":"秋田県能代市常盤堂回90","latitude":40.22562026977539,"longitude":140.13748168945312,"category":"シェアオフィス","description":"2004年竣工の廃校を改修","image_url":""},{"id":12694,"title":"TENOHA男鹿","architect":"工藤浩平","year":2023.0,"address":"秋田県男鹿市船川港船川新浜町47","latitude":39.883113861083984,"longitude":139.8472900390625,"category":"シェアオフィス","description":"","image_url":""},{"id":12695,"title":"地域に開かれた展望テラスを持つ美容室 and c","architect":"studio velocity","year":2023.0,"address":"岐阜県各務原市蘇原瑞穂町2-9","latitude":35.414398193359375,"longitude":136.84536743164062,"category":"美容院","description":"","image_url":""},{"id":12696,"title":"鶴川商店街周辺拠点施設","architect":"塩塚隆生+下村正樹","year":2023.0,"address":"大分県国東市国東町鶴川1365","latitude":33.560672760009766,"longitude":131.7355499267578,"category":"公民館・交流施設/シェアオフィス/古民家","description":"テレワーク施設棟は旧古城医院の改修。チャレンジショップ棟新築","image_url":""},{"id":12697,"title":"cocomio 豊後大野市関係人口交流拠点施設","architect":"塩塚隆生","year":2022.0,"address":"大分県豊後大野市緒方町下自在172","latitude":32.9720458984375,"longitude":131.47079467773438,"category":"公民館・交流施設","description":"旧緒方町歴史民俗資料館の改装","image_url":""},{"id":12698,"title":"盆の棚","architect":"塩塚隆生","year":2021.0,"address":"大分県宇佐市安心院町下毛2115","latitude":33.439361572265625,"longitude":131.3539581298828,"category":"オブジェ","description":"","image_url":""},{"id":12699,"title":"天瀬町ポケットパーク","architect":"塩塚隆生+佐藤誠治","year":1997.0,"address":"大分県日田市天瀬町桜竹364-7","latitude":33.255062103271484,"longitude":131.03021240234375,"category":"公園/トイレ","description":"","image_url":""},{"id":12700,"title":"宮町ロータリーパーク","architect":"塩塚隆生","year":2005.0,"address":"大分県豊後高田市高田861-2","latitude":33.56068420410156,"longitude":131.43919372558594,"category":"公園","description":"","image_url":""}]}