{"page":242,"total_pages":290,"items_per_page":50,"total_items":14467,"items":[{"id":12051,"title":"NU茶屋町","architect":"日本設計","year":2005.0,"address":"大阪府大阪市北区茶屋町10-12","latitude":34.70693588256836,"longitude":135.49903869628906,"category":"モール/テナントビル","big_category":"商業施設,商業施設","description":"","image_url":"","tags":"Ver4.80(2023年1月)の追加建築","prefecture":"大阪","contractor":"","structural_designer":"","landscape_designer":"","shinkenchiku_url":""},{"id":12052,"title":"多賀城市立図書館","architect":"アール・アイ・エー","year":2016.0,"address":"宮城県多賀城市中央2-4-3","latitude":38.291908264160156,"longitude":141.00473022460938,"category":"図書館","big_category":"文化施設","description":"","image_url":"","tags":"Ver4.80(2023年1月)の追加建築","prefecture":"宮城","contractor":"","structural_designer":"","landscape_designer":"","shinkenchiku_url":""},{"id":12053,"title":"能美市立 辰口図書館","architect":"A.Lab","year":2002.0,"address":"石川県能美市倉重町戊41","latitude":36.45170974731445,"longitude":136.54345703125,"category":"図書館","big_category":"文化施設","description":"","image_url":"","tags":"Ver4.80(2023年1月)の追加建築","prefecture":"石川","contractor":"","structural_designer":"","landscape_designer":"","shinkenchiku_url":""},{"id":12054,"title":"炭火焼れん","architect":"DIG DESIGN","year":2020.0,"address":"東京都目黒区目黒1-5−4 テルレ201","latitude":35.636024475097656,"longitude":139.71250915527344,"category":"店舗","big_category":"商業施設","description":"内装の設計","image_url":"","tags":"Ver4.80(2023年1月)の追加建築","prefecture":"東京","contractor":"","structural_designer":"","landscape_designer":"","shinkenchiku_url":""},{"id":12055,"title":"成増AQUA","architect":"DIG DESIGN","year":2021.0,"address":"東京都板橋区成増2-17-22","latitude":35.77766799926758,"longitude":139.63113403320312,"category":"テナントビル","big_category":"商業施設","description":"","image_url":"","tags":"Ver4.80(2023年1月)の追加建築","prefecture":"東京","contractor":"","structural_designer":"","landscape_designer":"","shinkenchiku_url":""},{"id":12056,"title":"caymuu","architect":"DIG DESIGN","year":2020.0,"address":"千葉県佐倉市王子台3-3-1","latitude":35.727359771728516,"longitude":140.18228149414062,"category":"店舗","big_category":"商業施設","description":"内装の設計","image_url":"","tags":"Ver4.80(2023年1月)の追加建築","prefecture":"千葉","contractor":"","structural_designer":"","landscape_designer":"","shinkenchiku_url":""},{"id":12057,"title":"株式会社ハウスバディ東大和　","architect":"DIG DESIGN","year":2021.0,"address":"東京都東大和市上北台3-429-24","latitude":35.738826751708984,"longitude":139.41629028320312,"category":"店舗","big_category":"商業施設","description":"内装のみの設計","image_url":"","tags":"Ver4.80(2023年1月)の追加建築","prefecture":"東京","contractor":"","structural_designer":"","landscape_designer":"","shinkenchiku_url":""},{"id":12058,"title":"メガネライフ三鷹店","architect":"DIG DESIGN","year":2008.0,"address":"東京都三鷹市下連雀3-26-10 サプラ三鷹1F","latitude":35.701961517333984,"longitude":139.56112670898438,"category":"店舗","big_category":"商業施設","description":"内装のみの設計","image_url":"","tags":"Ver4.80(2023年1月)の追加建築","prefecture":"東京","contractor":"","structural_designer":"","landscape_designer":"","shinkenchiku_url":""},{"id":12059,"title":"タウンハウジング綾瀬店","architect":"DIG DESIGN","year":2022.0,"address":"東京都足立区綾瀬1-39-1","latitude":35.76173782348633,"longitude":139.8235321044922,"category":"店舗","big_category":"商業施設","description":"内装の設計","image_url":"","tags":"Ver4.80(2023年1月)の追加建築","prefecture":"東京","contractor":"","structural_designer":"","landscape_designer":"","shinkenchiku_url":""},{"id":12060,"title":"タウンハウジング赤坂店","architect":"DIG DESIGN","year":2020.0,"address":"東京都港区赤坂3-15-10","latitude":35.67446517944336,"longitude":139.7364959716797,"category":"店舗","big_category":"商業施設","description":"内装の設計","image_url":"","tags":"Ver4.80(2023年1月)の追加建築","prefecture":"東京","contractor":"","structural_designer":"","landscape_designer":"","shinkenchiku_url":""},{"id":12061,"title":"タウンハウジング恵比寿店","architect":"DIG DESIGN","year":2022.0,"address":"東京都渋谷区恵比寿1-7-12","latitude":35.64826965332031,"longitude":139.71051025390625,"category":"店舗","big_category":"商業施設","description":"内装の設計","image_url":"","tags":"Ver4.80(2023年1月)の追加建築","prefecture":"東京","contractor":"","structural_designer":"","landscape_designer":"","shinkenchiku_url":""},{"id":12062,"title":"ミングルマングル","architect":"DIG DESIGN","year":2015.0,"address":"神奈川県横浜市中区伊勢佐木町7-155-13","latitude":35.43788146972656,"longitude":139.62307739257812,"category":"店舗","big_category":"商業施設","description":"","image_url":"","tags":"Ver4.80(2023年1月)の追加建築","prefecture":"神奈川","contractor":"","structural_designer":"","landscape_designer":"","shinkenchiku_url":""},{"id":12063,"title":"中田医院","architect":"遠藤楽","year":1988.0,"address":"埼玉県草加市中央2-16−43","latitude":35.827449798583984,"longitude":139.812744140625,"category":"個人医院","big_category":"医療施設","description":"","image_url":"","tags":"Ver4.80(2023年1月)の追加建築","prefecture":"埼玉","contractor":"","structural_designer":"","landscape_designer":"","shinkenchiku_url":""},{"id":12064,"title":"SRL八王子ラボラトリー","architect":"前川國男","year":1979.0,"address":"東京都八王子市小宮町51","latitude":35.68700408935547,"longitude":139.3769989013672,"category":"研究施設","big_category":"教育","description":"1982に同じ設計者で増築","image_url":"","tags":"Ver4.80(2023年1月)の追加建築","prefecture":"東京","contractor":"","structural_designer":"","landscape_designer":"","shinkenchiku_url":""},{"id":12065,"title":"川崎キングスカイフロント東急REIホテル","architect":"大和ハウス工業","year":2018.0,"address":"神奈川県川崎市川崎区殿町3-25-11","latitude":35.541015625,"longitude":139.7534942626953,"category":"ホテル","big_category":"宿泊","description":"","image_url":"","tags":"新建築2018年9月号,Ver4.80(2023年1月)の追加建築","prefecture":"神奈川","contractor":"","structural_designer":"","landscape_designer":"","shinkenchiku_url":""},{"id":12066,"title":"リサーチゲートビルディング殿町2","architect":"大和ハウス工業","year":2017.0,"address":"神奈川県川崎市川崎区殿町3-25-10","latitude":35.54020309448242,"longitude":139.7533721923828,"category":"研究施設","big_category":"教育","description":"","image_url":"","tags":"新建築2018年9月号,Ver4.80(2023年1月)の追加建築","prefecture":"神奈川","contractor":"","structural_designer":"","landscape_designer":"","shinkenchiku_url":""},{"id":12067,"title":"リサーチゲートビルディング殿町3","architect":"大和ハウス工業","year":2020.0,"address":"神奈川県川崎市川崎区殿町3-25-40","latitude":35.539207458496094,"longitude":139.75192260742188,"category":"研究施設","big_category":"教育","description":"","image_url":"","tags":"新建築2018年9月号,Ver4.80(2023年1月)の追加建築","prefecture":"神奈川","contractor":"","structural_designer":"","landscape_designer":"","shinkenchiku_url":""},{"id":12068,"title":"Shimadzu Tokyo Innovation Plaza","architect":"大和ハウス工業","year":2021.0,"address":"神奈川県川崎市川崎区殿町3-25-40","latitude":35.539710998535156,"longitude":139.751953125,"category":"研究施設","big_category":"教育","description":"","image_url":"","tags":"Ver4.80(2023年1月)の追加建築","prefecture":"神奈川","contractor":"","structural_designer":"","landscape_designer":"","shinkenchiku_url":""},{"id":12069,"title":"リサーチゲートビルディング殿町1","architect":"大和ハウス工業","year":2019.0,"address":"神奈川県川崎市川崎区殿町3-25-9","latitude":35.5394401550293,"longitude":139.7535858154297,"category":"研究施設","big_category":"教育","description":"","image_url":"","tags":"新建築2018年9月号,Ver4.80(2023年1月)の追加建築","prefecture":"神奈川","contractor":"","structural_designer":"","landscape_designer":"","shinkenchiku_url":""},{"id":12070,"title":"メドトロニック・イノベーションセンター","architect":"大和ハウス工業","year":2017.0,"address":"神奈川県川崎市川崎区殿町3-25-10","latitude":35.53986740112305,"longitude":139.75332641601562,"category":"研究施設","big_category":"教育","description":"","image_url":"","tags":"Ver4.80(2023年1月)の追加建築","prefecture":"神奈川","contractor":"","structural_designer":"","landscape_designer":"","shinkenchiku_url":""},{"id":12071,"title":"ダイアパレス水島町","architect":"黒川紀章","year":1989.0,"address":"新潟市中央区水島町10-25","latitude":37.91094207763672,"longitude":139.05177307128906,"category":"集合住宅","big_category":"住宅","description":"集合住宅。WEB上に不動産情報あり。","image_url":"","tags":"Ver4.80(2023年1月)の追加建築","prefecture":"新潟","contractor":"","structural_designer":"","landscape_designer":"","shinkenchiku_url":""},{"id":12072,"title":"ダイアパレス医学町","architect":"黒川紀章","year":1987.0,"address":"新潟市中央区医学町通2番町10-1","latitude":37.917076110839844,"longitude":139.0369415283203,"category":"集合住宅","big_category":"住宅","description":"集合住宅。1F、2Fテナント。","image_url":"","tags":"Ver4.80(2023年1月)の追加建築","prefecture":"新潟","contractor":"","structural_designer":"","landscape_designer":"","shinkenchiku_url":""},{"id":12073,"title":"杉野記念館","architect":"杉野繁一","year":1938.0,"address":"東京都品川区上大崎4-6-19","latitude":35.63126754760742,"longitude":139.71568298339844,"category":"博物館/住宅","big_category":"ミュージアム,住宅","description":"","image_url":"","tags":"Ver4.80(2023年1月)の追加建築","prefecture":"東京","contractor":"","structural_designer":"","landscape_designer":"","shinkenchiku_url":""},{"id":12074,"title":"杉野学園衣裳博物館","architect":"杉野繁一","year":1957.0,"address":"東京都品川区上大崎4-6-19","latitude":35.63071823120117,"longitude":139.71588134765625,"category":"博物館","big_category":"ミュージアム","description":"","image_url":"","tags":"Ver4.80(2023年1月)の追加建築","prefecture":"東京","contractor":"","structural_designer":"","landscape_designer":"","shinkenchiku_url":""},{"id":12075,"title":"品川区立環境学習交流施設 エコルとごし","architect":"松田平田設計","year":2022.0,"address":"東京都品川区豊町2-1-30","latitude":35.61103439331055,"longitude":139.7223663330078,"category":"博物館","big_category":"ミュージアム","description":"","image_url":"","tags":"Ver4.80(2023年1月)の追加建築","prefecture":"東京","contractor":"","structural_designer":"","landscape_designer":"","shinkenchiku_url":""},{"id":12076,"title":"愛知文化服装専門学校","architect":"丹羽浩之+堀内建築研究所","year":2017.0,"address":"愛知県名古屋市瑞穂区川澄町1-5","latitude":35.13821029663086,"longitude":136.93556213378906,"category":"専門学校","big_category":"教育","description":"","image_url":"","tags":"Ver4.80(2023年1月)の追加建築","prefecture":"愛知","contractor":"杉本組","structural_designer":"","landscape_designer":"","shinkenchiku_url":""},{"id":12077,"title":"あかばねこども園","architect":"藤川原設計+太幡英亮","year":2022.0,"address":"愛知県田原市赤羽根町天神21","latitude":34.614742279052734,"longitude":137.19786071777344,"category":"幼稚園","big_category":"教育","description":"","image_url":"","tags":"Ver4.80(2023年1月)の追加建築","prefecture":"愛知","contractor":"","structural_designer":"","landscape_designer":"","shinkenchiku_url":""},{"id":12078,"title":"小田原市消防庁舎 成田出張所","architect":"シーラカンスアンドアソシエイツ","year":2020.0,"address":"神奈川県小田原市成田923-2","latitude":35.292152404785156,"longitude":139.16116333007812,"category":"警察・消防署","big_category":"公共施設","description":"","image_url":"","tags":"Ver4.80(2023年1月)の追加建築","prefecture":"神奈川","contractor":"","structural_designer":"","landscape_designer":"","shinkenchiku_url":""},{"id":12079,"title":"T-PLUS 日本橋小伝馬町","architect":"シーラカンスアンドアソシエイツ","year":2022.0,"address":"東京都中央区日本橋小伝馬町16-12","latitude":35.69251251220703,"longitude":139.78025817871094,"category":"オフィスビル","big_category":"企業施設","description":"","image_url":"","tags":"Ver4.80(2023年1月)の追加建築","prefecture":"東京","contractor":"","structural_designer":"","landscape_designer":"","shinkenchiku_url":""},{"id":12080,"title":"小田原市消防庁舎 岡本出張所","architect":"シーラカンスアンドアソシエイツ","year":2020.0,"address":"神奈川県南足柄市岩原1025-5","latitude":35.298343658447266,"longitude":139.1220703125,"category":"警察・消防署","big_category":"公共施設","description":"","image_url":"","tags":"Ver4.80(2023年1月)の追加建築","prefecture":"神奈川","contractor":"","structural_designer":"","landscape_designer":"","shinkenchiku_url":""},{"id":12081,"title":"あかなべ歯科","architect":"武藤圭太郎","year":2020.0,"address":"岐阜県岐阜市茜部本郷2-83-1","latitude":35.391700744628906,"longitude":136.7545928955078,"category":"個人医院","big_category":"医療施設","description":"","image_url":"","tags":"Ver4.80(2023年1月)の追加建築","prefecture":"岐阜","contractor":"","structural_designer":"","landscape_designer":"","shinkenchiku_url":""},{"id":12082,"title":"ばんざい弁当 京町本店","architect":"武藤圭太郎","year":2021.0,"address":"岐阜県岐阜市京町2-20","latitude":35.42551803588867,"longitude":136.7563018798828,"category":"店舗","big_category":"商業施設","description":"","image_url":"","tags":"Ver4.80(2023年1月)の追加建築","prefecture":"岐阜","contractor":"","structural_designer":"","landscape_designer":"","shinkenchiku_url":""},{"id":12083,"title":"たけなか外科内科こどもクリニック","architect":"田中義彰","year":2019.0,"address":"愛知県名古屋市北区金城町4-72","latitude":35.207740783691406,"longitude":136.9067840576172,"category":"個人医院","big_category":"医療施設","description":"","image_url":"","tags":"Ver4.80(2023年1月)の追加建築","prefecture":"愛知","contractor":"","structural_designer":"","landscape_designer":"","shinkenchiku_url":""},{"id":12084,"title":"野田歯科クリニック","architect":"田中義彰","year":2022.0,"address":"愛知県豊橋市東小鷹野3-13-22","latitude":34.77042007446289,"longitude":137.4316864013672,"category":"個人医院","big_category":"医療施設","description":"","image_url":"","tags":"Ver4.80(2023年1月)の追加建築","prefecture":"愛知","contractor":"","structural_designer":"","landscape_designer":"","shinkenchiku_url":""},{"id":12085,"title":"知多クリニック","architect":"田中義彰","year":2022.0,"address":"愛知県半田市本町7-20","latitude":34.89669418334961,"longitude":136.9329833984375,"category":"個人医院","big_category":"医療施設","description":"","image_url":"","tags":"Ver4.80(2023年1月)の追加建築","prefecture":"愛知","contractor":"","structural_designer":"","landscape_designer":"","shinkenchiku_url":""},{"id":12086,"title":"ヴェルヴァーレ本陣クリニック","architect":"田中義彰","year":2021.0,"address":"愛知県名古屋市中村区本陣通2-19","latitude":35.17744827270508,"longitude":136.869873046875,"category":"個人医院","big_category":"医療施設","description":"","image_url":"","tags":"Ver4.80(2023年1月)の追加建築","prefecture":"愛知","contractor":"","structural_designer":"","landscape_designer":"","shinkenchiku_url":""},{"id":12087,"title":"メンタルクリニック ナイアちた","architect":"田中義彰","year":2020.0,"address":"愛知県知多市新知西町9-9","latitude":34.98381805419922,"longitude":136.86390686035156,"category":"個人医院","big_category":"医療施設","description":"","image_url":"","tags":"Ver4.80(2023年1月)の追加建築","prefecture":"愛知","contractor":"","structural_designer":"","landscape_designer":"","shinkenchiku_url":""},{"id":12088,"title":"花園内科","architect":"田中義彰","year":2020.0,"address":"愛知県豊田市花園町屋敷15-1","latitude":35.011592864990234,"longitude":137.07823181152344,"category":"個人医院","big_category":"医療施設","description":"","image_url":"","tags":"Ver4.80(2023年1月)の追加建築","prefecture":"愛知","contractor":"","structural_designer":"","landscape_designer":"","shinkenchiku_url":""},{"id":12089,"title":"とよはし矯正歯科","architect":"田中義彰","year":2019.0,"address":"愛知県豊橋市西幸町古並1-68","latitude":34.72488021850586,"longitude":137.41571044921875,"category":"個人医院","big_category":"医療施設","description":"","image_url":"","tags":"Ver4.80(2023年1月)の追加建築","prefecture":"愛知","contractor":"","structural_designer":"","landscape_designer":"","shinkenchiku_url":""},{"id":12090,"title":"まるやま泌尿器科クリニック","architect":"田中義彰","year":2016.0,"address":"愛知県名古屋市港区東海通5-12","latitude":35.113624572753906,"longitude":136.88092041015625,"category":"個人医院","big_category":"医療施設","description":"","image_url":"","tags":"Ver4.80(2023年1月)の追加建築","prefecture":"愛知","contractor":"","structural_designer":"","landscape_designer":"","shinkenchiku_url":""},{"id":12091,"title":"biquette 四間道店","architect":"丹羽浩之","year":2021.0,"address":"愛知県名古屋市西区那古野1-28-14","latitude":35.17375564575195,"longitude":136.89202880859375,"category":"店舗","big_category":"商業施設","description":"","image_url":"","tags":"Ver4.80(2023年1月)の追加建築","prefecture":"愛知","contractor":"","structural_designer":"","landscape_designer":"","shinkenchiku_url":""},{"id":12092,"title":"ミカン下北","architect":"山下泰樹","year":2022.0,"address":"東京都世田谷区北沢2-11","latitude":35.66143035888672,"longitude":139.66798400878906,"category":"モール","big_category":"商業施設","description":"","image_url":"","tags":"Ver4.80(2023年1月)の追加建築","prefecture":"東京","contractor":"","structural_designer":"","landscape_designer":"","shinkenchiku_url":""},{"id":12093,"title":"プラスシフト NOGIZAKA","architect":"山下泰樹","year":2021.0,"address":"東京都港区赤坂8-11-26","latitude":35.66816329956055,"longitude":139.72805786132812,"category":"オフィスビル","big_category":"企業施設","description":"","image_url":"","tags":"Ver4.80(2023年1月)の追加建築","prefecture":"東京","contractor":"","structural_designer":"","landscape_designer":"","shinkenchiku_url":""},{"id":12094,"title":"Monumentum THE TOKYO TOILET 17 広尾東公園公衆トイレ","architect":"後智仁","year":2022.0,"address":"東京都渋谷区広尾4-2-27","latitude":35.653316497802734,"longitude":139.7211151123047,"category":"トイレ","big_category":"公共施設","description":"","image_url":"","tags":"Ver4.80(2023年1月)の追加建築","prefecture":"東京","contractor":"","structural_designer":"","landscape_designer":"","shinkenchiku_url":""},{"id":12095,"title":"オカカフェ","architect":"隈研吾","year":2022.0,"address":"東京都立川市緑町3173","latitude":35.71100616455078,"longitude":139.3979034423828,"category":"カフェ","big_category":"商業施設","description":"","image_url":"","tags":"Ver4.80(2023年1月)の追加建築","prefecture":"東京","contractor":"","structural_designer":"","landscape_designer":"","shinkenchiku_url":""},{"id":12096,"title":"(tefu) lounge 下北沢","architect":"UDS","year":2022.0,"address":"東京都世田谷区北沢2-21-22","latitude":35.66067886352539,"longitude":139.6665802001953,"category":"シェアオフィス/カフェ","big_category":"商業施設,商業施設","description":"","image_url":"","tags":"Ver4.80(2023年1月)の追加建築","prefecture":"東京","contractor":"","structural_designer":"","landscape_designer":"","shinkenchiku_url":""},{"id":12097,"title":"高野山 cafe 雫","architect":"伊庭野大輔+藤井亮介","year":2022.0,"address":"和歌山県伊都郡高野町高野山361","latitude":34.21232604980469,"longitude":135.58340454101562,"category":"カフェ","big_category":"商業施設","description":"","image_url":"","tags":"Ver4.80(2023年1月)の追加建築","prefecture":"和歌山","contractor":"","structural_designer":"","landscape_designer":"","shinkenchiku_url":""},{"id":12098,"title":"ONIBUS COFFEE那須店","architect":"トラフ建築設計事務所","year":2022.0,"address":"栃木県那須郡那須町高久乙24-1","latitude":37.02540969848633,"longitude":140.02975463867188,"category":"カフェ","big_category":"商業施設","description":"","image_url":"","tags":"Ver4.80(2023年1月)の追加建築","prefecture":"栃木","contractor":"","structural_designer":"","landscape_designer":"","shinkenchiku_url":""},{"id":12099,"title":"AEAJ グリーンテラス","architect":"隈研吾","year":2023.0,"address":"東京都渋谷区神宮前6-34-24","latitude":35.66769790649414,"longitude":139.7024383544922,"category":"研究施設/博物館","big_category":"教育,ミュージアム","description":"2023年2月オープン予定。要事前予約","image_url":"","tags":"Ver4.80(2023年1月)の追加建築","prefecture":"東京","contractor":"","structural_designer":"","landscape_designer":"","shinkenchiku_url":""},{"id":12100,"title":"Youtube space Tokyo","architect":"髙田浩一+清水建設","year":2020.0,"address":"東京都渋谷区渋谷3-25-5","latitude":35.65524673461914,"longitude":139.70567321777344,"category":"オフィスビル","big_category":"企業施設","description":"ファサードデザイン:髙田浩一","image_url":"","tags":"Ver4.80(2023年1月)の追加建築","prefecture":"東京","contractor":"清水建設","structural_designer":"","landscape_designer":"","shinkenchiku_url":""}]}