{"page":148,"total_pages":290,"items_per_page":50,"total_items":14467,"items":[{"id":7351,"title":"延岡市駅前複合施設 エンクロス","architect":"乾久美子","year":2018.0,"address":"宮崎県延岡市幸町3-4266-5","latitude":32.58982467651367,"longitude":131.67222595214844,"category":"駅/公民館・交流施設/店舗","description":"","image_url":""},{"id":7352,"title":"池上線五反田高架下","architect":"谷尻誠","year":2018.0,"address":"東京都品川区西五反田1-22-4","latitude":35.62309265136719,"longitude":139.72308349609375,"category":"モール/店舗","description":"","image_url":""},{"id":7353,"title":"梅の木のある小さな宿 市十郎","architect":"山下保博","year":2018.0,"address":"新潟県佐渡市松ケ崎1042甲","latitude":37.920684814453125,"longitude":138.49462890625,"category":"古民家/コテージ","description":"","image_url":""},{"id":7354,"title":"ぐるり竹とたらい湯の宿 カネモ","architect":"山下保博","year":2017.0,"address":"新潟県佐渡市松ケ崎1006","latitude":37.92112350463867,"longitude":138.4979248046875,"category":"古民家/コテージ","description":"","image_url":""},{"id":7355,"title":"武雄市新庁舎","architect":"石橋建築事務所","year":2018.0,"address":"佐賀県武雄市武雄町大字昭和12-10","latitude":33.19482421875,"longitude":130.0215606689453,"category":"庁舎","description":"","image_url":""},{"id":7356,"title":"信濃毎日新聞 松本本社 信毎メディアガーデン","architect":"伊東豊雄","year":2018.0,"address":"長野県松本市中央2-20-2","latitude":36.23286819458008,"longitude":137.9697723388672,"category":"オフィスビル/ホール・劇場/モール","description":"","image_url":""},{"id":7357,"title":"有栖川ウエスト エノテカ広尾本店","architect":"谷口吉生+河野正博","year":1988.0,"address":"東京都港区南麻布5-14-15","latitude":35.651611328125,"longitude":139.72317504882812,"category":"レストラン/店舗/テナントビル","description":"","image_url":""},{"id":7358,"title":"地域交流センターいわま あたご","architect":"河野正博","year":2017.0,"address":"茨城県笠間市下郷4438-7","latitude":36.29411315917969,"longitude":140.27577209472656,"category":"公民館・交流施設","description":"","image_url":""},{"id":7359,"title":"つくば市中央消防署 並木分署","architect":"河野正博","year":2008.0,"address":"茨城県つくば市並木1-2-3","latitude":36.067161560058594,"longitude":140.13316345214844,"category":"警察・消防署","description":"","image_url":""},{"id":7360,"title":"研究学園駅前公園 管理事務所","architect":"河野正博","year":2010.0,"address":"茨城県つくば市葛城根崎2-1-160-2","latitude":36.0816535949707,"longitude":140.0808563232422,"category":"公共施設/トイレ","description":"","image_url":""},{"id":7361,"title":"土浦協同病院附属看護専門学校","architect":"河野正博","year":2016.0,"address":"茨城県土浦市おおつ野2-10","latitude":36.08599090576172,"longitude":140.25733947753906,"category":"専門学校","description":"","image_url":""},{"id":7362,"title":"旧安川邸 洋館棟","architect":"清水建設","year":1927.0,"address":"福岡県北九州市戸畑区一枝1-4-33","latitude":33.88595962524414,"longitude":130.83705139160156,"category":"洋館","description":"保存が決まる。2020年頃内部公開予定","image_url":""},{"id":7363,"title":"京都府立堂本印象美術館","architect":"堂本印象+角田暁治+ウズラボ","year":1966.0,"address":"京都府京都市北区平野上柳町26-3","latitude":35.03514099121094,"longitude":135.72607421875,"category":"美術館","description":"1966年堂本印象自らデザイン。2018年角田暁治、ウズラボ設計により改修。","image_url":""},{"id":7364,"title":"京都工芸繊維大学 学道会館","architect":"角田暁治","year":2005.0,"address":"京都府京都市右京区嵯峨一本木町1","latitude":35.024261474609375,"longitude":135.68385314941406,"category":"大学","description":"","image_url":""},{"id":7365,"title":"あいおいニッセイ同和損保岐阜ビル","architect":"大江宏","year":1980.0,"address":"岐阜県岐阜市徹明通4-4-4","latitude":35.41762161254883,"longitude":136.75457763671875,"category":"オフィスビル/金融機関","description":"","image_url":""},{"id":7366,"title":"ネストアット奄美ビーチヴィラ","architect":"山下保博","year":2018.0,"address":"鹿児島県龍郷町芦徳800","latitude":28.4345703125,"longitude":129.62689208984375,"category":"ホテル","description":"","image_url":""},{"id":7367,"title":"道の駅 センザキッチン","architect":"NSP設計+山根建築設計","year":2017.0,"address":"山口県長門市仙崎4297-1","latitude":34.38792419433594,"longitude":131.20314025878906,"category":"PA・道の駅","description":"","image_url":""},{"id":7368,"title":"長門おもちゃ美術館","architect":"伊藤立平","year":2018.0,"address":"山口県長門市仙崎4297-1","latitude":34.38850021362305,"longitude":131.2024383544922,"category":"美術館","description":"","image_url":""},{"id":7369,"title":"箕面森町動物病院","architect":"山下保博","year":2010.0,"address":"大阪府箕面市森町北1-3-2","latitude":34.893798828125,"longitude":135.45863342285156,"category":"個人医院/住宅","description":"","image_url":""},{"id":7370,"title":"奈良県立民俗博物館","architect":"建築研究所アーキヴィジョン","year":1974.0,"address":"奈良県大和郡山市矢田町545","latitude":34.65306854248047,"longitude":135.75413513183594,"category":"博物館","description":"","image_url":""},{"id":7371,"title":"虎屋赤坂本店","architect":"内藤廣","year":2018.0,"address":"東京都港区赤坂4-9-22","latitude":35.67525863647461,"longitude":139.73257446289062,"category":"低層オフィス/店舗","description":"建て替え。2018年秋に竣工予定。","image_url":""},{"id":7372,"title":"NTT千住ビル 旧千住郵便局電話事務室","architect":"山田守","year":1929.0,"address":"東京都足立区千住中居町15-1","latitude":35.74919509887695,"longitude":139.79861450195312,"category":"オフィスビル","description":"","image_url":""},{"id":7373,"title":"大船渡消防署住田分署","architect":"SALHAUS","year":2018.0,"address":"岩手県気仙郡住田町世田米 住田分署","latitude":39.142940521240234,"longitude":141.57537841796875,"category":"警察・消防署","description":"","image_url":""},{"id":7374,"title":"越後妻有文化ホール･十日町市中央公民館 段十ろう","architect":"梓設計","year":2017.0,"address":"新潟県十日町市本町1-508-2","latitude":37.12799835205078,"longitude":138.75860595703125,"category":"ホール・劇場/公民館・交流施設","description":"","image_url":""},{"id":7375,"title":"益城町交流情報センター","architect":"梓設計","year":2008.0,"address":"熊本県上益城郡益城町木山236","latitude":32.78633117675781,"longitude":130.82289123535156,"category":"図書館/公民館・交流施設","description":"","image_url":""},{"id":7376,"title":"プリミエール酒々井","architect":"梓設計","year":2003.0,"address":"千葉県印旛郡酒々井町中央台3-4-1","latitude":35.727508544921875,"longitude":140.27017211914062,"category":"ホール・劇場/図書館","description":"","image_url":""},{"id":7377,"title":"草津市立図書館","architect":"梓設計","year":1983.0,"address":"滋賀県草津市草津町1547","latitude":35.01948547363281,"longitude":135.95095825195312,"category":"図書館","description":"","image_url":""},{"id":7378,"title":"御船町恐竜博物館","architect":"梓設計","year":2014.0,"address":"熊本県上益城郡御船町大字御船995-6","latitude":32.71383285522461,"longitude":130.80178833007812,"category":"博物館","description":"","image_url":""},{"id":7379,"title":"笠間市立図書館","architect":"梓設計","year":2004.0,"address":"茨城県笠間市石井2023-1","latitude":36.386383056640625,"longitude":140.2473907470703,"category":"図書館","description":"","image_url":""},{"id":7380,"title":"根津記念館","architect":"梓設計","year":2007.0,"address":"山梨県山梨市正徳寺296","latitude":35.678802490234375,"longitude":138.66830444335938,"category":"博物館","description":"","image_url":""},{"id":7381,"title":"けやきプラザ","architect":"梓設計","year":2006.0,"address":"千葉県我孫子市本町3-1-2","latitude":35.87247085571289,"longitude":140.01268005371094,"category":"福祉センター/ホール・劇場","description":"","image_url":""},{"id":7382,"title":"都の杜うぐいすホール","architect":"梓設計","year":1996.0,"address":"山梨県都留市上谷1888-1","latitude":35.53375244140625,"longitude":138.8942108154297,"category":"ホール・劇場","description":"","image_url":""},{"id":7383,"title":"堺市健康福祉プラザ","architect":"梓設計","year":2012.0,"address":"大阪府堺市堺区旭ヶ丘中町4-3-1","latitude":34.557403564453125,"longitude":135.47671508789062,"category":"福祉センター/プール/体育館","description":"","image_url":""},{"id":7384,"title":"秋葉山公園県民水泳場 あきばさんプール","architect":"梓設計","year":2013.0,"address":"和歌山県和歌山市秋葉町4-11","latitude":34.19816970825195,"longitude":135.17164611816406,"category":"プール","description":"","image_url":""},{"id":7385,"title":"21世紀の森公園 災害時拠点施設 いわきグリーンベース","architect":"梓設計","year":2017.0,"address":"福島県いわき市常磐湯本町上浅貝 いわきグリーンベース","latitude":37.0196647644043,"longitude":140.86190795898438,"category":"体育館","description":"","image_url":""},{"id":7386,"title":"カーサ・デラ・ヴィータ","architect":"梓設計","year":2003.0,"address":"佐賀県鳥栖市高田町203-1","latitude":33.34808349609375,"longitude":130.52664184570312,"category":"スポーツ施設/温泉/プール","description":"","image_url":""},{"id":7387,"title":"岩手教育会館 新会館","architect":"久慈設計","year":2018.0,"address":"岩手県盛岡市大通1-1-16","latitude":39.701629638671875,"longitude":141.14981079101562,"category":"組合施設","description":"菊竹清訓設計の旧会館は取り壊し、建て替え。","image_url":""},{"id":7388,"title":"千曲市役所更埴庁舎 北庁舎","architect":"滝沢健児","year":1966.0,"address":"長野県千曲市杭瀬下84","latitude":36.5341796875,"longitude":138.12010192871094,"category":"庁舎","description":"","image_url":""},{"id":7389,"title":"オン・ザ・ルーフ","architect":"西村浩","year":1973.0,"address":"佐賀県佐賀市呉服元町2-18","latitude":33.25456237792969,"longitude":130.3037109375,"category":"テナントビル/オフィスビル","description":"2017年にリノベーション","image_url":""},{"id":7390,"title":"神奈川大学 横浜キャンパス 図書館","architect":"アール・アイ・エー","year":1980.0,"address":"神奈川県横浜市神奈川区六角橋3-27-1","latitude":35.48445510864258,"longitude":139.61936950683594,"category":"大学/図書館","description":"","image_url":""},{"id":7391,"title":"神奈川大学 横浜キャンパス 6号館","architect":"山口文象","year":1958.0,"address":"神奈川県横浜市神奈川区六角橋3-27-1","latitude":35.48531723022461,"longitude":139.6196746826172,"category":"大学/図書館","description":"","image_url":""},{"id":7392,"title":"飛騨の匠文化館","architect":"吉田桂二","year":1991.0,"address":"岐阜県飛騨市古川町壱之町10-1","latitude":36.236080169677734,"longitude":137.1856231689453,"category":"博物館","description":"","image_url":""},{"id":7393,"title":"起し太鼓の里 飛騨古川まつり会館","architect":"清家清","year":1993.0,"address":"岐阜県飛騨市古川町壱之町14-5","latitude":36.23700714111328,"longitude":137.18582153320312,"category":"博物館","description":"","image_url":""},{"id":7394,"title":"休暇村日光湯元","architect":"清家清","year":1994.0,"address":"栃木県日光市湯元温泉寺 休暇村日光湯元","latitude":36.803260803222656,"longitude":139.42103576660156,"category":"ホテル","description":"","image_url":""},{"id":7395,"title":"静岡流通センター 流通会館 旧静清総合卸センター","architect":"清家清","year":1975.0,"address":"静岡県静岡市葵区流通センター2","latitude":35.013919830322266,"longitude":138.40682983398438,"category":"組合施設/低層オフィス","description":"","image_url":""},{"id":7396,"title":"葛飾区清掃事務所","architect":"佐藤武夫","year":1962.0,"address":"東京都葛飾区立石5-13-1","latitude":35.743492126464844,"longitude":139.84725952148438,"category":"公共施設","description":"","image_url":""},{"id":7397,"title":"半蔵門ミュージアム","architect":"栗生明","year":2018.0,"address":"東京都千代田区一番町25","latitude":35.68586730957031,"longitude":139.74197387695312,"category":"美術館","description":"","image_url":""},{"id":7398,"title":"京都工芸繊維大学 美術工芸資料館","architect":"船越暉由","year":1980.0,"address":"京都府京都市左京区松ケ崎橋上町1","latitude":35.04945373535156,"longitude":135.7811737060547,"category":"美術館/大学","description":"","image_url":""},{"id":7399,"title":"京都工芸繊維大学 センターホール","architect":"船越暉由","year":1985.0,"address":"京都府京都市左京区松ケ崎橋上町1","latitude":35.04936218261719,"longitude":135.7818145751953,"category":"大学","description":"","image_url":""},{"id":7400,"title":"京都工芸繊維大学 大学会館","architect":"船越暉由","year":1987.0,"address":"京都府京都市左京区松ケ崎橋上町1","latitude":35.04857635498047,"longitude":135.7798309326172,"category":"大学","description":"","image_url":""}]}