{"page":154,"total_pages":290,"items_per_page":50,"total_items":14467,"items":[{"id":7651,"title":"清瀬市郷土博物館","architect":"建築研究所アーキヴィジョン","year":1986.0,"address":"東京都清瀬市上清戸2-6-41","latitude":35.779720306396484,"longitude":139.52093505859375,"category":"博物館","big_category":"ミュージアム","description":"","image_url":"","tags":"Ver2.50(2018年5月)の追加建築","prefecture":"東京","contractor":"","structural_designer":"","landscape_designer":"","shinkenchiku_url":""},{"id":7652,"title":"江戸東京たてもの園ビジターセンター","architect":"建築研究所アーキヴィジョン","year":1993.0,"address":"東京都小金井市桜町3-7-1","latitude":35.715850830078125,"longitude":139.51266479492188,"category":"博物館","big_category":"ミュージアム","description":"","image_url":"","tags":"Ver2.50(2018年5月)の追加建築","prefecture":"東京","contractor":"","structural_designer":"","landscape_designer":"","shinkenchiku_url":""},{"id":7653,"title":"森の小径・鹿沢インフォメーションセンター","architect":"平倉直子","year":2003.0,"address":"群馬県吾妻郡嬬恋村大字田代2134","latitude":36.45823287963867,"longitude":138.43565368652344,"category":"公園/観光施設","big_category":"レジャー施設,レジャー施設","description":"","image_url":"","tags":"Ver2.50(2018年5月)の追加建築,2006年日本建築学会 作品選奨","prefecture":"群馬","contractor":"","structural_designer":"","landscape_designer":"","shinkenchiku_url":""},{"id":7654,"title":"バラの交番 荒川遊園前交番","architect":"平倉直子","year":1993.0,"address":"東京都荒川区西尾久8-1-1","latitude":35.75086975097656,"longitude":139.75765991210938,"category":"警察・消防署","big_category":"公共施設","description":"","image_url":"","tags":"Ver2.50(2018年5月)の追加建築","prefecture":"東京","contractor":"","structural_designer":"","landscape_designer":"","shinkenchiku_url":""},{"id":7655,"title":"あかりの交番 三田交番","architect":"平倉直子","year":1994.0,"address":"東京都目黒区三田1-4-5","latitude":35.64097595214844,"longitude":139.713623046875,"category":"警察・消防署","big_category":"公共施設","description":"","image_url":"","tags":"Ver2.50(2018年5月)の追加建築","prefecture":"東京","contractor":"","structural_designer":"","landscape_designer":"","shinkenchiku_url":""},{"id":7656,"title":"あかりの交番 恵比寿四丁目交番","architect":"平倉直子","year":1996.0,"address":"東京都渋谷区恵比寿4-21-11","latitude":35.64392852783203,"longitude":139.7151641845703,"category":"警察・消防署","big_category":"公共施設","description":"","image_url":"","tags":"Ver2.50(2018年5月)の追加建築","prefecture":"東京","contractor":"","structural_designer":"","landscape_designer":"","shinkenchiku_url":""},{"id":7657,"title":"豊田市高岡公園体育館","architect":"宮脇檀","year":1991.0,"address":"愛知県豊田市中田町川向8","latitude":35.030662536621094,"longitude":137.06161499023438,"category":"体育館","big_category":"レジャー施設","description":"","image_url":"","tags":"Ver2.50(2018年5月)の追加建築","prefecture":"愛知","contractor":"","structural_designer":"","landscape_designer":"","shinkenchiku_url":""},{"id":7658,"title":"HYPERMIX 超混在都市単位","architect":"北山恒","year":2018.0,"address":"東京都江東区門前仲町1-13-12","latitude":35.673362731933594,"longitude":139.79519653320312,"category":"オフィスビル","big_category":"企業施設","description":"","image_url":"","tags":"Ver2.50(2018年5月)の追加建築,新建築2018年8月号","prefecture":"東京","contractor":"","structural_designer":"","landscape_designer":"","shinkenchiku_url":""},{"id":7659,"title":"熱海駅ビル ラスカ熱海","architect":"クライン・ダイサム・アーキテクツ+ジェイアール東日本建築設計事務所","year":2016.0,"address":"静岡県熱海市田原本町11-1","latitude":35.10328674316406,"longitude":139.07778930664062,"category":"駅/モール","big_category":"インフラ,商業施設","description":"","image_url":"","tags":"Ver2.50(2018年5月)の追加建築","prefecture":"静岡","contractor":"","structural_designer":"","landscape_designer":"","shinkenchiku_url":""},{"id":7660,"title":"中目黒 蔦屋書店","architect":"クライン・ダイサム・アーキテクツ","year":2016.0,"address":"東京都目黒区上目黒1-22-10","latitude":35.64451217651367,"longitude":139.69935607910156,"category":"店舗","big_category":"商業施設","description":"","image_url":"","tags":"Ver2.50(2018年5月)の追加建築","prefecture":"東京","contractor":"","structural_designer":"","landscape_designer":"","shinkenchiku_url":""},{"id":7661,"title":"ピッキオビジターセンター","architect":"クライン・ダイサム・アーキテクツ","year":2016.0,"address":"長野県北佐久郡軽井沢町長倉2157-197","latitude":36.36363220214844,"longitude":138.59127807617188,"category":"観光施設/クラブハウス","big_category":"レジャー施設,レジャー施設","description":"","image_url":"","tags":"Ver2.50(2018年5月)の追加建築","prefecture":"長野","contractor":"","structural_designer":"","landscape_designer":"","shinkenchiku_url":""},{"id":7662,"title":"開運堂本店","architect":"竹中工務店","year":1998.0,"address":"長野県松本市中央2-2-15","latitude":36.23255157470703,"longitude":137.9690704345703,"category":"店舗","big_category":"商業施設","description":"","image_url":"","tags":"Ver2.60(2018年8月)の追加建築","prefecture":"長野","contractor":"","structural_designer":"","landscape_designer":"","shinkenchiku_url":""},{"id":7663,"title":"城西小学校屋内運動場・幼稚園・児童クラブ","architect":"原広司","year":2018.0,"address":"沖縄県那覇市首里真和志町1-5","latitude":26.218608856201172,"longitude":127.71642303466797,"category":"体育館/幼稚園","big_category":"レジャー施設,教育","description":"","image_url":"","tags":"新建築2018年6月号,Ver2.60(2018年8月)の追加建築","prefecture":"沖縄","contractor":"善太郎組・仲村組・沖阪産業共同企業体","structural_designer":"","landscape_designer":"","shinkenchiku_url":""},{"id":7664,"title":"Fuji赤とんぼ保育園","architect":"手塚建築研究所","year":2018.0,"address":"東京都立川市泉町500-4","latitude":35.713539123535156,"longitude":139.4159393310547,"category":"幼稚園","big_category":"教育","description":"","image_url":"","tags":"新建築2018年6月号,Ver2.60(2018年8月)の追加建築","prefecture":"東京","contractor":"中村・内野建設共同企業体","structural_designer":"","landscape_designer":"","shinkenchiku_url":""},{"id":7665,"title":"幼保連携型認定こども園 大阪国際大和田幼稚園","architect":"安井建築設計","year":2017.0,"address":"大阪府守口市藤田町6-21-57","latitude":34.74700927734375,"longitude":135.6045379638672,"category":"幼稚園","big_category":"教育","description":"","image_url":"","tags":"新建築2018年6月号,Ver2.60(2018年8月)の追加建築","prefecture":"大阪","contractor":"奥村組","structural_designer":"","landscape_designer":"","shinkenchiku_url":""},{"id":7666,"title":"川和保育園","architect":"井出敦史+加藤克彦","year":2018.0,"address":"神奈川県横浜市都筑区川和町890-2 ","latitude":35.522518157958984,"longitude":139.55389404296875,"category":"幼稚園","big_category":"教育","description":"","image_url":"","tags":"新建築2018年6月号,Ver2.60(2018年8月)の追加建築","prefecture":"神奈川","contractor":"キクシマ","structural_designer":"","landscape_designer":"","shinkenchiku_url":""},{"id":7667,"title":"認定こども園 なこそ幼稚園","architect":"川島真由美","year":2017.0,"address":"福島県いわき市勿来町窪田伊賀屋敷58","latitude":36.89497375488281,"longitude":140.76063537597656,"category":"幼稚園","big_category":"教育","description":"","image_url":"","tags":"新建築2018年6月号,Ver2.60(2018年8月)の追加建築","prefecture":"福島","contractor":"常磐開発","structural_designer":"","landscape_designer":"","shinkenchiku_url":""},{"id":7668,"title":"認定こども園 めごたま","architect":"象設計集団","year":2017.0,"address":"山形県最上郡金山町大字金山字荒屋35-1","latitude":38.878578186035156,"longitude":140.32627868652344,"category":"幼稚園","big_category":"教育","description":"","image_url":"","tags":"新建築2018年6月号,Ver2.60(2018年8月)の追加建築","prefecture":"山形","contractor":"星川建設","structural_designer":"","landscape_designer":"","shinkenchiku_url":""},{"id":7669,"title":"西粟倉保育園","architect":"三浦丈典","year":2018.0,"address":"岡山県英田郡西粟倉村影石4","latitude":35.17179870605469,"longitude":134.33641052246094,"category":"幼稚園","big_category":"教育","description":"","image_url":"","tags":"新建築2018年6月号,Ver2.60(2018年8月)の追加建築","prefecture":"岡山","contractor":"重藤組","structural_designer":"","landscape_designer":"","shinkenchiku_url":""},{"id":7670,"title":"佐川町立黒岩中央保育所","architect":"内海彩","year":2017.0,"address":"高知県高岡郡佐川町黒原2242-1","latitude":33.54645919799805,"longitude":133.28187561035156,"category":"幼稚園","big_category":"教育","description":"","image_url":"","tags":"新建築2018年6月号,Ver2.60(2018年8月)の追加建築","prefecture":"高知","contractor":"響建設","structural_designer":"","landscape_designer":"","shinkenchiku_url":""},{"id":7671,"title":"わかたけ保育園","architect":"篠節子","year":2016.0,"address":"熊本県水俣市南福寺9-21","latitude":32.20291519165039,"longitude":130.40806579589844,"category":"幼稚園","big_category":"教育","description":"","image_url":"","tags":"新建築2018年6月号,Ver2.60(2018年8月)の追加建築","prefecture":"熊本","contractor":"坂田建設","structural_designer":"","landscape_designer":"","shinkenchiku_url":""},{"id":7672,"title":"認定こども園 きんのほし","architect":"石原健也","year":2018.0,"address":"沖縄県国頭郡金武町金武4223","latitude":26.450061798095703,"longitude":127.9135971069336,"category":"幼稚園","big_category":"教育","description":"","image_url":"","tags":"新建築2018年6月号,Ver2.60(2018年8月)の追加建築","prefecture":"沖縄","contractor":"丸政工務店","structural_designer":"","landscape_designer":"","shinkenchiku_url":""},{"id":7673,"title":"墨田みどり保育園分園","architect":"石原健也","year":2018.0,"address":"東京都墨田区亀沢3-6-1","latitude":35.6964225769043,"longitude":139.80397033691406,"category":"幼稚園","big_category":"教育","description":"","image_url":"","tags":"新建築2018年6月号,Ver2.60(2018年8月)の追加建築","prefecture":"東京","contractor":"栄港建設","structural_designer":"","landscape_designer":"","shinkenchiku_url":""},{"id":7674,"title":"駒岡げんきっず保育園","architect":"黒川智之","year":2018.0,"address":"神奈川県横浜市鶴見区駒岡1-1-7","latitude":35.524017333984375,"longitude":139.65560913085938,"category":"幼稚園","big_category":"教育","description":"","image_url":"","tags":"新建築2018年6月号,Ver2.60(2018年8月)の追加建築","prefecture":"神奈川","contractor":"新都市建設","structural_designer":"","landscape_designer":"","shinkenchiku_url":""},{"id":7675,"title":"明福寺ルンビニー学園幼稚園","architect":"戸室太一","year":2014.0,"address":"東京都江戸川区江戸川3-8","latitude":35.68489456176758,"longitude":139.89544677734375,"category":"幼稚園","big_category":"教育","description":"","image_url":"","tags":"新建築2018年6月号,Ver2.60(2018年8月)の追加建築","prefecture":"東京","contractor":"","structural_designer":"","landscape_designer":"","shinkenchiku_url":""},{"id":7676,"title":"ルンビニー保育園","architect":"戸室太一","year":2014.0,"address":"東京都江戸川区江戸川3-8","latitude":35.684959411621094,"longitude":139.89517211914062,"category":"幼稚園","big_category":"教育","description":"","image_url":"","tags":"新建築2018年6月号,Ver2.60(2018年8月)の追加建築","prefecture":"東京","contractor":"","structural_designer":"","landscape_designer":"","shinkenchiku_url":""},{"id":7677,"title":"明福寺 書院・庫裏","architect":"戸室太一","year":2018.0,"address":"東京都江戸川区江戸川3-8","latitude":35.685367584228516,"longitude":139.89517211914062,"category":"寺院","big_category":"宗教","description":"","image_url":"","tags":"新建築2018年6月号,Ver2.60(2018年8月)の追加建築","prefecture":"東京","contractor":"","structural_designer":"","landscape_designer":"","shinkenchiku_url":""},{"id":7678,"title":"認定こども園 りのひら","architect":"レムニスカート+傳工房","year":2017.0,"address":"福島県須賀川市和田道146","latitude":37.283748626708984,"longitude":140.3907928466797,"category":"幼稚園","big_category":"教育","description":"","image_url":"","tags":"新建築2018年6月号,Ver2.60(2018年8月)の追加建築","prefecture":"福島","contractor":"","structural_designer":"","landscape_designer":"","shinkenchiku_url":""},{"id":7679,"title":"松前中学校","architect":"象設計集団","year":2015.0,"address":"北海道松前郡松前町博多265","latitude":41.429168701171875,"longitude":140.0985565185547,"category":"学校","big_category":"教育","description":"","image_url":"","tags":"Ver2.60(2018年8月)の追加建築","prefecture":"北海道","contractor":"","structural_designer":"","landscape_designer":"","shinkenchiku_url":""},{"id":7680,"title":"美空野保育園","architect":"象設計集団","year":2013.0,"address":"茨城県鹿嶋市平井1178-20","latitude":35.973365783691406,"longitude":140.65025329589844,"category":"幼稚園","big_category":"教育","description":"","image_url":"","tags":"Ver2.60(2018年8月)の追加建築","prefecture":"茨城","contractor":"","structural_designer":"","landscape_designer":"","shinkenchiku_url":""},{"id":7681,"title":"音更町火葬場","architect":"象設計集団","year":2012.0,"address":"北海道河東郡音更町音更西4線52","latitude":43.0172233581543,"longitude":143.1660614013672,"category":"斎場","big_category":"公共施設","description":"","image_url":"","tags":"Ver2.60(2018年8月)の追加建築","prefecture":"北海道","contractor":"","structural_designer":"","landscape_designer":"","shinkenchiku_url":""},{"id":7682,"title":"小梅保育園","architect":"象設計集団","year":2015.0,"address":"東京都墨田区向島3-42-10","latitude":35.712318420410156,"longitude":139.81007385253906,"category":"幼稚園","big_category":"教育","description":"","image_url":"","tags":"Ver2.60(2018年8月)の追加建築","prefecture":"東京","contractor":"","structural_designer":"","landscape_designer":"","shinkenchiku_url":""},{"id":7683,"title":"喜多見バオバブ保育園","architect":"象設計集団","year":2012.0,"address":"東京都世田谷区喜多見1-4-7","latitude":35.62275695800781,"longitude":139.59808349609375,"category":"幼稚園","big_category":"教育","description":"","image_url":"","tags":"Ver2.60(2018年8月)の追加建築","prefecture":"東京","contractor":"","structural_designer":"","landscape_designer":"","shinkenchiku_url":""},{"id":7684,"title":"ひらお保育園","architect":"象設計集団","year":2011.0,"address":"東京都稲城市平尾3-1-23","latitude":35.61025619506836,"longitude":139.48739624023438,"category":"幼稚園","big_category":"教育","description":"","image_url":"","tags":"Ver2.60(2018年8月)の追加建築","prefecture":"東京","contractor":"","structural_designer":"","landscape_designer":"","shinkenchiku_url":""},{"id":7685,"title":"鶴巻工芸","architect":"象設計集団","year":2011.0,"address":"神奈川県秦野市鶴巻1840-2","latitude":35.37801742553711,"longitude":139.2726593017578,"category":"養護施設","big_category":"医療施設","description":"","image_url":"","tags":"Ver2.60(2018年8月)の追加建築","prefecture":"神奈川","contractor":"","structural_designer":"","landscape_designer":"","shinkenchiku_url":""},{"id":7686,"title":"グループホームひびき野","architect":"象設計集団","year":2010.0,"address":"北海道河東郡音更町ひびき野西町1-1-1","latitude":42.94281005859375,"longitude":143.2158966064453,"category":"養護施設","big_category":"医療施設","description":"","image_url":"","tags":"Ver2.60(2018年8月)の追加建築","prefecture":"北海道","contractor":"","structural_designer":"","landscape_designer":"","shinkenchiku_url":""},{"id":7687,"title":"あんずの種","architect":"象設計集団","year":2008.0,"address":"北海道釧路町愛国191-5717","latitude":43.02702713012695,"longitude":144.40025329589844,"category":"個人医院","big_category":"医療施設","description":"","image_url":"","tags":"Ver2.60(2018年8月)の追加建築","prefecture":"北海道","contractor":"","structural_designer":"","landscape_designer":"","shinkenchiku_url":""},{"id":7688,"title":"豊頃グループホーム・光の家族","architect":"象設計集団","year":2008.0,"address":"北海道中川郡豊頃町中央新町50","latitude":42.81401062011719,"longitude":143.52511596679688,"category":"養護施設","big_category":"医療施設","description":"","image_url":"","tags":"Ver2.60(2018年8月)の追加建築","prefecture":"北海道","contractor":"","structural_designer":"","landscape_designer":"","shinkenchiku_url":""},{"id":7689,"title":"宮ノ丘幼稚園","architect":"象設計集団","year":2008.0,"address":"北海道札幌市西区宮の沢490-11","latitude":43.086238861083984,"longitude":141.25706481933594,"category":"幼稚園","big_category":"教育","description":"","image_url":"","tags":"Ver2.60(2018年8月)の追加建築","prefecture":"北海道","contractor":"","structural_designer":"","landscape_designer":"","shinkenchiku_url":""},{"id":7690,"title":"天神保育園","architect":"象設計集団","year":2007.0,"address":"長崎県佐世保市天神2-272-49","latitude":33.148956298828125,"longitude":129.7431182861328,"category":"幼稚園","big_category":"教育","description":"","image_url":"","tags":"Ver2.60(2018年8月)の追加建築","prefecture":"長崎","contractor":"","structural_designer":"","landscape_designer":"","shinkenchiku_url":""},{"id":7691,"title":"ケアハウス幸房の家","architect":"象設計集団","year":2005.0,"address":"東京都西多摩郡奥多摩町海澤570","latitude":35.7996711730957,"longitude":139.11595153808594,"category":"養護施設","big_category":"医療施設","description":"","image_url":"","tags":"Ver2.60(2018年8月)の追加建築","prefecture":"東京","contractor":"","structural_designer":"","landscape_designer":"","shinkenchiku_url":""},{"id":7692,"title":"音更町立下士幌小学校","architect":"象設計集団","year":2004.0,"address":"北海道河東郡音更町下士幌北2線東51","latitude":42.9474983215332,"longitude":143.26007080078125,"category":"学校","big_category":"教育","description":"","image_url":"","tags":"Ver2.60(2018年8月)の追加建築","prefecture":"北海道","contractor":"","structural_designer":"","landscape_designer":"","shinkenchiku_url":""},{"id":7693,"title":"ひかり保育所","architect":"象設計集団","year":2001.0,"address":"北海道帯広市西16条南1-38","latitude":42.925968170166016,"longitude":143.17398071289062,"category":"幼稚園","big_category":"教育","description":"","image_url":"","tags":"Ver2.60(2018年8月)の追加建築","prefecture":"北海道","contractor":"","structural_designer":"","landscape_designer":"","shinkenchiku_url":""},{"id":7694,"title":"犖羅館新得診療所","architect":"象設計集団","year":2000.0,"address":"北海道上川郡新得町5条南2-18-8","latitude":43.082664489746094,"longitude":142.84005737304688,"category":"個人医院","big_category":"医療施設","description":"","image_url":"","tags":"Ver2.60(2018年8月)の追加建築","prefecture":"北海道","contractor":"","structural_designer":"","landscape_designer":"","shinkenchiku_url":""},{"id":7695,"title":"西2条腎泌尿器科病院","architect":"象設計集団","year":1999.0,"address":"北海道帯広市西2条南2-10","latitude":42.93021774291992,"longitude":143.20126342773438,"category":"病院","big_category":"医療施設","description":"","image_url":"","tags":"Ver2.60(2018年8月)の追加建築","prefecture":"北海道","contractor":"","structural_designer":"","landscape_designer":"","shinkenchiku_url":""},{"id":7696,"title":"清遊の家 うらら保育園","architect":"象設計集団","year":1998.0,"address":"東京都葛飾区西新小岩3-37-27","latitude":35.72269821166992,"longitude":139.8467559814453,"category":"幼稚園","big_category":"教育","description":"","image_url":"","tags":"Ver2.60(2018年8月)の追加建築","prefecture":"東京","contractor":"","structural_designer":"","landscape_designer":"","shinkenchiku_url":""},{"id":7697,"title":"白州・尾白の森名水公園 べるが 森の資料室","architect":"アトリエ鯨","year":1996.0,"address":"山梨県北杜市白州町白須8056","latitude":35.79972457885742,"longitude":4763589632.0,"category":"公園","big_category":"レジャー施設","description":"","image_url":"","tags":"Ver2.60(2018年8月)の追加建築,新建築1997年8月号","prefecture":"山梨","contractor":"","structural_designer":"","landscape_designer":"","shinkenchiku_url":""},{"id":7698,"title":"大聖寺ふれあい公園 古九谷の杜","architect":"象設計集団","year":1993.0,"address":"石川県加賀市大聖寺地方町壱字14-2","latitude":36.302249908447266,"longitude":136.31005859375,"category":"公園","big_category":"レジャー施設","description":"","image_url":"","tags":"Ver2.60(2018年8月)の追加建築","prefecture":"石川","contractor":"","structural_designer":"","landscape_designer":"","shinkenchiku_url":""},{"id":7699,"title":"船橋市光風みどり園","architect":"象設計集団","year":1985.0,"address":"千葉県船橋市大神保町1359-7","latitude":35.77577590942383,"longitude":140.06967163085938,"category":"福祉センター","big_category":"医療施設","description":"","image_url":"","tags":"Ver2.60(2018年8月)の追加建築","prefecture":"千葉","contractor":"","structural_designer":"","landscape_designer":"","shinkenchiku_url":""},{"id":7700,"title":"ワコール新京都ビル","architect":"小西敏治","year":2017.0,"address":"京都府京都市南区西九条北ノ内町6","latitude":34.983829498291016,"longitude":135.7542266845703,"category":"オフィスビル","big_category":"企業施設","description":"","image_url":"","tags":"Ver2.60(2018年8月)の追加建築,新建築2018年7月号","prefecture":"京都","contractor":"飛鳥建設","structural_designer":"","landscape_designer":"","shinkenchiku_url":""}]}