{"page":10,"total_pages":290,"items_per_page":50,"total_items":14467,"items":[{"id":451,"title":"フォレストイン益子","architect":"内藤廣","year":2002.0,"address":"栃木県芳賀郡益子町益子4231","latitude":36.46698760986328,"longitude":140.1182098388672,"category":"ホテル","description":"","image_url":"https://farm8.staticflickr.com/7330/9260218346_17fc6512ef_h.jpg"},{"id":452,"title":"下野市立石橋中学校 ","architect":"黒川紀章","year":1994.0,"address":"栃木県下野市石橋1130","latitude":36.438392639160156,"longitude":139.84552001953125,"category":"学校","description":"2017年より大規模改修","image_url":""},{"id":453,"title":"岩舟町文化会館 コスモスホール","architect":"神谷五男","year":1993.0,"address":"栃木県下都賀郡岩舟町静2303","latitude":36.31632995605469,"longitude":139.66529846191406,"category":"ホール・劇場","description":"","image_url":""},{"id":454,"title":"システムソリューションセンターとちぎ","architect":"アーキテクトファイブ","year":1995.0,"address":"栃木県塩谷郡高根沢町宝積寺2034-14","latitude":36.61360168457031,"longitude":139.9923858642578,"category":"低層オフィス/企業施設","description":"","image_url":""},{"id":455,"title":"ちょっ蔵広場","architect":"隈研吾","year":2005.0,"address":"栃木県高根沢町宝積寺2416","latitude":36.63042068481445,"longitude":139.98037719726562,"category":"広場/公民館・交流施設","description":"","image_url":"https://farm8.staticflickr.com/7324/12538476534_a8d7fc6056_h.jpg"},{"id":456,"title":"宝積寺駅前グリーンシェルター","architect":"隈研吾","year":2005.0,"address":"栃木県塩谷郡高根沢町宝積寺","latitude":36.6324577331543,"longitude":139.97964477539062,"category":"オブジェ","description":"","image_url":"https://lh3.googleusercontent.com/-xfT5FjtTqCQ/UIPKnMaQWNI/AAAAAAAAg5w/HR8ONdaypCA/s1024/lr-7299525.jpg"},{"id":457,"title":"宝積寺駅","architect":"隈研吾","year":2008.0,"address":"栃木県塩谷郡高根沢町宝積寺","latitude":36.63083267211914,"longitude":139.97955322265625,"category":"駅","description":"","image_url":"https://farm4.staticflickr.com/3667/8910021881_9b42c8b9a7_h.jpg"},{"id":458,"title":"佐野市立吉澤記念美術館・相生公園 旧葛生町立吉澤記念美術館","architect":"芦原太郎","year":2002.0,"address":"栃木県佐野市葛生東1-14-30","latitude":36.40234375,"longitude":139.61187744140625,"category":"美術館","description":"","image_url":""},{"id":459,"title":"葛生傳承館","architect":"芦原太郎","year":2004.0,"address":"栃木県佐野市葛生東1-11-26","latitude":36.40122985839844,"longitude":139.6120147705078,"category":"博物館","description":"","image_url":""},{"id":460,"title":"佐野市文化会館","architect":"神谷五男","year":1979.0,"address":"栃木県佐野市浅沼町508-5","latitude":36.30793762207031,"longitude":139.59393310546875,"category":"ホール・劇場","description":"","image_url":""},{"id":461,"title":"録ミュージアム","architect":"中村拓志","year":2010.0,"address":"栃木県小山市東城南2-23-5","latitude":36.29597473144531,"longitude":139.81381225585938,"category":"ギャラリー/カフェ","description":"月曜日休館。公式サイトには記述がないが、現在は休館中の可能性。要事前問い合わせ。","image_url":""},{"id":462,"title":"真岡市久保講堂 旧真岡小学校久保講堂","architect":"遠藤新","year":1938.0,"address":"栃木県真岡市荒町1201","latitude":36.43918228149414,"longitude":140.01651000976562,"category":"公民館・交流施設","description":"","image_url":""},{"id":463,"title":"真岡高等学校記念館","architect":"不明","year":1904.0,"address":"栃木県真岡市白布ヶ丘24-1","latitude":36.44016647338867,"longitude":139.9993133544922,"category":"洋館","description":"学校に問合せ","image_url":""},{"id":464,"title":"栗田美術館","architect":"鹿島建設","year":1995.0,"address":"栃木県足利市駒場町1542","latitude":36.318336486816406,"longitude":139.52171325683594,"category":"美術館","description":"","image_url":""},{"id":465,"title":"那須野が原ハーモニーホール","architect":"早草睦惠+仲條順一","year":1994.0,"address":"栃木県大田原市本町1-2703-6","latitude":36.87238693237305,"longitude":140.00741577148438,"category":"ホール・劇場","description":"","image_url":""},{"id":466,"title":"栃木県なかがわ水遊園 おもしろ魚館","architect":"古市徹雄","year":2001.0,"address":"栃木県大田原市佐良土2686","latitude":36.78927230834961,"longitude":140.1286163330078,"category":"水族館","description":"","image_url":""},{"id":467,"title":"星野遺跡地層たんけん館","architect":"建築研究所アーキヴィジョン","year":1999.0,"address":"栃木県栃木市星野町504","latitude":36.47748565673828,"longitude":139.6298065185547,"category":"博物館","description":"","image_url":""},{"id":468,"title":"道の駅 みかも","architect":"杉本洋文","year":2006.0,"address":"栃木県栃木市藤岡町大田和678","latitude":36.296714782714844,"longitude":139.625244140625,"category":"PA・道の駅","description":"","image_url":""},{"id":469,"title":"横山郷土館","architect":"不明","year":1910.0,"address":"栃木県栃木市入舟町2-16","latitude":36.380943298339844,"longitude":139.7321319580078,"category":"洋館","description":"","image_url":""},{"id":470,"title":"那珂川町 馬頭広重美術館","architect":"隈研吾","year":2000.0,"address":"栃木県那須郡那珂川町馬頭116-9","latitude":36.739112854003906,"longitude":140.17095947265625,"category":"美術館","description":"1/3～営業　月曜日休館","image_url":"https://farm4.staticflickr.com/3730/8909733391_b995cbeef5_h.jpg"},{"id":471,"title":"旧青木家那須別邸","architect":"松ヶ崎萬長","year":1888.0,"address":"栃木県那須塩原市青木27","latitude":37.001094818115234,"longitude":139.98501586914062,"category":"洋館","description":"","image_url":""},{"id":472,"title":"塩原もの語り館","architect":"杉本洋文","year":2003.0,"address":"栃木県那須塩原市塩原747","latitude":36.9716796875,"longitude":139.81967163085938,"category":"博物館","description":"","image_url":""},{"id":473,"title":"塩原温泉湯っ歩の里","architect":"杉本洋文","year":2006.0,"address":"栃木県那須塩原市塩原602-1","latitude":36.9683837890625,"longitude":139.82228088378906,"category":"温泉","description":"","image_url":"https://lh3.googleusercontent.com/-q8--CaDA3pU/UCih95y3prI/AAAAAAAARXI/OFB4eZqQLCo/s1024/lr-7034820.jpg"},{"id":474,"title":"ゆいま～る那須","architect":"プラスニューオフィス","year":2013.0,"address":"栃木県那須郡那須町大字豊原乙627-115","latitude":37.10199737548828,"longitude":140.13150024414062,"category":"集合住宅","description":"","image_url":""},{"id":475,"title":"ニキ美術館","architect":"竹中工務店","year":1994.0,"address":"栃木県那須町湯本203","latitude":37.08302688598633,"longitude":140.00466918945312,"category":"美術館","description":"閉業?","image_url":""},{"id":476,"title":"那須ステンドグラス美術館","architect":"レーモンド設計事務所","year":1995.0,"address":"栃木県那須郡那須町高久丙1790","latitude":37.0655403137207,"longitude":140.02490234375,"category":"美術館","description":"","image_url":""},{"id":477,"title":"那須テディベアミュージアム","architect":"アーキテクトファイブ","year":1997.0,"address":"栃木県那須郡那須町高久丙1185-4","latitude":37.04920196533203,"longitude":140.03958129882812,"category":"博物館","description":"","image_url":""},{"id":478,"title":"芦野温泉ホテル本館","architect":"柳澤孝彦","year":2004.0,"address":"栃木県那須郡那須町芦野1461","latitude":36.98923110961914,"longitude":140.14828491210938,"category":"ホテル","description":"","image_url":""},{"id":479,"title":"石の美術館","architect":"隈研吾","year":2000.0,"address":"栃木県那須郡那須町芦野2717-5","latitude":36.990745544433594,"longitude":140.16354370117188,"category":"美術館","description":"1/4～営業","image_url":"https://farm4.staticflickr.com/3721/8910519790_29ddf18129_h.jpg"},{"id":480,"title":"那須歴史探訪館","architect":"隈研吾","year":2000.0,"address":"栃木県那須郡那須町芦野2893","latitude":36.989173889160156,"longitude":140.16424560546875,"category":"博物館","description":"月曜日休館","image_url":"https://farm4.staticflickr.com/3670/8909922959_d445c9f0c2_h.jpg"},{"id":481,"title":"東武ワールドスクウェア","architect":"不明","year":null,"address":"栃木県日光市鬼怒川温泉大原209-1","latitude":36.808807373046875,"longitude":139.71133422851562,"category":"テーマパーク","description":"","image_url":""},{"id":482,"title":"日光霧降 大江戸温泉物語 旧メルパルク日光霧降","architect":"ロバート・ヴェンチューリ","year":1996.0,"address":"栃木県日光市所野1535-1","latitude":36.79021072387695,"longitude":139.6071014404297,"category":"ホテル","description":"","image_url":""},{"id":483,"title":"日光真光教会","architect":"ジェームズ・ガーディナー","year":1914.0,"address":"栃木県日光市本町1-6","latitude":36.75444030761719,"longitude":139.59495544433594,"category":"教会","description":"","image_url":""},{"id":484,"title":"中禅寺湖畔ボートハウス","architect":"レーモンド設計事務所","year":1947.0,"address":"栃木県日光市中宮祠 中禅寺湖畔ボートハウス","latitude":36.752586364746094,"longitude":139.4620819091797,"category":"洋館","description":"","image_url":""},{"id":485,"title":"日光市今市文化会館","architect":"神谷五男","year":1977.0,"address":"栃木県日光市平ヶ崎160","latitude":36.72359848022461,"longitude":139.6807861328125,"category":"ホール・劇場","description":"","image_url":""},{"id":486,"title":"日光市立今市図書館","architect":"神谷五男","year":1982.0,"address":"栃木県日光市中央町29-1","latitude":36.72069549560547,"longitude":139.68980407714844,"category":"図書館","description":"","image_url":""},{"id":487,"title":"旧イタリア大使館夏季別荘","architect":"アントニン・レーモンド","year":1928.0,"address":"栃木県日光市中宮祠2482","latitude":36.72540283203125,"longitude":139.4851837158203,"category":"住宅","description":"","image_url":"https://farm8.staticflickr.com/7333/9259288676_eb72c51f97_h.jpg"},{"id":488,"title":"日光田母沢御用邸記念公園","architect":"不明","year":1899.0,"address":"栃木県日光市本町8-27","latitude":36.75244903564453,"longitude":139.5911865234375,"category":"古民家","description":"","image_url":"https://lh3.googleusercontent.com/-QnrjfCTJbBQ/UgHY3qPHijI/AAAAAAAA_Qk/XrnJbeUNW9E/s1024/lr-6261870.jpg"},{"id":489,"title":"日光金谷ホテル 本館","architect":"不明","year":1893.0,"address":"栃木県日光市上鉢石町1300","latitude":36.75217056274414,"longitude":139.6039276123047,"category":"ホテル","description":"ホテル開業は1873年。本館は1936年に3階建てに増築。新館は1901年、別館は1935年竣工","image_url":"https://lh3.googleusercontent.com/-4LrTE-5ep-o/UgHZppjEN8I/AAAAAAAA_UY/tiKLupxGbiw/s1024/lr-6261929.jpg"},{"id":490,"title":"日光東照宮","architect":"不明","year":1617.0,"address":"栃木県日光市山内2301","latitude":36.75804138183594,"longitude":139.59884643554688,"category":"寺院","description":"","image_url":"https://lh3.googleusercontent.com/-agbprtooqks/UgHa86XGluI/AAAAAAAA_ak/5IfavfkXJyI/s1152/lr-6272022.jpg"},{"id":491,"title":"いわむらかずお 絵本の丘 美術館","architect":"野沢正光","year":1998.0,"address":"栃木県那須郡那珂川町小砂3097","latitude":36.78016662597656,"longitude":140.13807678222656,"category":"美術館","description":"","image_url":""},{"id":492,"title":"知恵の環館 芳賀町総合情報館","architect":"日本設計","year":2007.0,"address":"栃木県芳賀郡芳賀町祖母井1078","latitude":36.547393798828125,"longitude":140.05789184570312,"category":"総合文化施設","description":"","image_url":""},{"id":493,"title":"ハローウッズ・クラブハウス","architect":"岡崎恭子","year":2001.0,"address":"栃木県芳賀郡茂木町桧山120-1","latitude":36.53195571899414,"longitude":140.22540283203125,"category":"体験施設","description":"ツインリンクもてぎ内","image_url":""},{"id":494,"title":"古稀庵洋館 山縣有朋記念館","architect":"伊東忠太","year":1909.0,"address":"栃木県矢板市上伊佐野1022","latitude":36.887603759765625,"longitude":139.88534545898438,"category":"洋館","description":"1924年移築","image_url":""},{"id":495,"title":"ボゾリサーチセンター 旧ノバルティスファーマ筑波研究所","architect":"槇文彦","year":1993.0,"address":"茨城県つくば市大久保8","latitude":36.14999008178711,"longitude":140.04226684570312,"category":"企業施設","description":"","image_url":""},{"id":496,"title":"筑波大学 総合交流館","architect":"鵜沢隆","year":2006.0,"address":"茨城県つくば市天王台1-1-1","latitude":36.111385345458984,"longitude":140.10401916503906,"category":"大学","description":"","image_url":""},{"id":497,"title":"筑波大学 第一学群棟","architect":"岡田新一+高橋靗一","year":1974.0,"address":"茨城県つくば市天王台1-1-1","latitude":36.111122131347656,"longitude":140.09994506835938,"category":"大学","description":"","image_url":""},{"id":498,"title":"筑波大学 総合研究棟D","architect":"鵜沢隆","year":2004.0,"address":"茨城県つくば市天王台1-1-1","latitude":36.10963821411133,"longitude":140.10031127929688,"category":"大学","description":"","image_url":""},{"id":499,"title":"筑波大学 体育芸術専門学群 ／ 大学会館","architect":"槇文彦","year":1974.0,"address":"茨城県つくば市天久保3-1","latitude":36.103538513183594,"longitude":140.10423278808594,"category":"大学","description":"","image_url":""},{"id":500,"title":"バッハの森 コミュニティセンター","architect":"納賀雄嗣","year":1984.0,"address":"茨城県つくば市東光台2-7-9","latitude":36.10194396972656,"longitude":140.06625366210938,"category":"公園","description":"","image_url":""}]}