{"page":6,"total_pages":290,"items_per_page":50,"total_items":14467,"items":[{"id":251,"title":"盛岡市立繋小学校","architect":"ゼロ建築都市研究所","year":2001.0,"address":"岩手県盛岡市繋舘市114-1","latitude":39.675209045410156,"longitude":141.0184783935547,"category":"学校","big_category":"教育","description":"","image_url":"","tags":"","prefecture":"岩手","contractor":"","structural_designer":"","landscape_designer":"","shinkenchiku_url":""},{"id":252,"title":"アイーナ 岩手県民情報交流センター","architect":"日本設計+曽根幸一","year":2005.0,"address":"岩手県盛岡市盛岡駅西通1-7-1","latitude":39.70197296142578,"longitude":141.1327362060547,"category":"総合文化施設","big_category":"文化施設","description":"","image_url":"","tags":"","prefecture":"岩手","contractor":"","structural_designer":"","landscape_designer":"","shinkenchiku_url":""},{"id":253,"title":"岩手県立美術館","architect":"日本設計","year":2001.0,"address":"岩手県盛岡市本宮松幅12-3","latitude":39.69318389892578,"longitude":141.1245880126953,"category":"美術館","big_category":"ミュージアム","description":"1/4～営業　月曜日休館","image_url":"https://farm6.staticflickr.com/5475/12201120615_4e3ede8d44_h.jpg","tags":"","prefecture":"岩手","contractor":"","structural_designer":"","landscape_designer":"","shinkenchiku_url":""},{"id":254,"title":"大船渡市民文化会館・市立図書館／リアスホール","architect":"新居千秋","year":2009.0,"address":"岩手県大船渡市盛町下舘下18-1","latitude":39.07789611816406,"longitude":141.71022033691406,"category":"総合文化施設","big_category":"文化施設","description":"","image_url":"https://farm9.staticflickr.com/8541/8900347089_8aba8c6e54_h.jpg","tags":"2014年公共建築賞,2009年度日本建築大賞,2011年日本建築学会 作品選奨","prefecture":"岩手","contractor":"","structural_designer":"","landscape_designer":"","shinkenchiku_url":""},{"id":255,"title":"田野畑村緑地等管理中央センター アズビィホール","architect":"穂積信夫+古谷誠章","year":1988.0,"address":"岩手県下閉伊郡田野畑村和野278-3","latitude":39.92436599731445,"longitude":141.90328979492188,"category":"ホール・劇場","big_category":"文化施設","description":"","image_url":"","tags":"","prefecture":"岩手","contractor":"","structural_designer":"","landscape_designer":"","shinkenchiku_url":""},{"id":256,"title":"田野畑民族資料館","architect":"穂積信夫+古谷誠章","year":1990.0,"address":"岩手県下閉伊郡田野畑村田野畑128-9","latitude":39.93180465698242,"longitude":141.8902130126953,"category":"博物館","big_category":"ミュージアム","description":"","image_url":"","tags":"","prefecture":"岩手","contractor":"","structural_designer":"","landscape_designer":"","shinkenchiku_url":""},{"id":257,"title":"田野畑中学校・寄宿舎","architect":"穂積信夫","year":1976.0,"address":"岩手県下閉伊郡田野畑村菅窪43-2","latitude":39.92042922973633,"longitude":141.89942932128906,"category":"学校/寮","big_category":"教育,住宅","description":"","image_url":"","tags":"1976年日本建築学会 作品賞,DOCOMOMO","prefecture":"岩手","contractor":"鉄建建設","structural_designer":"","landscape_designer":"","shinkenchiku_url":""},{"id":258,"title":"二戸広域観光物産センター カシオペアメッセ・なにゃーと","architect":"アトリエノルド","year":2002.0,"address":"岩手県二戸市石切所森合68","latitude":40.26102066040039,"longitude":141.28587341308594,"category":"観光施設","big_category":"レジャー施設","description":"","image_url":"","tags":"","prefecture":"岩手","contractor":"","structural_designer":"","landscape_designer":"","shinkenchiku_url":""},{"id":259,"title":"ホテル安比グランド","architect":"谷口吉生","year":1985.0,"address":"岩手県八幡平市安比高原117-17","latitude":40.00264358520508,"longitude":140.96957397460938,"category":"ホテル","big_category":"宿泊","description":"","image_url":"","tags":"","prefecture":"岩手","contractor":"","structural_designer":"","landscape_designer":"","shinkenchiku_url":""},{"id":260,"title":"中尊寺","architect":"不明","year":850.0,"address":"岩手県西磐井郡平泉町平泉字衣関202","latitude":39.001590728759766,"longitude":141.10264587402344,"category":"寺院","big_category":"宗教","description":"","image_url":"https://lh3.googleusercontent.com/-r4UulM4nTzU/UQI9-j6X7UI/AAAAAAAA09o/48sDZzyg2zU/s1024/lr-1154895-2.jpg","tags":"","prefecture":"岩手","contractor":"","structural_designer":"","landscape_designer":"","shinkenchiku_url":""},{"id":261,"title":"毛越寺","architect":"不明","year":850.0,"address":"岩手県西磐井郡平泉町平泉大沢58","latitude":38.98698806762695,"longitude":141.10842895507812,"category":"庭園","big_category":"文化施設","description":"","image_url":"https://lh3.googleusercontent.com/-Mz_EsfZsjTs/UQI3WdDJpLI/AAAAAAAAz2M/uZ7DXPQcrrQ/s1440/lr-1154949.jpg","tags":"","prefecture":"岩手","contractor":"","structural_designer":"","landscape_designer":"","shinkenchiku_url":""},{"id":262,"title":"北上市文化交流センター さくらホール","architect":"久米設計","year":2004.0,"address":"岩手県北上市さくら通り2-1-1","latitude":39.2978515625,"longitude":141.1095428466797,"category":"ホール・劇場","big_category":"文化施設","description":"日本建築学会 作品賞受賞者名：野口秀世","image_url":"","tags":"2006年日本建築学会 作品賞","prefecture":"岩手","contractor":"","structural_designer":"","landscape_designer":"","shinkenchiku_url":""},{"id":263,"title":"北上市立博物館みちのく民俗村 旧黒沢尻女学校","architect":"不明","year":1929.0,"address":"岩手県北上市立花14-59","latitude":39.27137756347656,"longitude":141.1304168701172,"category":"洋館","big_category":"近代建築/遺産","description":"","image_url":"","tags":"","prefecture":"岩手","contractor":"","structural_designer":"","landscape_designer":"","shinkenchiku_url":""},{"id":264,"title":"陸前高田のみんなの家","architect":"伊東豊雄+乾久美子+藤本壮介+平田晃久","year":2012.0,"address":"岩手県陸前高田市高田町馬場前88","latitude":39.0162239074707,"longitude":141.62857055664062,"category":"その他文化施設","big_category":"文化施設","description":"一度解体されたが駅前に再建","image_url":"","tags":"","prefecture":"岩手","contractor":"","structural_designer":"","landscape_designer":"","shinkenchiku_url":""},{"id":265,"title":"りくカフェ 本設","architect":"成瀬・猪熊建築設計事務所","year":2014.0,"address":"岩手県陸前高田市高田町字鳴石22-9","latitude":39.02404022216797,"longitude":141.62767028808594,"category":"カフェ","big_category":"商業施設","description":"2012年に仮設のカフェをオープン、2014年10月に建て替え","image_url":"","tags":"新建築2014年11月号","prefecture":"岩手","contractor":"吉田建設","structural_designer":"A.S.Associates","landscape_designer":"","shinkenchiku_url":"https://data.shinkenchiku.online/articles/SK_2014_11_144-0"},{"id":266,"title":"小さな積み木の家＜集会所＞","architect":"矢作昌生","year":2011.0,"address":"岩手県陸前高田市気仙町字町67","latitude":39.01194381713867,"longitude":141.61532592773438,"category":"公民館・交流施設","big_category":"公共施設","description":"","image_url":"","tags":"","prefecture":"岩手","contractor":"","structural_designer":"","landscape_designer":"","shinkenchiku_url":""},{"id":267,"title":"寒河江市庁舎","architect":"黒川紀章","year":1967.0,"address":"山形県寒河江市中央1-9-45","latitude":38.38096237182617,"longitude":140.27597045898438,"category":"庁舎","big_category":"公共施設","description":"","image_url":"","tags":"DOCOMOMO,登録有形文化財","prefecture":"山形","contractor":"","structural_designer":"","landscape_designer":"","shinkenchiku_url":""},{"id":268,"title":"最上川ふるさと総合公園センターハウス","architect":"内藤廣","year":2001.0,"address":"山形県寒河江市大字寒河江山西1269","latitude":38.36494445800781,"longitude":140.26242065429688,"category":"公園","big_category":"レジャー施設","description":"","image_url":"","tags":"","prefecture":"山形","contractor":"","structural_designer":"","landscape_designer":"","shinkenchiku_url":""},{"id":269,"title":"寒河江市郷土館","architect":"不明","year":1986.0,"address":"山形県寒河江市寒河江丙 寒河江市郷土館","latitude":38.384456634521484,"longitude":140.2681427001953,"category":"洋館","big_category":"近代建築/遺産","description":"","image_url":"","tags":"","prefecture":"山形","contractor":"","structural_designer":"","landscape_designer":"","shinkenchiku_url":""},{"id":270,"title":"金山町の火葬場","architect":"益子義弘","year":1995.0,"address":"山形県最上郡金山町上台1268","latitude":38.86168670654297,"longitude":140.33200073242188,"category":"斎場","big_category":"公共施設","description":"","image_url":"","tags":"2021年JIA25年賞 受賞作品","prefecture":"山形","contractor":"","structural_designer":"","landscape_designer":"","shinkenchiku_url":""},{"id":271,"title":"金山町立明安小学校","architect":"小沢明","year":2002.0,"address":"山形県最上郡金山町下野明1696-1","latitude":38.86283493041992,"longitude":140.35011291503906,"category":"学校","big_category":"教育","description":"","image_url":"","tags":"","prefecture":"山形","contractor":"","structural_designer":"","landscape_designer":"","shinkenchiku_url":""},{"id":272,"title":"浜田広介記念館","architect":"岡田新一","year":1988.0,"address":"山形県東置賜郡高畠町一本柳2110","latitude":38.005924224853516,"longitude":140.1621551513672,"category":"博物館","big_category":"ミュージアム","description":"","image_url":"","tags":"","prefecture":"山形","contractor":"","structural_designer":"","landscape_designer":"","shinkenchiku_url":""},{"id":273,"title":"高畠町文化ホール・まほら","architect":"本間利雄","year":1993.0,"address":"山形県東置賜郡高畠町高畠323","latitude":38.000457763671875,"longitude":140.18765258789062,"category":"ホール・劇場","big_category":"文化施設","description":"","image_url":"","tags":"","prefecture":"山形","contractor":"","structural_designer":"","landscape_designer":"","shinkenchiku_url":""},{"id":274,"title":"東北芸術工科大学","architect":"本間利雄","year":1992.0,"address":"山形県山形市上桜田3-4-5","latitude":38.218753814697266,"longitude":140.34474182128906,"category":"大学","big_category":"教育","description":"会期不定","image_url":"","tags":"","prefecture":"山形","contractor":"","structural_designer":"","landscape_designer":"","shinkenchiku_url":""},{"id":275,"title":"山寺 後藤美術館","architect":"戸田設計","year":1994.0,"address":"山形県山形市大字山寺2982-3","latitude":38.3087272644043,"longitude":140.43955993652344,"category":"美術館","big_category":"ミュージアム","description":"","image_url":"","tags":"","prefecture":"山形","contractor":"","structural_designer":"","landscape_designer":"","shinkenchiku_url":""},{"id":276,"title":"教育資料館 旧山形師範学校","architect":"不明","year":1901.0,"address":"山形県山形市緑町2-2-7","latitude":38.25440216064453,"longitude":140.34861755371094,"category":"洋館","big_category":"近代建築/遺産","description":"","image_url":"","tags":"","prefecture":"山形","contractor":"","structural_designer":"","landscape_designer":"","shinkenchiku_url":""},{"id":277,"title":"朝日新聞山形ビル","architect":"妹島和世","year":2002.0,"address":"山形県山形市六日町7-10","latitude":38.25763702392578,"longitude":140.34291076660156,"category":"オフィスビル","big_category":"企業施設","description":"","image_url":"https://farm6.staticflickr.com/5454/8924491058_76cfb918e1_h.jpg","tags":"","prefecture":"山形","contractor":"","structural_designer":"","landscape_designer":"","shinkenchiku_url":""},{"id":278,"title":"山形市郷土館 旧済生館本館","architect":"不明","year":1878.0,"address":"山形県山形市霞城町1-1","latitude":38.25310516357422,"longitude":140.3284912109375,"category":"洋館","big_category":"近代建築/遺産","description":"","image_url":"https://lh3.googleusercontent.com/-0nY6a-dACV0/UQI4IngJuVI/AAAAAAAAz-Y/YzmSndSuH4A/s1024/lr-1114287.jpg","tags":"","prefecture":"山形","contractor":"","structural_designer":"","landscape_designer":"","shinkenchiku_url":""},{"id":279,"title":"山形県郷土館 文翔館 旧山形県庁舎","architect":"田原新之助","year":1916.0,"address":"山形県山形市旅篭町3-4-51","latitude":38.25689697265625,"longitude":140.34124755859375,"category":"洋館","big_category":"近代建築/遺産","description":"","image_url":"https://lh3.googleusercontent.com/-wHu2Uk8KAzs/UQI_ssJMI3I/AAAAAAAA9HE/xMOiM40LLfE/s1440/lr-1114169.jpg","tags":"","prefecture":"山形","contractor":"","structural_designer":"","landscape_designer":"","shinkenchiku_url":""},{"id":280,"title":"水の町屋 七日町御殿堰","architect":"本間利雄","year":2010.0,"address":"山形県山形市七日町2-7-6","latitude":38.253089904785156,"longitude":140.33987426757812,"category":"モール","big_category":"商業施設","description":"","image_url":"https://farm4.staticflickr.com/3716/9800000093_f206ad7cff_h.jpg","tags":"","prefecture":"山形","contractor":"","structural_designer":"","landscape_designer":"","shinkenchiku_url":""},{"id":281,"title":"東北公益文科大学 酒田キャンパス 公益ホール/公益研修センター","architect":"IKDS","year":2006.0,"address":"山形県酒田市飯森山3-5-1","latitude":38.89332580566406,"longitude":139.8195343017578,"category":"大学","big_category":"教育","description":"","image_url":"","tags":"","prefecture":"山形","contractor":"","structural_designer":"","landscape_designer":"","shinkenchiku_url":""},{"id":282,"title":"ひらたタウンセンター","architect":"富永譲","year":2002.0,"address":"山形県酒田市飛鳥契約場35","latitude":38.8891487121582,"longitude":139.92698669433594,"category":"総合文化施設","big_category":"文化施設","description":"","image_url":"","tags":"2003年日本建築学会 作品賞","prefecture":"山形","contractor":"","structural_designer":"","landscape_designer":"","shinkenchiku_url":""},{"id":283,"title":"旧白崎医院","architect":"不明","year":1919.0,"address":"山形県酒田市南新町1-6-13","latitude":38.92015838623047,"longitude":139.8288116455078,"category":"洋館","big_category":"近代建築/遺産","description":"","image_url":"","tags":"","prefecture":"山形","contractor":"","structural_designer":"","landscape_designer":"","shinkenchiku_url":""},{"id":284,"title":"日和山六角灯台","architect":"不明","year":null,"address":"山形県酒田市南新町1-10","latitude":38.91865921020508,"longitude":139.82749938964844,"category":"洋館","big_category":"近代建築/遺産","description":"","image_url":"","tags":"","prefecture":"山形","contractor":"","structural_designer":"","landscape_designer":"","shinkenchiku_url":""},{"id":285,"title":"本間家旧本邸","architect":"不明","year":null,"address":"山形県酒田市二番町12-13","latitude":38.9146614074707,"longitude":139.83944702148438,"category":"和風住宅","big_category":"住宅","description":"","image_url":"","tags":"","prefecture":"山形","contractor":"","structural_designer":"","landscape_designer":"","shinkenchiku_url":""},{"id":286,"title":"山居倉庫","architect":"高橋兼吉","year":1893.0,"address":"山形県酒田市山居町1-1-8","latitude":38.91184616088867,"longitude":139.8366241455078,"category":"博物館","big_category":"ミュージアム","description":"","image_url":"","tags":"","prefecture":"山形","contractor":"","structural_designer":"","landscape_designer":"","shinkenchiku_url":""},{"id":287,"title":"土門拳記念館","architect":"谷口吉生","year":1983.0,"address":"山形県酒田市飯森山2-13","latitude":38.89125442504883,"longitude":139.82366943359375,"category":"美術館","big_category":"ミュージアム","description":"1/4～営業　月曜日休館","image_url":"https://farm9.staticflickr.com/8556/8938965076_9f472927b6_h.jpg","tags":"1984年吉田五十八賞,2009年JIA25年賞,DOCOMOMO","prefecture":"山形","contractor":"","structural_designer":"","landscape_designer":"","shinkenchiku_url":""},{"id":288,"title":"酒田市美術館","architect":"池原義郎","year":1997.0,"address":"山形県酒田市飯森山3-17-95","latitude":38.89322280883789,"longitude":139.8157958984375,"category":"美術館","big_category":"ミュージアム","description":"","image_url":"https://lh3.googleusercontent.com/-mIr0PaP6LZs/UQI1IUTaoXI/AAAAAAAAzeU/PEIOIM7Sh6U/s1024/lr-1103950.jpg","tags":"2002年公共建築賞","prefecture":"山形","contractor":"","structural_designer":"","landscape_designer":"","shinkenchiku_url":""},{"id":289,"title":"本間美術館","architect":"伊藤喜三郎","year":1968.0,"address":"山形県酒田市御成町7-7","latitude":38.923404693603516,"longitude":139.84205627441406,"category":"美術館","big_category":"ミュージアム","description":"","image_url":"https://lh3.googleusercontent.com/-RYL7A0aIDsU/UQI2i2FsG9I/AAAAAAAAztc/LpQcLTxTsPs/s1024/lr-1104001-2.jpg","tags":"","prefecture":"山形","contractor":"","structural_designer":"","landscape_designer":"","shinkenchiku_url":""},{"id":290,"title":"酒田市国体記念体育館","architect":"谷口吉生","year":1991.0,"address":"山形県酒田市飯森山2-296-1","latitude":38.893150329589844,"longitude":139.8223114013672,"category":"体育館","big_category":"レジャー施設","description":"","image_url":"https://farm4.staticflickr.com/3798/8938910716_ca6d9d0c79_h.jpg","tags":"","prefecture":"山形","contractor":"","structural_designer":"","landscape_designer":"","shinkenchiku_url":""},{"id":291,"title":"旧尾形家住宅","architect":"不明","year":null,"address":"山形県上山市下生居170","latitude":38.12641143798828,"longitude":140.30006408691406,"category":"古民家","big_category":"近代建築/遺産","description":"","image_url":"","tags":"","prefecture":"山形","contractor":"","structural_designer":"","landscape_designer":"","shinkenchiku_url":""},{"id":292,"title":"最上広域交流センター ゆめりあ","architect":"山下和正","year":2000.0,"address":"山形県新庄市多門町1-2","latitude":38.764827728271484,"longitude":140.305419921875,"category":"総合文化施設/ホール・劇場/店舗","big_category":"文化施設,文化施設,商業施設","description":"","image_url":"","tags":"","prefecture":"山形","contractor":"","structural_designer":"","landscape_designer":"","shinkenchiku_url":""},{"id":293,"title":"最上川美術館 旧真下慶治記念美術館","architect":"高宮眞介","year":2004.0,"address":"山形県村山市大淀1084-1","latitude":38.51783752441406,"longitude":140.35354614257812,"category":"美術館","big_category":"ミュージアム","description":"","image_url":"","tags":"","prefecture":"山形","contractor":"","structural_designer":"","landscape_designer":"","shinkenchiku_url":""},{"id":294,"title":"村山市総合文化複合施設 甑葉プラザ","architect":"高宮眞介+日総建","year":2010.0,"address":"山形県村山市楯岡五日町14-20","latitude":38.4806022644043,"longitude":140.3871307373047,"category":"総合文化施設","big_category":"文化施設","description":"","image_url":"","tags":"","prefecture":"山形","contractor":"","structural_designer":"","landscape_designer":"","shinkenchiku_url":""},{"id":295,"title":"朝日町役場 創遊館エコミュージアムルーム 山形県 朝日町エコミュージアム","architect":"元倉眞琴","year":2000.0,"address":"山形県西村山郡朝日町宮宿2265","latitude":38.29833221435547,"longitude":140.1456756591797,"category":"博物館","big_category":"ミュージアム","description":"","image_url":"","tags":"","prefecture":"山形","contractor":"","structural_designer":"","landscape_designer":"","shinkenchiku_url":""},{"id":296,"title":"丙申堂 旧風間家住宅","architect":"不明","year":1896.0,"address":"山形県鶴岡市馬場町1-17","latitude":38.728511810302734,"longitude":139.828857421875,"category":"古民家","big_category":"近代建築/遺産","description":"","image_url":"","tags":"","prefecture":"山形","contractor":"","structural_designer":"","landscape_designer":"","shinkenchiku_url":""},{"id":297,"title":"鶴岡市立藤沢周平記念館","architect":"高谷時彦","year":2010.0,"address":"山形県鶴岡市馬場町4-6","latitude":38.7277946472168,"longitude":139.82498168945312,"category":"博物館","big_category":"ミュージアム","description":"","image_url":"","tags":"","prefecture":"山形","contractor":"","structural_designer":"","landscape_designer":"","shinkenchiku_url":""},{"id":298,"title":"鶴岡アートフォーラム","architect":"小沢明","year":2005.0,"address":"山形県鶴岡市馬場町13-3","latitude":38.72636413574219,"longitude":139.82489013671875,"category":"美術館","big_category":"ミュージアム","description":"","image_url":"","tags":"","prefecture":"山形","contractor":"","structural_designer":"","landscape_designer":"","shinkenchiku_url":""},{"id":299,"title":"鶴岡まちなかキネマ","architect":"高谷時彦","year":2010.0,"address":"山形県鶴岡市山王町13-36","latitude":38.73047637939453,"longitude":139.83621215820312,"category":"ホール・劇場","big_category":"文化施設","description":"","image_url":"","tags":"2013年日本建築学会 作品選奨","prefecture":"山形","contractor":"","structural_designer":"","landscape_designer":"","shinkenchiku_url":""},{"id":300,"title":"致道博物館","architect":"不明","year":1881.0,"address":"山形県鶴岡市家中新町10-18","latitude":38.728485107421875,"longitude":139.82139587402344,"category":"洋館","big_category":"近代建築/遺産","description":"","image_url":"","tags":"","prefecture":"山形","contractor":"","structural_designer":"","landscape_designer":"","shinkenchiku_url":""}]}