{"page":225,"total_pages":290,"items_per_page":50,"total_items":14467,"items":[{"id":11201,"title":"DENZAI環境科学館・室蘭市図書館 えみらん","architect":"石本建築事務所+はんざき建築事務所","year":2021.0,"address":"北海道室蘭市幸町2-2-1","latitude":42.3134880065918,"longitude":140.97396850585938,"category":"博物館/図書館/総合文化施設","big_category":"ミュージアム,文化施設,文化施設","description":"","image_url":"","tags":"Ver4.30(2022年2月)の追加建築","prefecture":"北海道","contractor":"","structural_designer":"","landscape_designer":"","shinkenchiku_url":""},{"id":11202,"title":"北山コンドミニアム おおきに北山サニーアパートメント","architect":"シーラカンスアンドアソシエイツ","year":1987.0,"address":"京都府京都市北区小山元町45","latitude":35.05014419555664,"longitude":135.756103515625,"category":"集合住宅","big_category":"住宅","description":"","image_url":"","tags":"Ver4.30(2022年2月)の追加建築","prefecture":"京都","contractor":"","structural_designer":"","landscape_designer":"","shinkenchiku_url":""},{"id":11203,"title":"Felicita二星","architect":"竹原義二","year":2011.0,"address":"静岡県浜松市中区泉3-1-62","latitude":34.744815826416016,"longitude":137.72381591796875,"category":"集合住宅/店舗","big_category":"住宅,商業施設","description":"","image_url":"","tags":"Ver4.30(2022年2月)の追加建築","prefecture":"静岡","contractor":"","structural_designer":"","landscape_designer":"","shinkenchiku_url":""},{"id":11204,"title":"VISON","architect":"赤坂知也","year":2021.0,"address":"三重県多気町ヴィソン672-1","latitude":34.46041488647461,"longitude":136.5138397216797,"category":"モール/ホテル","big_category":"商業施設,宿泊","description":"マスターアーキテクトとして赤坂知也","image_url":"","tags":"Ver4.30(2022年2月)の追加建築","prefecture":"三重","contractor":"","structural_designer":"","landscape_designer":"","shinkenchiku_url":""},{"id":11205,"title":"れいがん茶屋","architect":"周防貴之","year":2021.0,"address":"香川県高松市屋島東町1784","latitude":34.3579216003418,"longitude":134.09877014160156,"category":"カフェ","big_category":"商業施設","description":"","image_url":"","tags":"Ver4.30(2022年2月)の追加建築,新建築2022年9月号","prefecture":"香川","contractor":"","structural_designer":"","landscape_designer":"","shinkenchiku_url":""},{"id":11206,"title":"T.N.A事務所","architect":"T.N.A","year":2019.0,"address":"広島県安芸郡熊野町萩原6-11-17","latitude":34.34052658081055,"longitude":132.58636474609375,"category":"低層オフィス","big_category":"企業施設","description":"","image_url":"","tags":"Ver4.30(2022年2月)の追加建築","prefecture":"広島","contractor":"","structural_designer":"","landscape_designer":"","shinkenchiku_url":""},{"id":11207,"title":"kissa","architect":"原井隆","year":2019.0,"address":"広島県三次市吉舎町吉舎397","latitude":34.71815872192383,"longitude":132.99124145507812,"category":"カフェ","big_category":"商業施設","description":"","image_url":"","tags":"Ver4.30(2022年2月)の追加建築","prefecture":"広島","contractor":"","structural_designer":"","landscape_designer":"","shinkenchiku_url":""},{"id":11208,"title":"GRAVIビル","architect":"出江寛","year":null,"address":"京都府京都市下京区東境町191","latitude":34.98894119262695,"longitude":135.75955200195312,"category":"テナントビル","big_category":"商業施設","description":"","image_url":"","tags":"Ver4.30(2022年2月)の追加建築","prefecture":"京都","contractor":"","structural_designer":"","landscape_designer":"","shinkenchiku_url":""},{"id":11209,"title":"アーリシャン スーパーカラオケ 白梅町店","architect":"若林広幸","year":1995.0,"address":"京都府京都市北区北野紅梅町46-1","latitude":35.0298957824707,"longitude":135.731201171875,"category":"店舗/レストラン","big_category":"商業施設,商業施設","description":"旧阿里山 白梅町店","image_url":"","tags":"Ver4.30(2022年2月)の追加建築","prefecture":"京都","contractor":"","structural_designer":"","landscape_designer":"","shinkenchiku_url":""},{"id":11210,"title":"花園駅","architect":"吉村篤一+ジェイアール西日本コンサルタンツ","year":1996.0,"address":"京都府京都市右京区花園寺ノ内町","latitude":35.01858901977539,"longitude":135.7176971435547,"category":"駅","big_category":"インフラ","description":"","image_url":"","tags":"Ver4.30(2022年2月)の追加建築","prefecture":"京都","contractor":"","structural_designer":"","landscape_designer":"","shinkenchiku_url":""},{"id":11211,"title":"ORGAN I / II FOBアソシエーション社屋","architect":"梅林克","year":1995.0,"address":"京都府宇治市莵道田中34-3","latitude":34.89773178100586,"longitude":135.80740356445312,"category":"低層オフィス/住宅","big_category":"企業施設,住宅","description":"1995年ORGAN1、1997年ORGAN2竣工","image_url":"","tags":"Ver4.30(2022年2月)の追加建築","prefecture":"京都","contractor":"","structural_designer":"","landscape_designer":"","shinkenchiku_url":""},{"id":11212,"title":"アトリエ 幸の樹","architect":"梅林克","year":2007.0,"address":"兵庫県高砂市美保里8-5","latitude":34.77250671386719,"longitude":134.8069610595703,"category":"店舗/住宅","big_category":"商業施設,住宅","description":"","image_url":"","tags":"Ver4.30(2022年2月)の追加建築","prefecture":"兵庫","contractor":"","structural_designer":"","landscape_designer":"","shinkenchiku_url":""},{"id":11213,"title":"パッサージュ","architect":"根岸一之","year":1988.0,"address":"京都府宇治市小倉町西山81","latitude":34.888206481933594,"longitude":135.78207397460938,"category":"テナントビル/集合住宅","big_category":"商業施設,住宅","description":"","image_url":"","tags":"Ver4.30(2022年2月)の追加建築","prefecture":"京都","contractor":"","structural_designer":"","landscape_designer":"","shinkenchiku_url":""},{"id":11214,"title":"上郡こども園","architect":"宮本佳明","year":2021.0,"address":"兵庫県赤穂郡上郡町井上186","latitude":34.87602615356445,"longitude":134.3536834716797,"category":"幼稚園","big_category":"教育","description":"","image_url":"","tags":"Ver4.30(2022年2月)の追加建築","prefecture":"兵庫","contractor":"","structural_designer":"","landscape_designer":"","shinkenchiku_url":""},{"id":11215,"title":"香林寺ファサード改修","architect":"宮本佳明","year":2015.0,"address":"東京都八王子市八幡町10-2","latitude":35.66075134277344,"longitude":139.3252716064453,"category":"寺院","big_category":"宗教","description":"","image_url":"","tags":"Ver4.30(2022年2月)の追加建築","prefecture":"東京","contractor":"","structural_designer":"","landscape_designer":"","shinkenchiku_url":""},{"id":11216,"title":"hair salon Kurk","architect":"DIG DESIGN","year":2013.0,"address":"神奈川県川崎市多摩区枡形2-1-17 岩本ビル","latitude":35.617923736572266,"longitude":139.55752563476562,"category":"美容院","big_category":"商業施設","description":"マンションの一室の内装設計を担当","image_url":"","tags":"Ver4.30(2022年2月)の追加建築","prefecture":"神奈川","contractor":"","structural_designer":"","landscape_designer":"","shinkenchiku_url":""},{"id":11217,"title":"haijima BAL & CAFE AIRE","architect":"DIG DESIGN","year":2017.0,"address":"東京都昭島市松原町5-1-25 2F","latitude":35.720802307128906,"longitude":139.34259033203125,"category":"カフェ/バー・居酒屋","big_category":"商業施設,商業施設","description":"内装設計を担当","image_url":"","tags":"Ver4.30(2022年2月)の追加建築","prefecture":"東京","contractor":"","structural_designer":"","landscape_designer":"","shinkenchiku_url":""},{"id":11218,"title":"Auto&Cycle APCO","architect":"DIG DESIGN","year":2019.0,"address":"東京都世田谷区北鳥山8-1-21","latitude":35.67511749267578,"longitude":139.59251403808594,"category":"店舗","big_category":"商業施設","description":"","image_url":"","tags":"Ver4.30(2022年2月)の追加建築","prefecture":"東京","contractor":"","structural_designer":"","landscape_designer":"","shinkenchiku_url":""},{"id":11219,"title":"夢心","architect":"DIG DESIGN","year":2016.0,"address":"神奈川県川崎市幸区中幸町幸区4-51-6 2F","latitude":35.531734466552734,"longitude":139.6923065185547,"category":"バー・居酒屋","big_category":"商業施設","description":"内装設計を担当","image_url":"","tags":"Ver4.30(2022年2月)の追加建築","prefecture":"神奈川","contractor":"","structural_designer":"","landscape_designer":"","shinkenchiku_url":""},{"id":11220,"title":"人形の一藤","architect":"DIG DESIGN","year":2019.0,"address":"東京都台東区柳橋1-24-24-2","latitude":35.69764709472656,"longitude":139.78732299804688,"category":"店舗","big_category":"商業施設","description":"内装設計を担当","image_url":"","tags":"Ver4.30(2022年2月)の追加建築","prefecture":"東京","contractor":"","structural_designer":"","landscape_designer":"","shinkenchiku_url":""},{"id":11221,"title":"道の駅 ぎのざ","architect":"門口安則","year":2017.0,"address":"沖縄県国頭郡宜野座村漢那1633","latitude":26.473304748535156,"longitude":127.9516830444336,"category":"PA・道の駅","big_category":"インフラ","description":"","image_url":"","tags":"Ver4.30(2022年2月)の追加建築","prefecture":"沖縄","contractor":"","structural_designer":"","landscape_designer":"","shinkenchiku_url":""},{"id":11222,"title":"沖縄国際大学 学生会館","architect":"門口安則","year":2021.0,"address":"沖縄県宜野湾市宜野湾2-6-1","latitude":26.261911392211914,"longitude":127.75276947021484,"category":"大学/カフェ","big_category":"教育,商業施設","description":"沖縄国際大学内にある学生の為の福利厚生施設","image_url":"","tags":"Ver4.30(2022年2月)の追加建築","prefecture":"沖縄","contractor":"","structural_designer":"","landscape_designer":"","shinkenchiku_url":""},{"id":11223,"title":"おきなわ長寿苑 小規模多機能センター","architect":"門口安則","year":2007.0,"address":"沖縄県沖縄市登川1415","latitude":26.37616539001465,"longitude":127.82295227050781,"category":"養護施設","big_category":"医療施設","description":"","image_url":"","tags":"Ver4.30(2022年2月)の追加建築","prefecture":"沖縄","contractor":"","structural_designer":"","landscape_designer":"","shinkenchiku_url":""},{"id":11224,"title":"カーサヴィエント","architect":"門口安則","year":2003.0,"address":"沖縄県北谷町吉原858-8","latitude":26.31700325012207,"longitude":127.7728271484375,"category":"低層オフィス","big_category":"企業施設","description":"","image_url":"","tags":"Ver4.30(2022年2月)の追加建築","prefecture":"沖縄","contractor":"","structural_designer":"","landscape_designer":"","shinkenchiku_url":""},{"id":11225,"title":"ふくよか第2保育園","architect":"門口安則","year":2019.0,"address":"沖縄県うるま市与那城屋慶名467-13","latitude":26.327354431152344,"longitude":127.90446472167969,"category":"幼稚園","big_category":"教育","description":"","image_url":"","tags":"Ver4.30(2022年2月)の追加建築","prefecture":"沖縄","contractor":"","structural_designer":"","landscape_designer":"","shinkenchiku_url":""},{"id":11226,"title":"E-horizon Resort コンドミニアム瀬底","architect":"門口安則","year":2020.0,"address":"沖縄県国頭郡本部町瀬底2268-1","latitude":26.64605140686035,"longitude":127.86990356445312,"category":"コテージ","big_category":"宿泊","description":"","image_url":"","tags":"Ver4.30(2022年2月)の追加建築","prefecture":"沖縄","contractor":"","structural_designer":"","landscape_designer":"","shinkenchiku_url":""},{"id":11227,"title":"リヤド ランプ","architect":"門口安則","year":2020.0,"address":"沖縄県南城市知念久手堅415","latitude":26.167524337768555,"longitude":127.82402801513672,"category":"ホテル","big_category":"宿泊","description":"","image_url":"","tags":"Ver4.30(2022年2月)の追加建築","prefecture":"沖縄","contractor":"","structural_designer":"","landscape_designer":"","shinkenchiku_url":""},{"id":11228,"title":"OSD本社ビル","architect":"門口安則","year":2017.0,"address":"沖縄県中頭郡北谷町桑江94","latitude":26.31947135925293,"longitude":127.7614517211914,"category":"低層オフィス","big_category":"企業施設","description":"","image_url":"","tags":"Ver4.30(2022年2月)の追加建築","prefecture":"沖縄","contractor":"","structural_designer":"","landscape_designer":"","shinkenchiku_url":""},{"id":11229,"title":"すこやかホーム","architect":"門口安則","year":2012.0,"address":"沖縄県宮古島市伊良部長浜1320-1","latitude":24.83509635925293,"longitude":125.16795349121094,"category":"養護施設","big_category":"医療施設","description":"","image_url":"","tags":"Ver4.30(2022年2月)の追加建築","prefecture":"沖縄","contractor":"","structural_designer":"","landscape_designer":"","shinkenchiku_url":""},{"id":11230,"title":"津嘉山の杜 ヒルトップカシータ","architect":"門口安則","year":2012.0,"address":"沖縄県うるま市江洲135-3","latitude":26.343624114990234,"longitude":127.83277130126953,"category":"養護施設","big_category":"医療施設","description":"","image_url":"","tags":"Ver4.30(2022年2月)の追加建築","prefecture":"沖縄","contractor":"","structural_designer":"","landscape_designer":"","shinkenchiku_url":""},{"id":11231,"title":"大謝名地区公民館","architect":"門口安則","year":2011.0,"address":"沖縄県宜野湾市大謝名5-10","latitude":26.26683235168457,"longitude":127.73377227783203,"category":"公民館・交流施設","big_category":"公共施設","description":"","image_url":"","tags":"Ver4.30(2022年2月)の追加建築","prefecture":"沖縄","contractor":"","structural_designer":"","landscape_designer":"","shinkenchiku_url":""},{"id":11232,"title":"ヴィラージュせなは","architect":"門口安則","year":2009.0,"address":"沖縄県中頭郡読谷村長浜1110","latitude":26.418476104736328,"longitude":127.73393249511719,"category":"養護施設","big_category":"医療施設","description":"","image_url":"","tags":"Ver4.30(2022年2月)の追加建築","prefecture":"沖縄","contractor":"","structural_designer":"","landscape_designer":"","shinkenchiku_url":""},{"id":11233,"title":"ジョンソンタウン","architect":"渡辺治","year":2004.0,"address":"埼玉県入間市東町1-6-1","latitude":35.83296585083008,"longitude":139.39903259277344,"category":"都市計画/住宅","big_category":"公共施設,住宅","description":"米軍ハウスの改修・平成ハウスの新築など。竣工年は平成ハウス1の竣工年とした。","image_url":"","tags":"新建築2022年2月号,Ver4.30(2022年2月)の追加建築","prefecture":"埼玉","contractor":"","structural_designer":"","landscape_designer":"","shinkenchiku_url":""},{"id":11234,"title":"シモキタカレッジ","architect":"UDS+江口剛一","year":2020.0,"address":"東京都世田谷区代田5-20-16","latitude":35.660072326660156,"longitude":139.66441345214844,"category":"集合住宅/研修施設","big_category":"住宅,教育","description":"基本設計・デザイン監修:UDS / 基本設計パートナー:adLb建築デザイン研究所 / 実施設計:フジタ","image_url":"","tags":"新建築2022年2月号,Ver4.30(2022年2月)の追加建築","prefecture":"東京","contractor":"","structural_designer":"","landscape_designer":"","shinkenchiku_url":""},{"id":11235,"title":"ONSEN RYOKAN 由縁 札幌","architect":"UDS","year":2020.0,"address":"北海道札幌市中央区北1条西7-6","latitude":43.06214904785156,"longitude":141.3456573486328,"category":"旅館/ホテル","big_category":"宿泊,宿泊","description":"","image_url":"","tags":"Ver4.30(2022年2月)の追加建築","prefecture":"北海道","contractor":"","structural_designer":"","landscape_designer":"","shinkenchiku_url":""},{"id":11236,"title":"AND FIRST BLDG.","architect":"UDS","year":2021.0,"address":"東京都渋谷区桜丘町9-17","latitude":35.65501022338867,"longitude":139.70223999023438,"category":"オフィスビル","big_category":"企業施設","description":"","image_url":"","tags":"Ver4.30(2022年2月)の追加建築","prefecture":"東京","contractor":"","structural_designer":"","landscape_designer":"","shinkenchiku_url":""},{"id":11237,"title":"ザ・フロウ鎌倉","architect":"UDS","year":2021.0,"address":"神奈川県鎌倉市材木座5-2-9","latitude":35.30934524536133,"longitude":139.54725646972656,"category":"コテージ","big_category":"宿泊","description":"一棟貸し","image_url":"","tags":"Ver4.30(2022年2月)の追加建築","prefecture":"神奈川","contractor":"","structural_designer":"","landscape_designer":"","shinkenchiku_url":""},{"id":11238,"title":"ホテル センレン京都 東山清水","architect":"UDS","year":2020.0,"address":"京都府京都市東山区本町1-45","latitude":34.99517822265625,"longitude":135.76962280273438,"category":"ホテル","big_category":"宿泊","description":"","image_url":"","tags":"Ver4.30(2022年2月)の追加建築","prefecture":"京都","contractor":"","structural_designer":"","landscape_designer":"","shinkenchiku_url":""},{"id":11239,"title":"宮川筋のまちや 2254","architect":"アトリエ・ワン","year":2019.0,"address":"京都府京都市東山区宮川筋2-254","latitude":35.001319885253906,"longitude":135.7715301513672,"category":"コテージ","big_category":"宿泊","description":"一棟貸し","image_url":"","tags":"新建築2022年2月号,Ver4.30(2022年2月)の追加建築","prefecture":"京都","contractor":"","structural_designer":"","landscape_designer":"","shinkenchiku_url":""},{"id":11240,"title":"SOKI ATAMI","architect":"UDS","year":2020.0,"address":"静岡県熱海市小嵐町4-36","latitude":35.08794021606445,"longitude":139.06390380859375,"category":"ホテル","big_category":"宿泊","description":"","image_url":"","tags":"Ver4.30(2022年2月)の追加建築","prefecture":"静岡","contractor":"","structural_designer":"","landscape_designer":"","shinkenchiku_url":""},{"id":11241,"title":"由縁別邸 代田","architect":"UDS","year":2020.0,"address":"東京都世田谷区代田2-31-26","latitude":35.65836715698242,"longitude":139.6622772216797,"category":"ホテル","big_category":"宿泊","description":"","image_url":"","tags":"Ver4.30(2022年2月)の追加建築","prefecture":"東京","contractor":"","structural_designer":"","landscape_designer":"","shinkenchiku_url":""},{"id":11242,"title":"富士山三島東急ホテル","architect":"アール・アイ・エー","year":2020.0,"address":"静岡県三島市一番町17-1","latitude":35.125648498535156,"longitude":138.91111755371094,"category":"ホテル/テナントビル","big_category":"宿泊,商業施設","description":"","image_url":"","tags":"Ver4.30(2022年2月)の追加建築","prefecture":"静岡","contractor":"","structural_designer":"","landscape_designer":"","shinkenchiku_url":""},{"id":11243,"title":"別墅 清流館","architect":"UDS","year":2020.0,"address":"岩手県花巻市下シ沢中野66","latitude":39.45205307006836,"longitude":141.00291442871094,"category":"旅館","big_category":"宿泊","description":"","image_url":"","tags":"Ver4.30(2022年2月)の追加建築","prefecture":"岩手","contractor":"","structural_designer":"","landscape_designer":"","shinkenchiku_url":""},{"id":11244,"title":"クーモ箱根","architect":"UDS","year":2020.0,"address":"神奈川県足柄下郡箱根町強羅1300 早雲山駅","latitude":35.24659729003906,"longitude":139.03533935546875,"category":"店舗/温泉","big_category":"商業施設,宿泊","description":"早雲山駅2F","image_url":"","tags":"Ver4.30(2022年2月)の追加建築","prefecture":"神奈川","contractor":"","structural_designer":"","landscape_designer":"","shinkenchiku_url":""},{"id":11245,"title":"ホテル ストレータ 那覇","architect":"UDS","year":2020.0,"address":"沖縄県那覇市牧志1-19-8","latitude":26.218910217285156,"longitude":127.68446350097656,"category":"ホテル","big_category":"宿泊","description":"","image_url":"","tags":"Ver4.30(2022年2月)の追加建築,第30回AACA 美術工芸賞","prefecture":"沖縄","contractor":"","structural_designer":"","landscape_designer":"","shinkenchiku_url":""},{"id":11246,"title":"Tote 駒沢公園","architect":"UDS","year":2019.0,"address":"東京都世田谷区駒沢公園1-1","latitude":35.62871170043945,"longitude":139.65643310546875,"category":"テナントビル/集合住宅","big_category":"商業施設,住宅","description":"","image_url":"","tags":"Ver4.30(2022年2月)の追加建築","prefecture":"東京","contractor":"","structural_designer":"","landscape_designer":"","shinkenchiku_url":""},{"id":11247,"title":"hocco","architect":"ブルースタジオ","year":2021.0,"address":"東京都武蔵野市桜堤2-6-19","latitude":35.710140228271484,"longitude":139.5273895263672,"category":"住宅/都市計画/店舗","big_category":"住宅,公共施設,商業施設","description":"","image_url":"","tags":"新建築2022年2月号,Ver4.30(2022年2月)の追加建築","prefecture":"東京","contractor":"","structural_designer":"","landscape_designer":"","shinkenchiku_url":""},{"id":11248,"title":"本庄西の現場","architect":"OSTR","year":2019.0,"address":"大阪府大阪市北区本庄西1-6-24","latitude":34.711769104003906,"longitude":135.5055389404297,"category":"シェアオフィス","big_category":"商業施設","description":"","image_url":"","tags":"新建築2022年2月号,Ver4.30(2022年2月)の追加建築","prefecture":"大阪","contractor":"","structural_designer":"","landscape_designer":"","shinkenchiku_url":""},{"id":11249,"title":"志積プロジェクト 海のオーベルジュ志積 ROOM KYUBEE/HOUSE SEN レストラン内外海","architect":"魚谷繁礼+川上聡","year":2020.0,"address":"福井県小浜市志積15-6","latitude":35.52460479736328,"longitude":135.79913330078125,"category":"古民家/コテージ/レストラン","big_category":"近代建築/遺産,宿泊,商業施設","description":"ROOM KYUBEE、HOUSE SEN、レストラン内外海の3棟をリノベーション","image_url":"","tags":"新建築2022年2月号,Ver4.30(2022年2月)の追加建築","prefecture":"福井","contractor":"","structural_designer":"","landscape_designer":"","shinkenchiku_url":""},{"id":11250,"title":"杜のまちや","architect":"アトリエ・ワン","year":2017.0,"address":"東京都板橋区南常盤台2-4-2","latitude":35.758628845214844,"longitude":139.68832397460938,"category":"公民館・交流施設","big_category":"公共施設","description":"","image_url":"","tags":"新建築2022年2月号,Ver4.30(2022年2月)の追加建築","prefecture":"東京","contractor":"","structural_designer":"","landscape_designer":"","shinkenchiku_url":""}]}