{"page":151,"total_pages":290,"items_per_page":50,"total_items":14467,"items":[{"id":7501,"title":"梅林寺ティーハウス","architect":"菊竹清訓","year":1958.0,"address":"福岡県久留米市京町209-24","latitude":33.32352066040039,"longitude":130.49847412109375,"category":"カフェ","big_category":"商業施設","description":"","image_url":"","tags":"Ver2.50(2018年5月)の追加建築","prefecture":"福岡","contractor":"","structural_designer":"","landscape_designer":"","shinkenchiku_url":""},{"id":7502,"title":"松本伸理容室","architect":"菊竹清訓","year":1965.0,"address":"東京都新宿区西早稲田1-13-2","latitude":35.71135330200195,"longitude":139.7213897705078,"category":"店舗","big_category":"商業施設","description":"","image_url":"","tags":"Ver2.50(2018年5月)の追加建築","prefecture":"東京","contractor":"","structural_designer":"","landscape_designer":"","shinkenchiku_url":""},{"id":7503,"title":"板橋区立板橋保育園","architect":"菊竹清訓","year":1967.0,"address":"東京都板橋区大和町36-4","latitude":35.75943374633789,"longitude":139.7050018310547,"category":"幼稚園","big_category":"教育","description":"","image_url":"","tags":"Ver2.50(2018年5月)の追加建築","prefecture":"東京","contractor":"","structural_designer":"","landscape_designer":"","shinkenchiku_url":""},{"id":7504,"title":"京都信用金庫 城陽支店","architect":"菊竹清訓","year":1971.0,"address":"京都府城陽市平川室木91-4","latitude":34.868492126464844,"longitude":135.77723693847656,"category":"金融機関","big_category":"企業施設","description":"","image_url":"","tags":"Ver2.50(2018年5月)の追加建築","prefecture":"京都","contractor":"","structural_designer":"","landscape_designer":"","shinkenchiku_url":""},{"id":7505,"title":"スルガ銀行キャンパスヘブン 旧駿河銀行情報センター","architect":"菊竹清訓","year":1971.0,"address":"静岡県駿東郡長泉町東野500-12","latitude":35.168338775634766,"longitude":138.87608337402344,"category":"低層オフィス/金融機関","big_category":"企業施設,企業施設","description":"","image_url":"","tags":"Ver2.50(2018年5月)の追加建築","prefecture":"静岡","contractor":"","structural_designer":"","landscape_designer":"","shinkenchiku_url":""},{"id":7506,"title":"京都信用金庫 西陣支店","architect":"菊竹清訓","year":1972.0,"address":"京都府京都市上京区千本五辻下上善寺108","latitude":35.03020095825195,"longitude":135.74266052246094,"category":"金融機関","big_category":"企業施設","description":"","image_url":"","tags":"Ver2.50(2018年5月)の追加建築","prefecture":"京都","contractor":"","structural_designer":"","landscape_designer":"","shinkenchiku_url":""},{"id":7507,"title":"京都信用金庫 北山支店","architect":"菊竹清訓+清水建設","year":1974.0,"address":"京都府京都市北区上賀茂岩ケ垣内町105","latitude":35.05200958251953,"longitude":135.7669677734375,"category":"金融機関","big_category":"企業施設","description":"2023年清水建設により大規模改修。菊竹清訓の常設展示コーナー","image_url":"","tags":"Ver2.50(2018年5月)の追加建築","prefecture":"京都","contractor":"","structural_designer":"","landscape_designer":"","shinkenchiku_url":""},{"id":7508,"title":"しがらきの森カントリークラブ レストラン 旧紫香楽国際カントリークラブハウス","architect":"菊竹清訓","year":1974.0,"address":"滋賀県甲賀市信楽町長野1532-2","latitude":34.892433166503906,"longitude":136.0503387451172,"category":"クラブハウス","big_category":"レジャー施設","description":"","image_url":"","tags":"Ver2.50(2018年5月)の追加建築","prefecture":"滋賀","contractor":"","structural_designer":"","landscape_designer":"","shinkenchiku_url":""},{"id":7509,"title":"京都信用金庫 田辺支店","architect":"菊竹清訓","year":1975.0,"address":"京都府京田辺市興戸東垣内10-1","latitude":34.80992126464844,"longitude":135.7740936279297,"category":"金融機関","big_category":"企業施設","description":"解体","image_url":"","tags":"Ver2.50(2018年5月)の追加建築","prefecture":"京都","contractor":"","structural_designer":"","landscape_designer":"","shinkenchiku_url":""},{"id":7510,"title":"徳雲寺 本堂","architect":"菊竹清訓","year":1977.0,"address":"福岡県久留米市寺町66","latitude":33.319496154785156,"longitude":130.5213165283203,"category":"寺院","big_category":"宗教","description":"","image_url":"","tags":"Ver2.50(2018年5月)の追加建築","prefecture":"福岡","contractor":"","structural_designer":"","landscape_designer":"","shinkenchiku_url":""},{"id":7511,"title":"京都信用金庫 嵯峨支店","architect":"菊竹清訓","year":1978.0,"address":"京都府京都市右京区嵯峨朝日町30-2","latitude":35.01453399658203,"longitude":135.6887969970703,"category":"金融機関","big_category":"企業施設","description":"","image_url":"","tags":"Ver2.50(2018年5月)の追加建築","prefecture":"京都","contractor":"","structural_designer":"","landscape_designer":"","shinkenchiku_url":""},{"id":7512,"title":"京都信用金庫 北山科支店","architect":"菊竹清訓","year":1979.0,"address":"京都府京都市山科区厨子奥若林町67","latitude":34.98684310913086,"longitude":135.81158447265625,"category":"金融機関","big_category":"企業施設","description":"","image_url":"","tags":"Ver2.50(2018年5月)の追加建築","prefecture":"京都","contractor":"","structural_designer":"","landscape_designer":"","shinkenchiku_url":""},{"id":7513,"title":"京都信用金庫 六地蔵支店","architect":"菊竹清訓","year":1976.0,"address":"京都府京都市伏見区桃山町西尾41-6","latitude":34.934715270996094,"longitude":135.79444885253906,"category":"金融機関","big_category":"企業施設","description":"","image_url":"","tags":"Ver2.50(2018年5月)の追加建築","prefecture":"京都","contractor":"","structural_designer":"","landscape_designer":"","shinkenchiku_url":""},{"id":7514,"title":"京都信用金庫 西山科支店","architect":"菊竹清訓","year":1980.0,"address":"京都府京都市山科区川田土仏23-2","latitude":34.97726058959961,"longitude":135.79751586914062,"category":"金融機関","big_category":"企業施設","description":"","image_url":"","tags":"Ver2.50(2018年5月)の追加建築","prefecture":"京都","contractor":"","structural_designer":"","landscape_designer":"","shinkenchiku_url":""},{"id":7515,"title":"京都信用金庫 壬生支店","architect":"菊竹清訓","year":1980.0,"address":"京都府京都市中京区壬生森前町2","latitude":35.00337600708008,"longitude":135.73904418945312,"category":"金融機関","big_category":"企業施設","description":"","image_url":"","tags":"Ver2.50(2018年5月)の追加建築","prefecture":"京都","contractor":"","structural_designer":"","landscape_designer":"","shinkenchiku_url":""},{"id":7516,"title":"京都信用金庫 洛西支店","architect":"菊竹清訓","year":1980.0,"address":"京都府京都市西京区大枝北福西町3-2-2","latitude":34.959590911865234,"longitude":135.68275451660156,"category":"金融機関","big_category":"企業施設","description":"","image_url":"","tags":"Ver2.50(2018年5月)の追加建築","prefecture":"京都","contractor":"","structural_designer":"","landscape_designer":"","shinkenchiku_url":""},{"id":7517,"title":"京都信用金庫 丸太町支店","architect":"菊竹清訓","year":1981.0,"address":"京都府京都市上京区油小路丸太町上米屋301-1","latitude":35.017494201660156,"longitude":135.7535400390625,"category":"金融機関","big_category":"企業施設","description":"","image_url":"","tags":"Ver2.50(2018年5月)の追加建築","prefecture":"京都","contractor":"","structural_designer":"","landscape_designer":"","shinkenchiku_url":""},{"id":7518,"title":"京都信用金庫 常盤支店","architect":"菊竹清訓","year":1982.0,"address":"京都府京都市右京区太秦開日町4-1","latitude":35.02111053466797,"longitude":135.698486328125,"category":"金融機関","big_category":"企業施設","description":"","image_url":"","tags":"Ver2.50(2018年5月)の追加建築","prefecture":"京都","contractor":"","structural_designer":"","landscape_designer":"","shinkenchiku_url":""},{"id":7519,"title":"京都信用金庫 物集女支店","architect":"菊竹清訓","year":1982.0,"address":"京都府京都市西京区山田中吉見町12-2","latitude":34.982398986816406,"longitude":135.69284057617188,"category":"金融機関","big_category":"企業施設","description":"","image_url":"","tags":"Ver2.50(2018年5月)の追加建築","prefecture":"京都","contractor":"","structural_designer":"","landscape_designer":"","shinkenchiku_url":""},{"id":7520,"title":"京都信用金庫 三条支店","architect":"菊竹清訓","year":1986.0,"address":"京都府京都市中京区三条通釜座西入釜座町11","latitude":35.00870895385742,"longitude":135.7557373046875,"category":"金融機関","big_category":"企業施設","description":"","image_url":"","tags":"Ver2.50(2018年5月)の追加建築","prefecture":"京都","contractor":"","structural_designer":"","landscape_designer":"","shinkenchiku_url":""},{"id":7521,"title":"京都信用金庫 樫原支店","architect":"菊竹清訓","year":1987.0,"address":"京都府京都市西京区樫原口戸1-48","latitude":34.97167205810547,"longitude":135.69430541992188,"category":"金融機関","big_category":"企業施設","description":"","image_url":"","tags":"Ver2.50(2018年5月)の追加建築","prefecture":"京都","contractor":"","structural_designer":"","landscape_designer":"","shinkenchiku_url":""},{"id":7522,"title":"福岡市庁舎","architect":"菊竹清訓","year":1988.0,"address":"福岡県福岡市中央区天神1-8-1","latitude":33.59014129638672,"longitude":130.4016876220703,"category":"庁舎","big_category":"公共施設","description":"","image_url":"","tags":"Ver2.50(2018年5月)の追加建築","prefecture":"福岡","contractor":"","structural_designer":"","landscape_designer":"","shinkenchiku_url":""},{"id":7523,"title":"京都信用金庫 東山支店","architect":"菊竹清訓","year":1988.0,"address":"京都府京都市東山区泉涌寺雀ケ森町3-4","latitude":34.982479095458984,"longitude":135.77346801757812,"category":"金融機関","big_category":"企業施設","description":"","image_url":"","tags":"Ver2.50(2018年5月)の追加建築","prefecture":"京都","contractor":"","structural_designer":"","landscape_designer":"","shinkenchiku_url":""},{"id":7524,"title":"聖三一幼稚園","architect":"設計組織DNA","year":2018.0,"address":"京都府京都市中京区聚楽廻中町45-1","latitude":35.017581939697266,"longitude":135.7406463623047,"category":"幼稚園","big_category":"教育","description":"","image_url":"","tags":"Ver2.50(2018年5月)の追加建築","prefecture":"京都","contractor":"","structural_designer":"","landscape_designer":"","shinkenchiku_url":""},{"id":7525,"title":"奏 ウッドテックキムラ本社屋","architect":"設計組織DNA","year":2015.0,"address":"京都府城陽市枇杷庄島ノ宮44-2","latitude":34.8380012512207,"longitude":135.7733612060547,"category":"低層オフィス","big_category":"企業施設","description":"","image_url":"","tags":"Ver2.50(2018年5月)の追加建築","prefecture":"京都","contractor":"","structural_designer":"","landscape_designer":"","shinkenchiku_url":""},{"id":7526,"title":"APARTMENT 山王","architect":"川辺直哉","year":2018.0,"address":"東京都大田区山王1-18-10","latitude":35.5937614440918,"longitude":139.72654724121094,"category":"集合住宅","big_category":"住宅","description":"","image_url":"","tags":"Ver2.50(2018年5月)の追加建築","prefecture":"東京","contractor":"","structural_designer":"","landscape_designer":"","shinkenchiku_url":""},{"id":7527,"title":"on the 美一","architect":"キューブデザイン","year":2015.0,"address":"新潟県佐渡市河原田諏訪町207-76","latitude":38.00210952758789,"longitude":138.31495666503906,"category":"ホテル/住宅/レストラン","big_category":"宿泊,住宅,商業施設","description":"","image_url":"","tags":"Ver2.50(2018年5月)の追加建築","prefecture":"新潟","contractor":"","structural_designer":"","landscape_designer":"","shinkenchiku_url":""},{"id":7528,"title":"frank's ciffon＆cafe","architect":"キューブデザイン","year":2017.0,"address":"新潟県北区石動1-17-6","latitude":37.92123031616211,"longitude":139.21270751953125,"category":"店舗","big_category":"商業施設","description":"","image_url":"","tags":"Ver2.50(2018年5月)の追加建築","prefecture":"新潟","contractor":"","structural_designer":"","landscape_designer":"","shinkenchiku_url":""},{"id":7529,"title":"ブロックイースト","architect":"伊丹潤","year":1992.0,"address":"東京都港区世田谷区羽根木2-26-2","latitude":35.66583251953125,"longitude":139.6575164794922,"category":"集合住宅","big_category":"住宅","description":"","image_url":"","tags":"Ver2.50(2018年5月)の追加建築","prefecture":"東京","contractor":"","structural_designer":"","landscape_designer":"","shinkenchiku_url":""},{"id":7530,"title":"boy Tokyo","architect":"トラフ建築設計事務所","year":2018.0,"address":"東京都渋谷区神宮前2-18","latitude":35.67280578613281,"longitude":139.70947265625,"category":"美容院","big_category":"商業施設","description":"","image_url":"","tags":"Ver2.50(2018年5月)の追加建築","prefecture":"東京","contractor":"","structural_designer":"","landscape_designer":"","shinkenchiku_url":""},{"id":7531,"title":"熊本県医師会館","architect":"今村雅樹+伊藤喜三郎建築研究所","year":2017.0,"address":"熊本県熊本市中央区花畑町1-13","latitude":32.802974700927734,"longitude":130.7063446044922,"category":"組合施設","big_category":"公共施設","description":"","image_url":"","tags":"Ver2.50(2018年5月)の追加建築","prefecture":"熊本","contractor":"","structural_designer":"","landscape_designer":"","shinkenchiku_url":""},{"id":7532,"title":"セキスイハイムミュージアム栃木","architect":"AIS総合設計","year":2017.0,"address":"栃木県宇都宮市東宿郷5-4-1","latitude":36.55830764770508,"longitude":139.91233825683594,"category":"博物館","big_category":"ミュージアム","description":"最寄りのセキスイハイム展示場で要来場予約","image_url":"","tags":"Ver2.50(2018年5月)の追加建築","prefecture":"栃木","contractor":"","structural_designer":"","landscape_designer":"","shinkenchiku_url":""},{"id":7533,"title":"トランク","architect":"マウントフジアーキテクツスタジオ+トラフ建築設計事務所+安宅設計","year":2017.0,"address":"東京都渋谷区神宮前5-31","latitude":35.66424560546875,"longitude":139.70388793945312,"category":"ホテル/店舗","big_category":"宿泊,商業施設","description":"マウントフジアーキテクツスタジオがデザイン監修、店舗デザインをトラフが担当","image_url":"","tags":"Ver2.50(2018年5月)の追加建築","prefecture":"東京","contractor":"","structural_designer":"","landscape_designer":"","shinkenchiku_url":""},{"id":7534,"title":"安曇野ちひろ公園 トットちゃん広場 体験交流施設","architect":"内藤廣","year":2016.0,"address":"長野県北安曇郡松川村（その他）-3358-24","latitude":36.415985107421875,"longitude":137.8426971435547,"category":"公園/広場/博物館","big_category":"レジャー施設,文化施設,ミュージアム","description":"","image_url":"","tags":"Ver2.50(2018年5月)の追加建築","prefecture":"長野","contractor":"","structural_designer":"","landscape_designer":"","shinkenchiku_url":""},{"id":7535,"title":"レイモンド元住吉保育園","architect":"バハティ一級建築士事務所","year":2018.0,"address":"神奈川県川崎市中原区木月住吉町2-24","latitude":35.566898345947266,"longitude":139.6568145751953,"category":"幼稚園","big_category":"教育","description":"","image_url":"","tags":"Ver2.50(2018年5月)の追加建築","prefecture":"神奈川","contractor":"","structural_designer":"","landscape_designer":"","shinkenchiku_url":""},{"id":7536,"title":"富岡商工会議所会館","architect":"手塚建築研究所","year":2018.0,"address":"群馬県富岡市富岡1121-1","latitude":36.258522033691406,"longitude":138.89013671875,"category":"組合施設","big_category":"公共施設","description":"","image_url":"","tags":"Ver2.50(2018年5月)の追加建築,新建築2018年10月号","prefecture":"群馬","contractor":"","structural_designer":"","landscape_designer":"","shinkenchiku_url":""},{"id":7537,"title":"赤松防災拠点施設","architect":"曽我部昌史+吉岡寛之+マチデザイン+長谷川明","year":2017.0,"address":"徳島県海部郡美波町赤松阿地屋48","latitude":33.775390625,"longitude":134.49893188476562,"category":"公共施設","big_category":"公共施設","description":"","image_url":"","tags":"Ver2.50(2018年5月)の追加建築","prefecture":"徳島","contractor":"","structural_designer":"","landscape_designer":"","shinkenchiku_url":""},{"id":7538,"title":"勝沼のワイナリー 白百合醸造","architect":"吉岡寛之","year":2012.0,"address":"山梨県甲州市勝沼町等々力878-2","latitude":35.6646842956543,"longitude":138.7082977294922,"category":"店舗/レストラン","big_category":"商業施設,商業施設","description":"","image_url":"","tags":"Ver2.50(2018年5月)の追加建築","prefecture":"山梨","contractor":"","structural_designer":"","landscape_designer":"","shinkenchiku_url":""},{"id":7539,"title":"富士スピードウェイレストラン ORIZURU","architect":"大成建設","year":2005.0,"address":"静岡県駿東郡小山町中日向694","latitude":35.37145233154297,"longitude":138.92860412597656,"category":"レストラン","big_category":"商業施設","description":"","image_url":"","tags":"Ver2.50(2018年5月)の追加建築,東京2020オリンピック競技会場","prefecture":"静岡","contractor":"","structural_designer":"","landscape_designer":"","shinkenchiku_url":""},{"id":7540,"title":"近畿産業信用組合 難波支店","architect":"高松伸","year":2010.0,"address":"大阪府大阪市中央区道頓堀2-2-4","latitude":34.668296813964844,"longitude":135.5000457763672,"category":"オフィスビル/公共施設","big_category":"企業施設,公共施設","description":"","image_url":"","tags":"Ver2.50(2018年5月)の追加建築","prefecture":"大阪","contractor":"","structural_designer":"","landscape_designer":"","shinkenchiku_url":""},{"id":7541,"title":"ARK 仁科歯科医院","architect":"高松伸","year":1983.0,"address":"京都府京都市伏見区桃山町丹後10-4","latitude":34.931297302246094,"longitude":135.7838134765625,"category":"個人医院","big_category":"医療施設","description":"","image_url":"","tags":"Ver2.50(2018年5月)の追加建築","prefecture":"京都","contractor":"","structural_designer":"","landscape_designer":"","shinkenchiku_url":""},{"id":7542,"title":"Pharaoh 浅野歯科医院","architect":"高松伸","year":1984.0,"address":"京都府京都市南区上鳥羽南唐戸町11","latitude":34.97148513793945,"longitude":135.7412567138672,"category":"個人医院","big_category":"医療施設","description":"","image_url":"","tags":"Ver2.50(2018年5月)の追加建築","prefecture":"京都","contractor":"","structural_designer":"","landscape_designer":"","shinkenchiku_url":""},{"id":7543,"title":"東京元赤坂ビル","architect":"高松伸","year":1991.0,"address":"東京都港区元赤坂1-1-16","latitude":35.677940368652344,"longitude":139.73440551757812,"category":"オフィスビル","big_category":"企業施設","description":"","image_url":"","tags":"Ver2.50(2018年5月)の追加建築","prefecture":"東京","contractor":"","structural_designer":"","landscape_designer":"","shinkenchiku_url":""},{"id":7544,"title":"YKK AP 岡山支店","architect":"高松伸","year":1993.0,"address":"岡山県岡山市南区西市103-4","latitude":34.63140869140625,"longitude":133.90223693847656,"category":"低層オフィス","big_category":"企業施設","description":"解体","image_url":"","tags":"Ver2.50(2018年5月)の追加建築","prefecture":"岡山","contractor":"","structural_designer":"","landscape_designer":"","shinkenchiku_url":""},{"id":7545,"title":"府中町ふれあい福祉センター","architect":"高松伸","year":1998.0,"address":"広島県安芸郡府中町浜田本町5-25","latitude":34.38864517211914,"longitude":132.5078582763672,"category":"福祉センター","big_category":"医療施設","description":"","image_url":"","tags":"Ver2.50(2018年5月)の追加建築","prefecture":"広島","contractor":"","structural_designer":"","landscape_designer":"","shinkenchiku_url":""},{"id":7546,"title":"横浜動物の森公園ズーラシア メインゲート","architect":"高松伸","year":1998.0,"address":"神奈川県横浜市旭区上白根町1175-1","latitude":35.494850158691406,"longitude":139.52650451660156,"category":"動植物園","big_category":"レジャー施設","description":"","image_url":"","tags":"Ver2.50(2018年5月)の追加建築","prefecture":"神奈川","contractor":"","structural_designer":"","landscape_designer":"","shinkenchiku_url":""},{"id":7547,"title":"ワコール本社ビル","architect":"高松伸","year":1999.0,"address":"京都府京都市南区吉祥院中島町29","latitude":34.97966766357422,"longitude":135.73048400878906,"category":"オフィスビル","big_category":"企業施設","description":"","image_url":"","tags":"Ver2.50(2018年5月)の追加建築","prefecture":"京都","contractor":"","structural_designer":"","landscape_designer":"","shinkenchiku_url":""},{"id":7548,"title":"俄","architect":"高松伸","year":2001.0,"address":"京都府京都市北区出雲路神楽町11-5","latitude":35.03372573852539,"longitude":135.76805114746094,"category":"低層オフィス","big_category":"企業施設","description":"ストリートビューの画像では解体中にも見えますが、詳細不明。とりあえず掲載しておきます","image_url":"","tags":"Ver2.50(2018年5月)の追加建築","prefecture":"京都","contractor":"","structural_designer":"","landscape_designer":"","shinkenchiku_url":""},{"id":7549,"title":"京都大学大学院 工学研究科 イノベーションプラザ","architect":"高松伸","year":2004.0,"address":"京都府京都市西京区御陵大原1-30","latitude":34.977447509765625,"longitude":135.68202209472656,"category":"大学","big_category":"教育","description":"","image_url":"","tags":"Ver2.50(2018年5月)の追加建築","prefecture":"京都","contractor":"","structural_designer":"","landscape_designer":"","shinkenchiku_url":""},{"id":7550,"title":"EH製菓・江久庵","architect":"高松伸","year":2006.0,"address":"大阪府堺市堺区北三国ヶ丘町1-2-36","latitude":34.57706069946289,"longitude":135.48867797851562,"category":"店舗","big_category":"商業施設","description":"","image_url":"","tags":"Ver2.50(2018年5月)の追加建築","prefecture":"大阪","contractor":"","structural_designer":"","landscape_designer":"","shinkenchiku_url":""}]}