{"page":186,"total_pages":290,"items_per_page":50,"total_items":14467,"items":[{"id":9251,"title":"東北大学 人間・環境系教育研究棟","architect":"日本設計+千葉学+東北大学施設部","year":2014.0,"address":"宮城県仙台市青葉区荒巻青葉6-6-06","latitude":38.25502395629883,"longitude":140.83847045898438,"category":"大学","big_category":"教育","description":"","image_url":"","tags":"Ver3.30(2020年2月)の追加建築","prefecture":"宮城","contractor":"","structural_designer":"","landscape_designer":"","shinkenchiku_url":""},{"id":9252,"title":"宮原キッズクリニック","architect":"阿部仁史","year":2006.0,"address":"埼玉県さいたま市北区宮原1-13-5","latitude":35.930809020996094,"longitude":139.61904907226562,"category":"個人医院","big_category":"医療施設","description":"","image_url":"","tags":"Ver3.30(2020年2月)の追加建築","prefecture":"埼玉","contractor":"","structural_designer":"","landscape_designer":"","shinkenchiku_url":""},{"id":9253,"title":"ひだまりデンタルクリニック","architect":"阿部仁史","year":2002.0,"address":"宮城県仙台市宮城野区岩切字三所南107-1","latitude":38.3014030456543,"longitude":140.94671630859375,"category":"個人医院","big_category":"医療施設","description":"","image_url":"","tags":"Ver3.30(2020年2月)の追加建築","prefecture":"宮城","contractor":"","structural_designer":"","landscape_designer":"","shinkenchiku_url":""},{"id":9254,"title":"佐々木義肢製作所","architect":"阿部仁史","year":2004.0,"address":"宮城県仙台市青葉区木町通2-3-3","latitude":38.27166748046875,"longitude":140.8643341064453,"category":"オフィスビル","big_category":"企業施設","description":"","image_url":"","tags":"Ver3.30(2020年2月)の追加建築","prefecture":"宮城","contractor":"","structural_designer":"","landscape_designer":"","shinkenchiku_url":""},{"id":9255,"title":"仙台市荒井市営住宅","architect":"阿部仁史","year":2004.0,"address":"宮城県仙台市若林区荒井7-1-1","latitude":38.2415771484375,"longitude":140.94541931152344,"category":"集合住宅","big_category":"住宅","description":"","image_url":"","tags":"Ver3.30(2020年2月)の追加建築","prefecture":"宮城","contractor":"","structural_designer":"","landscape_designer":"","shinkenchiku_url":""},{"id":9256,"title":"大岡山の集合住宅","architect":"黒川智之","year":2019.0,"address":"東京都大田区北千束3-36-13","latitude":35.60504913330078,"longitude":139.68502807617188,"category":"集合住宅","big_category":"住宅","description":"","image_url":"","tags":"Ver3.30(2020年2月)の追加建築","prefecture":"東京","contractor":"","structural_designer":"","landscape_designer":"","shinkenchiku_url":""},{"id":9257,"title":"東玉川の集合住宅","architect":"黒川智之","year":2020.0,"address":"東京都世田谷区東玉川2-6-6","latitude":35.592838287353516,"longitude":139.6754608154297,"category":"集合住宅","big_category":"住宅","description":"","image_url":"","tags":"Ver3.30(2020年2月)の追加建築","prefecture":"東京","contractor":"","structural_designer":"","landscape_designer":"","shinkenchiku_url":""},{"id":9258,"title":"ナインアワーズ名古屋駅","architect":"芦沢啓治","year":2020.0,"address":"愛知県名古屋市中村区名駅2-42-2","latitude":35.17451095581055,"longitude":136.88442993164062,"category":"ホテル","big_category":"宿泊","description":"","image_url":"","tags":"Ver3.30(2020年2月)の追加建築","prefecture":"愛知","contractor":"","structural_designer":"","landscape_designer":"","shinkenchiku_url":""},{"id":9259,"title":"ナインアワーズ蒲田","architect":"芦沢啓治","year":2018.0,"address":"東京都大田区蒲田5-24-4","latitude":35.562538146972656,"longitude":139.71966552734375,"category":"ホテル","big_category":"宿泊","description":"","image_url":"","tags":"Ver3.30(2020年2月)の追加建築","prefecture":"東京","contractor":"","structural_designer":"","landscape_designer":"","shinkenchiku_url":""},{"id":9260,"title":"ガルバナイズ ギャラリー","architect":"西田司","year":2016.0,"address":"宮城県石巻市中央2-4-3","latitude":38.43166732788086,"longitude":141.30825805664062,"category":"ギャラリー","big_category":"ミュージアム","description":"","image_url":"","tags":"Ver3.30(2020年2月)の追加建築","prefecture":"宮城","contractor":"","structural_designer":"","landscape_designer":"","shinkenchiku_url":""},{"id":9261,"title":"HAMA 1961","architect":"西田司","year":2017.0,"address":"東京都中央区日本橋浜町3-10-4","latitude":35.68437576293945,"longitude":139.78860473632812,"category":"テナントビル","big_category":"商業施設","description":"昭和36年竣工の倉庫をテナントビルへ改修","image_url":"","tags":"新建築2019年3月号,Ver3.30(2020年2月)の追加建築","prefecture":"東京","contractor":"","structural_designer":"","landscape_designer":"","shinkenchiku_url":""},{"id":9262,"title":"広野こども園","architect":"関・空間設計+藤野高志","year":2019.0,"address":"福島県双葉郡広野町中央台1-8","latitude":37.2120246887207,"longitude":140.99147033691406,"category":"幼稚園","big_category":"教育","description":"","image_url":"","tags":"Ver3.30(2020年2月)の追加建築","prefecture":"福島","contractor":"","structural_designer":"","landscape_designer":"","shinkenchiku_url":""},{"id":9263,"title":"プラス薬局みさと店","architect":"工藤浩平","year":2019.0,"address":"群馬県高崎市箕郷町矢原14-1","latitude":36.3982048034668,"longitude":138.962890625,"category":"医療施設/店舗","big_category":"医療施設,商業施設","description":"","image_url":"","tags":"Ver3.30(2020年2月)の追加建築,新建築2020年4月号,2022年日本建築学会 作品選集新人賞","prefecture":"群馬","contractor":"","structural_designer":"","landscape_designer":"","shinkenchiku_url":""},{"id":9264,"title":"箕郷児童センター いずみ","architect":"松本金彌","year":2008.0,"address":"群馬県高崎市箕郷町矢原14-1","latitude":36.398193359375,"longitude":138.96322631835938,"category":"児童施設","big_category":"教育","description":"","image_url":"","tags":"Ver3.30(2020年2月)の追加建築","prefecture":"群馬","contractor":"","structural_designer":"","landscape_designer":"","shinkenchiku_url":""},{"id":9265,"title":"箕郷いずみこども園","architect":"松本金彌","year":2014.0,"address":"群馬県高崎市箕郷町矢原14-1","latitude":36.39865493774414,"longitude":138.96299743652344,"category":"幼稚園","big_category":"教育","description":"","image_url":"","tags":"Ver3.30(2020年2月)の追加建築","prefecture":"群馬","contractor":"","structural_designer":"","landscape_designer":"","shinkenchiku_url":""},{"id":9266,"title":"高崎天使幼稚園","architect":"松本金彌","year":2017.0,"address":"群馬県高崎市矢中町159-1","latitude":36.31037139892578,"longitude":139.04986572265625,"category":"幼稚園","big_category":"教育","description":"","image_url":"","tags":"Ver3.30(2020年2月)の追加建築","prefecture":"群馬","contractor":"","structural_designer":"","landscape_designer":"","shinkenchiku_url":""},{"id":9267,"title":"日本化学産業 総合研究所","architect":"岸和郎","year":2019.0,"address":"埼玉県草加市中根1-28-13","latitude":35.84893035888672,"longitude":139.80331420898438,"category":"研究施設","big_category":"教育","description":"","image_url":"","tags":"Ver3.30(2020年2月)の追加建築","prefecture":"埼玉","contractor":"","structural_designer":"","landscape_designer":"","shinkenchiku_url":""},{"id":9268,"title":"十番コアビルII","architect":"TNA","year":2019.0,"address":"東京都港区麻布十番3-7-3","latitude":35.6538200378418,"longitude":139.7350616455078,"category":"オフィスビル","big_category":"企業施設","description":"","image_url":"","tags":"Ver3.30(2020年2月)の追加建築,新建築2020年5月号","prefecture":"東京","contractor":"","structural_designer":"","landscape_designer":"","shinkenchiku_url":""},{"id":9269,"title":"アニエスベー渋谷店","architect":"谷尻誠","year":2019.0,"address":"東京都渋谷区神宮前6-19-14","latitude":35.66336441040039,"longitude":5027379200.0,"category":"店舗/カフェ","big_category":"商業施設,商業施設","description":"","image_url":"","tags":"Ver3.30(2020年2月)の追加建築","prefecture":"東京","contractor":"セットアップ","structural_designer":"","landscape_designer":"","shinkenchiku_url":""},{"id":9270,"title":"天理大学附属天理図書館","architect":"坂静雄+武田五一","year":1930.0,"address":"奈良県天理市杣之内町1050","latitude":34.59467315673828,"longitude":135.84625244140625,"category":"大学/図書館","big_category":"教育,文化施設","description":"坂静雄設計とされているが武田五一の案を踏襲した可能性もあるという記述があるため念のため両者を併記しました","image_url":"","tags":"Ver3.30(2020年2月)の追加建築","prefecture":"奈良","contractor":"","structural_designer":"","landscape_designer":"","shinkenchiku_url":""},{"id":9271,"title":"天理大学1号棟 旧天理外国語学校本館","architect":"武田五一+岩崎平太郎","year":1926.0,"address":"奈良県天理市杣之内町917","latitude":34.594181060791016,"longitude":135.8449249267578,"category":"大学","big_category":"教育","description":"","image_url":"","tags":"Ver3.30(2020年2月)の追加建築","prefecture":"奈良","contractor":"","structural_designer":"","landscape_designer":"","shinkenchiku_url":""},{"id":9272,"title":"天理大学 創設者記念館 若江の家","architect":"あめりか屋","year":1924.0,"address":"奈良県天理市杣之内町917","latitude":34.593780517578125,"longitude":135.8440399169922,"category":"洋館","big_category":"近代建築/遺産","description":"1955年移築","image_url":"","tags":"Ver3.30(2020年2月)の追加建築","prefecture":"奈良","contractor":"","structural_designer":"","landscape_designer":"","shinkenchiku_url":""},{"id":9273,"title":"天理高等学校 旧天理中学校","architect":"内田祥三","year":1932.0,"address":"奈良県天理市杣之内町1260","latitude":34.59546661376953,"longitude":135.84263610839844,"category":"学校","big_category":"教育","description":"","image_url":"","tags":"Ver3.30(2020年2月)の追加建築","prefecture":"奈良","contractor":"","structural_designer":"","landscape_designer":"","shinkenchiku_url":""},{"id":9274,"title":"TIMERの宿","architect":"高木正三郎","year":2018.0,"address":"佐賀県西松浦郡有田町下内野2440-4","latitude":33.200843811035156,"longitude":129.843505859375,"category":"住宅/コテージ","big_category":"住宅,宿泊","description":"宿泊可能","image_url":"","tags":"Ver3.30(2020年2月)の追加建築","prefecture":"佐賀","contractor":"","structural_designer":"","landscape_designer":"","shinkenchiku_url":""},{"id":9275,"title":"SJ SuiJinビル","architect":"塩塚隆生","year":2018.0,"address":"大分県佐伯市常盤西町9-16","latitude":32.9644775390625,"longitude":131.90065002441406,"category":"店舗/住宅","big_category":"商業施設,住宅","description":"","image_url":"","tags":"Ver3.30(2020年2月)の追加建築","prefecture":"大分","contractor":"","structural_designer":"","landscape_designer":"","shinkenchiku_url":""},{"id":9276,"title":"カモシヤ 円居","architect":"エムエースタイル建築計画","year":2019.0,"address":"静岡県静岡市葵区研屋町57-2","latitude":34.975807189941406,"longitude":138.3768768310547,"category":"店舗/住宅","big_category":"商業施設,住宅","description":"料理教室","image_url":"","tags":"Ver3.30(2020年2月)の追加建築","prefecture":"静岡","contractor":"","structural_designer":"","landscape_designer":"","shinkenchiku_url":""},{"id":9277,"title":"浜松磐田信用金庫 きらりタウン支店","architect":"日建設計","year":2013.0,"address":"静岡県浜松市浜北区染地台3-32-19","latitude":34.792327880859375,"longitude":137.7457733154297,"category":"金融機関","big_category":"企業施設","description":"","image_url":"","tags":"Ver3.30(2020年2月)の追加建築","prefecture":"静岡","contractor":"","structural_designer":"","landscape_designer":"","shinkenchiku_url":""},{"id":9278,"title":"あそのびハウス 塩田有紀建築設計事務所","architect":"塩田有紀+塩田哲也","year":2018.0,"address":"愛知県名古屋市名東本町29","latitude":35.1634635925293,"longitude":136.99203491210938,"category":"住宅/低層オフィス","big_category":"住宅,企業施設","description":"","image_url":"","tags":"Ver3.30(2020年2月)の追加建築","prefecture":"愛知","contractor":"","structural_designer":"","landscape_designer":"","shinkenchiku_url":""},{"id":9279,"title":"熊久のいえ ヒロ美容室","architect":"佐野健太","year":2019.0,"address":"埼玉県熊谷市久下1765-1","latitude":36.130821228027344,"longitude":139.4003143310547,"category":"店舗/住宅","big_category":"商業施設,住宅","description":"","image_url":"","tags":"Ver3.30(2020年2月)の追加建築","prefecture":"埼玉","contractor":"","structural_designer":"","landscape_designer":"","shinkenchiku_url":""},{"id":9280,"title":"半麦ハット","architect":"板坂留五+西澤徹夫","year":2019.0,"address":"住所不明","latitude":0.0,"longitude":0.0,"category":"店舗/住宅","big_category":"商業施設,住宅","description":"","image_url":"","tags":"Ver3.30(2020年2月)の追加建築","prefecture":"","contractor":"","structural_designer":"","landscape_designer":"","shinkenchiku_url":""},{"id":9281,"title":"三保松原の住宅と店舗 Casetta di Shu","architect":"山田誠一","year":2019.0,"address":"静岡県静岡市清水区三保1333-1","latitude":34.995513916015625,"longitude":138.5222625732422,"category":"カフェ/住宅","big_category":"商業施設,住宅","description":"","image_url":"","tags":"Ver3.30(2020年2月)の追加建築","prefecture":"静岡","contractor":"","structural_designer":"","landscape_designer":"","shinkenchiku_url":""},{"id":9282,"title":"5つの光庭をもつ家 ハコプラスデザイン事務所","architect":"ハコプラスデザイン","year":2009.0,"address":"福島県いわき市平谷川瀬2-6-4","latitude":37.045963287353516,"longitude":140.89344787597656,"category":"住宅/低層オフィス","big_category":"住宅,企業施設","description":"","image_url":"","tags":"Ver3.30(2020年2月)の追加建築","prefecture":"福島","contractor":"","structural_designer":"","landscape_designer":"","shinkenchiku_url":""},{"id":9283,"title":"いわきワイナリー ガーデンテラス&ショップ","architect":"ハコプラスデザイン","year":2018.0,"address":"福島県いわき市好間町中好間半貫沢34-72","latitude":37.05474090576172,"longitude":140.84095764160156,"category":"醸造所/カフェ","big_category":"商業施設,商業施設","description":"","image_url":"","tags":"Ver3.30(2020年2月)の追加建築","prefecture":"福島","contractor":"","structural_designer":"","landscape_designer":"","shinkenchiku_url":""},{"id":9284,"title":"戎町地区津波避難タワー","architect":"マチデザイン+長谷川明","year":2019.0,"address":"徳島県海部郡美波町日和佐浦29-2","latitude":33.73197937011719,"longitude":134.5373077392578,"category":"公共施設","big_category":"公共施設","description":"","image_url":"","tags":"Ver3.30(2020年2月)の追加建築","prefecture":"徳島","contractor":"","structural_designer":"","landscape_designer":"","shinkenchiku_url":""},{"id":9285,"title":"GREEN SPRINGS N棟 立川ステージガーデン","architect":"山下設計","year":2020.0,"address":"東京都立川市緑町3-3 N1","latitude":35.70497512817383,"longitude":139.411865234375,"category":"ホール・劇場","big_category":"文化施設","description":"","image_url":"","tags":"Ver3.30(2020年2月)の追加建築,新建築2020年5月号","prefecture":"東京","contractor":"大林組","structural_designer":"","landscape_designer":"","shinkenchiku_url":""},{"id":9286,"title":"GREEN SPRINGS W棟・E棟 ソラノホテル／PLAY! MUSEUM","architect":"山下設計+大林組+手塚建築研究所","year":2020.0,"address":"東京都立川市緑町3-1 W1","latitude":35.70268630981445,"longitude":139.4114990234375,"category":"ホテル/モール/美術館","big_category":"宿泊,商業施設,ミュージアム","description":"東西各3棟、合計6棟。W3棟にPlay! Museum、内装設計を手塚建築研究所。","image_url":"","tags":"Ver3.30(2020年2月)の追加建築,新建築2020年5月号","prefecture":"東京","contractor":"大林組","structural_designer":"","landscape_designer":"","shinkenchiku_url":""},{"id":9287,"title":"GREEN SPRINGS S棟 多摩信用金庫 新本店","architect":"清水建設","year":2020.0,"address":"東京都立川市緑町3-4","latitude":35.70217514038086,"longitude":139.411865234375,"category":"金融機関/美術館","big_category":"企業施設,ミュージアム","description":"","image_url":"","tags":"Ver3.30(2020年2月)の追加建築,新建築2020年5月号","prefecture":"東京","contractor":"","structural_designer":"","landscape_designer":"","shinkenchiku_url":""},{"id":9288,"title":"高知市新庁舎","architect":"日建設計+上田堯世","year":2020.0,"address":"高知県高知市本町5-1-45","latitude":33.5587272644043,"longitude":133.53128051757812,"category":"庁舎","big_category":"公共施設","description":"","image_url":"","tags":"Ver3.30(2020年2月)の追加建築","prefecture":"高知","contractor":"","structural_designer":"","landscape_designer":"","shinkenchiku_url":""},{"id":9289,"title":"宮島口旅客ターミナル","architect":"乾久美子","year":2020.0,"address":"広島県廿日市市宮島口1-11-6","latitude":34.311275482177734,"longitude":132.3052215576172,"category":"港/モール","big_category":"インフラ,商業施設","description":"旅客ターミナルは2020年2月末開業予定。隣接地の商業施設ettoは4月開業予定","image_url":"","tags":"Ver3.30(2020年2月)の追加建築,新建築2020年11月号","prefecture":"広島","contractor":"","structural_designer":"","landscape_designer":"","shinkenchiku_url":""},{"id":9290,"title":"Land Chapel","architect":"隈研吾","year":2018.0,"address":"長崎県佐世保市鹿子前町740","latitude":33.163944244384766,"longitude":129.6810760498047,"category":"結婚式場","big_category":"宗教","description":"","image_url":"","tags":"Ver3.30(2020年2月)の追加建築","prefecture":"長崎","contractor":"","structural_designer":"","landscape_designer":"","shinkenchiku_url":""},{"id":9291,"title":"TOMONi保育園","architect":"高橋勝","year":2018.0,"address":"山口県周南市大字小松原1230-1","latitude":34.03617858886719,"longitude":131.99319458007812,"category":"幼稚園","big_category":"教育","description":"","image_url":"","tags":"Ver3.30(2020年2月)の追加建築","prefecture":"山口","contractor":"","structural_designer":"","landscape_designer":"","shinkenchiku_url":""},{"id":9292,"title":"HAG GARDEN ほしのさと kids","architect":"高橋勝","year":2018.0,"address":"山口県下松市生野屋南1-13","latitude":34.03112030029297,"longitude":131.87396240234375,"category":"幼稚園","big_category":"教育","description":"","image_url":"","tags":"Ver3.30(2020年2月)の追加建築,新建築2020年7月号","prefecture":"山口","contractor":"","structural_designer":"","landscape_designer":"","shinkenchiku_url":""},{"id":9293,"title":"ほしのさと day service center","architect":"高橋勝","year":2017.0,"address":"山口県下松市生野屋南1-13","latitude":34.03142547607422,"longitude":131.8741455078125,"category":"養護施設","big_category":"医療施設","description":"","image_url":"","tags":"Ver3.30(2020年2月)の追加建築,新建築2020年7月号","prefecture":"山口","contractor":"","structural_designer":"","landscape_designer":"","shinkenchiku_url":""},{"id":9294,"title":"THE SHARE HOTELS KUMU金沢","architect":"関祐介","year":2017.0,"address":"石川県金沢市上堤町2-40","latitude":36.568214416503906,"longitude":136.65403747558594,"category":"ホテル","big_category":"宿泊","description":"","image_url":"","tags":"Ver3.30(2020年2月)の追加建築","prefecture":"石川","contractor":"","structural_designer":"","landscape_designer":"","shinkenchiku_url":""},{"id":9295,"title":"姫路駅北口広場 眺望デッキ・サンクンガーデン","architect":"渡邉篤志","year":2014.0,"address":"兵庫県姫路市駅前町188-4","latitude":34.827388763427734,"longitude":134.69021606445312,"category":"広場/展望台","big_category":"文化施設,レジャー施設","description":"","image_url":"","tags":"Ver3.30(2020年2月)の追加建築","prefecture":"兵庫","contractor":"","structural_designer":"","landscape_designer":"","shinkenchiku_url":""},{"id":9296,"title":"出雲大社前駅縁結びスクエア休憩所","architect":"渡邉篤志","year":2012.0,"address":"島根県出雲市大社町杵築南1346-5","latitude":35.393245697021484,"longitude":132.68731689453125,"category":"観光施設/広場","big_category":"レジャー施設,文化施設","description":"","image_url":"","tags":"Ver3.30(2020年2月)の追加建築","prefecture":"島根","contractor":"","structural_designer":"","landscape_designer":"","shinkenchiku_url":""},{"id":9297,"title":"ますいいハウス ますいいリビングカンパニー川口本社","architect":"石山修武","year":2000.0,"address":"埼玉県川口市中青木3-2-5","latitude":35.8136100769043,"longitude":139.71734619140625,"category":"低層オフィス/住宅","big_category":"企業施設,住宅","description":"","image_url":"","tags":"Ver3.30(2020年2月)の追加建築","prefecture":"埼玉","contractor":"","structural_designer":"","landscape_designer":"","shinkenchiku_url":""},{"id":9298,"title":"○□△ハウス ","architect":"石井和紘","year":1987.0,"address":"東京都江東区潮見1-5-6","latitude":35.656558990478516,"longitude":139.81298828125,"category":"集合住宅","big_category":"住宅","description":"","image_url":"","tags":"Ver3.30(2020年2月)の追加建築","prefecture":"東京","contractor":"","structural_designer":"","landscape_designer":"","shinkenchiku_url":""},{"id":9299,"title":"在日カナダ大使館","architect":"レイモンド・モリヤマ+清水建設","year":1991.0,"address":"東京都港区赤坂7-3-38","latitude":35.673423767089844,"longitude":139.7282257080078,"category":"公共施設","big_category":"公共施設","description":"","image_url":"","tags":"Ver3.30(2020年2月)の追加建築","prefecture":"東京","contractor":"","structural_designer":"","landscape_designer":"","shinkenchiku_url":""},{"id":9300,"title":"定山渓ファーム ビューハウス","architect":"飯田善彦","year":2017.0,"address":"北海道札幌市南区定山渓832","latitude":42.93332290649414,"longitude":141.1478729248047,"category":"クラブハウス","big_category":"レジャー施設","description":"","image_url":"","tags":"Ver3.30(2020年2月)の追加建築","prefecture":"北海道","contractor":"","structural_designer":"","landscape_designer":"","shinkenchiku_url":""}]}