{"page":284,"total_pages":290,"items_per_page":50,"total_items":14467,"items":[{"id":14151,"title":"一宮寺 納骨堂 舎利羅","architect":"UA","year":2020.0,"address":"香川県高松市一宮町607","latitude":34.28609848022461,"longitude":134.02645874023438,"category":"寺院","description":"","image_url":""},{"id":14152,"title":"大法寺 納骨堂 ぴらみ堂","architect":"UA","year":2019.0,"address":"神奈川県綾瀬市深谷中3-14-20","latitude":35.430702209472656,"longitude":139.43630981445312,"category":"寺院","description":"","image_url":""},{"id":14153,"title":"佼成霊園 合祀墓","architect":"UA","year":2013.0,"address":"東京都東大和市桜が丘4-10","latitude":35.73430252075195,"longitude":139.41531372070312,"category":"霊園","description":"","image_url":""},{"id":14154,"title":"来迎寺 納骨堂","architect":"UA","year":2014.0,"address":"福岡県豊前市馬場834","latitude":33.612117767333984,"longitude":131.07557678222656,"category":"寺院","description":"","image_url":""},{"id":14155,"title":"落合歯科医院AODインプラントセンター","architect":"UA","year":2009.0,"address":"埼玉県秩父市相生町8-9","latitude":36.0060920715332,"longitude":139.0880889892578,"category":"個人医院","description":"","image_url":""},{"id":14156,"title":"東京芸術大学 大学美術館取手収蔵棟","architect":"ヨコミゾマコト","year":2024.0,"address":"茨城県取手市小文間5000","latitude":35.88391876220703,"longitude":140.1146697998047,"category":"美術館","description":"","image_url":""},{"id":14157,"title":"東京電力高圧鉄塔 エキスポール","architect":"黒川紀章","year":1985.0,"address":"茨城県つくば市御幸が丘9","latitude":36.06458282470703,"longitude":140.07456970214844,"category":"公共施設","description":"つくば万博の会場内に電気エネルギーのシンボルとして建設した鉄塔。デザイン監修：黒川紀章","image_url":""},{"id":14158,"title":"科博日本館シンボルタワー 科学の門","architect":"日建設計+久米設計+安井建築設計","year":1985.0,"address":"茨城県つくば市御幸が丘6","latitude":36.06623458862305,"longitude":140.07394409179688,"category":"広場/オブジェ","description":"","image_url":""},{"id":14159,"title":"愛宕山記念公園展望台","architect":"藤島亥治郎","year":1994.0,"address":"岩手県盛岡市愛宕下1-51","latitude":39.71331787109375,"longitude":141.16165161132812,"category":"展望台","description":"1962年に竣工した展望台を1994年に再設計","image_url":""},{"id":14160,"title":"盛岡聖堂孔子廟","architect":"葛西萬司","year":1936.0,"address":"岩手県盛岡市東中野日蔭山44","latitude":39.68684768676758,"longitude":141.1691436767578,"category":"霊園/寺院","description":"","image_url":""},{"id":14161,"title":"鹿島精一記念展望台","architect":"鹿島建設","year":1962.0,"address":"岩手県盛岡市川目第19地割80","latitude":39.69947052001953,"longitude":141.1832275390625,"category":"展望台","description":"","image_url":""},{"id":14162,"title":"結晶ビル","architect":"藤野高志","year":2023.0,"address":"埼玉県さいたま市南区別所3-4-1","latitude":35.85404968261719,"longitude":139.64749145507812,"category":"テナントビル","description":"","image_url":""},{"id":14163,"title":"辻のギャラリー OSCAAR MOULIGNE","architect":"魚谷繁礼","year":2023.0,"address":"京都府京都市北区紫野東野町1","latitude":35.04079818725586,"longitude":135.74403381347656,"category":"ギャラリー","description":"","image_url":""},{"id":14164,"title":"Olive LOUNGE 渋谷店","architect":"クライン・ダイサム・アーキテクツ","year":2024.0,"address":"東京都渋谷区宇田川町20-2 西武渋谷店B館 1/2F","latitude":35.66072463989258,"longitude":139.7002716064453,"category":"店舗/クラブハウス","description":"","image_url":""},{"id":14165,"title":"まちの保育園 南青山","architect":"津川恵理","year":2024.0,"address":"東京都港区南青山2-5-17 3F","latitude":35.67179489135742,"longitude":139.72274780273438,"category":"幼稚園","description":"","image_url":""},{"id":14166,"title":"ヤマニパッケージ社屋","architect":"ほとり建築事務所+魚谷剛紀","year":2023.0,"address":"岐阜県岐阜市清本町2-44","latitude":35.4077033996582,"longitude":136.7418212890625,"category":"低層オフィス","description":"","image_url":""},{"id":14167,"title":"名古屋シミズ富国生命ビル","architect":"清水建設","year":2024.0,"address":"愛知県名古屋市中区丸の内1-16-15","latitude":35.17328643798828,"longitude":136.89527893066406,"category":"オフィスビル","description":"","image_url":""},{"id":14168,"title":"神戸須磨シーワールド","architect":"竹中工務店","year":2024.0,"address":"兵庫県神戸市須磨区若宮町1-3-5","latitude":34.64388656616211,"longitude":135.12779235839844,"category":"水族館","description":"","image_url":""},{"id":14169,"title":"新井天神北野神社 拝殿","architect":"大石雅之","year":2018.0,"address":"東京都中野区新井4-14-3","latitude":35.715328216552734,"longitude":139.6663055419922,"category":"寺院","description":"","image_url":""},{"id":14170,"title":"ジャーランビル","architect":"宣卓","year":1999.0,"address":"岩手県盛岡駅前通り9-3","latitude":39.70228576660156,"longitude":141.1378936767578,"category":"テナントビル","description":"","image_url":""},{"id":14171,"title":"カトリック四ツ家教会","architect":"ヘルベルト・オーベルホルツァー+山添建築設計事務所","year":1978.0,"address":"岩手県盛岡市本町通2-12-25","latitude":39.707069396972656,"longitude":141.14845275878906,"category":"教会","description":"","image_url":""},{"id":14172,"title":"大慈寺 経蔵","architect":"葛西萬司","year":1927.0,"address":"岩手県盛岡市大慈寺町5–6","latitude":39.69378662109375,"longitude":141.15753173828125,"category":"寺院","description":"","image_url":""},{"id":14173,"title":"岩手医科大学 2号館 旧岩手医学専門学校附属医院","architect":"葛西萬司","year":1932.0,"address":"岩手県盛岡市内丸19-1","latitude":39.705238342285156,"longitude":141.1515655517578,"category":"大学/病院","description":"","image_url":""},{"id":14174,"title":"盛岡市中央公民館別館 旧南部家別邸","architect":"戸澤甚太郎+葛西萬司","year":1908.0,"address":"岩手県盛岡市愛宕町14","latitude":39.71065139770508,"longitude":141.16259765625,"category":"和風住宅/洋館","description":"設計監修：戸澤甚太郎","image_url":""},{"id":14175,"title":"蔵と倉 京料理 有馬 槻","architect":"川口裕人","year":2023.0,"address":"神奈川県川崎市宮前区有馬8-24","latitude":35.57320022583008,"longitude":139.5770263671875,"category":"古民家/料亭","description":"","image_url":""},{"id":14176,"title":"まちのコモンズとしての店舗 JINS そよら浜松西伊場店","architect":"o+h","year":2023.0,"address":"静岡県浜松市中区西伊場町78-2","latitude":34.69869613647461,"longitude":137.7043914794922,"category":"店舗","description":"","image_url":""},{"id":14177,"title":"ねをはす ホテルブック&カフェ","architect":"羽仁香介","year":2024.0,"address":"山口県下関市秋根西町2-7-2","latitude":34.00749206542969,"longitude":130.94497680664062,"category":"ホテル/店舗/レストラン","description":"","image_url":""},{"id":14178,"title":"横浜港シンボルタワー","architect":"国設計","year":1986.0,"address":"神奈川県横浜市中区本牧ふ頭1-16","latitude":35.43898391723633,"longitude":139.6896209716797,"category":"展望台/公共施設","description":"","image_url":""},{"id":14179,"title":"名古屋工業大学 正門","architect":"若山滋","year":1996.0,"address":"愛知県名古屋市昭和区御器所町","latitude":35.15631866455078,"longitude":136.9232940673828,"category":"大学","description":"","image_url":""},{"id":14180,"title":"蟻鱒鳶ル","architect":"岡啓輔","year":2024.0,"address":"東京都港区三田4-15","latitude":35.64576721191406,"longitude":139.74229431152344,"category":"住宅/オブジェ","description":"セルフビルドの鉄筋コンクリートビル","image_url":""},{"id":14181,"title":"PAL国際保育園@東京外大","architect":"ナフ・アーキテクト&デザイン","year":2022.0,"address":"東京都府中市朝日町3-11-11","latitude":35.67295837402344,"longitude":139.5225372314453,"category":"幼稚園","description":"","image_url":""},{"id":14182,"title":"神宮前駅西の商業施設 あつたnagAya","architect":"ナノメートルアーキテクチャー+池原健介+エイトデザイン","year":2024.0,"address":"愛知県名古屋市熱田区神宮3-6-34","latitude":35.12589645385742,"longitude":136.9116668701172,"category":"モール","description":"","image_url":""},{"id":14183,"title":"アクアイグニス仙台","architect":"平野信義","year":2020.0,"address":"宮城県仙台市若林区藤塚字松の西33-3","latitude":38.185115814208984,"longitude":140.95518493652344,"category":"温泉/モール","description":"","image_url":""},{"id":14184,"title":"深川えんみち","architect":"JAMZA","year":2024.0,"address":"東京都江東区富岡1-15-9","latitude":35.67219161987305,"longitude":139.7984161376953,"category":"児童施設/福祉センター","description":"","image_url":""},{"id":14185,"title":"久我山サウスゲートビル","architect":"佐々木龍一","year":2017.0,"address":"東京都杉並区久我山3-23","latitude":35.687076568603516,"longitude":139.599609375,"category":"テナントビル","description":"","image_url":""},{"id":14186,"title":"NANATSUJI SEVENWAYS Funtimelife蒲田南","architect":"佐々木龍一","year":2017.0,"address":"東京都大田区南蒲田2-23-9","latitude":35.55242156982422,"longitude":139.7229461669922,"category":"店舗/集合住宅","description":"","image_url":""},{"id":14187,"title":"シキズム","architect":"佐々木龍一","year":2020.0,"address":"埼玉県志木市本町5-24-21","latitude":35.823524475097656,"longitude":139.5755615234375,"category":"テナントビル","description":"","image_url":""},{"id":14188,"title":"ESCENARIO不動前","architect":"佐々木龍一","year":2019.0,"address":"東京都品川区小山1-3-9","latitude":35.622215270996094,"longitude":139.7123260498047,"category":"集合住宅","description":"","image_url":""},{"id":14189,"title":"池上の音楽複合プロジェクト IDEAREVE IKEGAMI","architect":"佐々木龍一","year":2021.0,"address":"東京都大田区池上1-30-23","latitude":35.57601547241211,"longitude":139.7084503173828,"category":"集合住宅/ホール・劇場","description":"","image_url":""},{"id":14190,"title":"ESCENARIO吉祥寺","architect":"佐々木龍一","year":2021.0,"address":"東京都武蔵野市吉祥寺南町2-10-12","latitude":35.702484130859375,"longitude":139.5825653076172,"category":"集合住宅","description":"","image_url":""},{"id":14191,"title":"ESCENARIO四谷坂町","architect":"佐々木龍一","year":2023.0,"address":"東京都新宿区四谷坂町12-10","latitude":35.691566467285156,"longitude":139.72596740722656,"category":"集合住宅","description":"","image_url":""},{"id":14192,"title":"ESCENARIO目黒花房山","architect":"佐々木龍一","year":2023.0,"address":"東京都品川区上大崎3-10-27","latitude":35.631248474121094,"longitude":139.7184295654297,"category":"集合住宅","description":"","image_url":""},{"id":14193,"title":"Rooftecture NK 中西金属工業 神戸工場","architect":"遠藤秀平","year":2021.0,"address":"兵庫県神戸市西区見津が丘7-5-3","latitude":34.731998443603516,"longitude":135.09170532226562,"category":"工場","description":"","image_url":""},{"id":14194,"title":"Rooftecture BS ブルースカイランドリートライアル四日市南店","architect":"遠藤秀平","year":2019.0,"address":"三重県四日市市小古曽東3-5-33","latitude":34.92323303222656,"longitude":136.58815002441406,"category":"店舗","description":"","image_url":""},{"id":14195,"title":"Rooftecture MS 南野商店 加美北事業所","architect":"遠藤秀平","year":null,"address":"大阪府大阪市平野区加美北4-8-24","latitude":34.63740921020508,"longitude":135.55874633789062,"category":"工場/低層オフィス","description":"","image_url":""},{"id":14196,"title":"Rooftecture KY JR甲南山手駅 北側駅前広場","architect":"遠藤秀平","year":2024.0,"address":"兵庫県神戸市東灘区森北町1-5","latitude":34.73076248168945,"longitude":135.29190063476562,"category":"広場/オブジェ","description":"","image_url":""},{"id":14197,"title":"Gravitecture I 出雲メディカルモール","architect":"遠藤秀平","year":2008.0,"address":"島根県出雲市今市町藤ヶ森2074","latitude":35.36204147338867,"longitude":132.75604248046875,"category":"個人医院","description":"","image_url":""},{"id":14198,"title":"いの町観光拠点施設 仁淀川にこにこ館","architect":"矢野建築設計事務所","year":2020.0,"address":"高知県吾川郡いの町波川1862-4","latitude":33.54814910888672,"longitude":133.41497802734375,"category":"観光施設","description":"","image_url":""},{"id":14199,"title":"はちくりはうす","architect":"ブルースタジオ+正木覚","year":2023.0,"address":"東京都目黒区五本木2-31-10","latitude":35.63551712036133,"longitude":139.68600463867188,"category":"養護施設","description":"","image_url":""},{"id":14200,"title":"西真岡アクセプトインターナショナルクリニック","architect":"伊藤潤一","year":2018.0,"address":"栃木県真岡市高勢町3-203-1","latitude":36.42705154418945,"longitude":139.98153686523438,"category":"個人医院","description":"","image_url":""}]}