{"page":283,"total_pages":290,"items_per_page":50,"total_items":14467,"items":[{"id":14101,"title":"ヒポの森","architect":"土屋毅​","year":2023.0,"address":"茨城県稲敷郡阿見町上長160-26","latitude":36.0096321105957,"longitude":140.20274353027344,"category":"公園","description":"","image_url":""},{"id":14102,"title":"AIM本社屋","architect":"土屋毅​","year":2022.0,"address":"千葉県船橋市市場4-16-2","latitude":35.70335006713867,"longitude":140.00091552734375,"category":"低層オフィス","description":"","image_url":""},{"id":14103,"title":"みのりナーサリー","architect":"土屋毅​","year":2021.0,"address":"静岡県牧之原市細江1000-1","latitude":34.748844146728516,"longitude":3406327296.0,"category":"幼稚園","description":"","image_url":""},{"id":14104,"title":"高円寺りとるぱんぷきんず","architect":"土屋毅​","year":2018.0,"address":"東京都杉並区高円寺北1-27-3","latitude":35.70832061767578,"longitude":139.6573028564453,"category":"幼稚園","description":"","image_url":""},{"id":14105,"title":"認定こども園 立正幼稚園 保育棟","architect":"土屋毅​","year":2019.0,"address":"埼玉県熊谷市楊井1748-2","latitude":36.108707427978516,"longitude":139.36813354492188,"category":"幼稚園","description":"","image_url":""},{"id":14106,"title":"ナーサリースクールT&Y本郷","architect":"土屋毅​","year":2017.0,"address":"神奈川県海老名市本郷2693","latitude":35.408653259277344,"longitude":139.3972930908203,"category":"幼稚園","description":"","image_url":""},{"id":14107,"title":"フィールズ三幸ビル","architect":"土屋毅​","year":2016.0,"address":"神奈川県海老名市扇町12-33","latitude":35.45664978027344,"longitude":139.38803100585938,"category":"集合住宅/テナントビル","description":"","image_url":""},{"id":14108,"title":"横浜銀行 海老名駅前支店","architect":"土屋毅​","year":2015.0,"address":"神奈川県海老名市扇町5-10","latitude":35.4550895690918,"longitude":139.38815307617188,"category":"金融機関","description":"","image_url":""},{"id":14109,"title":"西原りとるぱんぷきんずANNEX","architect":"土屋毅​","year":2014.0,"address":"東京都渋谷区西原2-47-19","latitude":35.67277908325195,"longitude":139.67779541015625,"category":"幼稚園","description":"","image_url":""},{"id":14110,"title":"ナーサリースクールT&Yこもれびの森","architect":"土屋毅​","year":2015.0,"address":"神奈川県相模原市南区西大沼3-5-8","latitude":35.544036865234375,"longitude":139.41355895996094,"category":"幼稚園","description":"","image_url":""},{"id":14111,"title":"HALHAUS三軒茶屋","architect":"土屋毅​","year":2011.0,"address":"東京都世田谷区上馬1-14-5","latitude":35.63766860961914,"longitude":139.66783142089844,"category":"集合住宅","description":"","image_url":""},{"id":14112,"title":"STAY玉の湯","architect":"松岡恭子","year":2023.0,"address":"大分県由布市湯布院町大字川上2711-1","latitude":33.26554870605469,"longitude":131.36456298828125,"category":"旅館/コテージ","description":"","image_url":""},{"id":14113,"title":"新北九州空港連絡橋","architect":"松岡恭子","year":2006.0,"address":"福岡県京都郡苅田町 新北九州空港連絡橋","latitude":33.822540283203125,"longitude":131.02101135253906,"category":"橋","description":"","image_url":""},{"id":14114,"title":"日田市竹田公園","architect":"松岡恭子","year":null,"address":"大分県日田市若宮町4","latitude":33.30876922607422,"longitude":130.938720703125,"category":"公園","description":"","image_url":""},{"id":14115,"title":"パルデ百道","architect":"松岡恭子","year":1998.0,"address":"福岡県福岡市早良区百道2-9-1","latitude":33.581302642822266,"longitude":130.3459014892578,"category":"集合住宅","description":"","image_url":""},{"id":14116,"title":"ディーズフェイス","architect":"松岡恭子","year":1998.0,"address":"福岡県福岡市中央区大名1-11-13","latitude":33.58705520629883,"longitude":130.39419555664062,"category":"テナントビル","description":"","image_url":""},{"id":14117,"title":"シーブリーズ大濠","architect":"松岡恭子","year":2002.0,"address":"福岡県福岡市中央区大濠1-9-12","latitude":33.5848274230957,"longitude":130.3731231689453,"category":"集合住宅","description":"","image_url":""},{"id":14118,"title":"カレスピラル","architect":"松岡恭子","year":2003.0,"address":"福岡県福岡市西区姪浜駅南1-4-18","latitude":33.582679748535156,"longitude":130.32553100585938,"category":"集合住宅","description":"","image_url":""},{"id":14119,"title":"テルツェット","architect":"松岡恭子","year":2004.0,"address":"福岡県福岡市中央区港2-12-16","latitude":33.59492111206055,"longitude":130.3794708251953,"category":"集合住宅","description":"","image_url":""},{"id":14120,"title":"DUO EAST & WEST","architect":"松岡恭子","year":2008.0,"address":"福岡県福岡市早良区西新5-15-15","latitude":33.58213424682617,"longitude":130.35569763183594,"category":"集合住宅","description":"","image_url":""},{"id":14121,"title":"ラカーサ","architect":"松岡恭子","year":2015.0,"address":"福岡市早良区城西2-8","latitude":33.579689025878906,"longitude":130.36289978027344,"category":"集合住宅","description":"","image_url":""},{"id":14122,"title":"ファンハウス札幌スタジオ","architect":"岩村和夫","year":1993.0,"address":"北海道札幌市南区芸術の森3-915-20","latitude":42.93397903442383,"longitude":141.3370361328125,"category":"低層オフィス","description":"","image_url":""},{"id":14123,"title":"深沢環境共生住宅","architect":"岩村和夫","year":1997.0,"address":"東京都世田谷区深沢4-17-1","latitude":35.61838912963867,"longitude":139.65357971191406,"category":"集合住宅/養護施設","description":"","image_url":""},{"id":14124,"title":"21世紀建設館 福島空港公園 管理棟","architect":"岩村和夫","year":2001.0,"address":"福島県須賀川市田中関林174-16","latitude":37.246646881103516,"longitude":140.42019653320312,"category":"公共施設","description":"うつくしま未来博 21世紀建設館として建設され、2002年3月に福島空港公園の管理棟として移築された","image_url":""},{"id":14125,"title":"まきうち歯科","architect":"岩村和夫","year":2001.0,"address":"長野県飯田市江戸浜町3415-6","latitude":35.51435470581055,"longitude":137.83616638183594,"category":"個人医院","description":"","image_url":""},{"id":14126,"title":"旧ハドソン中央研究所","architect":"岩村和夫","year":1992.0,"address":"北海道札幌市南区芸術の森3-915-17","latitude":42.93354034423828,"longitude":141.33641052246094,"category":"低層オフィス","description":"高橋名人で有名なゲーム企業の研究所。現在は別の企業の施設や車屋として利用されている模様","image_url":""},{"id":14127,"title":"湘南OVA","architect":"岩村和夫","year":1998.0,"address":"神奈川県横須賀市湘南国際村1-2-6","latitude":35.25461196899414,"longitude":139.6051788330078,"category":"ホテル","description":"企業の研修施設として建設され、現在はホテルになっている","image_url":""},{"id":14128,"title":"松戸市文化会館 森のホール21","architect":"A&T建築研究所","year":1993.0,"address":"千葉県松戸市千駄堀646-4","latitude":35.799659729003906,"longitude":139.9407196044922,"category":"ホール・劇場","description":"","image_url":""},{"id":14129,"title":"うるま市民芸術劇場","architect":"A&T建築研究所","year":1994.0,"address":"沖縄県うるま市仲嶺175","latitude":26.357242584228516,"longitude":127.85050201416016,"category":"ホール・劇場","description":"","image_url":""},{"id":14130,"title":"三重県立図書館","architect":"A&T建築研究所","year":1994.0,"address":"三重県津市一身田上津部田1234","latitude":34.74378204345703,"longitude":136.50083923339844,"category":"図書館","description":"","image_url":""},{"id":14131,"title":"西和賀町文化創造館 銀河ホール","architect":"A&T建築研究所","year":1993.0,"address":"岩手県和賀郡西和賀町上野々39地割195-2","latitude":39.313663482666016,"longitude":140.77915954589844,"category":"ホール・劇場","description":"","image_url":""},{"id":14132,"title":"ホテルフラッグス諫早 旧諫早観光ホテル 道具屋","architect":"A&T建築研究所","year":1998.0,"address":"長崎県諫早市金谷町8-7","latitude":32.84706115722656,"longitude":130.05206298828125,"category":"ホテル","description":"","image_url":""},{"id":14133,"title":"松本歯科大学 30周年記念棟","architect":"A&T建築研究所","year":2002.0,"address":"長野県塩尻市広丘郷原1780","latitude":36.127952575683594,"longitude":137.9398956298828,"category":"大学","description":"","image_url":""},{"id":14134,"title":"川口市立中央図書館","architect":"A&T建築研究所","year":2006.0,"address":"埼玉県川口市川口1-1-1","latitude":35.80101013183594,"longitude":139.71853637695312,"category":"図書館","description":"","image_url":""},{"id":14135,"title":"九州警備保障 本社","architect":"A&T建築研究所","year":1995.0,"address":"熊本県熊本市中央区帯山4-18-11","latitude":32.80405044555664,"longitude":130.7474822998047,"category":"低層オフィス","description":"","image_url":""},{"id":14136,"title":"長田組土木 新社屋","architect":"A&T建築研究所","year":2022.0,"address":"山梨県甲府市飯田4-10-27","latitude":35.66728210449219,"longitude":138.55130004882812,"category":"低層オフィス","description":"","image_url":""},{"id":14137,"title":"経堂あそう眼科","architect":"A&T建築研究所","year":2022.0,"address":"東京都世田谷区経堂1-22-18","latitude":35.65070343017578,"longitude":139.6357421875,"category":"個人医院","description":"","image_url":""},{"id":14138,"title":"山田電器工業 本社","architect":"A&T建築研究所","year":2021.0,"address":"千葉県松戸市松飛台254","latitude":35.78392028808594,"longitude":139.96485900878906,"category":"低層オフィス","description":"","image_url":""},{"id":14139,"title":"ラビスタ草津ヒルズ","architect":"A&T建築研究所","year":2020.0,"address":"群馬県吾妻郡草津町草津226-15","latitude":36.619232177734375,"longitude":138.59979248046875,"category":"ホテル","description":"","image_url":""},{"id":14140,"title":"カーヴドキャレ","architect":"A&T建築研究所","year":2016.0,"address":"東京都練馬区関町北2-16-9","latitude":35.725440979003906,"longitude":139.57644653320312,"category":"集合住宅","description":"","image_url":""},{"id":14141,"title":"スカイヒルズ武蔵小杉","architect":"A&T建築研究所","year":2015.0,"address":"神奈川県川崎市中原区新丸子東2","latitude":35.57765579223633,"longitude":139.6611785888672,"category":"集合住宅","description":"","image_url":""},{"id":14142,"title":"スカイヒルズ目白","architect":"A&T建築研究所","year":2017.0,"address":"東京都豊島区西池袋2-18-1","latitude":35.72601318359375,"longitude":139.70628356933594,"category":"集合住宅","description":"","image_url":""},{"id":14143,"title":"鎌倉長谷寺門前トイレ","architect":"A&T建築研究所","year":2015.0,"address":"神奈川県鎌倉市長谷3-11-2","latitude":35.31232833862305,"longitude":139.53411865234375,"category":"トイレ","description":"","image_url":""},{"id":14144,"title":"ラビスタ大雪山","architect":"A&T建築研究所","year":2007.0,"address":"北海道上川郡東川町 旭岳温泉","latitude":43.64799880981445,"longitude":142.79339599609375,"category":"ホテル","description":"","image_url":""},{"id":14145,"title":"星野リゾート リゾナーレ小浜島 旧南西楽園小浜島リゾート","architect":"A&T建築研究所","year":2001.0,"address":"沖縄県八重山郡竹富町小浜2954","latitude":24.332305908203125,"longitude":123.99995422363281,"category":"ホテル","description":"","image_url":""},{"id":14146,"title":"ブルーサンクポイント","architect":"A&T建築研究所","year":2002.0,"address":"東京都港区南青山5-3-20","latitude":35.66306686401367,"longitude":139.71522521972656,"category":"モール/店舗","description":"","image_url":""},{"id":14147,"title":"再春館安心安全研究所 A棟 旧再春館インテリジョントテレマーケティングセンター","architect":"A&T建築研究所","year":1992.0,"address":"熊本県熊本市中央区帯山4-17-1","latitude":32.80262756347656,"longitude":130.74703979492188,"category":"低層オフィス","description":"裏側にある棟は北山孝二郎設計の旧再春館本社ビル。現在は区別がつかないため便宜上A棟としている","image_url":""},{"id":14148,"title":"再春館製薬所 本社屋 つむぎ商館","architect":"北山孝雄","year":2006.0,"address":"熊本県上益城郡益城町大字寺中1363-1","latitude":32.81471252441406,"longitude":130.83200073242188,"category":"低層オフィス","description":"","image_url":""},{"id":14149,"title":"御殿場の美容室兼住宅 DRAW","architect":"アリワークス","year":2017.0,"address":"静岡県御殿場市東山1077-7","latitude":35.2928581237793,"longitude":138.95640563964844,"category":"美容院/住宅","description":"","image_url":""},{"id":14150,"title":"陽和病院","architect":"富永譲","year":2021.0,"address":"東京都練馬区大泉町2-17-1","latitude":35.76068878173828,"longitude":139.60235595703125,"category":"病院","description":"","image_url":""}]}