{"page":223,"total_pages":290,"items_per_page":50,"total_items":14467,"items":[{"id":11101,"title":"春華堂 SWEETS BANK","architect":"日建設計","year":2020.0,"address":"静岡県浜松市中区神田町553","latitude":34.68974304199219,"longitude":137.71998596191406,"category":"低層オフィス","description":"","image_url":""},{"id":11102,"title":"蒲郡ベンチアートプロジェクト タ","architect":"itoto architects","year":2021.0,"address":"愛知県蒲郡市2","latitude":34.81500244140625,"longitude":137.2335662841797,"category":"オブジェ","description":"","image_url":""},{"id":11103,"title":"ファイブペニイズ","architect":"多田裕之","year":2007.0,"address":"香川県木田郡三木町井戸2606-7","latitude":34.26603317260742,"longitude":134.162109375,"category":"ギャラリー/カフェ","description":"2008年度グッドデザイン賞受賞","image_url":""},{"id":11104,"title":"大阪中之島美術館","architect":"遠藤克彦","year":2021.0,"address":"大阪府大阪市北区中之島4-3-1","latitude":34.69230651855469,"longitude":135.49148559570312,"category":"美術館","description":"2022年2月2日オープン予定","image_url":""},{"id":11105,"title":"Snow Storage 上越市雪中貯蔵施設 ユキノハコ","architect":"海法圭","year":2021.0,"address":"新潟県上越市安塚区樽田141","latitude":37.0953369140625,"longitude":138.46987915039062,"category":"工場/公共施設","description":"土日祝日の午前11時・午後1時に見学会を開催","image_url":""},{"id":11106,"title":"那覇文化芸術劇場なはーと","architect":"香山壽夫+久米設計+根路銘設計","year":2021.0,"address":"沖縄県那覇市久茂地3-26-27","latitude":26.216447830200195,"longitude":127.68264770507812,"category":"ホール・劇場","description":"","image_url":""},{"id":11107,"title":"メブクス豊洲","architect":"清水建設","year":2021.0,"address":"東京都江東区豊洲6-4-34","latitude":35.6462516784668,"longitude":139.78524780273438,"category":"オフィスビル","description":"","image_url":""},{"id":11108,"title":"ゼノアック本館","architect":"益子義弘+プラスニューオフィス","year":2021.0,"address":"福島県郡山市安積町笹川平ノ上1-1","latitude":37.35447311401367,"longitude":140.3516845703125,"category":"低層オフィス","description":"","image_url":""},{"id":11109,"title":"阿賀町消防本部","architect":"プラスニューオフィス","year":2020.0,"address":"新潟県東蒲原郡阿賀町津川2260-42","latitude":37.679847717285156,"longitude":139.4436798095703,"category":"警察・消防署","description":"","image_url":""},{"id":11110,"title":"たつの市庁舎新館・多目的ホール","architect":"プラスニューオフィス","year":2020.0,"address":"兵庫県たつの市龍野町富永1005-1","latitude":34.85814666748047,"longitude":134.5446319580078,"category":"庁舎/ホール・劇場","description":"","image_url":""},{"id":11111,"title":"FC町田ゼルビア三輪緑山トレーニングセンター","architect":"隈研吾","year":2021.0,"address":"東京都町田市三輪緑山1-1","latitude":35.57157516479492,"longitude":139.4895477294922,"category":"クラブハウス","description":"2022年2月より正式利用開始","image_url":""},{"id":11112,"title":"つるや","architect":"池原義郎","year":1969.0,"address":"東京都中野区鷺宮1-27−3","latitude":35.72301483154297,"longitude":139.6445770263672,"category":"カフェ","description":"","image_url":""},{"id":11113,"title":"儘 嵐山邸宅 MAMA","architect":"DAY","year":2019.0,"address":"京都府京都市西京区嵐山西一川町1-5","latitude":35.01118087768555,"longitude":135.67950439453125,"category":"旅館/ホテル","description":"阪急電鉄元保養所の改修","image_url":""},{"id":11114,"title":"輪の家","architect":"TNA","year":2006.0,"address":"長野県北佐久郡軽井沢町茂沢 オナーズヒル","latitude":36.30386734008789,"longitude":138.55604553222656,"category":"住宅/コテージ","description":"楽天トラベル等で予約宿泊可能","image_url":""},{"id":11115,"title":"方の家","architect":"TNA","year":2009.0,"address":"長野県北佐久郡軽井沢町茂沢563-142","latitude":36.304691314697266,"longitude":138.55564880371094,"category":"住宅/コテージ","description":"ARICAバケーションレンタルで予約宿泊可能","image_url":""},{"id":11116,"title":"式音庵 祇園白川","architect":"若林広幸","year":2017.0,"address":"京都府京都市東山区中之町248-8","latitude":35.00648498535156,"longitude":135.77618408203125,"category":"住宅/コテージ","description":"一休等で予約宿泊可能。竣工年は不明も2017年より開業とのことで仮に2017年としておきました","image_url":""},{"id":11117,"title":"YA邸 ル・ファーレ白浜","architect":"黒木実","year":2009.0,"address":"千葉県南房総市白浜町滝口5792-2","latitude":34.91022872924805,"longitude":139.87132263183594,"category":"住宅/コテージ","description":"","image_url":""},{"id":11118,"title":"森の離れ -連の間-","architect":"TNA","year":2020.0,"address":"長野県北佐久郡軽井沢町軽井沢境新田小花沢道下1044-1","latitude":36.325958251953125,"longitude":138.6427001953125,"category":"コテージ/ホテル","description":"全5棟の貸別荘・ヴィラ","image_url":""},{"id":11119,"title":"浅向荘 浅間に向かう家","architect":"山本学","year":2008.0,"address":"長野県北佐久郡軽井沢町茂沢 オナーズヒル","latitude":36.30919647216797,"longitude":138.55441284179688,"category":"住宅/コテージ","description":"詳細な場所不明。ARICAバケーションレンタルで予約宿泊可能。","image_url":""},{"id":11120,"title":"ヴィラグリファーム七里岩","architect":"河口佳介","year":2021.0,"address":"山梨県韮崎市穴山町2509-1","latitude":35.74494552612305,"longitude":138.41763305664062,"category":"住宅/コテージ","description":"1棟貸の建物が2棟","image_url":""},{"id":11121,"title":"山形座 瀧波","architect":"井上貴詞","year":2017.0,"address":"山形県南陽市赤湯3005","latitude":38.04817581176758,"longitude":140.17047119140625,"category":"旅館","description":"築350年の大庄屋を宿にリノベーション","image_url":""},{"id":11122,"title":"NIPPONIA白鷹 源内邸","architect":"井上貴詞","year":2021.0,"address":"山形県西置賜郡白鷹町浅立183-1","latitude":38.14238739013672,"longitude":140.06190490722656,"category":"旅館/古民家","description":"築100年を超える旧奥山源内邸の建物群をリノベーション","image_url":""},{"id":11123,"title":"月山山麓のワイナリーショップ 月山トラヤワイナリー","architect":"井上貴詞","year":2017.0,"address":"山形県西村山郡西川町吉川79","latitude":38.41709899902344,"longitude":140.15419006347656,"category":"醸造所","description":"","image_url":""},{"id":11124,"title":"トヨタカローラ山梨 甲斐アルプス店","architect":"五割一分","year":2021.0,"address":"山梨県甲斐市下今井1055","latitude":35.681827545166016,"longitude":138.48660278320312,"category":"店舗","description":"","image_url":""},{"id":11125,"title":"漢方内科 けやき通り診療所","architect":"五割一分","year":2020.0,"address":"富山県富山市新根塚町1-5-37","latitude":36.68022155761719,"longitude":137.20289611816406,"category":"個人医院","description":"","image_url":""},{"id":11126,"title":"ティップス","architect":"五割一分","year":2019.0,"address":"富山県富山市布瀬町2-3-12","latitude":36.682281494140625,"longitude":137.2017059326172,"category":"美容院","description":"","image_url":""},{"id":11127,"title":"フォルクスワーゲン 長崎","architect":"五割一分","year":2019.0,"address":"長崎県西彼杵郡時津町元村郷1100-3","latitude":32.81631851196289,"longitude":129.846435546875,"category":"店舗","description":"","image_url":""},{"id":11128,"title":"パティスリーシュゥエト","architect":"五割一分","year":2016.0,"address":"富山県富山市田中町1-17-19","latitude":36.6996955871582,"longitude":137.24168395996094,"category":"店舗","description":"","image_url":""},{"id":11129,"title":"おざわ歯科医院","architect":"五割一分","year":2014.0,"address":"富山県富山市中老田762","latitude":36.701385498046875,"longitude":137.12893676757812,"category":"個人医院","description":"","image_url":""},{"id":11130,"title":"グロフィールド","architect":"五割一分","year":2014.0,"address":"富山県富山市向新庄町2-16","latitude":36.69981384277344,"longitude":137.2682342529297,"category":"低層オフィス","description":"","image_url":""},{"id":11131,"title":"みやうちこどもデンタルクリニック","architect":"五割一分","year":2013.0,"address":"石川県金沢市鞍月3-101","latitude":36.59734344482422,"longitude":136.62098693847656,"category":"個人医院","description":"","image_url":""},{"id":11132,"title":"セイズファーム WINERY/SHOP","architect":"五割一分","year":2011.0,"address":"富山県氷見市余川字北山238","latitude":36.89720153808594,"longitude":136.95126342773438,"category":"工場/店舗/レストラン","description":"2014年に竣工した一棟貸しの宿泊棟もある","image_url":""},{"id":11133,"title":"ネッツトヨタ富山 本店","architect":"五割一分","year":2009.0,"address":"富山県富山市新庄本町3-3-33","latitude":36.703304290771484,"longitude":137.2587432861328,"category":"店舗/低層オフィス","description":"","image_url":""},{"id":11134,"title":"Apt.3610","architect":"五割一分","year":2007.0,"address":"富山県高岡市駅南3-6-10","latitude":36.7379035949707,"longitude":137.01666259765625,"category":"集合住宅","description":"","image_url":""},{"id":11135,"title":"香林居","architect":"長坂純明+由田徹","year":2021.0,"address":"石川県金沢市片町1-1-31","latitude":36.561981201171875,"longitude":136.65447998046875,"category":"ホテル","description":"築50年のギャラリービルをホテルへとコンバージョン","image_url":""},{"id":11136,"title":"ひとともり奈良本店","architect":"長坂純明","year":2019.0,"address":"奈良県奈良市福智院町1-3","latitude":34.67735290527344,"longitude":135.83497619628906,"category":"店舗/低層オフィス/カフェ","description":"","image_url":""},{"id":11137,"title":"TERRA","architect":"長坂純明","year":2021.0,"address":"大阪府松原市天美東8-13-23","latitude":34.588897705078125,"longitude":135.53225708007812,"category":"福祉センター/児童施設","description":"","image_url":""},{"id":11138,"title":"つきひの家","architect":"魚谷繁礼","year":2017.0,"address":"京都府京都市下京区諏訪開町22-1","latitude":34.99150085449219,"longitude":135.74685668945312,"category":"旅館/古民家","description":"一棟貸し","image_url":""},{"id":11139,"title":"石崎汽船旧本社","architect":"木子七郎","year":1925.0,"address":"愛媛県松山市三津1-4-9","latitude":33.86525344848633,"longitude":132.71141052246094,"category":"洋館","description":"","image_url":""},{"id":11140,"title":"河野内科","architect":"松村正恒","year":1967.0,"address":"愛媛県松山市千舟町2-7-1","latitude":33.836700439453125,"longitude":132.77243041992188,"category":"個人医院","description":"","image_url":""},{"id":11141,"title":"松山大学 樋又キャンパス","architect":"日建設計","year":2016.0,"address":"愛媛県松山市道後樋又6-3","latitude":33.85179138183594,"longitude":132.7689971923828,"category":"大学","description":"","image_url":""},{"id":11142,"title":"松山大学 文京キャンパス myu terrace","architect":"日建設計","year":2019.0,"address":"愛媛県松山市文京町4-2","latitude":33.85103988647461,"longitude":132.76808166503906,"category":"大学","description":"","image_url":""},{"id":11143,"title":"徳丸小児科","architect":"長谷川逸子","year":2005.0,"address":"愛媛県松山市古川北3-4-15","latitude":33.81162643432617,"longitude":132.76589965820312,"category":"個人医院","description":"1979年竣工の徳丸小児科も長谷川逸子設計。建替。","image_url":""},{"id":11144,"title":"大堀相馬焼 松永窯","architect":"杤尾直也","year":2021.0,"address":"福島県西白河郡西郷村小田倉小田倉原1−31","latitude":37.12382507324219,"longitude":140.1598358154297,"category":"店舗/工場","description":"","image_url":""},{"id":11145,"title":"壬生辻町のホテル 町家レジデンスイン 壬生辻町 双飛","architect":"OHArchitecture","year":2019.0,"address":"京都府京都市中京区壬生辻町38-24","latitude":34.999610900878906,"longitude":135.7429656982422,"category":"古民家/コテージ","description":"一棟貸し","image_url":""},{"id":11146,"title":"小名浜のカフェ ALAYA","architect":"高田博章","year":2020.0,"address":"福島県いわき市小名浜字上明神町4-2","latitude":36.951297760009766,"longitude":140.9061279296875,"category":"店舗/カフェ","description":"","image_url":""},{"id":11147,"title":"ONE_THROW ワンスロー","architect":"ツバメアーキテクツ","year":2021.0,"address":"神奈川県川崎市多摩区宿河原3-8-3","latitude":35.614505767822266,"longitude":139.58154296875,"category":"カフェ/公園","description":"","image_url":""},{"id":11148,"title":"オオイソコネクト","architect":"宮崎浩+香取武則+小笠原設計","year":2020.0,"address":"神奈川県中郡大磯町大磯1398-6","latitude":35.30713653564453,"longitude":139.31747436523438,"category":"PA・道の駅","description":"","image_url":""},{"id":11149,"title":"道の駅 川場田園プラザ 川場ルーフ","architect":"宮崎浩","year":2017.0,"address":"群馬県利根郡川場村萩室385","latitude":36.687721252441406,"longitude":139.10775756835938,"category":"PA・道の駅","description":"","image_url":""},{"id":11150,"title":"TPUビル","architect":"宮崎浩","year":2015.0,"address":"山口県山口市小郡下郷1256-4","latitude":34.094383239746094,"longitude":131.39535522460938,"category":"テナントビル","description":"","image_url":""}]}