{"page":117,"total_pages":290,"items_per_page":50,"total_items":14467,"items":[{"id":5801,"title":"斜里町公民館 ゆめホール知床","architect":"石本建築事務所","year":1998.0,"address":"北海道斜里郡斜里町本町4","latitude":43.91151809692383,"longitude":144.67230224609375,"category":"公民館・交流施設","description":"","image_url":""},{"id":5802,"title":"福井県若狭湾エネルギー研究センター","architect":"石本建築事務所","year":1998.0,"address":"福井県敦賀市長谷64-52-1","latitude":35.60295486450195,"longitude":136.0432891845703,"category":"研究施設","description":"","image_url":""},{"id":5803,"title":"匝瑳市立八日市場図書館・公民館","architect":"石本建築事務所","year":1998.0,"address":"千葉県匝瑳市八日市場イ2402","latitude":35.70340347290039,"longitude":140.55174255371094,"category":"図書館/公民館・交流施設","description":"","image_url":""},{"id":5804,"title":"印西市ふれあい文化館","architect":"石本建築事務所","year":1998.0,"address":"千葉県印西市原3-4","latitude":35.79977035522461,"longitude":140.16517639160156,"category":"総合文化施設/児童施設/福祉センター","description":"","image_url":""},{"id":5805,"title":"氷見市ふれあいスポーツセンター","architect":"石本建築事務所","year":1999.0,"address":"富山県氷見市鞍川43-1","latitude":36.85259246826172,"longitude":136.97433471679688,"category":"体育館","description":"","image_url":""},{"id":5806,"title":"長崎県立大学 シーボルト校 旧県立長崎シーボルト大学","architect":"石本建築事務所","year":1999.0,"address":"長崎県西彼杵郡長与町まなび野1-1-1","latitude":32.80893325805664,"longitude":129.8751220703125,"category":"大学","description":"","image_url":""},{"id":5807,"title":"四日市港ポートビル","architect":"石本建築事務所","year":1999.0,"address":"三重県四日市市霞2-1-1","latitude":34.993316650390625,"longitude":136.65757751464844,"category":"展望台/公共施設","description":"","image_url":""},{"id":5808,"title":"浦安市運動公園総合体育館・屋内水泳プール","architect":"石本建築事務所","year":1999.0,"address":"千葉県浦安市舞浜2-27","latitude":35.63050842285156,"longitude":139.89154052734375,"category":"体育館/プール","description":"","image_url":""},{"id":5809,"title":"箱根千代田荘","architect":"石本建築事務所","year":1999.0,"address":"神奈川県足柄下郡箱根町強羅1320-275","latitude":35.25273895263672,"longitude":139.04620361328125,"category":"ホテル","description":"","image_url":""},{"id":5810,"title":"坊っちゃんスタジアム","architect":"石本建築事務所","year":2000.0,"address":"愛媛県松山市市坪西町625-1","latitude":33.80840301513672,"longitude":132.74752807617188,"category":"スタジアム","description":"","image_url":""},{"id":5811,"title":"川越市民聖苑 やすらぎのさと","architect":"石本建築事務所","year":2000.0,"address":"埼玉県川越市小仙波867-1","latitude":35.918678283691406,"longitude":139.50372314453125,"category":"斎場","description":"","image_url":""},{"id":5812,"title":"スイトピアセンター こどもサイエンスプラザ","architect":"石本建築事務所","year":1995.0,"address":"岐阜県大垣市室本町5-51","latitude":35.36487579345703,"longitude":136.60716247558594,"category":"博物館/児童施設","description":"","image_url":""},{"id":5813,"title":"富士市文化会館 ロゼシアター","architect":"石本建築事務所","year":1993.0,"address":"静岡県富士市蓼原町1750","latitude":35.15869140625,"longitude":138.6681671142578,"category":"ホール・劇場/レストラン","description":"","image_url":""},{"id":5814,"title":"鎌倉芸術館","architect":"石本建築事務所","year":1993.0,"address":"神奈川県鎌倉市大船6-1-2","latitude":35.352596282958984,"longitude":139.5384521484375,"category":"ホール・劇場","description":"","image_url":""},{"id":5815,"title":"門真市文化会館 ルミエールホール","architect":"石本建築事務所","year":1993.0,"address":"大阪府門真市末広町29-1","latitude":34.737186431884766,"longitude":135.59300231933594,"category":"ホール・劇場","description":"","image_url":""},{"id":5816,"title":"パサージュ琴海","architect":"石本建築事務所","year":1992.0,"address":"長崎県長崎市琴海戸根原町171","latitude":32.900264739990234,"longitude":129.8026885986328,"category":"ホテル","description":"","image_url":""},{"id":5817,"title":"岐阜市斎苑","architect":"石本建築事務所","year":1992.0,"address":"岐阜県岐阜市上加納山4717-4","latitude":35.42230987548828,"longitude":136.77650451660156,"category":"斎場","description":"","image_url":""},{"id":5818,"title":"メモリアルトネ","architect":"石本建築事務所","year":1991.0,"address":"埼玉県加須市川口4-3-5","latitude":36.10866928100586,"longitude":139.65762329101562,"category":"斎場","description":"","image_url":""},{"id":5819,"title":"金沢市東斎場","architect":"石本建築事務所","year":1992.0,"address":"石川県金沢市鳴和台360","latitude":36.57615280151367,"longitude":136.68093872070312,"category":"斎場","description":"","image_url":""},{"id":5820,"title":"熊本県水産研究センター","architect":"石本建築事務所","year":1990.0,"address":"熊本県上天草市大矢野町中2450-2","latitude":32.57261657714844,"longitude":130.41551208496094,"category":"研究施設/博物館","description":"","image_url":""},{"id":5821,"title":"福岡県立総合プール","architect":"石本建築事務所","year":1989.0,"address":"福岡県福岡市博多区東平尾公園2-1-3","latitude":33.581153869628906,"longitude":130.4636688232422,"category":"プール","description":"","image_url":""},{"id":5822,"title":"MARUICHI BLDG.1962","architect":"勝亦・丸山建築計画","year":2015.0,"address":"静岡県富士市吉原2-11-6","latitude":35.16214370727539,"longitude":138.68804931640625,"category":"オフィスビル/カフェ","description":"","image_url":""},{"id":5823,"title":"相合家具デザインラボ","architect":"隈研吾","year":2015.0,"address":"三重県伊賀市白樫字下田2119-337","latitude":34.72311782836914,"longitude":136.08058166503906,"category":"展示・会議場/研究施設","description":"住所は正しいと思われるが、詳細な所在地が不明。","image_url":""},{"id":5824,"title":"カナエル 神奈川西支店社屋","architect":"木下昌大","year":2015.0,"address":"神奈川県秦野市平沢369-1","latitude":35.3713264465332,"longitude":139.1956024169922,"category":"店舗/低層オフィス","description":"","image_url":""},{"id":5825,"title":"伊勢町公衆トイレ","architect":"久保都島建築設計","year":2015.0,"address":"群馬県吾妻郡中之条町伊勢町","latitude":36.58735656738281,"longitude":138.84803771972656,"category":"トイレ","description":"","image_url":""},{"id":5826,"title":"しまぶくろデンタルクリニック","architect":"木下昌大","year":2012.0,"address":"茨城県神栖市深芝南3-21-1","latitude":35.91121292114258,"longitude":140.6473388671875,"category":"個人医院","description":"","image_url":""},{"id":5827,"title":"ポニー小児歯科クリニック","architect":"木下昌大","year":2012.0,"address":"東京都江戸川区平井6-55-4","latitude":35.71151351928711,"longitude":139.8437957763672,"category":"個人医院","description":"","image_url":""},{"id":5828,"title":"一橋大学 空手道場","architect":"木下昌大","year":2012.0,"address":"東京都国立市中2-5-1","latitude":35.69171142578125,"longitude":139.44151306152344,"category":"大学/体育館","description":"","image_url":""},{"id":5829,"title":"船橋藤原三郵便局","architect":"久保都島建築設計","year":2015.0,"address":"千葉県船橋市藤原3-36-20","latitude":35.736080169677734,"longitude":139.9795379638672,"category":"公共施設","description":"","image_url":""},{"id":5830,"title":"直島町民会館 直島ホール","architect":"三分一博志","year":2015.0,"address":"香川県香川郡直島町（その他）696-1","latitude":34.45958709716797,"longitude":133.99586486816406,"category":"公民館・交流施設","description":"","image_url":""},{"id":5831,"title":"パークアクシスプレミア南青山","architect":"日建設計+三井住友建設","year":2015.0,"address":"東京都港区南青山2-15-22 ","latitude":35.66969680786133,"longitude":139.72071838378906,"category":"集合住宅","description":"","image_url":""},{"id":5832,"title":"お米や","architect":"長坂常","year":2015.0,"address":"東京都品川区戸越4-8-6","latitude":35.6110954284668,"longitude":139.71878051757812,"category":"店舗","description":"","image_url":""},{"id":5833,"title":"HAGISO / hanare(丸越荘)","architect":"宮崎晃吉","year":2015.0,"address":"東京都台東区谷中3-10-25","latitude":35.72639846801758,"longitude":139.76605224609375,"category":"ギャラリー/低層オフィス/ホテル","description":"リノベーション","image_url":""},{"id":5834,"title":"上総喜望の郷 おむかいさん","architect":"仲建築設計スタジオ","year":2015.0,"address":"千葉県木更津市下郡2275-1","latitude":35.35169219970703,"longitude":140.025390625,"category":"養護施設","description":"","image_url":""},{"id":5835,"title":"上島町の介護付有料老人ホーム クルーヴ くすのき・萱島","architect":"SPACESPACE","year":2015.0,"address":"大阪府門真市上島町46-1","latitude":34.746578216552734,"longitude":135.61074829101562,"category":"養護施設","description":"","image_url":""},{"id":5836,"title":"磯山調剤薬局","architect":"SPACESPACE","year":2010.0,"address":"三重県鈴鹿市東磯山3-19-27","latitude":34.81486511230469,"longitude":136.5745391845703,"category":"医療施設/店舗","description":"","image_url":""},{"id":5837,"title":"D-アパートメント CASA小治郎","architect":"SPACESPACE","year":2011.0,"address":"大阪府門真市上島町46-5","latitude":34.746864318847656,"longitude":135.61056518554688,"category":"集合住宅","description":"","image_url":""},{"id":5838,"title":"小田急山のホテル","architect":"大成建設","year":1978.0,"address":"神奈川県足柄下郡足柄下郡箱根町元箱根80","latitude":35.204647064208984,"longitude":139.02159118652344,"category":"ホテル","description":"","image_url":""},{"id":5839,"title":"滋賀県立大学 交流センター／人間文化学部棟","architect":"浦辺設計","year":1997.0,"address":"滋賀県彦根市八坂町2500","latitude":35.259525299072266,"longitude":136.22052001953125,"category":"大学","description":"","image_url":""},{"id":5840,"title":"高尾599ミュージアム","architect":"東畑建築事務所","year":2015.0,"address":"東京都八王子市高尾町2435-3","latitude":35.630374908447266,"longitude":139.2687225341797,"category":"博物館","description":"","image_url":""},{"id":5841,"title":"ヨツバコ","architect":"マウントフジアーキテクツスタジオ","year":2011.0,"address":"神奈川県横浜市都筑区中川中央1-1-5","latitude":35.55366134643555,"longitude":139.57908630371094,"category":"テナントビル/モール","description":"","image_url":""},{"id":5842,"title":"一橋大学 如水会百周年記念インテリジェントホール","architect":"三浦慎","year":2015.0,"address":"東京都国立市中2-1","latitude":35.69341278076172,"longitude":139.4461212158203,"category":"ホール・劇場/大学","description":"","image_url":""},{"id":5843,"title":"ジ・アッタテラス クラブタワーズ","architect":"国建","year":2005.0,"address":"沖縄県国頭郡恩納村安富祖1079","latitude":26.500335693359375,"longitude":127.89488220214844,"category":"ホテル","description":"","image_url":""},{"id":5844,"title":"うるま市新庁舎","architect":"門口安則+久友設計","year":2015.0,"address":"沖縄県うるま市みどり町1-1-1 ‎","latitude":26.378583908081055,"longitude":127.8581771850586,"category":"庁舎","description":"","image_url":""},{"id":5845,"title":"名護城公園 さくら展望台 Subaco","architect":"久友設計","year":2015.0,"address":"沖縄県名護市名護5511","latitude":26.591760635375977,"longitude":127.9974594116211,"category":"展望台/観光施設","description":"","image_url":""},{"id":5846,"title":"プライベートリゾートホテル RENN","architect":"門口安則","year":2007.0,"address":"沖縄県宮古島市城辺字友利422-2","latitude":24.72864532470703,"longitude":125.35871887207031,"category":"ホテル","description":"","image_url":""},{"id":5847,"title":"ザ・ブセナテラス","architect":"国建","year":1997.0,"address":"沖縄県名護市喜瀬1808","latitude":26.5404052734375,"longitude":127.93577575683594,"category":"ホテル","description":"","image_url":""},{"id":5848,"title":"アグリショップ しまちゅらら","architect":"末松信吾","year":2015.0,"address":"沖縄県名護市名護4607-1","latitude":26.612308502197266,"longitude":127.99314880371094,"category":"店舗","description":"","image_url":""},{"id":5849,"title":"Grand Blue 恩納本店","architect":"末松信吾","year":2012.0,"address":"沖縄県国頭郡恩納村前兼久124","latitude":26.44756317138672,"longitude":127.804443359375,"category":"店舗","description":"","image_url":""},{"id":5850,"title":"エルロタ","architect":"末松信吾","year":2015.0,"address":"沖縄県国頭郡今帰仁村古宇利466-1","latitude":26.69814109802246,"longitude":128.02098083496094,"category":"レストラン","description":"","image_url":""}]}