{"page":210,"total_pages":290,"items_per_page":50,"total_items":14467,"items":[{"id":10451,"title":"麻布十番の複合ビル","architect":"SALHAUS","year":2021.0,"address":"東京都港区麻布十番1-6-4","latitude":35.65657424926758,"longitude":139.7341766357422,"category":"テナントビル/集合住宅","big_category":"商業施設,住宅","description":"","image_url":"","tags":"新建築2021年8月号,Ver3.90(2021年8月)の追加建築","prefecture":"東京","contractor":"サンユー建設","structural_designer":"","landscape_designer":"","shinkenchiku_url":""},{"id":10452,"title":"ニシイケバレイ","architect":"須藤剛","year":2020.0,"address":"東京都豊島区西池袋5-12-3","latitude":35.732391357421875,"longitude":139.7040557861328,"category":"レストラン/モール/シェアオフィス","big_category":"商業施設,商業施設,商業施設","description":"","image_url":"","tags":"新建築2021年8月号,Ver3.90(2021年8月)の追加建築","prefecture":"東京","contractor":"日神山内装+AGAIN総合リフォーム","structural_designer":"","landscape_designer":"","shinkenchiku_url":""},{"id":10453,"title":"TIME SHARING STAY 浅草","architect":"須藤剛","year":2020.0,"address":"東京都台東区浅草2-24-8","latitude":35.716148376464844,"longitude":139.79470825195312,"category":"ホテル","big_category":"宿泊","description":"","image_url":"","tags":"Ver3.90(2021年8月)の追加建築","prefecture":"東京","contractor":"","structural_designer":"","landscape_designer":"","shinkenchiku_url":""},{"id":10454,"title":"向山の食堂 ブレゼアイダ","architect":"須藤剛","year":2018.0,"address":"埼玉県上尾市向山1-1-1","latitude":35.961326599121094,"longitude":139.5870819091797,"category":"レストラン","big_category":"商業施設","description":"","image_url":"","tags":"Ver3.90(2021年8月)の追加建築","prefecture":"埼玉","contractor":"","structural_designer":"","landscape_designer":"","shinkenchiku_url":""},{"id":10455,"title":"ヨシナガヤ011 林寺2丁目長屋","architect":"Office for Environment Architecture","year":2019.0,"address":"大阪府大阪市生野区林寺2-24-3","latitude":34.643985748291016,"longitude":135.53221130371094,"category":"集合住宅/店舗/古民家","big_category":"住宅,商業施設,近代建築/遺産","description":"","image_url":"","tags":"新建築2021年8月号,Ver3.90(2021年8月)の追加建築","prefecture":"大阪","contractor":"キドビル工務店","structural_designer":"","landscape_designer":"","shinkenchiku_url":""},{"id":10456,"title":"CONTEXTED","architect":"Office for Environment Architecture","year":2019.0,"address":"大阪府大阪市生野区生野東1-6-3","latitude":34.649925231933594,"longitude":135.5310821533203,"category":"コテージ/古民家","big_category":"宿泊,近代建築/遺産","description":"1926年竣工の6軒長屋の真ん中3軒を一棟貸し","image_url":"","tags":"新建築2021年8月号,Ver3.90(2021年8月)の追加建築","prefecture":"大阪","contractor":"キドビル工務店","structural_designer":"","landscape_designer":"","shinkenchiku_url":""},{"id":10457,"title":"morineki","architect":"ブルースタジオ+石本建築事務所","year":2021.0,"address":"大阪府大東市北条3-1-1","latitude":34.73002243041992,"longitude":135.64251708984375,"category":"都市計画/モール/公園","big_category":"公共施設,商業施設,レジャー施設","description":"住宅・民間商業・公園の3エリアで構成","image_url":"","tags":"新建築2021年8月号,Ver3.90(2021年8月)の追加建築","prefecture":"大阪","contractor":"東周建設","structural_designer":"","landscape_designer":"","shinkenchiku_url":""},{"id":10458,"title":"大光電機ライティングコア札幌","architect":"大林組","year":2020.0,"address":"北海道札幌市中央区南2条西8-2-2","latitude":43.056453704833984,"longitude":141.34625244140625,"category":"オフィスビル/店舗","big_category":"企業施設,商業施設","description":"江別レンガを使った地産地消ファサード ","image_url":"","tags":"Ver3.90(2021年8月)の追加建築","prefecture":"北海道","contractor":"","structural_designer":"","landscape_designer":"","shinkenchiku_url":""},{"id":10459,"title":"木陰葺の東屋 縮景園事務所棟東トイレ","architect":"由利光+生田海斗+MASAA","year":2021.0,"address":"広島県広島市中区上幟町2-11","latitude":34.39939498901367,"longitude":132.46743774414062,"category":"トイレ","big_category":"公共施設","description":"ひろしま建築学生チャレンジコンペ2019作品。実施設計MASAA","image_url":"","tags":"Ver3.90(2021年8月)の追加建築,新建築2021年11月号","prefecture":"広島","contractor":"","structural_designer":"","landscape_designer":"","shinkenchiku_url":""},{"id":10460,"title":"成田商店本社屋 工場","architect":"後藤周平","year":2021.0,"address":"静岡県浜松市南区飯田町912","latitude":34.7045783996582,"longitude":137.77268981933594,"category":"低層オフィス/工場","big_category":"企業施設,企業施設","description":"","image_url":"","tags":"Ver3.90(2021年8月)の追加建築","prefecture":"静岡","contractor":"","structural_designer":"","landscape_designer":"","shinkenchiku_url":""},{"id":10461,"title":"MARUI TOCLUS 吉祥寺","architect":"nendo+エヌティ永井都市設計","year":2021.0,"address":"東京都武蔵野市吉祥寺南町1-7-11","latitude":35.70166015625,"longitude":139.578857421875,"category":"集合住宅","big_category":"住宅","description":"デザイン監修：nendo","image_url":"","tags":"新建築2021年8月号,Ver3.90(2021年8月)の追加建築","prefecture":"東京","contractor":"高松建設","structural_designer":"","landscape_designer":"","shinkenchiku_url":""},{"id":10462,"title":"パブリック・ハイツ","architect":"スピーク","year":2021.0,"address":"東京都中野区上高田5-37-5","latitude":35.71622848510742,"longitude":139.67416381835938,"category":"集合住宅","big_category":"住宅","description":"","image_url":"","tags":"新建築2021年8月号,Ver3.90(2021年8月)の追加建築","prefecture":"東京","contractor":"ヤマキ+東栄住宅","structural_designer":"","landscape_designer":"","shinkenchiku_url":""},{"id":10463,"title":"スイシャハウス・スイシャオフィス","architect":"古谷俊一","year":2021.0,"address":"神奈川県川崎市高津区下作延4-7","latitude":35.600791931152344,"longitude":139.60272216796875,"category":"集合住宅","big_category":"住宅","description":"","image_url":"","tags":"新建築2021年8月号,Ver3.90(2021年8月)の追加建築","prefecture":"神奈川","contractor":"栄港建設","structural_designer":"","landscape_designer":"","shinkenchiku_url":""},{"id":10464,"title":"東玉川アパートメント パークスワロス01","architect":"miCo.+北山ハウス産業","year":2021.0,"address":"東京都世田谷区東玉川2-41-17","latitude":35.59938049316406,"longitude":139.6721954345703,"category":"集合住宅","big_category":"住宅","description":"","image_url":"","tags":"新建築2021年8月号,Ver3.90(2021年8月)の追加建築","prefecture":"東京","contractor":"北山ハウス産業","structural_designer":"","landscape_designer":"","shinkenchiku_url":""},{"id":10465,"title":"naked Spiral around Functions 藤田珈琲 the ROASTERY Lab.","architect":"森下修","year":2020.0,"address":"大阪府東大阪市高井田1-20","latitude":34.66926193237305,"longitude":135.5724639892578,"category":"カフェ/住宅","big_category":"商業施設,住宅","description":"","image_url":"","tags":"新建築2021年8月号,Ver3.90(2021年8月)の追加建築","prefecture":"大阪","contractor":"木村組","structural_designer":"","landscape_designer":"","shinkenchiku_url":""},{"id":10466,"title":"八光自動車 マクラーレン名古屋","architect":"森下修","year":2017.0,"address":"愛知県名古屋市西区上名古屋1-3-5","latitude":35.192718505859375,"longitude":136.8966064453125,"category":"店舗/低層オフィス","big_category":"商業施設,企業施設","description":"","image_url":"","tags":"Ver3.90(2021年8月)の追加建築","prefecture":"愛知","contractor":"","structural_designer":"","landscape_designer":"","shinkenchiku_url":""},{"id":10467,"title":"神戸新聞 丹波総局","architect":"森下修","year":2002.0,"address":"兵庫県丹波市柏原町小南48-1","latitude":35.12705612182617,"longitude":135.0716552734375,"category":"低層オフィス","big_category":"企業施設","description":"","image_url":"","tags":"Ver3.90(2021年8月)の追加建築","prefecture":"兵庫","contractor":"","structural_designer":"","landscape_designer":"","shinkenchiku_url":""},{"id":10468,"title":"アローブロア緑橋","architect":"森下修","year":2002.0,"address":"大阪府大阪市東成区中本3-15-23","latitude":34.679420471191406,"longitude":135.54415893554688,"category":"集合住宅/店舗","big_category":"住宅,商業施設","description":"","image_url":"","tags":"Ver3.90(2021年8月)の追加建築","prefecture":"大阪","contractor":"","structural_designer":"","landscape_designer":"","shinkenchiku_url":""},{"id":10469,"title":"南あわじ市営四季の丘団地","architect":"森下修","year":2004.0,"address":"兵庫県南あわじ市阿万塩屋町853-1","latitude":34.2227897644043,"longitude":134.72372436523438,"category":"集合住宅","big_category":"住宅","description":"","image_url":"","tags":"Ver3.90(2021年8月)の追加建築","prefecture":"兵庫","contractor":"","structural_designer":"","landscape_designer":"","shinkenchiku_url":""},{"id":10470,"title":"ステラ御幸町","architect":"森下修","year":2007.0,"address":"京都府京都市中京区船屋町378","latitude":35.00566482543945,"longitude":135.76625061035156,"category":"集合住宅","big_category":"住宅","description":"","image_url":"","tags":"Ver3.90(2021年8月)の追加建築","prefecture":"京都","contractor":"","structural_designer":"","landscape_designer":"","shinkenchiku_url":""},{"id":10471,"title":"八光 Body Technical Center","architect":"森下修","year":2014.0,"address":"大阪府東大阪市高井田中4-8-35","latitude":34.67475509643555,"longitude":135.56996154785156,"category":"工場/低層オフィス","big_category":"企業施設,企業施設","description":"","image_url":"","tags":"Ver3.90(2021年8月)の追加建築","prefecture":"大阪","contractor":"","structural_designer":"","landscape_designer":"","shinkenchiku_url":""},{"id":10472,"title":"八光自動車 京都","architect":"森下修","year":2013.0,"address":"京都府京都市左京区一乗寺樋ノ口町60","latitude":35.03860092163086,"longitude":135.7919464111328,"category":"低層オフィス/店舗","big_category":"企業施設,商業施設","description":"","image_url":"","tags":"Ver3.90(2021年8月)の追加建築","prefecture":"京都","contractor":"","structural_designer":"","landscape_designer":"","shinkenchiku_url":""},{"id":10473,"title":"おか田ビル","architect":"佐藤光彦","year":2009.0,"address":"東京都江東区富岡2-1-10","latitude":35.670101165771484,"longitude":139.80068969726562,"category":"テナントビル","big_category":"商業施設","description":"","image_url":"","tags":"Ver3.90(2021年8月)の追加建築","prefecture":"東京","contractor":"","structural_designer":"","landscape_designer":"","shinkenchiku_url":""},{"id":10474,"title":"SUM コマツナギテラス","architect":"佐藤光彦","year":2012.0,"address":"東京都世田谷区下馬1-27-7","latitude":35.63934326171875,"longitude":139.6812286376953,"category":"集合住宅","big_category":"住宅","description":"","image_url":"","tags":"Ver3.90(2021年8月)の追加建築","prefecture":"東京","contractor":"","structural_designer":"","landscape_designer":"","shinkenchiku_url":""},{"id":10475,"title":"KNT トロワ","architect":"佐藤光彦","year":2009.0,"address":"東京都国分寺市日吉町2-16-2","latitude":35.70256423950195,"longitude":139.4523162841797,"category":"集合住宅","big_category":"住宅","description":"","image_url":"","tags":"Ver3.90(2021年8月)の追加建築","prefecture":"東京","contractor":"","structural_designer":"","landscape_designer":"","shinkenchiku_url":""},{"id":10476,"title":"SAK sette","architect":"佐藤光彦","year":2008.0,"address":"東京都世田谷区桜3-11-14","latitude":35.63845443725586,"longitude":139.63601684570312,"category":"集合住宅","big_category":"住宅","description":"","image_url":"","tags":"Ver3.90(2021年8月)の追加建築","prefecture":"東京","contractor":"","structural_designer":"","landscape_designer":"","shinkenchiku_url":""},{"id":10477,"title":"裏参道テラス","architect":"藤原徹平","year":2021.0,"address":"東京都渋谷区神宮前4-1-18","latitude":35.66777801513672,"longitude":139.7123260498047,"category":"集合住宅/店舗","big_category":"住宅,商業施設","description":"","image_url":"","tags":"新建築2021年8月号,Ver3.90(2021年8月)の追加建築","prefecture":"東京","contractor":"辰","structural_designer":"","landscape_designer":"","shinkenchiku_url":""},{"id":10478,"title":"プラウドシティ東雲キャナルマークス","architect":"野村不動産+長谷工コーポレーション","year":2020.0,"address":"東京都江東区東雲1-10-14","latitude":35.650489807128906,"longitude":139.80291748046875,"category":"集合住宅","big_category":"住宅","description":"","image_url":"","tags":"新建築2021年8月号,Ver3.90(2021年8月)の追加建築","prefecture":"東京","contractor":"長谷工コーポレーション","structural_designer":"","landscape_designer":"","shinkenchiku_url":""},{"id":10479,"title":"陸前高田発酵パーク カモシー","architect":"山田貴宏","year":2020.0,"address":"岩手県陸前高田市気仙町74-1","latitude":39.007911682128906,"longitude":141.61642456054688,"category":"PA・道の駅/店舗","big_category":"インフラ,商業施設","description":"","image_url":"","tags":"Ver3.90(2021年8月)の追加建築","prefecture":"岩手","contractor":"","structural_designer":"","landscape_designer":"","shinkenchiku_url":""},{"id":10480,"title":"神山町大埜地の集合住宅","architect":"山田貴宏","year":2021.0,"address":"徳島県名西郡神山町神領大埜地","latitude":33.970497131347656,"longitude":134.3606719970703,"category":"住宅/公民館・交流施設/集合住宅","big_category":"住宅,公共施設,住宅","description":"","image_url":"","tags":"新建築2021年8月号,Ver3.90(2021年8月)の追加建築","prefecture":"徳島","contractor":"","structural_designer":"","landscape_designer":"","shinkenchiku_url":""},{"id":10481,"title":"阿山カンツリー倶楽部 クラブハウス 旧デイリージャパン","architect":"遠藤剛生","year":1991.0,"address":"三重県伊賀市円徳院1636","latitude":34.813106536865234,"longitude":136.16094970703125,"category":"クラブハウス","big_category":"レジャー施設","description":"","image_url":"","tags":"Ver3.90(2021年8月)の追加建築","prefecture":"三重","contractor":"","structural_designer":"","landscape_designer":"","shinkenchiku_url":""},{"id":10482,"title":"大阪府営東大阪 吉田住宅","architect":"遠藤剛生","year":1994.0,"address":"大阪府東大阪市島之内1-6-4","latitude":34.67786407470703,"longitude":135.61724853515625,"category":"集合住宅","big_category":"住宅","description":"","image_url":"","tags":"Ver3.90(2021年8月)の追加建築","prefecture":"大阪","contractor":"","structural_designer":"","landscape_designer":"","shinkenchiku_url":""},{"id":10483,"title":"ふれっくすコート吉田","architect":"吉村篤一+近角真一+高田光雄","year":1999.0,"address":"大阪府東大阪市島之内1-3-21","latitude":34.6768684387207,"longitude":135.61883544921875,"category":"集合住宅","big_category":"住宅","description":"スケルトンを吉村篤一、インフィルを近角真一、マスターアーキテクトとして高田光雄","image_url":"","tags":"Ver3.90(2021年8月)の追加建築","prefecture":"大阪","contractor":"","structural_designer":"","landscape_designer":"","shinkenchiku_url":""},{"id":10484,"title":"東京日仏学院 アンスティチュ・フランセ東京 Village as Institute","architect":"藤本壮介","year":2021.0,"address":"東京都新宿区市谷船河原町15","latitude":35.698509216308594,"longitude":139.74009704589844,"category":"学校","big_category":"教育","description":"","image_url":"","tags":"Ver3.90(2021年8月)の追加建築","prefecture":"東京","contractor":"","structural_designer":"","landscape_designer":"","shinkenchiku_url":""},{"id":10485,"title":"BYAKU narai 上原屋 旧杉の森酒造・豊飯豊衣民宿","architect":"ツバメアーキテクツ","year":2021.0,"address":"長野県塩尻市奈良井607","latitude":35.967288970947266,"longitude":137.81346130371094,"category":"旅館/ギャラリー/古民家","big_category":"宿泊,ミュージアム,近代建築/遺産","description":"酒造・民宿の改修","image_url":"","tags":"Ver3.90(2021年8月)の追加建築,新建築2021年12月号","prefecture":"長野","contractor":"","structural_designer":"","landscape_designer":"","shinkenchiku_url":""},{"id":10486,"title":"Ento","architect":"マウントフジアーキテクツスタジオ","year":2021.0,"address":"島根県隠岐郡海士町福井1375-1","latitude":36.10588455200195,"longitude":133.07546997070312,"category":"ホテル","big_category":"宿泊","description":"旧マリンポートホテル海士の新築部分","image_url":"","tags":"Ver3.90(2021年8月)の追加建築,新建築2021年9月号,第32回AACA 優秀賞,2022年度JIA優秀建築賞","prefecture":"島根","contractor":"前田建設工業・鴻池組特別共同企業体","structural_designer":"","landscape_designer":"","shinkenchiku_url":""},{"id":10487,"title":"目黒クリニックビル","architect":"青木茂","year":2021.0,"address":"東京都品川区上大崎3-11-18","latitude":35.629791259765625,"longitude":139.71839904785156,"category":"個人医院","big_category":"医療施設","description":"リファイニング","image_url":"","tags":"Ver3.90(2021年8月)の追加建築","prefecture":"東京","contractor":"","structural_designer":"","landscape_designer":"","shinkenchiku_url":""},{"id":10488,"title":"藤沢翔陵高等学校","architect":"青木茂","year":2020.0,"address":"神奈川県藤沢市善行7-1-3","latitude":35.361549377441406,"longitude":139.47427368164062,"category":"学校","big_category":"教育","description":"1963年竣工の校舎をリファイニング","image_url":"","tags":"Ver3.90(2021年8月)の追加建築","prefecture":"神奈川","contractor":"","structural_designer":"","landscape_designer":"","shinkenchiku_url":""},{"id":10489,"title":"モトキ7ビル","architect":"青木茂","year":2020.0,"address":"東京都中央区銀座7-8-4","latitude":35.669288635253906,"longitude":139.76268005371094,"category":"テナントビル","big_category":"商業施設","description":"1964年竣工のビルをリファイニング","image_url":"","tags":"Ver3.90(2021年8月)の追加建築","prefecture":"東京","contractor":"","structural_designer":"","landscape_designer":"","shinkenchiku_url":""},{"id":10490,"title":"トラスト学芸大学","architect":"青木茂","year":2020.0,"address":"東京都目黒区鷹番1-1-13","latitude":35.626808166503906,"longitude":139.69085693359375,"category":"集合住宅","big_category":"住宅","description":"1965年頃竣工のビルをリファイニング","image_url":"","tags":"Ver3.90(2021年8月)の追加建築","prefecture":"東京","contractor":"","structural_designer":"","landscape_designer":"","shinkenchiku_url":""},{"id":10491,"title":"伊豆ベロドローム","architect":"清水建設","year":2011.0,"address":"静岡県伊豆市大野1826","latitude":35.01155471801758,"longitude":139.01524353027344,"category":"スタジアム","big_category":"レジャー施設","description":"東京2020オリンピック会場","image_url":"","tags":"Ver3.90(2021年8月)の追加建築,東京2020オリンピック競技会場","prefecture":"静岡","contractor":"","structural_designer":"","landscape_designer":"","shinkenchiku_url":""},{"id":10492,"title":"3L","architect":"田中裕之+シミズ・ビルライフケア","year":2019.0,"address":"東京都大田区北馬込1-26-19","latitude":35.599361419677734,"longitude":139.70553588867188,"category":"研究施設","big_category":"教育","description":"監修：田中裕之。旧体育館大森会館のリノベーション","image_url":"","tags":"Ver3.90(2021年8月)の追加建築","prefecture":"東京","contractor":"","structural_designer":"","landscape_designer":"","shinkenchiku_url":""},{"id":10493,"title":"COYANE SAIKAITOKI","architect":"原田圭","year":2020.0,"address":"長崎県東彼杵郡波佐見町折敷瀬郷2204-4","latitude":33.13772201538086,"longitude":129.89674377441406,"category":"レストラン","big_category":"商業施設","description":"同設計者のOYANEに隣接","image_url":"","tags":"Ver3.90(2021年8月)の追加建築","prefecture":"長崎","contractor":"","structural_designer":"","landscape_designer":"","shinkenchiku_url":""},{"id":10494,"title":"JINS 仙台泉店","architect":"川嶋洋平","year":2019.0,"address":"宮城県仙台市泉区高玉町9-144","latitude":38.31730651855469,"longitude":140.8943634033203,"category":"店舗","big_category":"商業施設","description":"","image_url":"","tags":"Ver3.90(2021年8月)の追加建築","prefecture":"宮城","contractor":"","structural_designer":"","landscape_designer":"","shinkenchiku_url":""},{"id":10495,"title":"広島工業大学 新講義棟 三宅の森 Nexus21","architect":"大旗連合建築設計","year":2009.0,"address":"広島県広島市佐伯区三宅2-1-1","latitude":34.36969757080078,"longitude":132.34405517578125,"category":"大学","big_category":"教育","description":"","image_url":"","tags":"Ver3.90(2021年8月)の追加建築","prefecture":"広島","contractor":"フジタ・湯川組共同企業体","structural_designer":"","landscape_designer":"","shinkenchiku_url":""},{"id":10496,"title":"日本武道館","architect":"山田守","year":1964.0,"address":"東京都千代田区北の丸公園2-3","latitude":35.69331741333008,"longitude":139.74986267089844,"category":"スタジアム","big_category":"レジャー施設","description":"","image_url":"","tags":"Ver3.90(2021年8月)の追加建築,東京2020オリンピック競技会場,DOCOMOMO","prefecture":"東京","contractor":"","structural_designer":"","landscape_designer":"","shinkenchiku_url":""},{"id":10497,"title":"広島大学 中央図書館","architect":"丹下健三","year":1995.0,"address":"広島県東広島市鏡山1-2-2-2","latitude":34.40294647216797,"longitude":132.71347045898438,"category":"大学/図書館","big_category":"教育,文化施設","description":"","image_url":"","tags":"Ver3.90(2021年8月)の追加建築","prefecture":"広島","contractor":"","structural_designer":"","landscape_designer":"","shinkenchiku_url":""},{"id":10498,"title":"ののやま矯正歯科医院","architect":"三分一博志","year":2006.0,"address":"広島県東広島市西条本町12-9","latitude":34.43028259277344,"longitude":132.7434844970703,"category":"個人医院","big_category":"医療施設","description":"GoogleMap上では建築の現存を確認出来るが、別のテナントが入っている可能性がある。未確認","image_url":"","tags":"Ver3.90(2021年8月)の追加建築","prefecture":"広島","contractor":"竹中工務店","structural_designer":"","landscape_designer":"","shinkenchiku_url":""},{"id":10499,"title":"西の河原公園 入口トイレ","architect":"北山孝二郎","year":2018.0,"address":"群馬県吾妻郡草津町草津513","latitude":36.62394332885742,"longitude":138.59230041503906,"category":"トイレ","big_category":"公共施設","description":"","image_url":"","tags":"Ver3.90(2021年8月)の追加建築","prefecture":"群馬","contractor":"","structural_designer":"","landscape_designer":"","shinkenchiku_url":""},{"id":10500,"title":"両国国技館","architect":"鹿島建設","year":1984.0,"address":"東京都墨田区横網1-3-28","latitude":35.69691848754883,"longitude":139.79348754882812,"category":"スタジアム","big_category":"レジャー施設","description":"","image_url":"","tags":"Ver3.90(2021年8月)の追加建築,東京2020オリンピック競技会場","prefecture":"東京","contractor":"","structural_designer":"","landscape_designer":"","shinkenchiku_url":""}]}