{"page":243,"total_pages":290,"items_per_page":50,"total_items":14467,"items":[{"id":12101,"title":"堂前さんちの歯医者さん マコモ歯科","architect":"長坂常","year":2022.0,"address":"石川県河北郡津幡町中橋ハ125-1","latitude":36.67289352416992,"longitude":136.72128295898438,"category":"個人医院","description":"","image_url":""},{"id":12102,"title":"un白木","architect":"アキチアーキテクツ","year":2022.0,"address":"岐阜県本巣郡北方町高屋白木3-3-108-10","latitude":35.41592025756836,"longitude":5159694336.0,"category":"住宅","description":"モデルハウス","image_url":""},{"id":12103,"title":"24PILLARS","architect":"今津康夫","year":2022.0,"address":"愛知県名古屋市中区金山3-4-16","latitude":35.146583557128906,"longitude":136.9085235595703,"category":"店舗/モール/カフェ","description":"","image_url":""},{"id":12104,"title":"ヴィレッヂヒノハラ","architect":"山家明","year":2022.0,"address":"東京都西多摩郡檜原村本宿790-2","latitude":35.7079963684082,"longitude":139.1532440185547,"category":"シェアオフィス/コテージ","description":"","image_url":""},{"id":12105,"title":"おいしいパーク","architect":"多田正治","year":2022.0,"address":"和歌山県新宮市千穂1-3","latitude":33.724910736083984,"longitude":135.9843292236328,"category":"公園","description":"","image_url":""},{"id":12106,"title":"千鳥ケ淵戦没者墓苑","architect":"谷口吉郎","year":1962.0,"address":"東京都千代田区三番町2","latitude":35.689876556396484,"longitude":139.74717712402344,"category":"霊園","description":"","image_url":""},{"id":12107,"title":"西神中央ホール なでしこ芸術文化センター","architect":"久米設計","year":2022.0,"address":"兵庫県神戸市西区美賀多台1-1-1","latitude":34.71967697143555,"longitude":135.01568603515625,"category":"ホール・劇場","description":"","image_url":""},{"id":12108,"title":"三井ガーデンホテル京都河原町浄教寺","architect":"熊谷組","year":2020.0,"address":"京都府京都市下京区寺町通四条下る貞安前之町620","latitude":35.002891540527344,"longitude":135.7672882080078,"category":"ホテル","description":"","image_url":""},{"id":12109,"title":"太宰府天満宮 仮殿","architect":"藤本壮介","year":2023.0,"address":"福岡県太宰府市宰府4-7-1","latitude":33.521419525146484,"longitude":130.5347900390625,"category":"寺院","description":"2023年5月竣工予定。3年間の仮設","image_url":""},{"id":12110,"title":"東林間のアパート CASA FORESTA","architect":"小林宏輔","year":2022.0,"address":"神奈川県相模原市南区東林間4-7-8","latitude":35.521366119384766,"longitude":139.43753051757812,"category":"集合住宅","description":"","image_url":""},{"id":12111,"title":"関ヶ原石材 Strad. Stone Gallery","architect":"トラフ建築設計事務所","year":2022.0,"address":"岐阜県不破郡関ケ原町関ケ原2682","latitude":35.35740661621094,"longitude":136.4699249267578,"category":"企業施設/博物館/ギャラリー","description":"","image_url":""},{"id":12112,"title":"JA新みやぎ南郷支店 旧南郷町農協会館","architect":"大高正人","year":1969.0,"address":"宮城県遠田郡美里町木間塚高田2","latitude":38.488136291503906,"longitude":141.13232421875,"category":"組合施設","description":"","image_url":""},{"id":12113,"title":"JINS 大利根店","architect":"平居直","year":2022.0,"address":"埼玉県加須市琴寄99","latitude":36.12699890136719,"longitude":139.68263244628906,"category":"店舗","description":"","image_url":""},{"id":12114,"title":"レストラン菊水","architect":"上田工務店","year":1926.0,"address":"京都市東山区四条通川端東入ル川端町四条大橋東詰","latitude":35.00398635864258,"longitude":135.77227783203125,"category":"レストラン","description":"","image_url":""},{"id":12115,"title":"小柳建設 本店","architect":"大野力","year":2021.0,"address":"新潟県加茂市青海町1-5-7","latitude":37.663368225097656,"longitude":139.05508422851562,"category":"低層オフィス","description":"","image_url":""},{"id":12116,"title":"まつばこども園","architect":"天野寛志","year":2022.0,"address":"静岡県浜松市中区上島1-26-14","latitude":34.73936080932617,"longitude":137.74317932128906,"category":"幼稚園","description":"","image_url":""},{"id":12117,"title":"産業技術総合研究所 ゼロエミッション国際共同研究センター","architect":"清水建設","year":2021.0,"address":"茨城県つくば市小野川16-1","latitude":36.05333709716797,"longitude":140.11892700195312,"category":"研究施設","description":"","image_url":""},{"id":12118,"title":"森の歯科 たなか歯科クリニック","architect":"吉野優輔","year":2021.0,"address":"和歌山県田辺市たきない町21-33","latitude":33.70069885253906,"longitude":135.40126037597656,"category":"個人医院/住宅","description":"","image_url":""},{"id":12119,"title":"nimbus 旧S邸 福井・勝山の家","architect":"磯崎新+伊東孝","year":1986.0,"address":"福井県勝山市元町1-1-36","latitude":36.06051254272461,"longitude":136.50022888183594,"category":"店舗/カフェ/住宅","description":"ライフスタイルショップ+カフェとして営業している。磯崎新が基本構想、その後伊東孝が設計を引き継ぎ1986年に竣工。2022年に清水俊貴+山田寛により改修","image_url":""},{"id":12120,"title":"中上邸 イソザキホール","architect":"磯崎新","year":1983.0,"address":"福井県勝山市元町1-9-21","latitude":36.059715270996094,"longitude":136.50140380859375,"category":"住宅","description":"2019年に限定公開イベント","image_url":""},{"id":12121,"title":"IWA 酒蔵","architect":"隈研吾","year":2022.0,"address":"富山県中新川郡立山町白岩178","latitude":36.63599395751953,"longitude":137.3547821044922,"category":"醸造所","description":"現在一般公開されていないが、今後酒蔵見学などを予定","image_url":""},{"id":12122,"title":"宮前迎賓館 灯明殿","architect":"高木正三郎","year":2022.0,"address":"福岡県福岡市博多区上川端町1-35","latitude":33.59357452392578,"longitude":130.41053771972656,"category":"結婚式場","description":"2023年4月オープン予定","image_url":""},{"id":12123,"title":"GOSE SENTO HOTEL 御所宝湯","architect":"つぎと","year":2022.0,"address":"奈良県御所市御国通り2-361-5","latitude":34.46248245239258,"longitude":135.73497009277344,"category":"温泉","description":"1916年創業の銭湯改修","image_url":""},{"id":12124,"title":"GOSE SENTO HOTEL 宿チャリンコ","architect":"吉村理","year":2022.0,"address":"奈良県御所市鴨口町1087","latitude":34.46129608154297,"longitude":135.73565673828125,"category":"古民家/コテージ","description":"古民家改修","image_url":""},{"id":12125,"title":"RITA 御所まち","architect":"テトラプラス","year":2022.0,"address":"奈良県御所市西町1069","latitude":34.462646484375,"longitude":135.73570251464844,"category":"古民家/コテージ","description":"古民家改修","image_url":""},{"id":12126,"title":"洋食屋ケムリ","architect":"吉村理","year":2022.0,"address":"奈良県御所市西柏町1296","latitude":34.46072769165039,"longitude":135.73785400390625,"category":"レストラン/古民家","description":"古民家改修","image_url":""},{"id":12127,"title":"アプリュス","architect":"吉村理","year":2022.0,"address":"奈良県御所市西久保本町1137","latitude":34.46219253540039,"longitude":135.73623657226562,"category":"レストラン/古民家","description":"古民家改修","image_url":""},{"id":12128,"title":"大和蒸留所","architect":"吉村理","year":2018.0,"address":"奈良県御所市西久保本町1137","latitude":34.46208190917969,"longitude":135.73635864257812,"category":"工場/古民家","description":"古民家改修","image_url":""},{"id":12129,"title":"MONOSPINAL 浅草橋オフィスビル","architect":"山口誠","year":2023.0,"address":"東京都台東区浅草橋4-1-3","latitude":35.69780349731445,"longitude":139.78262329101562,"category":"オフィスビル","description":"2023年3月末竣工予定","image_url":""},{"id":12130,"title":"Relevant Object 旧喜多源逸邸","architect":"藤井厚二","year":1926.0,"address":"京都府京都市左京区北白川伊織町54","latitude":35.0352783203125,"longitude":135.7888946533203,"category":"和風住宅/ギャラリー","description":"ヴィンテージ家具のギャラリー。事前予約制","image_url":""},{"id":12131,"title":"新さっぽろ駅周辺地区 I街区開発・アクティブリンク","architect":"大成建設+ネイ&パートナーズジャパン+ドーコン+フィルド","year":2022.0,"address":"北海道札幌市厚別区厚別中央1条6-2-4","latitude":43.0391731262207,"longitude":141.47589111328125,"category":"橋/病院/都市計画","description":"","image_url":""},{"id":12132,"title":"自然と科学のミュージアム 森の工舎 旧虎杖中学校","architect":"トラフ建築設計事務所","year":2022.0,"address":"北海道白老郡白老町虎杖浜393-12","latitude":42.46434020996094,"longitude":141.1991729736328,"category":"博物館/体験施設","description":"中学校のリノベーション","image_url":""},{"id":12133,"title":"尼崎市緑の相談所 ","architect":"石井修","year":1981.0,"address":"兵庫県尼崎市東塚口町2-2-1","latitude":34.74884796142578,"longitude":135.42318725585938,"category":"公共施設","description":"","image_url":""},{"id":12134,"title":"京都イマージアムビル","architect":"石井修","year":1987.0,"address":"京都府京都市下京区西木屋町通四条上る西入真町97","latitude":35.004215240478516,"longitude":135.77027893066406,"category":"テナントビル","description":"","image_url":""},{"id":12135,"title":"宗像大社 新祈願殿","architect":"岩永祥","year":2021.0,"address":"福岡県宗像市田島2331","latitude":33.83122634887695,"longitude":130.5130615234375,"category":"寺院","description":"","image_url":""},{"id":12136,"title":"下瀬美術館","architect":"坂茂","year":2023.0,"address":"広島県大竹市晴海2-10-50","latitude":34.24104309082031,"longitude":132.2269744873047,"category":"美術館","description":"2023年3月オープン予定","image_url":""},{"id":12137,"title":"Simose Art Garden Villa","architect":"坂茂","year":2023.0,"address":"広島県大竹市晴海2-10-50","latitude":34.24216079711914,"longitude":132.22821044921875,"category":"コテージ","description":"2023年4月1日より宿泊可能。壁のない家、紙の家、十字壁の家、ダブルルーフの家、キールステックの家、家具の家といった坂茂が過去に設計した住宅作品が点在し宿泊出来る。Google Mapsが更新され次第、細分化予定","image_url":""},{"id":12138,"title":"DAICHI ISUMI","architect":"谷尻誠","year":2022.0,"address":"千葉県いすみ市岬町榎沢","latitude":35.31361389160156,"longitude":140.36341857910156,"category":"コテージ","description":"個人・法人会員が使用しない日のみ、一般向けの貸し出しを行う","image_url":""},{"id":12139,"title":"市原歴史博物館 I'Museum Center","architect":"楠山設計","year":2019.0,"address":"千葉県千葉県市原市能満1489","latitude":35.50474166870117,"longitude":140.1290283203125,"category":"博物館","description":"","image_url":""},{"id":12140,"title":"玉造幼稚園","architect":"橋本尚樹","year":2022.0,"address":"千葉県成田市玉造5-1031-3","latitude":35.790157318115234,"longitude":140.2960662841797,"category":"幼稚園","description":"","image_url":""},{"id":12141,"title":"東京芸術大学 国際交流棟 Hisao＆Hiroko TAKI PLAZA","architect":"隈研吾","year":2022.0,"address":"東京都台東区上野公園12-8","latitude":35.719181060791016,"longitude":139.77304077148438,"category":"大学","description":"","image_url":""},{"id":12142,"title":"閖上のオフィス クマノテドット","architect":"小俣裕亮","year":2021.0,"address":"宮城県名取市閖上東2-4-1","latitude":38.173675537109375,"longitude":140.955322265625,"category":"低層オフィス","description":"","image_url":""},{"id":12143,"title":"御船山楽園ホテル 大浴場","architect":"大森創太郎","year":null,"address":"住所不明","latitude":0.0,"longitude":0.0,"category":"ホテル/温泉","description":"","image_url":""},{"id":12144,"title":"高輪台テラス 吉武泰水邸の改修","architect":"駒田建築設計事務所+長澤泰+吉武泰水","year":1991.0,"address":"東京都品川区東五反田4-1-3","latitude":35.63193130493164,"longitude":139.72674560546875,"category":"集合住宅","description":"吉武泰水の元自邸を改修してスケルトン分譲","image_url":""},{"id":12145,"title":"SCOP TOYAMA 富山県創業支援センター / 創業・移住促進住宅","architect":"仲建築設計スタジオ","year":2022.0,"address":"富山県富山市蓮町1-7","latitude":36.74100112915039,"longitude":137.2251739501953,"category":"シェアオフィス/集合住宅","description":"団地の改修","image_url":""},{"id":12146,"title":"六角橋の四軒長屋","architect":"ツバメアーキテクツ","year":2022.0,"address":"神奈川県横浜市神奈川区六角橋2-13-5","latitude":35.487083435058594,"longitude":139.62403869628906,"category":"集合住宅","description":"","image_url":""},{"id":12147,"title":"ロッカクパッチ","architect":"石井大吾","year":2023.0,"address":"神奈川県横浜市神奈川区六角橋1-12-22","latitude":35.488006591796875,"longitude":139.62606811523438,"category":"シェアオフィス/カフェ","description":"元質屋を改修","image_url":""},{"id":12148,"title":"椿峰キッチン","architect":"藤村龍至","year":2023.0,"address":"埼玉県所沢市山口1378-3","latitude":35.7821044921875,"longitude":139.44044494628906,"category":"シェアオフィス","description":"","image_url":""},{"id":12149,"title":"はるのや","architect":"山田紗子","year":2021.0,"address":"東京都世田谷区羽根木1-16-11","latitude":35.66465759277344,"longitude":139.6589813232422,"category":"古民家/コテージ","description":"古民家を改修。一棟貸し、レンタルスペース","image_url":""},{"id":12150,"title":"メトロステージ代々木上原","architect":"JAMZA","year":2022.0,"address":"東京都渋谷区西原3-21-7","latitude":35.67056655883789,"longitude":139.6816864013672,"category":"集合住宅","description":"1978年竣工、鉄道保守部門の宿泊所の改修","image_url":""}]}