{"page":229,"total_pages":290,"items_per_page":50,"total_items":14467,"items":[{"id":11401,"title":"STUDIO御殿山","architect":"千葉学","year":2006.0,"address":"東京都品川区北品川4-1","latitude":35.62279510498047,"longitude":139.73497009277344,"category":"集合住宅","description":"","image_url":""},{"id":11402,"title":"愛媛県歯科医師会館","architect":"矢野青山建築設計事務所","year":2021.0,"address":"愛媛県松山市柳井町2-6-2","latitude":33.83293914794922,"longitude":132.7682647705078,"category":"組合施設","description":"","image_url":""},{"id":11403,"title":"慈恵大学病院N棟・東京慈恵会医科大学 大学2号館","architect":"竹中工務店+久米設計","year":2018.0,"address":"東京都港区西新橋3-25-8","latitude":35.66394805908203,"longitude":139.75048828125,"category":"病院/大学","description":"","image_url":""},{"id":11404,"title":"慈恵大学病院 外来棟","architect":"竹中工務店+久米設計","year":2020.0,"address":"東京都港区西新橋3-19-18","latitude":35.663055419921875,"longitude":139.75042724609375,"category":"病院","description":"","image_url":""},{"id":11405,"title":"近畿大学 E館 KDIX","architect":"NTTファシリティーズ","year":2022.0,"address":"大阪府東大阪市新上小阪5","latitude":34.651611328125,"longitude":135.59140014648438,"category":"大学","description":"実施設計：五洋建設","image_url":""},{"id":11406,"title":"熊本保健科学大学 新レストラン","architect":"戸田建設","year":2020.0,"address":"熊本県熊本市北区和泉町325","latitude":32.852867126464844,"longitude":130.6973419189453,"category":"大学/レストラン","description":"旧アリーナのコンバージョン","image_url":""},{"id":11407,"title":"Port Plus 大林組横浜研修所","architect":"大林組","year":2022.0,"address":"神奈川県横浜市中区弁天通2-22","latitude":35.44729995727539,"longitude":139.63955688476562,"category":"研修施設/研究施設","description":"","image_url":""},{"id":11408,"title":"常泉寺 新位牌堂","architect":"宮本佳明","year":2022.0,"address":"長野県上伊那郡中川村大草5151","latitude":35.626075744628906,"longitude":137.94656372070312,"category":"寺院","description":"","image_url":""},{"id":11409,"title":"原池公園拠点施設 バーベキューフィールド matoi","architect":"畑友洋","year":2022.0,"address":"大阪府堺市中区八田寺町320","latitude":34.518428802490234,"longitude":135.4950408935547,"category":"公園","description":"","image_url":""},{"id":11410,"title":"立田山憩の森・お祭り広場公衆トイレ 森と人の輪","architect":"山下設計","year":2021.0,"address":"熊本県熊本市北区乗越ヶ丘","latitude":32.8314323425293,"longitude":130.73355102539062,"category":"トイレ","description":"曽根拓也+坂本達典+内村梓+前原竹二","image_url":""},{"id":11411,"title":"SPRING TERRACE OMOTESANDO","architect":"MARU。architecture","year":2020.0,"address":"東京都港区北青山3-10-5","latitude":35.66443634033203,"longitude":139.71075439453125,"category":"テナントビル","description":"","image_url":""},{"id":11412,"title":"みやこのじょう児童学園","architect":"MARU。architecture+エース建築設計","year":2019.0,"address":"宮崎県都城市祝吉2-7-4","latitude":31.746742248535156,"longitude":131.08401489257812,"category":"幼稚園","description":"","image_url":""},{"id":11413,"title":"二重窓の集合住宅 Grava Senzoku","architect":"MARU。architecture","year":2017.0,"address":"東京都大田区北千束2-22-5","latitude":35.606689453125,"longitude":139.69522094726562,"category":"集合住宅","description":"","image_url":""},{"id":11414,"title":"ささしま高架下オフィス","architect":"MARU。architecture","year":2022.0,"address":"愛知県名古屋市中村区下広井町1-14-8","latitude":35.16383361816406,"longitude":136.885009765625,"category":"低層オフィス","description":"","image_url":""},{"id":11415,"title":"ICI STUDIO 旧渡辺甚吉邸","architect":"遠藤健三+山本拙郎+今和次郎+前田建設工業","year":1934.0,"address":"茨城県取手市寺田5270","latitude":35.91070556640625,"longitude":140.05621337890625,"category":"洋館","description":"旧渡辺甚吉邸を2022年4月にICI総合センター内に移築。元設計は全体設計：山本拙郎 実施設計：遠藤健三 細部装飾：今和次郎。定期的に一般見学会を開催","image_url":""},{"id":11416,"title":"ICI STUDIO W-ANNEX","architect":"前田建設工業+ツバメアーキテクツ","year":2022.0,"address":"茨城県取手市寺田5270","latitude":35.91038131713867,"longitude":140.056396484375,"category":"研究施設/低層オフィス","description":"","image_url":""},{"id":11417,"title":"三嶋大社 舞殿","architect":"不明+竹中工務店","year":null,"address":"静岡県三島市大宮町2-1-5","latitude":35.122100830078125,"longitude":138.9188690185547,"category":"寺院","description":"改修・修復を竹中工務店","image_url":""},{"id":11418,"title":"あわくら会館・あわくら図書館","architect":"三井所清典+倉森建築設計事務所+近代設計コンサルタント","year":2020.0,"address":"岡山県英田郡西粟倉村影石33-1","latitude":35.17148971557617,"longitude":134.335693359375,"category":"ホール・劇場/図書館/公民館・交流施設","description":"","image_url":""},{"id":11419,"title":"美郷アトリエ","architect":"佐藤欣裕","year":2021.0,"address":"秋田県美郷町土崎八幡殿23-5","latitude":39.46092987060547,"longitude":140.5738067626953,"category":"低層オフィス","description":"","image_url":""},{"id":11420,"title":"パッシブタウン第4街区 たんぽぽ保育園","architect":"田口知子","year":2022.0,"address":"富山県黒部市三日市4016-1","latitude":36.87875747680664,"longitude":137.44537353515625,"category":"幼稚園","description":"","image_url":""},{"id":11421,"title":"流山市立おおぐろの森中学校","architect":"日本設計","year":2021.0,"address":"千葉県流山市大畔581","latitude":35.87492752075195,"longitude":139.91305541992188,"category":"学校","description":"","image_url":""},{"id":11422,"title":"OKI本庄工場H1棟","architect":"大成建設","year":2022.0,"address":"埼玉県本庄市小島南4-1-1","latitude":36.24470901489258,"longitude":139.16683959960938,"category":"工場","description":"","image_url":""},{"id":11423,"title":"モクビル 南葛西","architect":"スターツCAM+加藤詞史","year":2022.0,"address":"東京都江戸川区南葛西2-4-3","latitude":35.655704498291016,"longitude":139.87286376953125,"category":"集合住宅","description":"","image_url":""},{"id":11424,"title":"Rooftecture OG オーベルジュ玄珠","architect":"遠藤秀平","year":2020.0,"address":"岐阜県高山市清見町大原801-5","latitude":35.9429931640625,"longitude":137.08412170410156,"category":"ホテル","description":"","image_url":""},{"id":11425,"title":"有明ガーデン シアター棟・ホテル棟・モール&スパ棟","architect":"竹中工務店","year":2020.0,"address":"東京都江東区有明2-1-8","latitude":35.63740158081055,"longitude":139.79241943359375,"category":"ホール・劇場/ホテル","description":"","image_url":""},{"id":11426,"title":"こざかい葵風館","architect":"シーラカンスアンドアソシエイツ","year":2021.0,"address":"愛知県豊川市小坂井町大堀10","latitude":34.801334381103516,"longitude":137.3590087890625,"category":"庁舎/公民館・交流施設/福祉センター","description":"","image_url":""},{"id":11427,"title":"星乃珈琲店 守谷店","architect":"ボンドアーキテクツ","year":2021.0,"address":"茨城県守谷市百合ケ丘2-2729","latitude":35.95063018798828,"longitude":139.97930908203125,"category":"カフェ","description":"","image_url":""},{"id":11428,"title":"THE RAYSUM","architect":"久保都島建築設計","year":2021.0,"address":"群馬県安中市安中5853","latitude":36.349063873291016,"longitude":138.9029998779297,"category":"クラブハウス","description":"","image_url":""},{"id":11429,"title":"津山信用金庫 勝山支店","architect":"ofa","year":2021.0,"address":"岡山県真庭市勝山317","latitude":35.08274459838867,"longitude":133.69654846191406,"category":"金融機関","description":"","image_url":""},{"id":11430,"title":"阿波銀行 本店営業部ビル","architect":"日建設計","year":2019.0,"address":"徳島県徳島市東新町1-29","latitude":34.07054901123047,"longitude":134.54718017578125,"category":"金融機関","description":"","image_url":""},{"id":11431,"title":"椙山女学園大学附属 椙山こども園","architect":"日建設計","year":2019.0,"address":"愛知県名古屋市名東区にじが丘1-12-4","latitude":35.15850067138672,"longitude":136.989501953125,"category":"幼稚園","description":"","image_url":""},{"id":11432,"title":"岸家","architect":"G architects studio+山翠舎","year":2019.0,"address":"神奈川県鎌倉市坂ノ下21-5","latitude":35.308990478515625,"longitude":139.53395080566406,"category":"コテージ/住宅","description":"","image_url":""},{"id":11433,"title":"​船橋のこどもクリニック 船橋青い空こどもクリニック","architect":"JAMZA+小林千尋","year":2021.0,"address":"千葉県船橋市米ヶ崎町651-1","latitude":35.711143493652344,"longitude":140.00506591796875,"category":"幼稚園","description":"","image_url":""},{"id":11434,"title":"シエル松原","architect":"添田貴之","year":2021.0,"address":"栃木県宇都宮市松原2-3-36","latitude":36.571449279785156,"longitude":139.87002563476562,"category":"テナントビル/住宅","description":"","image_url":""},{"id":11435,"title":"キャリィ","architect":"添田貴之","year":2013.0,"address":"千葉県千葉市中央区問屋町14-6","latitude":35.60261154174805,"longitude":140.10891723632812,"category":"集合住宅","description":"","image_url":""},{"id":11436,"title":"きぬばし薬局","architect":"添田貴之","year":2012.0,"address":"栃木県宇都宮市石井町2338-1","latitude":36.54316329956055,"longitude":139.95425415039062,"category":"店舗","description":"","image_url":""},{"id":11437,"title":"千光寺頂上展望台 PEAK","architect":"青木淳","year":2022.0,"address":"広島県尾道市東土堂町20-2","latitude":34.41069030761719,"longitude":133.19696044921875,"category":"展望台","description":"","image_url":""},{"id":11438,"title":"禅坊 靖寧","architect":"坂茂","year":2022.0,"address":"兵庫県淡路市楠本字場中2594-5","latitude":34.57876968383789,"longitude":134.9854736328125,"category":"コテージ/体験施設","description":"","image_url":""},{"id":11439,"title":"京都御苑の三つの休憩施設 近衞邸跡休憩所 SASAYA IORI","architect":"香山壽夫","year":2022.0,"address":"京都府京都市上京区京都御苑","latitude":35.02784729003906,"longitude":135.7615203857422,"category":"カフェ/観光施設/博物館","description":"","image_url":""},{"id":11440,"title":"京都御苑の三つの休憩施設 京都御苑情報館","architect":"香山壽夫","year":2022.0,"address":"京都府京都市上京区京都御苑","latitude":35.02519226074219,"longitude":135.76025390625,"category":"観光施設/博物館","description":"","image_url":""},{"id":11441,"title":"京都御苑の三つの休憩施設 清和院休憩所","architect":"香山壽夫","year":2022.0,"address":"京都府京都市上京区京都御苑","latitude":35.0240364074707,"longitude":135.76547241210938,"category":"カフェ/公園","description":"","image_url":""},{"id":11442,"title":"谷中の一連のプロジェクト asatteのジェラート","architect":"宮崎晃吉","year":2022.0,"address":"東京都台東区谷中3-10-14","latitude":35.727210998535156,"longitude":139.76583862304688,"category":"カフェ","description":"","image_url":""},{"id":11443,"title":"谷中の一連のプロジェクト TAYORI BAKE","architect":"宮崎晃吉","year":2019.0,"address":"東京都文京区千駄木3-45-4","latitude":35.72907257080078,"longitude":139.76341247558594,"category":"店舗","description":"","image_url":""},{"id":11444,"title":"Senju Motomachi Souko","architect":"石村大輔+根市拓","year":2020.0,"address":"東京都足立区千住元町23-10","latitude":35.75492477416992,"longitude":139.7913818359375,"category":"シェアオフィス","description":"","image_url":""},{"id":11445,"title":"ユニソン大阪事業所","architect":"竹原義二","year":2021.0,"address":"大阪府大阪市鶴見区茨田大宮2-8-13","latitude":34.7132453918457,"longitude":135.59185791015625,"category":"低層オフィス","description":"","image_url":""},{"id":11446,"title":"満寿美公園","architect":"岩瀬諒子+日建設計","year":2022.0,"address":"大阪府池田市満寿美町9-4","latitude":34.81899642944336,"longitude":135.4261474609375,"category":"公園","description":"クレジット：池田市都市整備部公園みどり課","image_url":""},{"id":11447,"title":"関内駅北口広場","architect":"柳澤潤+オリエンタルコンサルタンツ","year":2022.0,"address":"神奈川県横浜市中区港町1 関内駅","latitude":35.444862365722656,"longitude":139.63507080078125,"category":"広場","description":"","image_url":""},{"id":11448,"title":"芸術文化観光専門職大学","architect":"東畑建築事務所","year":2021.0,"address":"兵庫県豊岡市山王町7-52","latitude":35.53938674926758,"longitude":134.81675720214844,"category":"大学","description":"クレジット：兵庫県県土木整備部住宅建築局営繕課","image_url":""},{"id":11449,"title":"柏崎市庁舎","architect":"佐藤総合計画","year":2020.0,"address":"新潟県柏崎市日石町2-1","latitude":37.36491394042969,"longitude":138.55775451660156,"category":"庁舎","description":"","image_url":""},{"id":11450,"title":"NTT WEST i-CAMPUS A棟 新本社ビル","architect":"NTTファシリティーズ","year":2021.0,"address":"大阪府大阪市都島区東野田町4-15-82","latitude":34.699039459228516,"longitude":135.52999877929688,"category":"オフィスビル","description":"","image_url":""}]}