{"page":122,"total_pages":290,"items_per_page":50,"total_items":14467,"items":[{"id":6051,"title":"城山幼稚園 PROJECT Ⅰ","architect":"松本直子","year":2014.0,"address":"東京都板橋区志村2-16-2","latitude":35.77561569213867,"longitude":139.68746948242188,"category":"幼稚園","big_category":"教育","description":"","image_url":"","tags":"新建築2016年5月号,Ver1.80(2016年5月)の追加建築","prefecture":"東京","contractor":"","structural_designer":"","landscape_designer":"","shinkenchiku_url":""},{"id":6052,"title":"たけの保育園","architect":"菅匡史","year":2014.0,"address":"兵庫県神戸市垂水区山手2-3-18","latitude":34.631080627441406,"longitude":135.06248474121094,"category":"幼稚園","big_category":"教育","description":"","image_url":"","tags":"新建築2016年5月号,Ver1.80(2016年5月)の追加建築","prefecture":"兵庫","contractor":"","structural_designer":"","landscape_designer":"","shinkenchiku_url":""},{"id":6053,"title":"さつき保育園","architect":"桑原年弘","year":2014.0,"address":"大阪府大阪市北区本庄西3-13-5","latitude":34.71712112426758,"longitude":135.50428771972656,"category":"幼稚園","big_category":"教育","description":"","image_url":"","tags":"新建築2016年5月号,Ver1.80(2016年5月)の追加建築","prefecture":"大阪","contractor":"","structural_designer":"","landscape_designer":"","shinkenchiku_url":""},{"id":6054,"title":"グローバルキッズ飯田橋園・グローバルキッズ飯田橋こども園","architect":"石嶋寿和+野溝茂","year":2015.0,"address":"東京都千代田区富士見2-14-36","latitude":35.697410583496094,"longitude":139.74371337890625,"category":"幼稚園","big_category":"教育","description":"","image_url":"","tags":"新建築2016年5月号,Ver1.80(2016年5月)の追加建築","prefecture":"東京","contractor":"","structural_designer":"","landscape_designer":"","shinkenchiku_url":""},{"id":6055,"title":"北九州市立八幡図書館 旧九州国際大学文化交流センター","architect":"日建設計","year":1997.0,"address":"福岡県北九州市八幡東区尾倉2-6-1","latitude":33.86503982543945,"longitude":130.79690551757812,"category":"図書館","big_category":"文化施設","description":"","image_url":"","tags":"Ver1.81(2016年6月)の追加建築","prefecture":"福岡","contractor":"","structural_designer":"","landscape_designer":"","shinkenchiku_url":""},{"id":6056,"title":"顔の家","architect":"山下和正","year":1974.0,"address":"京都府京都市中京区竪大恩寺町740-1","latitude":35.01449966430664,"longitude":135.75714111328125,"category":"住宅/店舗","big_category":"住宅,商業施設","description":"現在は1階がショップになっている","image_url":"","tags":"Ver1.81(2016年6月)の追加建築","prefecture":"京都","contractor":"","structural_designer":"","landscape_designer":"","shinkenchiku_url":""},{"id":6057,"title":"also Soup Stock Tokyo","architect":"永山祐子","year":2016.0,"address":"東京都目黒区自由が丘1-26-13","latitude":35.60906982421875,"longitude":139.66839599609375,"category":"店舗","big_category":"商業施設","description":"","image_url":"","tags":"Ver1.81(2016年6月)の追加建築","prefecture":"東京","contractor":"","structural_designer":"","landscape_designer":"","shinkenchiku_url":""},{"id":6058,"title":"Gallery IHA 旧BYハウス","architect":"長谷川逸子","year":1985.0,"address":"東京都文京区湯島1-9-7","latitude":35.70225143432617,"longitude":139.76611328125,"category":"ギャラリー/低層オフィス","big_category":"ミュージアム,企業施設","description":"元は長谷川逸子のアトリエだったが、2016年に建築関係のギャラリーとしてオープン","image_url":"","tags":"Ver1.81(2016年6月)の追加建築","prefecture":"東京","contractor":"","structural_designer":"","landscape_designer":"","shinkenchiku_url":""},{"id":6059,"title":"南相馬みんなの遊び場","architect":"伊東豊雄+柳澤潤","year":2016.0,"address":"福島県南相馬市鹿島区鹿島広町13","latitude":37.70010757446289,"longitude":140.97618103027344,"category":"児童施設","big_category":"教育","description":"","image_url":"","tags":"新建築2016年11月号,Ver1.81(2016年6月)の追加建築","prefecture":"福島","contractor":"","structural_designer":"","landscape_designer":"","shinkenchiku_url":""},{"id":6060,"title":"枚方 T-SITE","architect":"竹中工務店","year":2016.0,"address":"大阪府枚方市岡東町12-22","latitude":34.816009521484375,"longitude":135.6497802734375,"category":"テナントビル/店舗","big_category":"商業施設,商業施設","description":"","image_url":"","tags":"新建築2016年7月号,Ver1.81(2016年6月)の追加建築","prefecture":"大阪","contractor":"","structural_designer":"","landscape_designer":"","shinkenchiku_url":""},{"id":6061,"title":"善了寺 本堂","architect":"大岩剛一","year":2016.0,"address":"神奈川県横浜市戸塚区矢部町125","latitude":35.403987884521484,"longitude":139.53627014160156,"category":"寺院","big_category":"宗教","description":"","image_url":"","tags":"Ver1.81(2016年6月)の追加建築","prefecture":"神奈川","contractor":"","structural_designer":"","landscape_designer":"","shinkenchiku_url":""},{"id":6062,"title":"善了寺 聞思堂","architect":"大岩剛一","year":2012.0,"address":"神奈川県横浜市戸塚区矢部町125","latitude":35.40408706665039,"longitude":139.53643798828125,"category":"寺院","big_category":"宗教","description":"","image_url":"","tags":"Ver1.81(2016年6月)の追加建築","prefecture":"神奈川","contractor":"","structural_designer":"","landscape_designer":"","shinkenchiku_url":""},{"id":6063,"title":"THE TOYOSHIMA HOUSE","architect":"ゲルハルト・リヒター","year":2016.0,"address":"愛媛県越智郡上島町弓削豊島","latitude":34.23086929321289,"longitude":133.25909423828125,"category":"ギャラリー/住宅/オブジェ","big_category":"ミュージアム,住宅,ミュージアム","description":"無人島の中にあるゲルハルト・リヒターの作品を展示する施設。詳細な位置が不明。期間限定で公開。","image_url":"","tags":"Ver1.81(2016年6月)の追加建築","prefecture":"愛媛","contractor":"","structural_designer":"","landscape_designer":"","shinkenchiku_url":""},{"id":6064,"title":"鶴岡市立加茂水族館","architect":"日本設計","year":2014.0,"address":"山形県鶴岡市今泉字大久保657-1","latitude":38.76169204711914,"longitude":139.72463989257812,"category":"水族館","big_category":"レジャー施設","description":"","image_url":"","tags":"Ver1.81(2016年6月)の追加建築","prefecture":"山形","contractor":"","structural_designer":"","landscape_designer":"","shinkenchiku_url":""},{"id":6065,"title":"明るい窓 OSビル","architect":"永山祐子","year":2016.0,"address":"東京都渋谷区恵比寿西1-25-9","latitude":35.647422790527344,"longitude":139.70510864257812,"category":"テナントビル","big_category":"商業施設","description":"","image_url":"","tags":"Ver1.81(2016年6月)の追加建築,新建築2016年12月号","prefecture":"東京","contractor":"","structural_designer":"","landscape_designer":"","shinkenchiku_url":""},{"id":6066,"title":"建築倉庫 ARCHI-DEPOT","architect":"不明","year":2016.0,"address":"東京都品川区東品川2-6-10 寺田倉庫本社ビル1F","latitude":35.6208610534668,"longitude":139.74874877929688,"category":"博物館","big_category":"ミュージアム","description":"2016年6/18オープン予定。建築関係の模型を展示","image_url":"","tags":"Ver1.81(2016年6月)の追加建築","prefecture":"東京","contractor":"","structural_designer":"","landscape_designer":"","shinkenchiku_url":""},{"id":6067,"title":"ヴァン・サンテ!","architect":"坂茂","year":2016.0,"address":"東京都世田谷区代沢4-39-7","latitude":35.654052734375,"longitude":139.66905212402344,"category":"レストラン","big_category":"商業施設","description":"","image_url":"","tags":"新建築2016年11月号,Ver1.81(2016年6月)の追加建築","prefecture":"東京","contractor":"","structural_designer":"","landscape_designer":"","shinkenchiku_url":""},{"id":6068,"title":"ハートウィング","architect":"安藤忠雄","year":2013.0,"address":"岐阜県恵那市岩村町2453-5","latitude":35.368770599365234,"longitude":137.42784118652344,"category":"養護施設/レストラン","big_category":"医療施設,商業施設","description":"予約制のレストラン有","image_url":"","tags":"Ver1.81(2016年6月)の追加建築","prefecture":"岐阜","contractor":"","structural_designer":"","landscape_designer":"","shinkenchiku_url":""},{"id":6069,"title":"美濃保育園 子育て支援棟 どんぐりハウス","architect":"象設計集団","year":2012.0,"address":"岐阜県美濃市吉川町1765-4","latitude":35.54679870605469,"longitude":136.9168243408203,"category":"幼稚園","big_category":"教育","description":"","image_url":"","tags":"Ver1.81(2016年6月)の追加建築,新建築2014年6月号","prefecture":"岐阜","contractor":"澤崎建設","structural_designer":"筬島建築構造設計事務所","landscape_designer":"","shinkenchiku_url":"https://data.shinkenchiku.online/articles/SK_2014_06_074-0"},{"id":6070,"title":"大垣フォーラムホテル","architect":"黒川紀章","year":1987.0,"address":"岐阜県大垣市万石2-31","latitude":35.361351013183594,"longitude":136.6512451171875,"category":"ホテル","big_category":"宿泊","description":"","image_url":"","tags":"Ver1.81(2016年6月)の追加建築","prefecture":"岐阜","contractor":"","structural_designer":"","landscape_designer":"","shinkenchiku_url":""},{"id":6071,"title":"CUTビル","architect":"毛綱毅曠","year":1987.0,"address":"岐阜県岐阜市金宝町1-15-1","latitude":35.41487121582031,"longitude":136.758544921875,"category":"テナントビル/オフィスビル","big_category":"商業施設,企業施設","description":"","image_url":"","tags":"Ver1.81(2016年6月)の追加建築","prefecture":"岐阜","contractor":"","structural_designer":"","landscape_designer":"","shinkenchiku_url":""},{"id":6072,"title":"千福ニュータウン商業施設","architect":"相田武文","year":1985.0,"address":"静岡県裾野市千福が丘1-10-10","latitude":35.19755554199219,"longitude":138.8831329345703,"category":"モール","big_category":"商業施設","description":"","image_url":"","tags":"Ver1.81(2016年6月)の追加建築","prefecture":"静岡","contractor":"","structural_designer":"","landscape_designer":"","shinkenchiku_url":""},{"id":6073,"title":"瑠璃山満願寺 乗蓮院　本堂・客殿・庫裡","architect":"相田武文","year":2011.0,"address":"茨城県常陸大宮市北町127-1","latitude":36.55154037475586,"longitude":140.41473388671875,"category":"寺院","big_category":"宗教","description":"","image_url":"","tags":"Ver1.81(2016年6月)の追加建築","prefecture":"茨城","contractor":"","structural_designer":"","landscape_designer":"","shinkenchiku_url":""},{"id":6074,"title":"秀和青山レジデンス","architect":"芦原義信","year":1964.0,"address":"東京都渋谷区渋谷3-3-10","latitude":35.656593322753906,"longitude":139.7068634033203,"category":"集合住宅","big_category":"住宅","description":"","image_url":"","tags":"Ver1.81(2016年6月)の追加建築","prefecture":"東京","contractor":"","structural_designer":"","landscape_designer":"","shinkenchiku_url":""},{"id":6075,"title":"日本大学 生物資源科学部1号館・2号館・ガレリア","architect":"類設計室","year":2016.0,"address":"神奈川県藤沢市亀井野1866","latitude":35.3809928894043,"longitude":139.46890258789062,"category":"大学","big_category":"教育","description":"","image_url":"","tags":"新建築2016年6月号,Ver1.81(2016年6月)の追加建築","prefecture":"神奈川","contractor":"","structural_designer":"","landscape_designer":"","shinkenchiku_url":""},{"id":6076,"title":"東京工業大学 地球生命研究所棟","architect":"塚本由晴+類設計室","year":2015.0,"address":"東京都大田区石川町1-1","latitude":35.60207748413086,"longitude":139.68472290039062,"category":"大学","big_category":"教育","description":"","image_url":"","tags":"新建築2016年6月号,Ver1.81(2016年6月)の追加建築","prefecture":"東京","contractor":"","structural_designer":"","landscape_designer":"","shinkenchiku_url":""},{"id":6077,"title":"広島県立呉南特別支援学校","architect":"坂本一成+遠藤吉生","year":2016.0,"address":"広島県呉市阿賀中央5-13-71","latitude":34.23365020751953,"longitude":132.60406494140625,"category":"学校","big_category":"教育","description":"","image_url":"","tags":"新建築2016年6月号,Ver1.81(2016年6月)の追加建築","prefecture":"広島","contractor":"","structural_designer":"","landscape_designer":"","shinkenchiku_url":""},{"id":6078,"title":"東京経済大学 5号館","architect":"佐藤総合計画","year":2012.0,"address":"東京都国分寺市南町1-7-34","latitude":35.69957733154297,"longitude":139.49131774902344,"category":"大学","big_category":"教育","description":"","image_url":"","tags":"新建築2016年6月号,Ver1.81(2016年6月)の追加建築","prefecture":"東京","contractor":"","structural_designer":"","landscape_designer":"","shinkenchiku_url":""},{"id":6079,"title":"東京経済大学 新図書館","architect":"佐藤総合計画","year":2013.0,"address":"東京都国分寺市南町1-7-34","latitude":35.69923400878906,"longitude":139.49070739746094,"category":"大学/図書館","big_category":"教育,文化施設","description":"","image_url":"","tags":"新建築2016年6月号,Ver1.81(2016年6月)の追加建築","prefecture":"東京","contractor":"","structural_designer":"","landscape_designer":"","shinkenchiku_url":""},{"id":6080,"title":"京都鉄道博物館","architect":"ジェイアール西日本コンサルタンツ+東畑建築事務所","year":2016.0,"address":"京都府京都市下京区観喜寺町 京都鉄道博物館","latitude":34.98691177368164,"longitude":135.7428741455078,"category":"博物館","big_category":"ミュージアム","description":"","image_url":"","tags":"新建築2016年6月号,Ver1.81(2016年6月)の追加建築","prefecture":"京都","contractor":"","structural_designer":"","landscape_designer":"","shinkenchiku_url":""},{"id":6081,"title":"京都木材会館","architect":"ゆう建築設計","year":2016.0,"address":"京都府京都市中京区西ノ京小倉町138","latitude":35.00873565673828,"longitude":135.7406005859375,"category":"公共施設/低層オフィス","big_category":"公共施設,企業施設","description":"","image_url":"","tags":"新建築2016年6月号,Ver1.81(2016年6月)の追加建築","prefecture":"京都","contractor":"","structural_designer":"","landscape_designer":"","shinkenchiku_url":""},{"id":6082,"title":"KITTE博多","architect":"日本郵政一級建築士事務所+三菱地所","year":2016.0,"address":"福岡県福岡市博多区博多駅中央街9-1","latitude":33.588871002197266,"longitude":130.41941833496094,"category":"テナントビル/モール","big_category":"商業施設,商業施設","description":"","image_url":"","tags":"新建築2016年6月号,Ver1.81(2016年6月)の追加建築","prefecture":"福岡","contractor":"","structural_designer":"","landscape_designer":"","shinkenchiku_url":""},{"id":6083,"title":"大名古屋ビルヂング","architect":"三菱地所","year":2016.0,"address":"愛知県名古屋市中村区名駅三-28-12","latitude":35.17207336425781,"longitude":136.8845977783203,"category":"テナントビル/モール","big_category":"商業施設,商業施設","description":"","image_url":"","tags":"新建築2016年6月号,Ver1.81(2016年6月)の追加建築","prefecture":"愛知","contractor":"","structural_designer":"","landscape_designer":"","shinkenchiku_url":""},{"id":6084,"title":"大手町フィナンシャルシティ グランキューブ","architect":"三菱地所+NTTファシリティーズ","year":2016.0,"address":"東京都千代田区大手町1-9-2","latitude":35.68794631958008,"longitude":139.76583862304688,"category":"オフィスビル","big_category":"企業施設","description":"","image_url":"","tags":"新建築2016年6月号,Ver1.81(2016年6月)の追加建築","prefecture":"東京","contractor":"","structural_designer":"","landscape_designer":"","shinkenchiku_url":""},{"id":6085,"title":"JR新宿ミライナタワー","architect":"ジェイアール東日本建築設計事務所","year":2016.0,"address":"東京都新宿区新宿3-38-1","latitude":35.688663482666016,"longitude":139.70144653320312,"category":"複合ビル","big_category":"企業施設","description":"","image_url":"","tags":"新建築2016年6月号,Ver1.81(2016年6月)の追加建築","prefecture":"東京","contractor":"","structural_designer":"","landscape_designer":"","shinkenchiku_url":""},{"id":6086,"title":"グランディT 梅田","architect":"安藤忠雄","year":2008.0,"address":"大阪府大阪市北区豊崎2-6-11","latitude":34.71076202392578,"longitude":135.50146484375,"category":"集合住宅","big_category":"住宅","description":"","image_url":"","tags":"Ver1.81(2016年6月)の追加建築","prefecture":"大阪","contractor":"","structural_designer":"","landscape_designer":"","shinkenchiku_url":""},{"id":6087,"title":"MKD10 大阪ビル","architect":"安藤忠雄","year":2004.0,"address":"大阪府大阪市中央区久太郎町2-5-30","latitude":34.681304931640625,"longitude":135.5041961669922,"category":"オフィスビル","big_category":"企業施設","description":"","image_url":"","tags":"Ver1.81(2016年6月)の追加建築","prefecture":"大阪","contractor":"","structural_designer":"","landscape_designer":"","shinkenchiku_url":""},{"id":6088,"title":"四天王寺高等学校","architect":"安藤忠雄","year":2002.0,"address":"大阪府大阪市天王寺区四天王寺1-11-73","latitude":34.65494918823242,"longitude":135.51454162597656,"category":"学校","big_category":"教育","description":"","image_url":"","tags":"Ver1.81(2016年6月)の追加建築","prefecture":"大阪","contractor":"","structural_designer":"","landscape_designer":"","shinkenchiku_url":""},{"id":6089,"title":"アランジアロンゾビル","architect":"安藤忠雄","year":2001.0,"address":"大阪府大阪市中央区南船場4-13-4","latitude":34.677242279052734,"longitude":135.49798583984375,"category":"テナントビル/オフィスビル","big_category":"商業施設,企業施設","description":"","image_url":"","tags":"Ver1.81(2016年6月)の追加建築","prefecture":"大阪","contractor":"","structural_designer":"","landscape_designer":"","shinkenchiku_url":""},{"id":6090,"title":"真駒内滝野霊園 頭大仏","architect":"安藤忠雄","year":2015.0,"address":"北海道札幌市南区滝野2-3","latitude":42.92054748535156,"longitude":141.36276245117188,"category":"霊園/宗教施設","big_category":"宗教,宗教","description":"2016年7月より一般公開予定","image_url":"","tags":"新建築2016年9月号,Ver1.81(2016年6月)の追加建築","prefecture":"北海道","contractor":"","structural_designer":"","landscape_designer":"","shinkenchiku_url":""},{"id":6091,"title":"フォレストプラザ表参道","architect":"安藤忠雄","year":2001.0,"address":"東京都渋谷区神宮前4-13-13","latitude":35.66734313964844,"longitude":139.70944213867188,"category":"集合住宅/店舗","big_category":"住宅,商業施設","description":"","image_url":"","tags":"Ver1.81(2016年6月)の追加建築","prefecture":"東京","contractor":"","structural_designer":"","landscape_designer":"","shinkenchiku_url":""},{"id":6092,"title":"修学院離宮","architect":"不明","year":1653.0,"address":"京都府京都市左京区修学院藪添 修学院離宮","latitude":35.05392074584961,"longitude":135.80364990234375,"category":"庭園","big_category":"文化施設","description":"参観希望日の4日前午前中までに要予約","image_url":"","tags":"Ver1.81(2016年6月)の追加建築","prefecture":"京都","contractor":"","structural_designer":"","landscape_designer":"","shinkenchiku_url":""},{"id":6093,"title":"仙洞御所","architect":"不明","year":1627.0,"address":"京都府京都市上京区京都御苑3","latitude":35.02170944213867,"longitude":135.76589965820312,"category":"庭園/茶室","big_category":"文化施設,住宅","description":"参観希望日の4日前午前中までに要予約","image_url":"","tags":"Ver1.81(2016年6月)の追加建築","prefecture":"京都","contractor":"","structural_designer":"","landscape_designer":"","shinkenchiku_url":""},{"id":6094,"title":"京都御所","architect":"不明","year":1855.0,"address":"京都府京都市上京区京都御苑3","latitude":35.02446365356445,"longitude":135.7620391845703,"category":"城郭","big_category":"近代建築/遺産","description":"基本的にいつでも見学可能になった","image_url":"","tags":"Ver1.81(2016年6月)の追加建築","prefecture":"京都","contractor":"","structural_designer":"","landscape_designer":"","shinkenchiku_url":""},{"id":6095,"title":"円通寺(圓通寺)","architect":"不明","year":1678.0,"address":"京都府京都市左京区岩倉幡枝町389","latitude":35.06439208984375,"longitude":135.7685089111328,"category":"庭園/寺院","big_category":"文化施設,宗教","description":"","image_url":"","tags":"Ver1.81(2016年6月)の追加建築","prefecture":"京都","contractor":"","structural_designer":"","landscape_designer":"","shinkenchiku_url":""},{"id":6096,"title":"多治見市モザイクタイルミュージアム","architect":"藤森照信","year":2016.0,"address":"岐阜県多治見市笠原町2082-5","latitude":35.299072265625,"longitude":137.159423828125,"category":"美術館","big_category":"ミュージアム","description":"2016年6/4オープン。インスタグラマーが本当にいます。","image_url":"","tags":"Ver1.81(2016年6月)の追加建築,新建築2017年1月号","prefecture":"岐阜","contractor":"","structural_designer":"","landscape_designer":"","shinkenchiku_url":""},{"id":6097,"title":"ニフレル","architect":"竹中工務店","year":2015.0,"address":"大阪府吹田市千里万博公園2-1","latitude":34.8062744140625,"longitude":135.5336456298828,"category":"博物館","big_category":"ミュージアム","description":"","image_url":"","tags":"Ver1.82(2016年7月)の追加建築","prefecture":"大阪","contractor":"","structural_designer":"","landscape_designer":"","shinkenchiku_url":""},{"id":6098,"title":"早稲田小劇場どらま館","architect":"竹中工務店","year":2015.0,"address":"東京都新宿区戸塚町1","latitude":35.70747375488281,"longitude":139.71978759765625,"category":"ホール・劇場","big_category":"文化施設","description":"","image_url":"","tags":"Ver1.82(2016年7月)の追加建築","prefecture":"東京","contractor":"","structural_designer":"","landscape_designer":"","shinkenchiku_url":""},{"id":6099,"title":"野口英世記念館","architect":"竹中工務店","year":2015.0,"address":"福島県耶麻郡猪苗代町大字三ツ和字前田81","latitude":37.5361213684082,"longitude":140.07366943359375,"category":"博物館","big_category":"ミュージアム","description":"","image_url":"","tags":"Ver1.82(2016年7月)の追加建築","prefecture":"福島","contractor":"","structural_designer":"","landscape_designer":"","shinkenchiku_url":""},{"id":6100,"title":"坂町立町民交流センター サンスターホール","architect":"竹中工務店","year":2014.0,"address":"広島県安芸郡坂町坂東2-20-1","latitude":34.33832550048828,"longitude":132.51617431640625,"category":"公民館・交流施設/体育館","big_category":"公共施設,レジャー施設","description":"","image_url":"","tags":"Ver1.82(2016年7月)の追加建築","prefecture":"広島","contractor":"","structural_designer":"","landscape_designer":"","shinkenchiku_url":""}]}