{"page":16,"total_pages":290,"items_per_page":50,"total_items":14467,"items":[{"id":751,"title":"アミュゼ柏","architect":"日本設計","year":1998.0,"address":"千葉県柏市柏6-2-22","latitude":35.8631477355957,"longitude":139.97579956054688,"category":"ホール・劇場/展示・会議場/公民館・交流施設","description":"","image_url":""},{"id":752,"title":"明治百年記念展望台（富津岬）","architect":"池原謙一郎","year":1971.0,"address":"千葉県富津市富津2280","latitude":35.31257247924805,"longitude":139.80772399902344,"category":"展望台","description":"","image_url":""},{"id":753,"title":"千葉眼科記念館","architect":"不明","year":null,"address":"千葉県茂原市上永吉732","latitude":35.39777755737305,"longitude":140.29367065429688,"category":"洋館","description":"","image_url":""},{"id":754,"title":"かずさアカデミアホール","architect":"坂倉建築研究所","year":1996.0,"address":"千葉県木更津市かずさ鎌足2-3-9","latitude":35.334754943847656,"longitude":139.98928833007812,"category":"ホール・劇場","description":"","image_url":""},{"id":755,"title":"キッコーマン 御用蔵","architect":"大江匡","year":2010.0,"address":"千葉県野田市野田110","latitude":35.9415397644043,"longitude":139.8701934814453,"category":"博物館","description":"","image_url":""},{"id":756,"title":"秋川ファーマーズセンター","architect":"杉本洋文","year":1993.0,"address":"東京都あきる野市二宮811","latitude":35.728580474853516,"longitude":139.30752563476562,"category":"店舗","description":"","image_url":""},{"id":757,"title":"あきる野市東部図書館 エル","architect":"岡田新一","year":2005.0,"address":"東京都あきる野市野辺39-27","latitude":35.725196838378906,"longitude":139.31564331054688,"category":"図書館","description":"","image_url":""},{"id":758,"title":"奥多摩森林セラピーロード ／ 香りの道 「登計トレイル」","architect":"オンサイト計画設計事務所","year":2010.0,"address":"東京都西多摩郡奥多摩町氷川918","latitude":35.80266571044922,"longitude":139.09483337402344,"category":"公園","description":"","image_url":""},{"id":759,"title":"東京多摩学園","architect":"象設計集団","year":1988.0,"address":"東京都西多摩郡奥多摩町海澤431","latitude":35.7985954284668,"longitude":139.1163787841797,"category":"養護施設","description":"","image_url":""},{"id":760,"title":"葛飾区教育資料館","architect":"不明","year":1925.0,"address":"東京都葛飾区水元4-21-1","latitude":35.78729248046875,"longitude":139.86428833007812,"category":"洋館","description":"","image_url":""},{"id":761,"title":"浄土宗 長谷院","architect":"宮崎浩","year":2004.0,"address":"東京都江戸川区松本2-15-1","latitude":35.71459197998047,"longitude":139.87940979003906,"category":"寺院","description":"","image_url":""},{"id":762,"title":"葛西臨海水族園","architect":"谷口吉生","year":1989.0,"address":"東京都江戸川区臨海町6-2-3","latitude":35.64006805419922,"longitude":139.86216735839844,"category":"水族館","description":"","image_url":""},{"id":763,"title":"葛西臨海公園展望広場","architect":"谷口吉生","year":1995.0,"address":"東京都江戸川区臨海町6-2","latitude":35.640594482421875,"longitude":139.85951232910156,"category":"公園/観光施設/広場","description":"","image_url":"https://farm4.staticflickr.com/3774/8939282202_c0a3f59c3b_h.jpg"},{"id":764,"title":"タマホーム住宅展示場 「タマロッジァ」「タママチヤ」","architect":"アトリエ・ワン","year":2013.0,"address":"東京都江東区豊洲6-1-9","latitude":35.65019989013672,"longitude":139.79000854492188,"category":"住宅","description":"","image_url":""},{"id":765,"title":"東京木材問屋協同組合 木材会館","architect":"日建設計","year":2009.0,"address":"東京都江東区新木場1-18-8","latitude":35.6441764831543,"longitude":139.8265380859375,"category":"組合施設/オフィスビル","description":"要事前予約。日本建築家協会賞受賞者名：山梨知彦、勝矢武之","image_url":""},{"id":766,"title":"深川図書館","architect":"不明","year":1909.0,"address":"東京都江東区清澄3-3-39","latitude":35.67913055419922,"longitude":139.79676818847656,"category":"図書館","description":"","image_url":""},{"id":767,"title":"竹中工務店 東京本店新社屋","architect":"竹中工務店","year":2004.0,"address":"東京都江東区新砂1-1-1","latitude":35.668235778808594,"longitude":139.8199462890625,"category":"企業施設","description":"2018年にイノベーションプロジェクトと称しリニューアル","image_url":""},{"id":768,"title":"長谷木記念幹","architect":"内井昭蔵","year":2000.0,"address":"東京都江東区新木場1-16-3","latitude":35.644081115722656,"longitude":139.83200073242188,"category":"博物館","description":"非公開","image_url":""},{"id":769,"title":"日本科学未来館","architect":"日建設計+久米設計","year":2001.0,"address":"東京都江東区青海2-3-3-6","latitude":35.61934280395508,"longitude":139.77667236328125,"category":"博物館","description":"","image_url":""},{"id":770,"title":"深川不動堂 新本堂","architect":"玉置順","year":2010.0,"address":"東京都江東区富岡1-17-13","latitude":35.67292022705078,"longitude":139.79806518554688,"category":"寺院","description":"","image_url":""},{"id":771,"title":"豊洲キュービックガーデン","architect":"清水建設","year":2011.0,"address":"東京都江東区豊洲3-2-3","latitude":35.65842056274414,"longitude":139.79400634765625,"category":"複合ビル","description":"","image_url":""},{"id":772,"title":"東京ガス ガスの科学館 がすてなーに","architect":"日建設計","year":2006.0,"address":"東京都江東区豊洲6-1-1","latitude":35.65196228027344,"longitude":139.7922821044922,"category":"博物館","description":"","image_url":""},{"id":773,"title":"東京都夢の島熱帯植物館","architect":"大宇根弘司","year":1988.0,"address":"東京都江東区夢の島2-1-2","latitude":35.651309967041016,"longitude":139.82931518554688,"category":"動植物園","description":"","image_url":""},{"id":774,"title":"K-MUSEUM 臨海副都心共同溝展示館","architect":"渡辺誠","year":1996.0,"address":"東京都江東区有明3-1-10","latitude":35.63008117675781,"longitude":139.7861328125,"category":"博物館","description":"休館中だったが、2025年3月までに解体された","image_url":""},{"id":775,"title":"東雲キャナルコート CODAN 6街区","architect":"山本・堀アーキテクツ","year":2003.0,"address":"東京都江東区東雲1-9-19","latitude":35.648433685302734,"longitude":139.80392456054688,"category":"集合住宅","description":"","image_url":"https://lh3.googleusercontent.com/-0WLCYYrMJb4/UCisaNOw5jI/AAAAAAAA9aw/qCkXOQNwkhc/s1024/lr-6131857.jpg"},{"id":776,"title":"東雲キャナルコート CODAN 5街区","architect":"設計組織ADH+ワークステーション","year":2003.0,"address":"東京都江東区東雲1-9-22","latitude":35.6481819152832,"longitude":139.802978515625,"category":"集合住宅","description":"","image_url":"https://lh3.googleusercontent.com/-0WLCYYrMJb4/UCisaNOw5jI/AAAAAAAA9aw/qCkXOQNwkhc/s1024/lr-6131857.jpg"},{"id":777,"title":"東雲キャナルコート CODAN 4街区","architect":"山田正司","year":2003.0,"address":"東京都江東区東雲1-9-18","latitude":35.647544860839844,"longitude":139.8042449951172,"category":"集合住宅","description":"","image_url":"https://lh3.googleusercontent.com/-0WLCYYrMJb4/UCisaNOw5jI/AAAAAAAA9aw/qCkXOQNwkhc/s1024/lr-6131857.jpg"},{"id":778,"title":"東雲キャナルコート CODAN 3街区","architect":"隈研吾","year":2003.0,"address":"東京都江東区東雲1-9-16","latitude":35.647071838378906,"longitude":139.8031768798828,"category":"集合住宅","description":"","image_url":"https://lh3.googleusercontent.com/-0WLCYYrMJb4/UCisaNOw5jI/AAAAAAAA9aw/qCkXOQNwkhc/s1024/lr-6131857.jpg"},{"id":779,"title":"東雲キャナルコート CODAN 2街区","architect":"伊東豊雄","year":2003.0,"address":"東京都江東区東雲1-9-15","latitude":35.64662551879883,"longitude":139.80416870117188,"category":"集合住宅","description":"","image_url":"https://lh3.googleusercontent.com/-0WLCYYrMJb4/UCisaNOw5jI/AAAAAAAA9aw/qCkXOQNwkhc/s1024/lr-6131857.jpg"},{"id":780,"title":"東雲キャナルコート CODAN 1街区","architect":"山本理顕","year":2003.0,"address":"東京都江東区東雲1-9-13","latitude":35.646358489990234,"longitude":139.8035125732422,"category":"集合住宅","description":"","image_url":"https://lh3.googleusercontent.com/-0WLCYYrMJb4/UCisaNOw5jI/AAAAAAAA9aw/qCkXOQNwkhc/s1024/lr-6131857.jpg"},{"id":781,"title":"東京都現代美術館","architect":"柳澤孝彦","year":1994.0,"address":"東京都江東区三好4-1-1","latitude":35.67971420288086,"longitude":139.80799865722656,"category":"美術館","description":"","image_url":"https://lh3.googleusercontent.com/-QI5hcCJ7fUo/Ttznvqn0teI/AAAAAAAAEak/1JT8mRgT6Ug/s1024/PC041167.JPG"},{"id":782,"title":"国際文化会館","architect":"前川國男+坂倉準三+吉村順三","year":1955.0,"address":"東京都港区六本木5-11-16","latitude":35.65851593017578,"longitude":139.7334442138672,"category":"総合文化施設","description":"1955日本建築学会賞","image_url":"https://lh3.googleusercontent.com/-7ilMDyVRhNU/U55n-7XT32I/AAAAAAABOeg/SVLAxQm1psg/s1024/lr-2265124.jpg"},{"id":783,"title":"赤坂迎賓館 旧東宮御所","architect":"片山東熊+村野藤吾","year":1909.0,"address":"東京都港区元赤坂2-1-1","latitude":35.68003845214844,"longitude":139.72894287109375,"category":"公共施設","description":"事前予約無しで一般公開中。公開日のみ。要日程確認。","image_url":""},{"id":784,"title":"フォーラムビルディング","architect":"谷口吉生","year":2009.0,"address":"東京都港区南青山2-24-11","latitude":35.670169830322266,"longitude":139.71795654296875,"category":"オフィスビル","description":"","image_url":""},{"id":785,"title":"梅窓院","architect":"隈研吾","year":2003.0,"address":"東京都港区南青山2-26-38","latitude":35.66960144042969,"longitude":139.71798706054688,"category":"寺院","description":"","image_url":""},{"id":786,"title":"ジャスマック・プロパティ・マネジメント本社ビル 旧アンビエンテ・インターナショナル","architect":"アルド・ロッシ","year":1991.0,"address":"東京都港区南青山4-11-1","latitude":35.66606140136719,"longitude":139.71792602539062,"category":"オフィスビル","description":"","image_url":""},{"id":787,"title":"菊池寛実記念 智美術館","architect":"坂倉建築研究所","year":2003.0,"address":"東京都港区虎ノ門4-1-35","latitude":35.666019439697266,"longitude":139.74452209472656,"category":"美術館","description":"","image_url":""},{"id":788,"title":"オーク表参道","architect":"大林組+杉本博司+丹下憲孝","year":2013.0,"address":"東京都港区北青山3-6-1","latitude":35.66584014892578,"longitude":139.71055603027344,"category":"テナントビル","description":"","image_url":""},{"id":789,"title":"コーチ表参道","architect":"レム・コールハース/OMA","year":2013.0,"address":"東京都港区北青山3-6-1","latitude":35.66581344604492,"longitude":139.71063232421875,"category":"店舗","description":"オーク表参道1F","image_url":""},{"id":790,"title":"スパイラル","architect":"槇文彦","year":1985.0,"address":"東京都港区南青山5-6-23","latitude":35.66358184814453,"longitude":139.7117462158203,"category":"テナントビル/ホール・劇場","description":"","image_url":""},{"id":791,"title":"ザ ジュエルズ オブアオヤマ","architect":"光井純","year":2005.0,"address":"東京都港区南青山5-3-6","latitude":35.66320037841797,"longitude":139.71530151367188,"category":"店舗","description":"","image_url":""},{"id":792,"title":"アルスギャラリー","architect":"北川原温","year":2002.0,"address":"東京都渋谷区神宮前5-13-2","latitude":35.66642761230469,"longitude":139.7071990966797,"category":"ギャラリー","description":"","image_url":""},{"id":793,"title":"ノアビル","architect":"白井晟一","year":1974.0,"address":"東京都港区麻布台2-3-5","latitude":35.65932083129883,"longitude":139.74252319335938,"category":"オフィスビル","description":"","image_url":""},{"id":794,"title":"綱町三井倶楽部 旧三井邸","architect":"ジョサイア・コンドル","year":1913.0,"address":"東京都港区三田2-3-7","latitude":35.65156936645508,"longitude":139.7407684326172,"category":"洋館","description":"会員制","image_url":""},{"id":795,"title":"グランドプリンスホテル高輪貴賓館 旧竹田宮邸","architect":"片山東熊+木子幸三郎+渡辺譲","year":1911.0,"address":"東京都港区高輪3-13-1","latitude":35.63092041015625,"longitude":139.73532104492188,"category":"洋館","description":"戦後村野藤吾によって改修","image_url":""},{"id":796,"title":"フジテレビ本社ビル","architect":"丹下健三","year":1996.0,"address":"東京都港区台場2-4-8","latitude":35.62685775756836,"longitude":139.77415466308594,"category":"オフィスビル","description":"","image_url":""},{"id":797,"title":"テピア","architect":"槇文彦","year":1989.0,"address":"東京都港区北青山2-8-44","latitude":35.672969818115234,"longitude":139.71690368652344,"category":"博物館/展示・会議場","description":"","image_url":""},{"id":798,"title":"GSH","architect":"ヨコミゾマコト","year":2006.0,"address":"東京都港区北青山2-12-12","latitude":35.670814514160156,"longitude":139.71656799316406,"category":"テナントビル/住宅/オフィスビル","description":"","image_url":""},{"id":799,"title":"青山タワービル","architect":"吉村順三","year":1969.0,"address":"東京都港区南青山2-24-15","latitude":35.67021179199219,"longitude":139.71835327148438,"category":"オフィスビル","description":"","image_url":""},{"id":800,"title":"メルセデス・ベンツ コネクション","architect":"窪田茂","year":2011.0,"address":"東京都港区六本木7-3-10","latitude":35.666080474853516,"longitude":139.72769165039062,"category":"カフェ/店舗","description":"","image_url":""}]}