{"page":131,"total_pages":290,"items_per_page":50,"total_items":14467,"items":[{"id":6501,"title":"住田歯科診療医院","architect":"岸和郎","year":2004.0,"address":"兵庫県尼崎市東園田町4-66-2","latitude":34.7547607421875,"longitude":135.4468536376953,"category":"個人医院","big_category":"医療施設","description":"","image_url":"","tags":"Ver1.94(2017年3月)の追加建築","prefecture":"兵庫","contractor":"","structural_designer":"","landscape_designer":"","shinkenchiku_url":""},{"id":6502,"title":"園部 SD Office 山陰土建","architect":"岸和郎","year":1993.0,"address":"京都府南丹市園部町木崎町土手下17-1","latitude":35.11457061767578,"longitude":135.473388671875,"category":"低層オフィス","big_category":"企業施設","description":"","image_url":"","tags":"Ver1.94(2017年3月)の追加建築,1996年日本建築学会 作品選奨","prefecture":"京都","contractor":"","structural_designer":"","landscape_designer":"","shinkenchiku_url":""},{"id":6503,"title":"日東薬品 Cento anni Hall","architect":"岸和郎","year":2011.0,"address":"京都府向日市上植野町南開35-3","latitude":34.94063949584961,"longitude":135.70477294921875,"category":"低層オフィス/企業施設","big_category":"企業施設,企業施設","description":"","image_url":"","tags":"Ver1.94(2017年3月)の追加建築","prefecture":"京都","contractor":"","structural_designer":"","landscape_designer":"","shinkenchiku_url":""},{"id":6504,"title":"神宮道場","architect":"伊東忠太","year":1903.0,"address":"三重県伊勢市宇治浦田1-2-5","latitude":34.46403503417969,"longitude":136.7235870361328,"category":"研修施設","big_category":"教育","description":"","image_url":"","tags":"Ver1.94(2017年3月)の追加建築","prefecture":"三重","contractor":"","structural_designer":"","landscape_designer":"","shinkenchiku_url":""},{"id":6505,"title":"伊勢神宮 神宮司庁司庁舎","architect":"満野久","year":1973.0,"address":"三重県伊勢市宇治館町1","latitude":34.45903015136719,"longitude":136.7251739501953,"category":"宗教施設/庁舎","big_category":"宗教,公共施設","description":"","image_url":"","tags":"Ver1.94(2017年3月)の追加建築","prefecture":"三重","contractor":"","structural_designer":"","landscape_designer":"","shinkenchiku_url":""},{"id":6506,"title":"伊勢神宮 神宮徴古館新館","architect":"満野久","year":1983.0,"address":"三重県伊勢市神田久志本町1754-1","latitude":34.4861946105957,"longitude":136.72439575195312,"category":"博物館/宗教施設","big_category":"ミュージアム,宗教","description":"","image_url":"","tags":"Ver1.94(2017年3月)の追加建築","prefecture":"三重","contractor":"","structural_designer":"","landscape_designer":"","shinkenchiku_url":""},{"id":6507,"title":"学習院創立100周年記念会館","architect":"満野久","year":1976.0,"address":"東京都豊島区目白1-5-1","latitude":35.72007751464844,"longitude":139.70904541015625,"category":"ホール・劇場/大学","big_category":"文化施設,教育","description":"","image_url":"","tags":"Ver1.94(2017年3月)の追加建築","prefecture":"東京","contractor":"","structural_designer":"","landscape_designer":"","shinkenchiku_url":""},{"id":6508,"title":"日本心臓血圧研究振興会","architect":"満野久","year":1965.0,"address":"東京都新宿区河田町8-1","latitude":35.69823455810547,"longitude":139.71942138671875,"category":"病院","big_category":"医療施設","description":"","image_url":"","tags":"Ver1.94(2017年3月)の追加建築","prefecture":"東京","contractor":"","structural_designer":"","landscape_designer":"","shinkenchiku_url":""},{"id":6509,"title":"カトリック聖ヴィアトール北白川教会","architect":"満野久","year":1992.0,"address":"京都府京都市左京区北白川西蔦町22","latitude":35.033477783203125,"longitude":135.7869415283203,"category":"教会","big_category":"宗教","description":"","image_url":"","tags":"Ver1.94(2017年3月)の追加建築","prefecture":"京都","contractor":"","structural_designer":"","landscape_designer":"","shinkenchiku_url":""},{"id":6510,"title":"全日本海員組合本部会館","architect":"大高正人","year":1964.0,"address":"東京都港区六本木7-15-26","latitude":35.66282653808594,"longitude":139.73019409179688,"category":"公共施設","big_category":"公共施設","description":"野沢正光による改修が予定されている","image_url":"","tags":"Ver1.94(2017年3月)の追加建築,DOCOMOMO","prefecture":"東京","contractor":"","structural_designer":"","landscape_designer":"","shinkenchiku_url":""},{"id":6511,"title":"千里山ロイヤルマンション","architect":"遠藤剛生","year":1980.0,"address":"大阪府吹田市千里山西4-39","latitude":34.779685974121094,"longitude":135.49871826171875,"category":"集合住宅","big_category":"住宅","description":"","image_url":"","tags":"Ver1.94(2017年3月)の追加建築","prefecture":"大阪","contractor":"","structural_designer":"","landscape_designer":"","shinkenchiku_url":""},{"id":6512,"title":"獺祭ストア 本社蔵","architect":"隈研吾","year":2016.0,"address":"山口県岩国市周東町獺越2128","latitude":34.12528610229492,"longitude":132.00491333007812,"category":"店舗","big_category":"商業施設","description":"","image_url":"","tags":"Ver1.94(2017年3月)の追加建築","prefecture":"山口","contractor":"","structural_designer":"","landscape_designer":"","shinkenchiku_url":""},{"id":6513,"title":"クロスクラブ 旧山口文象自邸","architect":"山口文象","year":1940.0,"address":"東京都大田区久が原4-39-3 ","latitude":35.57748031616211,"longitude":139.69146728515625,"category":"住宅","big_category":"住宅","description":"1階をコンサートホールとして利用されている。見学したい人はあらかじめ連絡を入れると対応してくれる、との記述あり。","image_url":"","tags":"Ver1.94(2017年3月)の追加建築,DOCOMOMO","prefecture":"東京","contractor":"","structural_designer":"","landscape_designer":"","shinkenchiku_url":""},{"id":6514,"title":"河口湖とらのこ保育園","architect":"山下貴成","year":2016.0,"address":"山梨県南都留郡富士河口湖町船津","latitude":35.491641998291016,"longitude":138.76058959960938,"category":"幼稚園","big_category":"教育","description":"","image_url":"","tags":"新建築2017年3月号,Ver1.94(2017年3月)の追加建築,2019年日本建築学会 作品選集新人賞","prefecture":"山梨","contractor":"","structural_designer":"","landscape_designer":"","shinkenchiku_url":""},{"id":6515,"title":"Village on the Building","architect":"ナフ・アーキテクト&デザイン","year":2016.0,"address":"東京都港区東麻布2-21-7","latitude":35.65630340576172,"longitude":139.7417449951172,"category":"オフィスビル","big_category":"企業施設","description":"","image_url":"","tags":"Ver1.94(2017年3月)の追加建築","prefecture":"東京","contractor":"","structural_designer":"","landscape_designer":"","shinkenchiku_url":""},{"id":6516,"title":"阿蘇草原情報館","architect":"ツバメアーキテクツ+松家克+メッツ研究所","year":2015.0,"address":"熊本県阿蘇市小里656","latitude":32.97549057006836,"longitude":131.0527801513672,"category":"体験施設/公共施設","big_category":"レジャー施設,公共施設","description":"","image_url":"","tags":"Ver1.94(2017年3月)の追加建築","prefecture":"熊本","contractor":"","structural_designer":"","landscape_designer":"","shinkenchiku_url":""},{"id":6517,"title":"認定こども園 小浜こども園","architect":"日比野設計","year":2015.0,"address":"長崎県雲仙市小浜町北本町211-2","latitude":32.733158111572266,"longitude":130.20907592773438,"category":"幼稚園","big_category":"教育","description":"","image_url":"","tags":"Ver1.94(2017年3月)の追加建築","prefecture":"長崎","contractor":"","structural_designer":"","landscape_designer":"","shinkenchiku_url":""},{"id":6518,"title":"森の工房AMA","architect":"石井修","year":2003.0,"address":"広島県広島市安芸区矢野東2-4-24","latitude":34.36140060424805,"longitude":132.53982543945312,"category":"養護施設","big_category":"医療施設","description":"","image_url":"","tags":"Ver1.94(2017年3月)の追加建築","prefecture":"広島","contractor":"","structural_designer":"","landscape_designer":"","shinkenchiku_url":""},{"id":6519,"title":"日本ビソー入道浦研究所","architect":"石井修","year":1997.0,"address":"長崎県西彼杵郡時津町西時津郷1450","latitude":32.85380935668945,"longitude":129.8520050048828,"category":"企業施設","big_category":"企業施設","description":"","image_url":"","tags":"Ver1.94(2017年3月)の追加建築","prefecture":"長崎","contractor":"","structural_designer":"","landscape_designer":"","shinkenchiku_url":""},{"id":6520,"title":"ドムス香里","architect":"石井修","year":1981.0,"address":"大阪府寝屋川市成田南町19-52","latitude":34.776065826416016,"longitude":135.64321899414062,"category":"集合住宅","big_category":"住宅","description":"","image_url":"","tags":"Ver1.94(2017年3月)の追加建築","prefecture":"大阪","contractor":"","structural_designer":"","landscape_designer":"","shinkenchiku_url":""},{"id":6521,"title":"あじびる京都","architect":"石井修","year":1976.0,"address":"京都府京都市中京区河原町通三条下ル山崎町238","latitude":35.00737380981445,"longitude":135.769287109375,"category":"テナントビル","big_category":"商業施設","description":"","image_url":"","tags":"Ver1.94(2017年3月)の追加建築","prefecture":"京都","contractor":"","structural_designer":"","landscape_designer":"","shinkenchiku_url":""},{"id":6522,"title":"あかつき特別養護老人ホーム","architect":"石井修","year":1970.0,"address":"大阪府箕面市白島3-16-1","latitude":34.8415412902832,"longitude":135.4889678955078,"category":"養護施設","big_category":"医療施設","description":"","image_url":"","tags":"Ver1.94(2017年3月)の追加建築","prefecture":"大阪","contractor":"","structural_designer":"","landscape_designer":"","shinkenchiku_url":""},{"id":6523,"title":"市立米沢図書館・よねざわ市民ギャラリー","architect":"山下設計","year":2016.0,"address":"山形県米沢市中央1-10-6","latitude":37.91276168823242,"longitude":140.11044311523438,"category":"図書館/ギャラリー","big_category":"文化施設,ミュージアム","description":"","image_url":"","tags":"新建築2017年3月号,Ver1.94(2017年3月)の追加建築","prefecture":"山形","contractor":"","structural_designer":"","landscape_designer":"","shinkenchiku_url":""},{"id":6524,"title":"ニフコYRP防爆棟・実験棟","architect":"竹中工務店","year":2016.0,"address":"神奈川県横須賀市光の丘5-3","latitude":35.225196838378906,"longitude":139.67630004882812,"category":"研究施設","big_category":"教育","description":"","image_url":"","tags":"新建築2017年3月号,Ver1.94(2017年3月)の追加建築,第27回AACA 芦原義信賞,2020年日本建築学会 作品選集新人賞","prefecture":"神奈川","contractor":"","structural_designer":"","landscape_designer":"","shinkenchiku_url":""},{"id":6525,"title":"カモ井加工紙mt新倉庫","architect":"TNA","year":2016.0,"address":"岡山県倉敷市片島町236","latitude":34.57469177246094,"longitude":133.72007751464844,"category":"工場","big_category":"企業施設","description":"","image_url":"","tags":"新建築2017年3月号,Ver1.94(2017年3月)の追加建築","prefecture":"岡山","contractor":"","structural_designer":"","landscape_designer":"","shinkenchiku_url":""},{"id":6526,"title":"道の駅 びんご府中","architect":"シーラカンスK&H","year":2016.0,"address":"広島県府中市府川町230-1","latitude":34.57046890258789,"longitude":133.23602294921875,"category":"PA・道の駅","big_category":"インフラ","description":"","image_url":"","tags":"新建築2017年3月号,Ver1.94(2017年3月)の追加建築","prefecture":"広島","contractor":"","structural_designer":"","landscape_designer":"","shinkenchiku_url":""},{"id":6527,"title":"綾瀬の基板工場","architect":"浜田晶則","year":2017.0,"address":"神奈川県綾瀬市大上1-6-17","latitude":35.453670501708984,"longitude":139.4296875,"category":"工場/低層オフィス","big_category":"企業施設,企業施設","description":"","image_url":"","tags":"新建築2017年3月号,Ver1.94(2017年3月)の追加建築","prefecture":"神奈川","contractor":"","structural_designer":"","landscape_designer":"","shinkenchiku_url":""},{"id":6528,"title":"司化成工業つくばテクニカルセンター","architect":"吉松秀樹","year":2016.0,"address":"茨城県つくばみらい市野堀476-12","latitude":35.97822189331055,"longitude":140.072021484375,"category":"研究施設/低層オフィス","big_category":"教育,企業施設","description":"","image_url":"","tags":"新建築2017年3月号,Ver1.94(2017年3月)の追加建築","prefecture":"茨城","contractor":"","structural_designer":"","landscape_designer":"","shinkenchiku_url":""},{"id":6529,"title":"東京電機大学 東京千住キャンパス5号館","architect":"槇文彦","year":2017.0,"address":"東京都足立区千住旭町5-5","latitude":35.74763107299805,"longitude":139.80609130859375,"category":"大学","big_category":"教育","description":"","image_url":"","tags":"Ver1.94(2017年3月)の追加建築,新建築2017年5月号","prefecture":"東京","contractor":"","structural_designer":"","landscape_designer":"","shinkenchiku_url":""},{"id":6530,"title":"恵比寿SAビル 救世軍新渋谷ビル","architect":"シーラカンスアンドアソシエイツ","year":2017.0,"address":"東京都渋谷区恵比寿西1-20-5","latitude":35.646446228027344,"longitude":139.7069091796875,"category":"オフィスビル","big_category":"企業施設","description":"","image_url":"","tags":"Ver1.94(2017年3月)の追加建築,新建築2017年6月号","prefecture":"東京","contractor":"","structural_designer":"","landscape_designer":"","shinkenchiku_url":""},{"id":6531,"title":"実相寺 開運山 壽福殿 清心院 毘沙門堂","architect":"山田誠一","year":2016.0,"address":"静岡県静岡市清水区清水町12-19","latitude":35.00684356689453,"longitude":138.4890899658203,"category":"寺院","big_category":"宗教","description":"","image_url":"","tags":"Ver1.94(2017年3月)の追加建築,第26回AACA 奨励賞","prefecture":"静岡","contractor":"","structural_designer":"","landscape_designer":"","shinkenchiku_url":""},{"id":6532,"title":"柏の葉 T-SITE","architect":"クライン・ダイサム・アーキテクツ","year":2017.0,"address":"千葉県柏市若柴227-1","latitude":35.89897155761719,"longitude":139.9535675048828,"category":"モール","big_category":"商業施設","description":"","image_url":"","tags":"Ver1.94(2017年3月)の追加建築,新建築2017年5月号","prefecture":"千葉","contractor":"","structural_designer":"","landscape_designer":"","shinkenchiku_url":""},{"id":6533,"title":"The Blend Inn","architect":"島田陽+ドットアーキテクツ","year":2017.0,"address":"大阪府大阪市此花区梅香1-24-21","latitude":34.68452072143555,"longitude":135.460693359375,"category":"ホテル","big_category":"宿泊","description":"","image_url":"","tags":"Ver1.94(2017年3月)の追加建築,新建築2017年6月号","prefecture":"大阪","contractor":"","structural_designer":"","landscape_designer":"","shinkenchiku_url":""},{"id":6534,"title":"茜が丘複合施設 Miraie","architect":"INA新建築研究所","year":2015.0,"address":"兵庫県西脇市野村町茜が丘16-1","latitude":34.97344207763672,"longitude":134.9568328857422,"category":"図書館/公民館・交流施設","big_category":"文化施設,公共施設","description":"","image_url":"","tags":"Ver1.94(2017年3月)の追加建築","prefecture":"兵庫","contractor":"","structural_designer":"","landscape_designer":"","shinkenchiku_url":""},{"id":6535,"title":"大きな曲面のある小屋","architect":"島田陽","year":2013.0,"address":"香川県小豆郡小豆島町馬木","latitude":34.47616195678711,"longitude":134.31964111328125,"category":"トイレ","big_category":"公共施設","description":"","image_url":"","tags":"Ver1.94(2017年3月)の追加建築,瀬戸内国際芸術祭","prefecture":"香川","contractor":"","structural_designer":"","landscape_designer":"","shinkenchiku_url":""},{"id":6536,"title":"キュープラザ二子玉川","architect":"成瀬・猪熊建築設計事務所+東急設計","year":2017.0,"address":"東京都世田谷区玉川2-24-1","latitude":35.61339569091797,"longitude":139.62789916992188,"category":"テナントビル/モール","big_category":"商業施設,商業施設","description":"2017年4月オープン予定","image_url":"","tags":"Ver1.94(2017年3月)の追加建築","prefecture":"東京","contractor":"","structural_designer":"","landscape_designer":"","shinkenchiku_url":""},{"id":6537,"title":"南三陸さんさん商店街","architect":"隈研吾","year":2017.0,"address":"宮城県本吉郡南三陸町志津川字五日町51","latitude":38.67807388305664,"longitude":141.44827270507812,"category":"モール/都市計画","big_category":"商業施設,公共施設","description":"","image_url":"","tags":"Ver1.94(2017年3月)の追加建築,新建築2021年3月号","prefecture":"宮城","contractor":"","structural_designer":"","landscape_designer":"","shinkenchiku_url":""},{"id":6538,"title":"A-FACTORY","architect":"片山正通","year":2010.0,"address":"青森県青森市柳川1-4-2","latitude":40.830204010009766,"longitude":140.73516845703125,"category":"店舗","big_category":"商業施設","description":"","image_url":"","tags":"Ver1.94(2017年3月)の追加建築","prefecture":"青森","contractor":"","structural_designer":"","landscape_designer":"","shinkenchiku_url":""},{"id":6539,"title":"西脇市総合市民センター","architect":"今井孝之","year":1981.0,"address":"兵庫県西脇市西脇790-15","latitude":34.990535736083984,"longitude":134.9722900390625,"category":"体育館/公民館・交流施設","big_category":"レジャー施設,公共施設","description":"","image_url":"","tags":"Ver1.94(2017年3月)の追加建築","prefecture":"兵庫","contractor":"","structural_designer":"","landscape_designer":"","shinkenchiku_url":""},{"id":6540,"title":"碧南市臨海体育館","architect":"今井孝之","year":1983.0,"address":"愛知県碧南市浜町2-3","latitude":34.878997802734375,"longitude":136.98147583007812,"category":"体育館","big_category":"レジャー施設","description":"","image_url":"","tags":"Ver1.94(2017年3月)の追加建築","prefecture":"愛知","contractor":"","structural_designer":"","landscape_designer":"","shinkenchiku_url":""},{"id":6541,"title":"播磨内陸生活文化総合センター","architect":"今井孝之","year":1983.0,"address":"兵庫県西脇市西脇790-14","latitude":34.99040603637695,"longitude":134.9706573486328,"category":"博物館","big_category":"ミュージアム","description":"","image_url":"","tags":"Ver1.94(2017年3月)の追加建築","prefecture":"兵庫","contractor":"","structural_designer":"","landscape_designer":"","shinkenchiku_url":""},{"id":6542,"title":"飯塚市役所新庁舎","architect":"佐藤総合計画","year":2017.0,"address":"福岡県飯塚市新立岩5-5","latitude":33.646724700927734,"longitude":130.6910858154297,"category":"庁舎","big_category":"公共施設","description":"","image_url":"","tags":"Ver1.94(2017年3月)の追加建築","prefecture":"福岡","contractor":"","structural_designer":"","landscape_designer":"","shinkenchiku_url":""},{"id":6543,"title":"銚子信用金庫 清川町支店","architect":"SALHAUS","year":2016.0,"address":"千葉県銚子市清川町4-4-6","latitude":35.725826263427734,"longitude":140.82046508789062,"category":"店舗/金融機関","big_category":"商業施設,企業施設","description":"","image_url":"","tags":"Ver1.94(2017年3月)の追加建築","prefecture":"千葉","contractor":"","structural_designer":"","landscape_designer":"","shinkenchiku_url":""},{"id":6544,"title":"陸前高田市立高田東中学校","architect":"SALHAUS","year":2016.0,"address":"岩手県陸前高田市米崎町和方","latitude":39.00798416137695,"longitude":141.67897033691406,"category":"学校","big_category":"教育","description":"","image_url":"","tags":"Ver1.94(2017年3月)の追加建築,新建築2017年4月号,2019年日本建築学会 作品選奨,2023年公共建築賞","prefecture":"岩手","contractor":"佐武建設+菱和建設","structural_designer":"","landscape_designer":"","shinkenchiku_url":""},{"id":6545,"title":"碁石海岸キャンプ場施設","architect":"SALHAUS","year":2014.0,"address":"岩手県大船渡市末崎町大浜","latitude":38.9913215637207,"longitude":141.74212646484375,"category":"観光施設/公園/体験施設","big_category":"レジャー施設,レジャー施設,レジャー施設","description":"","image_url":"","tags":"Ver1.94(2017年3月)の追加建築","prefecture":"岩手","contractor":"","structural_designer":"","landscape_designer":"","shinkenchiku_url":""},{"id":6546,"title":"代々木VILLAGE","architect":"UDS","year":2011.0,"address":"東京都渋谷区代々木1-28-9","latitude":35.682220458984375,"longitude":139.70111083984375,"category":"モール","big_category":"商業施設","description":"","image_url":"","tags":"Ver1.94(2017年3月)の追加建築","prefecture":"東京","contractor":"","structural_designer":"","landscape_designer":"","shinkenchiku_url":""},{"id":6547,"title":"カスケード原宿","architect":"UDS","year":2016.0,"address":"東京都渋谷区神宮前1-10-37","latitude":35.67012023925781,"longitude":139.70372009277344,"category":"モール","big_category":"商業施設","description":"","image_url":"","tags":"Ver1.94(2017年3月)の追加建築","prefecture":"東京","contractor":"","structural_designer":"","landscape_designer":"","shinkenchiku_url":""},{"id":6548,"title":"ホテル アンテルーム京都","architect":"UDS","year":2011.0,"address":"京都府京都市南区東九条明田町7","latitude":34.97574234008789,"longitude":135.75897216796875,"category":"ホテル","big_category":"宿泊","description":"","image_url":"","tags":"Ver1.94(2017年3月)の追加建築","prefecture":"京都","contractor":"","structural_designer":"","landscape_designer":"","shinkenchiku_url":""},{"id":6549,"title":"小田急山中湖フォレストコテージ","architect":"UDS","year":2015.0,"address":"山梨県南都留郡山中湖村平野491","latitude":35.4117546081543,"longitude":138.8900146484375,"category":"ホテル","big_category":"宿泊","description":"","image_url":"","tags":"Ver1.94(2017年3月)の追加建築","prefecture":"山梨","contractor":"","structural_designer":"","landscape_designer":"","shinkenchiku_url":""},{"id":6550,"title":"ウフウフファーム","architect":"UDS","year":2016.0,"address":"山形県米沢市赤芝町1627-1","latitude":37.895023345947266,"longitude":140.05520629882812,"category":"店舗/公園","big_category":"商業施設,レジャー施設","description":"","image_url":"","tags":"Ver1.94(2017年3月)の追加建築","prefecture":"山形","contractor":"","structural_designer":"","landscape_designer":"","shinkenchiku_url":""}]}