{"page":228,"total_pages":290,"items_per_page":50,"total_items":14467,"items":[{"id":11351,"title":"飛子保育園","architect":"佐々木信明","year":2021.0,"address":"長崎県雲仙市小浜町飛子1883","latitude":32.69715118408203,"longitude":130.17236328125,"category":"幼稚園","description":"","image_url":""},{"id":11352,"title":"長崎県立長崎図書館 郷土資料センター","architect":"佐々木信明","year":2022.0,"address":"長崎県長崎市立山1-1-51","latitude":32.752960205078125,"longitude":129.8801727294922,"category":"図書館","description":"2022年3月27日オープン予定","image_url":""},{"id":11353,"title":"おぢか薬局","architect":"佐々木信明","year":2019.0,"address":"長崎県北松浦郡小値賀町笛吹郷1763-1","latitude":33.190452575683594,"longitude":129.05894470214844,"category":"店舗","description":"","image_url":""},{"id":11354,"title":"福井神社","architect":"五十嵐直雄","year":1957.0,"address":"福井県福井市大手3-16-1","latitude":36.06599426269531,"longitude":136.21934509277344,"category":"寺院","description":"1957年に本殿と拝殿が竣工し、1966年までに全8棟の社殿が竣工","image_url":""},{"id":11355,"title":"Bicolo尾山台","architect":"伊藤博之","year":2020.0,"address":"東京都世田谷区等々力2-16","latitude":35.604862213134766,"longitude":139.652099609375,"category":"集合住宅","description":"","image_url":""},{"id":11356,"title":"プリズムコート月島","architect":"伊藤博之","year":2020.0,"address":"東京都中央区月島4-3-16","latitude":35.661231994628906,"longitude":139.78285217285156,"category":"集合住宅","description":"","image_url":""},{"id":11357,"title":"幸田町多世代交流施設 豊坂ほっと館","architect":"太幡英亮","year":2018.0,"address":"愛知県額田郡幸田町六栗西山2-169","latitude":34.86185073852539,"longitude":137.15484619140625,"category":"公民館・交流施設","description":"","image_url":""},{"id":11358,"title":"名古屋大学 ナショナルイノベーションコンプレックス","architect":"日本設計+太幡英亮","year":2015.0,"address":"愛知県名古屋市千種区不老町 名古屋大学","latitude":35.15571975708008,"longitude":136.96702575683594,"category":"大学","description":"","image_url":""},{"id":11359,"title":"名古屋大学 ES総合館","architect":"久米設計+太幡英亮+恒川和久","year":2011.0,"address":"愛知県名古屋市千種区不老町 名古屋大学","latitude":35.1553955078125,"longitude":136.96763610839844,"category":"大学","description":"","image_url":""},{"id":11360,"title":"名古屋大学 研究所共同館II","architect":"佐藤総合計画+太幡英亮","year":2016.0,"address":"愛知県名古屋市千種区不老町 名古屋大学","latitude":35.151241302490234,"longitude":136.97320556640625,"category":"大学","description":"","image_url":""},{"id":11361,"title":"名古屋大学 創薬科学研究棟","architect":"山下設計+太幡英亮","year":2015.0,"address":"愛知県名古屋市千種区不老町 名古屋大学","latitude":35.152286529541016,"longitude":136.9727325439453,"category":"大学","description":"","image_url":""},{"id":11362,"title":"名古屋大学 研究所共同館I","architect":"日建設計","year":2013.0,"address":"愛知県名古屋市千種区不老町 名古屋大学","latitude":35.151580810546875,"longitude":136.972900390625,"category":"大学","description":"","image_url":""},{"id":11363,"title":"名古屋大学 IB電子情報館","architect":"恒川和久+教育施設研究所","year":2004.0,"address":"愛知県名古屋市千種区不老町 名古屋大学","latitude":35.155250549316406,"longitude":136.96604919433594,"category":"大学","description":"","image_url":""},{"id":11364,"title":"地下鉄名古屋大学駅","architect":"恒川和久+石本建築事務所+教育施設研究所","year":2004.0,"address":"愛知県名古屋市千種区不老町 名古屋大学","latitude":35.15473556518555,"longitude":136.96653747558594,"category":"駅","description":"","image_url":""},{"id":11365,"title":"愛知県歯科医師会館","architect":"山下設計","year":2012.0,"address":"愛知県名古屋市中区丸の内3-5-18","latitude":35.17729568481445,"longitude":136.9070587158203,"category":"組合施設","description":"","image_url":""},{"id":11366,"title":"名古屋市立第二斎場","architect":"山下設計","year":2015.0,"address":"愛知県名古屋市港区東茶屋3-123","latitude":35.10275650024414,"longitude":136.82916259765625,"category":"斎場","description":"","image_url":""},{"id":11367,"title":"MMPCコンサルティンググループ 高山オフィス","architect":"降旗範行","year":2020.0,"address":"岐阜県高山市西之一色町3-678","latitude":36.136627197265625,"longitude":137.24594116210938,"category":"低層オフィス","description":"","image_url":""},{"id":11368,"title":"タゴール・ハーバーホステル","architect":"鈴木智博","year":2019.0,"address":"静岡県沼津市戸田321-17","latitude":34.97279357910156,"longitude":138.77725219726562,"category":"ホステル","description":"","image_url":""},{"id":11369,"title":"アーキペラゴ・ロースタリー","architect":"鈴木智博","year":2021.0,"address":"静岡県沼津市戸田1588-3","latitude":34.971065521240234,"longitude":138.792724609375,"category":"店舗/カフェ","description":"","image_url":""},{"id":11370,"title":"ワーカーズリビング三島クロケット","architect":"鈴木智博","year":2021.0,"address":"静岡県三島市本町2-4","latitude":35.11980438232422,"longitude":138.9145965576172,"category":"シェアオフィス","description":"","image_url":""},{"id":11371,"title":"KHKビル","architect":"安藤忠雄","year":1986.0,"address":"東京都港区西麻布3-17-25","latitude":35.65824890136719,"longitude":139.72398376464844,"category":"テナントビル","description":"","image_url":""},{"id":11372,"title":"鷹番の長屋 SKYFLAT","architect":"ニジアーキテクツ","year":2014.0,"address":"東京都目黒区鷹番3-10","latitude":35.6304817199707,"longitude":139.6855926513672,"category":"集合住宅","description":"","image_url":""},{"id":11373,"title":"地産地消カフェ #NOCA","architect":"渡邊裕樹","year":2021.0,"address":"兵庫県加古郡稲美町六分一1179-224","latitude":34.73445510864258,"longitude":134.90956115722656,"category":"カフェ","description":"","image_url":""},{"id":11374,"title":"浅岡耳鼻咽喉科","architect":"中日設計","year":2021.0,"address":"愛知県西尾市今川町下落16-1","latitude":34.853790283203125,"longitude":137.056884765625,"category":"個人医院","description":"","image_url":""},{"id":11375,"title":"鬼頭工業 新事務棟","architect":"中日設計","year":2021.0,"address":"愛知県豊田市細谷町5-16","latitude":35.07127380371094,"longitude":137.1376190185547,"category":"工場/低層オフィス","description":"","image_url":""},{"id":11376,"title":"あすか皮フ科クリニック","architect":"中日設計","year":2021.0,"address":"愛知県名古屋市緑区元徳重2-105","latitude":35.09695053100586,"longitude":136.9984130859375,"category":"個人医院","description":"","image_url":""},{"id":11377,"title":"山尾病院","architect":"中日設計","year":2018.0,"address":"愛知県西尾市桜木町5-14","latitude":34.8627815246582,"longitude":137.05502319335938,"category":"病院","description":"","image_url":""},{"id":11378,"title":"リガーレ晴海","architect":"中日設計","year":2017.0,"address":"愛知県蒲郡市西浦町塩柄7-2","latitude":34.7674674987793,"longitude":137.17431640625,"category":"研修施設/その他宿泊施設","description":"","image_url":""},{"id":11379,"title":"杉浦こどもクリニック","architect":"中日設計","year":2018.0,"address":"愛知県碧南市塩浜町2-22","latitude":34.86882019042969,"longitude":136.98501586914062,"category":"個人医院","description":"","image_url":""},{"id":11380,"title":"DMG森精機 奈良商品開発センタ","architect":"隈研吾","year":2022.0,"address":"奈良県奈良市三条本町2-1","latitude":34.68014144897461,"longitude":135.81959533691406,"category":"研究施設","description":"","image_url":""},{"id":11381,"title":"MOBTOWNミナミシモハラ","architect":"井村正和","year":2018.0,"address":"愛知県春日井市南下原町1-1-8","latitude":35.26277160644531,"longitude":136.96942138671875,"category":"住宅/集合住宅","description":"","image_url":""},{"id":11382,"title":"にぎわいの森 いなべ","architect":"井村正和","year":2019.0,"address":"三重県いなべ市北勢町阿下喜31","latitude":35.15778350830078,"longitude":136.51585388183594,"category":"モール","description":"","image_url":""},{"id":11383,"title":"清津峡渓谷トンネル Tunnel of Light/ペリスコープ","architect":"MADアーキテクツ","year":2018.0,"address":"新潟県十日町市小出癸2119-2","latitude":36.97263717651367,"longitude":138.74984741210938,"category":"観光施設/カフェ/橋","description":"","image_url":""},{"id":11384,"title":"OAK BLDG II","architect":"竹山聖","year":2020.0,"address":"東京都目黒区上目黒1-11-1","latitude":35.64689636230469,"longitude":139.69920349121094,"category":"レストラン/オフィスビル","description":"","image_url":""},{"id":11385,"title":"NAGAREYAMA おおたかの森 GARDENS アゼリアテラス","architect":"小堀哲夫","year":2022.0,"address":"千葉県流山市おおたかの森西1-2-3","latitude":35.871795654296875,"longitude":139.92396545410156,"category":"テナントビル/オフィスビル","description":"基本計画・基本設計・デザイン監修：小堀哲夫 実施設計：錢高組","image_url":""},{"id":11386,"title":"松崎幼稚園 遊戯室棟","architect":"青木茂","year":2018.0,"address":"山口県防府市天神2-5-22","latitude":34.057960510253906,"longitude":131.5751190185547,"category":"幼稚園","description":"","image_url":""},{"id":11387,"title":"春日台センターセンター","architect":"teco","year":2022.0,"address":"神奈川県愛甲郡愛川町春日台3-6","latitude":35.524253845214844,"longitude":139.33306884765625,"category":"福祉センター/公民館・交流施設/店舗","description":"","image_url":""},{"id":11388,"title":"法林寺 本堂","architect":"古森弘一","year":2022.0,"address":"福岡県糸島市前原中央3-6-28","latitude":33.561466217041016,"longitude":130.19932556152344,"category":"寺院","description":"","image_url":""},{"id":11389,"title":"一宮聖光教会 聖堂・コモンハウス・コモンテラス","architect":"studio velocity","year":2021.0,"address":"愛知県一宮市古金町1-41","latitude":35.2985725402832,"longitude":136.80934143066406,"category":"教会","description":"","image_url":""},{"id":11390,"title":"デイサービス・カノン","architect":"千葉学","year":2021.0,"address":"和歌山県田辺市下三栖1483-15","latitude":33.729637145996094,"longitude":135.42050170898438,"category":"福祉センター","description":"","image_url":""},{"id":11391,"title":"長嶋雄一クリニック","architect":"千葉学","year":2007.0,"address":"和歌山県田辺市下三栖1483-15","latitude":33.729862213134766,"longitude":135.42076110839844,"category":"個人医院","description":"","image_url":""},{"id":11392,"title":"切目屋調剤薬局 下三栖岩屋谷支店","architect":"千葉学","year":2007.0,"address":"和歌山県田辺市下三栖1483-15","latitude":33.729583740234375,"longitude":135.4207000732422,"category":"店舗","description":"","image_url":""},{"id":11393,"title":"STEP","architect":"千葉学","year":2007.0,"address":"東京都世田谷区代沢3-16-16","latitude":35.6558837890625,"longitude":139.67398071289062,"category":"集合住宅","description":"","image_url":""},{"id":11394,"title":"ホームギャラリー ステッチ","architect":"千葉学","year":2009.0,"address":"東京都立川市柏町4-77-1","latitude":35.72966766357422,"longitude":139.41114807128906,"category":"集合住宅/カフェ/ギャラリー","description":"","image_url":""},{"id":11395,"title":"MESH","architect":"千葉学","year":2004.0,"address":"東京都世田谷区新町3-16-6","latitude":35.633731842041016,"longitude":139.6478729248047,"category":"集合住宅","description":"","image_url":""},{"id":11396,"title":"altopiano","architect":"千葉学","year":2005.0,"address":"東京都渋谷区神宮前3-17-3","latitude":35.67069625854492,"longitude":139.71084594726562,"category":"集合住宅","description":"","image_url":""},{"id":11397,"title":"Hi-ROOMS方南町","architect":"千葉学","year":2007.0,"address":"東京都杉並区和泉1-41-20","latitude":35.67753982543945,"longitude":139.65670776367188,"category":"集合住宅","description":"","image_url":""},{"id":11398,"title":"SPLIT","architect":"千葉学","year":2002.0,"address":"東京都世田谷区北沢4-4-23","latitude":35.666866302490234,"longitude":139.67127990722656,"category":"集合住宅","description":"","image_url":""},{"id":11399,"title":"駒沢公園テラスハウス","architect":"千葉学","year":2009.0,"address":"東京都世田谷区駒沢4-1-20","latitude":35.62602996826172,"longitude":139.6553497314453,"category":"集合住宅","description":"","image_url":""},{"id":11400,"title":"kif","architect":"千葉学","year":2009.0,"address":"東京都新宿区若宮町14-7","latitude":35.70018005371094,"longitude":139.73956298828125,"category":"集合住宅/レストラン","description":"","image_url":""}]}