{"page":264,"total_pages":290,"items_per_page":50,"total_items":14467,"items":[{"id":13151,"title":"こもの花苑","architect":"川本達也","year":2023.0,"address":"三重県三重郡菰野町菰野1337-6","latitude":35.01300811767578,"longitude":136.5140838623047,"category":"店舗/ギャラリー/カフェ","description":"","image_url":""},{"id":13152,"title":"ポーラ青山ビルディング","architect":"久米設計+安田幸一","year":2024.0,"address":"東京都港区南青山2-5-17","latitude":35.671905517578125,"longitude":139.72280883789062,"category":"オフィスビル/幼稚園/美術館","description":"","image_url":""},{"id":13153,"title":"西友穂高店","architect":"菊竹清訓","year":1981.0,"address":"長野県安曇野市穂高5626-1","latitude":36.34324264526367,"longitude":137.8833465576172,"category":"店舗","description":"","image_url":""},{"id":13154,"title":"住友活機園 伊庭貞剛記念館","architect":"野口孫市","year":1904.0,"address":"滋賀県大津市田辺町10-14","latitude":34.97071838378906,"longitude":135.90219116210938,"category":"洋館","description":"","image_url":""},{"id":13155,"title":"ThinkStay Mt.","architect":"森下修+平田雅哉","year":2023.0,"address":"兵庫県神戸市灘区六甲山町一ケ谷1-8","latitude":34.753170013427734,"longitude":135.23666381835938,"category":"コテージ/和風住宅","description":"書院は平田雅哉によって80年前に手がけられたものを復刻。森下建築総研により運営されている","image_url":""},{"id":13156,"title":"AUBE虎ノ門","architect":"櫻井潔","year":2022.0,"address":"東京都港区虎ノ門5-3-21","latitude":35.66355895996094,"longitude":139.74273681640625,"category":"集合住宅","description":"","image_url":""},{"id":13157,"title":"ESCALIER 六番町","architect":"櫻井潔","year":2023.0,"address":"東京都千代田区六番町7-11","latitude":35.6871223449707,"longitude":139.7329559326172,"category":"オフィスビル","description":"","image_url":""},{"id":13158,"title":"いわきマリンタワー","architect":"住宅・都市整備公団+坪井善勝","year":1985.0,"address":"福島県いわき市小名浜下神白大作93","latitude":36.93939208984375,"longitude":140.9199981689453,"category":"展望台","description":"","image_url":""},{"id":13159,"title":"サンクチュアリコート高山 アートギャラリーリゾート","architect":"日建設計","year":2024.0,"address":"岐阜県高山市上岡本町1-124-1","latitude":36.13656997680664,"longitude":137.24073791503906,"category":"ホテル/美術館","description":"飛騨高山美術館の建て替え。会員制ホテル。美術館自体は同施設内にて継続","image_url":""},{"id":13160,"title":"複合施設 はなのわ","architect":"藤本壮介","year":2024.0,"address":"北海道上川郡東神楽町南1条西1-3-2","latitude":43.696414947509766,"longitude":142.4517364501953,"category":"庁舎/ホール・劇場/医療施設","description":"2024年8月グランドオープン予定。役場機能・多目的ホール・診療所など。藤本壮介は東神楽町出身。","image_url":""},{"id":13161,"title":"豊田市博物館","architect":"坂茂","year":2024.0,"address":"愛知県豊田市小坂本町5","latitude":35.08204650878906,"longitude":137.1511993408203,"category":"博物館","description":"2024年4月26日オープン予定","image_url":""},{"id":13162,"title":"西山氏庭園 青龍庭","architect":"重森三玲","year":1940.0,"address":"大阪府豊中市岡町南2-14-55","latitude":34.77743911743164,"longitude":135.46221923828125,"category":"庭園","description":"通常非公開。特別公開される時がある。主屋などは国登録有形文化財。庭園は国指定文化財","image_url":""},{"id":13163,"title":"インフィニート ホテル&スパ 南紀白浜","architect":"佐竹永太郎","year":2017.0,"address":"和歌山県西牟婁郡白浜町2018","latitude":33.67207336425781,"longitude":135.34230041503906,"category":"ホテル","description":"フルイノベーション","image_url":""},{"id":13164,"title":"一乗山妙蓮寺 納骨堂 プラバ","architect":"佐竹永太郎","year":2023.0,"address":"大分県大分市里3-13-22","latitude":33.23138427734375,"longitude":131.74411010742188,"category":"寺院/霊園","description":"","image_url":""},{"id":13165,"title":"MGY-BASE","architect":"佐竹永太郎","year":2013.0,"address":"東京都渋谷区神宮前3-30-8","latitude":35.671932220458984,"longitude":139.70999145507812,"category":"低層オフィス","description":"","image_url":""},{"id":13166,"title":"ピークカフェ","architect":"佐竹永太郎","year":2016.0,"address":"北海道亀田郡七飯町東大沼666","latitude":41.96234130859375,"longitude":140.76710510253906,"category":"カフェ","description":"","image_url":""},{"id":13167,"title":"FRESH Share JINGUMAE","architect":"佐竹永太郎","year":2013.0,"address":"東京都渋谷区神宮前5-35","latitude":35.66383743286133,"longitude":139.705078125,"category":"集合住宅/寮","description":"","image_url":""},{"id":13168,"title":"安芸グランドホテル","architect":"佐竹永太郎","year":2004.0,"address":"広島県廿日市市宮島口西1-1-17","latitude":34.303855895996094,"longitude":132.29641723632812,"category":"ホテル","description":"2007年・11年・2015年洋室、2013年大浴場、2014年露天風呂、2019年カフェ・バーラウンジ、2023年ホテル内ショップ","image_url":""},{"id":13169,"title":"稲毛陵苑","architect":"佐竹永太郎","year":2018.0,"address":"千葉県千葉市稲毛区稲毛東3-7-5","latitude":35.63716125488281,"longitude":140.0901336669922,"category":"霊園","description":"","image_url":""},{"id":13170,"title":"三鷹市吉村昭書斎","architect":"SALHAUS","year":2024.0,"address":"東京都三鷹市井の頭3-3-17","latitude":35.696109771728516,"longitude":139.58399963378906,"category":"博物館","description":"1978年竣工の吉村昭書斎の再現","image_url":""},{"id":13171,"title":"インスタイルレジデンス本駒込","architect":"青木茂","year":2024.0,"address":"東京都文京区本駒込4-19-1","latitude":35.73112106323242,"longitude":139.7576141357422,"category":"集合住宅","description":"1976年竣工のリファイニング","image_url":""},{"id":13172,"title":"エビスバードクリニックMAI","architect":"大江宏","year":1957.0,"address":"東京都渋谷区恵比寿西1-27-3","latitude":35.6480598449707,"longitude":139.70655822753906,"category":"個人医院","description":"","image_url":""},{"id":13173,"title":"モスバーガー 多治見上野町店","architect":"武藤圭太郎","year":2022.0,"address":"岐阜県多治見市上野町5-98","latitude":35.34159469604492,"longitude":137.126953125,"category":"店舗","description":"","image_url":""},{"id":13174,"title":"馬喰一代長良本家","architect":"武藤圭太郎","year":2022.0,"address":"岐阜県岐阜市八代2-7-10","latitude":35.45953369140625,"longitude":136.76918029785156,"category":"相宮工務店","description":"","image_url":""},{"id":13175,"title":"VORT AOYAMA II","architect":"若林広幸","year":2006.0,"address":"東京都渋谷区渋谷2-1-12","latitude":35.661048889160156,"longitude":139.70785522460938,"category":"テナントビル","description":"","image_url":""},{"id":13176,"title":"土浦亀城邸 移築・復元","architect":"土浦亀城+安田幸一","year":1935.0,"address":"東京都港区南青山2-5-17","latitude":35.67167663574219,"longitude":139.72296142578125,"category":"住宅","description":"品川区上大崎からポーラ青山ビル敷地内に安田幸一により2024年移築。2024年9月下旬より予約制ガイドツアー","image_url":""},{"id":13177,"title":"笠沙美術館 黒瀬展望ミュージアム","architect":"水戸岡鋭治","year":1998.0,"address":"鹿児島県南さつま市笠沙町赤生木8666-1","latitude":31.377775192260742,"longitude":130.16871643066406,"category":"美術館","description":"","image_url":""},{"id":13178,"title":"いちき串木野市高齢者福祉センター","architect":"中地正隆","year":1981.0,"address":"鹿児島県いちき串木野市新生町183","latitude":31.710107803344727,"longitude":130.2652130126953,"category":"福祉センター","description":"","image_url":""},{"id":13179,"title":"伊方町健康交流施設 佐田岬 亀ヶ池温泉","architect":"矢野青山建築設計事務所","year":2023.0,"address":"愛媛県西宇和郡伊方町二見1289","latitude":33.4652099609375,"longitude":132.28102111816406,"category":"温泉/ホテル","description":"既存施設は2007年にオープンしたが2021年に焼失。大浴場などは既存施設のもの","image_url":""},{"id":13180,"title":"磐田商工会議所会館","architect":"渡辺隆+後藤周平","year":2024.0,"address":"静岡県磐田市中泉281-1","latitude":34.71671676635742,"longitude":137.8522491455078,"category":"組合施設","description":"","image_url":""},{"id":13181,"title":"吉備高原Nスクエア","architect":"隈研吾","year":2024.0,"address":"岡山県加賀郡吉備中央町吉川4649-126","latitude":34.8294677734375,"longitude":133.7627716064453,"category":"シェアオフィス/カフェ","description":"","image_url":""},{"id":13182,"title":"アリタセラ 旧有田陶磁の里プラザ","architect":"佐藤総合計画+三井所清典","year":1978.0,"address":"佐賀県西松浦郡有田町赤坂丙2351-169","latitude":33.19428634643555,"longitude":129.87557983398438,"category":"モール","description":"改修：アルセッド建築研究所。月刊商店建築1978年4月号に記載があるため設計年を1978年とした。佐藤武夫設計事務所名義だが、佐藤武夫死去後竣工のため佐藤総合計画として記載","image_url":""},{"id":13183,"title":"有田駅","architect":"三井所清典","year":null,"address":"佐賀県西松浦郡有田町外尾町丙","latitude":33.18339157104492,"longitude":129.882080078125,"category":"駅","description":"","image_url":""},{"id":13184,"title":"アリタハウス","architect":"ユニティデザイン+三井所清典","year":2018.0,"address":"佐賀県西松浦郡有田町赤坂丙2351-169","latitude":33.19490432739258,"longitude":129.87612915039062,"category":"ホテル","description":"ホテル：増築。レストラン：改修","image_url":""},{"id":13185,"title":"男山本店店舗","architect":"三井所清典","year":2020.0,"address":"宮城県気仙沼市魚町2-2-12","latitude":38.90645980834961,"longitude":141.5745849609375,"category":"店舗/洋館","description":"1929年の気仙沼大火後の復興期に建てられた。その後東日本大震災で被災。復原","image_url":""},{"id":13186,"title":"阿蘇草千里レストハウス","architect":"三井所清典","year":2020.0,"address":"熊本県阿蘇市永草2391-15","latitude":32.8858642578125,"longitude":131.05335998535156,"category":"レストラン","description":"","image_url":""},{"id":13187,"title":"創価学会 戸田記念墓地公園 レインボーホール","architect":"三井所清典+創造社","year":2019.0,"address":"北海道石狩市厚田区望来327","latitude":43.318477630615234,"longitude":141.45944213867188,"category":"宗教施設","description":"","image_url":""},{"id":13188,"title":"創価学会 戸田記念墓地公園 レストラン厚田亭","architect":"三井所清典+創造社","year":2022.0,"address":"北海道石狩市厚田区望来719-1","latitude":43.31930923461914,"longitude":141.44580078125,"category":"宗教施設","description":"","image_url":""},{"id":13189,"title":"創価学会 牧口記念墓地公園 万葉ホール","architect":"三井所清典+創造社","year":2019.0,"address":"新潟県柏崎市久米2765-60","latitude":37.29290008544922,"longitude":138.60826110839844,"category":"宗教施設","description":"","image_url":""},{"id":13190,"title":"八幡コミュ二ティセンター","architect":"三井所清典","year":2014.0,"address":"福島県河沼郡会津坂下町塔寺北原787","latitude":37.5754508972168,"longitude":139.7996063232422,"category":"公民館・交流施設","description":"","image_url":""},{"id":13191,"title":"気多宮街なみ交流センター","architect":"三井所清典","year":2014.0,"address":"福島県河沼郡会津坂下町気多宮宮ノ内","latitude":37.57312774658203,"longitude":139.7890167236328,"category":"公民館・交流施設","description":"土蔵の改修","image_url":""},{"id":13192,"title":"むかでの絵馬館","architect":"三井所清典","year":2018.0,"address":"宮城県角田市鳩原寺44","latitude":38.05502700805664,"longitude":140.8184814453125,"category":"博物館","description":"","image_url":""},{"id":13193,"title":"岡田三郎助アトリエ","architect":"三井所清典","year":2018.0,"address":"佐賀県佐賀市城内1-15","latitude":33.24507141113281,"longitude":130.30105590820312,"category":"洋館","description":"明治40年頃竣工の恵比寿にあったアトリエを移築","image_url":""},{"id":13194,"title":"京都府薬剤師会館","architect":"満野久","year":1982.0,"address":"京都府京都市東山区東大路五条上る梅林町563","latitude":34.99568557739258,"longitude":135.7767333984375,"category":"組合施設","description":"","image_url":""},{"id":13195,"title":"大本山大覚寺 信徒会館","architect":"満野久","year":1991.0,"address":"京都府京都市右京区嵯峨大沢町4","latitude":35.0275993347168,"longitude":135.6775360107422,"category":"寺院","description":"","image_url":""},{"id":13196,"title":"神戸市立須磨区民センター","architect":"満野久","year":1979.0,"address":"兵庫県神戸市須磨区中島町1-2-3","latitude":34.650882720947266,"longitude":135.1293487548828,"category":"公民館・交流施設/図書館","description":"","image_url":""},{"id":13197,"title":"大洲市立長浜小学校","architect":"満野久","year":1979.0,"address":"愛媛県大洲市長浜甲190","latitude":33.612083435058594,"longitude":132.48236083984375,"category":"学校","description":"","image_url":""},{"id":13198,"title":"京丹波町役場和知支所","architect":"満野久","year":1978.0,"address":"京都府船井郡京丹波町本庄ウエ16","latitude":35.260475158691406,"longitude":135.39646911621094,"category":"庁舎","description":"","image_url":""},{"id":13199,"title":"京都府立るり渓少年自然の家","architect":"満野久","year":1981.0,"address":"京都府南丹市園部町大河内小米阪1-9","latitude":35.029510498046875,"longitude":135.3996124267578,"category":"研修施設/児童施設","description":"","image_url":""},{"id":13200,"title":"河内長野市立美加の台小学校","architect":"満野久","year":1986.0,"address":"大阪府河内長野市美加の台3-25-1","latitude":34.42623519897461,"longitude":135.58688354492188,"category":"学校","description":"","image_url":""}]}