{"page":175,"total_pages":290,"items_per_page":50,"total_items":14467,"items":[{"id":8701,"title":"香南市総合子育て支援センター にこなん","architect":"平山昌信","year":2019.0,"address":"高知県香南市野市町西野2072-4","latitude":33.56132125854492,"longitude":133.6983184814453,"category":"児童施設","description":"","image_url":""},{"id":8702,"title":"北川村あったかふれあいセンター ゆずの花","architect":"平山昌信","year":2019.0,"address":"高知県安芸郡北川村野友甲716-1","latitude":33.44670867919922,"longitude":134.03729248046875,"category":"公民館・交流施設/その他宿泊施設","description":"","image_url":""},{"id":8703,"title":"オモケンパーク","architect":"矢橋徹","year":2019.0,"address":"熊本県熊本市中央区上通町7-7-1","latitude":32.805030822753906,"longitude":130.71139526367188,"category":"カフェ","description":"","image_url":""},{"id":8704,"title":"四寸角の写真スタジオ スタジオ バジル","architect":"富永大毅","year":2019.0,"address":"東京都北区志茂3-6-1","latitude":35.77656936645508,"longitude":139.73597717285156,"category":"住宅/企業施設","description":"","image_url":""},{"id":8705,"title":"松尾建設 佐賀本店","architect":"松尾建設+小見山健次+小見山陽介","year":2018.0,"address":"佐賀県佐賀市多布施1-4-27","latitude":33.25495910644531,"longitude":130.29232788085938,"category":"オフィスビル","description":"","image_url":""},{"id":8706,"title":"兵庫県林業会館","architect":"竹中工務店","year":2019.0,"address":"兵庫県神戸市中央区北長狭通5-5-18","latitude":34.68937301635742,"longitude":135.1837615966797,"category":"組合施設","description":"","image_url":""},{"id":8707,"title":"大工館II 大河内工務店 高松店","architect":"瀬野和広","year":2019.0,"address":"香川県高松市多肥上町1490","latitude":34.29267501831055,"longitude":134.0597686767578,"category":"低層オフィス","description":"","image_url":""},{"id":8708,"title":"セトレならまち","architect":"芦澤竜一","year":2018.0,"address":"奈良県奈良市高畑町1118","latitude":34.68130874633789,"longitude":135.83224487304688,"category":"ホテル","description":"","image_url":""},{"id":8709,"title":"八光自動車西宮ショールーム アルファロメオ・フィアット/アバルト 西宮","architect":"芦澤竜一","year":2018.0,"address":"兵庫県西宮市神楽町5-1","latitude":34.738059997558594,"longitude":135.3312225341797,"category":"店舗","description":"","image_url":""},{"id":8710,"title":"ノードホテル","architect":"竹内誠一郎","year":2019.0,"address":"京都府京都市中京区蟷螂山町461","latitude":35.004764556884766,"longitude":135.75497436523438,"category":"ホテル","description":"","image_url":""},{"id":8711,"title":"The Okura Tokyo","architect":"谷口吉生+大成建設+日本設計+NTTファシリティーズ 他","year":2019.0,"address":"東京都港区虎ノ門2-10-4","latitude":35.66701889038086,"longitude":139.74371337890625,"category":"ホテル","description":"谷口吉生が谷口吉郎によるロビーインテリアを継承する形で設計。他、設計者クレジットは大成建設、谷口吉生、観光企画設計社、日本設計、森村設計、NTTファシリティーズ","image_url":""},{"id":8712,"title":"新青森県総合運動公園陸上競技場","architect":"伊東豊雄","year":2019.0,"address":"青森県青森市大字宮田高瀬","latitude":40.838905334472656,"longitude":140.84144592285156,"category":"スタジアム","description":"","image_url":""},{"id":8713,"title":"就労継続支援B型事業所 PALETTE","architect":"A Nomad Sub+ナノメートルアーキテクチャー","year":2019.0,"address":"大阪府大阪市淀川区田川北1-7-5","latitude":34.724220275878906,"longitude":135.47418212890625,"category":"福祉センター","description":"","image_url":""},{"id":8714,"title":"フィン・ユール邸","architect":"フィン・ユール","year":2012.0,"address":"岐阜県高山市松倉町2115","latitude":36.12042999267578,"longitude":137.2323455810547,"category":"住宅/博物館","description":"デンマークにあるフィン・ユール自邸(1942)を実測して高山市にて再現。博物館として公開中。要事前予約。3000円。","image_url":""},{"id":8715,"title":"東日本大震災津波伝承館 いわてTSUNAMIメモリアル","architect":"プレック研究所+内藤廣","year":2019.0,"address":"岩手県陸前高田市気仙町字土手影180","latitude":39.00709915161133,"longitude":141.62704467773438,"category":"博物館","description":"","image_url":""},{"id":8716,"title":"東大阪市文化創造館","architect":"佐藤総合計画","year":2019.0,"address":"大阪府東大阪市御厨南2-3-4","latitude":34.66585922241211,"longitude":135.5896453857422,"category":"総合文化施設","description":"","image_url":""},{"id":8717,"title":"垂井町新庁舎","architect":"梓設計","year":2019.0,"address":"岐阜県不破郡垂井町宮代2957-11","latitude":35.36626434326172,"longitude":136.53805541992188,"category":"庁舎","description":"","image_url":""},{"id":8718,"title":"高崎芸術文化センター 高崎芸術劇場","architect":"佐藤総合計画","year":2019.0,"address":"群馬県高崎市栄町9-1","latitude":36.32135009765625,"longitude":139.01852416992188,"category":"ホール・劇場","description":"","image_url":""},{"id":8719,"title":"佳松御苑","architect":"平本英行","year":2018.0,"address":"北海道札幌市南区定山渓857","latitude":42.94196701049805,"longitude":141.12904357910156,"category":"ホテル","description":"","image_url":""},{"id":8720,"title":"ホステル 1889","architect":"パーシモンヒルズ・アーキテクツ","year":2018.0,"address":"山梨県富士吉田市上吉田2-6-3","latitude":35.48244857788086,"longitude":138.79722595214844,"category":"ホステル","description":"","image_url":""},{"id":8721,"title":"明石市大蔵海岸公園施設 ZAZAZA 大蔵海岸BBQ","architect":"畑友洋","year":2019.0,"address":"兵庫県明石市大蔵海岸通1","latitude":34.64338302612305,"longitude":135.0150604248047,"category":"公園/展望台","description":"","image_url":""},{"id":8722,"title":"明石公園交流拠点施設 明石公園 TTT","architect":"畑友洋","year":2017.0,"address":"兵庫県明石市明石公園1-27","latitude":34.65047073364258,"longitude":134.9921417236328,"category":"レストラン/公共施設","description":"","image_url":""},{"id":8723,"title":"W' 出石ギャラリー A&A ジョナサン•ハセガワ","architect":"長谷川豪+ジョナサン・モンク+青木淳","year":2019.0,"address":"岡山県岡山市北区出石町1-6-7","latitude":34.66933822631836,"longitude":133.9315643310547,"category":"住宅/コテージ/ギャラリー","description":"建築家とアーティストによるコラボレーション。一棟貸しの宿に加えギャラリー・カフェが併設されている","image_url":""},{"id":8724,"title":"A&A リアム・フジ","architect":"マウントフジアーキテクツスタジオ+リアム・ギリック","year":2019.0,"address":"岡山県岡山市北区天神町9-2","latitude":34.66635513305664,"longitude":133.9296112060547,"category":"住宅/コテージ","description":"建築家とアーティストによるコラボレーション。一棟貸しの宿","image_url":""},{"id":8725,"title":"WESTORY","architect":"加藤吉宏","year":2019.0,"address":"愛知県名古屋市守山区瀬古東3-3-1150","latitude":35.211692810058594,"longitude":136.941162109375,"category":"美容院","description":"","image_url":""},{"id":8726,"title":"神奈川カントリークラブ","architect":"アントニン・レーモンド+アーキヴィジョン広谷スタジオ","year":1968.0,"address":"神奈川県相模原市緑区牧野6977-1","latitude":35.586021423339844,"longitude":139.14224243164062,"category":"クラブハウス","description":"2018年5月にアーキヴィジョン広谷スタジオ設計により改修","image_url":""},{"id":8727,"title":"池田町交流センターかえで","architect":"アーキディアック","year":2019.0,"address":"長野県北安曇郡池田町大字池田3336-1","latitude":36.41823959350586,"longitude":137.87718200683594,"category":"公民館・交流施設/図書館","description":"","image_url":""},{"id":8728,"title":"道の駅雨晴","architect":"アーキヴィジョン広谷スタジオ","year":2018.0,"address":"富山県高岡市太田24-74","latitude":36.81502914428711,"longitude":137.04110717773438,"category":"PA・道の駅","description":"","image_url":""},{"id":8729,"title":"長門市新庁舎","architect":"東畑建築事務所+藤田建築設計事務所+山本道善","year":2019.0,"address":"山口県長門市東深川正明市1339-2","latitude":34.370540618896484,"longitude":131.18251037597656,"category":"庁舎","description":"","image_url":""},{"id":8730,"title":"ムサシ電子 板橋工場","architect":"高池葉子","year":2018.0,"address":"東京都板橋区東山町32-4","latitude":35.75303268432617,"longitude":139.6841278076172,"category":"工場","description":"","image_url":""},{"id":8731,"title":"四国中央市市民文化ホール しこちゅ～ホール","architect":"あい設計","year":2019.0,"address":"愛媛県四国中央市妻鳥町1830-1","latitude":33.98690414428711,"longitude":133.57522583007812,"category":"ホール・劇場","description":"","image_url":""},{"id":8732,"title":"愛知県国際展示場 Aichi Sky Expo","architect":"竹中工務店","year":2019.0,"address":"愛知県常滑市セントレア5-10-1","latitude":34.85685729980469,"longitude":136.8214111328125,"category":"展示・会議場","description":"","image_url":""},{"id":8733,"title":"京都市宝が池公園体育館","architect":"香山壽夫","year":2019.0,"address":"京都府京都市左京区松ケ崎西池ノ内町2","latitude":35.053123474121094,"longitude":135.77481079101562,"category":"体育館","description":"","image_url":""},{"id":8734,"title":"京都瓢斗 京都駅前本店","architect":"千葉学","year":2018.0,"address":"京都府京都市下京区七条下る東塩小路町607-12","latitude":34.98855209350586,"longitude":135.75534057617188,"category":"料亭","description":"","image_url":""},{"id":8735,"title":"称名寺 鐘撞堂","architect":"o+h","year":2019.0,"address":"広島県呉市阿賀中央9-8-2","latitude":34.236507415771484,"longitude":132.5948486328125,"category":"寺院","description":"","image_url":""},{"id":8736,"title":"読売テレビ新社屋","architect":"竹中工務店","year":2019.0,"address":"大阪府大阪市中央区城見1-3-2","latitude":34.69123458862305,"longitude":135.53094482421875,"category":"オフィスビル","description":"","image_url":""},{"id":8737,"title":"pino Apartment MK","architect":"1-1 Architects","year":2019.0,"address":"愛知県刈谷市松坂町3","latitude":34.9775276184082,"longitude":136.9927520751953,"category":"集合住宅","description":"","image_url":""},{"id":8738,"title":"石橋迎賓館 旧石橋徳次郎邸","architect":"松田軍平+平田重雄","year":1933.0,"address":"福岡県久留米市城南町17-1","latitude":33.32072067260742,"longitude":130.5087890625,"category":"住宅/洋館","description":"2014年に改修・修復工事。イベント時のみ公開。毎年秋の久留米まち旅博覧会で公開されている模様","image_url":""},{"id":8739,"title":"紬山荘","architect":"齋藤裕","year":1987.0,"address":"山梨県北杜市高根町村山西割3113-2","latitude":35.846614837646484,"longitude":138.4040985107422,"category":"レストラン/ホテル","description":"","image_url":""},{"id":8740,"title":"エスビー食品本社ビル","architect":"齋藤裕","year":2008.0,"address":"東京都中央区日本橋兜町18-6","latitude":35.67869186401367,"longitude":139.7755889892578,"category":"オフィスビル","description":"","image_url":""},{"id":8741,"title":"赤司広楽園ビル","architect":"葉祥栄","year":1991.0,"address":"福岡県久留米市六ツ門町20-6","latitude":33.31257247924805,"longitude":130.5150909423828,"category":"テナントビル","description":"","image_url":""},{"id":8742,"title":"登米懐古館","architect":"隈研吾","year":2019.0,"address":"宮城県登米市登米町寺池桜小路72-6","latitude":38.6533203125,"longitude":141.28135681152344,"category":"博物館","description":"","image_url":""},{"id":8743,"title":"ドアーズ本社屋","architect":"菅原大輔","year":2018.0,"address":"岩手県盛岡市本宮6-30-21","latitude":39.686424255371094,"longitude":141.1179962158203,"category":"低層オフィス","description":"","image_url":""},{"id":8744,"title":"京都市歴史資料館","architect":"富家宏泰","year":1982.0,"address":"京都府京都市上京区寺町荒神口下る松蔭町138-1","latitude":35.019134521484375,"longitude":135.76768493652344,"category":"博物館","description":"","image_url":""},{"id":8745,"title":"北村美術館","architect":"富家宏泰","year":1976.0,"address":"京都府京都市上京区今出川下ル1筋目東入ル梶井町448","latitude":35.02802276611328,"longitude":135.77040100097656,"category":"美術館","description":"","image_url":""},{"id":8746,"title":"裏千家センター","architect":"富家宏泰","year":1978.0,"address":"京都府京都市上京区寺之内竪町650-4","latitude":35.03468704223633,"longitude":135.75201416015625,"category":"組合施設/博物館","description":"","image_url":""},{"id":8747,"title":"栗東歴史民俗博物館","architect":"富家宏泰","year":1989.0,"address":"滋賀県栗東市小野223-8","latitude":35.01803970336914,"longitude":136.00892639160156,"category":"博物館","description":"","image_url":""},{"id":8748,"title":"京都府立文化芸術会館","architect":"富家宏泰","year":1969.0,"address":"京都府京都市上京区広小路下る東桜町1 河原町通","latitude":35.02287673950195,"longitude":135.76881408691406,"category":"ホール・劇場","description":"","image_url":""},{"id":8749,"title":"京都市立体育館","architect":"富家宏泰","year":1963.0,"address":"京都府京都市右京区西京極新明町1","latitude":34.99544906616211,"longitude":135.7150421142578,"category":"体育館","description":"","image_url":""},{"id":8750,"title":"西鉄グランドホテル","architect":"浦辺鎮太郎","year":1969.0,"address":"福岡県福岡市中央区大名2-6-60","latitude":33.58958053588867,"longitude":130.39585876464844,"category":"ホテル","description":"","image_url":""}]}