{"page":45,"total_pages":290,"items_per_page":50,"total_items":14467,"items":[{"id":2201,"title":"和歌山県立近代美術館／博物館","architect":"黒川紀章","year":1994.0,"address":"和歌山県和歌山市吹上1-4-14","latitude":34.22502136230469,"longitude":135.1715545654297,"category":"美術館","big_category":"ミュージアム","description":"","image_url":"","tags":"公共建築百選","prefecture":"和歌山","contractor":"","structural_designer":"","landscape_designer":"","shinkenchiku_url":""},{"id":2202,"title":"和歌の浦アート・キューブ","architect":"下吹越武人","year":2003.0,"address":"和歌山県和歌山市和歌浦南3-10-1","latitude":34.18630599975586,"longitude":135.17218017578125,"category":"美術館","big_category":"ミュージアム","description":"","image_url":"","tags":"2005年日本建築学会 作品選奨","prefecture":"和歌山","contractor":"","structural_designer":"","landscape_designer":"","shinkenchiku_url":""},{"id":2203,"title":"ILMA ショールーム","architect":"村松基安","year":2002.0,"address":"和歌山県和歌山市元博労町55","latitude":34.23515319824219,"longitude":135.16810607910156,"category":"店舗","big_category":"商業施設","description":"","image_url":"","tags":"","prefecture":"和歌山","contractor":"","structural_designer":"","landscape_designer":"","shinkenchiku_url":""},{"id":2204,"title":"和歌山県立紀伊風土記の丘 松下記念資料館","architect":"浦辺鎮太郎","year":1970.0,"address":"和歌山県和歌山市岩橋1411","latitude":34.22788619995117,"longitude":135.22958374023438,"category":"博物館","big_category":"ミュージアム","description":"","image_url":"","tags":"","prefecture":"和歌山","contractor":"","structural_designer":"","landscape_designer":"","shinkenchiku_url":""},{"id":2205,"title":"念誓寺本堂","architect":"相田武文","year":2001.0,"address":"和歌山県和歌山市東紺屋町57","latitude":34.22685623168945,"longitude":135.1809539794922,"category":"寺院","big_category":"宗教","description":"","image_url":"","tags":"","prefecture":"和歌山","contractor":"","structural_designer":"","landscape_designer":"","shinkenchiku_url":""},{"id":2206,"title":"和歌山県庁舎 南別館","architect":"高松伸+梓設計","year":2007.0,"address":"和歌山県和歌山市湊通丁北1-2-1","latitude":34.22438430786133,"longitude":135.16839599609375,"category":"庁舎","big_category":"公共施設","description":"","image_url":"","tags":"","prefecture":"和歌山","contractor":"","structural_designer":"","landscape_designer":"","shinkenchiku_url":""},{"id":2207,"title":"和歌山ビッグホエール","architect":"日建設計","year":1997.0,"address":"和歌山県和歌山市手平2-1-1","latitude":34.221248626708984,"longitude":135.19082641601562,"category":"体育館/スタジアム","big_category":"レジャー施設,レジャー施設","description":"","image_url":"","tags":"","prefecture":"和歌山","contractor":"","structural_designer":"","landscape_designer":"","shinkenchiku_url":""},{"id":2208,"title":"揖保川漁業協同組合鮎種苗センター","architect":"遠藤秀平","year":1996.0,"address":"兵庫県たつの市新宮町北村358","latitude":34.90186309814453,"longitude":134.5558319091797,"category":"組合施設","big_category":"公共施設","description":"","image_url":"","tags":"","prefecture":"兵庫","contractor":"","structural_designer":"","landscape_designer":"","shinkenchiku_url":""},{"id":2209,"title":"播磨高原東小・中学校","architect":"安藤忠雄","year":1997.0,"address":"兵庫県たつの市新宮町光都2-6-1","latitude":34.93861770629883,"longitude":134.44471740722656,"category":"学校","big_category":"教育","description":"","image_url":"","tags":"","prefecture":"兵庫","contractor":"","structural_designer":"","landscape_designer":"","shinkenchiku_url":""},{"id":2210,"title":"Springtecture播磨","architect":"遠藤秀平","year":1998.0,"address":"兵庫県たつの市新宮町光都2-5","latitude":34.9381217956543,"longitude":134.4458770751953,"category":"トイレ","big_category":"公共施設","description":"","image_url":"","tags":"","prefecture":"兵庫","contractor":"","structural_designer":"","landscape_designer":"","shinkenchiku_url":""},{"id":2211,"title":"KHギャラリー芦屋 旧小篠弘子邸","architect":"安藤忠雄","year":2001.0,"address":"兵庫県芦屋市奥池町17-5","latitude":34.77399826049805,"longitude":135.28509521484375,"category":"住宅","big_category":"住宅","description":"日曜日以外は予約制","image_url":"","tags":"","prefecture":"兵庫","contractor":"","structural_designer":"","landscape_designer":"","shinkenchiku_url":""},{"id":2212,"title":"滴翠美術館 旧山口吉郎兵衛邸","architect":"安井武雄","year":1932.0,"address":"兵庫県芦屋市山芦屋町13-3","latitude":34.739349365234375,"longitude":135.2965545654297,"category":"美術館/洋館","big_category":"ミュージアム,近代建築/遺産","description":"","image_url":"","tags":"","prefecture":"兵庫","contractor":"","structural_designer":"","landscape_designer":"","shinkenchiku_url":""},{"id":2213,"title":"メゾン アンリ・シャルパンティエ","architect":"ジャン=フィリップ・ニュエル","year":2005.0,"address":"兵庫県芦屋市楠町10-17","latitude":34.73472213745117,"longitude":135.31553649902344,"category":"店舗/カフェ","big_category":"商業施設,商業施設","description":"","image_url":"","tags":"","prefecture":"兵庫","contractor":"","structural_designer":"","landscape_designer":"","shinkenchiku_url":""},{"id":2214,"title":"Ashiya Grotto","architect":"芦澤竜一","year":2009.0,"address":"兵庫県芦屋市業平町6-11","latitude":34.73234939575195,"longitude":135.30557250976562,"category":"オフィスビル","big_category":"企業施設","description":"","image_url":"","tags":"","prefecture":"兵庫","contractor":"","structural_designer":"","landscape_designer":"","shinkenchiku_url":""},{"id":2215,"title":"芦屋市谷崎潤一郎記念館","architect":"富家宏泰","year":1988.0,"address":"兵庫県芦屋市伊勢町12-15","latitude":34.722232818603516,"longitude":135.31117248535156,"category":"博物館","big_category":"ミュージアム","description":"","image_url":"","tags":"","prefecture":"兵庫","contractor":"","structural_designer":"","landscape_designer":"","shinkenchiku_url":""},{"id":2216,"title":"マリナージュ芦屋","architect":"安藤忠雄","year":1998.0,"address":"兵庫県芦屋市陽光町7-1","latitude":34.71345138549805,"longitude":135.31419372558594,"category":"集合住宅","big_category":"住宅","description":"","image_url":"","tags":"","prefecture":"兵庫","contractor":"","structural_designer":"","landscape_designer":"","shinkenchiku_url":""},{"id":2217,"title":"子羊の群れキリスト教会 風の教会","architect":"日本設計","year":2008.0,"address":"兵庫県芦屋市陽光町3-25","latitude":34.71262741088867,"longitude":135.31333923339844,"category":"教会","big_category":"宗教","description":"","image_url":"","tags":"","prefecture":"兵庫","contractor":"","structural_designer":"","landscape_designer":"","shinkenchiku_url":""},{"id":2218,"title":"パレロワイヤル芦甲館","architect":"大江匡","year":1991.0,"address":"兵庫県芦屋市宮塚町5-7","latitude":34.73224639892578,"longitude":135.3092803955078,"category":"集合住宅","big_category":"住宅","description":"解体中？","image_url":"","tags":"","prefecture":"兵庫","contractor":"","structural_designer":"","landscape_designer":"","shinkenchiku_url":""},{"id":2219,"title":"芦屋市立美術博物館","architect":"坂倉建築研究所","year":1990.0,"address":"兵庫県芦屋市伊勢町12-25","latitude":34.721981048583984,"longitude":135.31101989746094,"category":"美術館","big_category":"ミュージアム","description":"","image_url":"","tags":"","prefecture":"兵庫","contractor":"","structural_designer":"","landscape_designer":"","shinkenchiku_url":""},{"id":2220,"title":"芦屋浜シーサイドタウン","architect":"ASTM企業連合+ミノル・ヤマサキ","year":1979.0,"address":"兵庫県芦屋市高浜町9-2","latitude":34.71977996826172,"longitude":135.31832885742188,"category":"集合住宅","big_category":"住宅","description":"","image_url":"","tags":"","prefecture":"兵庫","contractor":"","structural_designer":"","landscape_designer":"","shinkenchiku_url":""},{"id":2221,"title":"ヨドコウ迎賓館 旧山邑家住宅","architect":"フランク・ロイド・ライト","year":1924.0,"address":"兵庫県芦屋市山手町3-10","latitude":34.739830017089844,"longitude":135.29989624023438,"category":"住宅","big_category":"住宅","description":"リニューアル改修中だったが2019年2月16日より再オープン","image_url":"","tags":"DOCOMOMO","prefecture":"兵庫","contractor":"","structural_designer":"","landscape_designer":"","shinkenchiku_url":""},{"id":2222,"title":"芦屋市民センター 旧芦屋市民会館","architect":"坂倉準三+坂倉建築研究所","year":1964.0,"address":"兵庫県芦屋市業平町8-24","latitude":34.732200622558594,"longitude":135.30276489257812,"category":"総合文化施設/ホール・劇場/公民館・交流施設","big_category":"文化施設,文化施設,公共施設","description":"本館竣工1968年、ルナホール竣工は坂倉準三没後の1976年、2010年大規模改修","image_url":"","tags":"DOCOMOMO,1998年JIA25年賞","prefecture":"兵庫","contractor":"","structural_designer":"","landscape_designer":"","shinkenchiku_url":""},{"id":2223,"title":"大手前大学アートセンター","architect":"安藤忠雄","year":1992.0,"address":"兵庫県西宮市御茶家所町6-42","latitude":34.73781967163086,"longitude":135.3248291015625,"category":"大学","big_category":"教育","description":"大学内にあるギャラリー。旧大手前女子大学","image_url":"","tags":"","prefecture":"兵庫","contractor":"","structural_designer":"","landscape_designer":"","shinkenchiku_url":""},{"id":2224,"title":"すぐり保育園","architect":"石原健也","year":2004.0,"address":"兵庫県伊丹市東有岡1-18-20","latitude":34.77910232543945,"longitude":135.4224090576172,"category":"幼稚園","big_category":"教育","description":"","image_url":"","tags":"","prefecture":"兵庫","contractor":"","structural_designer":"","landscape_designer":"","shinkenchiku_url":""},{"id":2225,"title":"市立伊丹ミュージアム 伊丹市立工芸センター・伊丹市立美術館","architect":"坂倉建築研究所","year":1987.0,"address":"兵庫県伊丹市宮ノ前2-5-28","latitude":34.782142639160156,"longitude":135.41737365722656,"category":"美術館","big_category":"ミュージアム","description":"クレジット：伊丹市建設部建築課。伊丹市立美術館1987年竣工。伊丹市立工芸センター1989年竣工","image_url":"","tags":"","prefecture":"兵庫","contractor":"","structural_designer":"","landscape_designer":"","shinkenchiku_url":""},{"id":2226,"title":"伊丹市平和モニュメント 地下めいそう空間","architect":"栗生明","year":1991.0,"address":"兵庫県伊丹市荒牧6-4-12","latitude":34.810882568359375,"longitude":135.3867645263672,"category":"宗教施設","big_category":"宗教","description":"荒牧バラ公園内","image_url":"","tags":"","prefecture":"兵庫","contractor":"","structural_designer":"","landscape_designer":"","shinkenchiku_url":""},{"id":2227,"title":"いなみ文化の森","architect":"坂倉建築研究所","year":1992.0,"address":"兵庫県加古郡稲美町国安1286-1","latitude":34.749263763427734,"longitude":134.9198455810547,"category":"総合文化施設","big_category":"文化施設","description":"","image_url":"","tags":"","prefecture":"兵庫","contractor":"","structural_designer":"","landscape_designer":"","shinkenchiku_url":""},{"id":2228,"title":"滝野情報交流館","architect":"小野設計","year":2006.0,"address":"兵庫県加東市下滝野1369","latitude":34.93679428100586,"longitude":134.9445343017578,"category":"公民館・交流施設","big_category":"公共施設","description":"","image_url":"","tags":"","prefecture":"兵庫","contractor":"","structural_designer":"","landscape_designer":"","shinkenchiku_url":""},{"id":2229,"title":"兵庫県立木の殿堂","architect":"安藤忠雄","year":1994.0,"address":"兵庫県美方郡香美町村岡区和池951","latitude":35.42856979370117,"longitude":134.57972717285156,"category":"博物館","big_category":"ミュージアム","description":"","image_url":"","tags":"新建築1994年7月号","prefecture":"兵庫","contractor":"","structural_designer":"","landscape_designer":"","shinkenchiku_url":""},{"id":2230,"title":"Bubbletecture ひょうご ひょうご環境体験館 はりまエコハウス","architect":"遠藤秀平","year":2008.0,"address":"兵庫県佐用郡佐用町光都1-330-3","latitude":34.953582763671875,"longitude":134.42416381835938,"category":"博物館","big_category":"ミュージアム","description":"","image_url":"","tags":"","prefecture":"兵庫","contractor":"","structural_designer":"","landscape_designer":"","shinkenchiku_url":""},{"id":2231,"title":"三田市立ウッディタウン市民センター","architect":"昭和設計","year":2005.0,"address":"兵庫県三田市けやき台1-4-1","latitude":34.90628433227539,"longitude":135.18751525878906,"category":"公民館・交流施設","big_category":"公共施設","description":"","image_url":"","tags":"","prefecture":"兵庫","contractor":"","structural_designer":"","landscape_designer":"","shinkenchiku_url":""},{"id":2232,"title":"山西福祉記念会館 三田分館・悦 旧マイカル三田・ポロロッカ","architect":"エミリオ・アンバース","year":1993.0,"address":"兵庫県三田市あかしあ台2-19","latitude":34.90218734741211,"longitude":135.17962646484375,"category":"企業施設","big_category":"企業施設","description":"2013年に取壊済み","image_url":"","tags":"","prefecture":"兵庫","contractor":"","structural_designer":"","landscape_designer":"","shinkenchiku_url":""},{"id":2233,"title":"兵庫県立 人と自然の博物館","architect":"丹下健三","year":1992.0,"address":"兵庫県三田市弥生が丘6","latitude":34.886390686035156,"longitude":135.19894409179688,"category":"博物館","big_category":"ミュージアム","description":"","image_url":"","tags":"","prefecture":"兵庫","contractor":"","structural_designer":"","landscape_designer":"","shinkenchiku_url":""},{"id":2234,"title":"黒郷の方庫","architect":"東孝光","year":1998.0,"address":"兵庫県三田市末1922","latitude":34.93668746948242,"longitude":135.2216796875,"category":"図書館/住宅","big_category":"文化施設,住宅","description":"事前連絡で見学可能","image_url":"","tags":"","prefecture":"兵庫","contractor":"","structural_designer":"","landscape_designer":"","shinkenchiku_url":""},{"id":2235,"title":"Slowtecture 三木 ビーンズドーム","architect":"遠藤秀平","year":2007.0,"address":"兵庫県三木市志染町三津田1708","latitude":34.78236770629883,"longitude":135.04373168945312,"category":"スタジアム/体育館","big_category":"レジャー施設,レジャー施設","description":"","image_url":"","tags":"","prefecture":"兵庫","contractor":"","structural_designer":"","landscape_designer":"","shinkenchiku_url":""},{"id":2236,"title":"兵庫県立三木総合防災公園シェルター　グランドスラム","architect":"遠藤秀平 他","year":2007.0,"address":"兵庫県三木市志染町三津田1708","latitude":34.78181076049805,"longitude":135.04612731933594,"category":"オブジェ/公園","big_category":"ミュージアム,レジャー施設","description":"","image_url":"","tags":"","prefecture":"兵庫","contractor":"","structural_designer":"","landscape_designer":"","shinkenchiku_url":""},{"id":2237,"title":"市川町文化センター","architect":"昭和設計","year":2000.0,"address":"兵庫県神崎郡市川町西川辺715","latitude":34.983707427978516,"longitude":134.7689208984375,"category":"総合文化施設","big_category":"文化施設","description":"","image_url":"","tags":"","prefecture":"兵庫","contractor":"","structural_designer":"","landscape_designer":"","shinkenchiku_url":""},{"id":2238,"title":"千種町総合福祉施設エーガイヤちくさ","architect":"若林広幸","year":2003.0,"address":"兵庫県宍粟市千種町室1060-1","latitude":35.14543914794922,"longitude":134.44068908691406,"category":"温泉/福祉センター","big_category":"宿泊,医療施設","description":"","image_url":"","tags":"","prefecture":"兵庫","contractor":"","structural_designer":"","landscape_designer":"","shinkenchiku_url":""},{"id":2239,"title":"Rooftecture 与位 よい温泉","architect":"遠藤秀平","year":1999.0,"address":"兵庫県宍粟市山崎町与位66-3","latitude":35.0560302734375,"longitude":134.56668090820312,"category":"温泉","big_category":"宿泊","description":"","image_url":"","tags":"","prefecture":"兵庫","contractor":"","structural_designer":"","landscape_designer":"","shinkenchiku_url":""},{"id":2240,"title":"篠山歴史美術館 旧篠山地方裁判所","architect":"不明","year":null,"address":"兵庫県篠山市呉服町53","latitude":35.07721710205078,"longitude":135.21990966796875,"category":"洋館","big_category":"近代建築/遺産","description":"","image_url":"","tags":"","prefecture":"兵庫","contractor":"","structural_designer":"","landscape_designer":"","shinkenchiku_url":""},{"id":2241,"title":"住吉神社 住之江の庭","architect":"重森三玲","year":1966.0,"address":"兵庫県篠山市川原270","latitude":35.072113037109375,"longitude":135.35018920898438,"category":"庭園","big_category":"文化施設","description":"毎年7月の最終土曜・日曜日前に清掃","image_url":"","tags":"","prefecture":"兵庫","contractor":"","structural_designer":"","landscape_designer":"","shinkenchiku_url":""},{"id":2242,"title":"洲本市立洲本図書館","architect":"鬼頭梓+佐田祐一","year":1998.0,"address":"兵庫県洲本市塩屋1-1-8","latitude":34.346073150634766,"longitude":134.89456176757812,"category":"図書館","big_category":"文化施設","description":"","image_url":"","tags":"2001年日本建築学会 作品選奨","prefecture":"兵庫","contractor":"","structural_designer":"","landscape_designer":"","shinkenchiku_url":""},{"id":2243,"title":"すもとアルファビアミュージアム","architect":"武田光史","year":1995.0,"address":"兵庫県洲本市塩屋1-1-8","latitude":34.345611572265625,"longitude":134.89549255371094,"category":"美術館","big_category":"ミュージアム","description":"ミュージアムパーク アルファビアとしてオープンも閉館。淡路花博2015花みどりフェアの期間中のみオープン。","image_url":"","tags":"","prefecture":"兵庫","contractor":"","structural_designer":"","landscape_designer":"","shinkenchiku_url":""},{"id":2244,"title":"米田総合事務所","architect":"安藤忠雄","year":1978.0,"address":"兵庫県洲本市本町8-2-18","latitude":34.340431213378906,"longitude":134.8905029296875,"category":"低層オフィス","big_category":"企業施設","description":"","image_url":"","tags":"","prefecture":"兵庫","contractor":"","structural_designer":"","landscape_designer":"","shinkenchiku_url":""},{"id":2245,"title":"小野市うるおい交流館エクラ","architect":"佐藤総合計画","year":2005.0,"address":"兵庫県小野市中島町72","latitude":34.857086181640625,"longitude":134.938720703125,"category":"ホール・劇場","big_category":"文化施設","description":"","image_url":"","tags":"","prefecture":"兵庫","contractor":"","structural_designer":"","landscape_designer":"","shinkenchiku_url":""},{"id":2246,"title":"兵庫県立播磨ヘリポート","architect":"安藤忠雄","year":1988.0,"address":"兵庫県赤穂郡上郡町光都3-3-1","latitude":34.92759323120117,"longitude":134.44358825683594,"category":"公共施設","big_category":"公共施設","description":"2008年に閉鎖も施設は現存。ただし内部は閉鎖されている。ヘリポートはサッカー場になりました。","image_url":"","tags":"","prefecture":"兵庫","contractor":"","structural_designer":"","landscape_designer":"","shinkenchiku_url":""},{"id":2247,"title":"Rooftecture 原田","architect":"遠藤秀平","year":2004.0,"address":"兵庫県上郡町","latitude":34.87356185913086,"longitude":134.35609436035156,"category":"公民館・交流施設","big_category":"公共施設","description":"場所不明","image_url":"","tags":"","prefecture":"兵庫","contractor":"","structural_designer":"","landscape_designer":"","shinkenchiku_url":""},{"id":2248,"title":"オプトハイツ","architect":"磯崎新+設計組織ADH","year":1993.0,"address":"兵庫県赤穂郡上郡町光都2-20-3","latitude":34.9324951171875,"longitude":134.44471740722656,"category":"集合住宅","big_category":"住宅","description":"","image_url":"","tags":"新建築1994年3月号","prefecture":"兵庫","contractor":"","structural_designer":"","landscape_designer":"","shinkenchiku_url":""},{"id":2249,"title":"兵庫県立先端科学技術支援センター","architect":"磯崎新+設計組織ADH","year":1993.0,"address":"兵庫県赤穂郡上郡町光都3-1-1","latitude":34.93122100830078,"longitude":134.44412231445312,"category":"研究施設/その他宿泊施設/レストラン","big_category":"教育,宿泊,商業施設","description":"播磨科学公園都市内。宿泊も可能。レストラン有り。見学も申し出れば可能。","image_url":"","tags":"","prefecture":"兵庫","contractor":"","structural_designer":"","landscape_designer":"","shinkenchiku_url":""},{"id":2250,"title":"播磨科学公園都市","architect":"磯崎新","year":1993.0,"address":"兵庫県赤穂郡上郡町光都","latitude":34.93140411376953,"longitude":134.44508361816406,"category":"都市計画","big_category":"公共施設","description":"","image_url":"","tags":"","prefecture":"兵庫","contractor":"","structural_designer":"","landscape_designer":"","shinkenchiku_url":""}]}