{"page":277,"total_pages":290,"items_per_page":50,"total_items":14467,"items":[{"id":13801,"title":"茅ヶ崎市立病院","architect":"関・空間設計","year":2003.0,"address":"神奈川県茅ヶ崎市本村5-15-1","latitude":35.339839935302734,"longitude":139.41526794433594,"category":"病院","big_category":"医療施設","description":"","image_url":"","tags":"Ver5.50(2024年11月)の追加建築","prefecture":"神奈川","contractor":"","structural_designer":"","landscape_designer":"","shinkenchiku_url":""},{"id":13802,"title":"聖鳩幼稚園 / 茅ヶ崎シオンキリスト教会","architect":"手塚建築研究所","year":2013.0,"address":"神奈川県茅ヶ崎市東海岸北3-10-4","latitude":35.331241607666016,"longitude":139.414306640625,"category":"幼稚園/教会","big_category":"教育,宗教","description":"","image_url":"","tags":"Ver5.50(2024年11月)の追加建築","prefecture":"神奈川","contractor":"佐藤秀","structural_designer":"オーノJAPAN","landscape_designer":"","shinkenchiku_url":""},{"id":13803,"title":"喜久本プラザビル","architect":"山際認","year":1991.0,"address":"神奈川県茅ヶ崎市新栄町9-9","latitude":35.3311767578125,"longitude":139.40554809570312,"category":"テナントビル","big_category":"商業施設","description":"","image_url":"","tags":"Ver5.50(2024年11月)の追加建築","prefecture":"神奈川","contractor":"","structural_designer":"","landscape_designer":"","shinkenchiku_url":""},{"id":13804,"title":"茅ヶ崎公園体験学習センター うみかぜテラス","architect":"寺田大塚小林計画同人","year":2018.0,"address":"神奈川県茅ヶ崎市中海岸3-3-9","latitude":35.32123565673828,"longitude":139.40533447265625,"category":"公民館・交流施設/児童施設","big_category":"公共施設,教育","description":"","image_url":"","tags":"Ver5.50(2024年11月)の追加建築","prefecture":"神奈川","contractor":"","structural_designer":"","landscape_designer":"","shinkenchiku_url":""},{"id":13805,"title":"社会福祉法人輝雲会 手まり学園","architect":"オクムラデザイン","year":2009.0,"address":"神奈川県愛甲郡愛川町半原3715","latitude":35.539825439453125,"longitude":139.2649688720703,"category":"養護施設","big_category":"医療施設","description":"","image_url":"","tags":"Ver5.50(2024年11月)の追加建築","prefecture":"神奈川","contractor":"","structural_designer":"","landscape_designer":"","shinkenchiku_url":""},{"id":13806,"title":"小田急線秦野駅 駅舎・自由通路","architect":"中村弘道+パシフィックコンサルタンツ","year":1996.0,"address":"神奈川県秦野市大秦町1-1","latitude":35.370262145996094,"longitude":139.22581481933594,"category":"駅","big_category":"インフラ","description":"","image_url":"","tags":"Ver5.50(2024年11月)の追加建築","prefecture":"神奈川","contractor":"小田急建設・西松建設・東亜建設工業建設共同企業体","structural_designer":"梅沢建築構造研究所","landscape_designer":"","shinkenchiku_url":""},{"id":13807,"title":"コンドミニアム・ザ・森戸","architect":"押野見邦英+鹿島建設","year":2007.0,"address":"神奈川県三浦郡葉山町堀内1026-2","latitude":35.27191925048828,"longitude":139.57020568847656,"category":"集合住宅","big_category":"住宅","description":"","image_url":"","tags":"Ver5.50(2024年11月)の追加建築","prefecture":"神奈川","contractor":"","structural_designer":"","landscape_designer":"","shinkenchiku_url":""},{"id":13808,"title":"BELLY'S COURT AY","architect":"坂倉建築研究所","year":2009.0,"address":"神奈川県綾瀬市上土棚南1-9-21","latitude":35.41270446777344,"longitude":139.4447021484375,"category":"体育館/クラブハウス","big_category":"レジャー施設,レジャー施設","description":"いすゞ自動車の福利厚生施設","image_url":"","tags":"Ver5.50(2024年11月)の追加建築","prefecture":"神奈川","contractor":"","structural_designer":"","landscape_designer":"","shinkenchiku_url":""},{"id":13809,"title":"明治記念大磯邸園 旧滄浪閣 伊藤博文邸跡・旧李王家別邸","architect":"中村與資平","year":1926.0,"address":"神奈川県中郡大磯町西小磯295","latitude":35.306915283203125,"longitude":139.30422973632812,"category":"洋館","big_category":"近代建築/遺産","description":"2024年10月現在、改修工事中","image_url":"","tags":"Ver5.50(2024年11月)の追加建築","prefecture":"神奈川","contractor":"多田工務店","structural_designer":"","landscape_designer":"","shinkenchiku_url":""},{"id":13810,"title":"KN日本大通ビル 旧三井物産横浜支店ビル","architect":"遠藤於菟+酒井祐之助","year":1911.0,"address":"神奈川県横浜市中区日本大通14","latitude":35.44579315185547,"longitude":139.6422576904297,"category":"オフィスビル","big_category":"企業施設","description":"","image_url":"","tags":"Ver5.50(2024年11月)の追加建築","prefecture":"神奈川","contractor":"","structural_designer":"","landscape_designer":"","shinkenchiku_url":""},{"id":13811,"title":"KITANAKA BRICK South 旧横浜生糸検査所附属倉庫事務所","architect":"遠藤於菟","year":1926.0,"address":"神奈川県横浜市中区北仲通5-57-2","latitude":35.45058059692383,"longitude":139.63626098632812,"category":"オフィスビル","big_category":"企業施設","description":"","image_url":"","tags":"Ver5.50(2024年11月)の追加建築","prefecture":"神奈川","contractor":"","structural_designer":"","landscape_designer":"","shinkenchiku_url":""},{"id":13812,"title":"シャレール海岸通","architect":"遠藤剛生","year":2012.0,"address":"神奈川県横浜市中区海岸通5-25-2","latitude":35.451271057128906,"longitude":139.63807678222656,"category":"集合住宅","big_category":"住宅","description":"","image_url":"","tags":"Ver5.50(2024年11月)の追加建築","prefecture":"神奈川","contractor":"","structural_designer":"","landscape_designer":"","shinkenchiku_url":""},{"id":13813,"title":"NTT東日本長者町ビル 旧横浜中央電話局長者町分局","architect":"上浪朗","year":1926.0,"address":"神奈川県横浜市中区長者町5-60","latitude":35.44172668457031,"longitude":139.63230895996094,"category":"オフィスビル","big_category":"企業施設","description":"","image_url":"","tags":"Ver5.50(2024年11月)の追加建築","prefecture":"神奈川","contractor":"","structural_designer":"","landscape_designer":"","shinkenchiku_url":""},{"id":13814,"title":"インペリアルビル","architect":"川崎鉄三","year":1930.0,"address":"神奈川県横浜市中区山下町25-2","latitude":35.44575500488281,"longitude":139.6468048095703,"category":"複合ビル","big_category":"企業施設","description":"","image_url":"","tags":"Ver5.50(2024年11月)の追加建築","prefecture":"神奈川","contractor":"白井工務店","structural_designer":"","landscape_designer":"","shinkenchiku_url":""},{"id":13815,"title":"黄金町高架下新スタジオ Site-D","architect":"小泉雅生","year":2011.0,"address":"神奈川県横浜市中区黄金町1","latitude":35.44198989868164,"longitude":139.62574768066406,"category":"公民館・交流施設/ギャラリー","big_category":"公共施設,ミュージアム","description":"","image_url":"","tags":"Ver5.50(2024年11月)の追加建築","prefecture":"神奈川","contractor":"","structural_designer":"","landscape_designer":"","shinkenchiku_url":""},{"id":13816,"title":"オリエンタルアパートメント","architect":"三瓶満真","year":2013.0,"address":"神奈川県横浜市中区宮川町3-65","latitude":35.44719696044922,"longitude":139.62789916992188,"category":"集合住宅","big_category":"住宅","description":"","image_url":"","tags":"Ver5.50(2024年11月)の追加建築","prefecture":"神奈川","contractor":"","structural_designer":"","landscape_designer":"","shinkenchiku_url":""},{"id":13817,"title":"サンモール・インターナショナル・スクール ファインアートセンター","architect":"A&T建築研究所","year":1998.0,"address":"神奈川県横浜市中区山手町83","latitude":35.43550491333008,"longitude":139.6524200439453,"category":"学校","big_category":"教育","description":"","image_url":"","tags":"Ver5.50(2024年11月)の追加建築","prefecture":"神奈川","contractor":"","structural_designer":"","landscape_designer":"","shinkenchiku_url":""},{"id":13818,"title":"横浜開港広場","architect":"高橋志保彦","year":1982.0,"address":"神奈川県横浜市中区日本大通","latitude":35.44738006591797,"longitude":139.644287109375,"category":"広場","big_category":"文化施設","description":"","image_url":"","tags":"Ver5.50(2024年11月)の追加建築","prefecture":"神奈川","contractor":"","structural_designer":"","landscape_designer":"","shinkenchiku_url":""},{"id":13819,"title":"東京芸術大学 横浜キャンパス 旧富士銀行横浜支店","architect":"槇文彦+安田銀行営繕課","year":1929.0,"address":"神奈川県横浜市中区本町4-44","latitude":35.44936752319336,"longitude":139.6372833251953,"category":"大学/金融機関","big_category":"教育,企業施設","description":"2005年槇文彦+横浜市まちづくり調整局により改修。東京芸術大学 横浜キャンパス (馬車道校舎)として利用されている","image_url":"","tags":"新建築2005年10月号,Ver5.50(2024年11月)の追加建築","prefecture":"神奈川","contractor":"大成建設","structural_designer":"","landscape_designer":"","shinkenchiku_url":""},{"id":13820,"title":"日本基督教会 横浜海岸教会","architect":"宮内初太郎","year":1933.0,"address":"神奈川県横浜市中区日本大通8","latitude":35.446929931640625,"longitude":139.64385986328125,"category":"教会","big_category":"宗教","description":"","image_url":"","tags":"Ver5.50(2024年11月)の追加建築","prefecture":"神奈川","contractor":"","structural_designer":"","landscape_designer":"","shinkenchiku_url":""},{"id":13821,"title":"えの木てい本店 旧山手89-6番館","architect":"朝香吉蔵","year":1927.0,"address":"神奈川県横浜市中区山手町89-6","latitude":35.437564849853516,"longitude":139.65203857421875,"category":"レストラン/洋館","big_category":"商業施設,近代建築/遺産","description":"","image_url":"","tags":"Ver5.50(2024年11月)の追加建築","prefecture":"神奈川","contractor":"宮内建築事務所","structural_designer":"","landscape_designer":"","shinkenchiku_url":""},{"id":13822,"title":"山手133番館","architect":"不明+アントニン・レーモンド","year":1930.0,"address":"神奈川県横浜市中区山手町133","latitude":35.43535614013672,"longitude":139.6571807861328,"category":"店舗/洋館","big_category":"商業施設,近代建築/遺産","description":"2022年修復工事完了。原則非公開。設計にアントニン・レーモンドが関与か、という記述もあり設計欄に記述","image_url":"","tags":"Ver5.50(2024年11月)の追加建築","prefecture":"神奈川","contractor":"宮内建築事務所","structural_designer":"","landscape_designer":"","shinkenchiku_url":""},{"id":13823,"title":"横浜共立学園 本校舎","architect":"ウィリアム・メレル・ヴォーリズ","year":1931.0,"address":"神奈川県横浜市中区山手町212","latitude":35.43520736694336,"longitude":139.64068603515625,"category":"学校/洋館","big_category":"教育,近代建築/遺産","description":"","image_url":"","tags":"Ver5.50(2024年11月)の追加建築","prefecture":"神奈川","contractor":"宮内建築事務所","structural_designer":"","landscape_designer":"","shinkenchiku_url":""},{"id":13824,"title":"フェリス女学院中学校・高等学校 1号館","architect":"森山伊望","year":1929.0,"address":"神奈川県横浜市中区山手町178","latitude":35.43806076049805,"longitude":139.6475372314453,"category":"学校/洋館","big_category":"教育,近代建築/遺産","description":"","image_url":"","tags":"Ver5.50(2024年11月)の追加建築","prefecture":"神奈川","contractor":"宮内建築事務所","structural_designer":"","landscape_designer":"","shinkenchiku_url":""},{"id":13825,"title":"横浜メディアビジネスセンター","architect":"山下設計","year":2004.0,"address":"神奈川県横浜市中区太田町2-23-1","latitude":35.44723892211914,"longitude":139.63882446289062,"category":"オフィスビル","big_category":"企業施設","description":"","image_url":"","tags":"Ver5.50(2024年11月)の追加建築","prefecture":"神奈川","contractor":"","structural_designer":"","landscape_designer":"","shinkenchiku_url":""},{"id":13826,"title":"損保ジャパン日本興亜横浜馬車道ビル 旧川崎銀行横浜支店","architect":"矢部又吉+日建設計","year":1922.0,"address":"神奈川県横浜市中区弁天通5-70","latitude":35.44869613647461,"longitude":139.6361846923828,"category":"オフィスビル/洋館/複合ビル","big_category":"企業施設,近代建築/遺産,企業施設","description":"1989年にファサード部分を残し、日建設計により改築・増築された","image_url":"","tags":"Ver5.50(2024年11月)の追加建築","prefecture":"神奈川","contractor":"矢部工業所","structural_designer":"","landscape_designer":"","shinkenchiku_url":""},{"id":13827,"title":"ダイワロイネットホテル横浜公園 旧ストロングビル","architect":"矢部又吉+大和ハウス工業","year":2009.0,"address":"神奈川県横浜市中区山下町204","latitude":35.44343566894531,"longitude":139.64205932617188,"category":"ホテル/洋館","big_category":"宿泊,近代建築/遺産","description":"ストロングビルは2007年に解体、一部部材を再利用しファサード復元された建築が2009年竣工","image_url":"","tags":"Ver5.50(2024年11月)の追加建築","prefecture":"神奈川","contractor":"","structural_designer":"","landscape_designer":"","shinkenchiku_url":""},{"id":13828,"title":"近沢レース 商品センター","architect":"湯澤正信","year":1996.0,"address":"神奈川県横浜市中区石川町1-40-1","latitude":35.43733215332031,"longitude":139.64527893066406,"category":"低層オフィス","big_category":"企業施設","description":"","image_url":"","tags":"Ver5.50(2024年11月)の追加建築","prefecture":"神奈川","contractor":"","structural_designer":"","landscape_designer":"","shinkenchiku_url":""},{"id":13829,"title":"プロミネンス本牧","architect":"湯澤正信","year":1999.0,"address":"神奈川県横浜市中区本牧間門25-11","latitude":35.42069625854492,"longitude":139.65655517578125,"category":"集合住宅","big_category":"住宅","description":"","image_url":"","tags":"Ver5.50(2024年11月)の追加建築","prefecture":"神奈川","contractor":"","structural_designer":"","landscape_designer":"","shinkenchiku_url":""},{"id":13830,"title":"京急高架下文化芸術活動スタジオ 黄金スタジオ","architect":"曽我部昌史+マチデザイン","year":2008.0,"address":"神奈川県横浜市中区黄金町2-7","latitude":35.44096374511719,"longitude":139.6248779296875,"category":"ギャラリー","big_category":"ミュージアム","description":"","image_url":"","tags":"新建築2008年11月号,Ver5.50(2024年11月)の追加建築","prefecture":"神奈川","contractor":"","structural_designer":"","landscape_designer":"","shinkenchiku_url":""},{"id":13831,"title":"横浜能楽堂","architect":"大江新","year":1996.0,"address":"神奈川県横浜市西区紅葉ケ丘27-2","latitude":35.45253372192383,"longitude":139.62515258789062,"category":"ホール・劇場","big_category":"文化施設","description":"","image_url":"","tags":"Ver5.50(2024年11月)の追加建築","prefecture":"神奈川","contractor":"","structural_designer":"","landscape_designer":"","shinkenchiku_url":""},{"id":13832,"title":"ヨコハマグランドインターコンチネンタルホテル","architect":"日建設計","year":1991.0,"address":"神奈川県横浜市西区みなとみらい1-1-1","latitude":35.45758056640625,"longitude":139.63751220703125,"category":"ホテル","big_category":"宿泊","description":"","image_url":"","tags":"Ver5.50(2024年11月)の追加建築","prefecture":"神奈川","contractor":"戸田建設・飛島建設・鉄建建設・大日本土木・村本建設・松尾工務店・三木組・紅梅組・シャールJV","structural_designer":"","landscape_designer":"","shinkenchiku_url":""},{"id":13833,"title":"横浜国際平和会議場 パシフィコ横浜 展示ホール","architect":"日建設計","year":1991.0,"address":"神奈川県横浜市西区みなとみらい1-1-1","latitude":35.459877014160156,"longitude":139.63528442382812,"category":"展示・会議場","big_category":"公共施設","description":"","image_url":"","tags":"Ver5.50(2024年11月)の追加建築","prefecture":"神奈川","contractor":"熊谷・竹中・奥村・銭高・鴻池・山岸・工藤・イワキJV","structural_designer":"","landscape_designer":"","shinkenchiku_url":""},{"id":13834,"title":"戸塚カントリー倶楽部クラブハウス","architect":"安井建築設計","year":1997.0,"address":"神奈川県横浜市旭区大池町26","latitude":35.44329833984375,"longitude":139.53758239746094,"category":"クラブハウス","big_category":"レジャー施設","description":"","image_url":"","tags":"Ver5.50(2024年11月)の追加建築","prefecture":"神奈川","contractor":"大林組","structural_designer":"","landscape_designer":"","shinkenchiku_url":""},{"id":13835,"title":"横浜市市長公舎","architect":"坂本信太郎","year":1927.0,"address":"神奈川県横浜市西区老松町2","latitude":35.44657516479492,"longitude":139.6260223388672,"category":"住宅","big_category":"住宅","description":"","image_url":"","tags":"Ver5.50(2024年11月)の追加建築","prefecture":"神奈川","contractor":"中村建築研究所","structural_designer":"","landscape_designer":"","shinkenchiku_url":""},{"id":13836,"title":"横浜市中央図書館","architect":"前川建築設計事務所","year":1994.0,"address":"神奈川県横浜市西区老松町1","latitude":35.447383880615234,"longitude":139.62637329101562,"category":"図書館","big_category":"文化施設","description":"","image_url":"","tags":"Ver5.50(2024年11月)の追加建築","prefecture":"神奈川","contractor":"竹中工務店・東急建設・松村組・紅梅組・和同建設JV","structural_designer":"","landscape_designer":"","shinkenchiku_url":""},{"id":13837,"title":"横浜ベイコート倶楽部 ホテル&スパリゾート","architect":"宮下信顕","year":2020.0,"address":"神奈川県横浜市西区みなとみらい1-1-4","latitude":35.46235656738281,"longitude":139.63424682617188,"category":"ホテル","big_category":"宿泊","description":"","image_url":"","tags":"Ver5.50(2024年11月)の追加建築","prefecture":"神奈川","contractor":"","structural_designer":"","landscape_designer":"","shinkenchiku_url":""},{"id":13838,"title":"日産グローバル本社","architect":"竹中工務店+谷口吉生","year":2009.0,"address":"神奈川県横浜市西区高島1-1-1","latitude":35.463478088378906,"longitude":139.62619018554688,"category":"オフィスビル","big_category":"企業施設","description":"設計監督：谷口吉生","image_url":"","tags":"新建築2009年10月号,Ver5.50(2024年11月)の追加建築","prefecture":"神奈川","contractor":"","structural_designer":"","landscape_designer":"","shinkenchiku_url":""},{"id":13839,"title":"M.M.タワーズ・ザ・ウエスト","architect":"三菱地所","year":2003.0,"address":"神奈川県横浜市西区みなとみらい4-10-3","latitude":35.4609260559082,"longitude":139.63189697265625,"category":"集合住宅","big_category":"住宅","description":"","image_url":"","tags":"Ver5.50(2024年11月)の追加建築","prefecture":"神奈川","contractor":"大成建設","structural_designer":"","landscape_designer":"","shinkenchiku_url":""},{"id":13840,"title":"勧行寺 本堂","architect":"茂木計一郎","year":2010.0,"address":"神奈川県横浜市西区南軽井沢9","latitude":35.469905853271484,"longitude":139.61436462402344,"category":"寺院","big_category":"宗教","description":"","image_url":"","tags":"Ver5.50(2024年11月)の追加建築","prefecture":"神奈川","contractor":"","structural_designer":"","landscape_designer":"","shinkenchiku_url":""},{"id":13841,"title":"ぴあアリーナMM","architect":"佐藤工業+とお一級建築士事務所","year":2020.0,"address":"神奈川県横浜市西区みなとみらい3-2-2","latitude":35.45570755004883,"longitude":139.62838745117188,"category":"ホール・劇場","big_category":"文化施設","description":"","image_url":"","tags":"Ver5.50(2024年11月)の追加建築","prefecture":"神奈川","contractor":"佐藤工業","structural_designer":"","landscape_designer":"","shinkenchiku_url":""},{"id":13842,"title":"パシフィコ横浜 国立大ホール","architect":"日建設計","year":1991.0,"address":"神奈川県横浜市西区みなとみらい1-1-1","latitude":35.45863342285156,"longitude":139.63729858398438,"category":"ホール・劇場","big_category":"文化施設","description":"","image_url":"","tags":"新建築1991年9月号,Ver5.50(2024年11月)の追加建築","prefecture":"神奈川","contractor":"","structural_designer":"","landscape_designer":"","shinkenchiku_url":""},{"id":13843,"title":"クイーンズスクエア横浜","architect":"日建設計+三菱地所","year":1997.0,"address":"神奈川県横浜市西区みなとみらい2-3","latitude":35.45685577392578,"longitude":139.6344451904297,"category":"複合施設/オフィスビル/ホテル","big_category":"商業施設,企業施設,宿泊","description":"","image_url":"","tags":"Ver5.50(2024年11月)の追加建築","prefecture":"神奈川","contractor":"","structural_designer":"","landscape_designer":"","shinkenchiku_url":""},{"id":13844,"title":"横浜アリーナ","architect":"竹中工務店","year":1989.0,"address":"神奈川県横浜市港北区新横浜3-10","latitude":35.512264251708984,"longitude":139.62013244628906,"category":"ホール・劇場","big_category":"文化施設","description":"","image_url":"","tags":"Ver5.50(2024年11月)の追加建築","prefecture":"神奈川","contractor":"竹中工務店","structural_designer":"","landscape_designer":"","shinkenchiku_url":""},{"id":13845,"title":"横浜市立大学附属病院","architect":"伊藤喜三郎+松田平田設計","year":1991.0,"address":"神奈川県横浜市金沢区福浦3-9","latitude":35.344486236572266,"longitude":139.65061950683594,"category":"病院","big_category":"医療施設","description":"","image_url":"","tags":"Ver5.50(2024年11月)の追加建築","prefecture":"神奈川","contractor":"","structural_designer":"","landscape_designer":"","shinkenchiku_url":""},{"id":13846,"title":"横浜市金沢公会堂","architect":"国設計","year":2018.0,"address":"神奈川県横浜市金沢区泥亀2-9-1","latitude":35.33735656738281,"longitude":139.62466430664062,"category":"ホール・劇場","big_category":"文化施設","description":"","image_url":"","tags":"Ver5.50(2024年11月)の追加建築","prefecture":"神奈川","contractor":"","structural_designer":"","landscape_designer":"","shinkenchiku_url":""},{"id":13847,"title":"BELL CROSS 横濱権太坂レジデンス / マーケット","architect":"坂倉建築研究所","year":2021.0,"address":"神奈川県横浜市保土ケ谷区権太坂3-8-18","latitude":35.43573760986328,"longitude":139.5748748779297,"category":"集合住宅/店舗","big_category":"住宅,商業施設","description":"","image_url":"","tags":"Ver5.50(2024年11月)の追加建築","prefecture":"神奈川","contractor":"","structural_designer":"","landscape_designer":"","shinkenchiku_url":""},{"id":13848,"title":"認定こども園 立正幼稚園","architect":"白江龍三","year":2003.0,"address":"埼玉県熊谷市楊井1748-2","latitude":36.108760833740234,"longitude":139.36849975585938,"category":"幼稚園","big_category":"教育","description":"","image_url":"","tags":"Ver5.50(2024年11月)の追加建築","prefecture":"埼玉","contractor":"","structural_designer":"","landscape_designer":"","shinkenchiku_url":""},{"id":13849,"title":"帷子川プロムナード・川辺公園","architect":"高橋志保彦","year":1993.0,"address":"神奈川県横浜市保土ケ谷区川辺町4-4","latitude":35.458030700683594,"longitude":139.597412109375,"category":"公園/広場","big_category":"レジャー施設,文化施設","description":"","image_url":"","tags":"Ver5.50(2024年11月)の追加建築","prefecture":"神奈川","contractor":"","structural_designer":"","landscape_designer":"","shinkenchiku_url":""},{"id":13850,"title":"東洋製罐総合研究所","architect":"竹中工務店","year":2009.0,"address":"神奈川県横浜市保土ケ谷区岡沢町22-4","latitude":35.47139358520508,"longitude":139.60052490234375,"category":"研究施設","big_category":"教育","description":"","image_url":"","tags":"Ver5.50(2024年11月)の追加建築","prefecture":"神奈川","contractor":"竹中工務店","structural_designer":"","landscape_designer":"","shinkenchiku_url":""}]}