{"page":176,"total_pages":290,"items_per_page":50,"total_items":14467,"items":[{"id":8751,"title":"倉敷商工会館","architect":"浦辺鎮太郎","year":1971.0,"address":"岡山県倉敷市白楽町249-5","latitude":34.5881462097168,"longitude":133.76454162597656,"category":"組合施設","big_category":"公共施設","description":"","image_url":"","tags":"Ver3.10(2019年10月)の追加建築","prefecture":"岡山","contractor":"","structural_designer":"","landscape_designer":"","shinkenchiku_url":""},{"id":8752,"title":"倉敷中央病院","architect":"浦辺鎮太郎","year":1975.0,"address":"岡山県倉敷市美和1-1-1","latitude":34.60199737548828,"longitude":133.7750701904297,"category":"病院","big_category":"医療施設","description":"中央病棟・手術棟の竣工が1975年。中央診療棟1980年。外来棟1981年。","image_url":"","tags":"Ver3.10(2019年10月)の追加建築","prefecture":"岡山","contractor":"","structural_designer":"","landscape_designer":"","shinkenchiku_url":""},{"id":8753,"title":"三州足助屋敷","architect":"浦辺鎮太郎","year":1980.0,"address":"愛知県豊田市足助町飯盛36","latitude":35.129695892333984,"longitude":137.31394958496094,"category":"博物館/古民家/体験施設","big_category":"ミュージアム,近代建築/遺産,レジャー施設","description":"","image_url":"","tags":"Ver3.10(2019年10月)の追加建築","prefecture":"愛知","contractor":"","structural_designer":"","landscape_designer":"","shinkenchiku_url":""},{"id":8754,"title":"六高記念館","architect":"浦辺鎮太郎","year":1980.0,"address":"岡山県岡山市中区古京町2-2-21","latitude":34.66099166870117,"longitude":133.94558715820312,"category":"博物館","big_category":"ミュージアム","description":"","image_url":"","tags":"Ver3.10(2019年10月)の追加建築","prefecture":"岡山","contractor":"","structural_designer":"","landscape_designer":"","shinkenchiku_url":""},{"id":8755,"title":"日本女子大学 成瀬記念館","architect":"浦辺鎮太郎","year":1984.0,"address":"東京都文京区目白台2-8-1","latitude":35.71636199951172,"longitude":139.71987915039062,"category":"博物館/大学","big_category":"ミュージアム,教育","description":"","image_url":"","tags":"Ver3.10(2019年10月)の追加建築","prefecture":"東京","contractor":"","structural_designer":"","landscape_designer":"","shinkenchiku_url":""},{"id":8756,"title":"日本女子大学 成瀬記念講堂 旧豊明図書館兼講堂","architect":"清水建設","year":1906.0,"address":"東京都文京区目白台2-8-1","latitude":35.71613693237305,"longitude":139.72079467773438,"category":"ホール・劇場/大学","big_category":"文化施設,教育","description":"清水組時代の田辺淳吉設計。1924年煉瓦造りから木造に改修。1961年、2017年にもそれぞれ補修・耐震改修","image_url":"","tags":"Ver3.10(2019年10月)の追加建築","prefecture":"東京","contractor":"","structural_designer":"","landscape_designer":"","shinkenchiku_url":""},{"id":8757,"title":"横浜開港資料館 新館","architect":"浦辺鎮太郎","year":1981.0,"address":"神奈川県横浜市中区日本大通3","latitude":35.447669982910156,"longitude":139.64393615722656,"category":"博物館","big_category":"ミュージアム","description":"","image_url":"","tags":"Ver3.10(2019年10月)の追加建築","prefecture":"神奈川","contractor":"","structural_designer":"","landscape_designer":"","shinkenchiku_url":""},{"id":8758,"title":"神奈川近代文学館","architect":"浦辺鎮太郎","year":1984.0,"address":"神奈川県横浜市中区山手町110","latitude":35.43864440917969,"longitude":139.65609741210938,"category":"博物館","big_category":"ミュージアム","description":"","image_url":"","tags":"Ver3.10(2019年10月)の追加建築","prefecture":"神奈川","contractor":"","structural_designer":"","landscape_designer":"","shinkenchiku_url":""},{"id":8759,"title":"霧笛橋","architect":"浦辺鎮太郎","year":1986.0,"address":"神奈川県横浜市中区山手町114","latitude":35.43925094604492,"longitude":139.65597534179688,"category":"橋","big_category":"インフラ","description":"","image_url":"","tags":"Ver3.10(2019年10月)の追加建築","prefecture":"神奈川","contractor":"","structural_designer":"","landscape_designer":"","shinkenchiku_url":""},{"id":8760,"title":"日本基督教団 西条栄光教会","architect":"浦辺鎮太郎","year":1951.0,"address":"愛媛県西条市明屋敷236-17","latitude":33.92115783691406,"longitude":133.1790313720703,"category":"教会/幼稚園","big_category":"宗教,教育","description":"","image_url":"","tags":"Ver3.10(2019年10月)の追加建築","prefecture":"愛媛","contractor":"","structural_designer":"","landscape_designer":"","shinkenchiku_url":""},{"id":8761,"title":"愛媛民芸館 旧西条市立郷土博物館東予民芸館 ","architect":"浦辺鎮太郎","year":1967.0,"address":"愛媛県西条市明屋敷238-8","latitude":33.91971969604492,"longitude":133.17958068847656,"category":"博物館","big_category":"ミュージアム","description":"","image_url":"","tags":"Ver3.10(2019年10月)の追加建築","prefecture":"愛媛","contractor":"","structural_designer":"","landscape_designer":"","shinkenchiku_url":""},{"id":8762,"title":"クラレくらしき研究センター 旧倉敷レイヨン中央研究所","architect":"浦辺鎮太郎","year":1968.0,"address":"岡山県倉敷市酒津2045","latitude":34.62002944946289,"longitude":133.75436401367188,"category":"研究施設","big_category":"教育","description":"","image_url":"","tags":"Ver3.10(2019年10月)の追加建築","prefecture":"岡山","contractor":"","structural_designer":"","landscape_designer":"","shinkenchiku_url":""},{"id":8763,"title":"Apple 丸の内","architect":"ノーマン・フォスター","year":2019.0,"address":"東京都千代田区丸の内2-5-2 三菱ビル","latitude":35.68026351928711,"longitude":139.7638702392578,"category":"店舗","big_category":"商業施設","description":"内装設計","image_url":"","tags":"Ver3.10(2019年10月)の追加建築","prefecture":"東京","contractor":"","structural_designer":"","landscape_designer":"","shinkenchiku_url":""},{"id":8764,"title":"白雉子ビル","architect":"村野・森建築事務所","year":1995.0,"address":"東京都品川区東五反田1-2-33","latitude":35.62885665893555,"longitude":139.72677612304688,"category":"オフィスビル/寺院","big_category":"企業施設,宗教","description":"","image_url":"","tags":"Ver3.10(2019年10月)の追加建築","prefecture":"東京","contractor":"","structural_designer":"","landscape_designer":"","shinkenchiku_url":""},{"id":8765,"title":"えんのき保育園","architect":"佐野剛史","year":2018.0,"address":"静岡県浜松市南区参野町 えんのき保育園","latitude":34.69383239746094,"longitude":137.7554473876953,"category":"幼稚園","big_category":"教育","description":"","image_url":"","tags":"Ver3.10(2019年10月)の追加建築","prefecture":"静岡","contractor":"","structural_designer":"","landscape_designer":"","shinkenchiku_url":""},{"id":8766,"title":"浅田の家 SN Design Architects事務所","architect":"佐野剛史","year":2009.0,"address":"静岡県浜松市中区中区南浅田2-8-6","latitude":34.688079833984375,"longitude":137.72988891601562,"category":"住宅/低層オフィス","big_category":"住宅,企業施設","description":"","image_url":"","tags":"Ver3.10(2019年10月)の追加建築","prefecture":"静岡","contractor":"","structural_designer":"","landscape_designer":"","shinkenchiku_url":""},{"id":8767,"title":"静岡理工科大学 学生ホール","architect":"403architecture [dajiba]","year":2019.0,"address":"静岡県袋井市豊沢2200-2","latitude":34.73826217651367,"longitude":137.96051025390625,"category":"大学","big_category":"教育","description":"","image_url":"","tags":"Ver3.10(2019年10月)の追加建築","prefecture":"静岡","contractor":"","structural_designer":"","landscape_designer":"","shinkenchiku_url":""},{"id":8768,"title":"長楽館","architect":"ジェームズ・ガーディナー","year":1909.0,"address":"京都府京都市東山区八坂鳥居前東入円山町604","latitude":35.00309371948242,"longitude":135.78004455566406,"category":"ホテル/レストラン/洋館","big_category":"宿泊,商業施設,近代建築/遺産","description":"","image_url":"","tags":"Ver3.10(2019年10月)の追加建築","prefecture":"京都","contractor":"","structural_designer":"","landscape_designer":"","shinkenchiku_url":""},{"id":8769,"title":"有田市立そとはま保育所","architect":"山下和希","year":2013.0,"address":"和歌山県有田市港町280-32","latitude":34.09139633178711,"longitude":135.1067657470703,"category":"幼稚園","big_category":"教育","description":"","image_url":"","tags":"Ver3.10(2019年10月)の追加建築","prefecture":"和歌山","contractor":"","structural_designer":"","landscape_designer":"","shinkenchiku_url":""},{"id":8770,"title":"ほたるいか展望台","architect":"トム・ヘネガン","year":1992.0,"address":"富山県滑川市中川原410","latitude":36.77377700805664,"longitude":137.34396362304688,"category":"橋","big_category":"インフラ","description":"","image_url":"","tags":"Ver3.10(2019年10月)の追加建築","prefecture":"富山","contractor":"","structural_designer":"","landscape_designer":"","shinkenchiku_url":""},{"id":8771,"title":"キッチネッテ","architect":"谷尻誠","year":2015.0,"address":"広島県広島市中区大手町2-6-25 フタバ大手町ビル1F","latitude":34.39247512817383,"longitude":132.45545959472656,"category":"カフェ","big_category":"商業施設","description":"","image_url":"","tags":"Ver3.10(2019年10月)の追加建築","prefecture":"広島","contractor":"","structural_designer":"","landscape_designer":"","shinkenchiku_url":""},{"id":8772,"title":"葵ホテル 京都","architect":"谷尻誠","year":2018.0,"address":"京都府京都市下京区天王町600-8013","latitude":35.00162887573242,"longitude":135.76980590820312,"category":"ホテル","big_category":"宿泊","description":"","image_url":"","tags":"Ver3.10(2019年10月)の追加建築","prefecture":"京都","contractor":"","structural_designer":"","landscape_designer":"","shinkenchiku_url":""},{"id":8773,"title":"岡山県立図書館","architect":"安井建築設計+山陽設計","year":2004.0,"address":"岡山県岡山市北区丸の内2-6-30","latitude":34.662601470947266,"longitude":133.9346923828125,"category":"図書館","big_category":"文化施設","description":"","image_url":"","tags":"Ver3.10(2019年10月)の追加建築","prefecture":"岡山","contractor":"","structural_designer":"","landscape_designer":"","shinkenchiku_url":""},{"id":8774,"title":"雷門旅館","architect":"竹山聖","year":2019.0,"address":"東京都台東区浅草1-18-2","latitude":35.71131134033203,"longitude":139.796142578125,"category":"ホテル","big_category":"宿泊","description":"","image_url":"","tags":"Ver3.10(2019年10月)の追加建築","prefecture":"東京","contractor":"","structural_designer":"","landscape_designer":"","shinkenchiku_url":""},{"id":8775,"title":"秋田県立児童会館・こども博物館","architect":"仙田満","year":1980.0,"address":"秋田県秋田市山王中島町1-2","latitude":39.717796325683594,"longitude":140.09259033203125,"category":"児童施設/博物館","big_category":"教育,ミュージアム","description":"","image_url":"","tags":"Ver3.10(2019年10月)の追加建築","prefecture":"秋田","contractor":"","structural_designer":"","landscape_designer":"","shinkenchiku_url":""},{"id":8776,"title":"浪速スポーツセンター","architect":"仙田満","year":2005.0,"address":"大阪府大阪市浪速区難波中3-8-8","latitude":34.6612663269043,"longitude":135.49942016601562,"category":"プール/スポーツ施設","big_category":"レジャー施設,レジャー施設","description":"","image_url":"","tags":"Ver3.10(2019年10月)の追加建築","prefecture":"大阪","contractor":"","structural_designer":"","landscape_designer":"","shinkenchiku_url":""},{"id":8777,"title":"ココテラス湘南","architect":"仙田満","year":2013.0,"address":"神奈川県藤沢市辻堂神台2-2-2","latitude":35.34056854248047,"longitude":139.44769287109375,"category":"児童施設/オフィスビル","big_category":"教育,企業施設","description":"","image_url":"","tags":"Ver3.10(2019年10月)の追加建築","prefecture":"神奈川","contractor":"","structural_designer":"","landscape_designer":"","shinkenchiku_url":""},{"id":8778,"title":"川崎市立向丘小学校","architect":"仙田満","year":1997.0,"address":"神奈川県川崎市宮前区平1-6-1","latitude":35.60027313232422,"longitude":139.57626342773438,"category":"学校","big_category":"教育","description":"","image_url":"","tags":"Ver3.10(2019年10月)の追加建築","prefecture":"神奈川","contractor":"","structural_designer":"","landscape_designer":"","shinkenchiku_url":""},{"id":8779,"title":"国際教養大学 Suda Hall","architect":"仙田満","year":2010.0,"address":"秋田県秋田市雄和椿川奥椿岱193-2","latitude":39.625816345214844,"longitude":140.19631958007812,"category":"大学/ホール・劇場","big_category":"教育,文化施設","description":"","image_url":"","tags":"Ver3.10(2019年10月)の追加建築","prefecture":"秋田","contractor":"","structural_designer":"","landscape_designer":"","shinkenchiku_url":""},{"id":8780,"title":"尼崎スポーツの森","architect":"仙田満","year":2006.0,"address":"兵庫県尼崎市扇町43","latitude":34.69840621948242,"longitude":135.38198852539062,"category":"スポーツ施設/プール","big_category":"レジャー施設,レジャー施設","description":"","image_url":"","tags":"Ver3.10(2019年10月)の追加建築","prefecture":"兵庫","contractor":"","structural_designer":"","landscape_designer":"","shinkenchiku_url":""},{"id":8781,"title":"秋田県営御野場第2住宅","architect":"仙田満","year":1981.0,"address":"秋田県秋田市御野場7-1","latitude":39.669677734375,"longitude":140.12889099121094,"category":"集合住宅","big_category":"住宅","description":"","image_url":"","tags":"Ver3.10(2019年10月)の追加建築","prefecture":"秋田","contractor":"","structural_designer":"","landscape_designer":"","shinkenchiku_url":""},{"id":8782,"title":"名古屋センタービル","architect":"竹中工務店","year":1962.0,"address":"愛知県名古屋市中区錦2-2-13","latitude":35.17254638671875,"longitude":136.8991241455078,"category":"オフィスビル","big_category":"企業施設","description":"2012年にリニューアル工事","image_url":"","tags":"Ver3.10(2019年10月)の追加建築,第05回BCS賞 (1964)","prefecture":"愛知","contractor":"竹中工務店","structural_designer":"","landscape_designer":"","shinkenchiku_url":""},{"id":8783,"title":"中電ビル","architect":"日建設計","year":1963.0,"address":"愛知県名古屋市東区東新町1","latitude":35.16998291015625,"longitude":136.91372680664062,"category":"オフィスビル","big_category":"企業施設","description":"","image_url":"","tags":"Ver3.10(2019年10月)の追加建築,第05回BCS賞 (1964)","prefecture":"愛知","contractor":"鹿島建設","structural_designer":"","landscape_designer":"","shinkenchiku_url":""},{"id":8784,"title":"北海道ビルヂング","architect":"三菱地所","year":1962.0,"address":"北海道札幌市中央区北2条西4-1","latitude":43.06341552734375,"longitude":141.35084533691406,"category":"オフィスビル","big_category":"企業施設","description":"","image_url":"","tags":"Ver3.10(2019年10月)の追加建築,第05回BCS賞 (1964)","prefecture":"北海道","contractor":"竹中工務店","structural_designer":"","landscape_designer":"","shinkenchiku_url":""},{"id":8785,"title":"明治神宮ミュージアム","architect":"隈研吾","year":2019.0,"address":"東京都渋谷区代々木神園町1-1","latitude":35.67161560058594,"longitude":139.70205688476562,"category":"博物館","big_category":"ミュージアム","description":"2019年10月26日オープン予定","image_url":"","tags":"Ver3.10(2019年10月)の追加建築","prefecture":"東京","contractor":"","structural_designer":"","landscape_designer":"","shinkenchiku_url":""},{"id":8786,"title":"渋谷スクランブルスクエア","architect":"日建設計+東急設計コンサルタント+隈研吾+SANAA 他","year":2019.0,"address":"東京都渋谷区渋谷2-24-12","latitude":35.6583366394043,"longitude":139.70225524902344,"category":"複合ビル","big_category":"企業施設","description":"2019年11月1日オープン。設計クレジットは日建設計・東急設計コンサルタント・JR東日本建築設計・メトロ開発（渋谷駅周辺整備計画共同企業体）。デザインアーキテクトに隈研吾、SANAA","image_url":"","tags":"Ver3.10(2019年10月)の追加建築,新建築2019年12月号","prefecture":"東京","contractor":"東急建設・大成建設","structural_designer":"","landscape_designer":"","shinkenchiku_url":""},{"id":8787,"title":"渋谷フクラス","architect":"清水建設+手塚建築研究所+日建設計","year":2019.0,"address":"東京都渋谷区道玄坂1-2-3","latitude":35.65766906738281,"longitude":139.70025634765625,"category":"テナントビル/オフィスビル","big_category":"商業施設,企業施設","description":"2019年12月5日オープン予定。デザインアーキテクトとして手塚建築研究所。マスターアーキテクトとして日建設計が参画","image_url":"","tags":"Ver3.10(2019年10月)の追加建築,新建築2020年1月号","prefecture":"東京","contractor":"清水建設","structural_designer":"","landscape_designer":"","shinkenchiku_url":""},{"id":8788,"title":"垂水市役所庁舎","architect":"衞藤右三郎","year":1956.0,"address":"鹿児島県垂水市上町114","latitude":31.492807388305664,"longitude":130.7008819580078,"category":"庁舎","big_category":"公共施設","description":"","image_url":"","tags":"Ver3.10(2019年10月)の追加建築,DOCOMOMO","prefecture":"鹿児島","contractor":"大迫土建工業","structural_designer":"","landscape_designer":"","shinkenchiku_url":""},{"id":8789,"title":"京都大学大学院理学研究科附属 地球熱学研究施設 火山研究センター","architect":"永瀬狂三","year":1928.0,"address":"熊本県阿蘇郡南阿蘇村大字河陽5280","latitude":32.88553237915039,"longitude":131.0065155029297,"category":"研究施設/大学","big_category":"教育,教育","description":"","image_url":"","tags":"Ver3.10(2019年10月)の追加建築,DOCOMOMO","prefecture":"熊本","contractor":"","structural_designer":"","landscape_designer":"","shinkenchiku_url":""},{"id":8790,"title":"不二家 横浜センター店 旧不二家洋菓子舗","architect":"アントニン・レーモンド","year":1937.0,"address":"神奈川県横浜市中区伊勢佐木町1-6-2","latitude":35.44425582885742,"longitude":139.6327667236328,"category":"店舗","big_category":"商業施設","description":"設計クレジット：アントニン・レーモンド、杉山雅則、中川軌太郎。中川軌太郎はレーモンド事務所社長。杉山雅則は調査したがよくわからず。レーモンド事務所以外の独立した建築家であることが判明した場合、別途記載予定","image_url":"","tags":"Ver3.10(2019年10月)の追加建築,DOCOMOMO","prefecture":"神奈川","contractor":"","structural_designer":"","landscape_designer":"","shinkenchiku_url":""},{"id":8791,"title":"白樺湖 夏の家 旧工学院大学白樺湖学寮","architect":"武藤章","year":1968.0,"address":"長野県茅野市北山白樺湖3419−2","latitude":36.101898193359375,"longitude":138.23989868164062,"category":"住宅","big_category":"住宅","description":"現在「建築を保存する会」によって維持管理されている。会員、ないしは会員を同伴した場合に利用可能。2017年リニューアル。","image_url":"","tags":"Ver3.10(2019年10月)の追加建築,2018年JIA25年賞 受賞作品","prefecture":"長野","contractor":"","structural_designer":"","landscape_designer":"","shinkenchiku_url":""},{"id":8792,"title":"関西大学 岩崎記念館","architect":"村野藤吾","year":1974.0,"address":"大阪府吹田市千里山東3-10","latitude":34.775543212890625,"longitude":135.50950622558594,"category":"大学","big_category":"教育","description":"","image_url":"","tags":"Ver3.10(2019年10月)の追加建築,DOCOMOMO","prefecture":"大阪","contractor":"","structural_designer":"","landscape_designer":"","shinkenchiku_url":""},{"id":8793,"title":"関西大学 法・文学部研究室1号棟","architect":"村野藤吾","year":1959.0,"address":"大阪府吹田市千里山東3-10","latitude":34.776004791259766,"longitude":135.50958251953125,"category":"大学","big_category":"教育","description":"","image_url":"","tags":"Ver3.10(2019年10月)の追加建築,DOCOMOMO","prefecture":"大阪","contractor":"","structural_designer":"","landscape_designer":"","shinkenchiku_url":""},{"id":8794,"title":"関西大学 法・文学部研究室2号棟","architect":"村野藤吾","year":1967.0,"address":"大阪府吹田市千里山東3-10","latitude":34.77640151977539,"longitude":135.50942993164062,"category":"大学","big_category":"教育","description":"","image_url":"","tags":"Ver3.10(2019年10月)の追加建築,DOCOMOMO","prefecture":"大阪","contractor":"","structural_designer":"","landscape_designer":"","shinkenchiku_url":""},{"id":8795,"title":"関西大学 第1学舎3号館","architect":"村野藤吾","year":1967.0,"address":"大阪府吹田市千里山東3-10","latitude":34.77634048461914,"longitude":135.5098876953125,"category":"大学","big_category":"教育","description":"","image_url":"","tags":"Ver3.10(2019年10月)の追加建築,DOCOMOMO","prefecture":"大阪","contractor":"","structural_designer":"","landscape_designer":"","shinkenchiku_url":""},{"id":8796,"title":"関西大学 経済学部・商学部研究棟","architect":"村野藤吾","year":1966.0,"address":"大阪府吹田市千里山東3-10-1","latitude":34.772499084472656,"longitude":135.51011657714844,"category":"大学","big_category":"教育","description":"","image_url":"","tags":"Ver3.10(2019年10月)の追加建築,DOCOMOMO","prefecture":"大阪","contractor":"","structural_designer":"","landscape_designer":"","shinkenchiku_url":""},{"id":8797,"title":"関西大学 第2学舎3号館","architect":"村野藤吾","year":1967.0,"address":"大阪府吹田市千里山東3-10-1","latitude":34.77254867553711,"longitude":135.51089477539062,"category":"大学","big_category":"教育","description":"","image_url":"","tags":"Ver3.10(2019年10月)の追加建築,DOCOMOMO","prefecture":"大阪","contractor":"","structural_designer":"","landscape_designer":"","shinkenchiku_url":""},{"id":8798,"title":"関西大学 第3学舎1号館","architect":"村野藤吾","year":1968.0,"address":"大阪府吹田市千里山東1-1","latitude":34.77256774902344,"longitude":135.50881958007812,"category":"大学","big_category":"教育","description":"","image_url":"","tags":"Ver3.10(2019年10月)の追加建築,DOCOMOMO","prefecture":"大阪","contractor":"","structural_designer":"","landscape_designer":"","shinkenchiku_url":""},{"id":8799,"title":"関西大学 関西大学会館","architect":"村野藤吾+小河吉之助","year":1965.0,"address":"大阪府吹田市山手町3-3","latitude":34.77142333984375,"longitude":135.50820922851562,"category":"大学","big_category":"教育","description":"","image_url":"","tags":"Ver3.10(2019年10月)の追加建築,DOCOMOMO","prefecture":"大阪","contractor":"","structural_designer":"","landscape_designer":"","shinkenchiku_url":""},{"id":8800,"title":"関西大学 第4学舎1号館","architect":"村野藤吾","year":1960.0,"address":"大阪府吹田市千里山東3-3-35","latitude":34.77376174926758,"longitude":135.51168823242188,"category":"大学","big_category":"教育","description":"","image_url":"","tags":"Ver3.10(2019年10月)の追加建築,DOCOMOMO","prefecture":"大阪","contractor":"","structural_designer":"","landscape_designer":"","shinkenchiku_url":""}]}