{"page":168,"total_pages":290,"items_per_page":50,"total_items":14467,"items":[{"id":8351,"title":"琵琶湖ホテル","architect":"竹中工務店+シーザー・ペリ","year":1998.0,"address":"滋賀県大津市浜町2-40","latitude":35.010337829589844,"longitude":135.8682098388672,"category":"ホテル","description":"","image_url":""},{"id":8352,"title":"滋賀県立芸術劇場びわ湖ホール","architect":"佐藤総合計画","year":1998.0,"address":"滋賀県大津市打出浜15-1","latitude":35.006919860839844,"longitude":135.8771514892578,"category":"ホール・劇場","description":"","image_url":""},{"id":8353,"title":"大阪芸術大学 9号館","architect":"高橋靗一","year":1986.0,"address":"大阪府南河内郡河南町東山469","latitude":34.51006317138672,"longitude":135.63160705566406,"category":"大学","description":"","image_url":""},{"id":8354,"title":"エンソウ アンゴ 麩屋町通 I","architect":"内田繁","year":2018.0,"address":"京都府京都市下京区俵屋町298","latitude":35.00185012817383,"longitude":135.76564025878906,"category":"ホテル","description":"安藤雅信とコラボレーション","image_url":""},{"id":8355,"title":"エンソウ アンゴ 麩屋町通 II","architect":"内田繁","year":2018.0,"address":"京都府京都市下京区麸屋町通高辻上る鍋屋町241-1","latitude":35.00040054321289,"longitude":135.76544189453125,"category":"ホテル","description":"","image_url":""},{"id":8356,"title":"エンソウ アンゴ 富⼩路通 I","architect":"内田繁","year":2018.0,"address":"京都府京都市下京区富小路通高辻上る筋屋町152","latitude":35.00035858154297,"longitude":135.76467895507812,"category":"ホテル","description":"日比野克彦とコラボレーション","image_url":""},{"id":8357,"title":"エンソウ アンゴ 富⼩路通 II","architect":"内田繁","year":2018.0,"address":"京都府京都市下京区富小路通高辻下る恵美須屋町187","latitude":34.9996223449707,"longitude":135.76466369628906,"category":"ホテル","description":"アトリエ・オイとコラボレーション","image_url":""},{"id":8358,"title":"エンソウ アンゴ ⼤和⼤路通 I","architect":"内田繁","year":2018.0,"address":"京都府京都市東山区大和大路通四条下る大和町18","latitude":35.00299835205078,"longitude":135.77284240722656,"category":"ホテル","description":"寺田尚樹とコラボレーション","image_url":""},{"id":8359,"title":"IPU環太平洋大学 DISCOVERY","architect":"安藤忠雄","year":2019.0,"address":"岡山県岡山市東区瀬戸町観音寺721","latitude":34.72761154174805,"longitude":134.01316833496094,"category":"大学","description":"","image_url":""},{"id":8360,"title":"IPU環太平洋大学 HERMONY","architect":"安藤忠雄","year":2016.0,"address":"岡山県岡山市東区瀬戸町観音寺721","latitude":34.72847366333008,"longitude":134.01234436035156,"category":"大学/カフェ","description":"","image_url":""},{"id":8361,"title":"IPU環太平洋大学 INSPIRE","architect":"安藤忠雄","year":2019.0,"address":"岡山県岡山市東区瀬戸町観音寺721","latitude":34.72608947753906,"longitude":134.01222229003906,"category":"大学","description":"","image_url":""},{"id":8362,"title":"IPU環太平洋大学 TOPGUN","architect":"安藤忠雄","year":2013.0,"address":"岡山県岡山市東区瀬戸町観音寺721","latitude":34.72792434692383,"longitude":134.01210021972656,"category":"大学","description":"","image_url":""},{"id":8363,"title":"東リ インテリア歴史館 旧東リ本館事務所","architect":"渡辺節","year":1920.0,"address":"兵庫県伊丹市東有岡5-125","latitude":34.7711067199707,"longitude":135.4230499267578,"category":"博物館/企業施設/洋館","description":"見学は要事前予約","image_url":""},{"id":8364,"title":"ゴスペル","architect":"一粒社ヴォーリズ建築事務所","year":1982.0,"address":"京都府京都市左京区浄土寺上南田町36","latitude":35.025550842285156,"longitude":135.79483032226562,"category":"カフェ","description":"","image_url":""},{"id":8365,"title":"青森県庁舎","architect":"谷口吉郎+日建設計","year":1961.0,"address":"青森県青森市長島1-1-1","latitude":40.82490158081055,"longitude":140.7401885986328,"category":"庁舎","description":"2018年日建設計により改修。耐震・長寿命化改修に対して2023年公共建築賞","image_url":""},{"id":8366,"title":"SOWAKA","architect":"魚谷繁礼","year":2018.0,"address":"京都府京都市下京区植松町下京区植松町703-4","latitude":34.99892044067383,"longitude":135.7671356201172,"category":"旅館","description":"","image_url":""},{"id":8367,"title":"宇多野ユースホステル","architect":"本保基人","year":2008.0,"address":"京都府京都市右京区太秦中山町29","latitude":35.02696990966797,"longitude":135.69937133789062,"category":"ホステル","description":"","image_url":""},{"id":8368,"title":"鏡野公園バス停","architect":"吉田晋+梅原佑司","year":2013.0,"address":"高知県香美市土佐山田町宮ノ口","latitude":33.61805725097656,"longitude":133.7196044921875,"category":"駅","description":"","image_url":""},{"id":8369,"title":"香北町立吉井勇記念館","architect":"吉田晋+山本修","year":2003.0,"address":"高知県香美市香北町猪野々514","latitude":33.70619583129883,"longitude":133.85638427734375,"category":"博物館","description":"","image_url":""},{"id":8370,"title":"日本キリスト改革派 南与力町教会","architect":"吉田晋","year":2001.0,"address":"高知県高知市与力町6-23","latitude":33.55695343017578,"longitude":133.53797912597656,"category":"教会","description":"","image_url":""},{"id":8371,"title":"日本キリスト改革派 清水教会","architect":"吉田晋+梅原佑司","year":2013.0,"address":"高知県土佐清水市天神町244-1","latitude":32.781864166259766,"longitude":132.9558868408203,"category":"教会","description":"","image_url":""},{"id":8372,"title":"the EDGE of the WOOD 別所ゆめ街道 いなみころ三木別所店","architect":"松本哲哉","year":2018.0,"address":"兵庫県三木市別所町西這田1-395-1","latitude":34.795448303222656,"longitude":134.95230102539062,"category":"レストラン","description":"","image_url":""},{"id":8373,"title":"Cloud of Luster Chapel ラヴィーナ姫路 チャペル エル・ブランシュ","architect":"松本哲哉","year":2019.0,"address":"兵庫県姫路市神屋町3-31","latitude":34.828365325927734,"longitude":134.7017059326172,"category":"結婚式場","description":"","image_url":""},{"id":8374,"title":"Turning the Architectural Structure Into a Huge Fixture ワダスポーツ","architect":"松本哲哉","year":2017.0,"address":"兵庫県姫路市網干区坂上102-3","latitude":34.8001708984375,"longitude":134.5882110595703,"category":"店舗","description":"","image_url":""},{"id":8375,"title":"なみきスクエア","architect":"山下設計","year":2016.0,"address":"福岡県福岡市東区千早4-21-45","latitude":33.65022659301758,"longitude":130.439208984375,"category":"総合文化施設","description":"","image_url":""},{"id":8376,"title":"今治市営スポーツパーク テニスコートハウス","architect":"石本建築事務所","year":2015.0,"address":"愛媛県今治市高橋ふれあいの丘1-2","latitude":34.042049407958984,"longitude":132.95753479003906,"category":"スポーツ施設","description":"","image_url":""},{"id":8377,"title":"テラスポ鶴舞","architect":"田辺芳生","year":2018.0,"address":"愛知県名古屋市昭和区鶴舞1-1-156","latitude":35.15351867675781,"longitude":136.9185333251953,"category":"スポーツ施設","description":"","image_url":""},{"id":8378,"title":"ちふれ化粧品 研修施設・人工芝グラウンド","architect":"田辺芳生","year":2014.0,"address":"埼玉県飯能市茜台3-11","latitude":35.85159683227539,"longitude":139.28749084472656,"category":"スポーツ施設","description":"","image_url":""},{"id":8379,"title":"yliad Resort Vila","architect":"田辺芳生","year":2018.0,"address":"千葉県鴨川市貝渚2031-1","latitude":35.094200134277344,"longitude":140.09693908691406,"category":"住宅/コテージ","description":"","image_url":""},{"id":8380,"title":"B's 行善寺","architect":"五井建築研究所","year":2016.0,"address":"石川県白山市北安田町548","latitude":36.5262451171875,"longitude":136.55140686035156,"category":"福祉センター/医療施設","description":"","image_url":""},{"id":8381,"title":"琉球銀行 具志川支店","architect":"門口安則","year":2017.0,"address":"沖縄県うるま市安慶名1-9-19","latitude":26.372087478637695,"longitude":127.85271453857422,"category":"金融機関","description":"","image_url":""},{"id":8382,"title":"高岡信用金庫 本店","architect":"清水建設","year":2017.0,"address":"富山県高岡市守山町68","latitude":36.74626922607422,"longitude":137.009033203125,"category":"金融機関","description":"","image_url":""},{"id":8383,"title":"クゲヌマトリコ","architect":"アンブレ・アーキテクツ","year":2015.0,"address":"神奈川県藤沢市鵠沼海岸3-2-13","latitude":35.322044372558594,"longitude":139.46975708007812,"category":"集合住宅/カフェ","description":"","image_url":""},{"id":8384,"title":"太田市立東本町市営住宅","architect":"内井昭蔵","year":2002.0,"address":"群馬県太田市東本町29-42","latitude":36.296966552734375,"longitude":139.3770294189453,"category":"集合住宅","description":"","image_url":""},{"id":8385,"title":"青井記念館美術館","architect":"内井昭蔵","year":1994.0,"address":"富山県高岡市中川1-1-20","latitude":36.75071334838867,"longitude":137.02694702148438,"category":"美術館","description":"隣接する富山県立高岡工芸高等学校の付属美術館","image_url":""},{"id":8386,"title":"渋谷ソラスタ","architect":"日建設計+清水建設+東急設計コンサルタント","year":2019.0,"address":"東京都渋谷区道玄坂1-21-1","latitude":35.65634536743164,"longitude":139.69644165039062,"category":"オフィスビル/シェアオフィス","description":"","image_url":""},{"id":8387,"title":"上川端ビル ロイズ博多","architect":"青木茂","year":2018.0,"address":"福岡県福岡市博多区上川端町10-255","latitude":33.59370422363281,"longitude":130.40785217285156,"category":"テナントビル/集合住宅","description":"1965年竣工のビルをリファイニング","image_url":""},{"id":8388,"title":"清春芸術村ゲストハウス 和心","architect":"杉本博司+榊田倫之","year":2019.0,"address":"山梨県北杜市長坂町中丸2072","latitude":35.821510314941406,"longitude":138.35311889648438,"category":"その他宿泊施設","description":"","image_url":""},{"id":8389,"title":"星野リゾート BEB5軽井沢","architect":"佐々木達郎","year":2019.0,"address":"長野県北佐久郡軽井沢町長倉3364-15","latitude":36.3563232421875,"longitude":138.5890655517578,"category":"ホテル","description":"","image_url":""},{"id":8390,"title":"神山湧水珈琲｜煎","architect":"長谷川豪","year":2019.0,"address":"京都府京都市北区上賀茂本山339","latitude":35.06010818481445,"longitude":135.75167846679688,"category":"カフェ","description":"","image_url":""},{"id":8391,"title":"鎌倉笹目座","architect":"田辺雄之","year":2019.0,"address":"神奈川県鎌倉市笹目町6-7","latitude":35.313941955566406,"longitude":139.54295349121094,"category":"モール/テナントビル","description":"","image_url":""},{"id":8392,"title":"みずほ銀行内幸町本部ビル","architect":"芦原義信","year":1981.0,"address":"東京都千代田区内幸町1-1-5","latitude":35.670623779296875,"longitude":139.7574462890625,"category":"オフィスビル","description":"","image_url":""},{"id":8393,"title":"メムメドウズ MEMU EARTH HOTEL HORIZON HOUSE","architect":"マーク・マリガン+隈研吾","year":2013.0,"address":"北海道広尾郡大樹町芽武158","latitude":42.46821212768555,"longitude":143.37396240234375,"category":"住宅/ホテル/コテージ","description":"2019年5月中旬よりホテルとして宿泊可能。設計監修隈研吾","image_url":""},{"id":8394,"title":"メムメドウズ MEMU EARTH HOTEL INVERTED HOUSE","architect":"オスロ建築デザイン大学+隈研吾","year":2016.0,"address":"北海道広尾郡大樹町芽武158","latitude":42.46821594238281,"longitude":143.3740234375,"category":"住宅/ホテル/コテージ","description":"2019年5月中旬よりホテルとして宿泊可能。設計監修隈研吾","image_url":""},{"id":8395,"title":"メムメドウズ MEMU EARTH HOTEL BURN HOUSE","architect":"ダルコ・ラドヴィッチ+隈研吾","year":2012.0,"address":"北海道広尾郡大樹町芽武158","latitude":42.46757507324219,"longitude":143.37469482421875,"category":"住宅/ホテル/コテージ","description":"2019年7月中旬よりホテルとして宿泊可能。設計監修隈研吾","image_url":""},{"id":8396,"title":"メムメドウズ MEMU EARTH HOTEL 町まとう家","architect":"古谷誠章+隈研吾","year":2012.0,"address":"北海道広尾郡大樹町芽武158","latitude":42.469505310058594,"longitude":143.37527465820312,"category":"住宅/ホテル/コテージ","description":"2019年7月中旬よりホテルとして宿泊可能。設計監修隈研吾","image_url":""},{"id":8397,"title":"メムメドウズ 竹の家","architect":"ケ・エム・イフテカル・タンヴィル+山下秀之","year":2012.0,"address":"北海道広尾郡大樹町芽武158","latitude":42.46968078613281,"longitude":143.37490844726562,"category":"住宅/展望台","description":"こちらはホテルとしては利用出来ない。家というより展望台、櫓のようなイメージ","image_url":""},{"id":8398,"title":"メムメドウズ スタジオ メム","architect":"伊東豊雄","year":2015.0,"address":"北海道広尾郡大樹町芽武158","latitude":42.468563079833984,"longitude":143.37631225585938,"category":"体育館/低層オフィス","description":"倉庫の設計改修","image_url":""},{"id":8399,"title":"メムメドウズ Nest We Grow","architect":"デイナ・バントロック+隈研吾","year":2014.0,"address":"北海道広尾郡大樹町芽武158","latitude":42.46828079223633,"longitude":143.37660217285156,"category":"工場","description":"プランター、コミュニティキッチン","image_url":""},{"id":8400,"title":"メムメドウズ コンファレンスセンター","architect":"隈研吾","year":2011.0,"address":"北海道広尾郡大樹町芽武158","latitude":42.467681884765625,"longitude":143.3783416748047,"category":"展示・会議場/コテージ/研修施設","description":"1F宿泊施設、2F会議室","image_url":""}]}