{"page":99,"total_pages":290,"items_per_page":50,"total_items":14467,"items":[{"id":4901,"title":"吹田市立子育て青少年拠点 夢つながり未来館","architect":"東畑建築事務所","year":2011.0,"address":"大阪府吹田市山田西4-2-43","latitude":34.804664611816406,"longitude":135.5159912109375,"category":"児童施設","big_category":"教育","description":"","image_url":"","tags":"","prefecture":"大阪","contractor":"","structural_designer":"","landscape_designer":"","shinkenchiku_url":""},{"id":4902,"title":"田原本青垣生涯学習センター 弥生の里ホール","architect":"東畑建築事務所","year":2004.0,"address":"奈良県磯城郡田原本町阪手233-1","latitude":34.557743072509766,"longitude":135.8023681640625,"category":"総合文化施設/ホール・劇場/博物館","big_category":"文化施設,文化施設,ミュージアム","description":"","image_url":"","tags":"","prefecture":"奈良","contractor":"","structural_designer":"","landscape_designer":"","shinkenchiku_url":""},{"id":4903,"title":"紀の川市打田生涯学習センター","architect":"東畑建築事務所","year":2005.0,"address":"和歌山県紀の川市西大井363","latitude":34.2705192565918,"longitude":135.36199951171875,"category":"公民館・交流施設/図書館","big_category":"公共施設,文化施設","description":"","image_url":"","tags":"","prefecture":"和歌山","contractor":"","structural_designer":"","landscape_designer":"","shinkenchiku_url":""},{"id":4904,"title":"洲本市立五色図書館・鮎原地区公民館","architect":"東畑建築事務所","year":2002.0,"address":"兵庫県洲本市五色町鮎原南谷59","latitude":34.3973274230957,"longitude":134.8175506591797,"category":"公民館・交流施設/図書館","big_category":"公共施設,文化施設","description":"","image_url":"","tags":"","prefecture":"兵庫","contractor":"","structural_designer":"","landscape_designer":"","shinkenchiku_url":""},{"id":4905,"title":"篠山市民センター","architect":"東畑建築事務所","year":2002.0,"address":"兵庫県篠山市黒岡191-1","latitude":35.08028793334961,"longitude":135.218017578125,"category":"公民館・交流施設/ホール・劇場","big_category":"公共施設,文化施設","description":"","image_url":"","tags":"","prefecture":"兵庫","contractor":"","structural_designer":"","landscape_designer":"","shinkenchiku_url":""},{"id":4906,"title":"津市白山町総合文化センター","architect":"東畑建築事務所","year":2004.0,"address":"三重県津市白山町二本木1139-2","latitude":34.6693115234375,"longitude":136.37010192871094,"category":"総合文化施設/公民館・交流施設","big_category":"文化施設,公共施設","description":"","image_url":"","tags":"","prefecture":"三重","contractor":"","structural_designer":"","landscape_designer":"","shinkenchiku_url":""},{"id":4907,"title":"立山町元気交流ステーション みらいぶ","architect":"東畑建築事務所","year":2012.0,"address":"富山県中新川郡立山町前沢1169","latitude":36.665382385253906,"longitude":137.31439208984375,"category":"公民館・交流施設/図書館/福祉センター","big_category":"公共施設,文化施設,医療施設","description":"","image_url":"","tags":"","prefecture":"富山","contractor":"","structural_designer":"","landscape_designer":"","shinkenchiku_url":""},{"id":4908,"title":"グリーンオアシス","architect":"仲子盛進","year":1995.0,"address":"山口県岩国市玖珂町 グリーンオアシス","latitude":34.07752990722656,"longitude":132.0958709716797,"category":"プール","big_category":"レジャー施設","description":"","image_url":"","tags":"","prefecture":"山口","contractor":"","structural_designer":"","landscape_designer":"","shinkenchiku_url":""},{"id":4909,"title":"Top Beauty 今津","architect":"熊沢信生","year":2005.0,"address":"滋賀県高島市今津町今津1698","latitude":35.405853271484375,"longitude":136.03781127929688,"category":"美容院","big_category":"商業施設","description":"","image_url":"","tags":"","prefecture":"滋賀","contractor":"","structural_designer":"","landscape_designer":"","shinkenchiku_url":""},{"id":4910,"title":"八幡平ロイヤルホテル Chapel Philia","architect":"熊沢信生","year":2005.0,"address":"岩手県八幡平市松尾寄木第一地割590-5","latitude":39.89664077758789,"longitude":140.96759033203125,"category":"結婚式場","big_category":"宗教","description":"","image_url":"","tags":"","prefecture":"岩手","contractor":"","structural_designer":"","landscape_designer":"","shinkenchiku_url":""},{"id":4911,"title":"八ヶ岳ロイヤルホテル 星と森の教会","architect":"熊沢信生","year":2006.0,"address":"山梨県北杜市大泉町西井出8240-1039","latitude":35.888084411621094,"longitude":138.40737915039062,"category":"結婚式場","big_category":"宗教","description":"","image_url":"","tags":"","prefecture":"山梨","contractor":"","structural_designer":"","landscape_designer":"","shinkenchiku_url":""},{"id":4912,"title":"クーヘアーエクラ","architect":"熊沢信生","year":2007.0,"address":"愛知県名古屋市名東区猪子石原1-1306","latitude":35.19328308105469,"longitude":136.9897918701172,"category":"美容院","big_category":"商業施設","description":"美容院","image_url":"","tags":"","prefecture":"愛知","contractor":"","structural_designer":"","landscape_designer":"","shinkenchiku_url":""},{"id":4913,"title":"ジェイズヴィスエイル","architect":"熊沢信生","year":2007.0,"address":"愛知県長久手市根嶽701","latitude":35.16635513305664,"longitude":137.0266876220703,"category":"美容院","big_category":"商業施設","description":"美容院","image_url":"","tags":"","prefecture":"愛知","contractor":"","structural_designer":"","landscape_designer":"","shinkenchiku_url":""},{"id":4914,"title":"アニエール","architect":"熊沢信生","year":2009.0,"address":"兵庫県姫路市新在家3-7-10","latitude":34.84501647949219,"longitude":134.68389892578125,"category":"美容院","big_category":"商業施設","description":"美容院","image_url":"","tags":"","prefecture":"兵庫","contractor":"","structural_designer":"","landscape_designer":"","shinkenchiku_url":""},{"id":4915,"title":"山手歯科クリニック","architect":"熊沢信生","year":2006.0,"address":"兵庫県姫路市辻井4-10-36","latitude":34.852298736572266,"longitude":134.67140197753906,"category":"個人医院","big_category":"医療施設","description":"","image_url":"","tags":"","prefecture":"兵庫","contractor":"","structural_designer":"","landscape_designer":"","shinkenchiku_url":""},{"id":4916,"title":"クロダ歯科","architect":"熊沢信生","year":2006.0,"address":"愛知県名古屋市天白区境根町150","latitude":35.10329818725586,"longitude":136.9739227294922,"category":"個人医院","big_category":"医療施設","description":"","image_url":"","tags":"","prefecture":"愛知","contractor":"","structural_designer":"","landscape_designer":"","shinkenchiku_url":""},{"id":4917,"title":"りんでん保育園","architect":"シーラカンスK&H","year":2013.0,"address":"福岡県糸島市前原中央3-6-32","latitude":33.56110382080078,"longitude":130.19943237304688,"category":"幼稚園","big_category":"教育","description":"","image_url":"","tags":"","prefecture":"福岡","contractor":"","structural_designer":"","landscape_designer":"","shinkenchiku_url":""},{"id":4918,"title":"大阪大学まちかね保育園","architect":"シーラカンスK&H","year":2012.0,"address":"大阪府豊中市待兼山町1-18-3","latitude":34.804508209228516,"longitude":135.4568634033203,"category":"幼稚園","big_category":"教育","description":"","image_url":"","tags":"","prefecture":"大阪","contractor":"","structural_designer":"","landscape_designer":"","shinkenchiku_url":""},{"id":4919,"title":"洛陽総合高等学校","architect":"シーラカンスK&H","year":2015.0,"address":"京都府京都市中京区西ノ京春日町8","latitude":35.017906188964844,"longitude":135.7279052734375,"category":"学校","big_category":"教育","description":"","image_url":"","tags":"","prefecture":"京都","contractor":"","structural_designer":"","landscape_designer":"","shinkenchiku_url":""},{"id":4920,"title":"九州産業大学付属九州高等学校 KYUSHUコミュニティホール・部室棟","architect":"シーラカンスK&H","year":2013.0,"address":"福岡県福岡市東区香椎駅東2-22-1","latitude":33.66160583496094,"longitude":130.44509887695312,"category":"学校","big_category":"教育","description":"","image_url":"","tags":"","prefecture":"福岡","contractor":"","structural_designer":"","landscape_designer":"","shinkenchiku_url":""},{"id":4921,"title":"愛知黎明高等学校 旧弥富高等学校","architect":"シーラカンスK&H","year":2012.0,"address":"愛知県弥富市稲吉2-52","latitude":35.0796012878418,"longitude":136.7591094970703,"category":"学校","big_category":"教育","description":"","image_url":"","tags":"","prefecture":"愛知","contractor":"","structural_designer":"","landscape_designer":"","shinkenchiku_url":""},{"id":4922,"title":"白梅学園高等学校","architect":"シーラカンスK&H","year":2011.0,"address":"東京都小平市小川町1-830","latitude":35.72446823120117,"longitude":139.45111083984375,"category":"学校","big_category":"教育","description":"","image_url":"","tags":"","prefecture":"東京","contractor":"","structural_designer":"","landscape_designer":"","shinkenchiku_url":""},{"id":4923,"title":"白梅幼稚園地域交流研究センター棟","architect":"シーラカンスK&H","year":2010.0,"address":"東京都小平市小川町1-830","latitude":35.72418212890625,"longitude":139.4501953125,"category":"幼稚園","big_category":"教育","description":"","image_url":"","tags":"","prefecture":"東京","contractor":"","structural_designer":"","landscape_designer":"","shinkenchiku_url":""},{"id":4924,"title":"白梅学園 清修中高一貫部","architect":"シーラカンスK&H","year":2006.0,"address":"東京都小平市小川町1-830","latitude":35.72414016723633,"longitude":139.451171875,"category":"学校","big_category":"教育","description":"","image_url":"","tags":"","prefecture":"東京","contractor":"","structural_designer":"","landscape_designer":"","shinkenchiku_url":""},{"id":4925,"title":"富山市立芝園小学校・中学校","architect":"シーラカンスK&H+清水建設","year":2008.0,"address":"富山県富山市芝園町3-1-26","latitude":36.69670867919922,"longitude":137.20428466796875,"category":"学校","big_category":"教育","description":"","image_url":"","tags":"","prefecture":"富山","contractor":"","structural_designer":"","landscape_designer":"","shinkenchiku_url":""},{"id":4926,"title":"坂井市立丸岡南中学校","architect":"シーラカンスK&H","year":2006.0,"address":"福井県坂井市丸岡町高瀬15-2","latitude":36.12562561035156,"longitude":136.26974487304688,"category":"学校","big_category":"教育","description":"","image_url":"","tags":"2008年日本建築学会 作品選奨,新建築2006年10月号","prefecture":"福井","contractor":"","structural_designer":"","landscape_designer":"","shinkenchiku_url":""},{"id":4927,"title":"まごめ共同保育所","architect":"シーラカンスK&H","year":2003.0,"address":"東京都大田区西馬込1-18-13","latitude":35.589542388916016,"longitude":139.70680236816406,"category":"幼稚園","big_category":"教育","description":"","image_url":"","tags":"","prefecture":"東京","contractor":"","structural_designer":"","landscape_designer":"","shinkenchiku_url":""},{"id":4928,"title":"奈良屋幼稚園","architect":"シーラカンスK&H","year":2000.0,"address":"福岡県福岡市博多区奈良屋町1-6","latitude":33.59868621826172,"longitude":130.40696716308594,"category":"幼稚園","big_category":"教育","description":"","image_url":"","tags":"","prefecture":"福岡","contractor":"","structural_designer":"","landscape_designer":"","shinkenchiku_url":""},{"id":4929,"title":"KH-House マインズ北堀江","architect":"シーラカンスK&H","year":1991.0,"address":"大阪府大阪市西区北堀江1-22-3","latitude":34.67387008666992,"longitude":135.49395751953125,"category":"オフィスビル","big_category":"企業施設","description":"","image_url":"","tags":"","prefecture":"大阪","contractor":"","structural_designer":"","landscape_designer":"","shinkenchiku_url":""},{"id":4930,"title":"上宮寺納骨堂","architect":"シーラカンスK&H","year":2008.0,"address":"長野県佐久市田口2553","latitude":36.19240951538086,"longitude":138.50881958007812,"category":"寺院","big_category":"宗教","description":"","image_url":"","tags":"","prefecture":"長野","contractor":"","structural_designer":"","landscape_designer":"","shinkenchiku_url":""},{"id":4931,"title":"ひかりグループホーム うららの家","architect":"シーラカンスK&H","year":2004.0,"address":"福井県福井市木田1-3308","latitude":36.04703140258789,"longitude":136.2266387939453,"category":"養護施設","big_category":"医療施設","description":"","image_url":"","tags":"","prefecture":"福井","contractor":"","structural_designer":"","landscape_designer":"","shinkenchiku_url":""},{"id":4932,"title":"水の公園福島潟 遊水館","architect":"青木淳","year":1997.0,"address":"新潟県新潟市北区前新田乙311","latitude":37.914424896240234,"longitude":139.23623657226562,"category":"プール","big_category":"レジャー施設","description":"","image_url":"","tags":"","prefecture":"新潟","contractor":"","structural_designer":"","landscape_designer":"","shinkenchiku_url":""},{"id":4933,"title":"ヤマハ銀座ビル","architect":"日建設計","year":2010.0,"address":"東京都中央区銀座7-9-14","latitude":35.66859817504883,"longitude":139.76268005371094,"category":"オフィスビル/店舗/ホール・劇場","big_category":"企業施設,商業施設,文化施設","description":"","image_url":"","tags":"","prefecture":"東京","contractor":"","structural_designer":"","landscape_designer":"","shinkenchiku_url":""},{"id":4934,"title":"ナチュラルエリップス","architect":"遠藤政樹+池田昌弘","year":2002.0,"address":"東京都渋谷区円山町7-1","latitude":35.65822219848633,"longitude":139.69480895996094,"category":"集合住宅/カフェ","big_category":"住宅,商業施設","description":"","image_url":"","tags":"","prefecture":"東京","contractor":"","structural_designer":"","landscape_designer":"","shinkenchiku_url":""},{"id":4935,"title":"レーモンド・メモリアムルーム","architect":"アントニン・レーモンド","year":1954.0,"address":"東京都渋谷区代々木5-58-1","latitude":35.675594329833984,"longitude":139.6920928955078,"category":"住宅","big_category":"住宅","description":"レーモンド設計事務所内にレーモンド自邸のリビング部分を移築。毎月第二金曜日　14:00～15:00。要電話予約。","image_url":"","tags":"","prefecture":"東京","contractor":"","structural_designer":"","landscape_designer":"","shinkenchiku_url":""},{"id":4936,"title":"ソニーシティ","architect":"大江匡","year":2006.0,"address":"東京都港区港南1-7-1","latitude":35.63116455078125,"longitude":139.7436065673828,"category":"オフィスビル","big_category":"企業施設","description":"","image_url":"","tags":"","prefecture":"東京","contractor":"","structural_designer":"","landscape_designer":"","shinkenchiku_url":""},{"id":4937,"title":"金地院本堂","architect":"坂本鹿名夫","year":1956.0,"address":"東京都港区芝公園3-5-4","latitude":35.65947723388672,"longitude":139.74610900878906,"category":"寺院","big_category":"宗教","description":"","image_url":"","tags":"","prefecture":"東京","contractor":"","structural_designer":"","landscape_designer":"","shinkenchiku_url":""},{"id":4938,"title":"横浜薬科大学図書館 旧ホテルエンパイア","architect":"大林組","year":1965.0,"address":"神奈川県横浜市戸塚区俣野町601","latitude":35.384674072265625,"longitude":139.4936981201172,"category":"図書館/大学","big_category":"文化施設,教育","description":"","image_url":"","tags":"","prefecture":"神奈川","contractor":"","structural_designer":"","landscape_designer":"","shinkenchiku_url":""},{"id":4939,"title":"コマツビル","architect":"増沢洵+中山克己","year":1966.0,"address":"東京都港区赤坂2-3-6","latitude":35.67096710205078,"longitude":139.74203491210938,"category":"オフィスビル","big_category":"企業施設","description":"毎週金曜日の14：00から16：00まで屋上庭園のみ開放","image_url":"","tags":"","prefecture":"東京","contractor":"","structural_designer":"","landscape_designer":"","shinkenchiku_url":""},{"id":4940,"title":"ホテル立山","architect":"村田政真","year":1972.0,"address":"富山県中新川郡立山町芦峅寺室堂","latitude":36.577213287353516,"longitude":137.5947723388672,"category":"ホテル","big_category":"宿泊","description":"","image_url":"","tags":"","prefecture":"富山","contractor":"","structural_designer":"","landscape_designer":"","shinkenchiku_url":""},{"id":4941,"title":"清水建設技術研究所","architect":"高橋靗一+清水建設","year":2006.0,"address":"東京都江東区越中島3-4-17","latitude":35.6628303527832,"longitude":139.7978973388672,"category":"オフィスビル/研究施設","big_category":"企業施設,教育","description":"","image_url":"","tags":"","prefecture":"東京","contractor":"","structural_designer":"","landscape_designer":"","shinkenchiku_url":""},{"id":4942,"title":"東京工業大学 緑が丘1号館レトロフィット","architect":"安田幸一+竹中工務店","year":2006.0,"address":"東京都目黒区大岡山2-12-1","latitude":35.60874938964844,"longitude":139.67889404296875,"category":"大学","big_category":"教育","description":"","image_url":"","tags":"2009年日本建築学会 作品選奨","prefecture":"東京","contractor":"","structural_designer":"","landscape_designer":"","shinkenchiku_url":""},{"id":4943,"title":"ゆかり文化幼稚園","architect":"丹下健三","year":1967.0,"address":"東京都世田谷区砧7-15-14","latitude":35.63845443725586,"longitude":139.60528564453125,"category":"幼稚園","big_category":"教育","description":"","image_url":"","tags":"","prefecture":"東京","contractor":"","structural_designer":"","landscape_designer":"","shinkenchiku_url":""},{"id":4944,"title":"張力型空間構造モデルドーム ホワイト・ライノ","architect":"藤井明","year":2001.0,"address":"千葉県千葉市稲毛区弥生町1-8","latitude":35.62498474121094,"longitude":140.10568237304688,"category":"研究施設/大学","big_category":"教育,教育","description":"","image_url":"","tags":"","prefecture":"千葉","contractor":"","structural_designer":"","landscape_designer":"","shinkenchiku_url":""},{"id":4945,"title":"日本大学理工学部 ファラディーホール","architect":"小林美夫","year":1978.0,"address":"千葉県船橋市習志野台7-20","latitude":35.724273681640625,"longitude":140.05844116210938,"category":"大学/ホール・劇場","big_category":"教育,文化施設","description":"","image_url":"","tags":"","prefecture":"千葉","contractor":"","structural_designer":"","landscape_designer":"","shinkenchiku_url":""},{"id":4946,"title":"日本大学理工学部 テクノプレース15","architect":"坪山幸王+梓設計","year":2002.0,"address":"千葉県船橋市習志野台7-20","latitude":35.725730895996094,"longitude":140.0589599609375,"category":"大学","big_category":"教育","description":"","image_url":"","tags":"2004年日本建築学会 作品選奨","prefecture":"千葉","contractor":"","structural_designer":"","landscape_designer":"","shinkenchiku_url":""},{"id":4947,"title":"船橋日大前駅西口","architect":"伊澤岬","year":1995.0,"address":"千葉県船橋市坪井東1-4-1","latitude":35.7268180847168,"longitude":140.0590057373047,"category":"駅","big_category":"インフラ","description":"","image_url":"","tags":"","prefecture":"千葉","contractor":"","structural_designer":"","landscape_designer":"","shinkenchiku_url":""},{"id":4948,"title":"立教大学 新座キャンパス4号館／8号館","architect":"日建設計","year":2011.0,"address":"埼玉県新座市北野1-2-26","latitude":35.814208984375,"longitude":139.56561279296875,"category":"大学","big_category":"教育","description":"","image_url":"","tags":"","prefecture":"埼玉","contractor":"","structural_designer":"","landscape_designer":"","shinkenchiku_url":""},{"id":4949,"title":"立教大学 新座キャンパス6号館 新座図書館","architect":"日建設計","year":2005.0,"address":"埼玉県新座市北野1-2-26","latitude":35.81291198730469,"longitude":139.56541442871094,"category":"大学/図書館","big_category":"教育,文化施設","description":"","image_url":"","tags":"","prefecture":"埼玉","contractor":"","structural_designer":"","landscape_designer":"","shinkenchiku_url":""},{"id":4950,"title":"立教学院 太刀川記念交流会館","architect":"日建設計","year":2007.0,"address":"埼玉県新座市北野1-2-26","latitude":35.816062927246094,"longitude":139.56878662109375,"category":"大学","big_category":"教育","description":"","image_url":"","tags":"","prefecture":"埼玉","contractor":"","structural_designer":"","landscape_designer":"","shinkenchiku_url":""}]}