{"page":79,"total_pages":290,"items_per_page":50,"total_items":14467,"items":[{"id":3901,"title":"石原裕次郎記念館","architect":"山下設計","year":1985.0,"address":"北海道小樽市築港5-10","latitude":43.18522644042969,"longitude":141.02264404296875,"category":"博物館","big_category":"ミュージアム","description":"","image_url":"","tags":"","prefecture":"北海道","contractor":"","structural_designer":"","landscape_designer":"","shinkenchiku_url":""},{"id":3902,"title":"奈良県立図書情報館","architect":"日本設計","year":2005.0,"address":"奈良県奈良市大安寺西1-1000","latitude":34.67587661743164,"longitude":135.8052978515625,"category":"図書館","big_category":"文化施設","description":"","image_url":"","tags":"","prefecture":"奈良","contractor":"","structural_designer":"","landscape_designer":"","shinkenchiku_url":""},{"id":3903,"title":"鶴岡タウンキャンパス","architect":"日本設計","year":2005.0,"address":"山形県鶴岡市馬場町14-1","latitude":38.7269401550293,"longitude":139.82228088378906,"category":"図書館/大学/研究施設","big_category":"文化施設,教育,教育","description":"","image_url":"","tags":"","prefecture":"山形","contractor":"","structural_designer":"","landscape_designer":"","shinkenchiku_url":""},{"id":3904,"title":"Bar ちめんかのや","architect":"齋藤裕","year":1988.0,"address":"東京都中野区江古田4-11-2","latitude":35.72464370727539,"longitude":139.66452026367188,"category":"バー・居酒屋/住宅","big_category":"商業施設,住宅","description":"","image_url":"","tags":"","prefecture":"東京","contractor":"","structural_designer":"","landscape_designer":"","shinkenchiku_url":""},{"id":3905,"title":"ハウス オブ フレーバーズ ホルトハウス 房子の店","architect":"齋藤裕","year":1992.0,"address":"神奈川県鎌倉市鎌倉山3-2-10","latitude":35.31783676147461,"longitude":139.5140380859375,"category":"カフェ/店舗","big_category":"商業施設,商業施設","description":"","image_url":"","tags":"","prefecture":"神奈川","contractor":"","structural_designer":"","landscape_designer":"","shinkenchiku_url":""},{"id":3906,"title":"宙 SORA 渡月荘金龍","architect":"富永譲","year":2006.0,"address":"静岡県伊豆市修善寺3455","latitude":34.96916961669922,"longitude":138.925537109375,"category":"旅館","big_category":"宿泊","description":"","image_url":"","tags":"","prefecture":"静岡","contractor":"","structural_designer":"","landscape_designer":"","shinkenchiku_url":""},{"id":3907,"title":"ガラスシャッターのファサード GC 名古屋営業所","architect":"坂茂","year":2004.0,"address":"愛知県名古屋市千種区姫池通3-19","latitude":35.167152404785156,"longitude":136.9575958251953,"category":"オフィスビル","big_category":"企業施設","description":"","image_url":"","tags":"","prefecture":"愛知","contractor":"","structural_designer":"","landscape_designer":"","shinkenchiku_url":""},{"id":3908,"title":"Ray coffee house","architect":"渡辺康","year":2008.0,"address":"長野県北佐久郡軽井沢町大字長倉2141-431","latitude":36.35426712036133,"longitude":138.58363342285156,"category":"カフェ","big_category":"商業施設","description":"","image_url":"","tags":"","prefecture":"長野","contractor":"","structural_designer":"","landscape_designer":"","shinkenchiku_url":""},{"id":3909,"title":"CST サイクルステーションとりで","architect":"16A","year":2014.0,"address":"茨城県取手市中央町2","latitude":35.89748001098633,"longitude":140.06349182128906,"category":"駐車・駐輪場","big_category":"公共施設","description":"","image_url":"","tags":"新建築2014年5月号","prefecture":"茨城","contractor":"淺沼・赤塚特定建設工事共同企業体","structural_designer":"小西泰孝構造設計","landscape_designer":"","shinkenchiku_url":"https://data.shinkenchiku.online/articles/SK_2014_05_150-0"},{"id":3910,"title":"杉乃井ホテル ザ・アクアガーデン","architect":"16A","year":2010.0,"address":"大分県別府市観海寺1","latitude":33.28519058227539,"longitude":131.4727325439453,"category":"温泉","big_category":"宿泊","description":"","image_url":"","tags":"","prefecture":"大分","contractor":"","structural_designer":"","landscape_designer":"","shinkenchiku_url":""},{"id":3911,"title":"豊岡市日高町東部健康福祉センター","architect":"栗生明","year":2004.0,"address":"兵庫県豊岡市日高町堀809","latitude":35.4868278503418,"longitude":134.80648803710938,"category":"福祉センター","big_category":"医療施設","description":"","image_url":"","tags":"","prefecture":"兵庫","contractor":"","structural_designer":"","landscape_designer":"","shinkenchiku_url":""},{"id":3912,"title":"ファイネス 金沢支店 旧井上誠昌堂","architect":"栗生明","year":1988.0,"address":"石川県金沢市直江町イ7-1","latitude":36.60317611694336,"longitude":136.63601684570312,"category":"低層オフィス","big_category":"企業施設","description":"おそらく取り壊し済","image_url":"","tags":"","prefecture":"石川","contractor":"","structural_designer":"","landscape_designer":"","shinkenchiku_url":""},{"id":3913,"title":"セキショウ ホンダスクエアー ホンダ 守谷絹の台店","architect":"栗生明","year":1994.0,"address":"茨城県つくばみらい市絹の台7-7","latitude":35.97663116455078,"longitude":139.97264099121094,"category":"店舗","big_category":"商業施設","description":"","image_url":"","tags":"新建築1994年9月号","prefecture":"茨城","contractor":"","structural_designer":"","landscape_designer":"","shinkenchiku_url":""},{"id":3914,"title":"関彰商事つくばビル・アネックス","architect":"栗生明","year":1992.0,"address":"茨城県つくば市東新井12-2","latitude":36.07230758666992,"longitude":140.11264038085938,"category":"オフィスビル","big_category":"企業施設","description":"","image_url":"","tags":"","prefecture":"茨城","contractor":"","structural_designer":"","landscape_designer":"","shinkenchiku_url":""},{"id":3915,"title":"関彰商事つくばビル","architect":"栗生明","year":1989.0,"address":"茨城県つくば市二の宮1-23-6","latitude":36.066062927246094,"longitude":140.1183319091797,"category":"オフィスビル","big_category":"企業施設","description":"","image_url":"","tags":"","prefecture":"茨城","contractor":"","structural_designer":"","landscape_designer":"","shinkenchiku_url":""},{"id":3916,"title":"東京デザイン専門学校","architect":"栗生明","year":2004.0,"address":"東京都渋谷区千駄ヶ谷3-62-9","latitude":35.67359161376953,"longitude":139.70388793945312,"category":"学校","big_category":"教育","description":"","image_url":"","tags":"","prefecture":"東京","contractor":"","structural_designer":"","landscape_designer":"","shinkenchiku_url":""},{"id":3917,"title":"桐蔭横浜大学 法科大学院","architect":"栗生明","year":2002.0,"address":"神奈川県横浜市青葉区鉄町1614","latitude":35.567169189453125,"longitude":139.5189971923828,"category":"大学","big_category":"教育","description":"","image_url":"","tags":"","prefecture":"神奈川","contractor":"","structural_designer":"","landscape_designer":"","shinkenchiku_url":""},{"id":3918,"title":"日本橋弥生ビルディング","architect":"栗生明","year":2005.0,"address":"東京都中央区日本橋茅場町1-7-1","latitude":35.68040466308594,"longitude":139.7782745361328,"category":"オフィスビル","big_category":"企業施設","description":"","image_url":"","tags":"","prefecture":"東京","contractor":"","structural_designer":"","landscape_designer":"","shinkenchiku_url":""},{"id":3919,"title":"京葉銀行 八千代中央支店","architect":"栗生明","year":2012.0,"address":"千葉県八千代市ゆりのき台3-2","latitude":35.7282829284668,"longitude":140.10260009765625,"category":"金融機関","big_category":"企業施設","description":"","image_url":"","tags":"","prefecture":"千葉","contractor":"","structural_designer":"","landscape_designer":"","shinkenchiku_url":""},{"id":3920,"title":"千葉大学 園芸学部 100周年記念館 戸定ヶ丘ホール","architect":"栗生明","year":2011.0,"address":"千葉県松戸市松戸648","latitude":35.77599334716797,"longitude":139.90101623535156,"category":"ホール・劇場","big_category":"文化施設","description":"","image_url":"","tags":"","prefecture":"千葉","contractor":"","structural_designer":"","landscape_designer":"","shinkenchiku_url":""},{"id":3921,"title":"富士屋ホテル","architect":"不明","year":1878.0,"address":"神奈川県足柄下郡箱根町宮ノ下359","latitude":35.244483947753906,"longitude":139.05953979492188,"category":"ホテル","big_category":"宿泊","description":"","image_url":"","tags":"登録有形文化財","prefecture":"神奈川","contractor":"","structural_designer":"","landscape_designer":"","shinkenchiku_url":""},{"id":3922,"title":"万平ホテル","architect":"久米権九郎","year":1894.0,"address":"長野県北佐久郡軽井沢町大字軽井沢925","latitude":36.3575325012207,"longitude":138.64199829101562,"category":"ホテル","big_category":"宿泊","description":"","image_url":"","tags":"","prefecture":"長野","contractor":"","structural_designer":"","landscape_designer":"","shinkenchiku_url":""},{"id":3923,"title":"ホテルニューカマクラ 旧山縣ホテル","architect":"不明","year":1924.0,"address":"神奈川県鎌倉市御成町13-2","latitude":35.3198127746582,"longitude":139.54983520507812,"category":"ホテル","big_category":"宿泊","description":"","image_url":"","tags":"","prefecture":"神奈川","contractor":"","structural_designer":"","landscape_designer":"","shinkenchiku_url":""},{"id":3924,"title":"宝塚ホテル","architect":"古塚正治","year":1926.0,"address":"兵庫県宝塚市梅野町1-46","latitude":34.8046989440918,"longitude":135.344970703125,"category":"ホテル","big_category":"宿泊","description":"","image_url":"","tags":"","prefecture":"兵庫","contractor":"","structural_designer":"","landscape_designer":"","shinkenchiku_url":""},{"id":3925,"title":"六甲山サイレンスリゾート 旧館 旧六甲山ホテル","architect":"古塚正治+ミケーレ・デ・ルッキ","year":1929.0,"address":"兵庫県神戸市灘区六甲山町南六甲1034","latitude":34.75627899169922,"longitude":135.22938537597656,"category":"ホテル/レストラン","big_category":"宿泊,商業施設","description":"2019年ミケーレ・デ・ルッキが旧館修復。今後2021年に円形の新宿泊棟、その後ホールや教会なども新築される予定","image_url":"","tags":"","prefecture":"兵庫","contractor":"","structural_designer":"","landscape_designer":"","shinkenchiku_url":""},{"id":3926,"title":"蒲郡クラシックホテル 旧蒲郡ホテル","architect":"久野節","year":1934.0,"address":"愛知県蒲郡市竹島町15-1","latitude":34.815921783447266,"longitude":137.235107421875,"category":"ホテル","big_category":"宿泊","description":"","image_url":"","tags":"","prefecture":"愛知","contractor":"","structural_designer":"","landscape_designer":"","shinkenchiku_url":""},{"id":3927,"title":"志摩観光ホテルクラシック 東館","architect":"村野藤吾","year":1937.0,"address":"三重県志摩市阿児町神明731","latitude":34.30935287475586,"longitude":136.81674194335938,"category":"ホテル","big_category":"宿泊","description":"旧館の一部をギャラリーとして公開中","image_url":"","tags":"","prefecture":"三重","contractor":"","structural_designer":"","landscape_designer":"","shinkenchiku_url":""},{"id":3928,"title":"日光市役所日光総合支所 旧大名ホテル","architect":"不明","year":1919.0,"address":"栃木県日光市中鉢石町999","latitude":36.75069046020508,"longitude":139.60743713378906,"category":"庁舎/ホテル","big_category":"公共施設,宿泊","description":"","image_url":"","tags":"","prefecture":"栃木","contractor":"","structural_designer":"","landscape_designer":"","shinkenchiku_url":""},{"id":3929,"title":"明治村 帝国ホテル・ライト館","architect":"フランク・ロイド・ライト","year":1923.0,"address":"愛知県犬山市内山1","latitude":35.34718322753906,"longitude":136.98875427246094,"category":"博物館/テーマパーク/ホテル","big_category":"ミュージアム,レジャー施設,宿泊","description":"明治村に玄関部分のみ移設","image_url":"","tags":"登録有形文化財","prefecture":"愛知","contractor":"","structural_designer":"","landscape_designer":"","shinkenchiku_url":""},{"id":3930,"title":"志賀高原歴史記念館 旧志賀高原ホテル","architect":"不明","year":1937.0,"address":"長野県下高井郡山ノ内町平穏7148-203","latitude":36.71969985961914,"longitude":138.49081420898438,"category":"博物館/ホテル/洋館","big_category":"ミュージアム,宿泊,近代建築/遺産","description":"5/1～10/30まで公開","image_url":"","tags":"","prefecture":"長野","contractor":"","structural_designer":"","landscape_designer":"","shinkenchiku_url":""},{"id":3931,"title":"楽々荘 旧田中源太郎邸","architect":"不明","year":1899.0,"address":"京都府亀岡市北町44","latitude":35.01596450805664,"longitude":135.57655334472656,"category":"旅館/料亭/結婚式場","big_category":"宿泊,商業施設,宗教","description":"","image_url":"","tags":"登録有形文化財","prefecture":"京都","contractor":"","structural_designer":"","landscape_designer":"","shinkenchiku_url":""},{"id":3932,"title":"舞子ホテル 旧日下部久太郎別邸","architect":"不明","year":1915.0,"address":"兵庫県神戸市垂水区舞子台2-5-41","latitude":34.6351432800293,"longitude":135.033935546875,"category":"ホテル/洋館","big_category":"宿泊,近代建築/遺産","description":"","image_url":"","tags":"","prefecture":"兵庫","contractor":"","structural_designer":"","landscape_designer":"","shinkenchiku_url":""},{"id":3933,"title":"小樽芸術村 似鳥美術館 旧北海道拓殖銀行小樽支店","architect":"矢橋賢吉+ナイジェル・コーツ","year":1923.0,"address":"北海道小樽市色内1-3-1","latitude":43.19736099243164,"longitude":141.00209045410156,"category":"ホテル/洋館/金融機関","big_category":"宿泊,近代建築/遺産,企業施設","description":"内装改修をナイジェル・コーツが担当。北海道拓殖銀行小樽支店の後、ホテルヴィブラントオタルとして営業していたが2017年閉業。現在はニトリにより買収され美術館として運営されている","image_url":"","tags":"","prefecture":"北海道","contractor":"","structural_designer":"","landscape_designer":"","shinkenchiku_url":""},{"id":3934,"title":"HakoBA 函館 旧安田銀行函館支店","architect":"安田銀行営繕係","year":1932.0,"address":"北海道函館市末広町23-9","latitude":41.766075134277344,"longitude":140.71444702148438,"category":"ホテル/洋館/金融機関","big_category":"宿泊,近代建築/遺産,企業施設","description":"","image_url":"","tags":"","prefecture":"北海道","contractor":"大林組","structural_designer":"","landscape_designer":"","shinkenchiku_url":""},{"id":3935,"title":"山の上ホテル 旧佐藤新興生活館","architect":"ウィリアム・メレル・ヴォーリズ","year":1936.0,"address":"東京都千代田区神田駿河台1-1","latitude":35.697608947753906,"longitude":139.76144409179688,"category":"ホテル/洋館","big_category":"宿泊,近代建築/遺産","description":"2024年2月で休館。2024年11月明治大学が取得。改修後、今後もホテルとして営業予定","image_url":"","tags":"","prefecture":"東京","contractor":"","structural_designer":"","landscape_designer":"","shinkenchiku_url":""},{"id":3936,"title":"White Rose English School","architect":"堀部直子","year":2014.0,"address":"大阪府高槻市城内町2-65","latitude":34.84146499633789,"longitude":135.6204071044922,"category":"学校","big_category":"教育","description":"","image_url":"","tags":"","prefecture":"大阪","contractor":"","structural_designer":"","landscape_designer":"","shinkenchiku_url":""},{"id":3937,"title":"ヴィラ・サントリーニ","architect":"不明","year":2005.0,"address":"高知県土佐市宇佐町竜599-6","latitude":33.424598693847656,"longitude":133.45401000976562,"category":"ホテル","big_category":"宿泊","description":"","image_url":"","tags":"","prefecture":"高知","contractor":"","structural_designer":"","landscape_designer":"","shinkenchiku_url":""},{"id":3938,"title":"福岡大学 中央図書館／商学部棟","architect":"日建設計","year":2013.0,"address":"福岡県福岡市城南区七隈8-19-1","latitude":33.549625396728516,"longitude":130.3643341064453,"category":"図書館/大学","big_category":"文化施設,教育","description":"","image_url":"","tags":"","prefecture":"福岡","contractor":"","structural_designer":"","landscape_designer":"","shinkenchiku_url":""},{"id":3939,"title":"帝塚山タワープラザ","architect":"安藤忠雄","year":1976.0,"address":"大阪市住吉区帝塚山1-3-2","latitude":34.62396240234375,"longitude":135.5012664794922,"category":"集合住宅","big_category":"住宅","description":"","image_url":"","tags":"","prefecture":"大阪","contractor":"","structural_designer":"","landscape_designer":"","shinkenchiku_url":""},{"id":3940,"title":"さくら広場(幕張)","architect":"安藤忠雄","year":2006.0,"address":"千葉県習志野市芝園1-5","latitude":35.659156799316406,"longitude":140.0231170654297,"category":"公園","big_category":"レジャー施設","description":"","image_url":"","tags":"","prefecture":"千葉","contractor":"","structural_designer":"","landscape_designer":"","shinkenchiku_url":""},{"id":3941,"title":"大淀のアトリエⅡ 安藤忠雄建築研究所","architect":"安藤忠雄","year":1991.0,"address":"大阪府大阪市北区豊崎2-5-23","latitude":34.71043395996094,"longitude":135.50160217285156,"category":"低層オフィス/住宅","big_category":"企業施設,住宅","description":"","image_url":"","tags":"","prefecture":"大阪","contractor":"","structural_designer":"","landscape_designer":"","shinkenchiku_url":""},{"id":3942,"title":"下北沢病院 旧福原病院","architect":"安藤忠雄","year":1986.0,"address":"東京都世田谷区北沢2-8-16","latitude":35.66239547729492,"longitude":139.6698455810547,"category":"病院","big_category":"医療施設","description":"","image_url":"","tags":"","prefecture":"東京","contractor":"","structural_designer":"","landscape_designer":"","shinkenchiku_url":""},{"id":3943,"title":"紀陽銀行堺支店","architect":"安藤忠雄","year":1994.0,"address":"大阪府堺市堺区市之町東1-1-10","latitude":34.57844161987305,"longitude":135.47439575195312,"category":"金融機関/オフィスビル","big_category":"企業施設,企業施設","description":"","image_url":"","tags":"","prefecture":"大阪","contractor":"","structural_designer":"","landscape_designer":"","shinkenchiku_url":""},{"id":3944,"title":"マックスレイ本社ビル","architect":"安藤忠雄","year":1994.0,"address":"大阪市城東区鴫野西2-18-6 ","latitude":34.69306945800781,"longitude":135.53909301757812,"category":"オフィスビル","big_category":"企業施設","description":"","image_url":"","tags":"","prefecture":"大阪","contractor":"","structural_designer":"","landscape_designer":"","shinkenchiku_url":""},{"id":3945,"title":"綾部工業団地交流プラザ","architect":"安藤忠雄","year":1995.0,"address":"京都府綾部市とよさか町4","latitude":35.3301887512207,"longitude":135.28817749023438,"category":"公民館・交流施設","big_category":"公共施設","description":"","image_url":"","tags":"","prefecture":"京都","contractor":"","structural_designer":"","landscape_designer":"","shinkenchiku_url":""},{"id":3946,"title":"かほく市立金津小学校","architect":"安藤忠雄","year":1995.0,"address":"石川県かほく市谷カ30","latitude":36.741703033447266,"longitude":136.7252655029297,"category":"学校","big_category":"教育","description":"","image_url":"","tags":"","prefecture":"石川","contractor":"","structural_designer":"","landscape_designer":"","shinkenchiku_url":""},{"id":3947,"title":"ダイコク電機本部ビル","architect":"安藤忠雄","year":1998.0,"address":"愛知県春日井市坂下町1-875","latitude":35.28626251220703,"longitude":137.0189971923828,"category":"オフィスビル","big_category":"企業施設","description":"","image_url":"","tags":"","prefecture":"愛知","contractor":"","structural_designer":"","landscape_designer":"","shinkenchiku_url":""},{"id":3948,"title":"アウディ 世田谷ショールーム 旧アウディ・ジャパン本社","architect":"安藤忠雄","year":2002.0,"address":"東京都世田谷区尾山台2-30-8","latitude":35.60316467285156,"longitude":139.6533203125,"category":"店舗/オフィスビル","big_category":"商業施設,企業施設","description":"","image_url":"","tags":"","prefecture":"東京","contractor":"","structural_designer":"","landscape_designer":"","shinkenchiku_url":""},{"id":3949,"title":"コキュ オフィスビル","architect":"安藤忠雄","year":2002.0,"address":"東京都渋谷区猿楽町2-8","latitude":35.6530876159668,"longitude":139.70465087890625,"category":"テナントビル","big_category":"商業施設","description":"","image_url":"","tags":"","prefecture":"東京","contractor":"","structural_designer":"","landscape_designer":"","shinkenchiku_url":""},{"id":3950,"title":"CUE 西麻布","architect":"安藤忠雄","year":2003.0,"address":"東京都港区西麻布3-3-20","latitude":35.65825653076172,"longitude":139.7266387939453,"category":"集合住宅","big_category":"住宅","description":"","image_url":"","tags":"","prefecture":"東京","contractor":"","structural_designer":"","landscape_designer":"","shinkenchiku_url":""}]}