{"page":161,"total_pages":290,"items_per_page":50,"total_items":14467,"items":[{"id":8001,"title":"大阪芸術大学 14号館","architect":"高橋靗一","year":1967.0,"address":"大阪府南河内郡河南町東山469","latitude":34.5126953125,"longitude":135.63050842285156,"category":"大学","description":"","image_url":""},{"id":8002,"title":"大阪芸術大学 11号館","architect":"高橋靗一","year":1971.0,"address":"大阪府南河内郡河南町東山469","latitude":34.512474060058594,"longitude":135.62969970703125,"category":"大学","description":"","image_url":""},{"id":8003,"title":"大阪芸術大学 16号館","architect":"高橋靗一","year":1966.0,"address":"大阪府南河内郡河南町東山469","latitude":34.511844635009766,"longitude":135.6309051513672,"category":"大学","description":"","image_url":""},{"id":8004,"title":"大阪芸術大学 3号館","architect":"高橋靗一","year":1973.0,"address":"大阪府南河内郡河南町東山469","latitude":34.51155090332031,"longitude":135.6302032470703,"category":"大学","description":"","image_url":""},{"id":8005,"title":"大阪芸術大学 18号館","architect":"高橋靗一","year":1973.0,"address":"大阪府南河内郡河南町東山469","latitude":34.51150131225586,"longitude":135.6313018798828,"category":"大学","description":"","image_url":""},{"id":8006,"title":"大阪芸術大学 5号館","architect":"高橋靗一","year":1968.0,"address":"大阪府南河内郡河南町東山469","latitude":34.5113639831543,"longitude":135.63096618652344,"category":"大学","description":"","image_url":""},{"id":8007,"title":"大阪芸術大学 20号館","architect":"高橋靗一","year":1978.0,"address":"大阪府南河内郡河南町東山469","latitude":34.510738372802734,"longitude":135.63204956054688,"category":"大学","description":"","image_url":""},{"id":8008,"title":"大阪芸術大学 21号館","architect":"高橋靗一","year":1978.0,"address":"大阪府南河内郡河南町東山469","latitude":34.51118850708008,"longitude":135.63229370117188,"category":"大学","description":"","image_url":""},{"id":8009,"title":"大阪芸術大学 7号館","architect":"高橋靗一","year":1973.0,"address":"大阪府南河内郡河南町東山469","latitude":34.51085662841797,"longitude":135.63153076171875,"category":"大学","description":"","image_url":""},{"id":8010,"title":"大阪芸術大学 22号館","architect":"坂倉建築研究所","year":2004.0,"address":"大阪府南河内郡河南町東山469","latitude":34.51289367675781,"longitude":135.63038635253906,"category":"大学","description":"","image_url":""},{"id":8011,"title":"大阪芸術大学 総合体育館","architect":"大成建設","year":1998.0,"address":"大阪府南河内郡河南町東山469","latitude":34.510162353515625,"longitude":135.6330108642578,"category":"大学/体育館","description":"","image_url":""},{"id":8012,"title":"プリンツ","architect":"西堀晋","year":2002.0,"address":"京都府京都市左京区田中高原町5","latitude":35.03669738769531,"longitude":135.7861328125,"category":"カフェ/ギャラリー/ホテル","description":"2018年5月より閉業。建築は現存。","image_url":""},{"id":8013,"title":"高知銀行事務センター","architect":"MA設計事務所","year":1972.0,"address":"高知県高知市堺町2-24","latitude":33.55929183959961,"longitude":133.5408477783203,"category":"金融機関","description":"","image_url":""},{"id":8014,"title":"浜幸ビル","architect":"浦辺鎮太郎","year":1966.0,"address":"高知県高知市はりまや町1-1-1","latitude":33.559818267822266,"longitude":133.54257202148438,"category":"テナントビル","description":"","image_url":""},{"id":8015,"title":"京都芸術大学 高原校舎","architect":"岸和郎+大石義一","year":1982.0,"address":"京都府京都市左京区田中高原町25","latitude":35.03636932373047,"longitude":135.78659057617188,"category":"大学","description":"","image_url":""},{"id":8016,"title":"官有0番山崎家","architect":"中本尋之","year":2018.0,"address":"広島県呉市中央1-9-9","latitude":34.244083404541016,"longitude":132.55914306640625,"category":"カフェ/店舗","description":"ゲストハウスは閉業の模様","image_url":""},{"id":8017,"title":"二俣公民館 旧天竜市中央公民館","architect":"生田勉","year":1979.0,"address":"静岡県浜松市天竜区二俣町二俣184-32","latitude":34.86436080932617,"longitude":137.8178253173828,"category":"公民館・交流施設","description":"","image_url":""},{"id":8018,"title":"浜松市天竜体育館","architect":"生田勉","year":1972.0,"address":"静岡県浜松市天竜区二俣町二俣501","latitude":34.87216567993164,"longitude":137.8150177001953,"category":"体育館","description":"","image_url":""},{"id":8019,"title":"大阪万博 お祭り広場大屋根","architect":"丹下健三","year":1970.0,"address":"大阪府吹田市千里万博公園1-1","latitude":34.81082534790039,"longitude":135.53195190429688,"category":"オブジェ","description":"","image_url":""},{"id":8020,"title":"宝塚ボランティア支援センター","architect":"吉羽逸郎","year":2001.0,"address":"兵庫県宝塚市売布東の町12-7","latitude":34.81631088256836,"longitude":135.3645782470703,"category":"福祉センター","description":"","image_url":""},{"id":8021,"title":"池上曽根弥生学習館","architect":"吉羽逸郎","year":1999.0,"address":"大阪府泉大津市千原町2-12-45","latitude":34.50520706176758,"longitude":135.42799377441406,"category":"図書館","description":"","image_url":""},{"id":8022,"title":"池上曽根弥生情報館","architect":"吉羽逸郎","year":1996.0,"address":"大阪府和泉市池上町4-14","latitude":34.5014533996582,"longitude":135.4279327392578,"category":"観光施設","description":"","image_url":""},{"id":8023,"title":"萩の休憩所","architect":"吉羽逸郎","year":1995.0,"address":"大阪府泉佐野市りんくう往来南7-1","latitude":34.40318298339844,"longitude":135.28981018066406,"category":"トイレ","description":"","image_url":""},{"id":8024,"title":"りんくう公園 総合休憩所・太鼓橋","architect":"遠藤剛生","year":1996.0,"address":"大阪府泉佐野市りんくう往来南","latitude":34.41252136230469,"longitude":135.2952117919922,"category":"公園/観光施設","description":"","image_url":""},{"id":8025,"title":"りんくう公園 公園管理事務所","architect":"遠藤剛生","year":1996.0,"address":"大阪府泉佐野市りんくう往来北1-271","latitude":34.41315460205078,"longitude":135.29678344726562,"category":"公園/公共施設","description":"","image_url":""},{"id":8026,"title":"りんくう公園 トイレ","architect":"遠藤剛生","year":1996.0,"address":"大阪府泉佐野市りんくう往来南","latitude":34.41123580932617,"longitude":135.29443359375,"category":"トイレ","description":"","image_url":""},{"id":8027,"title":"八戸まちなか広場 マチニワ","architect":"INA新建築研究所","year":2018.0,"address":"青森県八戸市三日町21-1","latitude":40.509544372558594,"longitude":141.49118041992188,"category":"公園/公民館・交流施設","description":"","image_url":""},{"id":8028,"title":"キーエンス・リード・エレクトリック キーエンス高槻事務所","architect":"遠藤剛生","year":1984.0,"address":"大阪府高槻市明田町2-13","latitude":34.84889602661133,"longitude":135.61351013183594,"category":"オフィスビル","description":"","image_url":""},{"id":8029,"title":"京阪カントリー倶楽部","architect":"遠藤剛生","year":1990.0,"address":"滋賀県大津市大石曽束町525","latitude":34.89434814453125,"longitude":135.88204956054688,"category":"クラブハウス","description":"","image_url":""},{"id":8030,"title":"兜台保育園","architect":"遠藤剛生","year":1994.0,"address":"京都府木津川市兜台5-1-7","latitude":34.7286262512207,"longitude":135.7841033935547,"category":"幼稚園","description":"","image_url":""},{"id":8031,"title":"兜谷集会所","architect":"遠藤剛生","year":1994.0,"address":"京都府木津川市兜台6-5-1","latitude":34.72967529296875,"longitude":135.78811645507812,"category":"公民館・交流施設","description":"","image_url":""},{"id":8032,"title":"塩瀬中央公園","architect":"遠藤剛生","year":1994.0,"address":"兵庫県西宮市東山台5","latitude":34.831233978271484,"longitude":135.3087615966797,"category":"公園","description":"","image_url":""},{"id":8033,"title":"豊中市立服部図書館・老人福祉施設","architect":"遠藤剛生","year":1998.0,"address":"大阪府豊中市服部本町5-2-8","latitude":34.769378662109375,"longitude":135.47735595703125,"category":"図書館/福祉センター","description":"","image_url":""},{"id":8034,"title":"箕面の橋 かやのさんぺい橋","architect":"遠藤剛生","year":2003.0,"address":"大阪府箕面市坊島4","latitude":34.83259201049805,"longitude":135.4886474609375,"category":"橋","description":"","image_url":""},{"id":8035,"title":"赤羽台保育園","architect":"遠藤剛生","year":2016.0,"address":"東京都北区赤羽台1-4-11-105","latitude":35.77751159667969,"longitude":139.71653747558594,"category":"幼稚園","description":"","image_url":""},{"id":8036,"title":"森ノ宮スカイガーデンハウス","architect":"遠藤剛生","year":1989.0,"address":"大阪府大阪市東成区中道1-4-2","latitude":34.681034088134766,"longitude":135.53707885742188,"category":"集合住宅","description":"","image_url":""},{"id":8037,"title":"六甲アイランドCITY イーストコート5番街","architect":"遠藤剛生","year":1990.0,"address":"兵庫県神戸市東灘区向洋町中1","latitude":34.6927490234375,"longitude":135.27418518066406,"category":"集合住宅","description":"","image_url":""},{"id":8038,"title":"シェラビア西宮名塩","architect":"遠藤剛生","year":1996.0,"address":"兵庫県西宮市東山台1-4","latitude":34.82881546020508,"longitude":135.3140411376953,"category":"集合住宅","description":"","image_url":""},{"id":8039,"title":"ローレルスクエア豊中緑丘","architect":"遠藤剛生","year":2000.0,"address":"大阪府豊中市緑丘3-11","latitude":34.8143196105957,"longitude":135.48666381835938,"category":"集合住宅","description":"","image_url":""},{"id":8040,"title":"リーセントヒルズ","architect":"遠藤剛生","year":2000.0,"address":"千葉県八千代市緑が丘1-1106","latitude":35.728153228759766,"longitude":140.07545471191406,"category":"集合住宅","description":"","image_url":""},{"id":8041,"title":"ピアフォーレ千里","architect":"遠藤剛生","year":2002.0,"address":"大阪府豊中市上新田4-30","latitude":34.79948806762695,"longitude":135.50112915039062,"category":"集合住宅","description":"","image_url":""},{"id":8042,"title":"ルネシーズンズ千里の丘","architect":"遠藤剛生","year":2003.0,"address":"大阪府吹田市千里丘上36","latitude":34.79863739013672,"longitude":135.54891967773438,"category":"集合住宅","description":"","image_url":""},{"id":8043,"title":"南三陸町入谷桜沢地区公営住宅","architect":"遠藤剛生+UR都市機構","year":2014.0,"address":"宮城県本吉郡南三陸町入谷桜沢43","latitude":38.69392776489258,"longitude":141.41783142089844,"category":"集合住宅","description":"","image_url":""},{"id":8044,"title":"デリス横浜ビル","architect":"隈研吾","year":2018.0,"address":"神奈川県横浜市神奈川区鶴屋町1-7-1","latitude":35.46927261352539,"longitude":139.62428283691406,"category":"テナントビル","description":"","image_url":""},{"id":8045,"title":"多賀町中央公民館 多賀結いの森","architect":"o+h","year":2019.0,"address":"滋賀県犬上郡多賀町久徳160-1","latitude":35.22947311401367,"longitude":136.2962646484375,"category":"公民館・交流施設","description":"2019年4月開館。","image_url":""},{"id":8046,"title":"日本大学 生産工学部 図書館","architect":"大高正人","year":1973.0,"address":"千葉県習志野市泉町1-2-1","latitude":35.69206237792969,"longitude":140.05032348632812,"category":"大学/図書館","description":"","image_url":""},{"id":8047,"title":"鳴門勤労者体育センター","architect":"増田友也","year":1961.0,"address":"徳島県鳴門市撫養町大桑島濘岩浜35-8","latitude":34.18520736694336,"longitude":134.6138458251953,"category":"体育館","description":"","image_url":""},{"id":8048,"title":"栃木県労働者福祉センター","architect":"大高正人","year":1971.0,"address":"栃木県宇都宮市中戸祭町821","latitude":36.57655334472656,"longitude":139.87152099609375,"category":"組合施設/福祉センター","description":"","image_url":""},{"id":8049,"title":"栃木県開発センタービル","architect":"大高正人","year":1971.0,"address":"栃木県宇都宮市栄町1-15","latitude":36.56372833251953,"longitude":139.88963317871094,"category":"公共施設","description":"2022年末解体","image_url":""},{"id":8050,"title":"まるがやつ 蔵","architect":"中村好文","year":2017.0,"address":"千葉県夷隅郡大多喜町下大多喜1530","latitude":35.30709457397461,"longitude":140.26040649414062,"category":"ホテル","description":"","image_url":""}]}