{"page":78,"total_pages":290,"items_per_page":50,"total_items":14467,"items":[{"id":3851,"title":"華都飯店 本町ガーデンシティ店","architect":"隈研吾","year":2010.0,"address":"大阪府大阪市中央区本町3-6-4","latitude":34.683319091796875,"longitude":135.5011444091797,"category":"レストラン","description":"インテリアのみ","image_url":""},{"id":3852,"title":"あべのハルカス","architect":"竹中工務店+シーザー・ペリ","year":2014.0,"address":"大阪府大阪市阿倍野区阿倍野筋1-1-43","latitude":34.64594650268555,"longitude":135.51426696777344,"category":"オフィスビル/ホテル/複合ビル","description":"外装デザイン：シーザー・ペリ","image_url":""},{"id":3853,"title":"えんがわオフィス","architect":"伊藤暁+坂東幸輔+須磨一清","year":2013.0,"address":"徳島県名西郡神山町神領字北88-4","latitude":33.967647552490234,"longitude":134.3471221923828,"category":"低層オフィス","description":"","image_url":""},{"id":3854,"title":"神山バレー・サテライトオフィス・コンプレックス","architect":"伊藤暁+坂東幸輔+須磨一清","year":2013.0,"address":"徳島県名西郡神山町下分字地野49-1 ","latitude":33.96915054321289,"longitude":134.33807373046875,"category":"低層オフィス","description":"","image_url":""},{"id":3855,"title":"BWT あすとぴあ工場","architect":"シーラカンスアンドアソシエイツ","year":2013.0,"address":"山口県宇部市あすとぴあ2-1-1","latitude":33.984317779541016,"longitude":131.29698181152344,"category":"工場","description":"","image_url":""},{"id":3856,"title":"観水庭こぜにや","architect":"山本浩三","year":1999.0,"address":"鳥取県鳥取市永楽温泉町651","latitude":35.492652893066406,"longitude":134.23220825195312,"category":"旅館","description":"","image_url":""},{"id":3857,"title":"高原の宿 氷太くん","architect":"山本浩三","year":1999.0,"address":"鳥取県八頭郡若桜町つく米635-13","latitude":35.35890579223633,"longitude":134.4892120361328,"category":"ホテル","description":"","image_url":""},{"id":3858,"title":"因幡万葉歴史館","architect":"山本浩三","year":1994.0,"address":"鳥取県鳥取市国府町町屋726","latitude":35.47277069091797,"longitude":134.2747344970703,"category":"博物館","description":"","image_url":""},{"id":3859,"title":"河口湖美術館","architect":"坂倉アトリエ","year":1990.0,"address":"山梨県南都留郡富士河口湖町河口3170","latitude":35.519309997558594,"longitude":138.7706298828125,"category":"美術館","description":"","image_url":""},{"id":3860,"title":"柏の葉オープンイノベーションラボ KOIL","architect":"成瀬・猪熊建築設計事務所","year":2014.0,"address":"千葉県柏市若柴175","latitude":35.894710540771484,"longitude":139.95193481445312,"category":"シェアオフィス","description":"","image_url":""},{"id":3861,"title":"玉峰館","architect":"内田繁","year":2013.0,"address":"静岡県賀茂郡河津町峰440","latitude":34.756919860839844,"longitude":138.98275756835938,"category":"旅館","description":"","image_url":""},{"id":3862,"title":"ホテルマリノアリゾート福岡 旧エバーグリーン マリノアホテル","architect":"坂倉建築研究所","year":2002.0,"address":"福岡県福岡市西区小戸2-12-43","latitude":33.59540939331055,"longitude":130.3220672607422,"category":"ホテル","description":"","image_url":""},{"id":3863,"title":"天草 天空の船","architect":"三澤浩之","year":2013.0,"address":"熊本県上天草市松島町合津5984-2","latitude":32.52216720581055,"longitude":130.420166015625,"category":"ホテル","description":"","image_url":""},{"id":3864,"title":"古湯温泉おんくり","architect":"濱川秀樹","year":2012.0,"address":"佐賀県佐賀市富士町大字古湯556","latitude":33.368690490722656,"longitude":130.20391845703125,"category":"旅館","description":"","image_url":""},{"id":3865,"title":"アゴーラ福岡山の上ホテル&スパ","architect":"濱川秀樹","year":2013.0,"address":"福岡県福岡市中央区輝国1-1-33","latitude":33.57276916503906,"longitude":130.38272094726562,"category":"ホテル","description":"","image_url":""},{"id":3866,"title":"秋篠の森 Hotelノワ・ラスール","architect":"中村好文","year":2004.0,"address":"奈良県奈良市中山町1534","latitude":34.711177825927734,"longitude":135.7740936279297,"category":"ホテル/レストラン/結婚式場","description":"","image_url":""},{"id":3867,"title":"アルカナ イズ","architect":"グラフ・デコラティブ・モード・ナンバースリー","year":2008.0,"address":"静岡県伊豆市湯ヶ島1662","latitude":34.8914909362793,"longitude":138.92347717285156,"category":"ホテル","description":"","image_url":""},{"id":3868,"title":"カフェ・フランドル","architect":"中村好文","year":2001.0,"address":"岐阜県不破郡垂井町岩手767","latitude":35.38002014160156,"longitude":136.50428771972656,"category":"カフェ","description":"","image_url":""},{"id":3869,"title":"レストラン ルスティク","architect":"中村好文","year":null,"address":"京都府京田辺市興戸宮ノ前80","latitude":34.80830001831055,"longitude":135.76913452148438,"category":"レストラン","description":"","image_url":""},{"id":3870,"title":"イタリア料理みたに","architect":"中村好文","year":null,"address":"長野県松本市白板1-2-11","latitude":36.234580993652344,"longitude":137.96060180664062,"category":"レストラン","description":"","image_url":""},{"id":3871,"title":"SEADAYS","architect":"西田司","year":2014.0,"address":"千葉県館山市北条2307-52","latitude":34.997589111328125,"longitude":139.85897827148438,"category":"カフェ/スポーツ施設","description":"","image_url":""},{"id":3872,"title":"SHARE yaraicho","architect":"篠原聡子+内村綾乃","year":2012.0,"address":"東京都新宿区矢来町29","latitude":35.70370864868164,"longitude":139.7303466796875,"category":"集合住宅","description":"シェアハウス。2014年日本建築学会 作品賞。","image_url":""},{"id":3873,"title":"明治安田生命新東陽町ビル","architect":"竹中工務店","year":2011.0,"address":"東京都江東区東陽2-2-11","latitude":35.66794204711914,"longitude":139.81500244140625,"category":"オフィスビル","description":"","image_url":""},{"id":3874,"title":"NBF大崎ビル 旧ソニーシティ大崎","architect":"日建設計","year":2011.0,"address":"東京都品川区大崎2-10-1","latitude":35.61745071411133,"longitude":139.7283172607422,"category":"オフィスビル","description":"日本建築学会 作品賞受賞者名：山梨知彦、羽鳥達也、石原嘉人、川島範久","image_url":""},{"id":3875,"title":"長岡造形大学 展示館 MaRouの杜","architect":"山下秀之","year":2013.0,"address":"新潟県長岡市千秋4-197","latitude":37.467063903808594,"longitude":138.83287048339844,"category":"大学/美術館","description":"","image_url":""},{"id":3876,"title":"昭和学院 伊藤記念ホール","architect":"日建設計","year":2009.0,"address":"千葉県市川市東菅野2-17-1","latitude":35.734352111816406,"longitude":139.93020629882812,"category":"大学/ホール・劇場","description":"","image_url":""},{"id":3877,"title":"対馬市交流センター","architect":"日建設計","year":2006.0,"address":"長崎県対馬市厳原町今屋敷661-1","latitude":34.20407485961914,"longitude":129.28909301757812,"category":"総合文化施設","description":"","image_url":""},{"id":3878,"title":"秋田拠点センター ALVE","architect":"日建設計","year":2004.0,"address":"秋田県秋田市中通7-1-3","latitude":39.715511322021484,"longitude":140.12893676757812,"category":"総合文化施設","description":"","image_url":""},{"id":3879,"title":"麻生塾 福岡キャンパス8号館 ASO SKY CUBE","architect":"日建設計","year":2008.0,"address":"福岡市博多区博多駅南2-12-32","latitude":33.5834846496582,"longitude":130.42115783691406,"category":"学校","description":"","image_url":""},{"id":3880,"title":"黄檗山萬福寺第二文華殿","architect":"竹中工務店","year":2012.0,"address":"京都府宇治市五ケ庄三番割34","latitude":34.91337585449219,"longitude":135.80609130859375,"category":"博物館/寺院","description":"","image_url":""},{"id":3881,"title":"ルネッサながと","architect":"山下設計","year":1999.0,"address":"山口県長門市仙崎818-1","latitude":34.3782958984375,"longitude":131.19680786132812,"category":"ホール・劇場/体育館","description":"","image_url":""},{"id":3882,"title":"尾張一宮駅前ビル","architect":"山下設計","year":2012.0,"address":"愛知県一宮市栄3-1-2","latitude":35.30281066894531,"longitude":136.79750061035156,"category":"オフィスビル/テナントビル/公共施設","description":"","image_url":""},{"id":3883,"title":"こども未来館ここにこ","architect":"山下設計","year":2008.0,"address":"愛知県豊橋市松葉町3-1","latitude":34.76871871948242,"longitude":137.38385009765625,"category":"児童施設","description":"","image_url":""},{"id":3884,"title":"吉見町民会館 フレサよしみ","architect":"山下設計","year":2005.0,"address":"埼玉県比企郡吉見町中新井508","latitude":36.05198669433594,"longitude":139.4549102783203,"category":"ホール・劇場","description":"","image_url":""},{"id":3885,"title":"篠山市立中央図書館","architect":"山下設計","year":2002.0,"address":"兵庫県篠山市西吹88-1","latitude":35.06747055053711,"longitude":135.18215942382812,"category":"図書館","description":"","image_url":""},{"id":3886,"title":"江刺市生涯学習センター 江刺市立図書館","architect":"山下設計","year":2004.0,"address":"岩手県奥州市江刺区大通り1-8","latitude":39.19147872924805,"longitude":141.17361450195312,"category":"図書館","description":"","image_url":""},{"id":3887,"title":"野洲図書館 ほほえみ情報交流センター","architect":"山下設計","year":2002.0,"address":"滋賀県野洲市辻町410","latitude":35.07878875732422,"longitude":136.0430145263672,"category":"図書館","description":"","image_url":""},{"id":3888,"title":"東美濃ふれあいセンター","architect":"山下設計","year":2000.0,"address":"岐阜県中津川市茄子川1683-797","latitude":35.457618713378906,"longitude":137.46763610839844,"category":"ホール・劇場","description":"","image_url":""},{"id":3889,"title":"余目町文化創造館 響ホール","architect":"山下設計","year":1999.0,"address":"山形県東田川郡庄内町余目仲谷地280","latitude":38.84029769897461,"longitude":139.8980255126953,"category":"ホール・劇場","description":"","image_url":""},{"id":3890,"title":"くりはら交流プラザ エポカ21","architect":"山下設計","year":1999.0,"address":"宮城県栗原市志波姫新熊谷279-2","latitude":38.7484130859375,"longitude":141.07225036621094,"category":"ホテル/レストラン/温泉","description":"","image_url":""},{"id":3891,"title":"トロントロンドーム川南町文化ホール 図書館","architect":"山下設計","year":1999.0,"address":"宮崎県児湯郡川南町平田2386-3","latitude":32.191280364990234,"longitude":131.52862548828125,"category":"ホール・劇場","description":"","image_url":""},{"id":3892,"title":"美深町文化会館 COM100","architect":"山下設計","year":1998.0,"address":"北海道中川郡美深町西町22","latitude":44.48076629638672,"longitude":142.3404541015625,"category":"ホール・劇場","description":"","image_url":""},{"id":3893,"title":"中津川市鉱物博物館","architect":"山下設計","year":1997.0,"address":"岐阜県中津川市苗木639-15","latitude":35.54336166381836,"longitude":137.47691345214844,"category":"博物館","description":"","image_url":""},{"id":3894,"title":"筑紫野市歴史博物館ふるさと館ちくしの","architect":"山下設計","year":1997.0,"address":"福岡県筑紫野市二日市南1-9-1","latitude":33.490753173828125,"longitude":130.51922607421875,"category":"博物館","description":"","image_url":""},{"id":3895,"title":"長野大学 附属図書館","architect":"山下設計","year":1997.0,"address":"長野県上田市下之郷658-1","latitude":36.36915969848633,"longitude":138.22314453125,"category":"図書館/大学","description":"","image_url":""},{"id":3896,"title":"福岡市総合図書館","architect":"山下設計","year":1995.0,"address":"福岡県福岡市早良区百道浜3-7-1","latitude":33.59008026123047,"longitude":130.3509521484375,"category":"図書館","description":"","image_url":""},{"id":3897,"title":"春日市ふれあい文化センター","architect":"山下設計","year":1994.0,"address":"福岡県春日市大谷6-24","latitude":33.52769470214844,"longitude":130.45571899414062,"category":"ホール・劇場","description":"","image_url":""},{"id":3898,"title":"新川文化ホール","architect":"山下設計","year":1994.0,"address":"富山県魚津市宮津110","latitude":36.80451965332031,"longitude":137.40798950195312,"category":"ホール・劇場","description":"","image_url":""},{"id":3899,"title":"メディアパーク市川","architect":"山下設計","year":1994.0,"address":"千葉県市川市鬼高1-1-4","latitude":35.71528625488281,"longitude":139.9319610595703,"category":"図書館","description":"","image_url":""},{"id":3900,"title":"岩井市総合文化ホール","architect":"山下設計","year":1994.0,"address":"茨城県坂東市岩井5082","latitude":36.04173278808594,"longitude":139.88278198242188,"category":"ホール・劇場/図書館","description":"","image_url":""}]}