{"page":214,"total_pages":290,"items_per_page":50,"total_items":14467,"items":[{"id":10651,"title":"コケーシカ 憩写真館","architect":"中村好文+田辺雄之","year":2001.0,"address":"神奈川県鎌倉市長谷1-2-15","latitude":35.314361572265625,"longitude":139.540771484375,"category":"店舗","big_category":"商業施設","description":"中村好文設計の店舗住宅を田辺雄之設計により改修し、店舗の半分を写真館に。築約20年との記載から竣工年を2001年にしましたが正確にはわかりませんでした","image_url":"","tags":"Ver4.00(2021年9月)の追加建築","prefecture":"神奈川","contractor":"","structural_designer":"","landscape_designer":"","shinkenchiku_url":""},{"id":10652,"title":"gallery cobaco","architect":"柳瀬真澄","year":2018.0,"address":"福岡県朝倉市牛鶴109","latitude":33.4049186706543,"longitude":130.69268798828125,"category":"ギャラリー","big_category":"ミュージアム","description":"","image_url":"","tags":"Ver4.00(2021年9月)の追加建築","prefecture":"福岡","contractor":"","structural_designer":"","landscape_designer":"","shinkenchiku_url":""},{"id":10653,"title":"FFD Unit","architect":"大嶺亮","year":2018.0,"address":"沖縄県中頭郡北中城村字美崎112","latitude":26.30539894104004,"longitude":127.82074737548828,"category":"集合住宅","big_category":"住宅","description":"","image_url":"","tags":"Ver4.00(2021年9月)の追加建築","prefecture":"沖縄","contractor":"","structural_designer":"","landscape_designer":"","shinkenchiku_url":""},{"id":10654,"title":"秋月美術館","architect":"加藤史衛","year":2018.0,"address":"福岡県朝倉市秋月野鳥695-1","latitude":33.469482421875,"longitude":130.69334411621094,"category":"美術館","big_category":"ミュージアム","description":"","image_url":"","tags":"Ver4.00(2021年9月)の追加建築","prefecture":"福岡","contractor":"","structural_designer":"","landscape_designer":"","shinkenchiku_url":""},{"id":10655,"title":"新健康協会 万教帰一館","architect":"竹中工務店","year":2017.0,"address":"福岡県福岡市東区唐原6-7-1","latitude":33.67947769165039,"longitude":130.44473266601562,"category":"宗教施設","big_category":"宗教","description":"","image_url":"","tags":"Ver4.00(2021年9月)の追加建築","prefecture":"福岡","contractor":"竹中工務店","structural_designer":"","landscape_designer":"","shinkenchiku_url":""},{"id":10656,"title":"恩納村文化情報センター","architect":"名工企画設計","year":2014.0,"address":"沖縄県国頭郡恩納村仲泊1656-8","latitude":26.436452865600586,"longitude":127.7929458618164,"category":"図書館","big_category":"文化施設","description":"","image_url":"","tags":"Ver4.00(2021年9月)の追加建築","prefecture":"沖縄","contractor":"","structural_designer":"","landscape_designer":"","shinkenchiku_url":""},{"id":10657,"title":"万座毛周辺活性化施設","architect":"名工企画設計","year":2020.0,"address":"沖縄県国頭郡恩納村恩納2767","latitude":26.50416374206543,"longitude":127.8505630493164,"category":"観光施設","big_category":"レジャー施設","description":"","image_url":"","tags":"Ver4.00(2021年9月)の追加建築","prefecture":"沖縄","contractor":"","structural_designer":"","landscape_designer":"","shinkenchiku_url":""},{"id":10658,"title":"宮崎市青島地域総合センター","architect":"日建設計","year":2017.0,"address":"宮崎県宮崎市青島西2-1","latitude":31.80201530456543,"longitude":131.46205139160156,"category":"公民館・交流施設/公共施設","big_category":"公共施設,公共施設","description":"","image_url":"","tags":"Ver4.00(2021年9月)の追加建築","prefecture":"宮崎","contractor":"","structural_designer":"","landscape_designer":"","shinkenchiku_url":""},{"id":10659,"title":"金光酒造 蔵元販売所","architect":"中本尋之","year":2021.0,"address":"広島県東広島市黒瀬町乃美尾1364-2","latitude":34.33570861816406,"longitude":132.69183349609375,"category":"醸造所","big_category":"商業施設","description":"","image_url":"","tags":"Ver4.00(2021年9月)の追加建築","prefecture":"広島","contractor":"松原ハウジング","structural_designer":"","landscape_designer":"","shinkenchiku_url":""},{"id":10660,"title":"北大東村複合型福祉施設","architect":"伊東まこと","year":2015.0,"address":"沖縄県島尻郡北大東村中野207-2","latitude":25.944255828857422,"longitude":131.2987518310547,"category":"福祉センター","big_category":"医療施設","description":"","image_url":"","tags":"Ver4.00(2021年9月)の追加建築","prefecture":"沖縄","contractor":"","structural_designer":"","landscape_designer":"","shinkenchiku_url":""},{"id":10661,"title":"Riverside Asahibashi","architect":"伊東まこと","year":2007.0,"address":"沖縄県那覇市泉崎1-12-14","latitude":26.21287727355957,"longitude":127.67627716064453,"category":"集合住宅","big_category":"住宅","description":"","image_url":"","tags":"Ver4.00(2021年9月)の追加建築","prefecture":"沖縄","contractor":"東江建設","structural_designer":"","landscape_designer":"","shinkenchiku_url":""},{"id":10662,"title":"ホテル リゾネックス名護","architect":"伊東まこと","year":2011.0,"address":"沖縄県名護市山入端247-1","latitude":26.603506088256836,"longitude":127.9362564086914,"category":"ホテル","big_category":"宿泊","description":"","image_url":"","tags":"Ver4.00(2021年9月)の追加建築","prefecture":"沖縄","contractor":"屋部土建","structural_designer":"","landscape_designer":"","shinkenchiku_url":""},{"id":10663,"title":"熊本大学附属図書館 中央館","architect":"三上建築事務所","year":2013.0,"address":"熊本県熊本市中央区黒髪2-40-1","latitude":32.81497573852539,"longitude":130.7278594970703,"category":"大学/図書館","big_category":"教育,文化施設","description":"","image_url":"","tags":"Ver4.00(2021年9月)の追加建築","prefecture":"熊本","contractor":"","structural_designer":"","landscape_designer":"","shinkenchiku_url":""},{"id":10664,"title":"日立市立日高小学校","architect":"三上建築事務所","year":2020.0,"address":"茨城県日立市日高町2-12-1","latitude":36.63887405395508,"longitude":140.6826629638672,"category":"学校","big_category":"教育","description":"","image_url":"","tags":"Ver4.00(2021年9月)の追加建築","prefecture":"茨城","contractor":"","structural_designer":"","landscape_designer":"","shinkenchiku_url":""},{"id":10665,"title":"鉾田市立鉾田南小学校","architect":"三上建築事務所","year":2018.0,"address":"茨城県鉾田市烟田1059-1","latitude":36.155635833740234,"longitude":140.52786254882812,"category":"学校","big_category":"教育","description":"","image_url":"","tags":"Ver4.00(2021年9月)の追加建築","prefecture":"茨城","contractor":"","structural_designer":"","landscape_designer":"","shinkenchiku_url":""},{"id":10666,"title":"下妻市立下妻中学校","architect":"三上建築事務所","year":2018.0,"address":"茨城県下妻市長塚38-1","latitude":36.19047927856445,"longitude":139.945068359375,"category":"学校","big_category":"教育","description":"","image_url":"","tags":"Ver4.00(2021年9月)の追加建築","prefecture":"茨城","contractor":"","structural_designer":"","landscape_designer":"","shinkenchiku_url":""},{"id":10667,"title":"水戸市医師会看護専門学院","architect":"三上建築事務所","year":2017.0,"address":"茨城県水戸市河和田町107-2","latitude":36.36529541015625,"longitude":140.42601013183594,"category":"専門学校","big_category":"教育","description":"","image_url":"","tags":"Ver4.00(2021年9月)の追加建築","prefecture":"茨城","contractor":"","structural_designer":"","landscape_designer":"","shinkenchiku_url":""},{"id":10668,"title":"茨城県立取手第二高等学校","architect":"三上建築事務所","year":2016.0,"address":"茨城県取手市東2-5-1","latitude":35.891544342041016,"longitude":140.06866455078125,"category":"学校","big_category":"教育","description":"","image_url":"","tags":"Ver4.00(2021年9月)の追加建築","prefecture":"茨城","contractor":"","structural_designer":"","landscape_designer":"","shinkenchiku_url":""},{"id":10669,"title":"古賀市生涯学習センター リーパスプラザこが","architect":"久米設計","year":2016.0,"address":"福岡県古賀市中央2-13-1","latitude":33.73249053955078,"longitude":130.4708709716797,"category":"総合文化施設","big_category":"文化施設","description":"","image_url":"","tags":"Ver4.00(2021年9月)の追加建築","prefecture":"福岡","contractor":"","structural_designer":"","landscape_designer":"","shinkenchiku_url":""},{"id":10670,"title":"出光美術館 門司","architect":"岡田新一設計事務所","year":2016.0,"address":"福岡県北九州市門司区東港町2-3","latitude":33.948883056640625,"longitude":130.96531677246094,"category":"美術館","big_category":"ミュージアム","description":"","image_url":"","tags":"Ver4.00(2021年9月)の追加建築","prefecture":"福岡","contractor":"鹿島建設","structural_designer":"","landscape_designer":"","shinkenchiku_url":""},{"id":10671,"title":"熊本県民テレビ本社屋","architect":"三菱地所","year":2016.0,"address":"熊本県熊本市中央区大江2-1-18","latitude":32.80589294433594,"longitude":130.72601318359375,"category":"低層オフィス","big_category":"企業施設","description":"","image_url":"","tags":"Ver4.00(2021年9月)の追加建築","prefecture":"熊本","contractor":"大成建設","structural_designer":"","landscape_designer":"","shinkenchiku_url":""},{"id":10672,"title":"松山公園連携施設 クニンダテラス 歴史と未来をつなぐ丘","architect":"島田潤","year":2016.0,"address":"沖縄県那覇市久米2-30-6","latitude":26.218490600585938,"longitude":127.67537689208984,"category":"観光施設/カフェ/公園","big_category":"レジャー施設,商業施設,レジャー施設","description":"","image_url":"","tags":"Ver4.00(2021年9月)の追加建築","prefecture":"沖縄","contractor":"","structural_designer":"","landscape_designer":"","shinkenchiku_url":""},{"id":10673,"title":"九州大学 亭亭舎・皎皎舎","architect":"阪根宏彦","year":2015.0,"address":"福岡県福岡市西区元岡744","latitude":33.596153259277344,"longitude":130.22251892089844,"category":"大学/カフェ/店舗","big_category":"教育,商業施設,商業施設","description":"","image_url":"","tags":"Ver4.00(2021年9月)の追加建築","prefecture":"福岡","contractor":"","structural_designer":"","landscape_designer":"","shinkenchiku_url":""},{"id":10674,"title":"古賀ゴルフ・クラブ クラブハウス","architect":"日建設計","year":2015.0,"address":"福岡県古賀市鹿部1310-1","latitude":33.72543716430664,"longitude":130.45567321777344,"category":"クラブハウス","big_category":"レジャー施設","description":"","image_url":"","tags":"Ver4.00(2021年9月)の追加建築","prefecture":"福岡","contractor":"","structural_designer":"","landscape_designer":"","shinkenchiku_url":""},{"id":10675,"title":"沖縄セルラー本社ビル","architect":"日本設計+国建","year":2013.0,"address":"沖縄県那覇市松山1-2-1","latitude":26.216812133789062,"longitude":127.67916107177734,"category":"オフィスビル","big_category":"企業施設","description":"","image_url":"","tags":"Ver4.00(2021年9月)の追加建築","prefecture":"沖縄","contractor":"","structural_designer":"","landscape_designer":"","shinkenchiku_url":""},{"id":10676,"title":"九州工業大学 未来型インタラクティブ教育棟","architect":"鮎川透","year":2015.0,"address":"福岡県北九州市戸畑区仙水町1-1","latitude":33.89493942260742,"longitude":130.8407745361328,"category":"大学","big_category":"教育","description":"","image_url":"","tags":"Ver4.00(2021年9月)の追加建築","prefecture":"福岡","contractor":"","structural_designer":"","landscape_designer":"","shinkenchiku_url":""},{"id":10677,"title":"SOLA沖縄保健医療工学院","architect":"かみもり設計+サードパーティ","year":2015.0,"address":"沖縄県宜野湾市大山7-10-6","latitude":26.284791946411133,"longitude":127.74473571777344,"category":"専門学校","big_category":"教育","description":"","image_url":"","tags":"Ver4.00(2021年9月)の追加建築","prefecture":"沖縄","contractor":"","structural_designer":"","landscape_designer":"","shinkenchiku_url":""},{"id":10678,"title":"きりしまたけのここども園","architect":"鮎川透","year":2019.0,"address":"宮崎県都城市志比田町5654","latitude":31.744924545288086,"longitude":131.06109619140625,"category":"幼稚園","big_category":"教育","description":"","image_url":"","tags":"Ver4.00(2021年9月)の追加建築","prefecture":"宮崎","contractor":"下森建装","structural_designer":"","landscape_designer":"","shinkenchiku_url":""},{"id":10679,"title":"虹の森保育園","architect":"鮎川透","year":2020.0,"address":"福岡県福津市西福間2-19-16","latitude":33.76313781738281,"longitude":130.47413635253906,"category":"幼稚園","big_category":"教育","description":"","image_url":"","tags":"Ver4.00(2021年9月)の追加建築","prefecture":"福岡","contractor":"因建設","structural_designer":"","landscape_designer":"","shinkenchiku_url":""},{"id":10680,"title":"志賀公民館・老人いこいの家","architect":"鮎川透","year":2019.0,"address":"福岡市東区大字志賀島736-60","latitude":33.66289520263672,"longitude":130.31307983398438,"category":"公民館・交流施設/福祉センター","big_category":"公共施設,医療施設","description":"","image_url":"","tags":"Ver4.00(2021年9月)の追加建築","prefecture":"福岡","contractor":"千早建設株式会社","structural_designer":"","landscape_designer":"","shinkenchiku_url":""},{"id":10681,"title":"百道公民館・老人いこいの家 百道小学校講堂兼体育館","architect":"鮎川透","year":2018.0,"address":"福岡県福岡市早良区百道3-1-2","latitude":33.584617614746094,"longitude":130.3479461669922,"category":"公民館・交流施設/学校/体育館","big_category":"公共施設,教育,レジャー施設","description":"","image_url":"","tags":"Ver4.00(2021年9月)の追加建築","prefecture":"福岡","contractor":"サンコー・北洋建設共同企業体","structural_designer":"","landscape_designer":"","shinkenchiku_url":""},{"id":10682,"title":"福岡県司法書士会館","architect":"鮎川透","year":2017.0,"address":"福岡県福岡市中央区舞鶴3-2-23","latitude":33.5902099609375,"longitude":130.3874053955078,"category":"組合施設","big_category":"公共施設","description":"","image_url":"","tags":"Ver4.00(2021年9月)の追加建築","prefecture":"福岡","contractor":"鴻池組","structural_designer":"","landscape_designer":"","shinkenchiku_url":""},{"id":10683,"title":"久山町立けやきの森幼稚園","architect":"鮎川透","year":2017.0,"address":"福岡県糟屋郡久山町山田510","latitude":33.66048812866211,"longitude":130.49697875976562,"category":"幼稚園","big_category":"教育","description":"","image_url":"","tags":"Ver4.00(2021年9月)の追加建築","prefecture":"福岡","contractor":"香椎・パワーハウス特定建設工事共同企業体","structural_designer":"","landscape_designer":"","shinkenchiku_url":""},{"id":10684,"title":"今津公民館・老人いこいの家","architect":"鮎川透","year":2017.0,"address":"福岡県福岡市西区今津2131-3","latitude":33.60760498046875,"longitude":130.25389099121094,"category":"公民館・交流施設/福祉センター","big_category":"公共施設,医療施設","description":"","image_url":"","tags":"Ver4.00(2021年9月)の追加建築","prefecture":"福岡","contractor":"博栄建設","structural_designer":"","landscape_designer":"","shinkenchiku_url":""},{"id":10685,"title":"玄洋公民館・老人いこいの家","architect":"鮎川透","year":2016.0,"address":"福岡県福岡市西区横浜1-2","latitude":33.58506393432617,"longitude":130.2683563232422,"category":"公民館・交流施設/福祉センター","big_category":"公共施設,医療施設","description":"","image_url":"","tags":"Ver4.00(2021年9月)の追加建築","prefecture":"福岡","contractor":"東部産業","structural_designer":"","landscape_designer":"","shinkenchiku_url":""},{"id":10686,"title":"ゆずの木クリニック","architect":"鮎川透","year":2016.0,"address":"大分県由布市湯布院町川上879-5102","latitude":33.26553726196289,"longitude":131.3638153076172,"category":"個人医院","big_category":"医療施設","description":"","image_url":"","tags":"Ver4.00(2021年9月)の追加建築","prefecture":"大分","contractor":"佐伯建設","structural_designer":"","landscape_designer":"","shinkenchiku_url":""},{"id":10687,"title":"九州工業大学 ラーニングアゴラ棟","architect":"鮎川透","year":2014.0,"address":"福岡県飯塚市川津680-4","latitude":33.65449142456055,"longitude":130.67291259765625,"category":"大学","big_category":"教育","description":"","image_url":"","tags":"Ver4.00(2021年9月)の追加建築","prefecture":"福岡","contractor":"拓進建設","structural_designer":"","landscape_designer":"","shinkenchiku_url":""},{"id":10688,"title":"福岡市立特別支援学校 博多高等学園","architect":"鮎川透","year":2013.0,"address":"福岡県福岡市博多区下呉服町10-40","latitude":33.60274887084961,"longitude":130.40818786621094,"category":"学校","big_category":"教育","description":"","image_url":"","tags":"Ver4.00(2021年9月)の追加建築","prefecture":"福岡","contractor":"北洋・サンコービルド・内藤建設工事共同企業体","structural_designer":"","landscape_designer":"","shinkenchiku_url":""},{"id":10689,"title":"小値賀小中学校","architect":"鮎川透","year":2013.0,"address":"長崎県北松浦郡小値賀町中村郷71-2","latitude":33.200008392333984,"longitude":129.0601043701172,"category":"学校","big_category":"教育","description":"","image_url":"","tags":"Ver4.00(2021年9月)の追加建築","prefecture":"長崎","contractor":"上滝・みなと建設共同企業体","structural_designer":"","landscape_designer":"","shinkenchiku_url":""},{"id":10690,"title":"山鹿さくら湯","architect":"鮎川透","year":2012.0,"address":"熊本県山鹿市山鹿1-1","latitude":33.01444625854492,"longitude":130.68893432617188,"category":"温泉","big_category":"宿泊","description":"","image_url":"","tags":"Ver4.00(2021年9月)の追加建築","prefecture":"熊本","contractor":"野中・福山・大栄・牧野・井上建設工事共同企業体","structural_designer":"","landscape_designer":"","shinkenchiku_url":""},{"id":10691,"title":"照葉公民館","architect":"鮎川透","year":2010.0,"address":"福岡県福岡市東区香椎照葉2-2-12","latitude":33.66753005981445,"longitude":130.42384338378906,"category":"公民館・交流施設","big_category":"公共施設","description":"","image_url":"","tags":"Ver4.00(2021年9月)の追加建築","prefecture":"福岡","contractor":"松本工務店","structural_designer":"","landscape_designer":"","shinkenchiku_url":""},{"id":10692,"title":"博多町家ふるさと館","architect":"鮎川透","year":1995.0,"address":"福岡県福岡市博多区冷泉町6-10","latitude":33.59366989135742,"longitude":130.41148376464844,"category":"観光施設","big_category":"レジャー施設","description":"","image_url":"","tags":"Ver4.00(2021年9月)の追加建築","prefecture":"福岡","contractor":"高松組","structural_designer":"","landscape_designer":"","shinkenchiku_url":""},{"id":10693,"title":"ティア風と虹","architect":"鮎川透","year":2003.0,"address":"福岡県八女郡広川町新代1389-734","latitude":33.255794525146484,"longitude":130.5403289794922,"category":"レストラン","big_category":"商業施設","description":"","image_url":"","tags":"Ver4.00(2021年9月)の追加建築","prefecture":"福岡","contractor":"佐伯建設","structural_designer":"","landscape_designer":"","shinkenchiku_url":""},{"id":10694,"title":"クラシオン荒江","architect":"鮎川透","year":2007.0,"address":"福岡県福岡市早良区荒江3-18-13","latitude":33.56912612915039,"longitude":130.35308837890625,"category":"集合住宅","big_category":"住宅","description":"","image_url":"","tags":"Ver4.00(2021年9月)の追加建築","prefecture":"福岡","contractor":"安藤・上村・法城・電友社・山本設備特定建設工事共同企業体","structural_designer":"","landscape_designer":"","shinkenchiku_url":""},{"id":10695,"title":"ユメニティのおがた","architect":"鮎川透","year":2001.0,"address":"福岡県直方市山部364-4","latitude":33.75044631958008,"longitude":130.7230987548828,"category":"総合文化施設","big_category":"文化施設","description":"","image_url":"","tags":"Ver4.00(2021年9月)の追加建築","prefecture":"福岡","contractor":"丸龍産業・九電工・上田工務店","structural_designer":"","landscape_designer":"","shinkenchiku_url":""},{"id":10696,"title":"宗像市営平野団地","architect":"鮎川透","year":1999.0,"address":"福岡県宗像市三倉24","latitude":33.8045654296875,"longitude":130.52963256835938,"category":"集合住宅","big_category":"住宅","description":"","image_url":"","tags":"Ver4.00(2021年9月)の追加建築","prefecture":"福岡","contractor":"占部建設","structural_designer":"","landscape_designer":"","shinkenchiku_url":""},{"id":10697,"title":"エナツ本社","architect":"鮎川透","year":1990.0,"address":"宮崎県都城市大王町9-14","latitude":31.72964859008789,"longitude":131.06365966796875,"category":"低層オフィス/工場","big_category":"企業施設,企業施設","description":"","image_url":"","tags":"Ver4.00(2021年9月)の追加建築","prefecture":"宮崎","contractor":"松元工業","structural_designer":"","landscape_designer":"","shinkenchiku_url":""},{"id":10698,"title":"ナフコ宗像センター","architect":"鮎川透","year":1996.0,"address":"福岡県宗像市アスティ1-3","latitude":33.795101165771484,"longitude":130.6086883544922,"category":"企業施設/低層オフィス","big_category":"企業施設,企業施設","description":"","image_url":"","tags":"Ver4.00(2021年9月)の追加建築","prefecture":"福岡","contractor":"高藤建設","structural_designer":"","landscape_designer":"","shinkenchiku_url":""},{"id":10699,"title":"福岡共同公文書館","architect":"山下設計","year":2011.0,"address":"福岡県筑紫野市上古賀1-3-1","latitude":33.486820220947266,"longitude":130.52017211914062,"category":"公共施設/図書館","big_category":"公共施設,文化施設","description":"","image_url":"","tags":"Ver4.00(2021年9月)の追加建築","prefecture":"福岡","contractor":"","structural_designer":"","landscape_designer":"","shinkenchiku_url":""},{"id":10700,"title":"みずき内科クリニック","architect":"山田浩史","year":2012.0,"address":"福岡県田川市糒1700-338","latitude":33.65960693359375,"longitude":130.80075073242188,"category":"個人医院","big_category":"医療施設","description":"","image_url":"","tags":"Ver4.00(2021年9月)の追加建築","prefecture":"福岡","contractor":"","structural_designer":"","landscape_designer":"","shinkenchiku_url":""}]}