{"page":216,"total_pages":290,"items_per_page":50,"total_items":14467,"items":[{"id":10751,"title":"如月庵 逢春庭","architect":"重森三玲","year":1969.0,"address":"兵庫県丹波篠山市北新町124-1","latitude":35.07550811767578,"longitude":135.22003173828125,"category":"庭園","description":"ぼたん鍋処 如月庵の庭園","image_url":""},{"id":10752,"title":"大正寺庭園 ","architect":"重森三玲","year":1972.0,"address":"福岡県北九州市八幡東区東台良町19-1","latitude":33.858543395996094,"longitude":130.7942657470703,"category":"庭園","description":"通常非公開","image_url":""},{"id":10753,"title":"日比谷公園前交番","architect":"横河健","year":1986.0,"address":"東京都千代田区日比谷公園1-1","latitude":35.6749267578125,"longitude":139.75912475585938,"category":"警察・消防署","description":"","image_url":""},{"id":10754,"title":"四谷見附交番","architect":"中山繁信","year":1986.0,"address":"東京都新宿区四谷1-1","latitude":35.685482025146484,"longitude":139.7296905517578,"category":"警察・消防署","description":"","image_url":""},{"id":10755,"title":"光の交番 新橋駅前交番","architect":"横河健","year":1990.0,"address":"東京都港区新橋2-16-2","latitude":35.666778564453125,"longitude":139.7576904296875,"category":"警察・消防署","description":"","image_url":""},{"id":10756,"title":"晴海埠頭警備派出所","architect":"竹山実","year":1991.0,"address":"東京都中央区晴海5-6-20","latitude":35.6481819152832,"longitude":139.77447509765625,"category":"警察・消防署","description":"まだ現存しているものの、隣の晴海埠頭ターミナルとあわせて閉鎖中","image_url":""},{"id":10757,"title":"池袋二又交番","architect":"林賢次郎","year":1992.0,"address":"東京都豊島区西池袋5-1-11","latitude":35.73164749145508,"longitude":139.70684814453125,"category":"警察・消防署","description":"","image_url":""},{"id":10758,"title":"桜田門警備派出所","architect":"日建設計","year":1993.0,"address":"東京都千代田区皇居外苑1-1","latitude":35.6778450012207,"longitude":139.7537384033203,"category":"警察・消防署","description":"","image_url":""},{"id":10759,"title":"愛光学園 新校舎","architect":"大成建設","year":2021.0,"address":"愛媛県松山市衣山5-1610-1","latitude":33.84397506713867,"longitude":132.73605346679688,"category":"学校","description":"","image_url":""},{"id":10760,"title":"神戸ポートミュージアム アトア","architect":"大成建設","year":2021.0,"address":"兵庫県神戸市中央区新港町7-2","latitude":34.6832275390625,"longitude":135.19361877441406,"category":"水族館","description":"2021年10月29日オープン予定。アートと水族館を融合させた施設","image_url":""},{"id":10761,"title":"品川区立障害児者総合支援施設 ぐるっぽ","architect":"乾久美子","year":2019.0,"address":"東京都品川区南品川3-7-7","latitude":35.607303619384766,"longitude":139.74510192871094,"category":"福祉センター/養護施設","description":"","image_url":""},{"id":10762,"title":"FRAGMENTS Ⅰ フラグメント・ビル","architect":"板屋リョク","year":1988.0,"address":"東京都豊島区池袋2-53-10","latitude":35.7342414855957,"longitude":139.70921325683594,"category":"テナントビル","description":"","image_url":""},{"id":10763,"title":"伊豫豆比古命神社 椿神社儀式殿","architect":"根津耕一郎","year":1972.0,"address":"愛媛県松山市居相2-2-1","latitude":33.80990219116211,"longitude":132.770751953125,"category":"寺院","description":"","image_url":""},{"id":10764,"title":"東雲神社 社務所","architect":"根津耕一郎","year":1972.0,"address":"愛媛県松山市丸之内73-1","latitude":33.84482192993164,"longitude":132.77127075195312,"category":"寺院","description":"","image_url":""},{"id":10765,"title":"山梨県民信用組合 塩山支店","architect":"内藤多仲","year":1970.0,"address":"山梨県甲州市塩山下於曽542","latitude":35.703670501708984,"longitude":138.73193359375,"category":"金融機関","description":"","image_url":""},{"id":10766,"title":"桜井市立図書館","architect":"東畑建築事務所","year":1999.0,"address":"奈良県桜井市河西31","latitude":34.506690979003906,"longitude":135.8518524169922,"category":"図書館","description":"","image_url":""},{"id":10767,"title":"道の駅 宇陀路室生","architect":"井上武吉","year":1998.0,"address":"奈良県宇陀市室生三本松3176-1","latitude":34.57661437988281,"longitude":136.03440856933594,"category":"PA・道の駅","description":"","image_url":""},{"id":10768,"title":"白竜ドーム","architect":"竹中工務店","year":1992.0,"address":"広島県三原市大和町和木1026-3","latitude":34.504905700683594,"longitude":132.91905212402344,"category":"体育館","description":"","image_url":""},{"id":10769,"title":"枚方市総合文化芸術センター","architect":"日建設計","year":2021.0,"address":"大阪府枚方市新町2-1-60","latitude":34.81829833984375,"longitude":135.64694213867188,"category":"ホール・劇場","description":"","image_url":""},{"id":10770,"title":"A-POC ABLE ISSEY MIYAKE / KYOTO","architect":"吉岡徳仁","year":2021.0,"address":"京都府京都市中京区福長町106","latitude":35.009159088134766,"longitude":135.76492309570312,"category":"店舗/古民家","description":"古民家の改修","image_url":""},{"id":10771,"title":"ETHICUS theleema","architect":"田邊渉","year":2020.0,"address":"静岡県伊東市富戸1317-2904","latitude":34.91014099121094,"longitude":139.1112823486328,"category":"カフェ/ギャラリー","description":"","image_url":""},{"id":10772,"title":"屋久島高塚小屋 レモンガス赤津慎太郎小屋","architect":"坂茂","year":2013.0,"address":"鹿児島県熊毛郡屋久島町","latitude":30.360065460205078,"longitude":130.5301971435547,"category":"コテージ","description":"航空写真でも詳細な場所は分からず、GoogleMaps上のマーカーに従った","image_url":""},{"id":10773,"title":"MIROKU 奈良","architect":"芦沢啓治+佐野文彦","year":2021.0,"address":"奈良県奈良市高畑町1116-6","latitude":34.68071746826172,"longitude":135.8331756591797,"category":"ホテル","description":"4階ビルの改修。インテリア地上階を芦沢啓治、地下階を佐野文彦が担当","image_url":""},{"id":10774,"title":"このはなクリニック","architect":"太田健裕+窪田建設","year":2020.0,"address":"長野県伊那市上新田2426","latitude":35.82792663574219,"longitude":137.96511840820312,"category":"個人医院","description":"","image_url":""},{"id":10775,"title":"阪急神戸三宮駅前広場 さんきたアモーレ広場","architect":"津川恵理+パシフィックコンサルタンツ+小野寺康+KAP","year":2021.0,"address":"兵庫県神戸市中央区加納町4-2","latitude":34.69429397583008,"longitude":135.1935272216797,"category":"広場","description":"広場デザインコンセプト・設計監修：津川恵理","image_url":""},{"id":10776,"title":"早稲田大学 93号館 リサーチパーク・コミュニケーションセンター","architect":"山下設計","year":2004.0,"address":"埼玉県本庄市西富田1011","latitude":36.21783447265625,"longitude":139.1771697998047,"category":"大学/博物館","description":"","image_url":""},{"id":10777,"title":"早稲田大学 11号館","architect":"山下設計","year":2009.0,"address":"東京都新宿区西早稲田1-6","latitude":35.70899963378906,"longitude":139.71893310546875,"category":"大学","description":"","image_url":""},{"id":10778,"title":"早稲田大学 40号館","architect":"山下設計","year":2011.0,"address":"東京都新宿区早稲田町27-7","latitude":35.70560836791992,"longitude":139.72117614746094,"category":"大学","description":"","image_url":""},{"id":10779,"title":"道の駅しょうなん てんと","architect":"古谷誠章+桔川卓也","year":2021.0,"address":"千葉県柏市箕輪新田59-2","latitude":35.85768508911133,"longitude":140.02244567871094,"category":"PA・道の駅","description":"","image_url":""},{"id":10780,"title":"GOOD CYCLE BUILDING 001 淺沼組名古屋支店改修","architect":"川島範久+淺沼組","year":2021.0,"address":"愛知県名古屋市中村区名駅南3-3-44","latitude":35.16118621826172,"longitude":136.89151000976562,"category":"オフィスビル","description":"","image_url":""},{"id":10781,"title":"REVZO虎ノ門","architect":"川島範久+日本土地建物","year":2020.0,"address":"東京都港区西新橋1-8-1","latitude":35.66913986206055,"longitude":139.7522735595703,"category":"オフィスビル","description":"","image_url":""},{"id":10782,"title":"清水建設 北陸支店新社屋","architect":"清水建設","year":2021.0,"address":"石川県金沢市玉川町5-15","latitude":36.57075881958008,"longitude":136.6514129638672,"category":"低層オフィス","description":"","image_url":""},{"id":10783,"title":"道の駅たのはた 思惟の風","architect":"古谷誠章","year":2021.0,"address":"岩手県下閉伊郡田野畑村菅窪151-6","latitude":39.914310455322266,"longitude":141.9026641845703,"category":"PA・道の駅","description":"","image_url":""},{"id":10784,"title":"田野畑村 生きがいの館 思惟創館思惟創館","architect":"古谷誠章+雷設計事務所","year":2020.0,"address":"岩手県下閉伊郡田野畑村菅窪151-61","latitude":39.914794921875,"longitude":141.90267944335938,"category":"古民家/公共施設","description":"1930年竣工、元田野畑村長工藤精作氏の自邸を移築、改修","image_url":""},{"id":10785,"title":"同志社香里中学・高等学校 メディアセンター 繋真館","architect":"古谷誠章","year":2021.0,"address":"大阪府寝屋川市三井南町15-1","latitude":34.773216247558594,"longitude":135.63543701171875,"category":"学校","description":"","image_url":""},{"id":10786,"title":"鴨川市立国保病院","architect":"古谷誠章","year":2021.0,"address":"千葉県鴨川市宮山233","latitude":35.13056182861328,"longitude":140.0152130126953,"category":"病院","description":"","image_url":""},{"id":10787,"title":"実践学園中学・高等学校 共学館","architect":"古谷誠章","year":2021.0,"address":"東京都中野区東中野2-6-6","latitude":35.702354431152344,"longitude":139.68202209472656,"category":"学校","description":"","image_url":""},{"id":10788,"title":"土生公民館","architect":"シーラカンスアンドアソシエイツ","year":2021.0,"address":"広島県尾道市因島土生町宇和部区2574","latitude":34.28997802734375,"longitude":133.17735290527344,"category":"公民館・交流施設","description":"","image_url":""},{"id":10789,"title":"北上市保健・子育て支援複合施設 hoKko","architect":"UtA","year":2021.0,"address":"岩手県北上市新穀町1-4-1 ツインモールプラザ西館1F/2F","latitude":39.28851318359375,"longitude":141.1146240234375,"category":"児童施設/福祉センター","description":"","image_url":""},{"id":10790,"title":"BASE","architect":"UtA","year":2020.0,"address":"東京都台東区浅草橋3-12-6","latitude":35.70103454589844,"longitude":139.7851104736328,"category":"オフィスビル","description":"1964年竣工ビルの改修","image_url":""},{"id":10791,"title":"101BASE","architect":"能作淳平","year":2021.0,"address":"東京都中央区日本橋堀留町2-1-6","latitude":35.687801361083984,"longitude":139.7813262939453,"category":"オフィスビル","description":"","image_url":""},{"id":10792,"title":"ショウワノート高岡工場","architect":"能作淳平","year":2018.0,"address":"富山県高岡市佐野1404-3","latitude":36.72445297241211,"longitude":136.99781799316406,"category":"工場/低層オフィス","description":"","image_url":""},{"id":10793,"title":"AtomsWorldビルディング 山口電気工事新社屋","architect":"中村勉","year":2021.0,"address":"兵庫県尼崎市東七松町2-2-10","latitude":34.73531723022461,"longitude":135.41156005859375,"category":"低層オフィス","description":"","image_url":""},{"id":10794,"title":"キッコーマン中央研究所","architect":"日建設計+鹿島建設","year":2019.0,"address":"千葉県野田市野田338","latitude":35.94384002685547,"longitude":139.8651580810547,"category":"研究施設/低層オフィス","description":"","image_url":""},{"id":10795,"title":"サンスターコミュニケーションパーク","architect":"小林・槇デザインワークショップ+鹿島建設+アラップ","year":2021.0,"address":"大阪府高槻市明田町7-1","latitude":34.846004486083984,"longitude":135.6134033203125,"category":"低層オフィス/レストラン/企業施設","description":"","image_url":""},{"id":10796,"title":"山梨県立青洲高等学校","architect":"佐藤総合計画+雨宮建築設計事務所","year":2020.0,"address":"山梨県西八代郡市川三郷町市川大門1733-2","latitude":35.56576919555664,"longitude":138.50001525878906,"category":"学校","description":"","image_url":""},{"id":10797,"title":"三菱UFJ銀行荻窪支店","architect":"安藤忠雄","year":2010.0,"address":"東京都杉並区荻窪5-28-9","latitude":35.70404815673828,"longitude":139.62074279785156,"category":"金融機関","description":"","image_url":""},{"id":10798,"title":"三菱UFJ銀行広尾支店","architect":"槇文彦","year":1981.0,"address":"東京都港区南麻布4-1-1","latitude":35.650638580322266,"longitude":139.7226104736328,"category":"金融機関","description":"","image_url":""},{"id":10799,"title":"広島大学 福山通運小丸賑わいパビリオン","architect":"岡河貢+ヤマネホールディングス","year":2019.0,"address":"広島県東広島市鏡山1-2-1","latitude":34.403541564941406,"longitude":132.7137908935547,"category":"大学","description":"","image_url":""},{"id":10800,"title":"認知症高齢者グループホーム ここから","architect":"西村崇","year":2020.0,"address":"広島県府中市鵜飼町680-1","latitude":34.56821060180664,"longitude":133.25132751464844,"category":"養護施設","description":"","image_url":""}]}