{"page":68,"total_pages":290,"items_per_page":50,"total_items":14467,"items":[{"id":3351,"title":"小泉淳作美術館","architect":"高市忠夫","year":2001.0,"address":"北海道河西郡中札内村栄東5線172-1","latitude":42.67915344238281,"longitude":143.1591796875,"category":"美術館","big_category":"ミュージアム","description":"","image_url":"","tags":"","prefecture":"北海道","contractor":"","structural_designer":"","landscape_designer":"","shinkenchiku_url":""},{"id":3352,"title":"六花亭 鶴見橋店","architect":"高市忠夫","year":2002.0,"address":"北海道釧路市昭和2-20","latitude":43.0155143737793,"longitude":144.36854553222656,"category":"店舗/カフェ","big_category":"商業施設,商業施設","description":"","image_url":"","tags":"","prefecture":"北海道","contractor":"","structural_designer":"","landscape_designer":"","shinkenchiku_url":""},{"id":3353,"title":"六花亭 五稜郭店","architect":"高市忠夫","year":2003.0,"address":"北海道函館市五稜郭町27-6","latitude":41.79655456542969,"longitude":140.75328063964844,"category":"店舗/カフェ","big_category":"商業施設,商業施設","description":"","image_url":"","tags":"","prefecture":"北海道","contractor":"","structural_designer":"","landscape_designer":"","shinkenchiku_url":""},{"id":3354,"title":"六花亭ホールKyu 増築","architect":"高市忠夫","year":2005.0,"address":"北海道帯広市大通南5-17","latitude":42.9265022277832,"longitude":143.20433044433594,"category":"ホール・劇場","big_category":"文化施設","description":"","image_url":"","tags":"","prefecture":"北海道","contractor":"","structural_designer":"","landscape_designer":"","shinkenchiku_url":""},{"id":3355,"title":"六花亭 西帯店","architect":"高市忠夫","year":2006.0,"address":"北海道帯広市西22条南2-21-9 ‎","latitude":42.91741943359375,"longitude":143.13670349121094,"category":"店舗/カフェ","big_category":"商業施設,商業施設","description":"","image_url":"","tags":"","prefecture":"北海道","contractor":"","structural_designer":"","landscape_designer":"","shinkenchiku_url":""},{"id":3356,"title":"中札内パーペル 増築","architect":"高市忠夫","year":2007.0,"address":"北海道河西郡中札内村栄東5線386-1","latitude":42.67272186279297,"longitude":143.166748046875,"category":"カフェ","big_category":"商業施設","description":"","image_url":"","tags":"","prefecture":"北海道","contractor":"","structural_designer":"","landscape_designer":"","shinkenchiku_url":""},{"id":3357,"title":"カンパーナ六花亭店","architect":"高市忠夫","year":2010.0,"address":"北海道富良野市清水山 カンパーナ六花亭","latitude":43.364479064941406,"longitude":142.37733459472656,"category":"カフェ/店舗","big_category":"商業施設,商業施設","description":"ギャラリーを併設","image_url":"","tags":"","prefecture":"北海道","contractor":"","structural_designer":"","landscape_designer":"","shinkenchiku_url":""},{"id":3358,"title":"霊友会 釈迦殿","architect":"竹中工務店","year":1975.0,"address":"東京都港区麻布台1-7-8","latitude":35.6608772277832,"longitude":139.7425994873047,"category":"宗教施設","big_category":"宗教","description":"","image_url":"","tags":"","prefecture":"東京","contractor":"","structural_designer":"","landscape_designer":"","shinkenchiku_url":""},{"id":3359,"title":"南大阪教会 鐘塔","architect":"村野藤吾","year":1928.0,"address":"大阪府大阪市阿倍野区阪南町1-30-5","latitude":34.635589599609375,"longitude":135.51580810546875,"category":"教会","big_category":"宗教","description":"1928年に塔部分だけ渡辺節事務所時代に設計。その後全面改築。","image_url":"","tags":"","prefecture":"大阪","contractor":"","structural_designer":"","landscape_designer":"","shinkenchiku_url":""},{"id":3360,"title":"芦屋カトリック教会","architect":"長谷部鋭吉","year":1953.0,"address":"兵庫県芦屋市公光町5-15","latitude":34.729488372802734,"longitude":135.3035125732422,"category":"教会","big_category":"宗教","description":"","image_url":"","tags":"","prefecture":"兵庫","contractor":"","structural_designer":"","landscape_designer":"","shinkenchiku_url":""},{"id":3361,"title":"大阪カテドラル聖マリア大聖堂","architect":"長谷部鋭吉","year":1963.0,"address":"大阪府大阪市中央区玉造2-24-22","latitude":34.678810119628906,"longitude":135.5275421142578,"category":"教会","big_category":"宗教","description":"","image_url":"","tags":"","prefecture":"大阪","contractor":"","structural_designer":"","landscape_designer":"","shinkenchiku_url":""},{"id":3362,"title":"石見銀山旧跡 五百羅漢石窟","architect":"不明","year":1766.0,"address":"島根県大田市大森町イ804","latitude":35.11330032348633,"longitude":132.44618225097656,"category":"寺院","big_category":"宗教","description":"","image_url":"","tags":"","prefecture":"島根","contractor":"","structural_designer":"","landscape_designer":"","shinkenchiku_url":""},{"id":3363,"title":"生石神社 石の宝殿","architect":"不明","year":null,"address":"兵庫県高砂市阿弥陀町生石171","latitude":34.78233337402344,"longitude":134.7952423095703,"category":"寺院","big_category":"宗教","description":"","image_url":"","tags":"","prefecture":"兵庫","contractor":"","structural_designer":"","landscape_designer":"","shinkenchiku_url":""},{"id":3364,"title":"京都大学 坂記念館","architect":"増田友也","year":1960.0,"address":"京都府京都市左京区吉田本町36","latitude":35.028038024902344,"longitude":135.78379821777344,"category":"大学","big_category":"教育","description":"","image_url":"","tags":"","prefecture":"京都","contractor":"","structural_designer":"","landscape_designer":"","shinkenchiku_url":""},{"id":3365,"title":"京都大学 学術情報メディアセンター 北館","architect":"増田友也","year":1968.0,"address":"京都府京都市左京区吉田本町36","latitude":35.02811050415039,"longitude":135.7840576171875,"category":"大学","big_category":"教育","description":"","image_url":"","tags":"","prefecture":"京都","contractor":"","structural_designer":"","landscape_designer":"","shinkenchiku_url":""},{"id":3366,"title":"京都大学 工学部8号館","architect":"増田友也","year":1972.0,"address":"京都府京都市左京区吉田本町36","latitude":35.02653503417969,"longitude":135.78182983398438,"category":"大学","big_category":"教育","description":"","image_url":"","tags":"","prefecture":"京都","contractor":"","structural_designer":"","landscape_designer":"","shinkenchiku_url":""},{"id":3367,"title":"関西日仏学館 アンスティチュ・フランセ関西","architect":"レイモン・メストラレ+木子七郎","year":1936.0,"address":"京都府京都市左京区吉田泉殿町8","latitude":35.02622985839844,"longitude":135.77825927734375,"category":"学校","big_category":"教育","description":"","image_url":"","tags":"","prefecture":"京都","contractor":"","structural_designer":"","landscape_designer":"","shinkenchiku_url":""},{"id":3368,"title":"大阪医科大学歴史資料館 旧大阪高等医学専門学校 別館","architect":"ウィリアム・メレル・ヴォーリズ","year":1930.0,"address":"大阪府高槻市大学町2-7","latitude":34.851810455322266,"longitude":135.62542724609375,"category":"博物館","big_category":"ミュージアム","description":"","image_url":"","tags":"","prefecture":"大阪","contractor":"","structural_designer":"","landscape_designer":"","shinkenchiku_url":""},{"id":3369,"title":"関西大学 KUシンフォニーホール 旧特別講堂","architect":"村野藤吾","year":1962.0,"address":"大阪府吹田市山手町3-3-35","latitude":34.774879455566406,"longitude":135.5121612548828,"category":"大学","big_category":"教育","description":"","image_url":"","tags":"DOCOMOMO","prefecture":"大阪","contractor":"","structural_designer":"","landscape_designer":"","shinkenchiku_url":""},{"id":3370,"title":"関西大学 円神館 旧専門図書館","architect":"村野藤吾","year":1964.0,"address":"大阪府吹田市山手町3-3-35","latitude":34.77336120605469,"longitude":135.51080322265625,"category":"大学","big_category":"教育","description":"","image_url":"","tags":"DOCOMOMO","prefecture":"大阪","contractor":"","structural_designer":"","landscape_designer":"","shinkenchiku_url":""},{"id":3371,"title":"関西大学 簡文館 旧図書館","architect":"村野藤吾","year":1955.0,"address":"大阪府吹田市山手町3-3-35","latitude":34.775333404541016,"longitude":135.51060485839844,"category":"大学","big_category":"教育","description":"","image_url":"","tags":"DOCOMOMO","prefecture":"大阪","contractor":"","structural_designer":"","landscape_designer":"","shinkenchiku_url":""},{"id":3372,"title":"東海大学 渋谷キャンパス 2号館","architect":"山田守","year":1958.0,"address":"東京都渋谷区富ヶ谷2-28-4","latitude":35.664527893066406,"longitude":139.68455505371094,"category":"大学","big_category":"教育","description":"","image_url":"","tags":"","prefecture":"東京","contractor":"","structural_designer":"","landscape_designer":"","shinkenchiku_url":""},{"id":3373,"title":"東海大学 渋谷キャンパス 1号館","architect":"山田守","year":1955.0,"address":"東京都渋谷区富ヶ谷2-28-4","latitude":35.66431427001953,"longitude":139.68492126464844,"category":"大学","big_category":"教育","description":"","image_url":"","tags":"","prefecture":"東京","contractor":"","structural_designer":"","landscape_designer":"","shinkenchiku_url":""},{"id":3374,"title":"明治大学 和泉キャンパス 第四校舎","architect":"堀口捨己","year":1956.0,"address":"東京都杉並区永福1-9-1","latitude":35.67061996459961,"longitude":139.6468505859375,"category":"大学","big_category":"教育","description":"現B棟の事だと思われる","image_url":"","tags":"","prefecture":"東京","contractor":"","structural_designer":"","landscape_designer":"","shinkenchiku_url":""},{"id":3375,"title":"明治大学 和泉キャンパス 第二学生会館","architect":"堀口捨己","year":1960.0,"address":"東京都杉並区永福1-9-1","latitude":35.67044448852539,"longitude":139.64732360839844,"category":"大学","big_category":"教育","description":"","image_url":"","tags":"","prefecture":"東京","contractor":"","structural_designer":"","landscape_designer":"","shinkenchiku_url":""},{"id":3376,"title":"明治大学 和泉キャンパス 第二校舎","architect":"堀口捨己","year":1960.0,"address":"東京都杉並区永福1-9-1","latitude":35.66985321044922,"longitude":139.64767456054688,"category":"大学","big_category":"教育","description":"","image_url":"","tags":"DOCOMOMO","prefecture":"東京","contractor":"","structural_designer":"","landscape_designer":"","shinkenchiku_url":""},{"id":3377,"title":"京都大学文学研究科 ユーラシア文化研究センター 羽田記念館","architect":"増田友也","year":1966.0,"address":"京都府京都市北区大宮南田尻町13","latitude":35.057350158691406,"longitude":135.74803161621094,"category":"大学","big_category":"教育","description":"","image_url":"","tags":"","prefecture":"京都","contractor":"","structural_designer":"","landscape_designer":"","shinkenchiku_url":""},{"id":3378,"title":"京都工芸繊維大学 プラザKIT","architect":"角田暁治+山田由美","year":2007.0,"address":"京都府京都市左京区松ヶ崎橋上町1","latitude":35.05004119873047,"longitude":135.78292846679688,"category":"大学","big_category":"教育","description":"","image_url":"","tags":"","prefecture":"京都","contractor":"","structural_designer":"","landscape_designer":"","shinkenchiku_url":""},{"id":3379,"title":"円形劇場くらよしフィギュアミュージアム 旧明倫小学校校舎","architect":"坂本鹿名夫","year":1955.0,"address":"鳥取県倉吉市鍛冶町1-2971-2","latitude":35.42926788330078,"longitude":133.81524658203125,"category":"学校/博物館","big_category":"教育,ミュージアム","description":"博物館に","image_url":"","tags":"DOCOMOMO","prefecture":"鳥取","contractor":"","structural_designer":"","landscape_designer":"","shinkenchiku_url":""},{"id":3380,"title":"京都大学 工学部建築学教室本館","architect":"武田五一","year":1922.0,"address":"京都府京都市左京区吉田本町36","latitude":35.0279541015625,"longitude":135.7831573486328,"category":"大学","big_category":"教育","description":"","image_url":"","tags":"","prefecture":"京都","contractor":"","structural_designer":"","landscape_designer":"","shinkenchiku_url":""},{"id":3381,"title":"京都大学 基礎物理学研究所 湯川記念館","architect":"森田慶一","year":1952.0,"address":"京都府京都市左京区北白川西町 湯川記念館","latitude":35.0307502746582,"longitude":135.78582763671875,"category":"大学","big_category":"教育","description":"","image_url":"","tags":"","prefecture":"京都","contractor":"","structural_designer":"","landscape_designer":"","shinkenchiku_url":""},{"id":3382,"title":"京都大学 農学部 旧演習林本部事務室","architect":"大倉三郎+関原猛夫","year":1931.0,"address":"京都府京都市左京区北白川追分町 熱帯農学専攻","latitude":35.03126907348633,"longitude":135.78541564941406,"category":"大学","big_category":"教育","description":"","image_url":"","tags":"","prefecture":"京都","contractor":"","structural_designer":"","landscape_designer":"","shinkenchiku_url":""},{"id":3383,"title":"京都大学 楽友会館","architect":"森田慶一","year":1925.0,"address":"京都府京都市左京区吉田近衛町 京都大楽友会館","latitude":35.02205276489258,"longitude":135.77935791015625,"category":"大学","big_category":"教育","description":"2010年に改修完了","image_url":"","tags":"","prefecture":"京都","contractor":"","structural_designer":"","landscape_designer":"","shinkenchiku_url":""},{"id":3384,"title":"京都大学 YMCA会館","architect":"ウィリアム・メレル・ヴォーリズ","year":1914.0,"address":"京都府京都市左京区吉田牛ノ宮町21","latitude":35.02536392211914,"longitude":135.77703857421875,"category":"大学","big_category":"教育","description":"","image_url":"","tags":"","prefecture":"京都","contractor":"","structural_designer":"","landscape_designer":"","shinkenchiku_url":""},{"id":3385,"title":"同志社大学 啓明館","architect":"ウィリアム・メレル・ヴォーリズ","year":1920.0,"address":"京都府京都市上京区玄武町599","latitude":35.02928924560547,"longitude":135.760986328125,"category":"大学","big_category":"教育","description":"","image_url":"","tags":"","prefecture":"京都","contractor":"","structural_designer":"","landscape_designer":"","shinkenchiku_url":""},{"id":3386,"title":"京都大学 人文科学研究所 旧外務省東方文化学院京都研究所","architect":"武田五一+東畑謙三","year":1930.0,"address":"京都府京都市左京区北白川東小倉町47","latitude":35.03036117553711,"longitude":135.78981018066406,"category":"大学","big_category":"教育","description":"","image_url":"","tags":"","prefecture":"京都","contractor":"","structural_designer":"","landscape_designer":"","shinkenchiku_url":""},{"id":3387,"title":"大手前大学 メディアライブラリー CELL","architect":"日建設計","year":2007.0,"address":"兵庫県西宮市御茶家所町6-42","latitude":34.7379264831543,"longitude":135.32550048828125,"category":"大学","big_category":"教育","description":"","image_url":"","tags":"","prefecture":"兵庫","contractor":"","structural_designer":"","landscape_designer":"","shinkenchiku_url":""},{"id":3388,"title":"宝塚大学 マルチメディアタワー","architect":"アンドレ・ボージャンスキー+アラン・リシャール+長谷川紘","year":1999.0,"address":"兵庫県宝塚市花屋敷つつじガ丘 マルチメディアタワー","latitude":34.83681106567383,"longitude":135.40164184570312,"category":"大学","big_category":"教育","description":"","image_url":"","tags":"","prefecture":"兵庫","contractor":"","structural_designer":"","landscape_designer":"","shinkenchiku_url":""},{"id":3389,"title":"宝塚大学 宝塚キャンパス","architect":"アンドレ・ボージャンスキー+長谷川紘","year":1987.0,"address":"兵庫県宝塚市花屋敷つつじガ丘7-27","latitude":34.83616256713867,"longitude":135.40020751953125,"category":"大学","big_category":"教育","description":"","image_url":"","tags":"","prefecture":"兵庫","contractor":"","structural_designer":"","landscape_designer":"","shinkenchiku_url":""},{"id":3390,"title":"宝塚大学 梅田キャンパス","architect":"安藤忠雄+ジェームス・タレル","year":2002.0,"address":"大阪府大阪市北区芝田1-13-16","latitude":34.70787048339844,"longitude":135.49684143066406,"category":"大学","big_category":"教育","description":"","image_url":"","tags":"","prefecture":"大阪","contractor":"","structural_designer":"","landscape_designer":"","shinkenchiku_url":""},{"id":3391,"title":"直島中学校・中学校体育館","architect":"石井和紘+難波和彦","year":1976.0,"address":"香川県香川郡直島町（その他）1580","latitude":34.457881927490234,"longitude":133.98814392089844,"category":"学校","big_category":"教育","description":"1970年に小学校竣工、1976年に中学校体育館・武道館竣工。1979年に中学校が竣工。中学校体育館の設計が石井和紘+難波和彦。それ以外は石井和紘設計","image_url":"","tags":"DOCOMOMO","prefecture":"香川","contractor":"大成建設","structural_designer":"","landscape_designer":"","shinkenchiku_url":""},{"id":3392,"title":"京都大学 総合体育館","architect":"増田友也","year":1972.0,"address":"京都府京都市左京区吉田本町36","latitude":35.02634811401367,"longitude":135.78097534179688,"category":"大学","big_category":"教育","description":"","image_url":"","tags":"DOCOMOMO","prefecture":"京都","contractor":"","structural_designer":"","landscape_designer":"","shinkenchiku_url":""},{"id":3393,"title":"横浜清風高等学校 円形校舎 旧明倫学園 円形校舎","architect":"坂本鹿名夫","year":1957.0,"address":"大阪府大阪市天王寺区石ヶ辻町12-16","latitude":34.66381072998047,"longitude":135.52174377441406,"category":"学校","big_category":"教育","description":"","image_url":"","tags":"DOCOMOMO","prefecture":"大阪","contractor":"","structural_designer":"","landscape_designer":"","shinkenchiku_url":""},{"id":3394,"title":"愛媛県庁舎","architect":"木子七郎","year":1929.0,"address":"愛媛県松山市一番町4-4-2 ","latitude":33.84164810180664,"longitude":132.76585388183594,"category":"庁舎","big_category":"公共施設","description":"","image_url":"","tags":"","prefecture":"愛媛","contractor":"","structural_designer":"","landscape_designer":"","shinkenchiku_url":""},{"id":3395,"title":"松山大学温山記念会館 旧新田利國邸","architect":"木子七郎","year":1928.0,"address":"兵庫県西宮市甲子園口1-12-31","latitude":34.73695373535156,"longitude":135.37744140625,"category":"洋館","big_category":"近代建築/遺産","description":"","image_url":"","tags":"","prefecture":"兵庫","contractor":"","structural_designer":"","landscape_designer":"","shinkenchiku_url":""},{"id":3396,"title":"マークジェイコブス青山","architect":"ステファン・ジャクリッチ","year":2010.0,"address":"東京都港区南青山5-3-27","latitude":35.66352081298828,"longitude":139.71446228027344,"category":"店舗","big_category":"商業施設","description":"","image_url":"","tags":"","prefecture":"東京","contractor":"","structural_designer":"","landscape_designer":"","shinkenchiku_url":""},{"id":3397,"title":"アルティファータ","architect":"阿部仁史","year":2000.0,"address":"東京都渋谷区神宮前5-9-15","latitude":35.66706466674805,"longitude":139.70729064941406,"category":"店舗","big_category":"商業施設","description":"","image_url":"","tags":"","prefecture":"東京","contractor":"","structural_designer":"","landscape_designer":"","shinkenchiku_url":""},{"id":3398,"title":"TASAKI銀座本店","architect":"乾久美子","year":2010.0,"address":"東京都中央区銀座5-7-5","latitude":35.67108154296875,"longitude":139.76443481445312,"category":"店舗","big_category":"商業施設","description":"","image_url":"","tags":"","prefecture":"東京","contractor":"","structural_designer":"","landscape_designer":"","shinkenchiku_url":""},{"id":3399,"title":"ティファニー銀座","architect":"隈研吾","year":2008.0,"address":"東京都中央区銀座2-7-17","latitude":35.67316818237305,"longitude":139.7674560546875,"category":"店舗","big_category":"商業施設","description":"","image_url":"","tags":"","prefecture":"東京","contractor":"","structural_designer":"","landscape_designer":"","shinkenchiku_url":""},{"id":3400,"title":"オペークギンザ","architect":"妹島和世","year":1998.0,"address":"東京都中央区銀座3-5-8","latitude":35.67243194580078,"longitude":139.765869140625,"category":"店舗","big_category":"商業施設","description":"","image_url":"","tags":"","prefecture":"東京","contractor":"","structural_designer":"","landscape_designer":"","shinkenchiku_url":""}]}