{"page":74,"total_pages":290,"items_per_page":50,"total_items":14467,"items":[{"id":3651,"title":"紫雲の里の館 詫間町箱浦ビジターハウス","architect":"多田善昭","year":1995.0,"address":"香川県三豊市詫間町箱859-29","latitude":34.258487701416016,"longitude":133.58876037597656,"category":"観光施設","description":"","image_url":""},{"id":3652,"title":"善通寺砂古荒魂神社","architect":"多田善昭","year":1994.0,"address":"香川県善通寺市善通寺町4-4 ","latitude":34.227210998535156,"longitude":133.77366638183594,"category":"寺院","description":"","image_url":""},{"id":3653,"title":"富山市民俗民芸村 とやま土人形工房","architect":"森俊偉","year":1995.0,"address":"富山県富山市安養坊1118-1","latitude":36.71023178100586,"longitude":137.18948364257812,"category":"博物館","description":"","image_url":""},{"id":3654,"title":"尾道市公会堂","architect":"増田友也","year":1963.0,"address":"広島県尾道市久保1-15","latitude":34.4092903137207,"longitude":133.20570373535156,"category":"ホール・劇場","description":"取壊済み。跡地に新庁舎","image_url":""},{"id":3655,"title":"向島洋らんセンター 展示棟","architect":"岡河貢","year":1995.0,"address":"広島県尾道市向島町3090-1","latitude":34.375770568847656,"longitude":133.20631408691406,"category":"動植物園","description":"","image_url":""},{"id":3656,"title":"徳島県文化の森総合公園","architect":"川崎清+佐藤総合計画+日建設計","year":1989.0,"address":"徳島県徳島市八万町向寺山 県立近代美術館","latitude":34.039817810058594,"longitude":134.52671813964844,"category":"美術館/博物館/図書館","description":"美術館、図書館、博物館などを併設","image_url":""},{"id":3657,"title":"香川県営住宅一宮団地","architect":"丹下健三","year":1984.0,"address":"香川県高松市寺井町1328","latitude":34.27949523925781,"longitude":134.0209197998047,"category":"集合住宅","description":"","image_url":""},{"id":3658,"title":"今治地域地場産業振興センター","architect":"丹下健三","year":1984.0,"address":"愛媛県今治市旭町2-3-5","latitude":34.061370849609375,"longitude":133.00013732910156,"category":"公共施設","description":"","image_url":""},{"id":3659,"title":"かわのえ高原ふるさと館","architect":"梓設計","year":1998.0,"address":"愛媛県四国中央市川之江町2217-83","latitude":34.009788513183594,"longitude":133.5799102783203,"category":"博物館","description":"","image_url":""},{"id":3660,"title":"広瀬歴史記念館","architect":"日建設計+石本建築事務所","year":1997.0,"address":"愛媛県新居浜市上原二-10-42","latitude":33.918914794921875,"longitude":133.28561401367188,"category":"博物館","description":"","image_url":""},{"id":3661,"title":"R.M.L 万葉の屋根","architect":"松浦仁郎","year":2010.0,"address":"香川県綾歌郡宇多津町（その他）1898-1","latitude":34.30930709838867,"longitude":133.82400512695312,"category":"トイレ","description":"トイレ","image_url":""},{"id":3662,"title":"U.R.P.G 歴史へのゲート","architect":"松浦仁郎","year":2009.0,"address":"香川県綾歌郡宇多津町浜一番丁4","latitude":34.31303024291992,"longitude":133.8084716796875,"category":"トイレ","description":"トイレ","image_url":""},{"id":3663,"title":"Hill top","architect":"長田慶太","year":2012.0,"address":"香川県高松市岡本町556-16","latitude":34.268760681152344,"longitude":133.99539184570312,"category":"美容院","description":"","image_url":""},{"id":3664,"title":"はすい動物病院","architect":"長田慶太","year":2005.0,"address":"香川県高松市元山町301-1","latitude":34.312225341796875,"longitude":134.09141540527344,"category":"個人医院","description":"","image_url":""},{"id":3665,"title":"dle.dog design +run","architect":"長田慶太","year":2012.0,"address":"香川県さぬき市寒川町石田西2498-2","latitude":34.2540168762207,"longitude":134.1957550048828,"category":"美容院","description":"","image_url":""},{"id":3666,"title":"roof wide","architect":"長田慶太","year":2002.0,"address":"香川県高松市屋島西町866-6","latitude":34.347843170166016,"longitude":134.09542846679688,"category":"美容院","description":"","image_url":""},{"id":3667,"title":"ドレスイン Viva","architect":"長田慶太","year":2007.0,"address":"香川県高松市今新町1-13","latitude":34.344303131103516,"longitude":134.051513671875,"category":"店舗","description":"","image_url":""},{"id":3668,"title":"mildnap","architect":"長田慶太","year":2008.0,"address":"香川県高松市松縄町1077-16","latitude":34.31816864013672,"longitude":134.0638427734375,"category":"美容院","description":"","image_url":""},{"id":3669,"title":"讃岐地人食堂旬菜 汐さぎ 庵","architect":"長田慶太","year":2012.0,"address":"香川県丸亀市綾歌町栗熊西1782-2","latitude":34.231201171875,"longitude":133.87527465820312,"category":"レストラン","description":"","image_url":""},{"id":3670,"title":"Patisserie Araki","architect":"長田慶太","year":2011.0,"address":"香川県高松市松縄町1133-8","latitude":34.31322479248047,"longitude":134.05972290039062,"category":"店舗","description":"","image_url":""},{"id":3671,"title":"the healing garden","architect":"長田慶太","year":2002.0,"address":"香川県高松市北浜町4-10","latitude":34.35084533691406,"longitude":134.05685424804688,"category":"バー・居酒屋","description":"","image_url":""},{"id":3672,"title":"北浜alley","architect":"井上秀美","year":2002.0,"address":"香川県高松市北浜町4-1","latitude":34.35118103027344,"longitude":134.05670166015625,"category":"モール","description":"","image_url":""},{"id":3673,"title":"いわき平競輪場","architect":"日本設計","year":2009.0,"address":"福島県いわき市平谷川瀬西作1","latitude":37.04536056518555,"longitude":140.89146423339844,"category":"スポーツ施設","description":"","image_url":""},{"id":3674,"title":"熊本野外劇場 アスペクタ ／ ミュージックアトリエ","architect":"葉祥栄","year":1987.0,"address":"熊本県阿蘇郡南阿蘇村久石4411-9","latitude":32.8077392578125,"longitude":131.03147888183594,"category":"ホール・劇場","description":"","image_url":""},{"id":3675,"title":"小国町隣保館・児童館","architect":"葉祥栄","year":1995.0,"address":"熊本県阿蘇郡小国町宮原1765-1","latitude":33.12157440185547,"longitude":131.06332397460938,"category":"福祉センター/児童施設/公共施設","description":"","image_url":""},{"id":3676,"title":"飯塚市筑穂保健福祉総合センター","architect":"葉祥栄","year":1998.0,"address":"福岡県飯塚市長尾911-1","latitude":33.57347869873047,"longitude":130.64454650878906,"category":"福祉センター","description":"","image_url":""},{"id":3677,"title":"オリオン嵐山ゴルフ倶楽部","architect":"葉祥栄","year":1991.0,"address":"沖縄県国頭郡今帰仁村字呉我山654-32","latitude":26.64170265197754,"longitude":127.9740982055664,"category":"クラブハウス","description":"","image_url":""},{"id":3678,"title":"唐津ゴルフ倶楽部","architect":"葉祥栄","year":1991.0,"address":"佐賀県唐津市菅牟田64-1","latitude":33.42087936401367,"longitude":129.9349365234375,"category":"クラブハウス","description":"","image_url":""},{"id":3679,"title":"阿蘇やまなみリゾートホテル&ゴルフ倶楽部","architect":"葉祥栄","year":1990.0,"address":"熊本県阿蘇郡産山村大利630","latitude":32.976776123046875,"longitude":131.19732666015625,"category":"ホテル","description":"","image_url":""},{"id":3680,"title":"ホテルグランドパレス徳島","architect":"葉祥栄","year":1983.0,"address":"徳島県徳島市寺島本町西1-60-1","latitude":34.07524871826172,"longitude":134.5486602783203,"category":"ホテル","description":"","image_url":""},{"id":3681,"title":"小国町林業総合センター","architect":"葉祥栄","year":1987.0,"address":"熊本県阿蘇郡小国町宮原1802-1","latitude":33.12232971191406,"longitude":131.06117248535156,"category":"公共施設/組合施設","description":"小国町における一連の木造建築により日本建築学会作品賞受賞","image_url":""},{"id":3682,"title":"九州学院中学校校舎・体育館","architect":"葉祥栄","year":2003.0,"address":"熊本県熊本市中央区大江5-2-1","latitude":32.79905700683594,"longitude":130.7220001220703,"category":"学校/体育館","description":"","image_url":""},{"id":3683,"title":"茶廊法邑","architect":"中山眞琴","year":2004.0,"address":"北海道札幌市東区本町1条1-8-27","latitude":43.080318450927734,"longitude":141.38111877441406,"category":"ギャラリー","description":"","image_url":""},{"id":3684,"title":"花巻温泉 佳松園","architect":"圓堂政嘉","year":1954.0,"address":"岩手県花巻市湯本第1地割125-2","latitude":39.45534896850586,"longitude":141.06689453125,"category":"旅館","description":"","image_url":""},{"id":3685,"title":"小樽貴賓館 旧青山別邸","architect":"不明","year":1923.0,"address":"北海道小樽市祝津3-63","latitude":43.2318115234375,"longitude":141.00828552246094,"category":"和風住宅","description":"","image_url":""},{"id":3686,"title":"八窓庵","architect":"小堀遠州","year":null,"address":"北海道札幌市中央区中島公園1","latitude":43.046966552734375,"longitude":141.35313415527344,"category":"茶室","description":"","image_url":""},{"id":3687,"title":"太田の長屋 ゼクエンス","architect":"シーラカンスアンドアソシエイツ","year":2008.0,"address":"群馬県太田市大原町71‐1","latitude":36.3435173034668,"longitude":139.2989501953125,"category":"集合住宅","description":"","image_url":""},{"id":3688,"title":"LOTUS BEAUTY SALON","architect":"中村拓志","year":2006.0,"address":"三重県桑名市星見ヶ丘6-905","latitude":35.06620407104492,"longitude":136.63490295410156,"category":"美容院","description":"","image_url":""},{"id":3689,"title":"ベルポート芦屋クラブハウス","architect":"河原泰","year":2004.0,"address":"兵庫県芦屋市海洋町11-1","latitude":34.71188735961914,"longitude":135.3199462890625,"category":"港/クラブハウス","description":"","image_url":""},{"id":3690,"title":"成田市保健福祉館","architect":"河原泰+東畑建築事務所","year":2004.0,"address":"千葉県成田市赤坂1-3-1 ‎","latitude":35.782012939453125,"longitude":140.29055786132812,"category":"福祉センター","description":"","image_url":""},{"id":3691,"title":"西新井さかえ公園管理施設","architect":"河原泰","year":2007.0,"address":"東京都足立区西新井栄町1-19-39","latitude":35.77455520629883,"longitude":139.78712463378906,"category":"公園","description":"","image_url":""},{"id":3692,"title":"浄土真宗 本願寺派 光超寺 本堂・納骨堂・庫裡","architect":"中山眞琴","year":2007.0,"address":"北海道小樽市銭函2-6-1","latitude":43.1413459777832,"longitude":141.16171264648438,"category":"寺院","description":"","image_url":""},{"id":3693,"title":"曹洞宗 祥龍寺","architect":"中山眞琴","year":2007.0,"address":"北海道札幌市手稲区稲穂二条1-3-1","latitude":43.12191390991211,"longitude":141.2350311279297,"category":"寺院","description":"","image_url":""},{"id":3694,"title":"レブニーズ 島の人 礼文島本店","architect":"中山眞琴","year":2013.0,"address":"北海道礼文郡礼文町大字船泊村字スコトン","latitude":45.462608337402344,"longitude":140.96810913085938,"category":"店舗/カフェ","description":"","image_url":""},{"id":3695,"title":"良寿し","architect":"中山眞琴","year":2011.0,"address":"北海道北広島市共栄町1-1-10","latitude":42.989967346191406,"longitude":141.5634307861328,"category":"料亭","description":"","image_url":""},{"id":3696,"title":"望楼NOGUCHI登別","architect":"中山眞琴","year":2006.0,"address":"北海道登別市登別温泉町 望楼NOGUCHI登別","latitude":42.50019836425781,"longitude":141.14071655273438,"category":"ホテル","description":"","image_url":""},{"id":3697,"title":"きたの風茶寮","architect":"中山眞琴","year":2011.0,"address":"神奈川県足柄下郡箱根町仙石原934-29","latitude":35.26441192626953,"longitude":139.0130615234375,"category":"旅館","description":"","image_url":""},{"id":3698,"title":"江差旅庭 群来","architect":"中山眞琴","year":2009.0,"address":"北海道檜山郡江差町字姥神町1-5","latitude":41.86588668823242,"longitude":140.11990356445312,"category":"ホテル","description":"","image_url":""},{"id":3699,"title":"望楼NOGUCHI函館","architect":"中山眞琴","year":2010.0,"address":"北海道函館市湯川町1-17-22","latitude":41.778709411621094,"longitude":140.78427124023438,"category":"ホテル","description":"","image_url":""},{"id":3700,"title":"イル・ヴィネイト","architect":"堀川秀夫","year":1992.0,"address":"神奈川県相模原市南区相模大野5-27-5","latitude":35.53211975097656,"longitude":139.4328155517578,"category":"レストラン","description":"","image_url":""}]}