{"page":95,"total_pages":290,"items_per_page":50,"total_items":14467,"items":[{"id":4701,"title":"浪合学校 小学校／中学校／幼稚園","architect":"湯澤正信","year":1990.0,"address":"長野県下伊那郡阿智村浪合510-1","latitude":35.37571716308594,"longitude":137.69168090820312,"category":"学校/幼稚園","big_category":"教育,教育","description":"日本建築学会 作品賞受賞者名：湯澤正信、長澤悟","image_url":"","tags":"1991年日本建築学会 作品賞,公共建築百選","prefecture":"長野","contractor":"","structural_designer":"","landscape_designer":"","shinkenchiku_url":""},{"id":4702,"title":"東京都大島支庁舎","architect":"湯澤正信","year":1994.0,"address":"東京都大島町元町字オンダシ222-1","latitude":34.757484436035156,"longitude":139.35765075683594,"category":"庁舎","big_category":"公共施設","description":"","image_url":"","tags":"","prefecture":"東京","contractor":"","structural_designer":"","landscape_designer":"","shinkenchiku_url":""},{"id":4703,"title":"用賀なのはな保育園","architect":"湯澤正信","year":1998.0,"address":"東京都世田谷区用賀1-2-2","latitude":35.623329162597656,"longitude":139.64271545410156,"category":"幼稚園","big_category":"教育","description":"","image_url":"","tags":"","prefecture":"東京","contractor":"","structural_designer":"","landscape_designer":"","shinkenchiku_url":""},{"id":4704,"title":"横浜市本牧山頂公園 管理棟","architect":"湯澤正信","year":1999.0,"address":"神奈川県横浜市中区和田山1-5","latitude":35.42509841918945,"longitude":139.66050720214844,"category":"公園","big_category":"レジャー施設","description":"","image_url":"","tags":"","prefecture":"神奈川","contractor":"","structural_designer":"","landscape_designer":"","shinkenchiku_url":""},{"id":4705,"title":"東京電機大学 千葉第一期校舎","architect":"湯澤正信","year":1999.0,"address":"千葉県印西市武西学園台2-1200 ","latitude":35.79420471191406,"longitude":140.10960388183594,"category":"大学","big_category":"教育","description":"","image_url":"","tags":"","prefecture":"千葉","contractor":"","structural_designer":"","landscape_designer":"","shinkenchiku_url":""},{"id":4706,"title":"東京電機大学 千葉研究棟及びメディアセンター","architect":"湯澤正信","year":2001.0,"address":"千葉県印西市武西学園台2-1200 ","latitude":35.79430389404297,"longitude":140.1085662841797,"category":"大学","big_category":"教育","description":"","image_url":"","tags":"","prefecture":"千葉","contractor":"","structural_designer":"","landscape_designer":"","shinkenchiku_url":""},{"id":4707,"title":"早川町立早川北小学校・早川北保育園","architect":"湯澤正信","year":2001.0,"address":"山梨県南巨摩郡早川町大原野837","latitude":35.47052764892578,"longitude":138.34095764160156,"category":"学校/幼稚園","big_category":"教育,教育","description":"","image_url":"","tags":"新建築2001年12月号","prefecture":"山梨","contractor":"","structural_designer":"","landscape_designer":"","shinkenchiku_url":""},{"id":4708,"title":"福島県立いわき光洋高等学校","architect":"湯澤正信","year":2004.0,"address":"福島県いわき市中央台高久4-1","latitude":37.01631164550781,"longitude":140.92784118652344,"category":"学校","big_category":"教育","description":"","image_url":"","tags":"","prefecture":"福島","contractor":"","structural_designer":"","landscape_designer":"","shinkenchiku_url":""},{"id":4709,"title":"小谷村立小谷小学校","architect":"湯澤正信","year":2006.0,"address":"長野県北安曇郡小谷村千国乙3387-1","latitude":36.75965118408203,"longitude":137.89651489257812,"category":"学校","big_category":"教育","description":"","image_url":"","tags":"","prefecture":"長野","contractor":"","structural_designer":"","landscape_designer":"","shinkenchiku_url":""},{"id":4710,"title":"横浜市立十日市場小学校","architect":"湯澤正信","year":2007.0,"address":"神奈川県横浜市緑区十日市場町1392-1","latitude":35.52052688598633,"longitude":139.51431274414062,"category":"学校","big_category":"教育","description":"","image_url":"","tags":"","prefecture":"神奈川","contractor":"","structural_designer":"","landscape_designer":"","shinkenchiku_url":""},{"id":4711,"title":"東京都市大学 新14号館 SAKURA CENTER#14 旧武蔵工業大学 新14号館","architect":"岩崎堅一","year":2003.0,"address":"東京都世田谷区玉堤1-28-1","latitude":35.597713470458984,"longitude":139.65049743652344,"category":"大学","big_category":"教育","description":"","image_url":"","tags":"","prefecture":"東京","contractor":"","structural_designer":"","landscape_designer":"","shinkenchiku_url":""},{"id":4712,"title":"東京都市大学 新図書館#9 旧武蔵工業大学 新図書館#9","architect":"岩崎堅一","year":2004.0,"address":"東京都世田谷区玉堤1-28-1","latitude":35.59832763671875,"longitude":139.65037536621094,"category":"大学","big_category":"教育","description":"","image_url":"","tags":"","prefecture":"東京","contractor":"","structural_designer":"","landscape_designer":"","shinkenchiku_url":""},{"id":4713,"title":"仏生山温泉","architect":"岡昇平","year":2005.0,"address":"香川県高松市仏生山町乙114-5","latitude":34.281803131103516,"longitude":134.04931640625,"category":"温泉","big_category":"宿泊","description":"","image_url":"","tags":"","prefecture":"香川","contractor":"","structural_designer":"","landscape_designer":"","shinkenchiku_url":""},{"id":4714,"title":"図書印刷沼津工場","architect":"丹下健三","year":1954.0,"address":"静岡県沼津市大塚15","latitude":35.11918258666992,"longitude":138.80807495117188,"category":"工場","big_category":"企業施設","description":"","image_url":"","tags":"1954年日本建築学会 作品賞,DOCOMOMO","prefecture":"静岡","contractor":"","structural_designer":"","landscape_designer":"","shinkenchiku_url":""},{"id":4715,"title":"龍の砦 嶺崎医院","architect":"渡邊洋治","year":1969.0,"address":"静岡県伊東市宇佐美1480","latitude":35.006675720214844,"longitude":139.07418823242188,"category":"個人医院","big_category":"医療施設","description":"長らく廃墟だったが、保存計画が進行している","image_url":"","tags":"","prefecture":"静岡","contractor":"","structural_designer":"","landscape_designer":"","shinkenchiku_url":""},{"id":4716,"title":"ブルーノアビル","architect":"安藤忠雄","year":1985.0,"address":"静岡県浜松市中区肴町319-1","latitude":34.70603561401367,"longitude":137.72946166992188,"category":"テナントビル","big_category":"商業施設","description":"","image_url":"","tags":"","prefecture":"静岡","contractor":"","structural_designer":"","landscape_designer":"","shinkenchiku_url":""},{"id":4717,"title":"ホテル ラヴィエ川良","architect":"高松伸","year":1994.0,"address":"静岡県伊東市竹の内1-1-3","latitude":34.97057342529297,"longitude":139.0962371826172,"category":"ホテル","big_category":"宿泊","description":"","image_url":"","tags":"","prefecture":"静岡","contractor":"","structural_designer":"","landscape_designer":"","shinkenchiku_url":""},{"id":4718,"title":"伊豆洋らんパーク TROPICARIUM","architect":"瀧光夫","year":1995.0,"address":"静岡県伊豆の国市田京195-2","latitude":35.011783599853516,"longitude":138.94107055664062,"category":"動植物園","big_category":"レジャー施設","description":"","image_url":"","tags":"","prefecture":"静岡","contractor":"","structural_designer":"","landscape_designer":"","shinkenchiku_url":""},{"id":4719,"title":"ホテル ミクラス","architect":"大江匡","year":2006.0,"address":"静岡県熱海市東海岸町3-19","latitude":35.098060607910156,"longitude":139.07513427734375,"category":"ホテル","big_category":"宿泊","description":"","image_url":"","tags":"","prefecture":"静岡","contractor":"","structural_designer":"","landscape_designer":"","shinkenchiku_url":""},{"id":4720,"title":"上原近代美術館","architect":"鹿島建設","year":1999.0,"address":"静岡県下田市宇土金341","latitude":34.72860336303711,"longitude":138.92567443847656,"category":"美術館","big_category":"ミュージアム","description":"","image_url":"","tags":"","prefecture":"静岡","contractor":"","structural_designer":"","landscape_designer":"","shinkenchiku_url":""},{"id":4721,"title":"宮内庁三の丸尚蔵館","architect":"建築研究所アーキヴィジョン","year":1993.0,"address":"東京都千代田区千代田1-1","latitude":35.6838493347168,"longitude":139.75396728515625,"category":"博物館/美術館","big_category":"ミュージアム,ミュージアム","description":"2023年に建て替え","image_url":"","tags":"","prefecture":"東京","contractor":"","structural_designer":"","landscape_designer":"","shinkenchiku_url":""},{"id":4722,"title":"上野の森美術館","architect":"中山克己","year":1992.0,"address":"東京都台東区上野公園1-2","latitude":35.71269607543945,"longitude":139.77476501464844,"category":"美術館","big_category":"ミュージアム","description":"","image_url":"","tags":"","prefecture":"東京","contractor":"","structural_designer":"","landscape_designer":"","shinkenchiku_url":""},{"id":4723,"title":"霞ヶ浦ふれあいランド","architect":"中山克己","year":1992.0,"address":"茨城県行方市玉造甲1234","latitude":36.096614837646484,"longitude":140.4029541015625,"category":"観光施設/展望台/プール","big_category":"レジャー施設,レジャー施設,レジャー施設","description":"","image_url":"","tags":"","prefecture":"茨城","contractor":"","structural_designer":"","landscape_designer":"","shinkenchiku_url":""},{"id":4724,"title":"TEPCO 新エネルギーパーク","architect":"中山克己","year":1993.0,"address":"千葉県富津市新富25","latitude":35.34851837158203,"longitude":139.83367919921875,"category":"体験施設","big_category":"レジャー施設","description":"東日本大震災の影響で閉園中","image_url":"","tags":"","prefecture":"千葉","contractor":"","structural_designer":"","landscape_designer":"","shinkenchiku_url":""},{"id":4725,"title":"ミュゼ浜口陽三 ヤマサコレクション","architect":"鈴木エドワード","year":1998.0,"address":"東京都中央区日本橋蛎殻町1-35-7 水天宮HSビル","latitude":35.68167495727539,"longitude":139.785888671875,"category":"美術館","big_category":"ミュージアム","description":"","image_url":"","tags":"","prefecture":"東京","contractor":"","structural_designer":"","landscape_designer":"","shinkenchiku_url":""},{"id":4726,"title":"箱根ガラスの森美術館","architect":"池原義郎","year":1996.0,"address":"神奈川県足柄下郡箱根町仙石原940-48","latitude":35.26628875732422,"longitude":139.01776123046875,"category":"美術館","big_category":"ミュージアム","description":"","image_url":"","tags":"","prefecture":"神奈川","contractor":"","structural_designer":"","landscape_designer":"","shinkenchiku_url":""},{"id":4727,"title":"箱根ラリック美術館","architect":"鹿島建設","year":2005.0,"address":"神奈川県足柄下郡箱根町仙石原186番1","latitude":35.269561767578125,"longitude":139.00917053222656,"category":"美術館","big_category":"ミュージアム","description":"","image_url":"","tags":"","prefecture":"神奈川","contractor":"","structural_designer":"","landscape_designer":"","shinkenchiku_url":""},{"id":4728,"title":"新潟県立近代美術館","architect":"日本設計","year":1993.0,"address":"新潟県長岡市千秋3-278-14","latitude":37.464500427246094,"longitude":138.83209228515625,"category":"美術館","big_category":"ミュージアム","description":"","image_url":"","tags":"","prefecture":"新潟","contractor":"","structural_designer":"","landscape_designer":"","shinkenchiku_url":""},{"id":4729,"title":"ヤマザキマザック美術館","architect":"日建設計","year":2010.0,"address":"愛知県名古屋市東区葵1-19-30","latitude":35.17129135131836,"longitude":136.92027282714844,"category":"美術館","big_category":"ミュージアム","description":"","image_url":"","tags":"","prefecture":"愛知","contractor":"","structural_designer":"","landscape_designer":"","shinkenchiku_url":""},{"id":4730,"title":"メナード美術館","architect":"東急設計+青島設計","year":1987.0,"address":"愛知県小牧市小牧5-250","latitude":35.28887939453125,"longitude":136.91983032226562,"category":"美術館","big_category":"ミュージアム","description":"2009年に青島設計によりリニューアル","image_url":"","tags":"","prefecture":"愛知","contractor":"","structural_designer":"","landscape_designer":"","shinkenchiku_url":""},{"id":4731,"title":"愛知県陶磁美術館","architect":"谷口吉郎","year":1978.0,"address":"愛知県瀬戸市南山口町234","latitude":35.18584442138672,"longitude":137.09779357910156,"category":"美術館","big_category":"ミュージアム","description":"","image_url":"","tags":"","prefecture":"愛知","contractor":"","structural_designer":"","landscape_designer":"","shinkenchiku_url":""},{"id":4732,"title":"大阪市立東洋陶磁美術館","architect":"日建設計","year":1982.0,"address":"大阪府大阪市北区中之島1-1-26","latitude":34.693443298339844,"longitude":135.5055694580078,"category":"美術館","big_category":"ミュージアム","description":"","image_url":"","tags":"2012年JIA25年賞","prefecture":"大阪","contractor":"","structural_designer":"","landscape_designer":"","shinkenchiku_url":""},{"id":4733,"title":"清水三年坂美術館","architect":"東洋設計","year":2000.0,"address":"京都府京都市東山区清水寺門前三寧坂北入清水3-337-1","latitude":34.997413635253906,"longitude":135.78128051757812,"category":"美術館","big_category":"ミュージアム","description":"","image_url":"","tags":"","prefecture":"京都","contractor":"","structural_designer":"","landscape_designer":"","shinkenchiku_url":""},{"id":4734,"title":"相国寺 承天閣美術館","architect":"川崎清","year":1984.0,"address":"京都府京都市上京区今出川通烏丸東入上る相国寺門前町701","latitude":35.033599853515625,"longitude":135.7626190185547,"category":"美術館","big_category":"ミュージアム","description":"","image_url":"","tags":"","prefecture":"京都","contractor":"","structural_designer":"","landscape_designer":"","shinkenchiku_url":""},{"id":4735,"title":"寧楽美術館","architect":"東畑謙三","year":1969.0,"address":"奈良県奈良市水門町74依水園","latitude":34.68571472167969,"longitude":135.83767700195312,"category":"美術館","big_category":"ミュージアム","description":"","image_url":"","tags":"","prefecture":"奈良","contractor":"","structural_designer":"","landscape_designer":"","shinkenchiku_url":""},{"id":4736,"title":"大阪国際見本市会場 インテックス大阪","architect":"東畑謙三","year":1985.0,"address":"大阪府大阪市住之江区南港北1-5-102","latitude":34.637630462646484,"longitude":135.41966247558594,"category":"展示・会議場","big_category":"公共施設","description":"","image_url":"","tags":"","prefecture":"大阪","contractor":"","structural_designer":"","landscape_designer":"","shinkenchiku_url":""},{"id":4737,"title":"香雪美術館 旧村山龍平邸 洋館","architect":"河合幾次","year":1909.0,"address":"兵庫県神戸市東灘区御影郡家2-12-1","latitude":34.723690032958984,"longitude":135.2566375732422,"category":"美術館/洋館","big_category":"ミュージアム,近代建築/遺産","description":"洋館は1909年竣工、河合幾次設計。書院棟は1918年竣工、藤井厚二設計。イベント時のみ公開。","image_url":"","tags":"","prefecture":"兵庫","contractor":"","structural_designer":"","landscape_designer":"","shinkenchiku_url":""},{"id":4738,"title":"大覚寺心経殿","architect":"藤井厚二","year":1925.0,"address":"京都府京都市右京区嵯峨大沢町4-1","latitude":35.02864074707031,"longitude":135.67860412597656,"category":"寺院","big_category":"宗教","description":"","image_url":"","tags":"","prefecture":"京都","contractor":"","structural_designer":"","landscape_designer":"","shinkenchiku_url":""},{"id":4739,"title":"M2 東京メモリードホール","architect":"隈研吾","year":1991.0,"address":"東京都世田谷区砧2-4-27","latitude":35.6416130065918,"longitude":139.6188507080078,"category":"斎場/オフィスビル","big_category":"公共施設,企業施設","description":"","image_url":"","tags":"","prefecture":"東京","contractor":"","structural_designer":"","landscape_designer":"","shinkenchiku_url":""},{"id":4740,"title":"ドーリック","architect":"隈研吾","year":1991.0,"address":"東京都港区南青山2-27-14","latitude":35.6684684753418,"longitude":139.71710205078125,"category":"オフィスビル","big_category":"企業施設","description":"","image_url":"","tags":"","prefecture":"東京","contractor":"","structural_designer":"","landscape_designer":"","shinkenchiku_url":""},{"id":4741,"title":"都住創ラスティックビル","architect":"隈研吾","year":1991.0,"address":"東京都新宿区天神町77","latitude":35.70606994628906,"longitude":139.73069763183594,"category":"オフィスビル","big_category":"企業施設","description":"","image_url":"","tags":"","prefecture":"東京","contractor":"","structural_designer":"","landscape_designer":"","shinkenchiku_url":""},{"id":4742,"title":"建築史再考","architect":"隈研吾","year":1989.0,"address":"東京都港区南青山2-14-17","latitude":35.67039489746094,"longitude":139.72024536132812,"category":"テナントビル/集合住宅","big_category":"商業施設,住宅","description":"","image_url":"","tags":"","prefecture":"東京","contractor":"","structural_designer":"","landscape_designer":"","shinkenchiku_url":""},{"id":4743,"title":"Rooftecture オーラッシュ千葉","architect":"遠藤秀平","year":2005.0,"address":"千葉県千葉市稲毛区園生町450-1","latitude":35.64430618286133,"longitude":140.11378479003906,"category":"店舗","big_category":"商業施設","description":"","image_url":"","tags":"","prefecture":"千葉","contractor":"","structural_designer":"","landscape_designer":"","shinkenchiku_url":""},{"id":4744,"title":"橋本ビル","architect":"安藤忠雄","year":2002.0,"address":"千葉県柏市旭町1-6-3","latitude":35.86161804199219,"longitude":139.96939086914062,"category":"テナントビル","big_category":"商業施設","description":"","image_url":"","tags":"","prefecture":"千葉","contractor":"","structural_designer":"","landscape_designer":"","shinkenchiku_url":""},{"id":4745,"title":"RIGATO F","architect":"篠原聡子","year":1998.0,"address":"千葉県千葉市中央区松波1-15-4","latitude":35.61837387084961,"longitude":140.1092529296875,"category":"集合住宅","big_category":"住宅","description":"","image_url":"","tags":"","prefecture":"千葉","contractor":"","structural_designer":"","landscape_designer":"","shinkenchiku_url":""},{"id":4746,"title":"コルテ松波","architect":"篠原聡子","year":1994.0,"address":"千葉県千葉市中央区松波1-15-3","latitude":35.61833572387695,"longitude":140.10935974121094,"category":"集合住宅","big_category":"住宅","description":"","image_url":"","tags":"","prefecture":"千葉","contractor":"","structural_designer":"","landscape_designer":"","shinkenchiku_url":""},{"id":4747,"title":"YKK津田沼セミナーハウス","architect":"安藤忠雄","year":1993.0,"address":"千葉県習志野市津田沼3-22-15","latitude":35.68760299682617,"longitude":140.02780151367188,"category":"集合住宅/研修施設","big_category":"住宅,教育","description":"","image_url":"","tags":"","prefecture":"千葉","contractor":"","structural_designer":"","landscape_designer":"","shinkenchiku_url":""},{"id":4748,"title":"マルタン本社ビル","architect":"磯崎新","year":1991.0,"address":"神奈川県横浜市中区尾上町4-54","latitude":35.44573211669922,"longitude":139.63551330566406,"category":"オフィスビル","big_category":"企業施設","description":"","image_url":"","tags":"","prefecture":"神奈川","contractor":"","structural_designer":"","landscape_designer":"","shinkenchiku_url":""},{"id":4749,"title":"NEG大津工場厚生施設","architect":"磯崎新","year":1980.0,"address":"滋賀県大津市晴嵐2-7-1","latitude":34.9842529296875,"longitude":135.89727783203125,"category":"工場","big_category":"企業施設","description":"","image_url":"","tags":"","prefecture":"滋賀","contractor":"","structural_designer":"","landscape_designer":"","shinkenchiku_url":""},{"id":4750,"title":"かずら橋夢舞台 「翠碧蘿月」","architect":"黒川哲郎","year":2005.0,"address":"徳島県三好市西祖谷山村今久保345-1","latitude":33.874168395996094,"longitude":133.83224487304688,"category":"PA・道の駅","big_category":"インフラ","description":"","image_url":"","tags":"","prefecture":"徳島","contractor":"","structural_designer":"","landscape_designer":"","shinkenchiku_url":""}]}