{"page":236,"total_pages":290,"items_per_page":50,"total_items":14467,"items":[{"id":11751,"title":"軽井沢安東美術館","architect":"d/dt Arch.","year":2022.0,"address":"長野県北佐久郡軽井沢町軽井沢東43-10","latitude":36.346675872802734,"longitude":138.6392364501953,"category":"美術館","description":"","image_url":""},{"id":11752,"title":"北海道地区FMセンター","architect":"竹中工務店","year":2021.0,"address":"北海道札幌市中央区南20条西9-1-26","latitude":43.03348159790039,"longitude":141.34666442871094,"category":"研究施設/低層オフィス","description":"","image_url":""},{"id":11753,"title":"ぎんなん幼稚園","architect":"手塚建築研究所+大野博史","year":2022.0,"address":"神奈川県横須賀市大津町3-29-41-1","latitude":35.257144927978516,"longitude":139.69430541992188,"category":"幼稚園","description":"","image_url":""},{"id":11754,"title":"閖上わかばこども園","architect":"石原健也+石森史寛","year":2022.0,"address":"宮城県名取市閖上西2-12","latitude":38.17960739135742,"longitude":140.9424591064453,"category":"幼稚園","description":"","image_url":""},{"id":11755,"title":"かしまだ保育園","architect":"テレインアーキテクツ","year":2022.0,"address":"神奈川県川崎市幸区下平間1-10","latitude":35.553775787353516,"longitude":139.6764678955078,"category":"幼稚園","description":"","image_url":""},{"id":11756,"title":"森の端オフィス","architect":"ツバメアーキテクツ+岡佑亮+飛騨の森でクマは踊る","year":2022.0,"address":"岐阜県飛騨市古川町高野287-1","latitude":36.23525619506836,"longitude":137.18499755859375,"category":"低層オフィス","description":"","image_url":""},{"id":11757,"title":"長野県立御嶽山ビジターセンター やまテラス王滝","architect":"yHa architects","year":2022.0,"address":"長野県木曽郡王滝村田ノ原3162","latitude":35.87318801879883,"longitude":137.5030517578125,"category":"博物館/カフェ","description":"","image_url":""},{"id":11758,"title":"木曽町御嶽山ビジターセンター さとテラス三岳","architect":"yHa architects","year":2022.0,"address":"長野県木曽郡木曽町三岳10491-9","latitude":35.82256317138672,"longitude":137.64808654785156,"category":"博物館/カフェ/PA・道の駅","description":"","image_url":""},{"id":11759,"title":"愛菜館の転換","architect":"馬場兼伸","year":2022.0,"address":"滋賀県近江八幡市大中町450-5","latitude":35.189029693603516,"longitude":136.09854125976562,"category":"店舗","description":"","image_url":""},{"id":11760,"title":"にぎわい創造活性化施設 Link MURAYAMA","architect":"馬場兼伸+高遠慎悟","year":2022.0,"address":"山形県村山市楯岡荒町2-1-1","latitude":38.476627349853516,"longitude":140.3917694091797,"category":"カフェ/店舗/シェアオフィス","description":"旧楯岡高校の改修","image_url":""},{"id":11761,"title":"キィニョン武蔵小金井ののみち店","architect":"馬場兼伸","year":2020.0,"address":"東京都小金井市緑町5-3-45","latitude":35.701210021972656,"longitude":139.51283264160156,"category":"店舗","description":"","image_url":""},{"id":11762,"title":"突板のギャラリー 安多化粧合板ギャラリー","architect":"今津康夫","year":2019.0,"address":"大阪府八尾市太田新町7-163","latitude":34.591426849365234,"longitude":135.5999298095703,"category":"ギャラリー/低層オフィス","description":"","image_url":""},{"id":11763,"title":"ヨコナガヤ","architect":"Office for Environment Architecture","year":2022.0,"address":"大阪府大阪市平野区喜連東3-13-16","latitude":34.6093635559082,"longitude":135.5577392578125,"category":"店舗","description":"","image_url":""},{"id":11764,"title":"市原ゴルフクラブ市原コース クラブハウス","architect":"大林組","year":2022.0,"address":"千葉県市原市奉免855","latitude":35.41442108154297,"longitude":140.15370178222656,"category":"クラブハウス","description":"","image_url":""},{"id":11765,"title":"Ueta LABO","architect":"平山昌信","year":2021.0,"address":"高知県須崎市桐間西95","latitude":33.40978240966797,"longitude":133.2923126220703,"category":"低層オフィス","description":"","image_url":""},{"id":11766,"title":"安芸やまもと歯科","architect":"平山昌信","year":2021.0,"address":"高知県安芸市東浜 字ミヤケダ60-3","latitude":33.507972717285156,"longitude":133.90908813476562,"category":"個人医院","description":"","image_url":""},{"id":11767,"title":"昭和学院小学校 ウエスト館","architect":"日建設計","year":2021.0,"address":"千葉県市川市東菅野2-17-1","latitude":35.735984802246094,"longitude":139.9295654296875,"category":"学校","description":"","image_url":""},{"id":11768,"title":"上智大学 15号館","architect":"住友林業","year":2022.0,"address":"東京都千代田区麹町6-1-18","latitude":35.68458938598633,"longitude":139.7331085205078,"category":"大学","description":"","image_url":""},{"id":11769,"title":"DIG STUDIO","architect":"愛媛建築研究所","year":2021.0,"address":"愛媛県東温市北野田386","latitude":33.79122543334961,"longitude":132.83055114746094,"category":"店舗/専門学校","description":"","image_url":""},{"id":11770,"title":"トヨタカローラ新大阪小野原店","architect":"SWING","year":2021.0,"address":"大阪府箕面市粟生新家2-6-12","latitude":34.83586502075195,"longitude":135.51025390625,"category":"店舗","description":"","image_url":""},{"id":11771,"title":"ドコモショップ丹波篠山店","architect":"SWING","year":2021.0,"address":"兵庫県丹波篠山市吹新13-1","latitude":35.0642204284668,"longitude":135.1846923828125,"category":"店舗","description":"","image_url":""},{"id":11772,"title":"ドコモショップ丹波柏原店","architect":"SWING","year":2019.0,"address":"兵庫県丹波市柏原町南多田215-1","latitude":35.14208221435547,"longitude":135.0609130859375,"category":"店舗","description":"","image_url":""},{"id":11773,"title":"北長瀬こども矯正歯科","architect":"SWING","year":2021.0,"address":"岡山県岡山市北区中仙道1-19-18","latitude":34.646766662597656,"longitude":133.88685607910156,"category":"個人医院","description":"","image_url":""},{"id":11774,"title":"みつわ屋/Hostel Mitsuwaya Osaka","architect":"SWING","year":2016.0,"address":"大阪府大阪市中央区瓦屋町2-5-15","latitude":34.67062759399414,"longitude":135.5133819580078,"category":"ホステル","description":"","image_url":""},{"id":11775,"title":"フレンチ カプリス","architect":"SWING","year":2015.0,"address":"和歌山県岩出市水栖303-1","latitude":34.26789474487305,"longitude":135.31777954101562,"category":"レストラン","description":"","image_url":""},{"id":11776,"title":"宝国寺","architect":"SWING+IAO竹田設計","year":null,"address":"大阪府大阪市天王寺区生玉寺町4-24","latitude":34.661102294921875,"longitude":135.51336669921875,"category":"寺院","description":"","image_url":""},{"id":11777,"title":"KOKAGEビル","architect":"鍵山昌信+斉藤智士","year":2022.0,"address":"広島県呉市西中央2-1-6","latitude":34.24713134765625,"longitude":132.5587615966797,"category":"個人医院","description":"","image_url":""},{"id":11778,"title":"uminoわ","architect":"佐々木信明","year":2022.0,"address":"長崎県東彼杵郡東彼杵町千綿宿郷1325-1","latitude":33.024925231933594,"longitude":129.9373016357422,"category":"店舗/カフェ","description":"","image_url":""},{"id":11779,"title":"アルファーマ薬局 余戸店","architect":"矢野青山建築設計事務所","year":2022.0,"address":"愛媛県松山市余戸東4-1-28","latitude":33.816123962402344,"longitude":132.73660278320312,"category":"店舗","description":"","image_url":""},{"id":11780,"title":"東京ユニオンチャーチ","architect":"西松建設","year":1980.0,"address":"東京都渋谷区神宮前5-7-7","latitude":35.66643524169922,"longitude":139.70928955078125,"category":"教会","description":"","image_url":""},{"id":11781,"title":"Miele Experience Center 表参道","architect":"隈研吾","year":2011.0,"address":"東京都港区南青山4-23-8","latitude":35.662601470947266,"longitude":139.7174530029297,"category":"店舗","description":"","image_url":""},{"id":11782,"title":"松原のアトリエ エスパッド環境建築研究所","architect":"藤江通昌","year":1989.0,"address":"東京都世田谷区松原1-2-5","latitude":35.668724060058594,"longitude":139.65557861328125,"category":"低層オフィス/住宅","description":"","image_url":""},{"id":11783,"title":"都営地下鉄大江戸線 汐留駅","architect":"横河健","year":2000.0,"address":"東京都港区東新橋1-9","latitude":35.66301727294922,"longitude":139.76004028320312,"category":"駅","description":"","image_url":""},{"id":11784,"title":"旧新橋停車場 鉄道歴史展示室","architect":"日本設計+ジェイアール東日本建築設計事務所","year":2003.0,"address":"東京都港区東新橋1-5-3","latitude":35.66594696044922,"longitude":139.76145935058594,"category":"博物館","description":"","image_url":""},{"id":11785,"title":"日本テレビタワー","architect":"三菱地所+リチャード・ロジャース","year":2003.0,"address":"東京都港区東新橋1-6-1","latitude":35.66443634033203,"longitude":139.75991821289062,"category":"オフィスビル","description":"","image_url":""},{"id":11786,"title":"プロスタイル札幌 宮の森","architect":"隈研吾","year":2022.0,"address":"北海道札幌市中央区宮の森4条13-7-36","latitude":43.05275344848633,"longitude":141.2963104248047,"category":"集合住宅","description":"","image_url":""},{"id":11787,"title":"長崎駅","architect":"安井建築設計+設計領域","year":2022.0,"address":"長崎県長崎市尾上町1-67","latitude":32.75231170654297,"longitude":129.8689422607422,"category":"駅","description":"","image_url":""},{"id":11788,"title":"富山新聞高岡会館","architect":"谷口吉生","year":2022.0,"address":"富山県高岡市広小路1-15","latitude":36.75042724609375,"longitude":137.02439880371094,"category":"オフィスビル","description":"","image_url":""},{"id":11789,"title":"道の駅伊豆月ケ瀬","architect":"設計領域","year":2019.0,"address":"静岡県伊豆市月ケ瀬78-2","latitude":34.922428131103516,"longitude":138.93199157714844,"category":"PA・道の駅","description":"","image_url":""},{"id":11790,"title":"明智駅前広場・交流施設","architect":"設計領域","year":2011.0,"address":"岐阜県恵那市明智町443","latitude":35.306339263916016,"longitude":137.3875274658203,"category":"広場/公民館・交流施設","description":"","image_url":""},{"id":11791,"title":"丹生川ダム左岸天端広場","architect":"設計領域","year":2012.0,"address":"岐阜県高山市丹生川町折敷地3136","latitude":36.216182708740234,"longitude":137.37184143066406,"category":"公共施設/広場","description":"","image_url":""},{"id":11792,"title":"刈谷市体育館","architect":"竹中工務店","year":1969.0,"address":"愛知県刈谷市逢妻町4-32","latitude":34.990726470947266,"longitude":136.9852294921875,"category":"体育館","description":"","image_url":""},{"id":11793,"title":"SAZAE","architect":"隈研吾","year":2022.0,"address":"香川県香川郡直島町横防2182","latitude":34.45037841796875,"longitude":133.9764404296875,"category":"温泉","description":"グランピング施設SANA MANE内にあるサウナ。TTNE監修","image_url":""},{"id":11794,"title":"福井県立一乗谷朝倉氏遺跡博物館","architect":"内藤廣+センボー建築事務所","year":2022.0,"address":"福井県福井市安波賀中島町8-10","latitude":36.014984130859375,"longitude":136.29844665527344,"category":"博物館","description":"","image_url":""},{"id":11795,"title":"横浜アンパンマンこどもミュージアム","architect":"大成建設","year":2019.0,"address":"神奈川県横浜市西区みなとみらい6-2-9","latitude":35.46324920654297,"longitude":139.62890625,"category":"博物館","description":"","image_url":""},{"id":11796,"title":"楽土庵","architect":"五割一分","year":2022.0,"address":"富山県砺波市野村島645","latitude":36.60673141479492,"longitude":136.9428253173828,"category":"ホテル/コテージ","description":"2022年10月オープン。部屋数3室の宿泊施設。デザイナー家具や内藤礼のアート作品など","image_url":""},{"id":11797,"title":"芝浦工業大学 本部棟","architect":"日建設計+坂茂","year":2022.0,"address":"東京都江東区豊洲3-7-5","latitude":35.6600227355957,"longitude":139.794677734375,"category":"大学","description":"1Fに坂茂設計によるカフェ、レストラン","image_url":""},{"id":11798,"title":"お宿Onn中津川","architect":"成瀬・猪熊建築設計事務所","year":2022.0,"address":"岐阜県中津川市新町7","latitude":35.496864318847656,"longitude":137.50437927246094,"category":"ホテル","description":"","image_url":""},{"id":11799,"title":"松本市立博物館","architect":"久米設計+伊藤建築設計事務所+乃村工藝社","year":2022.0,"address":"長野県松本市大手3-2-27","latitude":36.23527526855469,"longitude":137.9684600830078,"category":"博物館","description":"建築自体は竣工済み。2023年10月7日にオープン","image_url":""},{"id":11800,"title":"岸本瓦町邸","architect":"笹川慎一","year":1931.0,"address":"大阪府大阪市中央区瓦町1-2-1","latitude":34.686222076416016,"longitude":135.5092315673828,"category":"洋館","description":"","image_url":""}]}