{"page":260,"total_pages":290,"items_per_page":50,"total_items":14467,"items":[{"id":12951,"title":"グリーンズ四日市ビル","architect":"竹中工務店","year":2022.0,"address":"三重県四日市市浜田町5-3","latitude":34.96564483642578,"longitude":136.61952209472656,"category":"オフィスビル","description":"グリーンズ本社、コンフォートホテル四日市","image_url":""},{"id":12952,"title":"UNS bldg E&Y ショールーム","architect":"有馬裕之","year":2001.0,"address":"東京都目黒区駒場1-32-17","latitude":35.658382415771484,"longitude":139.6837615966797,"category":"店舗/住宅","description":"E&Y ショールーム","image_url":""},{"id":12953,"title":"暮らせる図書館","architect":"植村康平","year":2022.0,"address":"愛知県名古屋市名東区西山本通2-27 2F","latitude":35.15542984008789,"longitude":136.99493408203125,"category":"図書館","description":"『帰る・くつろぐ・本がある』がコンセプトの私設図書館","image_url":""},{"id":12954,"title":"シーパスパーク","architect":"前田茂樹+E-DESIGN+緑景","year":2023.0,"address":"大阪府泉大津市小松町1-55","latitude":34.5079231262207,"longitude":135.40528869628906,"category":"公園","description":"ランドスケープデザインをE-DESIGN、パークセンターの建築設計をジオ−グラフィック・デザイン・ラボが担当","image_url":""},{"id":12955,"title":"上野毛ハウス","architect":"川辺直哉","year":2010.0,"address":"東京都世田谷区上野毛4-33-11","latitude":35.615665435791016,"longitude":139.6370086669922,"category":"集合住宅","description":"","image_url":""},{"id":12956,"title":"ederux","architect":"植村康平","year":2022.0,"address":"愛知県豊橋市四ツ谷町3-66-1","latitude":34.8170051574707,"longitude":137.3687286376953,"category":"美容院","description":"公園のある美容院","image_url":""},{"id":12957,"title":"ラーメンイロドリ","architect":"植村康平","year":2023.0,"address":"岐阜県各務原市蘇原大島町4-25-1","latitude":35.41781997680664,"longitude":136.8452911376953,"category":"レストラン","description":"","image_url":""},{"id":12958,"title":"Calm植物店","architect":"植村康平","year":2023.0,"address":"愛知県名古屋市南区内田橋1-5-4","latitude":35.1155891418457,"longitude":136.90711975097656,"category":"店舗","description":"ナゴヤ商店街オープンから誕生した店舗","image_url":""},{"id":12959,"title":"赤坂Bizタワー","architect":"久米設計","year":2008.0,"address":"東京都港区赤坂5-3-1","latitude":35.673187255859375,"longitude":139.7363739013672,"category":"オフィスビル/複合ビル","description":"","image_url":""},{"id":12960,"title":"代田幼稚園","architect":"篠原聡子","year":2017.0,"address":"東京都世田谷区代田2-17-14","latitude":35.656219482421875,"longitude":139.66061401367188,"category":"幼稚園","description":"","image_url":""},{"id":12961,"title":"N-STAGE NISHITANABE","architect":"藤本高志","year":2024.0,"address":"大阪府大阪市阿倍野区西田辺町1-18-22","latitude":34.62107467651367,"longitude":135.5148162841797,"category":"テナントビル","description":"","image_url":""},{"id":12962,"title":"cabane fukushima","architect":"藤本高志","year":2023.0,"address":"大阪府大阪市福島区玉川4-6-23","latitude":34.689971923828125,"longitude":135.47845458984375,"category":"店舗","description":"","image_url":""},{"id":12963,"title":"守谷市市民交流プラザ 旧住宅・都市整備公団 常総開発事務所","architect":"内井昭蔵","year":1989.0,"address":"茨城県守谷市御所ケ丘5-25-1","latitude":35.96659851074219,"longitude":139.97137451171875,"category":"児童施設/公民館・交流施設","description":"","image_url":""},{"id":12964,"title":"中央区立晴海地域交流センター はるみらい","architect":"類設計室","year":2023.0,"address":"東京都中央区晴海5-2-3","latitude":35.65190505981445,"longitude":139.77493286132812,"category":"児童施設/公民館・交流施設","description":"2000年に竣工した中央区立温浴プラザを晴海フラッグによる人口増加に対応して、新たな地域交流拠点として大規模改修を行った案件","image_url":""},{"id":12965,"title":"MYOKO BASE CAMP","architect":"荻原雅史","year":2022.0,"address":"新潟県妙高市関川2228-1","latitude":36.86481475830078,"longitude":138.17507934570312,"category":"シェアオフィス","description":"","image_url":""},{"id":12966,"title":"竹内医院","architect":"篠原聡子","year":2010.0,"address":"千葉県富津市大堀2-14-15","latitude":35.33266830444336,"longitude":139.85479736328125,"category":"個人医院","description":"","image_url":""},{"id":12967,"title":"マグリア自由が丘","architect":"篠原聡子","year":2011.0,"address":"東京都世田谷区奥沢5-8-12","latitude":35.60361862182617,"longitude":139.66831970214844,"category":"集合住宅","description":"GoogleMaps上ではオリジナルのグレー系の色から赤色に塗り替えられているようにみえる","image_url":""},{"id":12968,"title":"スラッシュ北千束","architect":"篠原聡子","year":2006.0,"address":"東京都大田区北千束3-12-11","latitude":35.60721969604492,"longitude":139.68850708007812,"category":"集合住宅","description":"4軒の長屋","image_url":""},{"id":12969,"title":"Rete Tamaplaza","architect":"篠原聡子","year":2003.0,"address":"神奈川県横浜市青葉区美しが丘1-5-5","latitude":35.57771301269531,"longitude":139.55638122558594,"category":"集合住宅/店舗","description":"","image_url":""},{"id":12970,"title":"東金市立嶺南幼稚園","architect":"篠原聡子","year":1993.0,"address":"千葉県東金市堀上947-2","latitude":35.55026626586914,"longitude":140.37513732910156,"category":"幼稚園","description":"","image_url":""},{"id":12971,"title":"日本女子大学 附属豊明幼稚園","architect":"篠原聡子","year":2011.0,"address":"東京都文京区目白台1-18-14","latitude":35.715087890625,"longitude":139.71969604492188,"category":"幼稚園","description":"","image_url":""},{"id":12972,"title":"謝敷集落の宿 やんばるホテル南溟森室 上ン根","architect":"STUDIO MONAKA","year":2022.0,"address":"沖縄県国頭郡国頭村謝敷161","latitude":26.780799865722656,"longitude":128.2147674560547,"category":"コテージ","description":"","image_url":""},{"id":12973,"title":"花藏院霊園 ようようの庭","architect":"浅利幸男","year":2023.0,"address":"東京都府中市宮西町5-20-1","latitude":35.66893768310547,"longitude":139.4747772216797,"category":"霊園/庭園","description":"","image_url":""},{"id":12974,"title":"鷹来屋ガーデンささら","architect":"光浦高史","year":2023.0,"address":"大分県豊後大野市緒方町下自在503","latitude":32.97386932373047,"longitude":131.46343994140625,"category":"カフェ/店舗","description":"","image_url":""},{"id":12975,"title":"築地TEN HAUS","architect":"アーキテクトファイブ","year":1992.0,"address":"東京都中央区築地2-4-10","latitude":35.6695671081543,"longitude":139.77340698242188,"category":"オフィスビル","description":"","image_url":""},{"id":12976,"title":"SNPビル","architect":"中村弘道","year":1997.0,"address":"東京都中央区築地2-1-16","latitude":35.670101165771484,"longitude":139.77284240722656,"category":"オフィスビル","description":"","image_url":""},{"id":12977,"title":"一九堂ビル","architect":"芦原太郎","year":1989.0,"address":"東京都中央区築地1-9-5","latitude":35.66914749145508,"longitude":139.7715606689453,"category":"オフィスビル","description":"","image_url":""},{"id":12978,"title":"中央区立明石小学校","architect":"松田平田設計","year":2012.0,"address":"東京都中央区明石町1-15","latitude":35.66870880126953,"longitude":139.77667236328125,"category":"学校","description":"","image_url":""},{"id":12979,"title":"聖路加国際病院トイスラー記念館","architect":"ジョン・ヴァン・ウィ・バーガミニー","year":1933.0,"address":"東京都中央区明石町10","latitude":35.66743850708008,"longitude":139.7760467529297,"category":"博物館/洋館","description":"宣教師会館だった建築を1998年現在地に移築復元","image_url":""},{"id":12980,"title":"紙の資料館 特種製紙Pam A館","architect":"坂茂","year":2001.0,"address":"静岡県駿東郡長泉町本宿437","latitude":35.12166976928711,"longitude":138.8910369873047,"category":"博物館/低層オフィス/企業施設","description":"","image_url":""},{"id":12981,"title":"紙の建築 PTS/06 旧MDSギャラリー","architect":"坂茂","year":1994.0,"address":"東京都渋谷区大山町36-18","latitude":35.6685791015625,"longitude":139.67474365234375,"category":"低層オフィス/ギャラリー","description":"現存するが不動産屋の事務所として使われ、外観は相当変化している","image_url":""},{"id":12982,"title":"今井病院付属託児所","architect":"坂茂","year":2001.0,"address":"秋田県大館市片山町3-11-13-1","latitude":40.276859283447266,"longitude":140.533203125,"category":"幼稚園","description":"","image_url":""},{"id":12983,"title":"紙の温室 レ・トネル","architect":"坂茂","year":2019.0,"address":"石川県金沢市岩出町ハ50-1","latitude":36.6142578125,"longitude":136.69857788085938,"category":"レストラン","description":"","image_url":""},{"id":12984,"title":"フィレンデールな女子寮 ハニーズ社員寮","architect":"坂茂","year":2006.0,"address":"福島県いわき市中央台飯野4-18-6","latitude":37.01769256591797,"longitude":140.9148712158203,"category":"寮","description":"","image_url":""},{"id":12985,"title":"ガラスシャッターのスタジオ","architect":"坂茂","year":2002.0,"address":"東京都目黒区自由が丘3-10-18","latitude":35.6095085144043,"longitude":139.66427612304688,"category":"レストラン/住宅","description":"","image_url":""},{"id":12986,"title":"熊本県立東稜高等学校","architect":"木島安史","year":1988.0,"address":"熊本県熊本市東区小峯4-5-10","latitude":32.8000373840332,"longitude":130.7784881591797,"category":"学校","description":"","image_url":""},{"id":12987,"title":"武蔵野大学 5号館 グリーンホール","architect":"原広司","year":1990.0,"address":"東京都西東京市新町1-1-20","latitude":35.717308044433594,"longitude":139.54910278320312,"category":"大学","description":"","image_url":""},{"id":12988,"title":"武蔵野大学付属幼稚園","architect":"原広司","year":1990.0,"address":"東京都西東京市新町1-1-20","latitude":35.71780776977539,"longitude":139.54603576660156,"category":"幼稚園","description":"","image_url":""},{"id":12989,"title":"跡見学園女子大学 新座キャンパス 図書館・研究室棟","architect":"日本設計","year":1992.0,"address":"埼玉県新座市中野1-9-6","latitude":35.81719207763672,"longitude":139.54293823242188,"category":"大学/図書館","description":"","image_url":""},{"id":12990,"title":"バードハミングサイクルランド","architect":"森俊偉","year":1993.0,"address":"石川県白山市釜清水町 バードハミングサイクルランド","latitude":36.369110107421875,"longitude":136.6103973388672,"category":"公園","description":"どこまで建築が残っているか不明。一部施設は取り壊されてると思われる。白山展望タワーや野外ステージなどは現存していると思われる","image_url":""},{"id":12991,"title":"淡路島山勝工場","architect":"石山修武","year":1994.0,"address":"兵庫県淡路市多賀610-12","latitude":34.454559326171875,"longitude":134.8445587158203,"category":"シェアオフィス","description":"シェアオフィスやイベントスペースとして貸し出しているとある","image_url":""},{"id":12992,"title":"慶應義塾大学 湘南藤沢キャンパス 大学院研究所","architect":"槇文彦","year":1994.0,"address":"神奈川県藤沢市遠藤5322","latitude":35.3891716003418,"longitude":139.4257049560547,"category":"大学","description":"","image_url":""},{"id":12993,"title":"根上ふれあいプール","architect":"森俊偉","year":1995.0,"address":"石川県能美市浜町2-4","latitude":36.447105407714844,"longitude":136.45689392089844,"category":"プール","description":"","image_url":""},{"id":12994,"title":"金城大学短期大学部","architect":"パンデコン建築設計研究所","year":1976.0,"address":"石川県白山市笠間町1200","latitude":36.5085563659668,"longitude":136.53053283691406,"category":"大学","description":"","image_url":""},{"id":12995,"title":"金沢工業大学 21号館","architect":"水野一郎+蜂谷俊雄","year":2010.0,"address":"石川県野々市市高橋町23","latitude":36.529964447021484,"longitude":136.629150390625,"category":"大学","description":"","image_url":""},{"id":12996,"title":"金沢工業大学 国際高等専門学校 金沢キャンパス","architect":"水野一郎+田中光","year":1991.0,"address":"石川県金沢市高橋町2-270","latitude":36.5326042175293,"longitude":136.62933349609375,"category":"専門学校","description":"","image_url":""},{"id":12997,"title":"ライブハウス泉ケ丘","architect":"相田武文","year":1980.0,"address":"石川県金沢市伏見新町261","latitude":36.53424835205078,"longitude":136.65016174316406,"category":"集合住宅","description":"","image_url":""},{"id":12998,"title":"箔座ひかり藏","architect":"水野一郎","year":2004.0,"address":"石川県金沢市東山1-13-18","latitude":36.57250213623047,"longitude":136.6671142578125,"category":"店舗","description":"","image_url":""},{"id":12999,"title":"蓮池濠手洗所","architect":"渡辺明+池田昌弘","year":2005.0,"address":"東京都千代田区千代田1-1","latitude":35.68470764160156,"longitude":139.7548828125,"category":"トイレ","description":"","image_url":""},{"id":13000,"title":"優々の森保育園 温水プール","architect":"今村雅樹","year":2005.0,"address":"埼玉県所沢市東狭山ケ丘4-2659-3","latitude":35.80819320678711,"longitude":139.42813110351562,"category":"幼稚園/プール","description":"","image_url":""}]}