{"page":36,"total_pages":290,"items_per_page":50,"total_items":14467,"items":[{"id":1751,"title":"平山電気商会本社ビル","architect":"ヌーブ","year":2007.0,"address":"新潟県村上市上片町2-19","latitude":38.2285270690918,"longitude":139.49166870117188,"category":"企業施設","description":"","image_url":""},{"id":1752,"title":"扇屋旅館","architect":"SALHAUS+大坪輝史+泉井保盛","year":2012.0,"address":"新潟県村上市田端町10-15","latitude":38.22067642211914,"longitude":139.4650115966797,"category":"ホテル/旅館","description":"","image_url":""},{"id":1753,"title":"新潟市美術館","architect":"前川國男","year":1985.0,"address":"新潟市中央区西大畑町5191-9","latitude":37.928428649902344,"longitude":139.04173278808594,"category":"美術館","description":"2015年にリニューアル。設計者は前川國男+ミド同人名義。","image_url":""},{"id":1754,"title":"紙の美術博物館 旧オプスおぐに","architect":"毛綱毅曠","year":1993.0,"address":"新潟県長岡市小国町上岩田208","latitude":37.281063079833984,"longitude":138.71633911132812,"category":"博物館","description":"","image_url":""},{"id":1755,"title":"長岡造形大学 第3アトリエ棟","architect":"日本設計","year":2010.0,"address":"新潟県長岡市千秋4-197","latitude":37.46660614013672,"longitude":138.83126831054688,"category":"大学","description":"","image_url":""},{"id":1756,"title":"長岡市医師会館","architect":"Team TERRA","year":2003.0,"address":"新潟県長岡市寺島町315-6","latitude":37.46333312988281,"longitude":138.8262481689453,"category":"組合施設","description":"","image_url":""},{"id":1757,"title":"天地人のフォリー","architect":"八束はじめ","year":1998.0,"address":"新潟県長岡市宮本東方町1921","latitude":37.42730712890625,"longitude":138.74749755859375,"category":"公園","description":"","image_url":""},{"id":1758,"title":"山古志闘牛場","architect":"山下秀之","year":2009.0,"address":"新潟県長岡市山古志南平乙986","latitude":37.32734298706055,"longitude":138.90989685058594,"category":"スポーツ施設","description":"","image_url":""},{"id":1759,"title":"長岡市立東中学校","architect":"渡部和生+木村博幸","year":2009.0,"address":"新潟県長岡市水道町5-1-1","latitude":37.460365295410156,"longitude":138.8463134765625,"category":"学校","description":"","image_url":""},{"id":1760,"title":"国営越後丘陵公園 花と緑の館","architect":"木村博幸","year":2003.0,"address":"新潟県長岡市宮本東方町字中山1921","latitude":37.443538665771484,"longitude":138.74325561523438,"category":"博物館","description":"","image_url":""},{"id":1761,"title":"えちご川口ホテルサンローラ","architect":"柳澤孝彦","year":2007.0,"address":"新潟県長岡市川口中山2515-4","latitude":37.267642974853516,"longitude":138.8687744140625,"category":"ホテル","description":"","image_url":""},{"id":1762,"title":"アオーレ長岡","architect":"隈研吾","year":2012.0,"address":"新潟県長岡市大手通1-4-10","latitude":37.446617126464844,"longitude":138.8511962890625,"category":"庁舎/総合文化施設/体育館","description":"","image_url":"https://farm9.staticflickr.com/8559/8909482799_30b45239aa_h.jpg"},{"id":1763,"title":"長岡リリックホール","architect":"伊東豊雄","year":1996.0,"address":"新潟県長岡市千秋3-1356-6","latitude":37.46498107910156,"longitude":138.82937622070312,"category":"ホール・劇場","description":"","image_url":"https://lh3.googleusercontent.com/-14GWVNCg3U4/T63QkiU7juI/AAAAAAAALG4/zVvKg0tHvuo/s1024/P4258673.jpg"},{"id":1764,"title":"長岡市子育ての駅千秋 てくてく","architect":"山下秀之+木村博幸","year":2009.0,"address":"新潟県長岡市千秋1-99-6","latitude":37.45433044433594,"longitude":138.8263397216797,"category":"幼稚園/PA・道の駅","description":"","image_url":"https://farm8.staticflickr.com/7425/12318535514_6887fce3dc_h.jpg"},{"id":1765,"title":"今泉記念館","architect":"香山壽夫","year":1989.0,"address":"新潟県南魚沼市下一日市855","latitude":37.003395080566406,"longitude":138.81951904296875,"category":"博物館","description":"","image_url":""},{"id":1766,"title":"雲洞庵仏舎利塔","architect":"鈴木恂","year":1978.0,"address":"新潟県南魚沼市雲洞660","latitude":37.03053283691406,"longitude":138.8905487060547,"category":"寺院","description":"","image_url":""},{"id":1767,"title":"柏崎市文化会館 アルフォーレ","architect":"仙田満","year":2012.0,"address":"新潟県柏崎市日石町4-32","latitude":37.365360260009766,"longitude":138.5601043701172,"category":"ホール・劇場","description":"","image_url":""},{"id":1768,"title":"陽の楽家","architect":"隈研吾","year":2000.0,"address":"新潟県柏崎市高柳町荻ノ島1097","latitude":37.19934844970703,"longitude":138.6262969970703,"category":"住宅","description":"","image_url":""},{"id":1769,"title":"YKK滑川寮","architect":"大野秀敏","year":1994.0,"address":"富山県滑川市上小泉13","latitude":36.75334548950195,"longitude":137.35964965820312,"category":"寮","description":"","image_url":""},{"id":1770,"title":"滑川市民交流プラザ","architect":"三四五建築研究所","year":2007.0,"address":"富山県滑川市吾妻町426","latitude":36.76749801635742,"longitude":137.34429931640625,"category":"総合文化施設/温泉/公民館・交流施設","description":"","image_url":""},{"id":1771,"title":"ほたるいかミュージアム","architect":"トム・ヘネガン+安藤和浩","year":1997.0,"address":"富山県滑川市中川原410","latitude":36.774375915527344,"longitude":137.34445190429688,"category":"美術館","description":"","image_url":""},{"id":1772,"title":"アウトサイドライン","architect":"ダニエル・リベスキンド","year":1997.0,"address":"富山県魚津市出字桃山36","latitude":36.79404067993164,"longitude":137.43637084960938,"category":"オブジェ","description":"","image_url":""},{"id":1773,"title":"高岡市美術館","architect":"内井昭蔵","year":1992.0,"address":"富山県高岡市中川1-1-30","latitude":36.751312255859375,"longitude":137.0265350341797,"category":"美術館","description":"","image_url":""},{"id":1774,"title":"瑞龍寺","architect":"不明","year":1657.0,"address":"富山県高岡市関本町35","latitude":36.7355842590332,"longitude":137.010498046875,"category":"寺院","description":"","image_url":""},{"id":1775,"title":"富山県産業創造センター 高岡テクノドーム","architect":"内井昭蔵","year":1990.0,"address":"富山県高岡市二塚322-5","latitude":36.72184753417969,"longitude":137.01817321777344,"category":"展示・会議場","description":"","image_url":""},{"id":1776,"title":"ミュゼふくおかカメラ館","architect":"安藤忠雄","year":2000.0,"address":"富山県高岡市福岡町福岡新559","latitude":36.711448669433594,"longitude":136.92979431152344,"category":"博物館","description":"","image_url":""},{"id":1777,"title":"YKKセンターパーク 丸屋根展示館","architect":"大野秀敏","year":2007.0,"address":"富山県黒部市吉田200","latitude":36.898284912109375,"longitude":137.42843627929688,"category":"博物館","description":"","image_url":""},{"id":1778,"title":"YKK50ビル","architect":"大野秀敏+宮崎浩","year":1984.0,"address":"富山県黒部市吉田200","latitude":36.89842987060547,"longitude":137.43052673339844,"category":"企業施設","description":"2006年宮崎浩によりリノベーション","image_url":""},{"id":1779,"title":"YKK黒部堀切寮","architect":"TEOアーキテクツ+NKS2アーキテクツ","year":1999.0,"address":"富山県黒部市堀切1547","latitude":36.87737274169922,"longitude":137.43576049804688,"category":"寮","description":"","image_url":""},{"id":1780,"title":"YKK黒部寮","architect":"ヘルマン・へルツベルハー+小澤丈夫+鴻池組","year":1998.0,"address":"富山県黒部市天神新115","latitude":36.86858367919922,"longitude":137.4376220703125,"category":"寮","description":"","image_url":""},{"id":1781,"title":"YKK前沢ガーデン桜花園","architect":"渡邉健介","year":2008.0,"address":"富山県黒部市前沢3418","latitude":36.860233306884766,"longitude":137.4605712890625,"category":"公園","description":"4月のみ一般公開","image_url":""},{"id":1782,"title":"想影橋展望台","architect":"エンリック・ミラーレス","year":1993.0,"address":"富山県黒部市宇奈月町舟見明日音澤","latitude":36.81903839111328,"longitude":137.5799102783203,"category":"展望台","description":"富山県黒部市宇奈月町舟見明日音沢字馬瀬谷8の甲","image_url":""},{"id":1783,"title":"COLARE 黒部市国際文化センター","architect":"新居千秋","year":1995.0,"address":"富山県黒部市三日市20  ","latitude":36.87965393066406,"longitude":137.45291137695312,"category":"総合文化施設/ホール・劇場/図書館","description":"","image_url":""},{"id":1784,"title":"スポーツ公園 風の塔","architect":"ロン・ヘロン","year":1993.0,"address":"富山県黒部市堀切1142","latitude":36.880897521972656,"longitude":137.427734375,"category":"オブジェ","description":"","image_url":""},{"id":1785,"title":"公園の中の特別養護老人ホーム「越之湖」","architect":"長谷川逸子","year":2000.0,"address":"富山県黒部市堀切1002","latitude":36.880638122558594,"longitude":137.42465209960938,"category":"養護施設","description":"","image_url":""},{"id":1786,"title":"射水市新湊博物館","architect":"内井昭蔵","year":1998.0,"address":"富山県射水市鏡宮299","latitude":36.75248718261719,"longitude":137.08468627929688,"category":"博物館","description":"","image_url":""},{"id":1787,"title":"射水市大島絵本館","architect":"長谷川逸子","year":1994.0,"address":"富山県射水市鳥取50","latitude":36.73423385620117,"longitude":137.07398986816406,"category":"博物館","description":"","image_url":""},{"id":1788,"title":"道の駅 カモンパーク新湊","architect":"内井昭蔵","year":1998.0,"address":"富山県射水市鏡宮296","latitude":36.752010345458984,"longitude":137.0849609375,"category":"PA・道の駅","description":"","image_url":""},{"id":1789,"title":"川の駅新湊","architect":"森俊偉","year":2009.0,"address":"富山県射水市立町1-26","latitude":36.78093719482422,"longitude":137.08770751953125,"category":"博物館","description":"","image_url":""},{"id":1790,"title":"東橋","architect":"セザール・ポルテラ","year":1992.0,"address":"富山県射水市八幡町1-20-15","latitude":36.779571533203125,"longitude":137.09083557128906,"category":"橋","description":"","image_url":""},{"id":1791,"title":"時の館","architect":"ゴードン・ベンソン&アラン・フォーサイス","year":1993.0,"address":"富山県射水市新開発425","latitude":36.73086929321289,"longitude":137.07444763183594,"category":"その他文化施設","description":"解体","image_url":""},{"id":1792,"title":"太閤山ランド 展望台 ／ ふるさとパレス","architect":"葉祥栄","year":1992.0,"address":"富山県射水市黒河4774-6","latitude":36.69123840332031,"longitude":137.1055145263672,"category":"テーマパーク/展望台","description":"富山県こどもみらい館も併設","image_url":""},{"id":1793,"title":"太閤山ランド こどもみらい館","architect":"仙田満","year":1992.0,"address":"富山県射水市黒河4774-6","latitude":36.69679641723633,"longitude":137.1051025390625,"category":"児童施設","description":"県民公園太閤山ランド内","image_url":""},{"id":1794,"title":"クロスランドおやべ","architect":"水野一郎","year":1994.0,"address":"富山県小矢部市鷲島10","latitude":36.65621566772461,"longitude":136.8787078857422,"category":"博物館","description":"","image_url":""},{"id":1795,"title":"馬場島展望休憩施設 ピーターハウス","architect":"ピーター・ソルター","year":1992.0,"address":"富山県中新川郡上市町伊折深谷1","latitude":36.64735794067383,"longitude":137.5543212890625,"category":"その他文化施設/展望台","description":"","image_url":""},{"id":1796,"title":"じょうはな織館 旧城端織物組合","architect":"不明","year":1928.0,"address":"富山県南砺市城端648-1","latitude":36.5142707824707,"longitude":136.9025421142578,"category":"洋館","description":"","image_url":""},{"id":1797,"title":"富山市民プラザ","architect":"槇文彦","year":1989.0,"address":"富山県富山市大手町6-14","latitude":36.690433502197266,"longitude":137.2109375,"category":"総合文化施設","description":"","image_url":""},{"id":1798,"title":"百河豚美術館","architect":"天藤久雄","year":1983.0,"address":"富山県下新川郡朝日町不動堂6","latitude":36.92152404785156,"longitude":137.55393981933594,"category":"美術館","description":"","image_url":""},{"id":1799,"title":"砺波市出町子供歌舞伎曳山会館","architect":"森俊偉","year":2004.0,"address":"富山県砺波市出町中央5-4","latitude":36.64092254638672,"longitude":136.955810546875,"category":"博物館","description":"","image_url":""},{"id":1800,"title":"となみ散居村ミュージアム情報館","architect":"新居千秋","year":2006.0,"address":"富山県砺波市太郎丸80","latitude":36.62589645385742,"longitude":136.96385192871094,"category":"観光施設","description":"","image_url":""}]}