{"page":105,"total_pages":290,"items_per_page":50,"total_items":14467,"items":[{"id":5201,"title":"大分県立美術館","architect":"坂茂","year":2015.0,"address":"大分県大分市寿町2-1","latitude":33.23942565917969,"longitude":131.60133361816406,"category":"美術館","description":"JIA日本建築大賞受賞者名：坂茂、平賀信孝、菅井啓太","image_url":""},{"id":5202,"title":"千葉トヨペット社屋 旧日本勧業銀行社屋","architect":"武田五一+妻木頼黄","year":1899.0,"address":"千葉県千葉市美浜区稲毛海岸4-5-1","latitude":35.63645935058594,"longitude":140.07785034179688,"category":"低層オフィス/金融機関","description":"","image_url":""},{"id":5203,"title":"千葉市ゆかりの家・いなげ","architect":"不明","year":null,"address":"千葉県千葉市稲毛区稲毛1-16-12","latitude":35.63622283935547,"longitude":140.08145141601562,"category":"古民家","description":"","image_url":""},{"id":5204,"title":"千葉市民ギャラリー・いなげ 旧神谷伝兵衛別荘","architect":"不明","year":1918.0,"address":"千葉県千葉市稲毛区稲毛1-8-35","latitude":35.63420486450195,"longitude":140.08326721191406,"category":"洋館","description":"","image_url":""},{"id":5205,"title":"鎌倉歴史文化交流センター 旧鎌倉ハウス","architect":"ノーマン・フォスター","year":2004.0,"address":"神奈川県鎌倉市扇ガ谷1-5-7","latitude":35.322628021240234,"longitude":139.5473175048828,"category":"住宅/博物館","description":"2017年5月オープン予定。日曜・祝日休館。","image_url":""},{"id":5206,"title":"cafe/day","architect":"長坂常","year":2015.0,"address":"静岡県沼津市沼北町1-14-26","latitude":35.11494064331055,"longitude":138.8558349609375,"category":"カフェ","description":"以前の谷尻誠設計の店舗は閉鎖？","image_url":""},{"id":5207,"title":"京都YWCA サマリア館","architect":"ウィリアム・メレル・ヴォーリズ","year":1936.0,"address":"京都市上京区室町通出水上ル近衛町44","latitude":35.02165985107422,"longitude":135.75775146484375,"category":"店舗","description":"","image_url":""},{"id":5208,"title":"表参道ブランチーズ","architect":"藤本壮介","year":2014.0,"address":"東京都渋谷区神宮前6-13-3","latitude":35.66645431518555,"longitude":139.705322265625,"category":"集合住宅","description":"","image_url":""},{"id":5209,"title":"西武池袋本店屋上 食と緑の空中庭園","architect":"トラフ建築設計事務所","year":2015.0,"address":"東京都豊島区南池袋1-28-1","latitude":35.72907638549805,"longitude":139.71163940429688,"category":"レストラン/庭園","description":"","image_url":""},{"id":5210,"title":"武雄温泉楼門","architect":"辰野金吾","year":1915.0,"address":"佐賀県武雄市武雄町大字武雄7425","latitude":33.196231842041016,"longitude":130.01467895507812,"category":"温泉/博物館","description":"","image_url":""},{"id":5211,"title":"佐世保市博物館 島瀬美術センター","architect":"岡野真","year":1983.0,"address":"長崎県佐世保市島瀬町6-22","latitude":33.1727409362793,"longitude":129.72067260742188,"category":"美術館/博物館","description":"","image_url":""},{"id":5212,"title":"洋々閣","architect":"不明+柿沼守利","year":1912.0,"address":"佐賀県唐津市東唐津2-4-40","latitude":33.45082092285156,"longitude":129.9833984375,"category":"旅館","description":"改修を柿沼守利が手がけた","image_url":""},{"id":5213,"title":"OASISひろば21","architect":"日建設計","year":1998.0,"address":"大分県大分市高砂町2-33","latitude":33.238441467285156,"longitude":131.6015625,"category":"ホール・劇場/複合施設/ホテル","description":"","image_url":""},{"id":5214,"title":"三河田原駅","architect":"安藤忠雄","year":2013.0,"address":"愛知県田原市田原町東大浜4-12","latitude":34.66697311401367,"longitude":137.26919555664062,"category":"駅","description":"","image_url":""},{"id":5215,"title":"鎌倉山集会所","architect":"堀部安嗣","year":2015.0,"address":"神奈川県鎌倉市鎌倉山1-15-13","latitude":35.318511962890625,"longitude":139.51976013183594,"category":"公民館・交流施設","description":"","image_url":""},{"id":5216,"title":"道の駅ファームス木島平","architect":"三浦丈典","year":2015.0,"address":"長野県下高井郡木島平村大字上木島38-1","latitude":36.85215759277344,"longitude":138.38844299316406,"category":"PA・道の駅","description":"","image_url":""},{"id":5217,"title":"東戸塚教会","architect":"平田晃久","year":2015.0,"address":"神奈川県横浜市戸塚区名瀬町2950-5","latitude":35.43828582763672,"longitude":139.530029296875,"category":"教会","description":"2015年7月より見学受け付け開始。土曜日の10:00〜16:00、要事前申し込み。","image_url":""},{"id":5218,"title":"龍泉寺 八聖殿","architect":"浅利幸男","year":2015.0,"address":"埼玉県川口市青木5-5-36","latitude":35.81832504272461,"longitude":139.72061157226562,"category":"寺院","description":"","image_url":""},{"id":5219,"title":"南相馬市消防・防災センター","architect":"永山建築設計+小堀哲夫","year":2015.0,"address":"福島県南相馬市原町区高見町1-272","latitude":37.63880920410156,"longitude":140.98526000976562,"category":"警察・消防署/博物館","description":"","image_url":""},{"id":5220,"title":"浜寺公園駅旧駅舎","architect":"辰野金吾+片岡安","year":1907.0,"address":"大阪府堺市浜寺公園町2-188","latitude":34.540916442871094,"longitude":135.4444122314453,"category":"駅/カフェ/ギャラリー","description":"30m先に曳家移築。現在はカフェ・ギャラリー。","image_url":""},{"id":5221,"title":"日本銀行大阪支店","architect":"辰野金吾+日建設計","year":1903.0,"address":"大阪府大阪市北区中之島2-1-45","latitude":34.69379425048828,"longitude":135.4998016357422,"category":"金融機関","description":"見学は2週間前までの事前予約制。月曜日～金曜日、午前・午後の部。","image_url":""},{"id":5222,"title":"京都文化博物館別館 旧日本銀行京都支店","architect":"辰野金吾+長野宇平治","year":1906.0,"address":"京都府京都市中京区東片町623-1","latitude":35.008785247802734,"longitude":135.7622833251953,"category":"博物館/金融機関","description":"","image_url":""},{"id":5223,"title":"みずほ銀行京都中央支店 旧第一銀行京都支店","architect":"辰野金吾+葛西萬司","year":1906.0,"address":"京都府京都市中京区饅頭屋町591","latitude":35.008358001708984,"longitude":135.7593231201172,"category":"金融機関","description":"レプリカ再建","image_url":""},{"id":5224,"title":"みなと元町駅 旧第一銀行神戸支店","architect":"辰野金吾","year":1908.0,"address":"兵庫県神戸市中央区栄町通4-4","latitude":34.68568801879883,"longitude":135.1833038330078,"category":"駅/金融機関","description":"外壁のみ","image_url":""},{"id":5225,"title":"岩手銀行赤レンガ館 旧盛岡銀行本店本館","architect":"辰野金吾+葛西萬司","year":1911.0,"address":"岩手県盛岡市中ノ橋通1-2-16","latitude":39.700801849365234,"longitude":141.15530395507812,"category":"金融機関","description":"","image_url":""},{"id":5226,"title":"オペラ・ドメーヌ 旧大阪教育生命保険ビル","architect":"辰野金吾","year":1912.0,"address":"大阪市中央区高麗橋2-6-4","latitude":34.6896858215332,"longitude":135.50381469726562,"category":"結婚式場/オフィスビル","description":"","image_url":""},{"id":5227,"title":"安田工業八幡工場 旧安田製釘所","architect":"辰野金吾","year":1912.0,"address":"福岡県北九州市八幡東区枝光2-7-7","latitude":33.882850646972656,"longitude":130.8127899169922,"category":"工場","description":"","image_url":""},{"id":5228,"title":"日本生命京都三条ビル 旧日本生命京都支店","architect":"辰野金吾+片岡安","year":1914.0,"address":"京都府京都市中京区桝屋町（三条通）75","latitude":35.00877380371094,"longitude":135.76377868652344,"category":"オフィスビル/金融機関","description":"","image_url":""},{"id":5229,"title":"北九州市立旧百三十銀行ギャラリー 旧百三十銀行八幡支店","architect":"辰野金吾+片岡安","year":1915.0,"address":"福岡県北九州市八幡東区西本町1-20-2","latitude":33.868221282958984,"longitude":130.79989624023438,"category":"博物館/金融機関","description":"","image_url":""},{"id":5230,"title":"あまみ温泉 南天苑 本館","architect":"辰野金吾+片岡安","year":1913.0,"address":"大阪府河内長野市天見158","latitude":34.397396087646484,"longitude":135.5945587158203,"category":"旅館","description":"","image_url":""},{"id":5231,"title":"森國ベーカリー","architect":"ドットアーキテクツ","year":2015.0,"address":"香川県小豆郡小豆島町馬木甲1010-1","latitude":34.47199249267578,"longitude":134.31927490234375,"category":"カフェ/店舗","description":"","image_url":""},{"id":5232,"title":"擁翠亭 十三窓席","architect":"小堀遠州","year":1624.0,"address":"京都府京都市北区大宮釈迦谷10-37","latitude":35.05768585205078,"longitude":135.7327117919922,"category":"茶室","description":"古田織部美術館内の庭園に150年ぶりに再建","image_url":""},{"id":5233,"title":"北野美術館戸隠館","architect":"今里隆","year":2015.0,"address":"長野県長野市戸隠3686-1","latitude":36.75509262084961,"longitude":138.08441162109375,"category":"美術館","description":"","image_url":""},{"id":5234,"title":"真宗教化センター しんらん交流館","architect":"不明","year":2015.0,"address":"京都市下京区諏訪町通六条下る上柳町199","latitude":34.99350357055664,"longitude":135.75865173339844,"category":"宗教施設/ホール・劇場/レストラン","description":"","image_url":""},{"id":5235,"title":"観峰館 新館","architect":"鹿島建設","year":2015.0,"address":"滋賀県東近江市五個荘竜田町136","latitude":35.15477752685547,"longitude":136.18832397460938,"category":"美術館","description":"","image_url":""},{"id":5236,"title":"和歌山県立情報交流センター BigU","architect":"昭和設計","year":2004.0,"address":"和歌山県田辺市新庄町3353-9","latitude":33.695926666259766,"longitude":135.39572143554688,"category":"総合文化施設/図書館/レストラン","description":"","image_url":""},{"id":5237,"title":"函館市縄文文化交流センター","architect":"アトリエブンク","year":2011.0,"address":"北海道函館市臼尻町551-1","latitude":41.927757263183594,"longitude":140.94488525390625,"category":"博物館","description":"","image_url":""},{"id":5238,"title":"ピグモン","architect":"隈研吾","year":2015.0,"address":"東京都品川区東品川2-5-5","latitude":35.6212158203125,"longitude":139.7493896484375,"category":"店舗","description":"","image_url":""},{"id":5239,"title":"岐南町新庁舎・中央公民館・保健相談センター","architect":"kw+hgアーキテクツ","year":2015.0,"address":"岐阜県羽島郡岐南町八剣7-107","latitude":35.38969802856445,"longitude":136.7825927734375,"category":"庁舎","description":"","image_url":""},{"id":5240,"title":"共働学舎新得農場カリンパニホール","architect":"川人洋志","year":2015.0,"address":"北海道上川郡新得町新得9-1","latitude":43.0851936340332,"longitude":142.81642150878906,"category":"公民館・交流施設","description":"","image_url":""},{"id":5241,"title":"船越小学校放課後児童クラブ オランダ島ハウス","architect":"マーティン・ヴァン・ダー・リンデン","year":2014.0,"address":"岩手県下閉伊郡山田町船越第9地割10-1","latitude":39.43986129760742,"longitude":141.9829559326172,"category":"公民館・交流施設/児童施設","description":"","image_url":""},{"id":5242,"title":"スタイルベーカリー","architect":"SNARK","year":2013.0,"address":"群馬県桐生市浜松町1-2-16","latitude":36.40498733520508,"longitude":139.3384246826172,"category":"店舗","description":"","image_url":""},{"id":5243,"title":"glass + wood ベストワークス本社","architect":"濱田猛","year":2014.0,"address":"滋賀県甲賀市水口町北泉1-11","latitude":34.98329162597656,"longitude":136.1435546875,"category":"低層オフィス","description":"","image_url":""},{"id":5244,"title":"Slanting Form 楠台自治会館","architect":"山森隆司","year":2014.0,"address":"大阪府河内長野市日東町16-17","latitude":34.4395866394043,"longitude":135.57810974121094,"category":"公民館・交流施設","description":"","image_url":""},{"id":5245,"title":"たなか整形外科","architect":"髙木昭良","year":2014.0,"address":"静岡県浜松市北区豊岡町398","latitude":34.79151916503906,"longitude":137.73080444335938,"category":"個人医院","description":"","image_url":""},{"id":5246,"title":"ヘアサロン スランドル","architect":"BHIS","year":2014.0,"address":"福島県いわき市鹿島町久保3-3-9","latitude":36.988433837890625,"longitude":140.90260314941406,"category":"店舗","description":"","image_url":""},{"id":5247,"title":"筑波愛児園","architect":"K+Sアーキテクツ","year":2014.0,"address":"茨城県つくば市前野308-5","latitude":36.15593338012695,"longitude":140.06214904785156,"category":"幼稚園","description":"","image_url":""},{"id":5248,"title":"海の道むなかた館 旧アクシス玄海","architect":"有馬裕之","year":1992.0,"address":"福岡県宗像市深田588","latitude":33.833335876464844,"longitude":130.5110626220703,"category":"観光施設/博物館/図書館","description":"2012年4月にリニューアル","image_url":""},{"id":5249,"title":"雑木林の連層長屋 宮脇町ぐりんど","architect":"長田慶太","year":2014.0,"address":"香川県高松市宮脇町2-10-80","latitude":34.334041595458984,"longitude":134.0373992919922,"category":"集合住宅","description":"","image_url":""},{"id":5250,"title":"柴又帝釈天題経寺 鳳翔会館","architect":"菊竹清訓","year":1973.0,"address":"東京都葛飾区柴又7-10-3","latitude":35.75859069824219,"longitude":139.87823486328125,"category":"宗教施設","description":"","image_url":""}]}