{"page":263,"total_pages":290,"items_per_page":50,"total_items":14467,"items":[{"id":13101,"title":"旧諸戸精太郎邸洋室","architect":"鈴木禎次","year":1916.0,"address":"三重県桑名市太一丸18-1","latitude":35.069637298583984,"longitude":136.6924591064453,"category":"洋館","description":"主屋東側に増築された洋室","image_url":""},{"id":13102,"title":"オリナス一宮 旧名古屋銀行一宮支店","architect":"鈴木禎次","year":1924.0,"address":"愛知県一宮市本町2-4-34","latitude":35.30457305908203,"longitude":136.80148315429688,"category":"洋館/金融機関/公民館・交流施設","description":"","image_url":""},{"id":13103,"title":"旧豊田喜一郎邸","architect":"鈴木禎次","year":1933.0,"address":"愛知県豊田市池田町南250","latitude":35.10082244873047,"longitude":137.21551513671875,"category":"洋館","description":"10月に年1度内部公開","image_url":""},{"id":13104,"title":"ノリタケカンパニーリミテド事務本館 旧日本陶器事務所","architect":"鈴木禎次","year":1938.0,"address":"愛知県名古屋市西区則武新町3-1-36","latitude":35.17783737182617,"longitude":136.8810272216797,"category":"低層オフィス","description":"","image_url":""},{"id":13105,"title":"NOIE","architect":"相原まどか","year":2012.0,"address":"東京都中野区若宮1-8-8","latitude":35.71674728393555,"longitude":139.64898681640625,"category":"集合住宅","description":"","image_url":""},{"id":13106,"title":"西麻布の集合住宅 Terrace YoshiTsune","architect":"SALHAUS","year":2013.0,"address":"東京都港区西麻布3-8-24","latitude":35.65554428100586,"longitude":139.7256622314453,"category":"集合住宅","description":"","image_url":""},{"id":13107,"title":"月島荘","architect":"三菱地所","year":2013.0,"address":"東京都中央区月島3-26-4","latitude":35.66197204589844,"longitude":139.7781524658203,"category":"集合住宅/寮","description":"","image_url":""},{"id":13108,"title":"不動前ハウス","architect":"常山未央","year":2013.0,"address":"東京都品川区西五反田3-12","latitude":35.627559661865234,"longitude":139.7146759033203,"category":"集合住宅/寮","description":"","image_url":""},{"id":13109,"title":"シェアプレイス東神奈川99","architect":"リビタ+古澤大輔","year":2013.0,"address":"神奈川県横浜市神奈川区白幡南町25-1","latitude":35.48500061035156,"longitude":139.63526916503906,"category":"集合住宅/寮","description":"築50年の社員寮をシェア型集合住宅に改修","image_url":""},{"id":13110,"title":"加須の美容室 セルフコンフィデンス","architect":"マウントフジアーキテクツスタジオ","year":2014.0,"address":"埼玉県加須市中央1-9-29","latitude":36.12515640258789,"longitude":139.59547424316406,"category":"美容院","description":"","image_url":""},{"id":13111,"title":"メゾン ド グラムール","architect":"三井ホーム+平岡信彦","year":2013.0,"address":"東京都中央区銀座2-8-8","latitude":35.67271423339844,"longitude":139.76792907714844,"category":"集合住宅/店舗","description":"","image_url":""},{"id":13112,"title":"赤羽の集合住宅 Timber House","architect":"KUS","year":2014.0,"address":"東京都北区赤羽2-28-8","latitude":35.780311584472656,"longitude":139.72604370117188,"category":"集合住宅/店舗","description":"1Fは書店","image_url":""},{"id":13113,"title":"善根湯×版築プロジェクト","architect":"齊藤正","year":2013.0,"address":"香川県丸亀市本島町笠島","latitude":34.39069366455078,"longitude":133.7902069091797,"category":"温泉/ギャラリー","description":"","image_url":""},{"id":13114,"title":"浅草橋Iビル アネックス","architect":"みかんぐみ","year":2014.0,"address":"東京都台東区浅草橋2-5-1","latitude":35.69887161254883,"longitude":139.78515625,"category":"オフィスビル/テナントビル","description":"伊東豊雄設計 浅草橋Iビルに隣接","image_url":""},{"id":13115,"title":"新宿労働総合庁舎","architect":"梓設計","year":2013.0,"address":"東京都新宿区百人町4-4-1","latitude":35.709293365478516,"longitude":139.70205688476562,"category":"庁舎","description":"","image_url":""},{"id":13116,"title":"表参道の立体居 Ura 表参道","architect":"藤原徹平","year":2014.0,"address":"東京都渋谷区神宮前4-21-10","latitude":35.66834259033203,"longitude":139.70826721191406,"category":"集合住宅/店舗","description":"","image_url":""},{"id":13117,"title":"東京国際空港 国際線旅客ターミナル増築","architect":"梓設計+安井建築設計+シーザー・ペリ","year":2014.0,"address":"東京都大田区羽田空港2-6-5","latitude":35.54867935180664,"longitude":139.76889038085938,"category":"空港","description":"","image_url":""},{"id":13118,"title":"北里大学病院","architect":"日建設計","year":2013.0,"address":"神奈川県相模原市南区北里1-15-1","latitude":35.538055419921875,"longitude":139.39300537109375,"category":"病院","description":"","image_url":""},{"id":13119,"title":"埼玉県立がんセンター","architect":"山下設計","year":2013.0,"address":"埼玉県北足立郡伊奈町小室780","latitude":35.98427200317383,"longitude":139.6179656982422,"category":"病院","description":"","image_url":""},{"id":13120,"title":"順天堂医院 B棟高層棟","architect":"日本設計+清水建設","year":2016.0,"address":"東京都文京区本郷2-1-1","latitude":35.70246124267578,"longitude":139.76141357421875,"category":"病院","description":"","image_url":""},{"id":13121,"title":"気仙沼小学校 区留守家庭児童センター","architect":"薩田英男","year":2012.0,"address":"宮城県気仙沼市笹が陣3","latitude":38.90187454223633,"longitude":141.57086181640625,"category":"児童施設","description":"","image_url":""},{"id":13122,"title":"亘理町児童福祉施設","architect":"薩田英男","year":2012.0,"address":"宮城県亘理郡亘理町吉田字宮前40","latitude":38.01173400878906,"longitude":140.85800170898438,"category":"児童施設","description":"","image_url":""},{"id":13123,"title":"京橋こども園","architect":"清水建設","year":2013.0,"address":"東京都中央区京橋2-17-8","latitude":35.676177978515625,"longitude":139.7733917236328,"category":"幼稚園","description":"","image_url":""},{"id":13124,"title":"聖愛幼稚園 第2園舎","architect":"須田充洋","year":2012.0,"address":"東京都福生市熊川490","latitude":35.723270416259766,"longitude":139.33763122558594,"category":"幼稚園","description":"","image_url":""},{"id":13125,"title":"東京ゆりかご幼稚園","architect":"渡辺治","year":2014.0,"address":"東京都八王子市七国3-50-2","latitude":35.61616516113281,"longitude":139.32723999023438,"category":"幼稚園","description":"","image_url":""},{"id":13126,"title":"特別養護老人ホーム いづテラス","architect":"村松基安","year":2008.0,"address":"静岡県三島市松本292-1","latitude":35.09235382080078,"longitude":138.9174041748047,"category":"養護施設","description":"","image_url":""},{"id":13127,"title":"介護老人保健施設 けんゆう苑","architect":"村松基安","year":2001.0,"address":"和歌山県西牟婁郡すさみ町江住800","latitude":33.50551986694336,"longitude":135.60061645507812,"category":"養護施設","description":"","image_url":""},{"id":13128,"title":"稲田病院 産婦人科棟","architect":"村松基安","year":2007.0,"address":"和歌山県和歌山市和田1175","latitude":34.20733642578125,"longitude":135.20655822753906,"category":"病院","description":"","image_url":""},{"id":13129,"title":"ILMA","architect":"村松基安","year":2002.0,"address":"和歌山県和歌山市元博労町55","latitude":34.23515319824219,"longitude":135.16810607910156,"category":"店舗/オフィスビル","description":"","image_url":""},{"id":13130,"title":"赤川クリニック","architect":"村松基安","year":1990.0,"address":"東京都杉並区上荻1-24-6","latitude":35.706581115722656,"longitude":139.61570739746094,"category":"個人医院","description":"","image_url":""},{"id":13131,"title":"日本キリスト教会 栃木教会","architect":"村松基安","year":1983.0,"address":"栃木県栃木市城内町1-10-6","latitude":36.3762092590332,"longitude":139.74346923828125,"category":"教会","description":"","image_url":""},{"id":13132,"title":"かなや幼稚園","architect":"石嶋寿和+小松豪","year":2014.0,"address":"福島県いわき市内郷高坂町四方木田153","latitude":37.04422378540039,"longitude":140.86532592773438,"category":"幼稚園","description":"","image_url":""},{"id":13133,"title":"うれしの東保育園 カンガルーのおうち","architect":"大建met","year":2014.0,"address":"岐阜県羽島郡岐南町伏屋1-39","latitude":35.38727569580078,"longitude":136.7922821044922,"category":"幼稚園","description":"","image_url":""},{"id":13134,"title":"狭山湖畔霊園 管理休憩棟","architect":"中村拓志","year":2013.0,"address":"埼玉県所沢市山口2050","latitude":35.772430419921875,"longitude":139.42271423339844,"category":"霊園","description":"","image_url":""},{"id":13135,"title":"NTT西日本研修センタ 本館","architect":"NTTファシリティーズ","year":2014.0,"address":"大阪府大阪市都島区東野田町4-15-82","latitude":34.69978713989258,"longitude":135.53077697753906,"category":"オフィスビル/研修施設","description":"","image_url":""},{"id":13136,"title":"柏の葉スマートシティ ゲートスクエア","architect":"石本建築事務所+團紀彦","year":2014.0,"address":"千葉県柏市若柴178-4","latitude":35.89480209350586,"longitude":139.9518280029297,"category":"複合ビル","description":"マスタープラン：團紀彦","image_url":""},{"id":13137,"title":"千駄ヶ谷 緑苑ハウス","architect":"青木茂","year":2014.0,"address":"東京都渋谷区千駄ケ谷5-1-9","latitude":35.6818962097168,"longitude":139.70907592773438,"category":"集合住宅","description":"1970年竣工の集合住宅をリファイニング","image_url":""},{"id":13138,"title":"青豆ハウス","architect":"ブルースタジオ","year":2014.0,"address":"東京都練馬区田柄1-16-9","latitude":35.75983810424805,"longitude":139.6484832763672,"category":"集合住宅","description":"","image_url":""},{"id":13139,"title":"LINO","architect":"長田直之","year":2016.0,"address":"東京都杉並区高円寺南3-30-18","latitude":35.70225143432617,"longitude":139.64483642578125,"category":"集合住宅","description":"","image_url":""},{"id":13140,"title":"鹿手袋の離れ","architect":"藤野高志","year":2014.0,"address":"埼玉県さいたま市南区鹿手袋6-6","latitude":35.84531784057617,"longitude":139.63844299316406,"category":"低層オフィス/住宅","description":"","image_url":""},{"id":13141,"title":"APARTMENT N","architect":"藤村龍至","year":2014.0,"address":"東京都目黒区中央町2-23-4","latitude":35.63081741333008,"longitude":139.69134521484375,"category":"集合住宅","description":"","image_url":""},{"id":13142,"title":"西大泉の集合住宅 ATRIA","architect":"谷内田章夫","year":2014.0,"address":"東京都練馬区西大泉1-36-10","latitude":35.75346755981445,"longitude":139.5691680908203,"category":"集合住宅","description":"","image_url":""},{"id":13143,"title":"浦和の集住体 SL Court","architect":"井上雅宏","year":2014.0,"address":"埼玉県さいたま市浦和区岸町1-13-15","latitude":35.850589752197266,"longitude":139.66329956054688,"category":"集合住宅","description":"","image_url":""},{"id":13144,"title":"早稲田大学 中野国際コミュニティプラザ","architect":"石本建築事務所","year":2014.0,"address":"東京都中野区中野4-22-3","latitude":35.709049224853516,"longitude":139.6585235595703,"category":"大学/寮","description":"","image_url":""},{"id":13145,"title":"パークタワー東雲","architect":"清水建設+リシャール・ブリア","year":2014.0,"address":"東京都江東区東雲1-9-4","latitude":35.64509582519531,"longitude":139.8026123046875,"category":"集合住宅","description":"デザイン監修：リシャール・ブリア","image_url":""},{"id":13146,"title":"六郷の集会所","architect":"堀部安嗣","year":2013.0,"address":"東京都大田区西六郷2-32-13","latitude":35.54940414428711,"longitude":139.70542907714844,"category":"寺院","description":"","image_url":""},{"id":13147,"title":"大林組技術研究所 オープンラボ2","architect":"大林組","year":2014.0,"address":"東京都清瀬市下清戸4-640","latitude":35.78938674926758,"longitude":139.53607177734375,"category":"研究施設","description":"","image_url":""},{"id":13148,"title":"日本橋ダイヤビルディング","architect":"三菱地所+竹中工務店","year":2014.0,"address":"東京都中央区日本橋1-19-1","latitude":35.683868408203125,"longitude":139.77780151367188,"category":"オフィスビル","description":"1930年竣工の倉庫を外観保存・増築","image_url":""},{"id":13149,"title":"東京大学 21KOMCEE East","architect":"東京大学キャンパス計画室・同施設部+建築都市デザイン研究所+類設計室","year":2014.0,"address":"東京都目黒区駒場3-8-1","latitude":35.660518646240234,"longitude":139.68637084960938,"category":"大学","description":"","image_url":""},{"id":13150,"title":"花匠のスタジオ 佐々木直喜アトリエ","architect":"小川晋一+池田昌弘","year":2014.0,"address":"三重県三重郡菰野町千草7054-579","latitude":35.01918029785156,"longitude":136.4732666015625,"category":"住宅/ギャラリー","description":"","image_url":""}]}