{"page":60,"total_pages":290,"items_per_page":50,"total_items":14467,"items":[{"id":2951,"title":"針尾送信所無線塔 旧佐世保無線電信所","architect":"吉田直","year":1922.0,"address":"長崎県佐世保市針尾中町750","latitude":33.0663948059082,"longitude":129.7515106201172,"category":"産業遺産","description":"9時00分～12時00分、13時00分～16時00分の間に見学可能になった。電信室が2020年10月より一般公開","image_url":""},{"id":2952,"title":"世知原町歴史民俗資料館","architect":"不明","year":1912.0,"address":"長崎県佐世保市世知原町栗迎83-5","latitude":33.25532531738281,"longitude":129.7498779296875,"category":"洋館","description":"日祝休み","image_url":""},{"id":2953,"title":"とぎつカナリーホール","architect":"久米設計","year":2002.0,"address":"長崎県西彼杵郡時津町野田郷62","latitude":32.82434844970703,"longitude":129.84593200683594,"category":"ホール・劇場","description":"","image_url":""},{"id":2954,"title":"対馬豊玉町 文化の郷","architect":"渡辺豊和","year":1990.0,"address":"長崎県対馬市豊玉町仁位370","latitude":34.39436721801758,"longitude":129.31964111328125,"category":"総合文化施設","description":"","image_url":""},{"id":2955,"title":"長崎総合科学大学シーサイドキャンパス 旧長崎水族館","architect":"武基雄+日建設計","year":1959.0,"address":"長崎県長崎市宿町3-1 ‎","latitude":32.75916290283203,"longitude":129.94444274902344,"category":"大学","description":"2002年に大学としてコンバージョン","image_url":""},{"id":2956,"title":"長崎市科学館","architect":"仙田満","year":1996.0,"address":"長崎県長崎市油木町7","latitude":32.77912139892578,"longitude":129.85496520996094,"category":"博物館","description":"","image_url":""},{"id":2957,"title":"長崎新聞本社ビル","architect":"黒川紀章","year":1980.0,"address":"長崎県長崎市茂里町3-1","latitude":32.76430130004883,"longitude":129.86297607421875,"category":"企業施設","description":"","image_url":""},{"id":2958,"title":"長崎市公会堂","architect":"武基雄","year":1962.0,"address":"長崎県長崎市魚の町4-30","latitude":32.749568939208984,"longitude":129.87965393066406,"category":"ホール・劇場","description":"閉鎖。市民が反対運動も2017年に解体","image_url":""},{"id":2959,"title":"親和銀行 大波止支店","architect":"白井晟一","year":1963.0,"address":"長崎県長崎市五島町4-16","latitude":32.749107360839844,"longitude":129.87266540527344,"category":"金融機関","description":"","image_url":""},{"id":2960,"title":"長崎港上屋 B棟","architect":"北川原温","year":1994.0,"address":"長崎県長崎市元船町14-38","latitude":32.7470703125,"longitude":129.8682403564453,"category":"港","description":"","image_url":""},{"id":2961,"title":"ガーデンテラス長崎","architect":"隈研吾","year":2009.0,"address":"長崎県長崎市秋月町2-3","latitude":32.74565124511719,"longitude":129.85340881347656,"category":"ホテル","description":"レストラン棟の設計は清水建設、監修：隈研吾。2014年にロイヤルテラス棟が竣工。2023年にVIEW TERRACE棟が増築","image_url":""},{"id":2962,"title":"旧香港上海銀行長崎支店記念館","architect":"下田菊太郎","year":1904.0,"address":"長崎県長崎市松が枝町4-27","latitude":32.736385345458984,"longitude":129.86912536621094,"category":"洋館/博物館/金融機関","description":"重要文化財","image_url":""},{"id":2963,"title":"海星学園中央館","architect":"吉阪隆正","year":1958.0,"address":"長崎県長崎市東山手町5-3","latitude":32.73614501953125,"longitude":129.87413024902344,"category":"学校","description":"2015年解体","image_url":""},{"id":2964,"title":"古写真資料館・埋蔵資料館","architect":"不明","year":null,"address":"長崎県長崎市東山手町6-25","latitude":32.735565185546875,"longitude":129.87315368652344,"category":"洋館","description":"","image_url":""},{"id":2965,"title":"出津教会","architect":"マルコ・マリ・ド・ロ","year":1882.0,"address":"長崎県長崎市西出津町2633","latitude":32.84394073486328,"longitude":129.70091247558594,"category":"教会","description":"","image_url":""},{"id":2966,"title":"立山防空壕","architect":"不明","year":null,"address":"長崎県長崎市立山1","latitude":32.753883361816406,"longitude":129.87957763671875,"category":"城郭","description":"","image_url":""},{"id":2967,"title":"長崎歴史文化博物館","architect":"黒川紀章","year":2005.0,"address":"長崎県長崎市立山1-1-1","latitude":32.75287628173828,"longitude":129.8795166015625,"category":"博物館","description":"","image_url":""},{"id":2968,"title":"三菱重工史料館","architect":"不明","year":1898.0,"address":"長崎県長崎市飽之浦町1-1","latitude":32.744117736816406,"longitude":129.8553924560547,"category":"洋館","description":"要予約","image_url":""},{"id":2969,"title":"長崎市歴史民俗資料館 旧出島神学校","architect":"不明","year":1877.0,"address":"長崎県長崎市出島町9-15","latitude":32.74219512939453,"longitude":129.8729248046875,"category":"洋館","description":"","image_url":""},{"id":2970,"title":"旧長崎英国領事館","architect":"ウィリアム・コーワン","year":1907.0,"address":"長崎県長崎市大浦町1-37","latitude":32.73855972290039,"longitude":129.87149047851562,"category":"洋館","description":"閉鎖中","image_url":""},{"id":2971,"title":"須加五々道美術館 南山手乙9番館","architect":"不明","year":null,"address":"長崎県長崎市南山手町3-17","latitude":32.73530197143555,"longitude":129.8683624267578,"category":"洋館","description":"","image_url":""},{"id":2972,"title":"神ノ島教会","architect":"不明","year":null,"address":"長崎県長崎市神ノ島町2-148","latitude":32.718509674072266,"longitude":129.826416015625,"category":"教会","description":"","image_url":""},{"id":2973,"title":"国立長崎原爆死没者追悼平和祈念館","architect":"栗生明","year":2003.0,"address":"長崎県長崎市平野町7-8","latitude":32.77207946777344,"longitude":129.86502075195312,"category":"博物館","description":"","image_url":""},{"id":2974,"title":"日本二十六聖人記念館","architect":"今井兼次","year":1962.0,"address":"長崎県長崎市西坂町7-8","latitude":32.75453567504883,"longitude":129.87203979492188,"category":"教会","description":"","image_url":""},{"id":2975,"title":"長崎県美術館","architect":"隈研吾+日本設計","year":2005.0,"address":"長崎県長崎市出島2-1","latitude":32.74169158935547,"longitude":129.8710479736328,"category":"美術館","description":"日本建築大賞受賞者名：千鳥義典、古賀大、隈研吾","image_url":""},{"id":2976,"title":"長崎原爆資料館","architect":"久米設計","year":1996.0,"address":"長崎県長崎市平野町7-8","latitude":32.77253723144531,"longitude":129.86447143554688,"category":"博物館","description":"","image_url":""},{"id":2977,"title":"ドラゴンプロムナード 長崎港上屋 C棟","architect":"マイケル・ロトンディ+三菱地所","year":1998.0,"address":"長崎県長崎市元船町10-38","latitude":32.74707794189453,"longitude":129.8690643310547,"category":"公園","description":"","image_url":""},{"id":2978,"title":"長崎港松が枝国際ターミナル","architect":"NKS2アーキテクツ+佐々木信明","year":2010.0,"address":"長崎県長崎市松が枝町7-16","latitude":32.736167907714844,"longitude":129.8675994873047,"category":"港","description":"","image_url":""},{"id":2979,"title":"グラバー園","architect":"不明","year":null,"address":"長崎県長崎市南山手町8-1","latitude":32.73339080810547,"longitude":129.86940002441406,"category":"洋館","description":"","image_url":""},{"id":2980,"title":"長崎港ターミナル ビッグビット","architect":"高松伸","year":1995.0,"address":"長崎県長崎市元船町17-3","latitude":32.74564743041992,"longitude":129.8684539794922,"category":"港","description":"","image_url":""},{"id":2981,"title":"大浦天主堂","architect":"不明","year":1864.0,"address":"長崎県長崎市南山手町5-3","latitude":32.73418426513672,"longitude":129.87013244628906,"category":"教会","description":"","image_url":""},{"id":2982,"title":"ナガサキピースミュージアム","architect":"古市徹雄","year":2003.0,"address":"長崎県長崎市松が枝町7-15","latitude":32.73623275756836,"longitude":129.86814880371094,"category":"博物館","description":"","image_url":""},{"id":2983,"title":"雲仙岳災害記念館 がまだすドーム","architect":"久米設計","year":2002.0,"address":"長崎県島原市平成町1-1","latitude":32.74363708496094,"longitude":130.3759002685547,"category":"博物館","description":"","image_url":""},{"id":2984,"title":"南島原市原城図書館","architect":"佐藤総合計画","year":2001.0,"address":"長崎県南島原市南有馬町乙1314-1","latitude":32.63320541381836,"longitude":130.2458953857422,"category":"図書館","description":"","image_url":""},{"id":2985,"title":"山田教会","architect":"鉄川与助","year":1912.0,"address":"長崎県平戸市生月町山田免442","latitude":33.36704635620117,"longitude":129.42678833007812,"category":"教会","description":"","image_url":""},{"id":2986,"title":"諫早市健康福祉センター森山分館","architect":"中村勉","year":2005.0,"address":"長崎県諫早市森山町下井牟田1238","latitude":32.82886505126953,"longitude":130.11810302734375,"category":"福祉センター","description":"","image_url":""},{"id":2987,"title":"諫早市こどもの城","architect":"千葉学","year":2009.0,"address":"長崎県諫早市白木峰町827-2","latitude":32.90727233886719,"longitude":130.0694122314453,"category":"児童施設","description":"","image_url":""},{"id":2988,"title":"コスモス花宇宙館","architect":"不明","year":null,"address":"長崎県諫早市白木峰町828-1","latitude":32.90647506713867,"longitude":130.06971740722656,"category":"博物館","description":"","image_url":""},{"id":2989,"title":"草地畜産研究所畜舎","architect":"トム・ヘネガン+インガ・ダグフィンスドッター","year":1992.0,"address":"熊本県阿蘇市西湯浦1454","latitude":33.00257873535156,"longitude":131.00730895996094,"category":"研究施設","description":"くまもとアートポリス。日本建築学会 作品賞受賞者名：トム・ヘネガン、インガ・ダグフィンスドッター、古川裕久","image_url":""},{"id":2990,"title":"工房 阿蘇ものがたり ／ 四季彩いちのみや","architect":"岡部憲明","year":2004.0,"address":"熊本県阿蘇市一の宮町宮地538-1","latitude":32.95378494262695,"longitude":131.12481689453125,"category":"店舗","description":"くまもとアートポリス","image_url":""},{"id":2991,"title":"阿蘇・散墨園","architect":"堀正人","year":1998.0,"address":"熊本県阿蘇市黒川656","latitude":32.95076370239258,"longitude":131.05902099609375,"category":"公園","description":"撤去されている。閉鎖。","image_url":""},{"id":2992,"title":"草千里公衆トイレ","architect":"アトリエ・ワン","year":1998.0,"address":"熊本県阿蘇市永草2391-15","latitude":32.886268615722656,"longitude":131.0548095703125,"category":"トイレ","description":"くまもとアートポリス","image_url":""},{"id":2993,"title":"阿蘇警察署内牧交番","architect":"中尾寛+岩佐設計","year":2000.0,"address":"熊本県阿蘇市内牧1071-9","latitude":32.97014617919922,"longitude":131.04893493652344,"category":"警察・消防署","description":"くまもとアートポリス","image_url":""},{"id":2994,"title":"湯の香橋","architect":"岸和郎","year":1991.0,"address":"熊本県葦北郡芦北町湯浦","latitude":32.27480697631836,"longitude":130.50088500976562,"category":"橋","description":"くまもとアートポリス","image_url":""},{"id":2995,"title":"県立あしきた青少年の家 宿泊棟・食堂・浴室棟","architect":"エリア・ゼンゲリス+エレーニ・ジガンテス","year":1998.0,"address":"熊本県葦北郡芦北町鶴木山 県立あしきた青少年の家","latitude":32.32052993774414,"longitude":130.46878051757812,"category":"研修施設/その他宿泊施設","description":"くまもとアートポリス","image_url":""},{"id":2996,"title":"物質試行38 県立あしきた青少年の家 本館・体育館","architect":"鈴木了二","year":1998.0,"address":"熊本県葦北郡芦北町鶴木山 県立あしきた青少年の家","latitude":32.3197135925293,"longitude":130.46963500976562,"category":"公共施設/体育館/その他宿泊施設","description":"くまもとアートポリス","image_url":""},{"id":2997,"title":"芦北町民総合センター・芦北町地域資源活用総合交流促進施設","architect":"ワークステーション","year":2009.0,"address":"熊本県葦北郡芦北町花岡1705-1","latitude":32.301719665527344,"longitude":130.50042724609375,"category":"体育館","description":"高橋寛名義。くまもとアートポリス。","image_url":""},{"id":2998,"title":"石打ダム資料館","architect":"入江経一","year":1993.0,"address":"熊本県宇城市三角町中村3629-2","latitude":32.644615173339844,"longitude":130.51852416992188,"category":"博物館","description":"くまもとアートポリス","image_url":""},{"id":2999,"title":"宇城市立豊野小中学校","architect":"小泉雅生","year":2013.0,"address":"熊本県宇城市豊野町糸石3536","latitude":32.63755798339844,"longitude":130.7497100830078,"category":"学校","description":"くまもとアートポリス","image_url":""},{"id":3000,"title":"漁業取締事務所","architect":"小材健治","year":1998.0,"address":"熊本県宇城市三角町三角浦 熊本県漁業取締事務所","latitude":32.608402252197266,"longitude":130.47216796875,"category":"公共施設/組合施設","description":"くまもとアートポリス","image_url":""}]}