{"page":209,"total_pages":290,"items_per_page":50,"total_items":14467,"items":[{"id":10401,"title":"パビリオン・トウキョウ2021 Global Bowl","architect":"平田晃久","year":2021.0,"address":"山形県山形市松栄1-5-13 株式会社シェルター本社 駐車場内","latitude":38.23757553100586,"longitude":140.29542541503906,"category":"オブジェ","description":"2021年7月1日～9月5日まで会期中に公開されたパヴィリオン。現在は株式会社シェルターの駐車場に移築されており、見学可能","image_url":""},{"id":10402,"title":"パビリオン・トウキョウ2021 木陰雲","architect":"石上純也","year":2021.0,"address":"東京都千代田区九段北1-15-9","latitude":35.69602966308594,"longitude":139.74815368652344,"category":"オブジェ","description":"2021年7月1日～9月5日まで会期中に公開されるパヴィリオン","image_url":""},{"id":10403,"title":"パビリオン・トウキョウ2021 ストリート ガーデン シアター","architect":"藤原徹平","year":2021.0,"address":"東京都渋谷区神宮前5-53-1","latitude":35.6617317199707,"longitude":139.7078857421875,"category":"オブジェ","description":"旧こどもの城前。2021年7月1日～9月5日まで会期中に公開されるパヴィリオン","image_url":""},{"id":10404,"title":"淡路幼稚園","architect":"深江康之","year":2021.0,"address":"大阪府大阪市東淀川区東淡路4-12-25","latitude":34.73762512207031,"longitude":135.5179901123047,"category":"幼稚園","description":"","image_url":""},{"id":10405,"title":"善照マイトレーヤ保育園","architect":"深江康之+貴志雅樹","year":2011.0,"address":"兵庫県西宮市郷免町1-12","latitude":34.73678970336914,"longitude":135.3243865966797,"category":"幼稚園","description":"","image_url":""},{"id":10406,"title":"日本基督教団 阿倍野教会","architect":"貴志雅樹","year":1986.0,"address":"大阪府大阪市阿倍野区阿倍野筋5-13-17","latitude":34.637939453125,"longitude":135.50970458984375,"category":"教会","description":"","image_url":""},{"id":10407,"title":"エスパス湯島","architect":"黒川紀章","year":1995.0,"address":"東京都文京区湯島3-39","latitude":35.70774459838867,"longitude":139.771728515625,"category":"テナントビル","description":"","image_url":""},{"id":10408,"title":"ゲートシティ大崎","architect":"日建設計","year":1998.0,"address":"東京都品川区大崎1-11-1","latitude":35.618873596191406,"longitude":139.7313690185547,"category":"複合施設/オフィスビル/集合住宅","description":"","image_url":""},{"id":10409,"title":"K公会堂","architect":"後藤周平","year":2019.0,"address":"静岡県磐田市鎌田2203-1","latitude":34.715572357177734,"longitude":137.8858184814453,"category":"公民館・交流施設","description":"","image_url":""},{"id":10410,"title":"博物館動物園駅","architect":"中川俊二","year":1933.0,"address":"東京都台東区上野公園13-23","latitude":35.71864318847656,"longitude":139.7734832763672,"category":"駅","description":"1931年竣工の情報もあるが公式サイトの記述を記載した。現在は駅としては廃止。不定期に美術展などが開催されている","image_url":""},{"id":10411,"title":"上野桜木あたり","architect":"瀧内未来","year":1938.0,"address":"東京都台東区上野桜木2-15-6","latitude":35.722328186035156,"longitude":139.77098083496094,"category":"モール/古民家","description":"1938年竣工の三軒家を2015年に改修","image_url":""},{"id":10412,"title":"浜松いわた信用金庫 駅南支店","architect":"日建設計","year":2014.0,"address":"静岡県浜松市中区砂山町176","latitude":34.69875717163086,"longitude":137.73440551757812,"category":"金融機関","description":"","image_url":""},{"id":10413,"title":"BALMY SQUARE 京都芳樹園","architect":"相田武文","year":2003.0,"address":"京都府京都市西京区山田北山田町40-3","latitude":34.985595703125,"longitude":135.6884307861328,"category":"店舗","description":"","image_url":""},{"id":10414,"title":"川里ひまわり保育園","architect":"相田武文","year":2002.0,"address":"埼玉県鴻巣市関新田1261-1","latitude":36.10020065307617,"longitude":139.5265350341797,"category":"幼稚園","description":"","image_url":""},{"id":10415,"title":"保善高等学校","architect":"相田武文","year":2001.0,"address":"東京都新宿区大久保3-6-2","latitude":35.706298828125,"longitude":139.70326232910156,"category":"学校","description":"第一期竣工2001年。第二期竣工2003年。","image_url":""},{"id":10416,"title":"下川歯科医院","architect":"SUEP.","year":2009.0,"address":"福岡県筑後市和泉89-1","latitude":33.21004867553711,"longitude":130.49197387695312,"category":"個人医院","description":"","image_url":""},{"id":10417,"title":"中村製紙所","architect":"SUEP.","year":2005.0,"address":"福岡県八女市津江1215","latitude":33.210784912109375,"longitude":130.5836944580078,"category":"低層オフィス","description":"","image_url":""},{"id":10418,"title":"木籠のオフィス 馬場市助商店","architect":"SUEP.","year":2013.0,"address":"福岡県八女市津江200-1","latitude":33.212467193603516,"longitude":130.58067321777344,"category":"低層オフィス","description":"","image_url":""},{"id":10419,"title":"ループリゾート那須","architect":"SUEP.","year":2019.0,"address":"栃木県那須郡那須町高久乙1865-735","latitude":37.084842681884766,"longitude":139.95330810546875,"category":"研修施設/コテージ","description":"太陽光発電所を兼ねた宿泊施設。貸別荘・貸しホールとして一般にも開放されている","image_url":""},{"id":10420,"title":"関内の集合住宅 ZOOM横浜関内","architect":"小山光","year":2021.0,"address":"神奈川県横浜市中区不老町2-8-1","latitude":35.441829681396484,"longitude":139.63638305664062,"category":"集合住宅","description":"","image_url":""},{"id":10421,"title":"TOKYOBIKE TOKYO","architect":"トラフ建築設計事務所","year":2021.0,"address":"東京都江東区三好3-7-2","latitude":35.68035125732422,"longitude":139.803955078125,"category":"店舗","description":"","image_url":""},{"id":10422,"title":"MAGAACY / nunuka","architect":"五十嵐淳","year":2020.0,"address":"北海道札幌市中央区北1条西27-2-15","latitude":43.05757522583008,"longitude":141.3155975341797,"category":"店舗/ギャラリー/美容院","description":"","image_url":""},{"id":10423,"title":"THE TOKYO TOILET 12 鍋島松濤公園トイレ","architect":"隈研吾","year":2021.0,"address":"東京都渋谷区松濤2-10-7","latitude":35.65963363647461,"longitude":139.69154357910156,"category":"トイレ","description":"","image_url":""},{"id":10424,"title":"サーラ音楽ホール","architect":"山下設計+中川猛","year":2021.0,"address":"静岡県浜松市北区新都田3-2-1","latitude":34.818058013916016,"longitude":137.7374725341797,"category":"ホール・劇場","description":"","image_url":""},{"id":10425,"title":"TRUSS WALL HOUSE tamaki niime TOKYO MACHIDA","architect":"ウシダ・フィンドレイ・パートナーシップ","year":1993.0,"address":"東京都町田市大蔵町1","latitude":35.581932067871094,"longitude":139.47738647460938,"category":"店舗/住宅","description":"ファッションブランドtamaki niimeの直営店。2020年、6500万円にて売り出されていた","image_url":""},{"id":10426,"title":"カプセル・イン大阪","architect":"黒川紀章","year":1979.0,"address":"大阪府大阪市北区堂山町9-5","latitude":34.70298767089844,"longitude":135.5037078857422,"category":"ホテル","description":"","image_url":""},{"id":10427,"title":"星野リゾート 界 別府","architect":"隈研吾","year":2021.0,"address":"大分県別府市北浜2-14-29","latitude":33.27949523925781,"longitude":131.50758361816406,"category":"ホテル","description":"","image_url":""},{"id":10428,"title":"岡山県警本部庁舎","architect":"日建設計+倉森建築設計事務所","year":2020.0,"address":"岡山県岡山市北区内山下2-4-6","latitude":34.660987854003906,"longitude":133.93423461914062,"category":"警察・消防署","description":"","image_url":""},{"id":10429,"title":"倉敷中央病院付属予防医療プラザ","architect":"日建設計","year":2019.0,"address":"岡山県倉敷市鶴形1-11-11","latitude":34.60139846801758,"longitude":133.7740478515625,"category":"病院","description":"","image_url":""},{"id":10430,"title":"世田谷村","architect":"石山修武","year":2001.0,"address":"東京都世田谷区南烏山2-16-4","latitude":35.6674919128418,"longitude":139.60562133789062,"category":"低層オフィス/住宅","description":"","image_url":""},{"id":10431,"title":"Akebono Crystal Wing","architect":"大江匡","year":2001.0,"address":"埼玉県羽生市東5-4-71","latitude":36.17585372924805,"longitude":139.5479736328125,"category":"低層オフィス/研究施設","description":"","image_url":""},{"id":10432,"title":"FARM THEATRE山北小路 きふね","architect":"有馬裕之","year":2018.0,"address":"福岡県うきは市浮羽町山北694-1","latitude":33.3358268737793,"longitude":130.81875610351562,"category":"レストラン/コテージ","description":"","image_url":""},{"id":10433,"title":"明善寺 本堂","architect":"伊東忠太","year":1934.0,"address":"山形県山形市七日町5-9-3","latitude":38.249786376953125,"longitude":140.34152221679688,"category":"寺院","description":"","image_url":""},{"id":10434,"title":"二田コミュニティセンター","architect":"伊比均","year":2008.0,"address":"新潟県柏崎市西山町坂田5155","latitude":37.452293395996094,"longitude":138.65374755859375,"category":"公民館・交流施設","description":"","image_url":""},{"id":10435,"title":"富士ヶ嶺観音堂","architect":"石山修武","year":2004.0,"address":"山梨県南都留郡富士河口湖町富士ヶ嶺300","latitude":35.39907455444336,"longitude":138.6386260986328,"category":"霊園/宗教施設","description":"航空写真でしか場所が確認出来ていないので間違っているかもしれません","image_url":""},{"id":10436,"title":"至誠館なしのはな保育園・至誠館さくら乳児院","architect":"石山修武","year":2011.0,"address":"神奈川県川崎市多摩区菅稲田堤1-10-5","latitude":35.63544845581055,"longitude":139.535400390625,"category":"幼稚園","description":"","image_url":""},{"id":10437,"title":"十六山保育園","architect":"石山修武","year":2005.0,"address":"神奈川県大和市中央林間6-32-6","latitude":35.51194763183594,"longitude":139.44386291503906,"category":"幼稚園","description":"","image_url":""},{"id":10438,"title":"厚生館愛児園増築・リノベーション","architect":"石山修武","year":2004.0,"address":"神奈川県川崎市多摩区多摩区菅稲田堤1-11-8","latitude":35.6356086730957,"longitude":139.53567504882812,"category":"幼稚園","description":"","image_url":""},{"id":10439,"title":"カサ・エストレリータ","architect":"石山修武","year":1986.0,"address":"静岡県賀茂郡松崎町松崎23","latitude":34.749027252197266,"longitude":138.77676391601562,"category":"店舗","description":"","image_url":""},{"id":10440,"title":"法華津峠展望台","architect":"松村正恒","year":1959.0,"address":"愛媛県西予市宇和町皆田","latitude":33.33533477783203,"longitude":132.52699279785156,"category":"展望台","description":"","image_url":""},{"id":10441,"title":"神戸市立須磨離宮公園植物園","architect":"瀧光夫","year":1980.0,"address":"兵庫県神戸市須磨区東須磨1-1","latitude":34.65382766723633,"longitude":135.1208038330078,"category":"動植物園","description":"","image_url":""},{"id":10442,"title":"兵庫県立フラワーセンター大温室","architect":"瀧光夫","year":1977.0,"address":"兵庫県加西市鶉野町1074-45","latitude":34.905426025390625,"longitude":134.86117553710938,"category":"動植物園","description":"","image_url":""},{"id":10443,"title":"にしき堂 光町本店・本社ビル","architect":"瀧光夫","year":1985.0,"address":"広島県広島市東区光町1-13-23","latitude":34.399085998535156,"longitude":132.47909545898438,"category":"店舗/オフィスビル","description":"","image_url":""},{"id":10444,"title":"にしき堂 福山南蔵王店","architect":"瀧光夫","year":2003.0,"address":"広島県福山市南蔵王町2-27-22","latitude":34.50596237182617,"longitude":133.39727783203125,"category":"店舗","description":"","image_url":""},{"id":10445,"title":"にしき堂 平和大通り田中町店","architect":"瀧光夫","year":2003.0,"address":"広島県広島市中区田中町5-11","latitude":34.387901306152344,"longitude":132.46498107910156,"category":"店舗","description":"","image_url":""},{"id":10446,"title":"Three Mushrooms THE TOKYO TOILET 06 代々木八幡トイレ","architect":"伊東豊雄","year":2021.0,"address":"東京都渋谷区代々木5-1-2","latitude":35.67140579223633,"longitude":139.6879425048828,"category":"トイレ","description":"","image_url":""},{"id":10447,"title":"Involve KYOKUTOH FACTORY","architect":"伴尚憲","year":2018.0,"address":"愛知県日進市折戸町中屋敷181-1","latitude":35.124908447265625,"longitude":137.0453643798828,"category":"低層オフィス/工場","description":"","image_url":""},{"id":10448,"title":"Mirrors Rooohair","architect":"伴尚憲","year":2014.0,"address":"岐阜県岐阜市茜部大野2-67","latitude":35.39469528198242,"longitude":136.75148010253906,"category":"美容院","description":"カフェとしては閉業し美容院になっています。旧カフェ・SEIKA","image_url":""},{"id":10449,"title":"TOKYO TORCH 常盤橋タワー","architect":"三菱地所","year":2021.0,"address":"東京都千代田区大手町2-6-4","latitude":35.6842041015625,"longitude":139.7705841064453,"category":"オフィスビル","description":"","image_url":""},{"id":10450,"title":"SHAREtenjincho","architect":"篠原聡子+内村綾乃+クマタイチ","year":2021.0,"address":"東京都新宿区天神町1-2","latitude":35.704872131347656,"longitude":139.7310028076172,"category":"集合住宅/シェアオフィス","description":"","image_url":""}]}