{"page":201,"total_pages":290,"items_per_page":50,"total_items":14467,"items":[{"id":10001,"title":"荒川豊蔵資料館","architect":"三菱地所","year":1983.0,"address":"岐阜県可児市久々利柿下久々利352","latitude":35.39976119995117,"longitude":137.13681030273438,"category":"博物館","big_category":"ミュージアム","description":"","image_url":"","tags":"2017年JIA25年賞 登録作品,Ver3.70(2021年1月)の追加建築","prefecture":"岐阜","contractor":"","structural_designer":"","landscape_designer":"","shinkenchiku_url":""},{"id":10002,"title":"クリエイティブ・スペース赤れんが","architect":"今井徹也","year":1982.0,"address":"山口県山口市中河原町5-12","latitude":34.18026351928711,"longitude":131.47731018066406,"category":"ホール・劇場","big_category":"文化施設","description":"","image_url":"","tags":"2017年JIA25年賞 登録作品,Ver3.70(2021年1月)の追加建築","prefecture":"山口","contractor":"","structural_designer":"","landscape_designer":"","shinkenchiku_url":""},{"id":10003,"title":"札幌芸術の森美術館","architect":"久米設計+日本都市設計","year":1990.0,"address":"北海道札幌市南区芸術の森2-70","latitude":42.94206619262695,"longitude":141.34239196777344,"category":"美術館","big_category":"ミュージアム","description":"","image_url":"","tags":"2017年JIA25年賞 登録作品,Ver3.70(2021年1月)の追加建築","prefecture":"北海道","contractor":"","structural_designer":"","landscape_designer":"","shinkenchiku_url":""},{"id":10004,"title":"中銀白井マンシオン・中銀ライフケア白井","architect":"新居千秋","year":1992.0,"address":"千葉県白井市堀込2-1-3","latitude":35.78387451171875,"longitude":140.0499725341797,"category":"集合住宅","big_category":"住宅","description":"","image_url":"","tags":"2017年JIA25年賞 登録作品,Ver3.70(2021年1月)の追加建築","prefecture":"千葉","contractor":"フジタ","structural_designer":"","landscape_designer":"","shinkenchiku_url":""},{"id":10005,"title":"山口県庁舎 本館棟","architect":"日建設計","year":1984.0,"address":"山口県山口市滝町1-1","latitude":34.185951232910156,"longitude":131.47073364257812,"category":"庁舎","big_category":"公共施設","description":"","image_url":"","tags":"2017年JIA25年賞 登録作品,Ver3.70(2021年1月)の追加建築","prefecture":"山口","contractor":"","structural_designer":"","landscape_designer":"","shinkenchiku_url":""},{"id":10006,"title":"神戸松蔭女子学院大学 六甲キャンパス","architect":"竹中工務店","year":1980.0,"address":"兵庫県神戸市灘区篠原伯母野山町1-2-1","latitude":34.727317810058594,"longitude":135.22964477539062,"category":"大学","big_category":"教育","description":"","image_url":"","tags":"2017年JIA25年賞 登録作品,Ver3.70(2021年1月)の追加建築","prefecture":"兵庫","contractor":"竹中工務店","structural_designer":"","landscape_designer":"","shinkenchiku_url":""},{"id":10007,"title":"浦添市保健相談センター","architect":"エー・アール・ジー","year":1989.0,"address":"沖縄県浦添市仲間1-8-1","latitude":26.248964309692383,"longitude":127.71977233886719,"category":"福祉センター","big_category":"医療施設","description":"","image_url":"","tags":"2017年JIA25年賞 登録作品,Ver3.70(2021年1月)の追加建築","prefecture":"沖縄","contractor":"","structural_designer":"","landscape_designer":"","shinkenchiku_url":""},{"id":10008,"title":"宮古市未来創造センター","architect":"門口安則+エー・アール・ジー","year":2019.0,"address":"沖縄県宮古島市平良東仲宗根807","latitude":24.801355361938477,"longitude":125.29121398925781,"category":"図書館/公民館・交流施設","big_category":"文化施設,公共施設","description":"","image_url":"","tags":"Ver3.70(2021年1月)の追加建築","prefecture":"沖縄","contractor":"","structural_designer":"","landscape_designer":"","shinkenchiku_url":""},{"id":10009,"title":"前原どろんこ保育園","architect":"門口安則","year":2019.0,"address":"沖縄県うるま市前原599-1","latitude":26.345985412597656,"longitude":127.83944702148438,"category":"幼稚園","big_category":"教育","description":"","image_url":"","tags":"Ver3.70(2021年1月)の追加建築","prefecture":"沖縄","contractor":"","structural_designer":"","landscape_designer":"","shinkenchiku_url":""},{"id":10010,"title":"沖縄県教職員共済会館 八汐荘","architect":"門口安則","year":2015.0,"address":"沖縄県那覇市松尾1-6-1","latitude":26.21373176574707,"longitude":127.68341827392578,"category":"組合施設","big_category":"公共施設","description":"","image_url":"","tags":"Ver3.70(2021年1月)の追加建築","prefecture":"沖縄","contractor":"","structural_designer":"","landscape_designer":"","shinkenchiku_url":""},{"id":10011,"title":"セブンスターズリゾート石垣","architect":"門口安則","year":2015.0,"address":"沖縄県石垣市伊原間2-278","latitude":24.49212074279785,"longitude":124.28012084960938,"category":"コテージ","big_category":"宿泊","description":"","image_url":"","tags":"Ver3.70(2021年1月)の追加建築","prefecture":"沖縄","contractor":"","structural_designer":"","landscape_designer":"","shinkenchiku_url":""},{"id":10012,"title":"恵庭市立図書館","architect":"日建設計","year":1992.0,"address":"北海道恵庭市恵み野西5-10-2","latitude":42.905826568603516,"longitude":141.58535766601562,"category":"図書館","big_category":"文化施設","description":"","image_url":"","tags":"2017年JIA25年賞 登録作品,Ver3.70(2021年1月)の追加建築","prefecture":"北海道","contractor":"","structural_designer":"","landscape_designer":"","shinkenchiku_url":""},{"id":10013,"title":"櫻井銘木店倉庫","architect":"今井裕夫","year":1993.0,"address":"岐阜県岐阜市元浜町48","latitude":35.43568420410156,"longitude":136.76991271972656,"category":"工場/企業施設","big_category":"企業施設,企業施設","description":"","image_url":"","tags":"2018年JIA25年賞 登録作品,Ver3.70(2021年1月)の追加建築","prefecture":"岐阜","contractor":"富国建設","structural_designer":"","landscape_designer":"","shinkenchiku_url":""},{"id":10014,"title":"YKK AP M&E センタービル","architect":"杉村フリートウッド建築エンジニア建築事務所","year":1992.0,"address":"富山県滑川市杉本3003","latitude":36.7601318359375,"longitude":137.38742065429688,"category":"工場/企業施設","big_category":"企業施設,企業施設","description":"","image_url":"","tags":"2018年JIA25年賞 登録作品,Ver3.70(2021年1月)の追加建築","prefecture":"富山","contractor":"","structural_designer":"","landscape_designer":"","shinkenchiku_url":""},{"id":10015,"title":"中京ゴルフ倶楽部 石野コース クラブハウス","architect":"伊藤建築設計事務所","year":1993.0,"address":"愛知県豊田市芳友町深田510","latitude":35.14623260498047,"longitude":137.25733947753906,"category":"クラブハウス","big_category":"レジャー施設","description":"","image_url":"","tags":"2018年JIA25年賞 登録作品,Ver3.70(2021年1月)の追加建築","prefecture":"愛知","contractor":"","structural_designer":"","landscape_designer":"","shinkenchiku_url":""},{"id":10016,"title":"華鴒大塚美術館","architect":"倉森建築設計事務所","year":1993.0,"address":"岡山県井原市高屋町3-11-5","latitude":34.58152389526367,"longitude":133.43356323242188,"category":"美術館","big_category":"ミュージアム","description":"","image_url":"","tags":"2018年JIA25年賞 登録作品,Ver3.70(2021年1月)の追加建築","prefecture":"岡山","contractor":"大林組","structural_designer":"","landscape_designer":"","shinkenchiku_url":""},{"id":10017,"title":"千駄ヶ谷インテス","architect":"竹中工務店","year":1991.0,"address":"東京都渋谷区千駄ケ谷1-14-5","latitude":35.6776237487793,"longitude":139.7124786376953,"category":"オフィスビル","big_category":"企業施設","description":"","image_url":"","tags":"2018年JIA25年賞 登録作品,Ver3.70(2021年1月)の追加建築","prefecture":"東京","contractor":"竹中工務店","structural_designer":"","landscape_designer":"","shinkenchiku_url":""},{"id":10018,"title":"ミツカングループ本社ビル","architect":"石本建築事務所","year":1992.0,"address":"愛知県半田市中村町2-6","latitude":34.89362335205078,"longitude":136.933349609375,"category":"オフィスビル","big_category":"企業施設","description":"","image_url":"","tags":"2018年JIA25年賞 登録作品,Ver3.70(2021年1月)の追加建築","prefecture":"愛知","contractor":"竹中工務店","structural_designer":"","landscape_designer":"","shinkenchiku_url":""},{"id":10019,"title":"FORUM","architect":"東条設計","year":1987.0,"address":"鹿児島県鹿児島市松原町11-10","latitude":31.587894439697266,"longitude":130.55902099609375,"category":"集合住宅","big_category":"住宅","description":"","image_url":"","tags":"2018年JIA25年賞 登録作品,Ver3.70(2021年1月)の追加建築","prefecture":"鹿児島","contractor":"","structural_designer":"","landscape_designer":"","shinkenchiku_url":""},{"id":10020,"title":"聖路加国際病院","architect":"日建設計","year":1992.0,"address":"東京都中央区明石町9-1","latitude":35.66720962524414,"longitude":139.7770538330078,"category":"病院","big_category":"医療施設","description":"","image_url":"","tags":"2018年JIA25年賞 登録作品,Ver3.70(2021年1月)の追加建築","prefecture":"東京","contractor":"清水建設","structural_designer":"","landscape_designer":"","shinkenchiku_url":""},{"id":10021,"title":"宇都宮市文化会館","architect":"佐藤総合計画","year":1979.0,"address":"栃木県宇都宮市明保野町7-66","latitude":36.54716110229492,"longitude":139.86827087402344,"category":"ホール・劇場","big_category":"文化施設","description":"","image_url":"","tags":"2019年JIA25年賞 登録作品,Ver3.70(2021年1月)の追加建築","prefecture":"栃木","contractor":"大成建設","structural_designer":"","landscape_designer":"","shinkenchiku_url":""},{"id":10022,"title":"墨田区庁舎・すみだリバーサイドホール","architect":"久米設計","year":1990.0,"address":"東京都墨田区吾妻橋1-23-20","latitude":35.71068572998047,"longitude":139.80149841308594,"category":"庁舎/ホール・劇場","big_category":"公共施設,文化施設","description":"","image_url":"","tags":"2019年JIA25年賞 登録作品,Ver3.70(2021年1月)の追加建築","prefecture":"東京","contractor":"鹿島・清水・坂田・岡本建設共同企業体","structural_designer":"","landscape_designer":"","shinkenchiku_url":""},{"id":10023,"title":"三井倉庫箱崎ビル","architect":"竹中工務店","year":1989.0,"address":"東京都中央区日本橋箱崎町19-21","latitude":35.67924118041992,"longitude":139.78672790527344,"category":"オフィスビル","big_category":"企業施設","description":"","image_url":"","tags":"2019年JIA25年賞 登録作品,Ver3.70(2021年1月)の追加建築","prefecture":"東京","contractor":"竹中工務店","structural_designer":"","landscape_designer":"","shinkenchiku_url":""},{"id":10024,"title":"クリスタルタワー","architect":"竹中工務店","year":1990.0,"address":"大阪府大阪市中央区城見1-2-27","latitude":34.69211196899414,"longitude":135.52845764160156,"category":"オフィスビル","big_category":"企業施設","description":"","image_url":"","tags":"2019年JIA25年賞 登録作品,Ver3.70(2021年1月)の追加建築","prefecture":"大阪","contractor":"竹中工務店","structural_designer":"","landscape_designer":"","shinkenchiku_url":""},{"id":10025,"title":"津市久居アルスプラザ","architect":"久米設計+アポアスタイル","year":2020.0,"address":"三重県津市久居東鷹跡町246","latitude":34.67473220825195,"longitude":136.46986389160156,"category":"ホール・劇場","big_category":"文化施設","description":"","image_url":"","tags":"Ver3.70(2021年1月)の追加建築","prefecture":"三重","contractor":"","structural_designer":"","landscape_designer":"","shinkenchiku_url":""},{"id":10026,"title":"ヘルジアンウッド","architect":"隈研吾","year":2020.0,"address":"富山県中新川郡立山町日中上野57-1","latitude":36.66035079956055,"longitude":137.3471221923828,"category":"レストラン/店舗/観光施設","big_category":"商業施設,商業施設,レジャー施設","description":"レストランの「The Kitchen」「The Table」、イベントスペースの「The Field」、和ハーブ園の「The Garden」、アロマオイル工房の「The Workshop」が竣工。2021年に宿泊施設として「The Villa」、「The Spa」の竣工を予定","image_url":"","tags":"Ver3.70(2021年1月)の追加建築","prefecture":"富山","contractor":"","structural_designer":"","landscape_designer":"","shinkenchiku_url":""},{"id":10027,"title":"那須塩原市図書館 みるる+駅前広場","architect":"伊藤麻理","year":2020.0,"address":"栃木県那須塩原市本町1-1","latitude":36.969329833984375,"longitude":140.05865478515625,"category":"図書館/広場","big_category":"文化施設,文化施設","description":"","image_url":"","tags":"新建築2020年11月号,Ver3.70(2021年1月)の追加建築,2023年日本建築学会 作品選奨,第31回AACA 優秀賞","prefecture":"栃木","contractor":"","structural_designer":"","landscape_designer":"","shinkenchiku_url":""},{"id":10028,"title":"東京ポートシティ竹芝","architect":"鹿島建設+久米設計+コーン・ペダーセン・フォックス+星野裕明 他","year":2020.0,"address":"東京都港区海岸1-7","latitude":35.65509796142578,"longitude":139.7606201171875,"category":"複合ビル/集合住宅","big_category":"企業施設,住宅","description":"クレジット以下のとおり。オフィスタワー設計：鹿島建設/久米設計。オフィスタワー外装デザイン監修：コーン・ペダーセン・フォックス。レジデンスタワーマスターアーキテクツ・デザイン監修：ホシノアーキテクツ（星野裕明）。レジデンスタワー設計：長谷工コーポレーション。","image_url":"","tags":"新建築2020年11月号,Ver3.70(2021年1月)の追加建築","prefecture":"東京","contractor":"","structural_designer":"","landscape_designer":"","shinkenchiku_url":""},{"id":10029,"title":"ウォーターズ竹芝","architect":"ジェイアール東日本建築設計事務所","year":2020.0,"address":"東京都港区海岸1-10-30","latitude":35.65610885620117,"longitude":139.76287841796875,"category":"複合ビル/ホテル","big_category":"企業施設,宿泊","description":"","image_url":"","tags":"新建築2020年11月号,Ver3.70(2021年1月)の追加建築","prefecture":"東京","contractor":"清水建設","structural_designer":"","landscape_designer":"","shinkenchiku_url":""},{"id":10030,"title":"山のようちえん 小郡幼稚園","architect":"竹原義二","year":2020.0,"address":"山口県山口市小郡下郷1889","latitude":34.096500396728516,"longitude":131.38998413085938,"category":"幼稚園","big_category":"教育","description":"","image_url":"","tags":"新建築2020年11月号,Ver3.70(2021年1月)の追加建築","prefecture":"山口","contractor":"安成工務店","structural_designer":"","landscape_designer":"","shinkenchiku_url":""},{"id":10031,"title":"工学院大学附属中学校・高等学校 屋内練習場","architect":"樫原徹","year":2020.0,"address":"東京都八王子市中野町2647-2","latitude":35.68230438232422,"longitude":139.31874084472656,"category":"体育館","big_category":"レジャー施設","description":"","image_url":"","tags":"新建築2020年11月号,Ver3.70(2021年1月)の追加建築","prefecture":"東京","contractor":"","structural_designer":"","landscape_designer":"","shinkenchiku_url":""},{"id":10032,"title":"戸崎のトイレ","architect":"樫原徹","year":2017.0,"address":"広島県尾道市浦崎町1134","latitude":34.399356842041016,"longitude":133.25027465820312,"category":"トイレ","big_category":"公共施設","description":"","image_url":"","tags":"Ver3.70(2021年1月)の追加建築","prefecture":"広島","contractor":"","structural_designer":"","landscape_designer":"","shinkenchiku_url":""},{"id":10033,"title":"浄土真宗本願寺派 正楽寺","architect":"樫原徹","year":2013.0,"address":"東京都足立区東伊興4-2-1","latitude":35.80214309692383,"longitude":139.7898406982422,"category":"寺院","big_category":"宗教","description":"","image_url":"","tags":"Ver3.70(2021年1月)の追加建築","prefecture":"東京","contractor":"","structural_designer":"","landscape_designer":"","shinkenchiku_url":""},{"id":10034,"title":"飯能商工会議所","architect":"野沢正光","year":2020.0,"address":"埼玉県飯能市本町1-7","latitude":35.854515075683594,"longitude":139.31610107421875,"category":"組合施設","big_category":"公共施設","description":"","image_url":"","tags":"新建築2020年11月号,Ver3.70(2021年1月)の追加建築,2023年日本建築学会 作品選奨","prefecture":"埼玉","contractor":"細田建設","structural_designer":"","landscape_designer":"","shinkenchiku_url":""},{"id":10035,"title":"日刊木材新聞社新社屋","architect":"IKDS","year":2020.0,"address":"東京都江東区冬木23-4","latitude":35.675636291503906,"longitude":139.79983520507812,"category":"低層オフィス","big_category":"企業施設","description":"","image_url":"","tags":"新建築2020年11月号,Ver3.70(2021年1月)の追加建築","prefecture":"東京","contractor":"長谷萬カスタムホームズ事業本部","structural_designer":"","landscape_designer":"","shinkenchiku_url":""},{"id":10036,"title":"のだのこども園","architect":"水上哲也","year":2019.0,"address":"千葉県野田市蕃昌338-2","latitude":35.9799690246582,"longitude":139.85519409179688,"category":"幼稚園","big_category":"教育","description":"","image_url":"","tags":"新建築2020年11月号,Ver3.70(2021年1月)の追加建築,第30回AACA 優秀賞","prefecture":"千葉","contractor":"篠原工務店","structural_designer":"","landscape_designer":"","shinkenchiku_url":""},{"id":10037,"title":"大成建設技術センター 風のラボ","architect":"大成建設","year":2019.0,"address":"神奈川県横浜市戸塚区名瀬町344-1","latitude":35.424861907958984,"longitude":139.54244995117188,"category":"研究施設","big_category":"教育","description":"","image_url":"","tags":"新建築2020年11月号,Ver3.70(2021年1月)の追加建築","prefecture":"神奈川","contractor":"大成建設","structural_designer":"","landscape_designer":"","shinkenchiku_url":""},{"id":10038,"title":"流通経済大学龍ケ崎キャンパス 佐伯記念武道館","architect":"清水建設","year":2020.0,"address":"茨城県龍ケ崎市平畑120","latitude":35.917659759521484,"longitude":140.1889190673828,"category":"体育館/大学","big_category":"レジャー施設,教育","description":"","image_url":"","tags":"新建築2020年11月号,Ver3.70(2021年1月)の追加建築","prefecture":"茨城","contractor":"清水建設","structural_designer":"","landscape_designer":"","shinkenchiku_url":""},{"id":10039,"title":"高知学園大学","architect":"平山昌信","year":2020.0,"address":"高知県高知市旭天神町292-26","latitude":33.562355041503906,"longitude":133.50762939453125,"category":"大学","big_category":"教育","description":"","image_url":"","tags":"新建築2020年11月号,Ver3.70(2021年1月)の追加建築","prefecture":"高知","contractor":"岸之上工務店","structural_designer":"","landscape_designer":"","shinkenchiku_url":""},{"id":10040,"title":"やはた幼稚園 保育ルーム","architect":"ビルディングランドスケープ","year":2020.0,"address":"東京都中野区大和町2-30-3","latitude":35.714393615722656,"longitude":139.65086364746094,"category":"幼稚園","big_category":"教育","description":"","image_url":"","tags":"新建築2020年11月号,Ver3.70(2021年1月)の追加建築","prefecture":"東京","contractor":"","structural_designer":"","landscape_designer":"","shinkenchiku_url":""},{"id":10041,"title":"湖の駅 さめうらカヌーテラス","architect":"伊原慶+和久田幸佑+三愛設計","year":2020.0,"address":"高知県土佐郡土佐町田井146-1","latitude":33.75058364868164,"longitude":133.5438232421875,"category":"PA・道の駅","big_category":"インフラ","description":"","image_url":"","tags":"新建築2020年11月号,Ver3.70(2021年1月)の追加建築","prefecture":"高知","contractor":"","structural_designer":"","landscape_designer":"","shinkenchiku_url":""},{"id":10042,"title":"ROBRA 駒沢ステージ1ホームギャラリー","architect":"三菱地所+スタジオ・クハラ・ヤギ+KAP","year":2020.0,"address":"東京都世田谷区駒沢5-10","latitude":35.622802734375,"longitude":139.657470703125,"category":"住宅","big_category":"住宅","description":"住宅展示場。駒沢公園ハウジングギャラリーステージ1 三菱地所ホーム。","image_url":"","tags":"新建築2020年11月号,Ver3.70(2021年1月)の追加建築","prefecture":"東京","contractor":"","structural_designer":"","landscape_designer":"","shinkenchiku_url":""},{"id":10043,"title":"テクノキューブ 住宅品質保証本社","architect":"ポラテック","year":2020.0,"address":"埼玉県越谷市新越谷1-70-5","latitude":35.87220001220703,"longitude":139.78463745117188,"category":"低層オフィス","big_category":"企業施設","description":"","image_url":"","tags":"新建築2020年11月号,Ver3.70(2021年1月)の追加建築","prefecture":"埼玉","contractor":"ポラテック","structural_designer":"","landscape_designer":"","shinkenchiku_url":""},{"id":10044,"title":"小林古径記念美術館","architect":"宮本忠長","year":2020.0,"address":"新潟県上越市本城町7-1","latitude":37.110652923583984,"longitude":138.25498962402344,"category":"美術館","big_category":"ミュージアム","description":"","image_url":"","tags":"新建築2020年12月号,Ver3.70(2021年1月)の追加建築","prefecture":"新潟","contractor":"久保田・清水共同企業体","structural_designer":"","landscape_designer":"","shinkenchiku_url":""},{"id":10045,"title":"京橋エドグラン","architect":"日建設計","year":2020.0,"address":"東京都中央区京橋2-2-1","latitude":35.67737579345703,"longitude":139.76947021484375,"category":"複合ビル","big_category":"企業施設","description":"","image_url":"","tags":"新建築2020年12月号,Ver3.70(2021年1月)の追加建築","prefecture":"東京","contractor":"清水建設","structural_designer":"","landscape_designer":"","shinkenchiku_url":""},{"id":10046,"title":"東京虎ノ門グローバルスクエア","architect":"日本設計","year":2020.0,"address":"東京都港区虎ノ門1-3-1","latitude":35.6699104309082,"longitude":139.74969482421875,"category":"オフィスビル","big_category":"企業施設","description":"","image_url":"","tags":"新建築2020年12月号,Ver3.70(2021年1月)の追加建築","prefecture":"東京","contractor":"竹中工務店","structural_designer":"","landscape_designer":"","shinkenchiku_url":""},{"id":10047,"title":"日比谷OKUROJI","architect":"吉田裕一+交建設計+東鉄工業","year":2020.0,"address":"東京都千代田区内幸町1-7-1","latitude":35.67058181762695,"longitude":139.7593536376953,"category":"モール/店舗/レストラン","big_category":"商業施設,商業施設,商業施設","description":"クレジット 基本調査設計：交建設計。実施設計：東鉄工業。環境デザイン・内装監理：吉田裕一","image_url":"","tags":"新建築2020年12月号,Ver3.70(2021年1月)の追加建築","prefecture":"東京","contractor":"","structural_designer":"","landscape_designer":"","shinkenchiku_url":""},{"id":10048,"title":"日亜化学工業 横浜技術センター","architect":"妹島和世+竹中工務店","year":2020.0,"address":"神奈川県横浜市神奈川区守屋町3-13-19","latitude":35.484657287597656,"longitude":139.65753173828125,"category":"研究施設","big_category":"教育","description":"2号館を新築し、1号館を2号館の外観にあわせて改修。クレジット 北面ガラスファサード・2号館1階・1号館ロビー改修・ランドスケープ：妹島和世 建屋全体：竹中工務店","image_url":"","tags":"新建築2020年12月号,Ver3.70(2021年1月)の追加建築","prefecture":"神奈川","contractor":"竹中工務店","structural_designer":"","landscape_designer":"","shinkenchiku_url":""},{"id":10049,"title":"LIXIL WINGビル HOSHI","architect":"三菱地所","year":2019.0,"address":"東京都江東区大島2-1-1","latitude":35.69037628173828,"longitude":139.8218994140625,"category":"オフィスビル","big_category":"企業施設","description":"","image_url":"","tags":"新建築2020年12月号,Ver3.70(2021年1月)の追加建築","prefecture":"東京","contractor":"鹿島建設","structural_designer":"","landscape_designer":"","shinkenchiku_url":""},{"id":10050,"title":"市川市役所 第1庁舎","architect":"山下設計","year":2020.0,"address":"千葉県市川市八幡1-1-1","latitude":35.72184753417969,"longitude":139.9308319091797,"category":"庁舎","big_category":"公共施設","description":"","image_url":"","tags":"新建築2020年12月号,Ver3.70(2021年1月)の追加建築","prefecture":"千葉","contractor":"竹中工務店・大城組特定建設工事共同企業体","structural_designer":"","landscape_designer":"","shinkenchiku_url":""}]}