{"page":41,"total_pages":290,"items_per_page":50,"total_items":14467,"items":[{"id":2001,"title":"京都市スポーツ施設森林文化交流センター・森愛館","architect":"吉村篤一","year":1998.0,"address":"京都府京都市左京区花脊八桝町250","latitude":35.22013473510742,"longitude":135.78179931640625,"category":"ホール・劇場","big_category":"文化施設","description":"","image_url":"","tags":"","prefecture":"京都","contractor":"","structural_designer":"","landscape_designer":"","shinkenchiku_url":""},{"id":2002,"title":"京都精華大学 自在館","architect":"新井清一","year":2000.0,"address":"京都府京都市左京区岩倉木野町137","latitude":35.073734283447266,"longitude":135.7720489501953,"category":"大学","big_category":"教育","description":"","image_url":"","tags":"","prefecture":"京都","contractor":"","structural_designer":"","landscape_designer":"","shinkenchiku_url":""},{"id":2003,"title":"同志社小学校","architect":"高松伸","year":2006.0,"address":"京都府京都市左京区岩倉大鷺町89-1","latitude":35.06826400756836,"longitude":135.78619384765625,"category":"学校","big_category":"教育","description":"","image_url":"","tags":"","prefecture":"京都","contractor":"","structural_designer":"","landscape_designer":"","shinkenchiku_url":""},{"id":2004,"title":"同志社中学校・高等学校","architect":"香山壽夫","year":2010.0,"address":"京都府京都市左京区岩倉大鷺町89","latitude":35.06712341308594,"longitude":135.78611755371094,"category":"学校","big_category":"教育","description":"","image_url":"","tags":"","prefecture":"京都","contractor":"","structural_designer":"","landscape_designer":"","shinkenchiku_url":""},{"id":2005,"title":"京都工業繊維大学 KIT HOUSE","architect":"岸和郎","year":2010.0,"address":"京都府京都市左京区松ヶ崎橋上町1","latitude":35.04962158203125,"longitude":135.7813262939453,"category":"大学","big_category":"教育","description":"","image_url":"","tags":"","prefecture":"京都","contractor":"","structural_designer":"","landscape_designer":"","shinkenchiku_url":""},{"id":2006,"title":"ジャイアントストア京都紫明通 旧ナカガワ・フォト・ギャラリー","architect":"村上徹","year":1993.0,"address":"京都府京都市北区小山中溝町15","latitude":35.03879928588867,"longitude":135.75624084472656,"category":"ギャラリー","big_category":"ミュージアム","description":"","image_url":"","tags":"","prefecture":"京都","contractor":"","structural_designer":"","landscape_designer":"","shinkenchiku_url":""},{"id":2007,"title":"京都大学 総合博物館南館","architect":"宗本順三","year":2000.0,"address":"京都府京都市左京区吉田本町36-1","latitude":35.02723693847656,"longitude":135.77931213378906,"category":"博物館/大学","big_category":"ミュージアム,教育","description":"","image_url":"","tags":"","prefecture":"京都","contractor":"","structural_designer":"","landscape_designer":"","shinkenchiku_url":""},{"id":2008,"title":"京都大学 医学部芝蘭会館","architect":"日建設計","year":2004.0,"address":"京都府京都市左京区吉田橘町 百周年記念施設芝蘭会館","latitude":35.024375915527344,"longitude":135.7777557373047,"category":"ホール・劇場/大学","big_category":"文化施設,教育","description":"","image_url":"","tags":"","prefecture":"京都","contractor":"","structural_designer":"","landscape_designer":"","shinkenchiku_url":""},{"id":2009,"title":"無鄰菴 洋館","architect":"新家孝正+小川治兵衛","year":1898.0,"address":"京都府京都市左京区南禅寺草川町48","latitude":35.01142120361328,"longitude":135.786865234375,"category":"洋館/庭園","big_category":"近代建築/遺産,文化施設","description":"庭園を7代目小川治兵衛が手がける","image_url":"","tags":"","prefecture":"京都","contractor":"","structural_designer":"","landscape_designer":"","shinkenchiku_url":""},{"id":2010,"title":"エースホテル京都 新風館 旧京都中央電話局","architect":"リチャード・ロジャース+NTTファシリティーズ+吉田鉄郎+隈研吾","year":1926.0,"address":"京都府京都市中京区烏丸通姉小路下ル場之町586-2","latitude":35.00954818725586,"longitude":135.7601776123047,"category":"ホテル/モール","big_category":"宿泊,商業施設","description":"1926年竣工、吉田鉄郎設計の京都中央電話局をリチャード・ロジャース+NTTファシリティーズにより2001年改装。その後隈研吾改修により2020年4月にエースホテル京都として開業予定","image_url":"","tags":"新建築2020年9月号","prefecture":"京都","contractor":"","structural_designer":"","landscape_designer":"","shinkenchiku_url":""},{"id":2011,"title":"スフェラビル","architect":"クラーソン・コイヴィスト・ルーネ","year":2003.0,"address":"京都府京都市東山区弁財天町17","latitude":35.00597381591797,"longitude":135.77259826660156,"category":"テナントビル/店舗","big_category":"商業施設,商業施設","description":"","image_url":"","tags":"","prefecture":"京都","contractor":"","structural_designer":"","landscape_designer":"","shinkenchiku_url":""},{"id":2012,"title":"ルイ・ヴィトン 京都大丸店","architect":"永山祐子","year":2004.0,"address":"京都府京都市下京区四条通り高倉西入ル立売西町82","latitude":35.0035514831543,"longitude":135.762451171875,"category":"店舗","big_category":"商業施設","description":"","image_url":"","tags":"新建築2005年1月号","prefecture":"京都","contractor":"","structural_designer":"","landscape_designer":"","shinkenchiku_url":""},{"id":2013,"title":"壬生寺 阿弥陀堂","architect":"山本良介","year":2002.0,"address":"京都府京都市中京区壬生梛ノ宮町31","latitude":35.00169372558594,"longitude":135.7437744140625,"category":"寺院","big_category":"宗教","description":"","image_url":"","tags":"","prefecture":"京都","contractor":"","structural_designer":"","landscape_designer":"","shinkenchiku_url":""},{"id":2014,"title":"清水順正 おかべ家 五龍閣","architect":"武田五一","year":1921.0,"address":"京都府京都市東山区清水2-239","latitude":34.99568176269531,"longitude":135.78115844726562,"category":"レストラン","big_category":"商業施設","description":"","image_url":"","tags":"","prefecture":"京都","contractor":"","structural_designer":"","landscape_designer":"","shinkenchiku_url":""},{"id":2015,"title":"京都国立博物館","architect":"片山東熊","year":1895.0,"address":"京都府京都市東山区茶屋町527","latitude":34.989437103271484,"longitude":135.772705078125,"category":"博物館","big_category":"ミュージアム","description":"","image_url":"","tags":"","prefecture":"京都","contractor":"","structural_designer":"","landscape_designer":"","shinkenchiku_url":""},{"id":2016,"title":"柳原銀行記念資料館","architect":"不明","year":1899.0,"address":"京都府京都市下京区下之町","latitude":34.986202239990234,"longitude":135.7644805908203,"category":"洋館/金融機関","big_category":"近代建築/遺産,企業施設","description":"","image_url":"","tags":"","prefecture":"京都","contractor":"","structural_designer":"","landscape_designer":"","shinkenchiku_url":""},{"id":2017,"title":"川島テキスタイルスクール","architect":"内井昭蔵","year":1973.0,"address":"京都府京都市左京区静市市原町418","latitude":35.08616256713867,"longitude":135.7567901611328,"category":"学校","big_category":"教育","description":"","image_url":"","tags":"","prefecture":"京都","contractor":"","structural_designer":"","landscape_designer":"","shinkenchiku_url":""},{"id":2018,"title":"国立京都国際会館 本館","architect":"大谷幸夫","year":1966.0,"address":"京都府京都市左京区岩倉大鷺町422","latitude":35.06104278564453,"longitude":135.783203125,"category":"展示・会議場/公共施設/ホール・劇場","big_category":"公共施設,公共施設,文化施設","description":"","image_url":"","tags":"公共建築百選,DOCOMOMO","prefecture":"京都","contractor":"","structural_designer":"","landscape_designer":"","shinkenchiku_url":""},{"id":2019,"title":"京都府庁旧本館","architect":"松室重光+久留正道","year":1904.0,"address":"京都府京都市上京区藪之内町下立売通新町西入","latitude":35.021541595458984,"longitude":135.75540161132812,"category":"洋館/公共施設","big_category":"近代建築/遺産,公共施設","description":"","image_url":"","tags":"","prefecture":"京都","contractor":"","structural_designer":"","landscape_designer":"","shinkenchiku_url":""},{"id":2020,"title":"松尾大社 「上古の庭」「曲水の庭」「蓬莱の庭」「枯山水の中庭」","architect":"重森三玲","year":1975.0,"address":"京都府京都市西京区嵐山宮町3","latitude":34.99996566772461,"longitude":135.68516540527344,"category":"庭園","big_category":"文化施設","description":"","image_url":"","tags":"","prefecture":"京都","contractor":"","structural_designer":"","landscape_designer":"","shinkenchiku_url":""},{"id":2021,"title":"東福寺 龍吟庵 「不離の庭」「無の庭」","architect":"重森三玲","year":1964.0,"address":"京都府京都市東山区本町15-812","latitude":34.9774284362793,"longitude":135.7748565673828,"category":"庭園","big_category":"文化施設","description":"","image_url":"","tags":"","prefecture":"京都","contractor":"","structural_designer":"","landscape_designer":"","shinkenchiku_url":""},{"id":2022,"title":"重森三玲庭園美術館","architect":"重森三玲","year":1969.0,"address":"京都府京都市左京区吉田上大路町34","latitude":35.02430725097656,"longitude":135.78216552734375,"category":"庭園","big_category":"文化施設","description":"","image_url":"","tags":"","prefecture":"京都","contractor":"","structural_designer":"","landscape_designer":"","shinkenchiku_url":""},{"id":2023,"title":"東福寺 「八相の庭」","architect":"重森三玲","year":1939.0,"address":"京都府京都市東山区本町15-","latitude":34.9770622253418,"longitude":135.7740936279297,"category":"庭園","big_category":"文化施設","description":"","image_url":"","tags":"","prefecture":"京都","contractor":"","structural_designer":"","landscape_designer":"","shinkenchiku_url":""},{"id":2024,"title":"大徳寺 高桐院","architect":"不明","year":1628.0,"address":"京都府京都市北区紫野大徳寺町73-1","latitude":35.04316329956055,"longitude":135.7432098388672,"category":"寺院","big_category":"宗教","description":"","image_url":"","tags":"","prefecture":"京都","contractor":"","structural_designer":"","landscape_designer":"","shinkenchiku_url":""},{"id":2025,"title":"大徳寺 瑞峯院 「独坐庭」「閑眠庭」","architect":"重森三玲","year":1961.0,"address":"京都府京都市北区紫野大徳寺町81","latitude":35.04214859008789,"longitude":135.74539184570312,"category":"庭園","big_category":"文化施設","description":"","image_url":"","tags":"","prefecture":"京都","contractor":"","structural_designer":"","landscape_designer":"","shinkenchiku_url":""},{"id":2026,"title":"京都駅ビル","architect":"原広司","year":1997.0,"address":"京都府京都市下京区烏丸通塩小路下ル東塩小路町901","latitude":34.98588562011719,"longitude":135.7587432861328,"category":"駅/モール/オフィスビル","big_category":"インフラ,商業施設,企業施設","description":"","image_url":"","tags":"","prefecture":"京都","contractor":"","structural_designer":"","landscape_designer":"","shinkenchiku_url":""},{"id":2027,"title":"樂美術館","architect":"不明","year":1978.0,"address":"京都府京都市上京区油小路一条下る油橋詰町84","latitude":35.02555465698242,"longitude":135.75323486328125,"category":"美術館","big_category":"ミュージアム","description":"","image_url":"","tags":"","prefecture":"京都","contractor":"","structural_designer":"","landscape_designer":"","shinkenchiku_url":""},{"id":2028,"title":"京都国立近代美術館","architect":"槇文彦","year":1986.0,"address":"京都府京都市左京区岡崎円勝寺町 京都国立近代美術館","latitude":35.01234817504883,"longitude":135.7819366455078,"category":"美術館","big_category":"ミュージアム","description":"","image_url":"","tags":"1992年公共建築賞","prefecture":"京都","contractor":"","structural_designer":"","landscape_designer":"","shinkenchiku_url":""},{"id":2029,"title":"ウェスティン都ホテル京都 佳水園","architect":"村野藤吾","year":1959.0,"address":"京都府京都市東山区粟田口華頂町1","latitude":35.00798416137695,"longitude":135.7882080078125,"category":"旅館","big_category":"宿泊","description":"2020年中村拓志により改修。本館も村野藤吾設計、1960年竣工","image_url":"","tags":"DOCOMOMO,新建築2021年6月号,2023年日本建築学会 作品選奨","prefecture":"京都","contractor":"","structural_designer":"","landscape_designer":"","shinkenchiku_url":""},{"id":2030,"title":"京都コンサートホール","architect":"磯崎新","year":1995.0,"address":"京都府京都市左京区下鴨半木町1-26","latitude":35.04995346069336,"longitude":135.76663208007812,"category":"ホール・劇場","big_category":"文化施設","description":"","image_url":"","tags":"公共建築百選","prefecture":"京都","contractor":"","structural_designer":"","landscape_designer":"","shinkenchiku_url":""},{"id":2031,"title":"グランドプリンスホテル京都","architect":"村野藤吾","year":1986.0,"address":"京都府京都市左京区岩倉幡枝町1092-2","latitude":35.062957763671875,"longitude":135.78030395507812,"category":"ホテル","big_category":"宿泊","description":"","image_url":"","tags":"","prefecture":"京都","contractor":"","structural_designer":"","landscape_designer":"","shinkenchiku_url":""},{"id":2032,"title":"東福寺 霊雲院 「九山八海の庭」「臥雲の庭」","architect":"重森三玲","year":1970.0,"address":"京都府京都市東山区本町15-801","latitude":34.97833251953125,"longitude":135.77162170410156,"category":"庭園","big_category":"文化施設","description":"","image_url":"","tags":"","prefecture":"京都","contractor":"","structural_designer":"","landscape_designer":"","shinkenchiku_url":""},{"id":2033,"title":"東福寺 光明院 「波心庭」","architect":"重森三玲","year":1939.0,"address":"京都府京都市東山区本町15-809","latitude":34.97410583496094,"longitude":135.7737274169922,"category":"庭園","big_category":"文化施設","description":"","image_url":"","tags":"","prefecture":"京都","contractor":"","structural_designer":"","landscape_designer":"","shinkenchiku_url":""},{"id":2034,"title":"向日町教会・まこと幼稚園","architect":"内井昭蔵","year":1982.0,"address":"京都府向日市鶏冠井町山畑25","latitude":34.94233322143555,"longitude":135.70262145996094,"category":"幼稚園","big_category":"教育","description":"","image_url":"","tags":"","prefecture":"京都","contractor":"","structural_designer":"","landscape_designer":"","shinkenchiku_url":""},{"id":2035,"title":"京都府立 陶板名画の庭","architect":"安藤忠雄","year":1994.0,"address":"京都市左京区下鴨半木町","latitude":35.05066680908203,"longitude":135.7654571533203,"category":"美術館","big_category":"ミュージアム","description":"","image_url":"","tags":"","prefecture":"京都","contractor":"","structural_designer":"","landscape_designer":"","shinkenchiku_url":""},{"id":2036,"title":"虎屋菓寮 京都一条店","architect":"内藤廣","year":2009.0,"address":"京都府京都市上京区一条通烏丸西入広橋殿町400","latitude":35.02644348144531,"longitude":135.7584991455078,"category":"店舗/カフェ","big_category":"商業施設,商業施設","description":"","image_url":"","tags":"","prefecture":"京都","contractor":"","structural_designer":"","landscape_designer":"","shinkenchiku_url":""},{"id":2037,"title":"文化パルク城陽","architect":"昭和設計+西村征一郎","year":1995.0,"address":"京都府城陽市寺田今堀1","latitude":34.8492431640625,"longitude":135.77352905273438,"category":"総合文化施設","big_category":"文化施設","description":"","image_url":"","tags":"","prefecture":"京都","contractor":"","structural_designer":"","landscape_designer":"","shinkenchiku_url":""},{"id":2038,"title":"けいはんなプラザ","architect":"日建設計","year":1993.0,"address":"京都府相楽郡精華町光台1-7","latitude":34.745357513427734,"longitude":135.7646942138672,"category":"展示・会議場/公共施設/ホール・劇場","big_category":"公共施設,公共施設,文化施設","description":"","image_url":"","tags":"","prefecture":"京都","contractor":"","structural_designer":"","landscape_designer":"","shinkenchiku_url":""},{"id":2039,"title":"国立国会図書館 関西館","architect":"陶器二三雄","year":2002.0,"address":"京都府相楽郡精華町精華台8-1-3","latitude":34.74323272705078,"longitude":135.77200317382812,"category":"図書館","big_category":"文化施設","description":"","image_url":"","tags":"2004年日本建築学会 作品賞,2005年度日本建築家協会賞","prefecture":"京都","contractor":"","structural_designer":"","landscape_designer":"","shinkenchiku_url":""},{"id":2040,"title":"精華台華の塔配水池","architect":"高松伸","year":1997.0,"address":"京都府相楽郡精華町精華台8-2-10-7","latitude":34.742164611816406,"longitude":135.77420043945312,"category":"オブジェ","big_category":"ミュージアム","description":"","image_url":"","tags":"","prefecture":"京都","contractor":"","structural_designer":"","landscape_designer":"","shinkenchiku_url":""},{"id":2041,"title":"カトリック桂教会","architect":"ジョージ・ナカシマ","year":1965.0,"address":"京都市西京区川島尻堀町30","latitude":34.9777946472168,"longitude":135.69915771484375,"category":"教会","big_category":"宗教","description":"","image_url":"","tags":"DOCOMOMO","prefecture":"京都","contractor":"","structural_designer":"","landscape_designer":"","shinkenchiku_url":""},{"id":2042,"title":"アサヒビール大山崎山荘美術館","architect":"安藤忠雄","year":1995.0,"address":"京都府乙訓郡大山崎町字大山崎小字銭原5-3","latitude":34.895565032958984,"longitude":135.6796417236328,"category":"美術館","big_category":"ミュージアム","description":"","image_url":"","tags":"","prefecture":"京都","contractor":"","structural_designer":"","landscape_designer":"","shinkenchiku_url":""},{"id":2043,"title":"聴竹居","architect":"藤井厚二","year":1928.0,"address":"京都府乙訓郡大山崎町大山崎谷田31","latitude":34.8935546875,"longitude":135.67994689941406,"category":"住宅","big_category":"住宅","description":"水曜日、金曜日、日曜日　10時～15時　要予約","image_url":"","tags":"DOCOMOMO,重要文化財,新建築2023年7月号","prefecture":"京都","contractor":"","structural_designer":"","landscape_designer":"","shinkenchiku_url":""},{"id":2044,"title":"真宗大谷派（東本願寺） 参拝接待所","architect":"高松伸","year":1998.0,"address":"京都市東山区円山町477","latitude":35.002174377441406,"longitude":135.78265380859375,"category":"寺院","big_category":"宗教","description":"","image_url":"","tags":"2000年日本建築学会 作品選奨","prefecture":"京都","contractor":"","structural_designer":"","landscape_designer":"","shinkenchiku_url":""},{"id":2045,"title":"南山城村立南山城小学校","architect":"リチャード・ロジャース","year":2003.0,"address":"京都府相楽郡南山城村大字北大河原小字中谷12-26","latitude":34.76534652709961,"longitude":136.02639770507812,"category":"学校","big_category":"教育","description":"","image_url":"","tags":"","prefecture":"京都","contractor":"","structural_designer":"","landscape_designer":"","shinkenchiku_url":""},{"id":2046,"title":"南山城村文化会館 ／ やまなみホール","architect":"黒川紀章","year":1992.0,"address":"京都府相楽郡南山城村北大河原久保8","latitude":34.77237319946289,"longitude":135.99237060546875,"category":"ホール・劇場","big_category":"文化施設","description":"","image_url":"","tags":"","prefecture":"京都","contractor":"","structural_designer":"","landscape_designer":"","shinkenchiku_url":""},{"id":2047,"title":"日吉ダム周辺整備計画 スプリングスひよし","architect":"團紀彦","year":1998.0,"address":"京都府南丹市日吉町中神子ヶ谷68","latitude":35.148353576660156,"longitude":135.52023315429688,"category":"PA・道の駅/橋/博物館","big_category":"インフラ,インフラ,ミュージアム","description":"道の駅、日帰り温泉、プール、ダム近くの橋（公園整備）、ダム資料館など","image_url":"","tags":"","prefecture":"京都","contractor":"","structural_designer":"","landscape_designer":"","shinkenchiku_url":""},{"id":2048,"title":"White Temple 阿龍山瑞專寺 紫光堂","architect":"山口隆","year":2000.0,"address":"京都府南丹市園部町大河内小米阪1-17","latitude":35.02549362182617,"longitude":135.3971710205078,"category":"寺院","big_category":"宗教","description":"","image_url":"","tags":"","prefecture":"京都","contractor":"","structural_designer":"","landscape_designer":"","shinkenchiku_url":""},{"id":2049,"title":"南丹市美山文化ホール","architect":"山崎泰孝","year":1996.0,"address":"京都府南丹市美山町島島台51","latitude":35.271636962890625,"longitude":135.5492706298828,"category":"ホール・劇場","big_category":"文化施設","description":"","image_url":"","tags":"","prefecture":"京都","contractor":"","structural_designer":"","landscape_designer":"","shinkenchiku_url":""},{"id":2050,"title":"赤れんが博物館","architect":"不明","year":1903.0,"address":"京都府舞鶴市浜2011","latitude":35.47610092163086,"longitude":135.38746643066406,"category":"博物館","big_category":"ミュージアム","description":"","image_url":"","tags":"","prefecture":"京都","contractor":"","structural_designer":"","landscape_designer":"","shinkenchiku_url":""}]}