{"page":200,"total_pages":290,"items_per_page":50,"total_items":14467,"items":[{"id":9951,"title":"キリスト品川教会グローリアチャペル","architect":"鬼頭梓","year":1989.0,"address":"東京都品川区北品川4-7-40","latitude":35.62251281738281,"longitude":139.737548828125,"category":"教会","big_category":"宗教","description":"","image_url":"","tags":"Ver3.60(2020年10月)の追加建築","prefecture":"東京","contractor":"","structural_designer":"","landscape_designer":"","shinkenchiku_url":""},{"id":9952,"title":"茨木市立中央図書館","architect":"鬼頭梓","year":1991.0,"address":"大阪府茨木市畑田町1-51","latitude":34.826904296875,"longitude":135.5655517578125,"category":"図書館","big_category":"文化施設","description":"","image_url":"","tags":"Ver3.60(2020年10月)の追加建築","prefecture":"大阪","contractor":"","structural_designer":"","landscape_designer":"","shinkenchiku_url":""},{"id":9953,"title":"大阪教育大学 附属図書館","architect":"鬼頭梓","year":1992.0,"address":"大阪府柏原市旭ケ丘4-698-1","latitude":34.55051803588867,"longitude":135.65036010742188,"category":"図書館/大学","big_category":"文化施設,教育","description":"","image_url":"","tags":"Ver3.60(2020年10月)の追加建築","prefecture":"大阪","contractor":"","structural_designer":"","landscape_designer":"","shinkenchiku_url":""},{"id":9954,"title":"熊取町立熊取図書館","architect":"鬼頭梓","year":1994.0,"address":"大阪府泉南郡熊取町野田4-2714-1","latitude":34.40224075317383,"longitude":135.3576202392578,"category":"図書館","big_category":"文化施設","description":"","image_url":"","tags":"Ver3.60(2020年10月)の追加建築","prefecture":"大阪","contractor":"","structural_designer":"","landscape_designer":"","shinkenchiku_url":""},{"id":9955,"title":"武蔵野市立中央図書館","architect":"鬼頭梓","year":1995.0,"address":"東京都武蔵野市吉祥寺北町4-8-3","latitude":35.71250534057617,"longitude":139.56619262695312,"category":"図書館/大学","big_category":"文化施設,教育","description":"","image_url":"","tags":"Ver3.60(2020年10月)の追加建築","prefecture":"東京","contractor":"","structural_designer":"","landscape_designer":"","shinkenchiku_url":""},{"id":9956,"title":"聖学院大学 8号館","architect":"鬼頭梓","year":1998.0,"address":"埼玉県上尾市大字戸崎1-1","latitude":35.93864822387695,"longitude":139.59547424316406,"category":"図書館/大学","big_category":"文化施設,教育","description":"","image_url":"","tags":"Ver3.60(2020年10月)の追加建築","prefecture":"埼玉","contractor":"","structural_designer":"","landscape_designer":"","shinkenchiku_url":""},{"id":9957,"title":"東洋英和女学院大学 図書館","architect":"鬼頭梓","year":1999.0,"address":"神奈川県横浜市緑区三保町32","latitude":35.50929641723633,"longitude":139.50953674316406,"category":"図書館/大学","big_category":"文化施設,教育","description":"","image_url":"","tags":"Ver3.60(2020年10月)の追加建築","prefecture":"神奈川","contractor":"","structural_designer":"","landscape_designer":"","shinkenchiku_url":""},{"id":9958,"title":"医療型児童発達支援センター新山口","architect":"大野秀敏","year":2020.0,"address":"山口県山口市小郡平成町1-18","latitude":34.08763122558594,"longitude":131.4004364013672,"category":"医療施設","big_category":"医療施設","description":"","image_url":"","tags":"Ver3.60(2020年10月)の追加建築","prefecture":"山口","contractor":"","structural_designer":"","landscape_designer":"","shinkenchiku_url":""},{"id":9959,"title":"さいたま市民会館おおみや","architect":"加藤渉","year":1969.0,"address":"埼玉県さいたま市大宮区下町3-47-8","latitude":35.90260696411133,"longitude":139.63087463378906,"category":"ホール・劇場","big_category":"文化施設","description":"","image_url":"","tags":"Ver3.60(2020年10月)の追加建築","prefecture":"埼玉","contractor":"","structural_designer":"","landscape_designer":"","shinkenchiku_url":""},{"id":9960,"title":"銚子市青少年文化会館","architect":"加藤渉","year":1971.0,"address":"千葉県銚子市前宿町1046","latitude":35.728050231933594,"longitude":140.84445190429688,"category":"ホール・劇場","big_category":"文化施設","description":"2019年4月から閉館中","image_url":"","tags":"Ver3.60(2020年10月)の追加建築","prefecture":"千葉","contractor":"","structural_designer":"","landscape_designer":"","shinkenchiku_url":""},{"id":9961,"title":"山梨県庁舎本館","architect":"明石信道","year":1963.0,"address":"山梨県甲府市丸の内1-6-1","latitude":35.66411590576172,"longitude":138.56845092773438,"category":"庁舎","big_category":"公共施設","description":"","image_url":"","tags":"Ver3.60(2020年10月)の追加建築","prefecture":"山梨","contractor":"","structural_designer":"","landscape_designer":"","shinkenchiku_url":""},{"id":9962,"title":"芭蕉翁記念館","architect":"城戸武男","year":1959.0,"address":"三重県伊賀市上野丸之内117-13","latitude":34.769901275634766,"longitude":136.1296844482422,"category":"博物館","big_category":"ミュージアム","description":"","image_url":"","tags":"Ver3.60(2020年10月)の追加建築","prefecture":"三重","contractor":"","structural_designer":"","landscape_designer":"","shinkenchiku_url":""},{"id":9963,"title":"伊賀信楽古陶館","architect":"城戸武男","year":1978.0,"address":"三重県伊賀市上野丸之内57-12","latitude":34.76786422729492,"longitude":136.1302032470703,"category":"店舗/博物館","big_category":"商業施設,ミュージアム","description":"","image_url":"","tags":"Ver3.60(2020年10月)の追加建築","prefecture":"三重","contractor":"","structural_designer":"","landscape_designer":"","shinkenchiku_url":""},{"id":9964,"title":"湯の山 素粋居","architect":"内田鋼一+米田雅樹","year":2020.0,"address":"三重県三重郡菰野町大字菰野4842-1","latitude":35.01210403442383,"longitude":136.4773712158203,"category":"ホテル/コテージ/レストラン","big_category":"宿泊,宿泊,商業施設","description":"陶芸家の内田鋼一が総合監修。点在するコテージ棟、レストラン","image_url":"","tags":"Ver3.60(2020年10月)の追加建築","prefecture":"三重","contractor":"","structural_designer":"","landscape_designer":"","shinkenchiku_url":""},{"id":9965,"title":"マザーハウス 銀座店","architect":"藤森照信","year":2020.0,"address":"東京都中央区銀座3-8-10 銀座朝日ビル1F","latitude":35.67128372192383,"longitude":139.76722717285156,"category":"店舗","big_category":"商業施設","description":"","image_url":"","tags":"Ver3.60(2020年10月)の追加建築","prefecture":"東京","contractor":"","structural_designer":"","landscape_designer":"","shinkenchiku_url":""},{"id":9966,"title":"道の駅 四季の郷公園 FOOD HUNTER PARK","architect":"今津修平+北川浩明+姫治恒太+川上真誠","year":2020.0,"address":"和歌山県和歌山市明王寺479-1","latitude":34.21501541137695,"longitude":135.25770568847656,"category":"PA・道の駅/カフェ","big_category":"インフラ,商業施設","description":"","image_url":"","tags":"Ver3.60(2020年10月)の追加建築","prefecture":"和歌山","contractor":"","structural_designer":"萬田隆構造設計事務所","landscape_designer":"","shinkenchiku_url":""},{"id":9967,"title":"道の駅 神戸フルーツ・フラワーパーク大沢 FARM CIRCUS","architect":"今津修平+北川浩明","year":2017.0,"address":"兵庫県神戸市北区大沢町上大沢2150","latitude":34.84970474243164,"longitude":135.1911163330078,"category":"PA・道の駅/カフェ","big_category":"インフラ,商業施設","description":"","image_url":"","tags":"Ver3.60(2020年10月)の追加建築","prefecture":"兵庫","contractor":"","structural_designer":"","landscape_designer":"","shinkenchiku_url":""},{"id":9968,"title":"サテライト大和","architect":"アーキテクチャー・ラボ","year":2004.0,"address":"宮城県黒川郡大和町まいの4-5-1","latitude":38.43484878540039,"longitude":140.91891479492188,"category":"スタジアム","big_category":"レジャー施設","description":"","image_url":"","tags":"Ver3.60(2020年10月)の追加建築","prefecture":"宮城","contractor":"","structural_designer":"","landscape_designer":"","shinkenchiku_url":""},{"id":9969,"title":"テレビ新広島新社屋","architect":"清水建設+杉田宗","year":2020.0,"address":"広島県広島市南区出汐2-3-19","latitude":34.37799835205078,"longitude":132.47509765625,"category":"オフィスビル","big_category":"企業施設","description":"ファサードデザイン協力：杉田宗研究室","image_url":"","tags":"Ver3.60(2020年10月)の追加建築","prefecture":"広島","contractor":"清水建設","structural_designer":"","landscape_designer":"","shinkenchiku_url":""},{"id":9970,"title":"熱海第一ビル","architect":"佐藤武夫","year":1967.0,"address":"静岡県熱海市田原本町9","latitude":35.103336334228516,"longitude":139.07908630371094,"category":"テナントビル","big_category":"商業施設","description":"","image_url":"","tags":"Ver3.60(2020年10月)の追加建築","prefecture":"静岡","contractor":"","structural_designer":"","landscape_designer":"","shinkenchiku_url":""},{"id":9971,"title":"昇龍苑","architect":"若林広幸","year":2014.0,"address":"京都府京都市右京区嵯峨天龍寺芒ノ馬場町40-8","latitude":35.015037536621094,"longitude":135.6772003173828,"category":"店舗/モール","big_category":"商業施設,商業施設","description":"","image_url":"","tags":"Ver3.60(2020年10月)の追加建築","prefecture":"京都","contractor":"","structural_designer":"","landscape_designer":"","shinkenchiku_url":""},{"id":9972,"title":"町田薬師池公園 四季彩の杜 西園ウェルカムゲート","architect":"山田伸彦","year":2020.0,"address":"東京都町田市野津田町3105","latitude":35.5748291015625,"longitude":139.44659423828125,"category":"公園","big_category":"レジャー施設","description":"","image_url":"","tags":"Ver3.60(2020年10月)の追加建築","prefecture":"東京","contractor":"","structural_designer":"","landscape_designer":"","shinkenchiku_url":""},{"id":9973,"title":"さくら幼稚園 増築","architect":"山田伸彦+東利恵","year":2016.0,"address":"埼玉県久喜市伊坂46","latitude":36.13328552246094,"longitude":139.6881561279297,"category":"幼稚園","big_category":"教育","description":"","image_url":"","tags":"Ver3.60(2020年10月)の追加建築","prefecture":"埼玉","contractor":"","structural_designer":"","landscape_designer":"","shinkenchiku_url":""},{"id":9974,"title":"こどもむら保育園さくらいろ","architect":"山田伸彦","year":2019.0,"address":"埼玉県久喜市伊坂1843","latitude":36.13459014892578,"longitude":139.6901397705078,"category":"幼稚園","big_category":"教育","description":"","image_url":"","tags":"Ver3.60(2020年10月)の追加建築","prefecture":"埼玉","contractor":"","structural_designer":"","landscape_designer":"","shinkenchiku_url":""},{"id":9975,"title":"宮崎ごはんとお酒 ハイク","architect":"山田伸彦","year":2019.0,"address":"宮崎県宮崎市阿波岐原町前浜4276-531","latitude":31.93830108642578,"longitude":131.46389770507812,"category":"レストラン","big_category":"商業施設","description":"","image_url":"","tags":"Ver3.60(2020年10月)の追加建築","prefecture":"宮崎","contractor":"","structural_designer":"","landscape_designer":"","shinkenchiku_url":""},{"id":9976,"title":"星のや京都 舟待合","architect":"東利恵","year":2017.0,"address":"京都府京都市西京区嵐山中尾下町60","latitude":35.011375427246094,"longitude":135.6769256591797,"category":"その他宿泊施設","big_category":"宿泊","description":"","image_url":"","tags":"Ver3.60(2020年10月)の追加建築","prefecture":"京都","contractor":"","structural_designer":"","landscape_designer":"","shinkenchiku_url":""},{"id":9977,"title":"ブレストンコート ユカワタン","architect":"東利恵","year":2011.0,"address":"長野県北佐久郡軽井沢町大字長倉2144","latitude":36.3591194152832,"longitude":138.58889770507812,"category":"レストラン","big_category":"商業施設","description":"","image_url":"","tags":"Ver3.60(2020年10月)の追加建築","prefecture":"長野","contractor":"","structural_designer":"","landscape_designer":"","shinkenchiku_url":""},{"id":9978,"title":"亀甲新","architect":"東利恵","year":2013.0,"address":"東京都世田谷区羽根木1-21-24","latitude":35.66346740722656,"longitude":139.6584930419922,"category":"集合住宅/レストラン","big_category":"住宅,商業施設","description":"","image_url":"","tags":"Ver3.60(2020年10月)の追加建築,新建築2014年8月号","prefecture":"東京","contractor":"佐藤秀","structural_designer":"KAP","landscape_designer":"","shinkenchiku_url":"https://data.shinkenchiku.online/articles/SK_2014_08_056-0"},{"id":9979,"title":"星野温泉 トンボの湯","architect":"東利恵","year":2002.0,"address":"長野県北佐久郡軽井沢町大字長倉2148","latitude":36.36277389526367,"longitude":138.58900451660156,"category":"温泉","big_category":"宿泊","description":"","image_url":"","tags":"Ver3.60(2020年10月)の追加建築","prefecture":"長野","contractor":"","structural_designer":"","landscape_designer":"","shinkenchiku_url":""},{"id":9980,"title":"星野温泉 村民食堂","architect":"東利恵","year":2002.0,"address":"長野県北佐久郡軽井沢町大字長倉2148","latitude":36.3621711730957,"longitude":138.58883666992188,"category":"レストラン","big_category":"商業施設","description":"","image_url":"","tags":"Ver3.60(2020年10月)の追加建築","prefecture":"長野","contractor":"","structural_designer":"","landscape_designer":"","shinkenchiku_url":""},{"id":9981,"title":"日本バプテスト教会連合センター","architect":"東孝光","year":1981.0,"address":"東京都練馬区桜台5-18-3","latitude":35.742332458496094,"longitude":139.65667724609375,"category":"教会","big_category":"宗教","description":"","image_url":"","tags":"Ver3.60(2020年10月)の追加建築","prefecture":"東京","contractor":"","structural_designer":"","landscape_designer":"","shinkenchiku_url":""},{"id":9982,"title":"南三陸町震災復興祈念公園 中橋","architect":"隈研吾+パシフィックコンサルタンツ","year":2020.0,"address":"宮城県本吉郡南三陸町志津川塩入31","latitude":38.67823028564453,"longitude":141.44711303710938,"category":"橋","big_category":"インフラ","description":"","image_url":"","tags":"Ver3.60(2020年10月)の追加建築,新建築2021年3月号","prefecture":"宮城","contractor":"","structural_designer":"","landscape_designer":"","shinkenchiku_url":""},{"id":9983,"title":"立正大学 熊谷キャンパス サークルボックス","architect":"内井昭蔵","year":1994.0,"address":"埼玉県熊谷市万吉1700","latitude":36.10853576660156,"longitude":139.3611297607422,"category":"大学","big_category":"教育","description":"","image_url":"","tags":"Ver3.60(2020年10月)の追加建築","prefecture":"埼玉","contractor":"","structural_designer":"","landscape_designer":"","shinkenchiku_url":""},{"id":9984,"title":"立正大学 熊谷キャンパス 9号館 旧短大研究棟・E館","architect":"内井昭蔵","year":1994.0,"address":"埼玉県熊谷市万吉1700","latitude":36.10969543457031,"longitude":139.3651580810547,"category":"大学","big_category":"教育","description":"","image_url":"","tags":"Ver3.60(2020年10月)の追加建築","prefecture":"埼玉","contractor":"","structural_designer":"","landscape_designer":"","shinkenchiku_url":""},{"id":9985,"title":"廣澤美術館","architect":"隈研吾","year":2019.0,"address":"茨城県筑西市大塚599-1","latitude":36.292823791503906,"longitude":140.0154571533203,"category":"美術館","big_category":"ミュージアム","description":"","image_url":"","tags":"Ver3.60(2020年10月)の追加建築","prefecture":"茨城","contractor":"","structural_designer":"","landscape_designer":"","shinkenchiku_url":""},{"id":9986,"title":"千總本店","architect":"田根剛","year":2020.0,"address":"京都府京都市中京区三条通烏丸西入御倉町80","latitude":35.00843048095703,"longitude":135.75892639160156,"category":"店舗","big_category":"商業施設","description":"","image_url":"","tags":"Ver3.60(2020年10月)の追加建築","prefecture":"京都","contractor":"","structural_designer":"","landscape_designer":"","shinkenchiku_url":""},{"id":9987,"title":"日本キリスト教団大津教会","architect":"ウィリアム・メレル・ヴォーリズ","year":1928.0,"address":"滋賀県大津市末広町6-6","latitude":35.00531768798828,"longitude":135.86541748046875,"category":"教会","big_category":"宗教","description":"","image_url":"","tags":"Ver3.60(2020年10月)の追加建築","prefecture":"滋賀","contractor":"","structural_designer":"","landscape_designer":"","shinkenchiku_url":""},{"id":9988,"title":"旧大津公会堂","architect":"大津市土木課","year":1934.0,"address":"滋賀県大津市浜大津1-4-1","latitude":35.01044845581055,"longitude":135.8653564453125,"category":"店舗/洋館/レストラン","big_category":"商業施設,近代建築/遺産,商業施設","description":"","image_url":"","tags":"Ver3.60(2020年10月)の追加建築","prefecture":"滋賀","contractor":"","structural_designer":"","landscape_designer":"","shinkenchiku_url":""},{"id":9989,"title":"EARTH 鴨川サーフィンハウス","architect":"井手孝太郎","year":2013.0,"address":"千葉県鴨川市横渚808-59","latitude":35.10501480102539,"longitude":140.1060791015625,"category":"住宅/研修施設","big_category":"住宅,教育","description":"","image_url":"","tags":"Ver3.60(2020年10月)の追加建築","prefecture":"千葉","contractor":"","structural_designer":"","landscape_designer":"","shinkenchiku_url":""},{"id":9990,"title":"MHビル ミタカロジスティクス本社","architect":"村重盛紀","year":2020.0,"address":"東京都三鷹市上連雀7-8-29","latitude":35.69424057006836,"longitude":139.55308532714844,"category":"低層オフィス","big_category":"企業施設","description":"","image_url":"","tags":"Ver3.60(2020年10月)の追加建築","prefecture":"東京","contractor":"","structural_designer":"","landscape_designer":"","shinkenchiku_url":""},{"id":9991,"title":"熱海の茶房 ガーデンカフェ リプル","architect":"山﨑健太郎","year":2019.0,"address":"静岡県熱海市西山町22-23","latitude":35.104618072509766,"longitude":139.0656280517578,"category":"カフェ","big_category":"商業施設","description":"","image_url":"","tags":"Ver3.60(2020年10月)の追加建築","prefecture":"静岡","contractor":"","structural_designer":"","landscape_designer":"","shinkenchiku_url":""},{"id":9992,"title":"桜が丘認定こども園","architect":"隈研吾","year":2020.0,"address":"広島県東広島市西条町寺家7175-1","latitude":34.4255485534668,"longitude":132.7252197265625,"category":"幼稚園","big_category":"教育","description":"","image_url":"","tags":"Ver3.60(2020年10月)の追加建築","prefecture":"広島","contractor":"","structural_designer":"","landscape_designer":"","shinkenchiku_url":""},{"id":9993,"title":"浜松のバス停","architect":"秋吉浩気","year":2019.0,"address":"静岡県浜松市中区蜆塚1-13","latitude":34.70943832397461,"longitude":137.7117462158203,"category":"駅","big_category":"インフラ","description":"","image_url":"","tags":"Ver3.60(2020年10月)の追加建築","prefecture":"静岡","contractor":"","structural_designer":"","landscape_designer":"","shinkenchiku_url":""},{"id":9994,"title":"GINZA STEPS","architect":"RG DESIGN","year":2020.0,"address":"東京都中央区銀座7-7-12","latitude":35.66916275024414,"longitude":139.76185607910156,"category":"テナントビル","big_category":"商業施設","description":"","image_url":"","tags":"Ver3.60(2020年10月)の追加建築","prefecture":"東京","contractor":"","structural_designer":"","landscape_designer":"","shinkenchiku_url":""},{"id":9995,"title":"浅野学園創立100周年記念リング及び広場","architect":"川添善行","year":2020.0,"address":"神奈川県横浜市神奈川区子安台1-3-1","latitude":35.48981475830078,"longitude":139.6576385498047,"category":"広場","big_category":"文化施設","description":"","image_url":"","tags":"Ver3.60(2020年10月)の追加建築","prefecture":"神奈川","contractor":"","structural_designer":"","landscape_designer":"","shinkenchiku_url":""},{"id":9996,"title":"北竜町立やわら保育園","architect":"隈研吾","year":2019.0,"address":"北海道雨竜郡北竜町和27-2","latitude":43.73308563232422,"longitude":141.87533569335938,"category":"幼稚園","big_category":"教育","description":"","image_url":"","tags":"Ver3.60(2020年10月)の追加建築","prefecture":"北海道","contractor":"","structural_designer":"","landscape_designer":"","shinkenchiku_url":""},{"id":9997,"title":"リブリオ行橋","architect":"三上建築事務所","year":2020.0,"address":"福岡県行橋市大橋3-18-1","latitude":33.73214340209961,"longitude":130.9739532470703,"category":"図書館/総合文化施設","big_category":"文化施設,文化施設","description":"","image_url":"","tags":"Ver3.60(2020年10月)の追加建築","prefecture":"福岡","contractor":"","structural_designer":"","landscape_designer":"","shinkenchiku_url":""},{"id":9998,"title":"神田珈琲園","architect":"牧野恭久","year":2020.0,"address":"東京都千代田区鍛冶町2-13-12","latitude":35.69205856323242,"longitude":139.77081298828125,"category":"カフェ","big_category":"商業施設","description":"","image_url":"","tags":"Ver3.60(2020年10月)の追加建築","prefecture":"東京","contractor":"","structural_designer":"","landscape_designer":"","shinkenchiku_url":""},{"id":9999,"title":"ベイサイド迎賓館 松山","architect":"山路哲生","year":2019.0,"address":"愛媛県松山市梅津寺町1382-1","latitude":33.87711715698242,"longitude":132.70631408691406,"category":"結婚式場","big_category":"宗教","description":"","image_url":"","tags":"Ver3.60(2020年10月)の追加建築","prefecture":"愛媛","contractor":"","structural_designer":"","landscape_designer":"","shinkenchiku_url":""},{"id":10000,"title":"大倉山ハイム 3～6号棟","architect":"日建ハウジングシステム","year":1979.0,"address":"神奈川県横浜市港北区大豆戸町875-4","latitude":35.51816177368164,"longitude":139.62301635742188,"category":"集合住宅","big_category":"住宅","description":"","image_url":"","tags":"2017年JIA25年賞 受賞作品,Ver3.70(2021年1月)の追加建築","prefecture":"神奈川","contractor":"","structural_designer":"","landscape_designer":"","shinkenchiku_url":""}]}