{"page":29,"total_pages":290,"items_per_page":50,"total_items":14467,"items":[{"id":1401,"title":"旧赤松家記念館","architect":"赤松則良","year":null,"address":"静岡県磐田市見付3884-10","latitude":34.73191452026367,"longitude":137.84927368164062,"category":"洋館","description":"","image_url":""},{"id":1402,"title":"浜松市浜北斎場","architect":"アール・アイ・エー","year":2006.0,"address":"静岡県浜松市浜北区宮口4831-170","latitude":34.842952728271484,"longitude":137.76878356933594,"category":"斎場","description":"","image_url":""},{"id":1403,"title":"松韻亭","architect":"谷口吉生","year":1997.0,"address":"静岡県浜松市中区鹿谷町11-4","latitude":34.71507263183594,"longitude":137.7237091064453,"category":"茶室","description":"","image_url":""},{"id":1404,"title":"浜松市立三ヶ日図書館","architect":"アール・アイ・エー","year":1999.0,"address":"静岡県浜松市北区三ヶ日町宇志799-1","latitude":34.806732177734375,"longitude":137.5579376220703,"category":"図書館","description":"","image_url":""},{"id":1405,"title":"浜松科学館","architect":"仙田満","year":1986.0,"address":"静岡県浜松市中区北寺島町256-3","latitude":34.70499801635742,"longitude":137.73976135253906,"category":"博物館","description":"","image_url":""},{"id":1406,"title":"浜松市秋野不矩美術館","architect":"藤森照信","year":1998.0,"address":"静岡県浜松市天竜区二俣町二俣130","latitude":34.8647346496582,"longitude":137.81948852539062,"category":"美術館","description":"","image_url":"https://farm3.staticflickr.com/2805/8932834626_e2eea3aad0_h.jpg"},{"id":1407,"title":"浜名湖ガーデンパーク 浜名湖花博","architect":"隈研吾+武田光史+栗生明 他","year":2003.0,"address":"静岡県浜松市西区村櫛町5475-1","latitude":34.71342468261719,"longitude":137.59930419921875,"category":"公園","description":"","image_url":"https://farm6.staticflickr.com/5517/12061656006_08b4399cc2_h.jpg"},{"id":1408,"title":"盲導犬の里 富士ハーネス","architect":"千葉学","year":2008.0,"address":"静岡県富士宮市人穴381","latitude":35.34471893310547,"longitude":138.5956573486328,"category":"公共施設","description":"","image_url":"https://farm3.staticflickr.com/2925/14215867380_9a65e02242_h.jpg"},{"id":1409,"title":"富士山環境交流プラザ","architect":"大成建設","year":2009.0,"address":"静岡県富士宮市粟倉1618-9","latitude":35.264129638671875,"longitude":138.64395141601562,"category":"博物館/観光施設","description":"","image_url":"https://lh3.googleusercontent.com/-yr-LDdQGirk/U55pfp_fJLI/AAAAAAABOmo/mVKuR3SYczI/s1280/lr-4118200.jpg"},{"id":1410,"title":"北山本門寺 客殿","architect":"内井昭蔵","year":1971.0,"address":"静岡県富士宮市北山4965","latitude":35.27663040161133,"longitude":138.60848999023438,"category":"寺院","description":"","image_url":"https://lh3.googleusercontent.com/-gjfjyquX8ug/U55mT0Lyc5I/AAAAAAABOWA/3JfI0OtLA3k/s1024/lr-4118279.jpg"},{"id":1411,"title":"富士宮ゴルフクラブハウス","architect":"黒川紀章","year":1997.0,"address":"静岡県富士宮市野中1127-1","latitude":35.211097717285156,"longitude":138.60142517089844,"category":"クラブハウス","description":"","image_url":""},{"id":1412,"title":"一宮市博物館","architect":"内井昭蔵","year":1987.0,"address":"愛知県一宮市大和町妙興寺妙興寺境内2390","latitude":35.2841796875,"longitude":136.80015563964844,"category":"博物館","description":"","image_url":""},{"id":1413,"title":"三岸節子記念美術館","architect":"浦野設計","year":1998.0,"address":"愛知県一宮市小信中島郷南3147-1","latitude":35.30821228027344,"longitude":136.74581909179688,"category":"美術館","description":"","image_url":""},{"id":1414,"title":"稲沢市庁舎","architect":"満野久","year":1970.0,"address":"愛知県稲沢市稲府町1","latitude":35.24813461303711,"longitude":136.78021240234375,"category":"庁舎","description":"","image_url":""},{"id":1415,"title":"稲沢市荻須記念美術館","architect":"徳岡設計","year":1983.0,"address":"愛知県稲沢市稲沢町前田365-8","latitude":35.24658966064453,"longitude":136.78932189941406,"category":"美術館","description":"","image_url":""},{"id":1416,"title":"愛知産業大学 言語・情報共育センター","architect":"studio velocity","year":2013.0,"address":"愛知県岡崎市岡町原山12-5","latitude":34.92095184326172,"longitude":137.22259521484375,"category":"大学","description":"","image_url":""},{"id":1417,"title":"西光寺本堂","architect":"吉村靖孝+吉村真代+吉村英孝","year":2004.0,"address":"愛知県岡崎市井ノ口町片坂46","latitude":34.985958099365234,"longitude":137.1657257080078,"category":"寺院","description":"","image_url":""},{"id":1418,"title":"岡崎市図書館交流プラザ Libra","architect":"佐藤総合計画","year":2008.0,"address":"愛知県岡崎市康生通西4-71","latitude":34.95943832397461,"longitude":137.1591339111328,"category":"図書館","description":"","image_url":""},{"id":1419,"title":"岡崎市郷土館 旧額田郡公会堂","architect":"不明","year":1913.0,"address":"愛知県岡崎市朝日町3-36-1","latitude":34.95329666137695,"longitude":137.17616271972656,"category":"洋館","description":"","image_url":""},{"id":1420,"title":"岡崎信用金庫資料館 旧岡崎銀行本店","architect":"鈴木禎次","year":1917.0,"address":"愛知県岡崎市伝馬通1-58","latitude":34.95792007446289,"longitude":137.16793823242188,"category":"洋館/金融機関","description":"","image_url":""},{"id":1421,"title":"Blue Blanc","architect":"谷尻誠","year":2011.0,"address":"愛知県岡崎市明大寺町畔土11-1","latitude":34.944522857666016,"longitude":137.16827392578125,"category":"結婚式場","description":"","image_url":"https://farm3.staticflickr.com/2806/8919818295_05f874b0b7_h.jpg"},{"id":1422,"title":"岡崎市美術博物館","architect":"栗生明","year":1995.0,"address":"愛知県岡崎市高隆寺町峠1","latitude":34.9473876953125,"longitude":137.2130889892578,"category":"美術館","description":"","image_url":"https://farm3.staticflickr.com/2856/8897376378_44ce6dfbb5_h.jpg"},{"id":1423,"title":"旧本多忠次邸","architect":"本多忠次","year":1932.0,"address":"愛知県岡崎市欠町足延40-1","latitude":34.95280456542969,"longitude":137.19032287597656,"category":"洋館","description":"","image_url":"https://lh3.googleusercontent.com/-CI0Meghn1VA/UN7X1vjS26I/AAAAAAAAyL8/bTeoa1Radd8/s1152/lr-071803.jpg"},{"id":1424,"title":"蒲郡市民体育センター 旧蒲郡市民体育館","architect":"石本建築事務所","year":1968.0,"address":"愛知県蒲郡市緑町3-69","latitude":34.827720642089844,"longitude":137.21670532226562,"category":"体育館","description":"","image_url":""},{"id":1425,"title":"蒲郡情報ネットワークセンター 生命の海科学館","architect":"高松伸","year":1998.0,"address":"愛知県蒲郡市港町17-17","latitude":34.8203125,"longitude":137.2250518798828,"category":"博物館","description":"","image_url":"https://farm3.staticflickr.com/2893/8927051249_b167c05e15_h.jpg"},{"id":1426,"title":"刈谷市郷土資料館","architect":"不明","year":1928.0,"address":"愛知県刈谷市城町1-25-1","latitude":34.987831115722656,"longitude":136.9863739013672,"category":"洋館","description":"","image_url":""},{"id":1427,"title":"犬山市民健康館「さら・さくら」","architect":"内井昭蔵","year":2001.0,"address":"愛知県犬山市前原(大字)橋爪山15-2","latitude":35.36922836303711,"longitude":136.98138427734375,"category":"公民館・交流施設/温泉","description":"","image_url":""},{"id":1428,"title":"明治村","architect":"不明","year":null,"address":"愛知県犬山市内山1","latitude":35.34189224243164,"longitude":136.98764038085938,"category":"テーマパーク","description":"","image_url":""},{"id":1429,"title":"旧正伝院書院","architect":"織田有楽","year":1618.0,"address":"愛知県犬山市御門先1","latitude":35.38799285888672,"longitude":136.94235229492188,"category":"庭園","description":"","image_url":""},{"id":1430,"title":"高浜市やきものの里 かわら美術館","architect":"内井昭蔵","year":1995.0,"address":"愛知県高浜市青木町9-6-18","latitude":34.923248291015625,"longitude":136.98167419433594,"category":"美術館","description":"","image_url":""},{"id":1431,"title":"中部大学","architect":"高橋靗一","year":1975.0,"address":"愛知県春日井市松本町1200","latitude":35.272789001464844,"longitude":137.01280212402344,"category":"大学","description":"","image_url":""},{"id":1432,"title":"中部大学 留学生会館","architect":"渡辺純","year":2005.0,"address":"愛知県春日井市松本町1200","latitude":35.27180480957031,"longitude":137.01194763183594,"category":"大学","description":"","image_url":""},{"id":1433,"title":"文化フォーラム春日井","architect":"安井建築設計","year":1999.0,"address":"愛知県春日井市鳥居松町5-44","latitude":35.24750900268555,"longitude":136.9731903076172,"category":"図書館","description":"","image_url":""},{"id":1434,"title":"プロソミュージアム・リサーチセンター","architect":"隈研吾","year":2010.0,"address":"愛知県春日井市鳥居松町2-294","latitude":35.24032974243164,"longitude":136.96971130371094,"category":"企業施設/研究施設","description":"","image_url":"https://lh3.googleusercontent.com/-FLsQJd2npCc/UIPAHTCSgdI/AAAAAAAAfaA/tVW2na-q6KQ/s1024/lr-8183048.jpg"},{"id":1435,"title":"小牧市立図書館","architect":"象設計集団","year":1977.0,"address":"愛知県小牧市小牧5-89","latitude":35.290531158447266,"longitude":136.9180908203125,"category":"図書館","description":"2021～2022年に解体済み","image_url":"https://farm3.staticflickr.com/2852/8899730858_a72d20ec0f_h.jpg"},{"id":1436,"title":"小牧市新庁舎","architect":"山下設計","year":2012.0,"address":"愛知県小牧市堀の内3-1","latitude":35.290191650390625,"longitude":136.9112091064453,"category":"庁舎","description":"","image_url":"https://lh3.googleusercontent.com/-bSiDz_lo6ns/UN7WuxCmR2I/AAAAAAAAtyY/eT-vbJh4Ftg/s1024/lr-061451.jpg"},{"id":1437,"title":"INAXライブミュージアム","architect":"不明","year":null,"address":"愛知県常滑市奥栄町1-130","latitude":34.881160736083984,"longitude":136.8486785888672,"category":"博物館","description":"","image_url":""},{"id":1438,"title":"常滑市体育館","architect":"仙田満","year":1992.0,"address":"愛知県常滑市金山下砂原78-1","latitude":34.91603088378906,"longitude":136.8402862548828,"category":"体育館","description":"","image_url":""},{"id":1439,"title":"常滑大和幼稚園","architect":"ヌーブ","year":2001.0,"address":"愛知県常滑市金山深谷64","latitude":34.90911865234375,"longitude":136.84152221679688,"category":"幼稚園","description":"","image_url":""},{"id":1440,"title":"海上の森・望楼","architect":"北川原温","year":2005.0,"address":"愛知県瀬戸市上之山町2-178","latitude":35.18638229370117,"longitude":137.10833740234375,"category":"公園","description":"","image_url":""},{"id":1441,"title":"パルティせと","architect":"黒川紀章","year":2005.0,"address":"愛知県瀬戸市栄町45","latitude":35.225379943847656,"longitude":137.09768676757812,"category":"モール/総合文化施設","description":"","image_url":""},{"id":1442,"title":"あいち海上の森センター ムーアカデミー","architect":"高橋靗一","year":2005.0,"address":"愛知県瀬戸市吉野町304-1","latitude":35.187992095947266,"longitude":137.11155700683594,"category":"観光施設","description":"","image_url":""},{"id":1443,"title":"夢広場はるひ","architect":"創建","year":1999.0,"address":"愛知県清須市春日夢の森1","latitude":35.23500442504883,"longitude":136.841064453125,"category":"総合文化施設/広場","description":"","image_url":""},{"id":1444,"title":"佐久島","architect":"不明","year":null,"address":"愛知県西尾市一色町佐久島前田66","latitude":34.72418212890625,"longitude":137.04627990722656,"category":"芸術祭・芸術村","description":"","image_url":""},{"id":1445,"title":"西尾市岩瀬文庫","architect":"青島設計+若山滋","year":2002.0,"address":"愛知県西尾市亀沢町480","latitude":34.87439727783203,"longitude":137.05384826660156,"category":"図書館/博物館","description":"","image_url":""},{"id":1446,"title":"知多市歴史民族博物館","architect":"建築研究所アーキヴィジョン","year":1999.0,"address":"愛知県知多市緑町12-2","latitude":34.99920654296875,"longitude":136.86810302734375,"category":"博物館","description":"","image_url":""},{"id":1447,"title":"愛・地球博記念公園 地球市民交流センター","architect":"山下設計+アトリエ・ワン","year":2005.0,"address":"愛知県長久手市茨ヶ廻間乙1533-1","latitude":35.17716979980469,"longitude":137.08912658691406,"category":"体験施設","description":"","image_url":""},{"id":1448,"title":"サツキとメイの家","architect":"宮崎吾郎","year":2005.0,"address":"愛知県長久手市茨ヶ廻間乙1533-1","latitude":35.16932678222656,"longitude":137.09286499023438,"category":"住宅","description":"","image_url":""},{"id":1449,"title":"グローバルループ","architect":"菊竹清訓","year":2005.0,"address":"愛知県長久手市茨ヶ廻間乙1533-1","latitude":35.16862487792969,"longitude":137.08660888671875,"category":"橋","description":"一部が残っている","image_url":""},{"id":1450,"title":"トヨタ博物館","architect":"日建設計","year":1989.0,"address":"愛知県長久手市横道41-100","latitude":35.17274475097656,"longitude":137.0580291748047,"category":"博物館","description":"","image_url":""}]}