{"page":233,"total_pages":290,"items_per_page":50,"total_items":14467,"items":[{"id":11601,"title":"名城大学 春日井キャンパス本館","architect":"青木茂","year":2022.0,"address":"愛知県春日井市鷹来町4311-2","latitude":35.27051544189453,"longitude":136.9619598388672,"category":"大学","description":"1942年竣工の旧陸軍施設製造工場事務所のリファイニング","image_url":""},{"id":11602,"title":"早稲田KMビル","architect":"青木茂","year":2022.0,"address":"東京都新宿区早稲田鶴巻町519-26","latitude":35.70775604248047,"longitude":139.7239227294922,"category":"オフィスビル","description":"1973年竣工の事務所ビルのリファイニング","image_url":""},{"id":11603,"title":"アーブル自由が丘","architect":"内海彩","year":2022.0,"address":"東京都目黒区緑が丘2-24-8","latitude":35.60853576660156,"longitude":139.67181396484375,"category":"モール/集合住宅/テナントビル","description":"","image_url":""},{"id":11604,"title":"Trois-M","architect":"三幣順一","year":2022.0,"address":"東京都新宿区高田馬場1-20-15","latitude":35.70932388305664,"longitude":139.7057342529297,"category":"集合住宅","description":"","image_url":""},{"id":11605,"title":"La Maison Nagasaki 7 C.F.X.","architect":"三幣順一","year":2014.0,"address":"東京都豊島区長崎4-14-10","latitude":35.73001480102539,"longitude":139.68563842773438,"category":"集合住宅","description":"","image_url":""},{"id":11606,"title":"プライムメゾン浅草イースト","architect":"藤井亮介","year":2022.0,"address":"東京都墨田区本所2-16-2","latitude":35.70456314086914,"longitude":139.8000946044922,"category":"集合住宅","description":"","image_url":""},{"id":11607,"title":"みつわクリニック","architect":"藤井亮介","year":2017.0,"address":"愛知県安城市今池町1-2-8","latitude":34.98638916015625,"longitude":137.08421325683594,"category":"個人医院","description":"","image_url":""},{"id":11608,"title":"駒込テラス","architect":"藤井亮介","year":2019.0,"address":"東京都豊島区駒込4-1-8","latitude":35.73580551147461,"longitude":139.74493408203125,"category":"集合住宅","description":"","image_url":""},{"id":11609,"title":"東洋大学 AI-House HUB-4","architect":"石本建築事務所","year":2022.0,"address":"東京都北区赤羽台1-7-37","latitude":35.78022766113281,"longitude":139.71707153320312,"category":"大学/寮","description":"","image_url":""},{"id":11610,"title":"タカハマカフェ","architect":"隈研吾","year":2022.0,"address":"鳥取県鳥取市福部町湯山2164","latitude":35.54338455200195,"longitude":134.23715209960938,"category":"カフェ","description":"","image_url":""},{"id":11611,"title":"野田学園中学校・高等学校","architect":"日本設計","year":2008.0,"address":"山口県山口市野田56","latitude":34.18670654296875,"longitude":131.4794158935547,"category":"学校","description":"","image_url":""},{"id":11612,"title":"府中市地域交流センター キテラスふちゅう","architect":"日本設計","year":2015.0,"address":"広島県府中市府中町559-2","latitude":34.57533645629883,"longitude":133.2333984375,"category":"観光施設/公民館・交流施設","description":"","image_url":""},{"id":11613,"title":"山口県立大学 4号館","architect":"日本設計","year":2016.0,"address":"山口県山口市桜畠6-2-1","latitude":34.19694137573242,"longitude":131.49417114257812,"category":"大学","description":"","image_url":""},{"id":11614,"title":"三原市立中央図書館","architect":"日本設計","year":2020.0,"address":"広島県三原市城町1-3-1","latitude":34.39958953857422,"longitude":133.0826873779297,"category":"図書館","description":"","image_url":""},{"id":11615,"title":"新長田合同庁舎","architect":"日本設計","year":2019.0,"address":"兵庫県神戸市長田区二葉町5-1-32","latitude":34.653221130371094,"longitude":135.14822387695312,"category":"庁舎","description":"","image_url":""},{"id":11616,"title":"酒田市庁舎","architect":"日本設計","year":2017.0,"address":"山形県酒田市本町2-2-45","latitude":38.91476821899414,"longitude":139.8366241455078,"category":"庁舎","description":"","image_url":""},{"id":11617,"title":"豊岡市庁舎","architect":"日本設計","year":2014.0,"address":"兵庫県豊岡市中央町2-4","latitude":35.544559478759766,"longitude":134.82025146484375,"category":"庁舎","description":"","image_url":""},{"id":11618,"title":"甲府市庁舎","architect":"日本設計+竜巳一級建築設計事務所+山形一級建築士事務所+進藤設計事務所","year":2013.0,"address":"山梨県甲府市丸の内1-18-1","latitude":35.66208267211914,"longitude":138.56834411621094,"category":"庁舎","description":"","image_url":""},{"id":11619,"title":"さんぽーと港南","architect":"日本設計","year":2012.0,"address":"東京都港区港南4-3-7","latitude":35.6309928894043,"longitude":139.74986267089844,"category":"児童施設/幼稚園/公共施設","description":"","image_url":""},{"id":11620,"title":"五反田ふれあい水辺広場","architect":"日本設計","year":2010.0,"address":"東京都品川区東五反田2-9-11","latitude":35.624290466308594,"longitude":139.72616577148438,"category":"公園","description":"","image_url":""},{"id":11621,"title":"プラザ神明","architect":"日本設計","year":2012.0,"address":"東京都港区浜松町1-6-7","latitude":35.65873336791992,"longitude":139.7576141357422,"category":"幼稚園/児童施設/福祉センター","description":"","image_url":""},{"id":11622,"title":"NHK新大津放送会館","architect":"日本設計","year":2020.0,"address":"滋賀県大津市京町3-4-22","latitude":35.00547409057617,"longitude":135.8683624267578,"category":"低層オフィス/公共施設","description":"","image_url":""},{"id":11623,"title":"熊本県婦人会館","architect":"川島甲士","year":1970.0,"address":"熊本県熊本市中央区水道町14-21","latitude":32.80427551269531,"longitude":130.71517944335938,"category":"組合施設/公共施設","description":"","image_url":""},{"id":11624,"title":"星野リゾート 界 由布院","architect":"隈研吾","year":2022.0,"address":"大分県由布市湯布院町川上398","latitude":33.278804779052734,"longitude":131.35472106933594,"category":"ホテル","description":"","image_url":""},{"id":11625,"title":"世田谷区立 船橋地区会館","architect":"長島孝一","year":1987.0,"address":"東京都世田谷区船橋3-11-8","latitude":35.65244674682617,"longitude":139.62339782714844,"category":"公民館・交流施設","description":"","image_url":""},{"id":11626,"title":"道の駅 那須高原友愛の森","architect":"長島孝一+中村勉","year":1986.0,"address":"栃木県那須郡那須町高久乙593-8","latitude":37.04084777832031,"longitude":140.01394653320312,"category":"PA・道の駅/観光施設/体験施設","description":"","image_url":""},{"id":11627,"title":"カトリック五井教会","architect":"長島孝一","year":1985.0,"address":"千葉県市原市五井中央西1-33-10","latitude":35.51618576049805,"longitude":140.0857391357422,"category":"教会","description":"","image_url":""},{"id":11628,"title":"女子聖学院 チャペル棟","architect":"長島孝一","year":1987.0,"address":"東京都北区中里3-12-2","latitude":35.74165725708008,"longitude":139.75108337402344,"category":"教会/学校","description":"","image_url":""},{"id":11629,"title":"世田谷区立特別養護老人ホーム・芦花ホーム","architect":"長島孝一","year":1991.0,"address":"東京都世田谷区粕谷2-23-1","latitude":35.66585159301758,"longitude":139.60983276367188,"category":"養護施設","description":"","image_url":""},{"id":11630,"title":"関西学院千里国際中等部・高等部","architect":"長島孝一","year":1991.0,"address":"大阪府箕面市小野原西4-4-16","latitude":34.82976150512695,"longitude":135.50851440429688,"category":"学校","description":"","image_url":""},{"id":11631,"title":"聖アンセルモ祈りの家","architect":"長島孝一","year":1980.0,"address":"東京都品川区上大崎4-6-22","latitude":35.63228988647461,"longitude":139.7152862548828,"category":"教会","description":"","image_url":""},{"id":11632,"title":"神慈秀明会 信楽の多目的ホール","architect":"長島孝一","year":1990.0,"address":"滋賀県甲賀市信楽町田代353-1","latitude":34.91130447387695,"longitude":136.0021209716797,"category":"宗教施設","description":"おそらく信者以外には非公開","image_url":""},{"id":11633,"title":"佐用フュージョン倶楽部・ゲートハウス","architect":"長島孝一","year":1990.0,"address":"兵庫県佐用郡佐用町口金近459-12","latitude":35.01112365722656,"longitude":134.39511108398438,"category":"ホテル","description":"","image_url":""},{"id":11634,"title":"世田谷区 松沢区民集会所","architect":"長島孝一","year":1992.0,"address":"東京都世田谷区赤堤5-31-5","latitude":35.665489196777344,"longitude":139.63829040527344,"category":"公民館・交流施設","description":"","image_url":""},{"id":11635,"title":"福山暁の星学院 体育館","architect":"長島孝一","year":1984.0,"address":"広島県福山市西深津町3-4-1","latitude":34.49644470214844,"longitude":133.3838348388672,"category":"学校/体育館","description":"","image_url":""},{"id":11636,"title":"援助マリア会福山修道院","architect":"長島孝一","year":1986.0,"address":"広島県福山市西深津町3-4-2","latitude":34.49580383300781,"longitude":133.38233947753906,"category":"教会","description":"","image_url":""},{"id":11637,"title":"おやきファーム","architect":"遠野未来","year":2022.0,"address":"長野県長野市篠ノ井杵淵7-1","latitude":36.58452606201172,"longitude":138.190673828125,"category":"店舗","description":"","image_url":""},{"id":11638,"title":"ターントクルこども館 焼津おもちゃ美術館","architect":"水野芳康","year":2021.0,"address":"静岡県焼津市栄町5-1-1","latitude":34.86845397949219,"longitude":138.3208465576172,"category":"児童施設/博物館","description":"","image_url":""},{"id":11639,"title":"鰹節組合事務所","architect":"水野芳康","year":2015.0,"address":"静岡県焼津市上小杉9-1","latitude":34.814849853515625,"longitude":138.2862548828125,"category":"組合施設","description":"","image_url":""},{"id":11640,"title":"SEE SEA PARK","architect":"森下修","year":2022.0,"address":"福井県大飯郡おおい町成海1-8-5","latitude":35.47999572753906,"longitude":135.6310577392578,"category":"モール/公民館・交流施設/カフェ","description":"","image_url":""},{"id":11641,"title":"茨城県大子町新庁舎","architect":"遠藤克彦","year":2022.0,"address":"茨城県久慈郡大子町北田気","latitude":36.764305114746094,"longitude":140.36351013183594,"category":"庁舎","description":"","image_url":""},{"id":11642,"title":"Building of Music 神田宮地ビル","architect":"相坂研介","year":2022.0,"address":"東京都千代田区神田淡路町1-7","latitude":35.69587326049805,"longitude":139.76654052734375,"category":"オフィスビル/店舗","description":"","image_url":""},{"id":11643,"title":"ムラサキペンギントツカ みんなのほいくえん at とつか","architect":"隈研吾","year":2022.0,"address":"神奈川県横浜市戸塚区戸塚町字二十ノ区2427-21","latitude":35.39995574951172,"longitude":139.5306854248047,"category":"幼稚園","description":"","image_url":""},{"id":11644,"title":"三菱ケミカル Science & Innovation Center 本棟","architect":"竹中工務店","year":2022.0,"address":"神奈川県横浜市青葉区鴨志田町1000","latitude":35.55583190917969,"longitude":139.49989318847656,"category":"研究施設","description":"","image_url":""},{"id":11645,"title":"竹中工務店名古屋機材センター","architect":"竹中工務店","year":2021.0,"address":"愛知県名古屋市港区七番町1-1","latitude":35.11771011352539,"longitude":136.8888702392578,"category":"工場/企業施設","description":"","image_url":""},{"id":11646,"title":"京浜島つばさ公園 あずまや・シェルター・つばさ展望トイレ・つばさ広場トイレ・かどっこトイレ","architect":"小笠原正豊","year":2021.0,"address":"東京都大田区京浜島2-4-5","latitude":35.56525421142578,"longitude":139.7655029296875,"category":"公園/トイレ","description":"","image_url":""},{"id":11647,"title":"関東学院大学 横浜関内キャンパス","architect":"東畑建築事務所","year":2022.0,"address":"神奈川県横浜市中区万代町1-1-14","latitude":35.44287872314453,"longitude":139.63645935058594,"category":"大学","description":"2023年4月オープン予定","image_url":""},{"id":11648,"title":"GOOD NEWS","architect":"刈谷昌平","year":2020.0,"address":"栃木県那須郡那須町高久乙24-1","latitude":37.025455474853516,"longitude":140.02980041503906,"category":"モール/店舗/カフェ","description":"","image_url":""},{"id":11649,"title":"Vamos ヴァーモス","architect":"刈谷昌平","year":2016.0,"address":"栃木県那須郡那須町高久794-13","latitude":37.046504974365234,"longitude":140.00540161132812,"category":"カフェ","description":"","image_url":""},{"id":11650,"title":"WHITENOTE","architect":"刈谷昌平","year":2022.0,"address":"栃木県那須郡那須町高久乙142-19","latitude":37.0260124206543,"longitude":140.0240020751953,"category":"店舗","description":"","image_url":""}]}