{"page":193,"total_pages":290,"items_per_page":50,"total_items":14467,"items":[{"id":9601,"title":"名古屋市庁舎","architect":"平林金吾","year":1933.0,"address":"愛知県名古屋市中区三の丸3-1-1","latitude":35.181461334228516,"longitude":136.90667724609375,"category":"庁舎","big_category":"公共施設","description":"平林金吾、名古屋市建築課","image_url":"","tags":"重要文化財,Ver3.40(2020年5月)の追加建築","prefecture":"愛知","contractor":"","structural_designer":"","landscape_designer":"","shinkenchiku_url":""},{"id":9602,"title":"大阪府庁舎","architect":"平林金吾+岡本馨","year":1926.0,"address":"大阪府大阪市中央区大手前2-1","latitude":34.68634796142578,"longitude":135.52005004882812,"category":"庁舎","big_category":"公共施設","description":"2016年12月改修。改修に対して2023年公共建築賞・特別賞","image_url":"","tags":"Ver3.40(2020年5月)の追加建築,登録有形文化財,2023年公共建築賞・特別賞","prefecture":"大阪","contractor":"","structural_designer":"","landscape_designer":"","shinkenchiku_url":""},{"id":9603,"title":"名古屋市東山植物園 温室前館","architect":"一圓俊郎","year":1937.0,"address":"愛知県名古屋市千種区田代町瓶杁1-48","latitude":35.154327392578125,"longitude":136.98214721679688,"category":"動植物園","big_category":"レジャー施設","description":"2013～2021年にかけて保存修理され、2021年4月にリニューアルオープン","image_url":"","tags":"重要文化財,Ver3.40(2020年5月)の追加建築","prefecture":"愛知","contractor":"","structural_designer":"","landscape_designer":"","shinkenchiku_url":""},{"id":9604,"title":"愛知県庁舎","architect":"西村好時+渡辺仁","year":1938.0,"address":"愛知県名古屋市中区三の丸3-1-2","latitude":35.18022918701172,"longitude":136.90673828125,"category":"庁舎","big_category":"公共施設","description":"工事顧問として佐野利器、土屋純一。愛知県総務部営繕課が実施設計","image_url":"","tags":"重要文化財,Ver3.40(2020年5月)の追加建築","prefecture":"愛知","contractor":"","structural_designer":"","landscape_designer":"","shinkenchiku_url":""},{"id":9605,"title":"日本橋三越本店","architect":"横河民輔","year":1914.0,"address":"東京都中央区日本橋室町1-4-1","latitude":35.68572998046875,"longitude":139.77342224121094,"category":"モール","big_category":"商業施設","description":"1914年竣工も関東大震災により被災。1927年に大改修。1937年に増改築","image_url":"","tags":"重要文化財,Ver3.40(2020年5月)の追加建築","prefecture":"東京","contractor":"","structural_designer":"","landscape_designer":"","shinkenchiku_url":""},{"id":9606,"title":"東京国立博物館 本館 旧東京帝室博物館本館","architect":"渡辺仁","year":1937.0,"address":"東京都台東区上野公園13-9","latitude":35.718841552734375,"longitude":139.77647399902344,"category":"博物館","big_category":"ミュージアム","description":"","image_url":"","tags":"重要文化財,Ver3.40(2020年5月)の追加建築","prefecture":"東京","contractor":"","structural_designer":"","landscape_designer":"","shinkenchiku_url":""},{"id":9607,"title":"東京国立博物館 東洋館","architect":"谷口吉郎","year":1968.0,"address":"東京都台東区上野公園13-9","latitude":35.71786880493164,"longitude":139.77685546875,"category":"博物館","big_category":"ミュージアム","description":"","image_url":"","tags":"Ver3.40(2020年5月)の追加建築","prefecture":"東京","contractor":"","structural_designer":"","landscape_designer":"","shinkenchiku_url":""},{"id":9608,"title":"東京国立博物館 平成館","architect":"安井建築設計","year":1999.0,"address":"東京都台東区上野公園13-9","latitude":35.71990966796875,"longitude":139.77566528320312,"category":"博物館","big_category":"ミュージアム","description":"","image_url":"","tags":"Ver3.40(2020年5月)の追加建築","prefecture":"東京","contractor":"","structural_designer":"","landscape_designer":"","shinkenchiku_url":""},{"id":9609,"title":"尊経閣文庫","architect":"高橋貞太郎","year":1928.0,"address":"東京都目黒区駒場4-3-55","latitude":35.66270446777344,"longitude":139.67933654785156,"category":"図書館","big_category":"文化施設","description":"","image_url":"","tags":"重要文化財,Ver3.40(2020年5月)の追加建築","prefecture":"東京","contractor":"","structural_designer":"","landscape_designer":"","shinkenchiku_url":""},{"id":9610,"title":"下北線路街 ボーナストラック","architect":"ツバメアーキテクツ","year":2020.0,"address":"東京都世田谷区代田2-36-12","latitude":35.65908432006836,"longitude":139.6642608642578,"category":"モール","big_category":"商業施設","description":"","image_url":"","tags":"Ver3.40(2020年5月)の追加建築,新建築2020年5月号,2022年日本建築学会 作品選集新人賞","prefecture":"東京","contractor":"","structural_designer":"","landscape_designer":"","shinkenchiku_url":""},{"id":9611,"title":"小杉湯となり","architect":"T/H","year":2020.0,"address":"東京都杉並区高円寺北3-32-16-2","latitude":35.708213806152344,"longitude":139.64889526367188,"category":"温泉","big_category":"宿泊","description":"","image_url":"","tags":"Ver3.40(2020年5月)の追加建築,新建築2020年5月号,2022年日本建築学会 作品選集新人賞","prefecture":"東京","contractor":"","structural_designer":"","landscape_designer":"","shinkenchiku_url":""},{"id":9612,"title":"大原参道ビル","architect":"下川徹","year":2020.0,"address":"大分県日田市淡窓1-4-9","latitude":33.320762634277344,"longitude":130.93832397460938,"category":"店舗","big_category":"商業施設","description":"","image_url":"","tags":"Ver3.40(2020年5月)の追加建築,新建築2020年5月号","prefecture":"大分","contractor":"","structural_designer":"","landscape_designer":"","shinkenchiku_url":""},{"id":9613,"title":"桧原の歯科医院 重冨歯科医院","architect":"下川徹","year":2011.0,"address":"福岡県福岡市南区桧原5-10-32","latitude":33.536495208740234,"longitude":130.39059448242188,"category":"個人医院","big_category":"医療施設","description":"","image_url":"","tags":"Ver3.40(2020年5月)の追加建築","prefecture":"福岡","contractor":"","structural_designer":"","landscape_designer":"","shinkenchiku_url":""},{"id":9614,"title":"慶應義塾大学日吉記念館","architect":"鹿島建設","year":2020.0,"address":"神奈川県横浜市港北区日吉4-1-1","latitude":35.55238723754883,"longitude":139.65106201171875,"category":"大学","big_category":"教育","description":"","image_url":"","tags":"Ver3.40(2020年5月)の追加建築,新建築2020年5月号","prefecture":"神奈川","contractor":"","structural_designer":"","landscape_designer":"","shinkenchiku_url":""},{"id":9615,"title":"朱雀宝蔵町のホテル 河岸ホテル","architect":"OHArchitecture","year":2019.0,"address":"京都府京都市下京区朱雀宝蔵町99","latitude":34.99028778076172,"longitude":135.74044799804688,"category":"ホテル","big_category":"宿泊","description":"","image_url":"","tags":"Ver3.40(2020年5月)の追加建築","prefecture":"京都","contractor":"","structural_designer":"","landscape_designer":"","shinkenchiku_url":""},{"id":9616,"title":"淡路の工場","architect":"OHArchitecture","year":2019.0,"address":"兵庫県淡路島夢舞台1-38","latitude":34.571876525878906,"longitude":135.01681518554688,"category":"工場","big_category":"企業施設","description":"","image_url":"","tags":"Ver3.40(2020年5月)の追加建築","prefecture":"兵庫","contractor":"","structural_designer":"","landscape_designer":"","shinkenchiku_url":""},{"id":9617,"title":"淡路のBBQテラス","architect":"OHArchitecture","year":2019.0,"address":"兵庫県淡路島夢舞台1-38","latitude":34.57131576538086,"longitude":135.0169219970703,"category":"公園","big_category":"レジャー施設","description":"","image_url":"","tags":"Ver3.40(2020年5月)の追加建築","prefecture":"兵庫","contractor":"","structural_designer":"","landscape_designer":"","shinkenchiku_url":""},{"id":9618,"title":"三条のホテル ピースホステル三条","architect":"OHArchitecture+宗本晋作","year":2015.0,"address":"京都府京都市中京区朝倉町530","latitude":35.00806427001953,"longitude":135.7650604248047,"category":"ホステル","big_category":"宿泊","description":"","image_url":"","tags":"Ver3.40(2020年5月)の追加建築","prefecture":"京都","contractor":"","structural_designer":"","landscape_designer":"","shinkenchiku_url":""},{"id":9619,"title":"徳島のオフィス","architect":"OHArchitecture","year":2016.0,"address":"徳島県板野郡北島町江尻夷ノ本25-2","latitude":34.120540618896484,"longitude":134.55062866210938,"category":"低層オフィス","big_category":"企業施設","description":"","image_url":"","tags":"Ver3.40(2020年5月)の追加建築","prefecture":"徳島","contractor":"","structural_designer":"","landscape_designer":"","shinkenchiku_url":""},{"id":9620,"title":"カフェ&ギャラリー スプーンズ","architect":"OHArchitecture","year":2017.0,"address":"滋賀県大津市瀬田2-1-4","latitude":34.97231674194336,"longitude":135.90756225585938,"category":"カフェ","big_category":"商業施設","description":"","image_url":"","tags":"Ver3.40(2020年5月)の追加建築","prefecture":"滋賀","contractor":"","structural_designer":"","landscape_designer":"","shinkenchiku_url":""},{"id":9621,"title":"壬生辻町のホテル 宿ルKYOTO 縁側ノ宿","architect":"OHArchitecture","year":2019.0,"address":"京都府京都市中京区壬生辻町38-24","latitude":34.999595642089844,"longitude":135.74307250976562,"category":"ホテル/和風住宅","big_category":"宿泊,住宅","description":"一棟貸しの旅館","image_url":"","tags":"Ver3.40(2020年5月)の追加建築","prefecture":"京都","contractor":"","structural_designer":"","landscape_designer":"","shinkenchiku_url":""},{"id":9622,"title":"柚之木町のホテル 宿ルKYOTO HANARE 路地ノ宿","architect":"OHArchitecture","year":2019.0,"address":"京都府京都市東山区柚之木町353-15","latitude":35.010231018066406,"longitude":135.7841339111328,"category":"ホテル/和風住宅","big_category":"宿泊,住宅","description":"一棟貸しの旅館","image_url":"","tags":"Ver3.40(2020年5月)の追加建築","prefecture":"京都","contractor":"","structural_designer":"","landscape_designer":"","shinkenchiku_url":""},{"id":9623,"title":"長岡京のホテル ディスカバー長岡京","architect":"OHArchitecture","year":2019.0,"address":"京都府長岡京市天神1-7-3","latitude":34.924869537353516,"longitude":135.692138671875,"category":"ホテル","big_category":"宿泊","description":"","image_url":"","tags":"Ver3.40(2020年5月)の追加建築","prefecture":"京都","contractor":"","structural_designer":"","landscape_designer":"","shinkenchiku_url":""},{"id":9624,"title":"那覇の物販店 march","architect":"OHArchitecture","year":2020.0,"address":"沖縄県那覇市字安里82-1","latitude":26.221155166625977,"longitude":127.69316864013672,"category":"店舗","big_category":"商業施設","description":"","image_url":"","tags":"Ver3.40(2020年5月)の追加建築","prefecture":"沖縄","contractor":"","structural_designer":"","landscape_designer":"","shinkenchiku_url":""},{"id":9625,"title":"KIRO 広島 by THE SHARE HOTELS","architect":"田中裕之","year":2019.0,"address":"広島県広島市中区三川町3-21","latitude":34.39072036743164,"longitude":132.46177673339844,"category":"ホテル","big_category":"宿泊","description":"","image_url":"","tags":"Ver3.40(2020年5月)の追加建築","prefecture":"広島","contractor":"","structural_designer":"","landscape_designer":"","shinkenchiku_url":""},{"id":9626,"title":"てのべ たかだや","architect":"グラフ・デコラティブ・モード・ナンバースリー","year":2020.0,"address":"奈良県桜井市芝374-1","latitude":34.53355407714844,"longitude":135.83901977539062,"category":"店舗","big_category":"商業施設","description":"","image_url":"","tags":"Ver3.40(2020年5月)の追加建築","prefecture":"奈良","contractor":"","structural_designer":"","landscape_designer":"","shinkenchiku_url":""},{"id":9627,"title":"にしき ひみつ基地ミュージアム","architect":"中西ひろむ+荻原雅史","year":2018.0,"address":"熊本県球磨郡錦町大字木上西2-107","latitude":32.22085952758789,"longitude":130.8172149658203,"category":"博物館","big_category":"ミュージアム","description":"","image_url":"","tags":"Ver3.40(2020年5月)の追加建築","prefecture":"熊本","contractor":"","structural_designer":"","landscape_designer":"","shinkenchiku_url":""},{"id":9628,"title":"子どもの森保育園","architect":"武松幸治","year":2017.0,"address":"沖縄県国頭郡恩納村字真栄田2329-1","latitude":26.426570892333984,"longitude":127.75643157958984,"category":"幼稚園","big_category":"教育","description":"","image_url":"","tags":"Ver3.50(2020年7月)の追加建築","prefecture":"沖縄","contractor":"","structural_designer":"","landscape_designer":"","shinkenchiku_url":""},{"id":9629,"title":"森林総合研究所九州支所 共同実験棟","architect":"武松幸治","year":2018.0,"address":"熊本県熊本市中央区黒髪4-11-16","latitude":32.81985855102539,"longitude":130.73291015625,"category":"研究施設","big_category":"教育","description":"","image_url":"","tags":"Ver3.50(2020年7月)の追加建築","prefecture":"熊本","contractor":"","structural_designer":"","landscape_designer":"","shinkenchiku_url":""},{"id":9630,"title":"ノルン水上スキー場 ゲートハウス","architect":"武松幸治","year":2015.0,"address":"群馬県利根郡みなかみ町寺間479-139","latitude":36.7437858581543,"longitude":138.94183349609375,"category":"観光施設","big_category":"レジャー施設","description":"","image_url":"","tags":"Ver3.50(2020年7月)の追加建築","prefecture":"群馬","contractor":"","structural_designer":"","landscape_designer":"","shinkenchiku_url":""},{"id":9631,"title":"葉山有樹窯 YUKI HAYAMA STUDIO","architect":"武松幸治","year":2014.0,"address":"佐賀県武雄市山内町大字宮野字小路1456","latitude":33.21399688720703,"longitude":129.917724609375,"category":"ギャラリー/カフェ","big_category":"ミュージアム,商業施設","description":"","image_url":"","tags":"Ver3.50(2020年7月)の追加建築,新建築2014年11月号","prefecture":"佐賀","contractor":"上山建設","structural_designer":"多田脩二構造設計事務所","landscape_designer":"","shinkenchiku_url":"https://data.shinkenchiku.online/articles/SK_2014_11_176-0"},{"id":9632,"title":"アルバ内藤ビル","architect":"武松幸治","year":null,"address":"東京都立川市曙町2-7-15","latitude":35.70017623901367,"longitude":139.4144287109375,"category":"テナントビル","big_category":"商業施設","description":"","image_url":"","tags":"Ver3.50(2020年7月)の追加建築","prefecture":"東京","contractor":"","structural_designer":"","landscape_designer":"","shinkenchiku_url":""},{"id":9633,"title":"シネマシティ CINEMA TWO","architect":"武松幸治","year":2004.0,"address":"東京都立川市曙町2-42-26","latitude":35.7014045715332,"longitude":139.4121551513672,"category":"ホール・劇場","big_category":"文化施設","description":"","image_url":"","tags":"Ver3.50(2020年7月)の追加建築","prefecture":"東京","contractor":"","structural_designer":"","landscape_designer":"","shinkenchiku_url":""},{"id":9634,"title":"四日市市総合体育館","architect":"久米設計","year":2020.0,"address":"三重県四日市市日永東1-3-21","latitude":34.952213287353516,"longitude":136.61492919921875,"category":"体育館","big_category":"レジャー施設","description":"","image_url":"","tags":"新建築2020年6月号,Ver3.50(2020年7月)の追加建築","prefecture":"三重","contractor":"大成・中村特定建設工事共同企業体","structural_designer":"","landscape_designer":"","shinkenchiku_url":""},{"id":9635,"title":"熊本城特別見学通路","architect":"日本設計","year":2020.0,"address":"熊本県熊本市中央区本丸1-1","latitude":32.80487060546875,"longitude":130.70602416992188,"category":"橋/観光施設","big_category":"インフラ,レジャー施設","description":"","image_url":"","tags":"新建築2020年6月号,Ver3.50(2020年7月)の追加建築,第30回AACA 特別賞,2021年度JIA優秀建築賞","prefecture":"熊本","contractor":"安藤・間・武末・勝本建設工事共同企業体","structural_designer":"","landscape_designer":"","shinkenchiku_url":""},{"id":9636,"title":"まごころ学園","architect":"木村博幸+山下秀之","year":2018.0,"address":"新潟県見附市田井町 まごころ学園","latitude":37.50172805786133,"longitude":138.9258270263672,"category":"養護施設","big_category":"医療施設","description":"","image_url":"","tags":"新建築2020年6月号,Ver3.50(2020年7月)の追加建築","prefecture":"新潟","contractor":"","structural_designer":"","landscape_designer":"","shinkenchiku_url":""},{"id":9637,"title":"三瓶小豆原埋没林公園","architect":"株式会社大建設計","year":2003.0,"address":"島根県大田市三瓶町多根ロ58-2","latitude":35.177085876464844,"longitude":132.60037231445312,"category":"公園/博物館","big_category":"レジャー施設,ミュージアム","description":"","image_url":"","tags":"新建築2020年6月号,Ver3.50(2020年7月)の追加建築","prefecture":"島根","contractor":"","structural_designer":"","landscape_designer":"","shinkenchiku_url":""},{"id":9638,"title":"北上にっこり地区拠点施設","architect":"株式会社大建設計","year":2020.0,"address":"宮城県石巻市北上町十三浜小田93-4","latitude":38.567745208740234,"longitude":141.4255828857422,"category":"庁舎/総合文化施設/公共施設","big_category":"公共施設,文化施設,公共施設","description":"総合支所・公民館・図書館北上分館・児童クラブ・郵便局・北上こども園・河北消防署北上出張所などの複合施設","image_url":"","tags":"新建築2020年6月号,Ver3.50(2020年7月)の追加建築","prefecture":"宮城","contractor":"","structural_designer":"","landscape_designer":"","shinkenchiku_url":""},{"id":9639,"title":"東レ未来創造研究センター 融合研究棟","architect":"山下設計","year":2019.0,"address":"滋賀県大津市園山3-2-10","latitude":34.974185943603516,"longitude":135.88754272460938,"category":"研究施設/低層オフィス","big_category":"教育,企業施設","description":"","image_url":"","tags":"新建築2020年6月号,Ver3.50(2020年7月)の追加建築","prefecture":"滋賀","contractor":"","structural_designer":"","landscape_designer":"","shinkenchiku_url":""},{"id":9640,"title":"桜美林大学 新宿キャンパス","architect":"戸田建設+リシャール・ブリア","year":2019.0,"address":"東京都新宿区百人町3-23-1","latitude":35.70549011230469,"longitude":139.69769287109375,"category":"大学","big_category":"教育","description":"","image_url":"","tags":"新建築2020年6月号,Ver3.50(2020年7月)の追加建築","prefecture":"東京","contractor":"戸田建設","structural_designer":"","landscape_designer":"","shinkenchiku_url":""},{"id":9641,"title":"下高井戸の産婦人科 青木産婦人科医院","architect":"古澤大輔","year":2019.0,"address":"東京都世田谷区赤堤5-30-15","latitude":35.66521453857422,"longitude":139.63873291015625,"category":"個人医院","big_category":"医療施設","description":"","image_url":"","tags":"新建築2020年6月号,Ver3.50(2020年7月)の追加建築","prefecture":"東京","contractor":"","structural_designer":"","landscape_designer":"","shinkenchiku_url":""},{"id":9642,"title":"辛島内科クリニック","architect":"磯崎新","year":1978.0,"address":"大分県大分市千代町2-1-1","latitude":33.24235153198242,"longitude":131.60614013671875,"category":"個人医院","big_category":"医療施設","description":"","image_url":"","tags":"Ver3.50(2020年7月)の追加建築","prefecture":"大分","contractor":"","structural_designer":"","landscape_designer":"","shinkenchiku_url":""},{"id":9643,"title":"森吉山ダム管理支所","architect":"香山壽夫","year":2008.0,"address":"秋田県北秋田市根森田姫ケ岱31","latitude":40.03791046142578,"longitude":140.4591827392578,"category":"公共施設","big_category":"公共施設","description":"","image_url":"","tags":"Ver3.50(2020年7月)の追加建築","prefecture":"秋田","contractor":"","structural_designer":"","landscape_designer":"","shinkenchiku_url":""},{"id":9644,"title":"ひかり保育園 鳥海ホール","architect":"丸山欣也","year":2006.0,"address":"秋田県由利本荘市八幡下24-1","latitude":39.39320373535156,"longitude":140.05589294433594,"category":"幼稚園","big_category":"教育","description":"","image_url":"","tags":"Ver3.50(2020年7月)の追加建築","prefecture":"秋田","contractor":"","structural_designer":"","landscape_designer":"","shinkenchiku_url":""},{"id":9645,"title":"本荘保育園","architect":"丸山欣也","year":2006.0,"address":"秋田県由利本荘市大門13","latitude":39.38853454589844,"longitude":140.04437255859375,"category":"幼稚園","big_category":"教育","description":"旧園舎(1976年竣工)の建て替えと思われる（ちょっと確信なし）","image_url":"","tags":"Ver3.50(2020年7月)の追加建築","prefecture":"秋田","contractor":"","structural_designer":"","landscape_designer":"","shinkenchiku_url":""},{"id":9646,"title":"風の子保育園","architect":"丸山欣也","year":1973.0,"address":"秋田県由利本荘市御門74","latitude":39.37992858886719,"longitude":140.05113220214844,"category":"幼稚園","big_category":"教育","description":"","image_url":"","tags":"Ver3.50(2020年7月)の追加建築","prefecture":"秋田","contractor":"","structural_designer":"","landscape_designer":"","shinkenchiku_url":""},{"id":9647,"title":"TAOの里GRANDIOSO 稽古場 赤兜","architect":"丸山欣也","year":2009.0,"address":"大分県竹田市久住町大字白丹3812-1","latitude":33.034515380859375,"longitude":131.24472045898438,"category":"ホール・劇場","big_category":"文化施設","description":"","image_url":"","tags":"Ver3.50(2020年7月)の追加建築","prefecture":"大分","contractor":"","structural_designer":"","landscape_designer":"","shinkenchiku_url":""},{"id":9648,"title":"ハウス大分川カヌー艇庫 「仙姿舞鶴」","architect":"黒川哲郎","year":1998.0,"address":"大分県大分市舞鶴町2-4-11","latitude":33.24153137207031,"longitude":131.61947631835938,"category":"公共施設","big_category":"公共施設","description":"","image_url":"","tags":"Ver3.50(2020年7月)の追加建築","prefecture":"大分","contractor":"","structural_designer":"","landscape_designer":"","shinkenchiku_url":""},{"id":9649,"title":"常妙寺","architect":"青木茂","year":1992.0,"address":"大分県大分市大字葛木326-1","latitude":33.21846389770508,"longitude":131.66969299316406,"category":"寺院","big_category":"宗教","description":"","image_url":"","tags":"Ver3.50(2020年7月)の追加建築","prefecture":"大分","contractor":"","structural_designer":"","landscape_designer":"","shinkenchiku_url":""},{"id":9650,"title":"千葉市立幸町第3小学校","architect":"香山壽夫","year":1974.0,"address":"千葉県千葉市美浜区幸町1-10-1","latitude":35.61177062988281,"longitude":140.09893798828125,"category":"学校","big_category":"教育","description":"","image_url":"","tags":"Ver3.50(2020年7月)の追加建築","prefecture":"千葉","contractor":"","structural_designer":"","landscape_designer":"","shinkenchiku_url":""}]}