{"page":273,"total_pages":290,"items_per_page":50,"total_items":14467,"items":[{"id":13601,"title":"日本バプテスト連盟 高松常磐町キリスト教会","architect":"森一清+四電エンジニアリング","year":1981.0,"address":"香川県高松市常磐町2-12-2","latitude":34.33787536621094,"longitude":134.04953002929688,"category":"教会","big_category":"宗教","description":"","image_url":"","tags":"Ver5.40(2024年7月)の追加建築","prefecture":"香川","contractor":"藤木工務店","structural_designer":"","landscape_designer":"","shinkenchiku_url":""},{"id":13602,"title":"三島のオフィス 加和太建設新本社 かどぐちオフィス","architect":"西沢立衛","year":2024.0,"address":"静岡県三島市文教町1-5-15","latitude":35.128238677978516,"longitude":138.90977478027344,"category":"低層オフィス","big_category":"企業施設","description":"","image_url":"","tags":"新建築2024年7月号,Ver5.40(2024年7月)の追加建築","prefecture":"静岡","contractor":"","structural_designer":"","landscape_designer":"","shinkenchiku_url":""},{"id":13603,"title":"カムカムスワロー","architect":"大建met+名和研二","year":2022.0,"address":"岐阜県岐阜市早田大通2-8-1","latitude":35.435447692871094,"longitude":136.74838256835938,"category":"カフェ","big_category":"商業施設","description":"","image_url":"","tags":"新建築2024年7月号,Ver5.40(2024年7月)の追加建築","prefecture":"岐阜","contractor":"田口建設","structural_designer":"","landscape_designer":"","shinkenchiku_url":""},{"id":13604,"title":"道玄坂のリノベビル スタンドうみねこSiB100","architect":"山口陽登","year":2023.0,"address":"東京都渋谷区道玄坂2-16-2","latitude":35.658878326416016,"longitude":139.69708251953125,"category":"バー・居酒屋","big_category":"商業施設","description":"","image_url":"","tags":"新建築2024年7月号,Ver5.40(2024年7月)の追加建築","prefecture":"東京","contractor":"","structural_designer":"","landscape_designer":"","shinkenchiku_url":""},{"id":13605,"title":"寺山修司文学碑","architect":"粟津潔","year":1991.0,"address":"岩手県北上市芳町4","latitude":39.28738784790039,"longitude":141.11160278320312,"category":"オブジェ/宗教施設","big_category":"ミュージアム,宗教","description":"","image_url":"","tags":"Ver5.40(2024年7月)の追加建築","prefecture":"岩手","contractor":"","structural_designer":"","landscape_designer":"","shinkenchiku_url":""},{"id":13606,"title":"まびふれあい公園","architect":"隈研吾","year":2024.0,"address":"岡山県倉敷市真備町箭田4629-1","latitude":34.6224479675293,"longitude":133.6908416748047,"category":"公園","big_category":"レジャー施設","description":"","image_url":"","tags":"Ver5.40(2024年7月)の追加建築","prefecture":"岡山","contractor":"","structural_designer":"","landscape_designer":"","shinkenchiku_url":""},{"id":13607,"title":"青森市総合体育館 カクヒログループスーパーアリーナ","architect":"隈研吾+大成建設+川島隆太郎建築事務所","year":2024.0,"address":"青森県青森市浦町橋本335-17","latitude":40.81397247314453,"longitude":140.74591064453125,"category":"体育館","big_category":"レジャー施設","description":"","image_url":"","tags":"Ver5.40(2024年7月)の追加建築","prefecture":"青森","contractor":"大成建設・藤本建設共同企業体","structural_designer":"","landscape_designer":"","shinkenchiku_url":""},{"id":13608,"title":"妙本寺 納骨堂 / 合祀墓","architect":"多田正治","year":2024.0,"address":"大阪府三島郡島本町2","latitude":34.88613510131836,"longitude":135.67098999023438,"category":"寺院/霊園","big_category":"宗教,宗教","description":"","image_url":"","tags":"Ver5.40(2024年7月)の追加建築","prefecture":"大阪","contractor":"清水工務店","structural_designer":"門藤芳樹構造設計事務所","landscape_designer":"","shinkenchiku_url":""},{"id":13609,"title":"駒沢オリンピック公園 陸上競技場","architect":"村田政真","year":1964.0,"address":"東京都世田谷区駒沢公園1-1","latitude":35.62553405761719,"longitude":139.66366577148438,"category":"スタジアム","big_category":"レジャー施設","description":"2017年梓設計により改修","image_url":"","tags":"Ver5.40(2024年7月)の追加建築","prefecture":"東京","contractor":"","structural_designer":"","landscape_designer":"","shinkenchiku_url":""},{"id":13610,"title":"駒沢グリーンビル","architect":"丹下憲孝","year":2014.0,"address":"東京都世田谷区駒沢1-3-1","latitude":35.63173294067383,"longitude":4562499584.0,"category":"テナントビル","big_category":"商業施設","description":"","image_url":"","tags":"Ver5.40(2024年7月)の追加建築","prefecture":"東京","contractor":"","structural_designer":"","landscape_designer":"","shinkenchiku_url":""},{"id":13611,"title":"国際デンタルビル","architect":"パルフィ・ジョージ","year":1985.0,"address":"東京都目黒区東が丘2-12-24","latitude":35.63075637817383,"longitude":139.6623992919922,"category":"個人医院","big_category":"医療施設","description":"","image_url":"","tags":"Ver5.40(2024年7月)の追加建築","prefecture":"東京","contractor":"","structural_designer":"","landscape_designer":"","shinkenchiku_url":""},{"id":13612,"title":"駒澤大学 深沢校舎","architect":"久米設計","year":2006.0,"address":"東京都世田谷区深沢6-8-18","latitude":35.624942779541016,"longitude":139.6552276611328,"category":"大学","big_category":"教育","description":"","image_url":"","tags":"Ver5.40(2024年7月)の追加建築","prefecture":"東京","contractor":"","structural_designer":"","landscape_designer":"","shinkenchiku_url":""},{"id":13613,"title":"仙川アベニュー・アネックスII","architect":"安藤忠雄","year":2004.0,"address":"東京都調布市仙川町1-24-38","latitude":35.660335540771484,"longitude":139.58763122558594,"category":"集合住宅","big_category":"住宅","description":"","image_url":"","tags":"Ver5.40(2024年7月)の追加建築","prefecture":"東京","contractor":"","structural_designer":"","landscape_designer":"","shinkenchiku_url":""},{"id":13614,"title":"Mesh/Earth 肉割烹 礼","architect":"隈研吾","year":2012.0,"address":"東京都港区芝公園4-8-12","latitude":35.65481185913086,"longitude":139.74896240234375,"category":"レストラン/住宅","big_category":"商業施設,住宅","description":"住宅として設計されたが現在は飲食店として利用されている","image_url":"","tags":"Ver5.40(2024年7月)の追加建築","prefecture":"東京","contractor":"","structural_designer":"","landscape_designer":"","shinkenchiku_url":""},{"id":13615,"title":"ザ・アビオール イースト/ウェスト","architect":"久米設計+隈研吾","year":2020.0,"address":"東京都渋谷区渋谷4-1-20","latitude":35.659889221191406,"longitude":139.71348571777344,"category":"集合住宅","big_category":"住宅","description":"デザイン監修：隈研吾","image_url":"","tags":"Ver5.40(2024年7月)の追加建築","prefecture":"東京","contractor":"","structural_designer":"","landscape_designer":"","shinkenchiku_url":""},{"id":13616,"title":"Dacha","architect":"安藤忠雄","year":2014.0,"address":"東京都中野区上高田4-45-1","latitude":35.71562957763672,"longitude":139.67605590820312,"category":"集合住宅","big_category":"住宅","description":"","image_url":"","tags":"Ver5.40(2024年7月)の追加建築","prefecture":"東京","contractor":"","structural_designer":"","landscape_designer":"","shinkenchiku_url":""},{"id":13617,"title":"キクヤ調剤薬局 愛知川店","architect":"今津康夫","year":2024.0,"address":"滋賀県愛知郡愛荘町愛知川1537","latitude":35.17326736450195,"longitude":136.20822143554688,"category":"店舗","big_category":"商業施設","description":"","image_url":"","tags":"Ver5.40(2024年7月)の追加建築","prefecture":"滋賀","contractor":"よし工務店","structural_designer":"片岡構造","landscape_designer":"","shinkenchiku_url":""},{"id":13618,"title":"ららアリーナ 東京ベイ","architect":"清水建設+HKS","year":2024.0,"address":"千葉県船橋市浜町2-5-15","latitude":35.68367385864258,"longitude":139.98948669433594,"category":"ホール・劇場","big_category":"文化施設","description":"外装コンセプトデザイン：HKS","image_url":"","tags":"Ver5.40(2024年7月)の追加建築","prefecture":"千葉","contractor":"","structural_designer":"","landscape_designer":"SWA Group","shinkenchiku_url":""},{"id":13619,"title":"高松商工会議所会館","architect":"日建設計","year":1991.0,"address":"香川県高松市番町2-2-2","latitude":34.34406661987305,"longitude":134.04498291015625,"category":"組合施設","big_category":"公共施設","description":"","image_url":"","tags":"Ver5.40(2024年7月)の追加建築","prefecture":"香川","contractor":"西松建設","structural_designer":"","landscape_designer":"","shinkenchiku_url":""},{"id":13620,"title":"いしかわ四高記念公園 カスケード広場","architect":"谷口吉郎","year":1973.0,"address":"石川県金沢市広坂2-2-42","latitude":36.56382751464844,"longitude":136.655029296875,"category":"公園","big_category":"レジャー施設","description":"","image_url":"","tags":"Ver5.40(2024年7月)の追加建築","prefecture":"石川","contractor":"","structural_designer":"","landscape_designer":"","shinkenchiku_url":""},{"id":13621,"title":"旧山本悌二郎別荘","architect":"不明","year":1911.0,"address":"新潟県佐渡市小木368-2","latitude":37.807151794433594,"longitude":138.2660369873047,"category":"和風住宅","big_category":"住宅","description":"2025年から完全予約制の予定","image_url":"","tags":"Ver5.40(2024年7月)の追加建築","prefecture":"新潟","contractor":"","structural_designer":"","landscape_designer":"","shinkenchiku_url":""},{"id":13622,"title":"瀬戸内隠れ家リゾート AMERI","architect":"伊瀬和裕","year":2023.0,"address":"広島県尾道市百島町2586-17","latitude":34.383827209472656,"longitude":133.26046752929688,"category":"コテージ","big_category":"宿泊","description":"一棟貸しの宿","image_url":"","tags":"Ver5.40(2024年7月)の追加建築","prefecture":"広島","contractor":"ワンダーウォール","structural_designer":"","landscape_designer":"sora*niwa","shinkenchiku_url":""},{"id":13623,"title":"PAO","architect":"岡田宰","year":2023.0,"address":"静岡県浜松市南区卸本町56","latitude":34.672969818115234,"longitude":137.72390747070312,"category":"店舗/モール","big_category":"商業施設,商業施設","description":"","image_url":"","tags":"Ver5.40(2024年7月)の追加建築","prefecture":"静岡","contractor":"杢理","structural_designer":"","landscape_designer":"","shinkenchiku_url":""},{"id":13624,"title":"霞ケ浦 どうぶつとみんなのいえ","architect":"髙橋一平","year":2024.0,"address":"茨城県行方市玉造甲1234","latitude":36.09612274169922,"longitude":140.40280151367188,"category":"動植物園","big_category":"レジャー施設","description":"2024年7月31日開園","image_url":"","tags":"Ver5.40(2024年7月)の追加建築","prefecture":"茨城","contractor":"オカベ","structural_designer":"","landscape_designer":"","shinkenchiku_url":""},{"id":13625,"title":"清須市はるひ美術館","architect":"若山滋","year":1999.0,"address":"愛知県清須市春日夢の森1","latitude":35.23541259765625,"longitude":136.8407745361328,"category":"美術館","big_category":"ミュージアム","description":"","image_url":"","tags":"Ver5.40(2024年7月)の追加建築","prefecture":"愛知","contractor":"","structural_designer":"","landscape_designer":"","shinkenchiku_url":""},{"id":13626,"title":"TIAD, AUTOGRAPH COLLECTION","architect":"清水建設","year":2023.0,"address":"愛知県名古屋市中区栄5-15-19","latitude":35.16388702392578,"longitude":136.90988159179688,"category":"ホテル","big_category":"宿泊","description":"","image_url":"","tags":"Ver5.40(2024年7月)の追加建築","prefecture":"愛知","contractor":"清水建設","structural_designer":"","landscape_designer":"","shinkenchiku_url":""},{"id":13627,"title":"豊田地域医療センター","architect":"日建設計","year":2020.0,"address":"愛知県豊田市西山町3-30-1","latitude":35.10793685913086,"longitude":137.1545867919922,"category":"病院","big_category":"医療施設","description":"","image_url":"","tags":"Ver5.40(2024年7月)の追加建築","prefecture":"愛知","contractor":"鴻池・太啓建設共同企業体","structural_designer":"","landscape_designer":"","shinkenchiku_url":""},{"id":13628,"title":"小牧市立小牧南小学校","architect":"久米設計","year":2023.0,"address":"愛知県小牧市若草町82","latitude":35.279136657714844,"longitude":136.92449951171875,"category":"学校","big_category":"教育","description":"","image_url":"","tags":"Ver5.40(2024年7月)の追加建築","prefecture":"愛知","contractor":"東急・滝特定建設工事共同企業体","structural_designer":"","landscape_designer":"","shinkenchiku_url":""},{"id":13629,"title":"笠覆寺 信徒会館","architect":"零三工作室+堀内建築研究所","year":2022.0,"address":"愛知県名古屋市南区笠寺町上新町83","latitude":35.09956741333008,"longitude":136.9364013671875,"category":"寺院","big_category":"宗教","description":"","image_url":"","tags":"Ver5.40(2024年7月)の追加建築","prefecture":"愛知","contractor":"中村社寺","structural_designer":"","landscape_designer":"","shinkenchiku_url":""},{"id":13630,"title":"神戸市立自然の家 そうぞうのすみか シェールミエール","architect":"栗生明+北川・上田総合計画","year":2024.0,"address":"兵庫県神戸市灘区六甲山町中一里山2","latitude":34.74331283569336,"longitude":135.20921325683594,"category":"カフェ/観光施設","big_category":"商業施設,レジャー施設","description":"","image_url":"","tags":"Ver5.40(2024年7月)の追加建築","prefecture":"兵庫","contractor":"溝口建設","structural_designer":"レン構造設計事務所","landscape_designer":"","shinkenchiku_url":""},{"id":13631,"title":"Ark館ヶ森","architect":"栗生明+北川・上田総合計画","year":2023.0,"address":"岩手県一関市藤沢町黄海衣井沢山9-15","latitude":38.81747055053711,"longitude":141.2741241455078,"category":"観光施設/公園","big_category":"レジャー施設,レジャー施設","description":"改修2棟、新築2棟","image_url":"","tags":"Ver5.40(2024年7月)の追加建築","prefecture":"岩手","contractor":"平野組","structural_designer":"レン構造設計事務所","landscape_designer":"","shinkenchiku_url":""},{"id":13632,"title":"タウンハウス仙台坂","architect":"黒川紀章","year":1974.0,"address":"東京都港区南麻布1-1-22","latitude":35.651512145996094,"longitude":139.7311553955078,"category":"集合住宅","big_category":"住宅","description":"","image_url":"","tags":"Ver5.40(2024年7月)の追加建築","prefecture":"東京","contractor":"竹中工務店","structural_designer":"","landscape_designer":"","shinkenchiku_url":""},{"id":13633,"title":"チュリス赤坂","architect":"黒川紀章","year":1983.0,"address":"東京都港区赤坂2-17-12","latitude":35.67063522338867,"longitude":139.74012756347656,"category":"集合住宅","big_category":"住宅","description":"","image_url":"","tags":"Ver5.40(2024年7月)の追加建築","prefecture":"東京","contractor":"","structural_designer":"","landscape_designer":"","shinkenchiku_url":""},{"id":13634,"title":"パレ・エテルネル","architect":"黒川紀章","year":1982.0,"address":"東京都新宿区四谷4-28-20","latitude":35.68783950805664,"longitude":139.7152862548828,"category":"集合住宅","big_category":"住宅","description":"","image_url":"","tags":"Ver5.40(2024年7月)の追加建築","prefecture":"東京","contractor":"竹中工務店","structural_designer":"","landscape_designer":"","shinkenchiku_url":""},{"id":13635,"title":"コンシェリア西新宿タワーズウエスト","architect":"黒川紀章","year":2008.0,"address":"東京都新宿区西新宿6-20-7","latitude":35.69261169433594,"longitude":139.68739318847656,"category":"集合住宅","big_category":"住宅","description":"","image_url":"","tags":"Ver5.40(2024年7月)の追加建築","prefecture":"東京","contractor":"大林組","structural_designer":"","landscape_designer":"","shinkenchiku_url":""},{"id":13636,"title":"Brillia 鎌倉御成町","architect":"黒川紀章","year":2008.0,"address":"神奈川県鎌倉市御成町14-22","latitude":35.32059860229492,"longitude":139.548583984375,"category":"集合住宅","big_category":"住宅","description":"","image_url":"","tags":"Ver5.40(2024年7月)の追加建築","prefecture":"神奈川","contractor":"大成建設","structural_designer":"","landscape_designer":"","shinkenchiku_url":""},{"id":13637,"title":"下北沢ハウス","architect":"黒川紀章","year":1994.0,"address":"東京都世田谷区代田6-10-6","latitude":35.66469192504883,"longitude":139.6637725830078,"category":"集合住宅","big_category":"住宅","description":"","image_url":"","tags":"Ver5.40(2024年7月)の追加建築","prefecture":"東京","contractor":"","structural_designer":"","landscape_designer":"","shinkenchiku_url":""},{"id":13638,"title":"saito","architect":"妹島和世","year":2000.0,"address":"東京都渋谷区恵比寿1-30-15","latitude":35.64728927612305,"longitude":139.71665954589844,"category":"集合住宅","big_category":"住宅","description":"","image_url":"","tags":"Ver5.40(2024年7月)の追加建築","prefecture":"東京","contractor":"","structural_designer":"","landscape_designer":"","shinkenchiku_url":""},{"id":13639,"title":"パークハウス白金","architect":"槇文彦","year":1970.0,"address":"東京都港区白金台5-11-9","latitude":35.640892028808594,"longitude":139.7204132080078,"category":"集合住宅","big_category":"住宅","description":"","image_url":"","tags":"Ver5.40(2024年7月)の追加建築","prefecture":"東京","contractor":"竹中工務店","structural_designer":"","landscape_designer":"","shinkenchiku_url":""},{"id":13640,"title":"日立オリジンパーク","architect":"日立建設設計+乃村工藝社","year":2021.0,"address":"茨城県日立市大みか町6-19-22","latitude":36.51326370239258,"longitude":140.6148223876953,"category":"博物館/クラブハウス","big_category":"ミュージアム,レジャー施設","description":"「小平記念館」「創業小屋」「大みかクラブ」「大みかゴルフクラブ」からなる施設。2023グッドデザイン賞受賞、iFデザインアワード2023受賞、茨城建築文化賞優秀賞","image_url":"","tags":"Ver5.40(2024年7月)の追加建築","prefecture":"茨城","contractor":"","structural_designer":"","landscape_designer":"","shinkenchiku_url":""},{"id":13641,"title":"オーキッド・コート","architect":"チャールズ・ムーア+三井住友建設","year":1997.0,"address":"兵庫県神戸市東灘区西岡本2-7-1","latitude":34.72217559814453,"longitude":135.26617431640625,"category":"集合住宅","big_category":"住宅","description":"レジデント建物4とマナーハウス、メインオフィス棟、クーリングタワー、ガーデナーハウスなどで構成される","image_url":"","tags":"Ver5.40(2024年7月)の追加建築","prefecture":"兵庫","contractor":"","structural_designer":"","landscape_designer":"","shinkenchiku_url":""},{"id":13642,"title":"比治山大学3号館","architect":"大旗連合建築設計","year":2021.0,"address":"広島県広島市東区牛田新町4-1-1","latitude":34.42786407470703,"longitude":132.47509765625,"category":"大学","big_category":"教育","description":"","image_url":"","tags":"Ver5.40(2024年7月)の追加建築","prefecture":"広島","contractor":"","structural_designer":"","landscape_designer":"","shinkenchiku_url":""},{"id":13643,"title":"星野リゾート トマム 雲海テラス","architect":"児島理志","year":2021.0,"address":"北海道勇払郡占冠村字中トマム","latitude":43.07711410522461,"longitude":142.5988006591797,"category":"展望台","big_category":"レジャー施設","description":"","image_url":"","tags":"Ver5.40(2024年7月)の追加建築","prefecture":"北海道","contractor":"宮坂建設工業+三井住友建設","structural_designer":"T&Aアソシエイツ","landscape_designer":"","shinkenchiku_url":""},{"id":13644,"title":"府中市こどもの国ポムポム","architect":"大旗連合建築設計","year":2018.0,"address":"広島県府中市土生町1581-7","latitude":34.571563720703125,"longitude":133.2299041748047,"category":"児童施設","big_category":"教育","description":"","image_url":"","tags":"Ver5.40(2024年7月)の追加建築","prefecture":"広島","contractor":"","structural_designer":"","landscape_designer":"","shinkenchiku_url":""},{"id":13645,"title":"梅ヶ枝餅 やす武","architect":"下川徹","year":2021.0,"address":"福岡県太宰府市宰府2-7-16","latitude":33.519493103027344,"longitude":130.53277587890625,"category":"店舗","big_category":"商業施設","description":"","image_url":"","tags":"Ver5.40(2024年7月)の追加建築","prefecture":"福岡","contractor":"","structural_designer":"","landscape_designer":"","shinkenchiku_url":""},{"id":13646,"title":"K8ビル/ MINATO・COCO Gallery Kyoto","architect":"フロリアン・ブッシュ","year":2015.0,"address":"京都府京都市中京区鍋屋町209-2","latitude":35.00519561767578,"longitude":135.77066040039062,"category":"テナントビル/ギャラリー/バー・居酒屋","big_category":"商業施設,ミュージアム,商業施設","description":"現在Google mapではCOCO Galleryとしてしか記載がありませんが、MINATO(bar)として申請中です。","image_url":"","tags":"Ver5.40(2024年7月)の追加建築","prefecture":"京都","contractor":"","structural_designer":"","landscape_designer":"","shinkenchiku_url":""},{"id":13647,"title":"ナカノサウステラ 中野ステーションレジデンス","architect":"アール・アイ・エー","year":2024.0,"address":"東京都中野区中野2-24-9","latitude":35.70457458496094,"longitude":139.66668701171875,"category":"集合住宅","big_category":"住宅","description":"","image_url":"","tags":"Ver5.40(2024年7月)の追加建築","prefecture":"東京","contractor":"西松建設","structural_designer":"","landscape_designer":"","shinkenchiku_url":""},{"id":13648,"title":"カリタス幼稚園","architect":"清水義文","year":2022.0,"address":"神奈川県川崎市多摩区中野島4-6-1","latitude":35.62962341308594,"longitude":139.5565185546875,"category":"幼稚園","big_category":"教育","description":"神奈川建築コンクール優秀賞、キッズデザイン賞、こども環境学会デザイン賞他","image_url":"","tags":"Ver5.40(2024年7月)の追加建築","prefecture":"神奈川","contractor":"戸田建設","structural_designer":"","landscape_designer":"","shinkenchiku_url":""},{"id":13649,"title":"MIWA木場公園保育園","architect":"清水義文","year":2017.0,"address":"東京都江東区木場4-1-65","latitude":35.6727409362793,"longitude":139.80934143066406,"category":"幼稚園","big_category":"教育","description":"キッズデザイン賞","image_url":"","tags":"Ver5.40(2024年7月)の追加建築","prefecture":"東京","contractor":"","structural_designer":"","landscape_designer":"","shinkenchiku_url":""},{"id":13650,"title":"宇佐市庁舎","architect":"久米設計","year":2019.0,"address":"大分県宇佐市上田1030-1","latitude":33.532344818115234,"longitude":131.35015869140625,"category":"庁舎","big_category":"公共施設","description":"","image_url":"","tags":"Ver5.40(2024年7月)の追加建築","prefecture":"大分","contractor":"","structural_designer":"","landscape_designer":"","shinkenchiku_url":""}]}