{"page":39,"total_pages":290,"items_per_page":50,"total_items":14467,"items":[{"id":1901,"title":"大野市シビックセンター・学びの里めいりん 大野市生涯学習センター","architect":"葉祥栄","year":2006.0,"address":"福井県大野市城町9-1","latitude":35.986080169677734,"longitude":136.4861297607422,"category":"公民館・交流施設/総合文化施設","big_category":"公共施設,文化施設","description":"","image_url":"","tags":"","prefecture":"福井","contractor":"","structural_designer":"","landscape_designer":"","shinkenchiku_url":""},{"id":1902,"title":"敦賀市立博物館 旧大和田銀行本店本館","architect":"永瀬・吉田建築事務所","year":1927.0,"address":"福井県敦賀市相生町7-8","latitude":35.656524658203125,"longitude":136.0687713623047,"category":"博物館","big_category":"ミュージアム","description":"","image_url":"","tags":"重要文化財","prefecture":"福井","contractor":"","structural_designer":"","landscape_designer":"","shinkenchiku_url":""},{"id":1903,"title":"敦賀フェリーターミナル","architect":"竹中工務店","year":1996.0,"address":"福井県敦賀市鞠山95-4","latitude":35.67877197265625,"longitude":136.072265625,"category":"港","big_category":"インフラ","description":"","image_url":"","tags":"","prefecture":"福井","contractor":"","structural_designer":"","landscape_designer":"","shinkenchiku_url":""},{"id":1904,"title":"北前船主の館・右近家","architect":"不明","year":null,"address":"福井県南条郡南越前町河野2-15","latitude":35.82624816894531,"longitude":136.06825256347656,"category":"洋館","big_category":"近代建築/遺産","description":"","image_url":"","tags":"","prefecture":"福井","contractor":"","structural_designer":"","landscape_designer":"","shinkenchiku_url":""},{"id":1905,"title":"TRANSHOME東郷 槇山親水公園","architect":"遠藤秀平","year":1997.0,"address":"福井県福井市東郷二ケ町","latitude":36.017154693603516,"longitude":136.26919555664062,"category":"公園","big_category":"レジャー施設","description":"取り壊されたと記述してましたが現存を確認。場所・名前を修正（2019年現地確認）","image_url":"","tags":"","prefecture":"福井","contractor":"","structural_designer":"","landscape_designer":"","shinkenchiku_url":""},{"id":1906,"title":"開花亭 sou-an","architect":"隈研吾","year":2008.0,"address":"福井県福井市中央3-9-21","latitude":36.062721252441406,"longitude":136.21336364746094,"category":"レストラン/料亭","big_category":"商業施設,商業施設","description":"","image_url":"","tags":"新建築2008年5月号","prefecture":"福井","contractor":"","structural_designer":"","landscape_designer":"","shinkenchiku_url":""},{"id":1907,"title":"Transtreet 下馬 福井市下馬中央公園","architect":"遠藤秀平","year":1996.0,"address":"福井県福井市下馬3-1111","latitude":36.03984069824219,"longitude":136.23507690429688,"category":"公園","big_category":"レジャー施設","description":"","image_url":"","tags":"","prefecture":"福井","contractor":"","structural_designer":"","landscape_designer":"","shinkenchiku_url":""},{"id":1908,"title":"福井県生活学習館 ユー・アイふくい","architect":"林雅子","year":1995.0,"address":"福井県福井市下六条町14-1","latitude":36.03586196899414,"longitude":136.23147583007812,"category":"総合文化施設","big_category":"文化施設","description":"","image_url":"","tags":"新建築1995年8月号","prefecture":"福井","contractor":"","structural_designer":"","landscape_designer":"","shinkenchiku_url":""},{"id":1909,"title":"Rooftecture 大森 睦月神事会館","architect":"遠藤秀平","year":1998.0,"address":"福井県福井市大森町33-29","latitude":36.021297454833984,"longitude":136.12034606933594,"category":"公民館・交流施設","big_category":"公共施設","description":"","image_url":"","tags":"","prefecture":"福井","contractor":"","structural_designer":"","landscape_designer":"","shinkenchiku_url":""},{"id":1910,"title":"福井県立美術館","architect":"佐藤総合計画","year":1977.0,"address":"福井県福井市文京3-16-1","latitude":36.07853317260742,"longitude":136.2152557373047,"category":"美術館","big_category":"ミュージアム","description":"","image_url":"","tags":"","prefecture":"福井","contractor":"","structural_designer":"","landscape_designer":"","shinkenchiku_url":""},{"id":1911,"title":"福邦銀行 成和支店 旧福井相互銀行","architect":"谷口吉生+高宮眞介","year":1976.0,"address":"福井県福井市御幸4-20-1","latitude":36.05717086791992,"longitude":136.24127197265625,"category":"金融機関","big_category":"企業施設","description":"","image_url":"","tags":"新建築1976年6月号","prefecture":"福井","contractor":"","structural_designer":"","landscape_designer":"","shinkenchiku_url":""},{"id":1912,"title":"福井県立図書館・文書館","architect":"槇文彦","year":2003.0,"address":"福井県福井市下馬町51-11","latitude":36.03706359863281,"longitude":136.24224853515625,"category":"図書館","big_category":"文化施設","description":"","image_url":"","tags":"新建築2003年9月号","prefecture":"福井","contractor":"","structural_designer":"","landscape_designer":"","shinkenchiku_url":""},{"id":1913,"title":"福井市美術館 アートラボふくい","architect":"黒川紀章","year":1997.0,"address":"福井県福井市下馬3-1111","latitude":36.038997650146484,"longitude":136.2340850830078,"category":"美術館","big_category":"ミュージアム","description":"","image_url":"","tags":"新建築1997年10月号","prefecture":"福井","contractor":"","structural_designer":"","landscape_designer":"","shinkenchiku_url":""},{"id":1914,"title":"滋賀県立安土城考古博物館","architect":"不明","year":null,"address":"滋賀県近江八幡市安土町下豊浦6678","latitude":35.14985656738281,"longitude":136.14773559570312,"category":"洋館","big_category":"近代建築/遺産","description":"","image_url":"","tags":"","prefecture":"滋賀","contractor":"","structural_designer":"","landscape_designer":"","shinkenchiku_url":""},{"id":1915,"title":"旧伊庭家住宅","architect":"ウィリアム・メレル・ヴォーリズ","year":1913.0,"address":"滋賀県近江八幡市安土町小中191","latitude":35.138511657714844,"longitude":136.1362762451172,"category":"洋館","big_category":"近代建築/遺産","description":"午前10時〜午後4時。月曜・祝日の翌日休館。2016年に改修。","image_url":"","tags":"","prefecture":"滋賀","contractor":"","structural_designer":"","landscape_designer":"","shinkenchiku_url":""},{"id":1916,"title":"アンドリュース記念館 旧近江八幡YMCA会館","architect":"ウィリアム・メレル・ヴォーリズ","year":1935.0,"address":"滋賀県近江八幡市為心町中31","latitude":35.13791275024414,"longitude":136.09225463867188,"category":"医療施設","big_category":"医療施設","description":"建て替えられたものだが、ヴォーリズ風","image_url":"","tags":"","prefecture":"滋賀","contractor":"","structural_designer":"","landscape_designer":"","shinkenchiku_url":""},{"id":1917,"title":"かわらミュージアム","architect":"出江寛","year":1995.0,"address":"滋賀県近江八幡市多賀町738-2","latitude":35.140602111816406,"longitude":136.09194946289062,"category":"博物館","big_category":"ミュージアム","description":"","image_url":"","tags":"","prefecture":"滋賀","contractor":"","structural_designer":"","landscape_designer":"","shinkenchiku_url":""},{"id":1918,"title":"栗東芸術文化会館 さきら","architect":"川崎清","year":1999.0,"address":"滋賀県栗東市綣2-1-28","latitude":35.03578186035156,"longitude":135.98416137695312,"category":"ホール・劇場","big_category":"文化施設","description":"","image_url":"","tags":"","prefecture":"滋賀","contractor":"","structural_designer":"","landscape_designer":"","shinkenchiku_url":""},{"id":1919,"title":"MIHO美学院中等教育学校 ／ チャペル","architect":"イオ・ミン・ペイ+小笠原正豊","year":2012.0,"address":"滋賀県甲賀市信楽町畑369","latitude":34.888763427734375,"longitude":136.00025939941406,"category":"学校/宗教施設","big_category":"教育,宗教","description":"","image_url":"","tags":"","prefecture":"滋賀","contractor":"","structural_designer":"","landscape_designer":"","shinkenchiku_url":""},{"id":1920,"title":"LUPICIA滋賀水口工場","architect":"古谷誠章","year":2013.0,"address":"滋賀県甲賀市水口町ひのきが丘36-7","latitude":34.994266510009766,"longitude":136.1622772216797,"category":"工場","big_category":"企業施設","description":"","image_url":"","tags":"","prefecture":"滋賀","contractor":"","structural_designer":"","landscape_designer":"","shinkenchiku_url":""},{"id":1921,"title":"MIHO MUSEUM","architect":"イオ・ミン・ペイ","year":1994.0,"address":"滋賀県甲賀市信楽町田代300","latitude":34.91488265991211,"longitude":136.0161590576172,"category":"美術館","big_category":"ミュージアム","description":"","image_url":"","tags":"","prefecture":"滋賀","contractor":"","structural_designer":"","landscape_designer":"","shinkenchiku_url":""},{"id":1922,"title":"滋賀県びわ湖こどもの国「虹の家」","architect":"仙田満","year":1992.0,"address":"滋賀県高島市安曇川町北船木2981","latitude":35.320045471191406,"longitude":136.07504272460938,"category":"児童施設","big_category":"教育","description":"","image_url":"","tags":"","prefecture":"滋賀","contractor":"","structural_designer":"","landscape_designer":"","shinkenchiku_url":""},{"id":1923,"title":"今津ヴォーリズ資料館 旧百卅三銀行今津支店","architect":"ウィリアム・メレル・ヴォーリズ","year":1923.0,"address":"滋賀県高島市今津町今津175","latitude":35.40239334106445,"longitude":136.03573608398438,"category":"博物館/金融機関","big_category":"ミュージアム,企業施設","description":"","image_url":"","tags":"","prefecture":"滋賀","contractor":"","structural_designer":"","landscape_designer":"","shinkenchiku_url":""},{"id":1924,"title":"たいさんじ風花の丘","architect":"岡田哲史","year":2006.0,"address":"滋賀県高島市安曇川町田中4922-2","latitude":35.33871078491211,"longitude":135.97824096679688,"category":"PA・道の駅/公民館・交流施設","big_category":"インフラ,公共施設","description":"","image_url":"","tags":"","prefecture":"滋賀","contractor":"","structural_designer":"","landscape_designer":"","shinkenchiku_url":""},{"id":1925,"title":"佐川美術館","architect":"竹中工務店","year":1998.0,"address":"滋賀県守山市水保町2891","latitude":35.10932159423828,"longitude":135.9461212158203,"category":"美術館","big_category":"ミュージアム","description":"","image_url":"","tags":"2000年日本建築学会 作品選奨","prefecture":"滋賀","contractor":"","structural_designer":"","landscape_designer":"","shinkenchiku_url":""},{"id":1926,"title":"TOKIMEKIビル","architect":"高松伸","year":2003.0,"address":"滋賀県大津市馬場1-7-12","latitude":35.00343704223633,"longitude":135.88076782226562,"category":"テナントビル","big_category":"商業施設","description":"","image_url":"","tags":"","prefecture":"滋賀","contractor":"","structural_designer":"","landscape_designer":"","shinkenchiku_url":""},{"id":1927,"title":"ヤンマーミュージアム","architect":"日本設計","year":2013.0,"address":"滋賀県長浜市三和町6-50","latitude":35.37466049194336,"longitude":136.27069091796875,"category":"博物館","big_category":"ミュージアム","description":"","image_url":"","tags":"新建築2015年1月号","prefecture":"滋賀","contractor":"清水建設","structural_designer":"","landscape_designer":"","shinkenchiku_url":""},{"id":1928,"title":"黒壁ガラス館本館 旧第百三十銀行長浜支店","architect":"不明","year":null,"address":"滋賀県長浜市元浜町12-38","latitude":35.380680084228516,"longitude":136.26708984375,"category":"洋館/金融機関","big_category":"近代建築/遺産,企業施設","description":"","image_url":"","tags":"","prefecture":"滋賀","contractor":"","structural_designer":"","landscape_designer":"","shinkenchiku_url":""},{"id":1929,"title":"長浜鉄道文化館","architect":"不明","year":null,"address":"滋賀県長浜市北船町1-41","latitude":35.376705169677734,"longitude":136.2659912109375,"category":"洋館","big_category":"近代建築/遺産","description":"","image_url":"","tags":"","prefecture":"滋賀","contractor":"","structural_designer":"","landscape_designer":"","shinkenchiku_url":""},{"id":1930,"title":"余呉やまなみホール･はごろもセンター 余呉はごろも村やまなみデイサービス","architect":"中村勉","year":1998.0,"address":"滋賀県長浜市余呉町中之郷2434","latitude":35.542476654052734,"longitude":136.20404052734375,"category":"医療施設","big_category":"医療施設","description":"","image_url":"","tags":"","prefecture":"滋賀","contractor":"","structural_designer":"","landscape_designer":"","shinkenchiku_url":""},{"id":1931,"title":"ウッディパル「余呉」森林文化交流センター","architect":"渡辺豊和","year":1990.0,"address":"滋賀県長浜市余呉町中之郷260","latitude":35.547462463378906,"longitude":136.22059631347656,"category":"研修施設/公民館・交流施設","big_category":"教育,公共施設","description":"","image_url":"","tags":"新建築1990年10月号","prefecture":"滋賀","contractor":"","structural_designer":"","landscape_designer":"","shinkenchiku_url":""},{"id":1932,"title":"Rooftecture びわ 産地直販 産直びわ みずべの里","architect":"遠藤秀平","year":2000.0,"address":"滋賀県長浜市南浜町297","latitude":35.389583587646484,"longitude":136.2253875732422,"category":"店舗","big_category":"商業施設","description":"","image_url":"","tags":"","prefecture":"滋賀","contractor":"","structural_designer":"","landscape_designer":"","shinkenchiku_url":""},{"id":1933,"title":"TIDE 浅井町希望の塔","architect":"遠藤秀平","year":1992.0,"address":"滋賀県長浜市大依町15","latitude":35.432647705078125,"longitude":136.3130645751953,"category":"オブジェ","big_category":"ミュージアム","description":"","image_url":"","tags":"","prefecture":"滋賀","contractor":"","structural_designer":"","landscape_designer":"","shinkenchiku_url":""},{"id":1934,"title":"観峰館","architect":"いるか設計集団","year":1995.0,"address":"滋賀県東近江市五個荘竜田町136","latitude":35.154510498046875,"longitude":136.18899536132812,"category":"博物館","big_category":"ミュージアム","description":"","image_url":"","tags":"","prefecture":"滋賀","contractor":"","structural_designer":"","landscape_designer":"","shinkenchiku_url":""},{"id":1935,"title":"西堀榮三郎記念 探検の殿堂","architect":"上田篤","year":1994.0,"address":"滋賀県東近江市横溝町419","latitude":35.132137298583984,"longitude":136.2470703125,"category":"博物館","big_category":"ミュージアム","description":"","image_url":"","tags":"","prefecture":"滋賀","contractor":"","structural_designer":"","landscape_designer":"","shinkenchiku_url":""},{"id":1936,"title":"能登川町総合文化情報センター","architect":"徳岡設計","year":1997.0,"address":"滋賀県東近江市山路町2225","latitude":35.18559646606445,"longitude":136.1558380126953,"category":"博物館/図書館","big_category":"ミュージアム,文化施設","description":"","image_url":"","tags":"","prefecture":"滋賀","contractor":"","structural_designer":"","landscape_designer":"","shinkenchiku_url":""},{"id":1937,"title":"日登美美術館","architect":"大倉設計事務所","year":1992.0,"address":"滋賀県東近江市山上町2083","latitude":35.0797233581543,"longitude":136.29800415039062,"category":"美術館","big_category":"ミュージアム","description":"","image_url":"","tags":"","prefecture":"滋賀","contractor":"","structural_designer":"","landscape_designer":"","shinkenchiku_url":""},{"id":1938,"title":"赤い帽子 織田廣喜ミュージアム","architect":"安藤忠雄","year":1998.0,"address":"滋賀県蒲生郡日野町西大路843","latitude":35.01247787475586,"longitude":136.283203125,"category":"美術館","big_category":"ミュージアム","description":"閉館？","image_url":"","tags":"","prefecture":"滋賀","contractor":"","structural_designer":"","landscape_designer":"","shinkenchiku_url":""},{"id":1939,"title":"夏川記念会館","architect":"安藤忠雄","year":1989.0,"address":"滋賀県彦根市京町2-7-27","latitude":35.267242431640625,"longitude":136.25636291503906,"category":"学校","big_category":"教育","description":"","image_url":"","tags":"","prefecture":"滋賀","contractor":"","structural_designer":"","landscape_designer":"","shinkenchiku_url":""},{"id":1940,"title":"滋賀県立大学 センターゾーン","architect":"内井昭蔵+坂倉建築研究所","year":1997.0,"address":"滋賀県彦根市八坂町2500","latitude":35.25951385498047,"longitude":136.21884155273438,"category":"大学","big_category":"教育","description":"滋賀県立大学全体のマスターアーキテクトとして内井昭蔵。センターゾーンの設計は坂倉建築研究所。","image_url":"","tags":"公共建築百選","prefecture":"滋賀","contractor":"","structural_designer":"","landscape_designer":"","shinkenchiku_url":""},{"id":1941,"title":"ドコモショップ彦根店","architect":"木村博昭","year":2007.0,"address":"滋賀県彦根市西沼波町178-2","latitude":35.259490966796875,"longitude":136.2656707763672,"category":"店舗","big_category":"商業施設","description":"","image_url":"","tags":"","prefecture":"滋賀","contractor":"","structural_designer":"","landscape_designer":"","shinkenchiku_url":""},{"id":1942,"title":"滋賀県立大学 工学部","architect":"長谷川逸子","year":1996.0,"address":"滋賀県彦根市八坂町2500","latitude":35.25800704956055,"longitude":136.2193145751953,"category":"大学","big_category":"教育","description":"","image_url":"","tags":"","prefecture":"滋賀","contractor":"","structural_designer":"","landscape_designer":"","shinkenchiku_url":""},{"id":1943,"title":"滋賀県立大学 体育館","architect":"長谷川逸子","year":1995.0,"address":"滋賀県彦根市八坂町2500","latitude":35.25705337524414,"longitude":136.218994140625,"category":"体育館","big_category":"レジャー施設","description":"","image_url":"","tags":"","prefecture":"滋賀","contractor":"","structural_designer":"","landscape_designer":"","shinkenchiku_url":""},{"id":1944,"title":"滋賀県立大学 環境科学部","architect":"大江匡","year":1996.0,"address":"滋賀県彦根市八坂町2500","latitude":35.259742736816406,"longitude":136.2173614501953,"category":"大学","big_category":"教育","description":"","image_url":"","tags":"","prefecture":"滋賀","contractor":"","structural_designer":"","landscape_designer":"","shinkenchiku_url":""},{"id":1945,"title":"Halftecture 天神水 天神水公園","architect":"遠藤秀平","year":2001.0,"address":"滋賀県米原市枝折566","latitude":35.32195281982422,"longitude":136.35279846191406,"category":"公園","big_category":"レジャー施設","description":"","image_url":"","tags":"","prefecture":"滋賀","contractor":"","structural_designer":"","landscape_designer":"","shinkenchiku_url":""},{"id":1946,"title":"米原町醒井宿資料館 旧醒井郵便局舎","architect":"ウィリアム・メレル・ヴォーリズ","year":1915.0,"address":"滋賀県米原市醒井592","latitude":35.32742691040039,"longitude":136.34727478027344,"category":"洋館","big_category":"近代建築/遺産","description":"","image_url":"","tags":"","prefecture":"滋賀","contractor":"","structural_designer":"","landscape_designer":"","shinkenchiku_url":""},{"id":1947,"title":"Slowtecture 醒井 醒井水の宿駅","architect":"遠藤秀平","year":2002.0,"address":"滋賀県米原市醒井688-10","latitude":35.3271369934082,"longitude":136.3448486328125,"category":"駅","big_category":"インフラ","description":"","image_url":"","tags":"","prefecture":"滋賀","contractor":"","structural_designer":"","landscape_designer":"","shinkenchiku_url":""},{"id":1948,"title":"Bubbletecture 米原 米原町立米原幼稚園","architect":"遠藤秀平","year":2003.0,"address":"滋賀県米原市入江296","latitude":35.312889099121094,"longitude":136.28118896484375,"category":"幼稚園","big_category":"教育","description":"","image_url":"","tags":"","prefecture":"滋賀","contractor":"","structural_designer":"","landscape_designer":"","shinkenchiku_url":""},{"id":1949,"title":"Cycle Station 米原","architect":"遠藤秀平","year":1994.0,"address":"滋賀県米原市米原西54-5","latitude":35.31309509277344,"longitude":136.28797912597656,"category":"駐車・駐輪場","big_category":"公共施設","description":"","image_url":"","tags":"","prefecture":"滋賀","contractor":"","structural_designer":"","landscape_designer":"","shinkenchiku_url":""},{"id":1950,"title":"豊郷町立豊郷小学校","architect":"ウィリアム・メレル・ヴォーリズ","year":1937.0,"address":"滋賀県犬上郡豊郷町大字石畑522","latitude":35.20265579223633,"longitude":136.2335968017578,"category":"博物館","big_category":"ミュージアム","description":"","image_url":"","tags":"","prefecture":"滋賀","contractor":"","structural_designer":"","landscape_designer":"","shinkenchiku_url":""}]}