{"page":51,"total_pages":290,"items_per_page":50,"total_items":14467,"items":[{"id":2501,"title":"メセナ・アートオフィス 其阿弥美術館","architect":"ナフ・アーキテクト&デザイン","year":2010.0,"address":"広島県東広島市黒瀬町楢原276-7","latitude":34.3259162902832,"longitude":132.66954040527344,"category":"美術館","big_category":"ミュージアム","description":"木、土曜日午後のみ開館","image_url":"","tags":"","prefecture":"広島","contractor":"","structural_designer":"","landscape_designer":"","shinkenchiku_url":""},{"id":2502,"title":"ひさまつ産婦人科医院アネックス","architect":"石井和紘","year":1993.0,"address":"広島県廿日市市宮内1448-1","latitude":34.348411560058594,"longitude":132.30970764160156,"category":"個人医院","big_category":"医療施設","description":"","image_url":"","tags":"","prefecture":"広島","contractor":"","structural_designer":"","landscape_designer":"","shinkenchiku_url":""},{"id":2503,"title":"MIYAJIMA OFFICE 税理士法人 船倉事務所 大野支店","architect":"三分一博志","year":2010.0,"address":"広島県廿日市市大野中央1-7-11 ","latitude":34.28840637207031,"longitude":132.275146484375,"category":"低層オフィス/企業施設","big_category":"企業施設,企業施設","description":"","image_url":"","tags":"","prefecture":"広島","contractor":"","structural_designer":"","landscape_designer":"","shinkenchiku_url":""},{"id":2504,"title":"尾道市立美術館","architect":"安藤忠雄","year":2003.0,"address":"広島県尾道市西土堂町17-19","latitude":34.409912109375,"longitude":133.19577026367188,"category":"美術館","big_category":"ミュージアム","description":"","image_url":"","tags":"","prefecture":"広島","contractor":"","structural_designer":"","landscape_designer":"","shinkenchiku_url":""},{"id":2505,"title":"ART BASE MOMOSHIMA","architect":"柳幸典","year":2012.0,"address":"広島県尾道市百島町1440","latitude":34.37687683105469,"longitude":133.2724151611328,"category":"美術館","big_category":"ミュージアム","description":"","image_url":"","tags":"","prefecture":"広島","contractor":"","structural_designer":"","landscape_designer":"","shinkenchiku_url":""},{"id":2506,"title":"尾道市立大学美術館 旧尾道白樺美術館","architect":"今里隆","year":1998.0,"address":"広島県尾道市久保3-4-11","latitude":34.41154098510742,"longitude":133.20907592773438,"category":"美術館","big_category":"ミュージアム","description":"","image_url":"","tags":"","prefecture":"広島","contractor":"","structural_designer":"","landscape_designer":"","shinkenchiku_url":""},{"id":2507,"title":"いんのしまペンション白滝山荘 旧ファーナム住宅","architect":"ウィリアム・メレル・ヴォーリズ","year":1931.0,"address":"広島県尾道市因島重井町伊浜1233","latitude":34.34465026855469,"longitude":133.15411376953125,"category":"ホテル","big_category":"宿泊","description":"","image_url":"","tags":"","prefecture":"広島","contractor":"","structural_designer":"","landscape_designer":"","shinkenchiku_url":""},{"id":2508,"title":"耕三寺博物館 潮聲閣","architect":"不明","year":1927.0,"address":"広島県尾道市瀬戸田町瀬戸田553-2","latitude":34.303836822509766,"longitude":133.0902557373047,"category":"洋館","big_category":"近代建築/遺産","description":"","image_url":"","tags":"","prefecture":"広島","contractor":"","structural_designer":"","landscape_designer":"","shinkenchiku_url":""},{"id":2509,"title":"耕三寺博物館 未来心の丘","architect":"杭谷一東","year":2000.0,"address":"広島県尾道市瀬戸田町瀬戸田553-2 ","latitude":34.30376434326172,"longitude":133.0902557373047,"category":"博物館","big_category":"ミュージアム","description":"","image_url":"","tags":"","prefecture":"広島","contractor":"","structural_designer":"","landscape_designer":"","shinkenchiku_url":""},{"id":2510,"title":"平山郁夫美術館","architect":"今里隆","year":1997.0,"address":"広島県尾道市瀬戸田町沢200-2","latitude":34.305721282958984,"longitude":133.09042358398438,"category":"美術館","big_category":"ミュージアム","description":"","image_url":"","tags":"","prefecture":"広島","contractor":"","structural_designer":"","landscape_designer":"","shinkenchiku_url":""},{"id":2511,"title":"府中市立総合体育館 ウッドアリーナ","architect":"高橋靗一","year":1994.0,"address":"広島県府中市土生町416-4","latitude":34.56304931640625,"longitude":133.2314453125,"category":"体験施設","big_category":"レジャー施設","description":"","image_url":"","tags":"","prefecture":"広島","contractor":"","structural_designer":"","landscape_designer":"","shinkenchiku_url":""},{"id":2512,"title":"上下歴史文化資料館","architect":"齊藤正","year":2003.0,"address":"広島県府中市上下町上下1006","latitude":34.69508743286133,"longitude":133.120849609375,"category":"博物館","big_category":"ミュージアム","description":"","image_url":"","tags":"","prefecture":"広島","contractor":"","structural_designer":"","landscape_designer":"","shinkenchiku_url":""},{"id":2513,"title":"ホロコースト記念館","architect":"前田圭介","year":2007.0,"address":"広島県福山市御幸町中津原815","latitude":34.520851135253906,"longitude":133.35760498046875,"category":"博物館","big_category":"ミュージアム","description":"","image_url":"","tags":"","prefecture":"広島","contractor":"","structural_designer":"","landscape_designer":"","shinkenchiku_url":""},{"id":2514,"title":"森×hako","architect":"前田圭介","year":2009.0,"address":"広島県福山市木之庄町3-10-20","latitude":34.499542236328125,"longitude":133.35501098632812,"category":"オフィスビル","big_category":"企業施設","description":"","image_url":"","tags":"2011年日本建築学会 作品選奨","prefecture":"広島","contractor":"","structural_designer":"","landscape_designer":"","shinkenchiku_url":""},{"id":2515,"title":"福山市中央図書館 まなびの館 ローズコム","architect":"日建設計","year":2008.0,"address":"広島県福山市霞町1-10-1","latitude":34.4827995300293,"longitude":133.36602783203125,"category":"図書館","big_category":"文化施設","description":"","image_url":"","tags":"2010年日本建築学会 作品選奨","prefecture":"広島","contractor":"","structural_designer":"","landscape_designer":"","shinkenchiku_url":""},{"id":2516,"title":"日本はきもの博物館コーヒーハウス サボ","architect":"長谷川建築事務所","year":1922.0,"address":"広島県福山市松永町4-16-27","latitude":34.45042419433594,"longitude":133.26084899902344,"category":"洋館","big_category":"近代建築/遺産","description":"","image_url":"","tags":"","prefecture":"広島","contractor":"","structural_designer":"","landscape_designer":"","shinkenchiku_url":""},{"id":2517,"title":"広島県立ふくやま産業 交流館 ビッグローズ","architect":"日建設計","year":2000.0,"address":"広島県福山市御幸町大字上岩成476-5","latitude":34.54752731323242,"longitude":133.35133361816406,"category":"展示・会議場","big_category":"公共施設","description":"","image_url":"","tags":"","prefecture":"広島","contractor":"","structural_designer":"","landscape_designer":"","shinkenchiku_url":""},{"id":2518,"title":"ふくやま美術館","architect":"佐藤総合計画","year":1988.0,"address":"広島県福山市西町2-4-3","latitude":34.49094772338867,"longitude":133.35902404785156,"category":"美術館","big_category":"ミュージアム","description":"","image_url":"","tags":"","prefecture":"広島","contractor":"","structural_designer":"","landscape_designer":"","shinkenchiku_url":""},{"id":2519,"title":"みなとさかい交流館","architect":"高松伸","year":1997.0,"address":"鳥取県境港市大正町215","latitude":35.54536437988281,"longitude":133.22279357910156,"category":"港","big_category":"インフラ","description":"","image_url":"","tags":"","prefecture":"鳥取","contractor":"","structural_designer":"","landscape_designer":"","shinkenchiku_url":""},{"id":2520,"title":"境港市文化ホール シンフォニー・ガーデン","architect":"高松伸","year":1994.0,"address":"鳥取県境港市中野町2050","latitude":35.533363342285156,"longitude":133.22637939453125,"category":"ホール・劇場","big_category":"文化施設","description":"","image_url":"","tags":"","prefecture":"鳥取","contractor":"","structural_designer":"","landscape_designer":"","shinkenchiku_url":""},{"id":2521,"title":"境港マリーナホテル","architect":"菊竹清訓","year":1985.0,"address":"鳥取県境港市新屋町3268","latitude":35.510257720947266,"longitude":133.24598693847656,"category":"ホテル","big_category":"宿泊","description":"","image_url":"","tags":"","prefecture":"鳥取","contractor":"","structural_designer":"","landscape_designer":"","shinkenchiku_url":""},{"id":2522,"title":"三徳山投入堂","architect":"不明","year":849.0,"address":"鳥取県東伯郡三朝町三徳1010","latitude":35.39933395385742,"longitude":133.9557647705078,"category":"寺院","big_category":"宗教","description":"","image_url":"","tags":"","prefecture":"鳥取","contractor":"","structural_designer":"","landscape_designer":"","shinkenchiku_url":""},{"id":2523,"title":"倉吉パークスクエア","architect":"シーザー・ペリ","year":2001.0,"address":"鳥取県倉吉市駄経寺町198-2","latitude":35.43256378173828,"longitude":133.83511352539062,"category":"総合文化施設/ホール・劇場/公民館・交流施設","big_category":"文化施設,文化施設,公共施設","description":"","image_url":"","tags":"","prefecture":"鳥取","contractor":"","structural_designer":"","landscape_designer":"","shinkenchiku_url":""},{"id":2524,"title":"倉吉市庁舎","architect":"丹下健三+岸田日出刀","year":1957.0,"address":"鳥取県倉吉市葵町722","latitude":35.43018341064453,"longitude":133.8255615234375,"category":"庁舎","big_category":"公共施設","description":"","image_url":"","tags":"1957年日本建築学会 作品賞,DOCOMOMO,登録有形文化財","prefecture":"鳥取","contractor":"","structural_designer":"","landscape_designer":"","shinkenchiku_url":""},{"id":2525,"title":"大山町役場","architect":"レーモンド設計事務所","year":2005.0,"address":"鳥取県西伯郡大山町御来屋328","latitude":35.510780334472656,"longitude":133.49612426757812,"category":"庁舎","big_category":"公共施設","description":"","image_url":"","tags":"","prefecture":"鳥取","contractor":"","structural_designer":"","landscape_designer":"","shinkenchiku_url":""},{"id":2526,"title":"鳥取市佐治町総合支所 旧プラザ佐治","architect":"安田臣","year":1971.0,"address":"鳥取県鳥取市佐治町加瀬木2519-3","latitude":35.329559326171875,"longitude":134.11386108398438,"category":"庁舎","big_category":"公共施設","description":"","image_url":"","tags":"DOCOMOMO","prefecture":"鳥取","contractor":"熊谷組","structural_designer":"","landscape_designer":"","shinkenchiku_url":""},{"id":2527,"title":"仁風閣","architect":"片山東熊+橋本平蔵","year":1907.0,"address":"鳥取県鳥取市東町2-121","latitude":35.50714111328125,"longitude":134.2374725341797,"category":"洋館","big_category":"近代建築/遺産","description":"","image_url":"","tags":"","prefecture":"鳥取","contractor":"","structural_designer":"","landscape_designer":"","shinkenchiku_url":""},{"id":2528,"title":"鳥取県東部総合事務所","architect":"新居千秋","year":2001.0,"address":"鳥取県鳥取市立川町6-176","latitude":35.484222412109375,"longitude":134.2509002685547,"category":"庁舎","big_category":"公共施設","description":"","image_url":"","tags":"","prefecture":"鳥取","contractor":"","structural_designer":"","landscape_designer":"","shinkenchiku_url":""},{"id":2529,"title":"とっとり花回廊","architect":"アーキテクトファイブ","year":1999.0,"address":"鳥取県西伯郡南部町鶴田110","latitude":35.34811019897461,"longitude":133.42347717285156,"category":"動植物園","big_category":"レジャー施設","description":"","image_url":"","tags":"","prefecture":"鳥取","contractor":"","structural_designer":"","landscape_designer":"","shinkenchiku_url":""},{"id":2530,"title":"植田正治写真美術館","architect":"高松伸","year":1995.0,"address":"鳥取県西伯郡伯耆町須村353-3","latitude":35.3898811340332,"longitude":133.43576049804688,"category":"美術館","big_category":"ミュージアム","description":"","image_url":"","tags":"","prefecture":"鳥取","contractor":"","structural_designer":"","landscape_designer":"","shinkenchiku_url":""},{"id":2531,"title":"砂の美術館","architect":"不明","year":null,"address":"鳥取市福部町湯山2083-17","latitude":35.53968811035156,"longitude":134.23753356933594,"category":"美術館","big_category":"ミュージアム","description":"","image_url":"","tags":"","prefecture":"鳥取","contractor":"","structural_designer":"","landscape_designer":"","shinkenchiku_url":""},{"id":2532,"title":"米子市公会堂","architect":"村野藤吾","year":1958.0,"address":"鳥取県米子市角盤町2-61","latitude":35.432945251464844,"longitude":133.33290100097656,"category":"ホール・劇場","big_category":"文化施設","description":"耐震改修済","image_url":"","tags":"公共建築百選","prefecture":"鳥取","contractor":"","structural_designer":"","landscape_designer":"","shinkenchiku_url":""},{"id":2533,"title":"山陰歴史館 旧米子支庁舎","architect":"佐藤功一","year":1930.0,"address":"鳥取県米子市中町20","latitude":35.429588317871094,"longitude":133.3303680419922,"category":"洋館","big_category":"近代建築/遺産","description":"","image_url":"","tags":"","prefecture":"鳥取","contractor":"","structural_designer":"","landscape_designer":"","shinkenchiku_url":""},{"id":2534,"title":"東光園","architect":"菊竹清訓","year":1964.0,"address":"鳥取県米子市皆生温泉3-17-7","latitude":35.45779037475586,"longitude":133.36517333984375,"category":"ホテル","big_category":"宿泊","description":"","image_url":"","tags":"DOCOMOMO,登録有形文化財","prefecture":"鳥取","contractor":"","structural_designer":"","landscape_designer":"","shinkenchiku_url":""},{"id":2535,"title":"和鋼博物館","architect":"宮脇檀","year":1993.0,"address":"島根県安来市安来町1058","latitude":35.435516357421875,"longitude":133.25364685058594,"category":"博物館","big_category":"ミュージアム","description":"","image_url":"","tags":"","prefecture":"島根","contractor":"","structural_designer":"","landscape_designer":"","shinkenchiku_url":""},{"id":2536,"title":"足立美術館","architect":"小島佐一","year":1970.0,"address":"島根県安来市古川町320","latitude":35.38068771362305,"longitude":133.194580078125,"category":"美術館","big_category":"ミュージアム","description":"","image_url":"","tags":"","prefecture":"島根","contractor":"","structural_designer":"","landscape_designer":"","shinkenchiku_url":""},{"id":2537,"title":"加茂岩倉遺跡ガイダンス","architect":"アーキテクトファイブ","year":2003.0,"address":"島根県雲南市加茂町岩倉837-24","latitude":35.35922622680664,"longitude":132.8828125,"category":"博物館","big_category":"ミュージアム","description":"","image_url":"","tags":"","prefecture":"島根","contractor":"","structural_designer":"","landscape_designer":"","shinkenchiku_url":""},{"id":2538,"title":"雲南市加茂文化ホール ラメール","architect":"渡辺豊和","year":1995.0,"address":"島根県雲南市加茂町宇治303","latitude":35.342830657958984,"longitude":132.90589904785156,"category":"ホール・劇場","big_category":"文化施設","description":"","image_url":"","tags":"","prefecture":"島根","contractor":"","structural_designer":"","landscape_designer":"","shinkenchiku_url":""},{"id":2539,"title":"島根県芸術文化センター グラントワ","architect":"内藤廣","year":2005.0,"address":"島根県益田市有明町5-15","latitude":34.6732063293457,"longitude":131.8473663330078,"category":"総合文化施設","big_category":"文化施設","description":"","image_url":"","tags":"2010年公共建築賞・特別賞","prefecture":"島根","contractor":"","structural_designer":"","landscape_designer":"","shinkenchiku_url":""},{"id":2540,"title":"むいかいち温泉 ゆ・ら・ら","architect":"新居千秋","year":2000.0,"address":"島根県鹿足郡吉賀町有飯238-2","latitude":34.35283279418945,"longitude":131.94386291503906,"category":"ホテル","big_category":"宿泊","description":"","image_url":"","tags":"","prefecture":"島根","contractor":"","structural_designer":"","landscape_designer":"","shinkenchiku_url":""},{"id":2541,"title":"隠岐郷土館","architect":"不明","year":null,"address":"島根県隠岐郡隠岐の島町郡755","latitude":36.280059814453125,"longitude":133.24996948242188,"category":"洋館","big_category":"近代建築/遺産","description":"","image_url":"","tags":"","prefecture":"島根","contractor":"","structural_designer":"","landscape_designer":"","shinkenchiku_url":""},{"id":2542,"title":"江津市総合市民センター ミルキーウェイホール","architect":"高松伸","year":1995.0,"address":"島根県江津市江津町1110-17","latitude":35.01232147216797,"longitude":132.21864318847656,"category":"総合文化施設","big_category":"文化施設","description":"","image_url":"","tags":"","prefecture":"島根","contractor":"","structural_designer":"","landscape_designer":"","shinkenchiku_url":""},{"id":2543,"title":"江津市庁舎","architect":"吉阪隆正","year":1962.0,"address":"島根県江津市江津町1525","latitude":35.01111602783203,"longitude":132.2214813232422,"category":"庁舎","big_category":"公共施設","description":"新庁舎が完成し現在使われていない。2023年11月3日～26日の間に展覧会開催予定","image_url":"","tags":"DOCOMOMO","prefecture":"島根","contractor":"","structural_designer":"","landscape_designer":"","shinkenchiku_url":""},{"id":2544,"title":"ビッグハート出雲","architect":"シーラカンスアンドアソシエイツ","year":2000.0,"address":"島根県出雲市駅南町1-5","latitude":35.360530853271484,"longitude":132.75807189941406,"category":"ホール・劇場/公民館・交流施設","big_category":"文化施設,公共施設","description":"","image_url":"","tags":"2004年日本建築学会 作品選奨","prefecture":"島根","contractor":"","structural_designer":"","landscape_designer":"","shinkenchiku_url":""},{"id":2545,"title":"出雲大社 神こ殿","architect":"菊竹清訓","year":1981.0,"address":"島根県出雲市大社町杵築東195 ","latitude":35.40106201171875,"longitude":132.68609619140625,"category":"寺院","big_category":"宗教","description":"「神こ殿」の「こ」が表示出来ないので平仮名で代用","image_url":"","tags":"","prefecture":"島根","contractor":"","structural_designer":"","landscape_designer":"","shinkenchiku_url":""},{"id":2546,"title":"斐川農協会館","architect":"川崎清","year":1965.0,"address":"島根県出雲市斐川町荘原2172-3","latitude":35.393714904785156,"longitude":132.8440704345703,"category":"組合施設","big_category":"公共施設","description":"","image_url":"","tags":"","prefecture":"島根","contractor":"","structural_designer":"","landscape_designer":"","shinkenchiku_url":""},{"id":2547,"title":"出雲市立ひかわ図書館","architect":"藤原孝一+佐田祐一","year":2002.0,"address":"島根県出雲市斐川町直江4156","latitude":35.39363479614258,"longitude":132.81614685058594,"category":"図書館","big_category":"文化施設","description":"","image_url":"","tags":"","prefecture":"島根","contractor":"","structural_designer":"","landscape_designer":"","shinkenchiku_url":""},{"id":2548,"title":"出雲大社前駅駅舎","architect":"不明","year":null,"address":"島根県出雲市大社町杵築南1346-9","latitude":35.3935432434082,"longitude":132.68710327148438,"category":"駅","big_category":"インフラ","description":"","image_url":"","tags":"","prefecture":"島根","contractor":"","structural_designer":"","landscape_designer":"","shinkenchiku_url":""},{"id":2549,"title":"トリニティカレッジ出雲医療福祉専門学校","architect":"大江匡","year":1997.0,"address":"島根県出雲市西新町3-23-1","latitude":35.33219909667969,"longitude":132.7222137451172,"category":"専門学校","big_category":"教育","description":"","image_url":"","tags":"","prefecture":"島根","contractor":"","structural_designer":"","landscape_designer":"","shinkenchiku_url":""},{"id":2550,"title":"出雲大社 庁の舎","architect":"菊竹清訓","year":1963.0,"address":"島根県出雲市大社町杵築東195","latitude":35.401031494140625,"longitude":132.68496704101562,"category":"公共施設/宗教施設","big_category":"公共施設,宗教","description":"2016年頃に解体済み","image_url":"","tags":"1963年日本建築学会 作品賞,DOCOMOMO","prefecture":"島根","contractor":"","structural_designer":"","landscape_designer":"","shinkenchiku_url":""}]}