{"page":146,"total_pages":290,"items_per_page":50,"total_items":14467,"items":[{"id":7251,"title":"教養教育共同化施設 稲盛記念会館","architect":"久米設計","year":2014.0,"address":"京都府京都市左京区下鴨半木町1-5","latitude":35.04819869995117,"longitude":135.7659454345703,"category":"大学/研修施設","description":"","image_url":""},{"id":7252,"title":"京都女子大学 図書館","architect":"佐藤総合計画+安田幸一","year":2017.0,"address":"京都府京都市東山区今熊野日吉町48-3","latitude":34.98734664916992,"longitude":135.7801513671875,"category":"大学/図書館","description":"","image_url":""},{"id":7253,"title":"東京駅丸の内駅前広場整備","architect":"ジェイアール東日本コンサルタンツ+ジェイアール東日本建築設計事務所","year":2017.0,"address":"東京都千代田区丸の内1-9","latitude":35.68151092529297,"longitude":139.7654266357422,"category":"広場","description":"","image_url":""},{"id":7254,"title":"築地本願寺 境内整備 インフォメーションセンター・合同墓","architect":"三菱地所","year":2017.0,"address":"東京都中央区築地3-15-1","latitude":35.667110443115234,"longitude":139.77227783203125,"category":"観光施設/カフェ/寺院","description":"","image_url":""},{"id":7255,"title":"グランモール公園 再整備","architect":"三菱地所","year":2017.0,"address":"神奈川県横浜市西区みなとみらい3","latitude":35.45741271972656,"longitude":139.63111877441406,"category":"公園","description":"","image_url":""},{"id":7256,"title":"逗子市第一運動公園 再整備 体験学習施設・スマイル・プール","architect":"伊藤寛+リュースニングランドスケープアーキテクツ","year":2014.0,"address":"神奈川県逗子市池子1-11-2","latitude":35.30039978027344,"longitude":139.59255981445312,"category":"公園/児童施設/プール","description":"","image_url":""},{"id":7257,"title":"東照宮 旧宝物館","architect":"岸田日出刀","year":1967.0,"address":"栃木県日光市山内2280","latitude":36.756343841552734,"longitude":139.5979766845703,"category":"寺院/博物館","description":"","image_url":""},{"id":7258,"title":"Nagasaki Job Port 長崎授産施設 清水の里","architect":"Eureka","year":2018.0,"address":"長崎県長崎市東町2456","latitude":32.789756774902344,"longitude":129.9532470703125,"category":"公共施設","description":"","image_url":""},{"id":7259,"title":"山陽新聞社 本社","architect":"日建設計","year":2006.0,"address":"岡山県岡山市北区柳町2-1","latitude":34.65808868408203,"longitude":133.920166015625,"category":"オフィスビル","description":"","image_url":""},{"id":7260,"title":"八重田浄化センター","architect":"日水コン","year":1970.0,"address":"青森県青森市八重田1-1-1","latitude":40.83440399169922,"longitude":140.78985595703125,"category":"公共施設","description":"","image_url":""},{"id":7261,"title":"奈義町多世代交流広場 ナギテラス","architect":"Eureka","year":2018.0,"address":"岡山県勝田郡奈義町豊沢337-1","latitude":35.12199401855469,"longitude":134.1767120361328,"category":"公民館・交流施設/モール/カフェ","description":"2018年3月末竣工予定","image_url":""},{"id":7262,"title":"垂水処理場分場","architect":"日水コン+設計事務所洋洋社","year":1973.0,"address":"兵庫県神戸市垂水区平磯1-2-1","latitude":34.62819290161133,"longitude":135.05860900878906,"category":"公共施設","description":"","image_url":""},{"id":7263,"title":"倉敷ユースホステル","architect":"浦辺鎮太郎","year":1965.0,"address":"岡山県倉敷市向山1537-1","latitude":34.592063903808594,"longitude":133.7750244140625,"category":"ホステル","description":"","image_url":""},{"id":7264,"title":"両備西大寺バスターミナル","architect":"浦辺鎮太郎","year":1966.0,"address":"岡山県岡山市東区西大寺上1-1-50","latitude":34.656429290771484,"longitude":134.0303955078125,"category":"駅","description":"","image_url":""},{"id":7265,"title":"坂本龍馬記念館 新館","architect":"ワークステーション+石本建築事務所+佐藤八尋","year":2018.0,"address":"高知県高知市浦戸城山830","latitude":33.49644470214844,"longitude":133.57159423828125,"category":"博物館","description":"旧館の西側。2018年4月21日オープン予定。","image_url":""},{"id":7266,"title":"テレビ高知 新本社","architect":"ワークステーション+センプラン研究所+依光建築設計","year":2015.0,"address":"高知県高知市北本町3-4-27","latitude":33.56555938720703,"longitude":133.5501708984375,"category":"オフィスビル","description":"","image_url":""},{"id":7267,"title":"高野第一団地集会所","architect":"川崎清+横河民輔","year":1978.0,"address":"京都府京都市左京区高野東開町1","latitude":35.039493560791016,"longitude":135.77975463867188,"category":"公民館・交流施設","description":"","image_url":""},{"id":7268,"title":"東京ジャーミイ","architect":"ムハッレム・ヒリミ・シェナルプ","year":1998.0,"address":"東京都渋谷区大山町1-19","latitude":35.66816329956055,"longitude":139.67652893066406,"category":"宗教施設","description":"","image_url":""},{"id":7269,"title":"龍海院 本堂","architect":"山口文象","year":1971.0,"address":"愛知県岡崎市明大寺町西郷中34-1","latitude":34.95144271850586,"longitude":137.1647186279297,"category":"寺院","description":"","image_url":""},{"id":7270,"title":"朝霞市民会館 ゆめぱれす","architect":"K構造研究所","year":1976.0,"address":"埼玉県朝霞市本町1-26-1","latitude":35.80356979370117,"longitude":139.5967559814453,"category":"ホール・劇場","description":"","image_url":""},{"id":7271,"title":"石川県立能楽堂別館 対青軒","architect":"谷口吉郎","year":1968.0,"address":"石川県金沢市兼六町1-1","latitude":36.560569763183594,"longitude":136.6639862060547,"category":"茶室","description":"","image_url":""},{"id":7272,"title":"カトリック河原町教会","architect":"富家宏泰","year":1966.0,"address":"京都府京都市中京区恵比須町426","latitude":35.00973129272461,"longitude":135.76963806152344,"category":"教会","description":"","image_url":""},{"id":7273,"title":"大泉町役場庁舎","architect":"川島甲士","year":1974.0,"address":"群馬県邑楽郡大泉町日の出55-1","latitude":36.24790954589844,"longitude":139.4049072265625,"category":"庁舎","description":"","image_url":""},{"id":7274,"title":"徳山駅前賑わい交流施設・周南市立徳山駅前図書館","architect":"内藤廣","year":2018.0,"address":"山口県周南市御幸通2-28-2","latitude":34.05155944824219,"longitude":131.80287170410156,"category":"図書館/公民館・交流施設/駅","description":"","image_url":""},{"id":7275,"title":"大分市役所","architect":"日建設計","year":1978.0,"address":"大分県大分市荷揚町2-2-31","latitude":33.239444732666016,"longitude":131.60931396484375,"category":"庁舎","description":"","image_url":""},{"id":7276,"title":"あづみ農協会館","architect":"宮本忠長","year":1967.0,"address":"長野県安曇野市豊科4270-6","latitude":36.301761627197266,"longitude":137.9080810546875,"category":"組合施設","description":"","image_url":""},{"id":7277,"title":"石内ペノン","architect":"門内一生","year":2016.0,"address":"広島県広島市佐伯区五日市町石内","latitude":34.40987777709961,"longitude":132.3768310546875,"category":"モール/店舗","description":"","image_url":""},{"id":7278,"title":"KUROBAR","architect":"門内一生","year":2017.0,"address":"宮崎県宮崎市山崎町浜山 シェラトン・グランデ・オーシャンリゾート","latitude":31.957735061645508,"longitude":131.46949768066406,"category":"バー・居酒屋","description":"","image_url":""},{"id":7279,"title":"ロングビーチハウス","architect":"門内一生","year":2015.0,"address":"宮城県石巻市渡波浜曽根の壱47-1","latitude":38.417198181152344,"longitude":141.3546905517578,"category":"レストラン/ホテル","description":"","image_url":""},{"id":7280,"title":"バセットカフェ","architect":"門内一生","year":2012.0,"address":"広島県広島市西区己斐本町1-9-25","latitude":34.39846420288086,"longitude":132.42967224121094,"category":"カフェ","description":"","image_url":""},{"id":7281,"title":"Bullseye Bicycle","architect":"谷尻誠","year":2017.0,"address":"広島県広島市南区的場町2-1-3","latitude":34.39237594604492,"longitude":132.47525024414062,"category":"店舗","description":"","image_url":""},{"id":7282,"title":"UNITED MIXED ISLAND","architect":"谷尻誠","year":2017.0,"address":"静岡市駿河区大谷3-31-25","latitude":34.9496955871582,"longitude":138.4373321533203,"category":"店舗/カフェ","description":"","image_url":""},{"id":7283,"title":"サツドラ 江別錦店","architect":"谷尻誠","year":2017.0,"address":"北海道江別市錦町43-3","latitude":43.10258483886719,"longitude":141.52609252929688,"category":"店舗","description":"","image_url":""},{"id":7284,"title":"ナインアワーズ大手町 旧竹橋","architect":"平田晃久","year":2018.0,"address":"東京都千代田区神田錦町3-11-17","latitude":35.692054748535156,"longitude":139.76004028320312,"category":"ホテル","description":"2018年3月オープン予定。ホテルとしては閉業中","image_url":""},{"id":7285,"title":"ナインアワーズ赤坂","architect":"平田晃久","year":2018.0,"address":"東京都港区赤坂4-3-14","latitude":35.6739501953125,"longitude":139.73512268066406,"category":"ホテル","description":"","image_url":""},{"id":7286,"title":"防府の住居と事務所 光浦醸造","architect":"島田陽","year":2018.0,"address":"山口県防府市台道3532","latitude":34.052825927734375,"longitude":131.49081420898438,"category":"店舗/住宅","description":"","image_url":""},{"id":7287,"title":"斎宮歴史博物館","architect":"梓設計","year":1989.0,"address":"三重県多気郡明和町竹川503","latitude":34.542781829833984,"longitude":136.6096649169922,"category":"博物館","description":"","image_url":""},{"id":7288,"title":"青山フェアリーハウス 旧神宮前アトリエ","architect":"安藤忠雄","year":1987.0,"address":"東京都渋谷区神宮前5-38-4","latitude":35.6631965637207,"longitude":139.70535278320312,"category":"結婚式場/住宅","description":"","image_url":""},{"id":7289,"title":"スペースブロック上新庄","architect":"シーラカンスアンドアソシエイツ","year":1998.0,"address":"大阪府大阪市東淀川区豊新3-17-10","latitude":34.74396514892578,"longitude":135.53297424316406,"category":"テナントビル","description":"","image_url":""},{"id":7290,"title":"箱根小涌園 天悠","architect":"日本設計","year":2017.0,"address":"神奈川県足柄下郡箱根町二ノ平1297","latitude":35.238548278808594,"longitude":139.04421997070312,"category":"旅館","description":"","image_url":""},{"id":7291,"title":"紀北町健康増進施設 紀北健康センター","architect":"東畑建築事務所","year":2017.0,"address":"三重県北牟婁郡紀北町相賀417-1","latitude":34.11088562011719,"longitude":136.22836303710938,"category":"福祉センター/プール","description":"","image_url":""},{"id":7292,"title":"あいち航空ミュージアム","architect":"安井建築設計","year":2017.0,"address":"愛知県西春日井郡豊山町豊場林先1","latitude":35.24776077270508,"longitude":136.92491149902344,"category":"博物館","description":"","image_url":""},{"id":7293,"title":"大槌町立大槌学園","architect":"昭和設計+久慈設計","year":2016.0,"address":"岩手県上閉伊郡大槌町大槌第15地割71番9号","latitude":39.369972229003906,"longitude":141.9022979736328,"category":"学校","description":"","image_url":""},{"id":7294,"title":"大船渡市立越喜来小学校・越喜来こども園","architect":"佐藤総合計画","year":2016.0,"address":"岩手県大船渡市三陸町越喜来小出24-24","latitude":39.1259651184082,"longitude":141.81005859375,"category":"学校","description":"","image_url":""},{"id":7295,"title":"大船渡市立赤崎中学校","architect":"梓設計","year":2017.0,"address":"岩手県大船渡市赤崎町山口107-1","latitude":39.061363220214844,"longitude":141.74090576171875,"category":"学校","description":"","image_url":""},{"id":7296,"title":"大船渡市立赤崎小学校","architect":"梓設計","year":2016.0,"address":"岩手県大船渡市赤崎町山口8-4","latitude":39.06610107421875,"longitude":141.7419891357422,"category":"学校","description":"","image_url":""},{"id":7297,"title":"中野美術館","architect":"彦谷邦一","year":1984.0,"address":"奈良県奈良市あやめ池南9-946-2","latitude":34.694278717041016,"longitude":135.75599670410156,"category":"美術館","description":"","image_url":""},{"id":7298,"title":"JAクレイン禾生支店","architect":"SALHAUS","year":2017.0,"address":"山梨県都留市古川渡554-1","latitude":35.57450485229492,"longitude":138.92897033691406,"category":"組合施設","description":"","image_url":""},{"id":7299,"title":"和泉市久保惣記念美術館","architect":"竹中工務店","year":1982.0,"address":"大阪府和泉市内田町3-6-12","latitude":34.445037841796875,"longitude":135.45338439941406,"category":"美術館","description":"","image_url":""},{"id":7300,"title":"青梅市立美術館","architect":"久米設計","year":1983.0,"address":"東京都青梅市滝ノ上町1346","latitude":35.787567138671875,"longitude":139.25588989257812,"category":"美術館","description":"","image_url":""}]}