{"page":170,"total_pages":290,"items_per_page":50,"total_items":14467,"items":[{"id":8451,"title":"桐光学園 アップコート棟","architect":"土屋辰之助","year":2018.0,"address":"神奈川県川崎市麻生区栗木3-12-1","latitude":35.602386474609375,"longitude":139.47296142578125,"category":"学校/体育館","description":"","image_url":""},{"id":8452,"title":"堺市民芸術文化ホール フェニーチェ堺","architect":"柳澤孝彦+MORIデザイン建築事務所","year":2019.0,"address":"大阪府堺市堺区翁橋町2-1","latitude":34.57210922241211,"longitude":135.4794921875,"category":"ホール・劇場","description":"","image_url":""},{"id":8453,"title":"京都市役所分庁舎","architect":"日建設計","year":2019.0,"address":"京都府京都市中京区上本能寺前町488","latitude":35.01253890991211,"longitude":135.767822265625,"category":"庁舎","description":"既存庁舎の北側に新築。既存本庁舎は改修、北庁舎・西庁舎は建て替え。いずれも日建設計","image_url":""},{"id":8454,"title":"大分県立武道スポーツセンター 昭和電工武道スポーツセンター","architect":"石本建築事務所","year":2019.0,"address":"大分県大分市横尾1351","latitude":33.201148986816406,"longitude":131.65463256835938,"category":"体育館","description":"","image_url":""},{"id":8455,"title":"刈谷市歴史博物館","architect":"佐藤総合計画","year":2019.0,"address":"愛知県刈谷市逢妻町4-25-1","latitude":34.99201583862305,"longitude":136.9851837158203,"category":"博物館","description":"","image_url":""},{"id":8456,"title":"静岡市三保松原文化創造センター みほしるべ","architect":"大野秀敏","year":2019.0,"address":"静岡県静岡市清水区三保1338-45","latitude":34.995426177978516,"longitude":138.52281188964844,"category":"博物館","description":"","image_url":""},{"id":8457,"title":"奄美市新庁舎","architect":"内藤建築事務所+重信設計","year":2019.0,"address":"鹿児島県奄美市名瀬幸町25-8","latitude":28.377742767333984,"longitude":129.49380493164062,"category":"庁舎","description":"","image_url":""},{"id":8458,"title":"白鷹町まちづくり複合施設","architect":"仙田満","year":2020.0,"address":"山形県西置賜郡白鷹町荒砥833","latitude":38.18370819091797,"longitude":140.09805297851562,"category":"庁舎/図書館/公民館・交流施設","description":"","image_url":""},{"id":8459,"title":"会津美里町新庁舎 じげんプラザ","architect":"清水公夫","year":2019.0,"address":"福島県大沼郡会津美里町布才地 じげんプラザ前","latitude":37.46491622924805,"longitude":139.83419799804688,"category":"庁舎","description":"","image_url":""},{"id":8460,"title":"新大宮区役所・大宮図書館","architect":"久米設計+シーラカンスK&H+大成建設","year":2019.0,"address":"埼玉県さいたま市大宮区吉敷町1-124-1","latitude":35.90174865722656,"longitude":139.63059997558594,"category":"庁舎/図書館","description":"","image_url":""},{"id":8461,"title":"いなべ市新庁舎","architect":"日建設計","year":2019.0,"address":"三重県いなべ市北勢町阿下喜31","latitude":35.15843963623047,"longitude":136.5167236328125,"category":"庁舎/モール","description":"","image_url":""},{"id":8462,"title":"山元町役場","architect":"シーラカンスアンドアソシエイツ","year":2019.0,"address":"宮城県亘理郡山元町浅生作田山32","latitude":37.96269226074219,"longitude":140.87802124023438,"category":"庁舎","description":"","image_url":""},{"id":8463,"title":"天草市本庁舎","architect":"日建設計","year":2019.0,"address":"熊本県天草市東浜町8-8-1","latitude":32.45890426635742,"longitude":130.1934814453125,"category":"庁舎","description":"","image_url":""},{"id":8464,"title":"かみす防災アリーナ","architect":"清水建設+梓設計","year":2019.0,"address":"茨城県神栖市木崎1219-7","latitude":35.898834228515625,"longitude":140.64996337890625,"category":"体育館/ホール・劇場","description":"","image_url":""},{"id":8465,"title":"dNb","architect":"中渡瀬拡司","year":2012.0,"address":"愛知県名古屋市名東区代万町3-10-1","latitude":35.15957260131836,"longitude":136.99746704101562,"category":"集合住宅/オフィスビル/店舗","description":"","image_url":""},{"id":8466,"title":"Lattice-Pod 朝田善之助記念館","architect":"森田一弥","year":2019.0,"address":"京都府京都市左京区浄土寺西田町2","latitude":35.02631378173828,"longitude":135.7911834716797,"category":"博物館","description":"見学は要事前申し込み","image_url":""},{"id":8467,"title":"てらす峰夢","architect":"大垣優太","year":2018.0,"address":"京都府京丹後市峰山町杉谷952-8","latitude":35.62567901611328,"longitude":135.06593322753906,"category":"養護施設","description":"","image_url":""},{"id":8468,"title":"Bliss hair","architect":"大垣優太","year":2017.0,"address":"京都府京丹後市峰山町新町2210-4","latitude":35.606712341308594,"longitude":135.08779907226562,"category":"美容院","description":"","image_url":""},{"id":8469,"title":"西参道テラス","architect":"石川素樹","year":2016.0,"address":"東京都渋谷区代々木4-28-7","latitude":35.682952880859375,"longitude":4538177024.0,"category":"集合住宅/ギャラリー","description":"1Fにアートギャラリー","image_url":""},{"id":8470,"title":"望月商店","architect":"石川素樹","year":2017.0,"address":"神奈川県厚木市旭町3-17-27","latitude":35.435604095458984,"longitude":139.36863708496094,"category":"店舗","description":"","image_url":""},{"id":8471,"title":"ペガサスマンション大倉山","architect":"井出共治","year":1987.0,"address":"神奈川県横浜市港北区師岡町493-1-4","latitude":35.52275085449219,"longitude":139.64048767089844,"category":"集合住宅","description":"","image_url":""},{"id":8472,"title":"テラス42 ヒルサイドテラス平山城址","architect":"井出共治","year":1991.0,"address":"東京都八王子市長沼町104-2","latitude":35.63946533203125,"longitude":139.37586975097656,"category":"集合住宅","description":"","image_url":""},{"id":8473,"title":"ENTRANCE LIFE SAIIN HOTEL","architect":"アルファヴィル","year":2019.0,"address":"京都府京都市右京区西院東今田町2","latitude":35.0058708190918,"longitude":135.731689453125,"category":"ホテル","description":"","image_url":""},{"id":8474,"title":"クアパーク長湯","architect":"坂茂","year":2019.0,"address":"大分県竹田市直入町大字長湯3041-1","latitude":33.06711959838867,"longitude":131.3743438720703,"category":"ホテル","description":"","image_url":""},{"id":8475,"title":"横浜市寿町健康福祉交流センター ／ 横浜市営住宅寿町スカイハイツ","architect":"小泉雅生","year":2019.0,"address":"神奈川県横浜市中区寿町4-14-4","latitude":35.43821334838867,"longitude":139.63804626464844,"category":"福祉センター/公民館・交流施設/集合住宅","description":"","image_url":""},{"id":8476,"title":"国立沖縄戦没者墓苑","architect":"谷口吉郎","year":1979.0,"address":"沖縄県糸満市摩文仁112","latitude":26.09166717529297,"longitude":127.72347259521484,"category":"オブジェ/霊園","description":"","image_url":""},{"id":8477,"title":"house S/shop B ba hutte","architect":"木村松本建築設計事務所","year":2019.0,"address":"京都府京都市左京区山端壱町田町38","latitude":35.05082321166992,"longitude":135.79212951660156,"category":"カフェ/店舗/住宅","description":"","image_url":""},{"id":8478,"title":"国際基督教大学 新体育施設","architect":"隈研吾+日本設計+前田建設","year":2018.0,"address":"東京都三鷹市大沢3-10-2","latitude":35.68544387817383,"longitude":139.5323486328125,"category":"大学/体育館","description":"","image_url":""},{"id":8479,"title":"イグーネ荒井","architect":"前田圭介","year":2019.0,"address":"宮城県仙台市若林区荒井東1-2-7","latitude":38.242191314697266,"longitude":140.9483642578125,"category":"モール/カフェ/シェアオフィス","description":"","image_url":""},{"id":8480,"title":"岸和田市立自泉会館","architect":"渡辺節","year":1932.0,"address":"大阪府岸和田市岸城町5-10","latitude":34.46062469482422,"longitude":135.37193298339844,"category":"公民館・交流施設/洋館","description":"","image_url":""},{"id":8481,"title":"九谷セラミック・ラボラトリー セラボ・クタニ","architect":"隈研吾","year":2019.0,"address":"石川県小松市若杉町ア91","latitude":36.392581939697266,"longitude":136.48350524902344,"category":"体験施設/観光施設","description":"","image_url":""},{"id":8482,"title":"mitosaya 薬草園蒸留所","architect":"中山英之","year":2018.0,"address":"千葉県夷隅郡大多喜町大多喜486","latitude":35.28550338745117,"longitude":140.2330322265625,"category":"工場","description":"1ヶ月に1回程度公開日を設けている","image_url":""},{"id":8483,"title":"Y & Co. レセプションハウス La Capra","architect":"アンジェロ・マンジャロッティ+第一建設","year":2014.0,"address":"富山県黒部市 宇奈月町栃屋字広谷4","latitude":36.847103118896484,"longitude":137.509765625,"category":"クラブハウス/企業施設","description":"くろべ牧場まきばの風内","image_url":""},{"id":8484,"title":"黒部市総合公園 景観ステーション","architect":"栗生明","year":2001.0,"address":"富山県黒部市堀切1142","latitude":36.87872314453125,"longitude":137.4284210205078,"category":"公園","description":"","image_url":""},{"id":8485,"title":"養浩館庭園","architect":"不明","year":1699.0,"address":"福井県福井市宝永3-11-36","latitude":36.06846618652344,"longitude":136.22459411621094,"category":"庭園","description":"","image_url":""},{"id":8486,"title":"福井県立歴史博物館","architect":"佐藤総合計画","year":1984.0,"address":"福井県福井市大宮2-19-15","latitude":36.08300018310547,"longitude":136.22238159179688,"category":"博物館","description":"","image_url":""},{"id":8487,"title":"富士市農協会館","architect":"佐藤武夫","year":1972.0,"address":"静岡県富士市青島200-1","latitude":35.15481948852539,"longitude":138.6800537109375,"category":"組合施設","description":"","image_url":""},{"id":8488,"title":"魚河岸テラス","architect":"山下設計","year":2019.0,"address":"岩手県釜石市魚河岸1-1","latitude":39.274410247802734,"longitude":141.88992309570312,"category":"レストラン/モール/観光施設","description":"","image_url":""},{"id":8489,"title":"二本松の農家交流所計画","architect":"伊藤立平","year":2019.0,"address":"福島県二本松市油井字作ノ内23","latitude":37.61486053466797,"longitude":140.44186401367188,"category":"古民家/公民館・交流施設/その他宿泊施設","description":"","image_url":""},{"id":8490,"title":"柳原料理教室","architect":"ミナトデザイン1級建築士事務所","year":2007.0,"address":"東京都港区赤坂1-7-4","latitude":35.669132232666016,"longitude":139.7419891357422,"category":"専門学校","description":"","image_url":""},{"id":8491,"title":"スバルショップ御殿場 広石モータース","architect":"ミナトデザイン1級建築士事務所","year":2016.0,"address":"静岡県御殿場市茱萸沢290-1","latitude":35.3172492980957,"longitude":138.91845703125,"category":"店舗","description":"","image_url":""},{"id":8492,"title":"シーズリーブル カフェ","architect":"ミナトデザイン1級建築士事務所","year":2014.0,"address":"神奈川県藤沢市片瀬山2-7-4","latitude":35.323482513427734,"longitude":139.49331665039062,"category":"カフェ","description":"","image_url":""},{"id":8493,"title":"TxC DOG Grooming Studio ドッグトリミングサロン","architect":"ミナトデザイン1級建築士事務所","year":2017.0,"address":"神奈川県茅ヶ崎市小和田2-15-40","latitude":35.34089660644531,"longitude":139.43666076660156,"category":"美容院","description":"","image_url":""},{"id":8494,"title":"富士山静岡空港 増改築","architect":"坂茂+日本空港コンサルタンツ","year":2018.0,"address":"静岡県牧之原市坂口3336-4","latitude":34.795257568359375,"longitude":138.17950439453125,"category":"空港","description":"","image_url":""},{"id":8495,"title":"夏目坂の間","architect":"TNA","year":2015.0,"address":"東京都新宿区若松町37-21","latitude":35.70178985595703,"longitude":139.7212371826172,"category":"集合住宅","description":"","image_url":""},{"id":8496,"title":"旧島津家住宅アトリエ","architect":"吉武東里","year":1931.0,"address":"東京都新宿区中井2-19-6","latitude":35.71657180786133,"longitude":139.6848602294922,"category":"洋館","description":"2019年夏以降、金曜日・土曜日のみ一般公開","image_url":""},{"id":8497,"title":"四の坂テラス","architect":"長谷川逸子","year":2009.0,"address":"東京都新宿区中井2-19-1","latitude":35.71599578857422,"longitude":139.68472290039062,"category":"集合住宅","description":"","image_url":""},{"id":8498,"title":"染の里二葉苑 フォレストコート","architect":"環境建築設計","year":2008.0,"address":"東京都新宿区上落合2-3-6","latitude":35.71526336669922,"longitude":139.68963623046875,"category":"集合住宅/博物館","description":"","image_url":""},{"id":8499,"title":"新宿区立佐伯祐三アトリエ記念館","architect":"不明","year":1921.0,"address":"東京都新宿区中落合2-4-21","latitude":35.720882415771484,"longitude":139.6936492919922,"category":"洋館","description":"","image_url":""},{"id":8500,"title":"聖母病院","architect":"マックス・ヒンデル","year":1931.0,"address":"東京都新宿区中落合2-5-1","latitude":35.7203254699707,"longitude":139.69424438476562,"category":"病院","description":"","image_url":""}]}