{"page":104,"total_pages":290,"items_per_page":50,"total_items":14467,"items":[{"id":5151,"title":"節黒城キャンプ場コテージC棟","architect":"石井大五","year":1999.0,"address":"新潟県十日町市上野 節黒城跡キャンプ場","latitude":37.195289611816406,"longitude":138.7329864501953,"category":"コテージ","big_category":"宿泊","description":"","image_url":"","tags":"大地の芸術祭","prefecture":"新潟","contractor":"","structural_designer":"","landscape_designer":"","shinkenchiku_url":""},{"id":5152,"title":"節黒城キャンプ場コテージB棟","architect":"塚本由晴","year":1999.0,"address":"新潟県十日町市上野 節黒城跡キャンプ場","latitude":37.19551086425781,"longitude":138.73316955566406,"category":"コテージ","big_category":"宿泊","description":"","image_url":"","tags":"大地の芸術祭","prefecture":"新潟","contractor":"","structural_designer":"","landscape_designer":"","shinkenchiku_url":""},{"id":5153,"title":"帝京平成大学 帝京メディアラボ","architect":"古田真三","year":2000.0,"address":"千葉県市原市うるいど南4-1","latitude":35.505943298339844,"longitude":140.17250061035156,"category":"大学","big_category":"教育","description":"","image_url":"","tags":"","prefecture":"千葉","contractor":"","structural_designer":"","landscape_designer":"","shinkenchiku_url":""},{"id":5154,"title":"いづの里クリニック","architect":"古田真三+村松基安","year":2007.0,"address":"静岡県三島市松本294-3","latitude":35.09252166748047,"longitude":138.91680908203125,"category":"養護施設","big_category":"医療施設","description":"","image_url":"","tags":"","prefecture":"静岡","contractor":"","structural_designer":"","landscape_designer":"","shinkenchiku_url":""},{"id":5155,"title":"いづテラス アネックス","architect":"古田真三","year":2013.0,"address":"静岡県三島市松本293-16","latitude":35.092445373535156,"longitude":138.9170684814453,"category":"養護施設","big_category":"医療施設","description":"","image_url":"","tags":"","prefecture":"静岡","contractor":"","structural_designer":"","landscape_designer":"","shinkenchiku_url":""},{"id":5156,"title":"水俣第二中学校 体育館","architect":"小材健治","year":1994.0,"address":"熊本県水俣市塩浜町3-1","latitude":32.213768005371094,"longitude":130.39468383789062,"category":"学校/体育館","big_category":"教育,レジャー施設","description":"","image_url":"","tags":"","prefecture":"熊本","contractor":"","structural_designer":"","landscape_designer":"","shinkenchiku_url":""},{"id":5157,"title":"嬉野温泉吉田屋","architect":"小材健治","year":2007.0,"address":"佐賀県嬉野市嬉野町大字岩屋川内379","latitude":33.09332275390625,"longitude":129.9803009033203,"category":"旅館","big_category":"宿泊","description":"","image_url":"","tags":"","prefecture":"佐賀","contractor":"","structural_designer":"","landscape_designer":"","shinkenchiku_url":""},{"id":5158,"title":"さいたまスーパーアリーナ","architect":"日建設計","year":2000.0,"address":"埼玉県さいたま市中央区新都心8","latitude":35.895042419433594,"longitude":139.63079833984375,"category":"スタジアム","big_category":"レジャー施設","description":"","image_url":"","tags":"東京2020オリンピック競技会場","prefecture":"埼玉","contractor":"","structural_designer":"","landscape_designer":"","shinkenchiku_url":""},{"id":5159,"title":"光の空間 太田綜合病院附属ファミリーハウス桔梗","architect":"渡部和生","year":2000.0,"address":"福島県郡山市桜木2-21-15","latitude":37.409095764160156,"longitude":140.36695861816406,"category":"病院","big_category":"医療施設","description":"","image_url":"","tags":"","prefecture":"福島","contractor":"","structural_designer":"","landscape_designer":"","shinkenchiku_url":""},{"id":5160,"title":"ノルウェー王国大使公邸","architect":"吉村順三","year":1977.0,"address":"東京都港区南麻布5-12-2","latitude":35.65291213989258,"longitude":139.72366333007812,"category":"公共施設/住宅","big_category":"公共施設,住宅","description":"","image_url":"","tags":"","prefecture":"東京","contractor":"","structural_designer":"","landscape_designer":"","shinkenchiku_url":""},{"id":5161,"title":"末広保育園+デイサービスふくじゅ","architect":"藤木隆男","year":1998.0,"address":"愛知県一宮市末広2-20-6","latitude":35.29444885253906,"longitude":136.788330078125,"category":"幼稚園/養護施設","big_category":"教育,医療施設","description":"","image_url":"","tags":"","prefecture":"愛知","contractor":"","structural_designer":"","landscape_designer":"","shinkenchiku_url":""},{"id":5162,"title":"朝日新聞青森支局","architect":"シーラカンスアンドアソシエイツ","year":2000.0,"address":"青森県青森市古川2-19-14","latitude":40.822872161865234,"longitude":140.73797607421875,"category":"低層オフィス","big_category":"企業施設","description":"","image_url":"","tags":"","prefecture":"青森","contractor":"","structural_designer":"","landscape_designer":"","shinkenchiku_url":""},{"id":5163,"title":"KKベストセラーズ本社ビル","architect":"山本良介","year":2000.0,"address":"東京都豊島区南大塚2-29-7","latitude":35.72825622558594,"longitude":139.7309112548828,"category":"低層オフィス","big_category":"企業施設","description":"","image_url":"","tags":"","prefecture":"東京","contractor":"","structural_designer":"","landscape_designer":"","shinkenchiku_url":""},{"id":5164,"title":"慶應義塾大学 湘南藤沢キャンパス SFCデジタルラボ棟","architect":"葉祥栄","year":2000.0,"address":"神奈川県藤沢市遠藤5322","latitude":35.388370513916016,"longitude":139.4254913330078,"category":"大学","big_category":"教育","description":"","image_url":"","tags":"","prefecture":"神奈川","contractor":"","structural_designer":"","landscape_designer":"","shinkenchiku_url":""},{"id":5165,"title":"地下鉄大江戸線 大門駅","architect":"横河健","year":2000.0,"address":"東京都港区 大門駅","latitude":35.65670394897461,"longitude":139.75547790527344,"category":"駅","big_category":"インフラ","description":"","image_url":"","tags":"","prefecture":"東京","contractor":"","structural_designer":"","landscape_designer":"","shinkenchiku_url":""},{"id":5166,"title":"津田塾大学 100周年記念 津田梅子記念交流館","architect":"大成建設","year":2000.0,"address":"東京都小平市津田町2-1","latitude":35.721221923828125,"longitude":139.4653778076172,"category":"大学","big_category":"教育","description":"","image_url":"","tags":"","prefecture":"東京","contractor":"","structural_designer":"","landscape_designer":"","shinkenchiku_url":""},{"id":5167,"title":"総本山醍醐寺 霊宝館・伝法学院","architect":"今里隆","year":2000.0,"address":"京都府京都市伏見区醍醐東大路町35-1","latitude":34.9504280090332,"longitude":135.81947326660156,"category":"寺院","big_category":"宗教","description":"","image_url":"","tags":"","prefecture":"京都","contractor":"","structural_designer":"","landscape_designer":"","shinkenchiku_url":""},{"id":5168,"title":"兵庫大学 健康科学部","architect":"竹中工務店","year":2001.0,"address":"兵庫県加古川市平岡町新在家2301","latitude":34.748321533203125,"longitude":134.8833465576172,"category":"大学","big_category":"教育","description":"","image_url":"","tags":"","prefecture":"兵庫","contractor":"","structural_designer":"","landscape_designer":"","shinkenchiku_url":""},{"id":5169,"title":"〈内〉と〈外〉の間 9 早稲田大学理工学総合研究センター 第2研究棟","architect":"入江正之","year":2000.0,"address":"東京都新宿区喜久井町17","latitude":35.70476531982422,"longitude":139.7215576171875,"category":"大学","big_category":"教育","description":"","image_url":"","tags":"","prefecture":"東京","contractor":"","structural_designer":"","landscape_designer":"","shinkenchiku_url":""},{"id":5170,"title":"〈内〉と〈外〉の間 6 早稲田大学理工学総合研究センター 第1研究棟","architect":"入江正之","year":1998.0,"address":"東京都新宿区喜久井町17","latitude":35.704959869384766,"longitude":139.72178649902344,"category":"大学","big_category":"教育","description":"","image_url":"","tags":"","prefecture":"東京","contractor":"","structural_designer":"","landscape_designer":"","shinkenchiku_url":""},{"id":5171,"title":"介護老人保健施設けんゆう苑","architect":"村松基安","year":2001.0,"address":"和歌山県西牟婁郡すさみ町江住800","latitude":33.50568771362305,"longitude":135.60122680664062,"category":"養護施設","big_category":"医療施設","description":"","image_url":"","tags":"","prefecture":"和歌山","contractor":"","structural_designer":"","landscape_designer":"","shinkenchiku_url":""},{"id":5172,"title":"東京カトリック神学院","architect":"高垣建次郎","year":2000.0,"address":"東京都練馬区関町東2-7-10","latitude":35.72871780395508,"longitude":139.5813446044922,"category":"専門学校/宗教施設","big_category":"教育,宗教","description":"","image_url":"","tags":"","prefecture":"東京","contractor":"","structural_designer":"","landscape_designer":"","shinkenchiku_url":""},{"id":5173,"title":"明治学院大学 パレットゾーン","architect":"内井昭蔵","year":2001.0,"address":"東京都港区白金台1-2-37","latitude":35.638580322265625,"longitude":139.73110961914062,"category":"大学","big_category":"教育","description":"","image_url":"","tags":"","prefecture":"東京","contractor":"","structural_designer":"","landscape_designer":"","shinkenchiku_url":""},{"id":5174,"title":"くろしおアリーナ","architect":"清水建設","year":2001.0,"address":"高知県高知市五台山1736-1","latitude":33.54793167114258,"longitude":133.5986328125,"category":"プール/体育館","big_category":"レジャー施設,レジャー施設","description":"","image_url":"","tags":"","prefecture":"高知","contractor":"","structural_designer":"","landscape_designer":"","shinkenchiku_url":""},{"id":5175,"title":"那珂瓜連斎場","architect":"久米設計","year":2001.0,"address":"茨城県那珂市堤1020-1","latitude":36.46232223510742,"longitude":140.52041625976562,"category":"斎場","big_category":"公共施設","description":"","image_url":"","tags":"","prefecture":"茨城","contractor":"","structural_designer":"","landscape_designer":"","shinkenchiku_url":""},{"id":5176,"title":"SKK松山","architect":"宮崎浩","year":2001.0,"address":"愛媛県松山市南江戸1-4-35","latitude":33.83662414550781,"longitude":132.7509765625,"category":"低層オフィス","big_category":"企業施設","description":"","image_url":"","tags":"","prefecture":"愛媛","contractor":"","structural_designer":"","landscape_designer":"","shinkenchiku_url":""},{"id":5177,"title":"広島大学 工学部コミュニケーションガレリア","architect":"岡河貢","year":2001.0,"address":"広島県東広島市鏡山1-4-1","latitude":34.39992141723633,"longitude":132.7134246826172,"category":"大学","big_category":"教育","description":"","image_url":"","tags":"","prefecture":"広島","contractor":"","structural_designer":"","landscape_designer":"","shinkenchiku_url":""},{"id":5178,"title":"衆議院議長公邸","architect":"内井昭蔵","year":2001.0,"address":"東京都千代田区永田町2-18-1","latitude":35.67776870727539,"longitude":139.7379913330078,"category":"住宅/公共施設","big_category":"住宅,公共施設","description":"","image_url":"","tags":"","prefecture":"東京","contractor":"","structural_designer":"","landscape_designer":"","shinkenchiku_url":""},{"id":5179,"title":"まこと幼稚園","architect":"小川守之","year":2001.0,"address":"神奈川県横浜市瀬谷区三ツ境65","latitude":35.4605598449707,"longitude":139.5028839111328,"category":"幼稚園","big_category":"教育","description":"","image_url":"","tags":"","prefecture":"神奈川","contractor":"","structural_designer":"","landscape_designer":"","shinkenchiku_url":""},{"id":5180,"title":"水生生物保全センター","architect":"日本設計","year":2001.0,"address":"福島県いわき市小名浜字辰巳町50","latitude":36.944488525390625,"longitude":140.90187072753906,"category":"研究施設/水族館","big_category":"教育,レジャー施設","description":"","image_url":"","tags":"","prefecture":"福島","contractor":"","structural_designer":"","landscape_designer":"","shinkenchiku_url":""},{"id":5181,"title":"愛宕グリーンヒルズ","architect":"シーザー・ペリ+入江三宅設計+森ビル","year":2001.0,"address":"東京都港区愛宕2-5-1","latitude":35.662147521972656,"longitude":139.7489013671875,"category":"複合ビル","big_category":"企業施設","description":"","image_url":"","tags":"","prefecture":"東京","contractor":"","structural_designer":"","landscape_designer":"","shinkenchiku_url":""},{"id":5182,"title":"新地町立駒ケ嶺小学校","architect":"青島裕之","year":2001.0,"address":"福島県相馬郡新地町駒ケ嶺新町前52","latitude":37.844547271728516,"longitude":140.9173583984375,"category":"学校","big_category":"教育","description":"","image_url":"","tags":"","prefecture":"福島","contractor":"","structural_designer":"","landscape_designer":"","shinkenchiku_url":""},{"id":5183,"title":"砧Nコート","architect":"早川邦彦","year":2001.0,"address":"東京都世田谷区砧5-8-31","latitude":35.63663101196289,"longitude":139.61033630371094,"category":"集合住宅","big_category":"住宅","description":"","image_url":"","tags":"","prefecture":"東京","contractor":"","structural_designer":"","landscape_designer":"","shinkenchiku_url":""},{"id":5184,"title":"NHK大阪放送会館・大阪歴史博物館","architect":"シーザー・ペリ+日本設計+NTTファシリティーズ","year":2001.0,"address":"大阪府大阪市中央区大手前4-1-20","latitude":34.6826057434082,"longitude":135.52081298828125,"category":"オフィスビル/博物館","big_category":"企業施設,ミュージアム","description":"","image_url":"","tags":"","prefecture":"大阪","contractor":"","structural_designer":"","landscape_designer":"","shinkenchiku_url":""},{"id":5185,"title":"七ヶ浜町立七ヶ浜中学校","architect":"乾久美子","year":2014.0,"address":"宮城県宮城郡七ヶ浜町吉田浜小浜7-1","latitude":38.304412841796875,"longitude":141.0624542236328,"category":"学校","big_category":"教育","description":"","image_url":"","tags":"2017年日本建築学会 作品選奨,新建築2015年6月号","prefecture":"宮城","contractor":"","structural_designer":"","landscape_designer":"","shinkenchiku_url":""},{"id":5186,"title":"インターナショナルスクール・オブ・アジア軽井沢 ISAK","architect":"鈴木エドワード","year":2013.0,"address":"長野県北佐久郡軽井沢町長倉5827-136","latitude":36.35916519165039,"longitude":138.55697631835938,"category":"学校","big_category":"教育","description":"見学はオンラインフォームから要予約","image_url":"","tags":"新建築2015年6月号","prefecture":"長野","contractor":"","structural_designer":"","landscape_designer":"","shinkenchiku_url":""},{"id":5187,"title":"立命館中学校・高等学校 長岡京新キャンパス","architect":"鹿島建設","year":2014.0,"address":"京都府長岡京市調子1-1-1","latitude":34.91368103027344,"longitude":135.6939697265625,"category":"学校","big_category":"教育","description":"","image_url":"","tags":"新建築2015年6月号","prefecture":"京都","contractor":"","structural_designer":"","landscape_designer":"","shinkenchiku_url":""},{"id":5188,"title":"広島市立広島特別支援学校","architect":"佐藤総合計画","year":2012.0,"address":"広島県広島市南区出島4-1-1","latitude":34.34934616088867,"longitude":132.44728088378906,"category":"学校","big_category":"教育","description":"","image_url":"","tags":"新建築2015年6月号","prefecture":"広島","contractor":"","structural_designer":"","landscape_designer":"","shinkenchiku_url":""},{"id":5189,"title":"早稲田大学 早稲田キャンパス3号館","architect":"久米設計","year":2014.0,"address":"東京都新宿区西早稲田1-7-1","latitude":35.70927810668945,"longitude":139.7200927734375,"category":"大学","big_category":"教育","description":"旧3号館を取り壊し、低層部の外観を再現して建て替え","image_url":"","tags":"新建築2015年6月号","prefecture":"東京","contractor":"","structural_designer":"","landscape_designer":"","shinkenchiku_url":""},{"id":5190,"title":"立命館大学 大阪いばらきキャンパス","architect":"山下設計+竹中工務店","year":2015.0,"address":"大阪府茨木市岩倉町2-150","latitude":34.8101692199707,"longitude":135.56179809570312,"category":"大学","big_category":"教育","description":"","image_url":"","tags":"新建築2015年6月号","prefecture":"大阪","contractor":"","structural_designer":"","landscape_designer":"","shinkenchiku_url":""},{"id":5191,"title":"安田女子大学 新5号館","architect":"清水建設","year":2014.0,"address":"広島県広島市安佐南区安東6-13-1","latitude":34.479591369628906,"longitude":132.45162963867188,"category":"大学","big_category":"教育","description":"","image_url":"","tags":"新建築2015年6月号","prefecture":"広島","contractor":"","structural_designer":"","landscape_designer":"","shinkenchiku_url":""},{"id":5192,"title":"JINS 前橋本社","architect":"青木淳","year":2006.0,"address":"群馬県前橋市川原町2-26-4","latitude":36.42781448364258,"longitude":139.0393829345703,"category":"低層オフィス","big_category":"企業施設","description":"","image_url":"","tags":"","prefecture":"群馬","contractor":"","structural_designer":"","landscape_designer":"","shinkenchiku_url":""},{"id":5193,"title":"ステラ マッカートニー 青山","architect":"竹中工務店","year":2015.0,"address":"東京都港区南青山3-16-12","latitude":35.66413116455078,"longitude":139.71435546875,"category":"店舗","big_category":"商業施設","description":"","image_url":"","tags":"","prefecture":"東京","contractor":"","structural_designer":"","landscape_designer":"","shinkenchiku_url":""},{"id":5194,"title":"v28 ベロックスビル","architect":"ベンジャミン・ウォーナー","year":2004.0,"address":"東京都渋谷区神宮前6-31-17","latitude":35.668663024902344,"longitude":139.70440673828125,"category":"テナントビル","big_category":"商業施設","description":"","image_url":"","tags":"","prefecture":"東京","contractor":"","structural_designer":"","landscape_designer":"","shinkenchiku_url":""},{"id":5195,"title":"カルティエ 南青山店","architect":"光井純","year":2005.0,"address":"東京都港区南青山5-3-2","latitude":35.66367721557617,"longitude":139.71461486816406,"category":"店舗","big_category":"商業施設","description":"","image_url":"","tags":"","prefecture":"東京","contractor":"","structural_designer":"","landscape_designer":"","shinkenchiku_url":""},{"id":5196,"title":"新宿NSビル","architect":"日建設計","year":1982.0,"address":"東京都新宿区西新宿2-4-1","latitude":35.688114166259766,"longitude":139.6934814453125,"category":"オフィスビル","big_category":"企業施設","description":"日本建築学会 作品賞受賞者名：小倉善明、浜田信義","image_url":"","tags":"1982年日本建築学会 作品賞,2012年JIA25年賞","prefecture":"東京","contractor":"","structural_designer":"","landscape_designer":"","shinkenchiku_url":""},{"id":5197,"title":"赤坂BLITZ","architect":"久米設計","year":2008.0,"address":"東京都港区赤坂5-3-2","latitude":35.67253112792969,"longitude":139.7353057861328,"category":"ホール・劇場","big_category":"文化施設","description":"","image_url":"","tags":"","prefecture":"東京","contractor":"","structural_designer":"","landscape_designer":"","shinkenchiku_url":""},{"id":5198,"title":"都筑が丘第二自治会館","architect":"栗原正明","year":2011.0,"address":"神奈川県横浜市都筑区川和町 都筑が丘第2自治会館","latitude":35.534034729003906,"longitude":139.5517578125,"category":"公民館・交流施設","big_category":"公共施設","description":"","image_url":"","tags":"","prefecture":"神奈川","contractor":"","structural_designer":"","landscape_designer":"","shinkenchiku_url":""},{"id":5199,"title":"ヒューリック銀座数寄屋橋ビル","architect":"久米設計+大成建設","year":2011.0,"address":"東京都中央区銀座4-2-11","latitude":35.67241287231445,"longitude":139.763916015625,"category":"オフィスビル/店舗","big_category":"企業施設,商業施設","description":"","image_url":"","tags":"","prefecture":"東京","contractor":"","structural_designer":"","landscape_designer":"","shinkenchiku_url":""},{"id":5200,"title":"ザ・リッツ・カールトン京都","architect":"日建設計","year":2013.0,"address":"京都府京都市中京区鉾田町 ザ・リッツ・カールトン京都","latitude":35.01388931274414,"longitude":135.77085876464844,"category":"ホテル","big_category":"宿泊","description":"","image_url":"","tags":"2016年日本建築学会 作品選奨,新建築2014年5月号","prefecture":"京都","contractor":"大林組","structural_designer":"日建設計","landscape_designer":"","shinkenchiku_url":"https://data.shinkenchiku.online/articles/SK_2014_05_062-0"}]}