{"page":118,"total_pages":290,"items_per_page":50,"total_items":14467,"items":[{"id":5851,"title":"羽地の駅 やんばるたまご","architect":"末松信吾","year":2015.0,"address":"沖縄県名護市字真喜屋763-1","latitude":26.63101577758789,"longitude":128.0320587158203,"category":"PA・道の駅","big_category":"インフラ","description":"","image_url":"","tags":"Ver1.70(2016年2月)の追加建築","prefecture":"沖縄","contractor":"","structural_designer":"","landscape_designer":"","shinkenchiku_url":""},{"id":5852,"title":"沖縄県立芸術大学 首里金城キャンパス","architect":"二基設計+石本建築事務所+近代設計","year":1984.0,"address":"沖縄県那覇市首里金城町3-6","latitude":26.215646743774414,"longitude":127.71719360351562,"category":"大学","big_category":"教育","description":"","image_url":"","tags":"Ver1.70(2016年2月)の追加建築","prefecture":"沖縄","contractor":"","structural_designer":"","landscape_designer":"","shinkenchiku_url":""},{"id":5853,"title":"コーポラティブガーデン 東五反田桜テラス","architect":"西田司+中川エリカ","year":2015.0,"address":"東京都品川区東五反田5-22-21","latitude":35.628204345703125,"longitude":139.72352600097656,"category":"集合住宅","big_category":"住宅","description":"","image_url":"","tags":"新建築2016年2月号,Ver1.70(2016年2月)の追加建築","prefecture":"東京","contractor":"","structural_designer":"","landscape_designer":"","shinkenchiku_url":""},{"id":5854,"title":"コーナーグレイン本太","architect":"Eureka+MARU。architecture","year":2015.0,"address":"埼玉県さいたま市浦和区本太2-11-11","latitude":35.862632751464844,"longitude":139.65966796875,"category":"集合住宅","big_category":"住宅","description":"","image_url":"","tags":"新建築2016年2月号,Ver1.70(2016年2月)の追加建築","prefecture":"埼玉","contractor":"","structural_designer":"","landscape_designer":"","shinkenchiku_url":""},{"id":5855,"title":"田中西春菜町の集合住宅","architect":"魚谷繁礼","year":2015.0,"address":"京都府京都市左京区田中西春菜町10-1","latitude":35.035728454589844,"longitude":135.78366088867188,"category":"集合住宅","big_category":"住宅","description":"","image_url":"","tags":"新建築2016年2月号,Ver1.70(2016年2月)の追加建築","prefecture":"京都","contractor":"","structural_designer":"","landscape_designer":"","shinkenchiku_url":""},{"id":5856,"title":"七ヶ浜町菖蒲田浜地区町営住宅","architect":"阿部仁史","year":2015.0,"address":"宮城県宮城郡七ヶ浜町菖蒲田浜林合10","latitude":38.28565216064453,"longitude":141.05848693847656,"category":"集合住宅","big_category":"住宅","description":"","image_url":"","tags":"新建築2016年2月号,Ver1.70(2016年2月)の追加建築","prefecture":"宮城","contractor":"","structural_designer":"","landscape_designer":"","shinkenchiku_url":""},{"id":5857,"title":"東新宿テラス","architect":"伊藤博之","year":2015.0,"address":"東京都新宿区新宿7-22-8","latitude":35.6994514465332,"longitude":139.71038818359375,"category":"集合住宅","big_category":"住宅","description":"","image_url":"","tags":"新建築2016年2月号,Ver1.70(2016年2月)の追加建築","prefecture":"東京","contractor":"","structural_designer":"","landscape_designer":"","shinkenchiku_url":""},{"id":5858,"title":"フォルム世田谷","architect":"駒田建築設計事務所","year":2016.0,"address":"東京都世田谷区上用賀6-27-12","latitude":35.63785171508789,"longitude":139.62445068359375,"category":"集合住宅","big_category":"住宅","description":"","image_url":"","tags":"新建築2016年2月号,Ver1.70(2016年2月)の追加建築","prefecture":"東京","contractor":"","structural_designer":"","landscape_designer":"","shinkenchiku_url":""},{"id":5859,"title":"鉄鋼ビルディング","architect":"三菱地所","year":2015.0,"address":"東京都千代田区丸の内1-8-2","latitude":35.68299102783203,"longitude":139.770263671875,"category":"オフィスビル","big_category":"企業施設","description":"","image_url":"","tags":"新建築2016年2月号,Ver1.70(2016年2月)の追加建築","prefecture":"東京","contractor":"","structural_designer":"","landscape_designer":"","shinkenchiku_url":""},{"id":5860,"title":"MUFGグローバルラーニングセンター","architect":"三菱地所","year":2015.0,"address":"神奈川県横浜市西区みなとみらい4-8-1","latitude":35.460575103759766,"longitude":139.62939453125,"category":"研修施設","big_category":"教育","description":"","image_url":"","tags":"新建築2016年2月号,Ver1.70(2016年2月)の追加建築","prefecture":"神奈川","contractor":"竹中工務店","structural_designer":"","landscape_designer":"","shinkenchiku_url":""},{"id":5861,"title":"富久クロス","architect":"まちづくり研究所+久米設計+戸田建設","year":2015.0,"address":"東京都新宿区富久町14","latitude":35.6922492980957,"longitude":139.71380615234375,"category":"モール/集合住宅/幼稚園","big_category":"商業施設,住宅,教育","description":"","image_url":"","tags":"新建築2016年2月号,Ver1.70(2016年2月)の追加建築","prefecture":"東京","contractor":"","structural_designer":"","landscape_designer":"","shinkenchiku_url":""},{"id":5862,"title":"桜上水ガーデンズ","architect":"日建ハウジングシステム","year":2015.0,"address":"東京都世田谷区桜上水4-1","latitude":35.664737701416016,"longitude":139.6322479248047,"category":"集合住宅","big_category":"住宅","description":"","image_url":"","tags":"新建築2016年2月号,Ver1.70(2016年2月)の追加建築","prefecture":"東京","contractor":"","structural_designer":"","landscape_designer":"","shinkenchiku_url":""},{"id":5863,"title":"ヌーヴェル赤羽台 5号棟 集会所棟 B2街区","architect":"シーラカンスアンドアソシエイツ+市浦ハウジング&プランニング","year":2010.0,"address":"東京都北区赤羽台2-3-5","latitude":35.77701187133789,"longitude":139.71458435058594,"category":"集合住宅","big_category":"住宅","description":"","image_url":"","tags":"Ver1.70(2016年2月)の追加建築","prefecture":"東京","contractor":"","structural_designer":"","landscape_designer":"","shinkenchiku_url":""},{"id":5864,"title":"ヌーヴェル赤羽台 6・7号棟 C街区","architect":"山本・堀アーキテクツ+蓑部和人","year":2010.0,"address":"東京都北区赤羽台1-5-6","latitude":35.77753448486328,"longitude":139.71507263183594,"category":"集合住宅","big_category":"住宅","description":"","image_url":"","tags":"Ver1.70(2016年2月)の追加建築","prefecture":"東京","contractor":"","structural_designer":"","landscape_designer":"","shinkenchiku_url":""},{"id":5865,"title":"ヌーヴェル赤羽台 8・9・10・11号棟 D1街区","architect":"遠藤剛生+蓑部和人","year":2015.0,"address":"東京都北区赤羽台1-1-17","latitude":35.77814865112305,"longitude":139.71609497070312,"category":"集合住宅","big_category":"住宅","description":"8～11号棟の詳細な配置が不明。分かり次第分割します。","image_url":"","tags":"新建築2016年2月号,Ver1.70(2016年2月)の追加建築","prefecture":"東京","contractor":"","structural_designer":"","landscape_designer":"","shinkenchiku_url":""},{"id":5866,"title":"ヌーヴェル赤羽台 1号棟 A街区","architect":"蓑部和人","year":2006.0,"address":"東京都北区赤羽台2-3-1","latitude":35.77561950683594,"longitude":139.71331787109375,"category":"集合住宅","big_category":"住宅","description":"","image_url":"","tags":"Ver1.70(2016年2月)の追加建築","prefecture":"東京","contractor":"","structural_designer":"","landscape_designer":"","shinkenchiku_url":""},{"id":5867,"title":"ヌーヴェル赤羽台 2号棟 A街区","architect":"設計組織ADH+ワークステーション+北山恒","year":2006.0,"address":"東京都北区赤羽台2-3-2","latitude":35.776241302490234,"longitude":139.71275329589844,"category":"集合住宅","big_category":"住宅","description":"","image_url":"","tags":"Ver1.70(2016年2月)の追加建築","prefecture":"東京","contractor":"","structural_designer":"","landscape_designer":"","shinkenchiku_url":""},{"id":5868,"title":"御殿場YMCA東山荘 フィッシャー館","architect":"ウィリアム・メレル・ヴォーリズ","year":1950.0,"address":"静岡県御殿場市東山1052","latitude":35.28946304321289,"longitude":138.95774841308594,"category":"研修施設","big_category":"教育","description":"","image_url":"","tags":"Ver1.70(2016年2月)の追加建築","prefecture":"静岡","contractor":"","structural_designer":"","landscape_designer":"","shinkenchiku_url":""},{"id":5869,"title":"ミス・カニンハム 旧英和女学院宣教師館","architect":"ウィリアム・メレル・ヴォーリズ","year":1950.0,"address":"静岡県静岡市葵区西草深町34-13","latitude":34.983551025390625,"longitude":138.3788604736328,"category":"レストラン","big_category":"商業施設","description":"","image_url":"","tags":"Ver1.70(2016年2月)の追加建築,登録有形文化財","prefecture":"静岡","contractor":"","structural_designer":"","landscape_designer":"","shinkenchiku_url":""},{"id":5870,"title":"日本福音ルーテル栄光教会 焼津礼拝堂","architect":"ウィリアム・メレル・ヴォーリズ","year":1954.0,"address":"静岡県焼津市栄町5-16-27","latitude":34.867671966552734,"longitude":138.318115234375,"category":"教会","big_category":"宗教","description":"","image_url":"","tags":"Ver1.70(2016年2月)の追加建築","prefecture":"静岡","contractor":"","structural_designer":"","landscape_designer":"","shinkenchiku_url":""},{"id":5871,"title":"大津市役所本庁舎 本館・別館","architect":"佐藤武夫","year":1967.0,"address":"滋賀県大津市御陵町3-1","latitude":35.01778030395508,"longitude":135.8546905517578,"category":"庁舎","big_category":"公共施設","description":"建て替えが検討中","image_url":"","tags":"DOCOMOMO,Ver1.70(2016年2月)の追加建築,2016年JIA25年賞 登録作品","prefecture":"滋賀","contractor":"","structural_designer":"","landscape_designer":"","shinkenchiku_url":""},{"id":5872,"title":"市民会館崇城大学ホール 旧熊本市民会館","architect":"佐藤武夫","year":1967.0,"address":"熊本県熊本市中央区桜町1-3","latitude":32.80207443237305,"longitude":130.7041778564453,"category":"ホール・劇場","big_category":"文化施設","description":"","image_url":"","tags":"Ver1.70(2016年2月)の追加建築,2015年JIA25年賞 登録作品","prefecture":"熊本","contractor":"","structural_designer":"","landscape_designer":"","shinkenchiku_url":""},{"id":5873,"title":"城南信用金庫 本店","architect":"佐藤武夫","year":1970.0,"address":"東京都品川区西五反田7-2-3","latitude":35.62438201904297,"longitude":139.71913146972656,"category":"金融機関","big_category":"企業施設","description":"","image_url":"","tags":"Ver1.70(2016年2月)の追加建築,2016年JIA25年賞 登録作品","prefecture":"東京","contractor":"","structural_designer":"","landscape_designer":"","shinkenchiku_url":""},{"id":5874,"title":"飯山市文化交流館 なちゅら","architect":"隈研吾","year":2015.0,"address":"長野県飯山市飯山1368","latitude":36.848968505859375,"longitude":138.359130859375,"category":"ホール・劇場","big_category":"文化施設","description":"","image_url":"","tags":"Ver1.70(2016年2月)の追加建築","prefecture":"長野","contractor":"","structural_designer":"","landscape_designer":"","shinkenchiku_url":""},{"id":5875,"title":"JUSANDI","architect":"團紀彦","year":2013.0,"address":"沖縄県石垣市桴海470","latitude":24.45612907409668,"longitude":124.19816589355469,"category":"ホテル","big_category":"宿泊","description":"","image_url":"","tags":"Ver1.70(2016年2月)の追加建築","prefecture":"沖縄","contractor":"","structural_designer":"","landscape_designer":"","shinkenchiku_url":""},{"id":5876,"title":"青稜中学校・高等学校","architect":"團紀彦","year":2014.0,"address":"東京都品川区二葉1-6-6","latitude":35.608673095703125,"longitude":139.72799682617188,"category":"学校","big_category":"教育","description":"","image_url":"","tags":"Ver1.70(2016年2月)の追加建築","prefecture":"東京","contractor":"","structural_designer":"","landscape_designer":"","shinkenchiku_url":""},{"id":5877,"title":"HOLON GINZA","architect":"團紀彦","year":2014.0,"address":"東京都中央区銀座4-10-1","latitude":35.67074203491211,"longitude":139.76754760742188,"category":"オフィスビル","big_category":"企業施設","description":"","image_url":"","tags":"Ver1.70(2016年2月)の追加建築","prefecture":"東京","contractor":"","structural_designer":"","landscape_designer":"","shinkenchiku_url":""},{"id":5878,"title":"ストラーダKNKビル","architect":"團紀彦","year":1991.0,"address":"東京都港区北青山3-5-17","latitude":35.665977478027344,"longitude":139.71270751953125,"category":"テナントビル/専門学校","big_category":"商業施設,教育","description":"","image_url":"","tags":"Ver1.70(2016年2月)の追加建築","prefecture":"東京","contractor":"","structural_designer":"","landscape_designer":"","shinkenchiku_url":""},{"id":5879,"title":"南大沢駅前交番","architect":"團紀彦","year":1993.0,"address":"東京都八王子市南大沢2-2","latitude":35.613277435302734,"longitude":139.38047790527344,"category":"警察・消防署","big_category":"公共施設","description":"","image_url":"","tags":"Ver1.70(2016年2月)の追加建築","prefecture":"東京","contractor":"","structural_designer":"","landscape_designer":"","shinkenchiku_url":""},{"id":5880,"title":"大都富士ガーデンホテル 旧ローソン東富士ゲストハウス","architect":"團紀彦","year":1994.0,"address":"静岡県駿東郡小山町須走395-1","latitude":35.355796813964844,"longitude":138.87368774414062,"category":"研修施設/ホテル","big_category":"教育,宿泊","description":"ローソンの研修施設からホテルに。一般宿泊可能。","image_url":"","tags":"Ver1.70(2016年2月)の追加建築","prefecture":"静岡","contractor":"","structural_designer":"","landscape_designer":"","shinkenchiku_url":""},{"id":5881,"title":"湘南信用金庫 逗子支店","architect":"團紀彦","year":2004.0,"address":"神奈川県逗子市逗子1-1-3","latitude":35.29770278930664,"longitude":139.5804443359375,"category":"金融機関","big_category":"企業施設","description":"","image_url":"","tags":"Ver1.70(2016年2月)の追加建築","prefecture":"神奈川","contractor":"","structural_designer":"","landscape_designer":"","shinkenchiku_url":""},{"id":5882,"title":"佐渡ボトリング工場 NISACO","architect":"團紀彦","year":2005.0,"address":"新潟県佐渡市多田960","latitude":37.91442108154297,"longitude":138.474609375,"category":"工場","big_category":"企業施設","description":"","image_url":"","tags":"Ver1.70(2016年2月)の追加建築,新建築2005年11月号","prefecture":"新潟","contractor":"","structural_designer":"","landscape_designer":"","shinkenchiku_url":""},{"id":5883,"title":"かがやき デイサービスセンター","architect":"團紀彦","year":2005.0,"address":"群馬県邑楽郡邑楽町篠塚3072-1","latitude":36.25075912475586,"longitude":139.43275451660156,"category":"養護施設","big_category":"医療施設","description":"","image_url":"","tags":"Ver1.70(2016年2月)の追加建築","prefecture":"群馬","contractor":"","structural_designer":"","landscape_designer":"","shinkenchiku_url":""},{"id":5884,"title":"HOLON 2","architect":"團紀彦","year":2009.0,"address":"東京都渋谷区神宮前4-14-10","latitude":35.66798782348633,"longitude":139.7096405029297,"category":"店舗","big_category":"商業施設","description":"","image_url":"","tags":"Ver1.70(2016年2月)の追加建築","prefecture":"東京","contractor":"","structural_designer":"","landscape_designer":"","shinkenchiku_url":""},{"id":5885,"title":"HOLON 3","architect":"團紀彦","year":2010.0,"address":"東京都渋谷区神宮前6-16","latitude":35.66542434692383,"longitude":139.703857421875,"category":"店舗/テナントビル","big_category":"商業施設,商業施設","description":"","image_url":"","tags":"Ver1.70(2016年2月)の追加建築","prefecture":"東京","contractor":"","structural_designer":"","landscape_designer":"","shinkenchiku_url":""},{"id":5886,"title":"ハヤマ ファニーハウス 旧湘南秋谷の家","architect":"吉村順三","year":1965.0,"address":"神奈川県横須賀市秋谷5296","latitude":35.24849319458008,"longitude":139.5900421142578,"category":"レストラン/住宅","big_category":"商業施設,住宅","description":"旧湘南秋谷の家をリノベーション。","image_url":"","tags":"Ver1.70(2016年2月)の追加建築","prefecture":"神奈川","contractor":"","structural_designer":"","landscape_designer":"","shinkenchiku_url":""},{"id":5887,"title":"S-HOUSEミュージアム","architect":"SANAA","year":1996.0,"address":"岡山県岡山市南区浦安南町445-8","latitude":34.59912109375,"longitude":133.92556762695312,"category":"ギャラリー/住宅","big_category":"ミュージアム,住宅","description":"開館は土日祝日のみ。SANAA設計のS-HOUSEを美術館に2016年オープン。","image_url":"","tags":"Ver1.70(2016年2月)の追加建築","prefecture":"岡山","contractor":"","structural_designer":"","landscape_designer":"","shinkenchiku_url":""},{"id":5888,"title":"JA埼玉ひびきの本店 ひびきのの風","architect":"大成建設","year":2014.0,"address":"埼玉県本庄市早稲田の杜1-14-1","latitude":36.21812438964844,"longitude":139.18197631835938,"category":"店舗/ホール・劇場/組合施設","big_category":"商業施設,文化施設,公共施設","description":"","image_url":"","tags":"Ver1.70(2016年2月)の追加建築","prefecture":"埼玉","contractor":"","structural_designer":"","landscape_designer":"","shinkenchiku_url":""},{"id":5889,"title":"川口市立アートギャラリー・アトリア","architect":"鹿島建設","year":2006.0,"address":"埼玉県川口市並木元町1-76","latitude":35.80707550048828,"longitude":139.7156982421875,"category":"ギャラリー","big_category":"ミュージアム","description":"","image_url":"","tags":"Ver1.70(2016年2月)の追加建築","prefecture":"埼玉","contractor":"","structural_designer":"","landscape_designer":"","shinkenchiku_url":""},{"id":5890,"title":"JR茨木駅東口駅前広場 いばらきスカイパレット","architect":"高松伸+ジェイアール西日本コンサルタンツ","year":2015.0,"address":"大阪府茨木市駅前1-2","latitude":34.815181732177734,"longitude":135.5627899169922,"category":"広場","big_category":"文化施設","description":"","image_url":"","tags":"Ver1.70(2016年2月)の追加建築","prefecture":"大阪","contractor":"","structural_designer":"","landscape_designer":"","shinkenchiku_url":""},{"id":5891,"title":"タキゲン本社ビル","architect":"高松伸","year":2014.0,"address":"東京都品川区西五反田1-33-8","latitude":35.623924255371094,"longitude":139.72166442871094,"category":"オフィスビル","big_category":"企業施設","description":"","image_url":"","tags":"Ver1.70(2016年2月)の追加建築","prefecture":"東京","contractor":"","structural_designer":"","landscape_designer":"","shinkenchiku_url":""},{"id":5892,"title":"四天王寺学園中学校","architect":"高松伸","year":2014.0,"address":"大阪府藤井寺市春日丘3-1-78","latitude":34.570735931396484,"longitude":135.591552734375,"category":"学校","big_category":"教育","description":"","image_url":"","tags":"Ver1.70(2016年2月)の追加建築","prefecture":"大阪","contractor":"","structural_designer":"","landscape_designer":"","shinkenchiku_url":""},{"id":5893,"title":"深田電機本社社屋","architect":"高松伸","year":2014.0,"address":"愛知県名古屋市東区赤塚町28","latitude":35.183387756347656,"longitude":136.9232177734375,"category":"オフィスビル","big_category":"企業施設","description":"","image_url":"","tags":"Ver1.70(2016年2月)の追加建築","prefecture":"愛知","contractor":"","structural_designer":"","landscape_designer":"","shinkenchiku_url":""},{"id":5894,"title":"三信ホール","architect":"六角鬼丈","year":1997.0,"address":"福岡県福岡市南区高宮5-17-4","latitude":33.564964294433594,"longitude":130.4149169921875,"category":"宗教施設/体育館","big_category":"宗教,レジャー施設","description":"","image_url":"","tags":"Ver1.70(2016年2月)の追加建築","prefecture":"福岡","contractor":"","structural_designer":"","landscape_designer":"","shinkenchiku_url":""},{"id":5895,"title":"大分県教育センター","architect":"塩塚隆生","year":2015.0,"address":"大分県大分市大字旦野原847-2","latitude":33.17388916015625,"longitude":131.6195831298828,"category":"公共施設","big_category":"公共施設","description":"築45年の研修施設の大規模改修","image_url":"","tags":"Ver1.70(2016年2月)の追加建築","prefecture":"大分","contractor":"","structural_designer":"","landscape_designer":"","shinkenchiku_url":""},{"id":5896,"title":"オーディオテクニカ本社","architect":"赤坂喜顕","year":2016.0,"address":"東京都町田市西成瀬2-46-1","latitude":35.54343795776367,"longitude":139.46971130371094,"category":"低層オフィス","big_category":"企業施設","description":"","image_url":"","tags":"新建築2016年3月号,Ver1.80(2016年5月)の追加建築,2018年日本建築学会 作品選奨","prefecture":"東京","contractor":"竹中工務店","structural_designer":"","landscape_designer":"","shinkenchiku_url":""},{"id":5897,"title":"ダイキン工業 テクノロジー・イノベーションセンター","architect":"日建設計+NTTファシリティーズ","year":2015.0,"address":"大阪府摂津市西一津屋1-1","latitude":34.75899887084961,"longitude":135.55795288085938,"category":"低層オフィス/研究施設","big_category":"企業施設,教育","description":"","image_url":"","tags":"新建築2016年3月号,Ver1.80(2016年5月)の追加建築","prefecture":"大阪","contractor":"竹中工務店","structural_designer":"","landscape_designer":"","shinkenchiku_url":""},{"id":5898,"title":"MIZKAN MUSEUM","architect":"NTTファシリティーズ","year":2015.0,"address":"愛知県半田市中村町2-6","latitude":34.893001556396484,"longitude":136.93423461914062,"category":"博物館","big_category":"ミュージアム","description":"事前予約制","image_url":"","tags":"新建築2016年3月号,Ver1.80(2016年5月)の追加建築,第26回AACA 優秀賞,2021年公共建築賞・特別賞","prefecture":"愛知","contractor":"竹中工務店","structural_designer":"","landscape_designer":"","shinkenchiku_url":""},{"id":5899,"title":"丘のまち交流館 bi.yell","architect":"小澤丈夫+宮城島崇人+菊池規雄","year":2015.0,"address":"北海道美瑛町本町1-5-8","latitude":43.59077835083008,"longitude":142.4637451171875,"category":"ギャラリー/カフェ/児童施設","big_category":"ミュージアム,商業施設,教育","description":"","image_url":"","tags":"新建築2016年3月号,Ver1.80(2016年5月)の追加建築","prefecture":"北海道","contractor":"","structural_designer":"","landscape_designer":"","shinkenchiku_url":""},{"id":5900,"title":"まちなか交流広場 ステージえんがわ","architect":"手塚建築研究所","year":2016.0,"address":"新潟県三条市元町11-63","latitude":37.63255310058594,"longitude":138.95465087890625,"category":"公民館・交流施設/レストラン","big_category":"公共施設,商業施設","description":"","image_url":"","tags":"新建築2016年7月号,Ver1.80(2016年5月)の追加建築","prefecture":"新潟","contractor":"","structural_designer":"","landscape_designer":"","shinkenchiku_url":""}]}