{"page":94,"total_pages":290,"items_per_page":50,"total_items":14467,"items":[{"id":4651,"title":"潟上市役所昭和庁舎／農村環境改善センター 旧昭和町庁舎","architect":"青島裕之","year":1994.0,"address":"秋田県潟上市昭和大久保堤の上1-3","latitude":39.869873046875,"longitude":140.06581115722656,"category":"庁舎","big_category":"公共施設","description":"","image_url":"","tags":"","prefecture":"秋田","contractor":"","structural_designer":"","landscape_designer":"","shinkenchiku_url":""},{"id":4652,"title":"潟上市昭和高齢者ふれあい館","architect":"青島裕之","year":null,"address":"秋田県潟上市昭和豊川竜毛古屋布 ","latitude":39.86436080932617,"longitude":140.07827758789062,"category":"福祉センター","big_category":"医療施設","description":"","image_url":"","tags":"","prefecture":"秋田","contractor":"","structural_designer":"","landscape_designer":"","shinkenchiku_url":""},{"id":4653,"title":"千畑湯治館サンアール","architect":"青島裕之","year":2004.0,"address":"秋田県仙北郡美郷町金沢東根字仏沢210-1","latitude":39.4334831237793,"longitude":140.61851501464844,"category":"温泉/ホテル","big_category":"宿泊,宿泊","description":"","image_url":"","tags":"","prefecture":"秋田","contractor":"","structural_designer":"","landscape_designer":"","shinkenchiku_url":""},{"id":4654,"title":"LABOTTO","architect":"青島裕之","year":2001.0,"address":"福島県郡山市並木2-1-1","latitude":37.41322326660156,"longitude":140.3619842529297,"category":"店舗","big_category":"商業施設","description":"","image_url":"","tags":"","prefecture":"福島","contractor":"","structural_designer":"","landscape_designer":"","shinkenchiku_url":""},{"id":4655,"title":"須川温泉 栗駒山荘","architect":"青島裕之","year":1998.0,"address":"秋田県雄勝郡東成瀬村椿川仁郷国有林 ‎栗駒山荘","latitude":38.980010986328125,"longitude":140.76748657226562,"category":"温泉/旅館","big_category":"宿泊,宿泊","description":"","image_url":"","tags":"","prefecture":"秋田","contractor":"","structural_designer":"","landscape_designer":"","shinkenchiku_url":""},{"id":4656,"title":"ウイングくらはし くらはし温水プール","architect":"青島裕之","year":2003.0,"address":"広島県呉市倉橋町ゴクラク550","latitude":34.10264587402344,"longitude":132.51168823242188,"category":"プール","big_category":"レジャー施設","description":"","image_url":"","tags":"","prefecture":"広島","contractor":"","structural_designer":"","landscape_designer":"","shinkenchiku_url":""},{"id":4657,"title":"かもがわ総合スポーツ公園 体育館 旧加茂川町民体育館","architect":"青島裕之","year":1995.0,"address":"岡山県加賀郡吉備中央町上田東2360","latitude":34.89638900756836,"longitude":133.8204345703125,"category":"体育館","big_category":"レジャー施設","description":"","image_url":"","tags":"","prefecture":"岡山","contractor":"鴻池組・蜂谷工業共同企業体","structural_designer":"","landscape_designer":"","shinkenchiku_url":""},{"id":4658,"title":"イタリア文化会館 東京","architect":"ガエ・アウレンティ","year":2005.0,"address":"東京都千代田区九段南2-1-30","latitude":35.692134857177734,"longitude":139.74642944335938,"category":"オフィスビル","big_category":"企業施設","description":"","image_url":"","tags":"","prefecture":"東京","contractor":"","structural_designer":"","landscape_designer":"","shinkenchiku_url":""},{"id":4659,"title":"福井駅前交番","architect":"F.A.D.S","year":2006.0,"address":"福井県福井市大手2-1","latitude":36.06282043457031,"longitude":136.2235107421875,"category":"警察・消防署","big_category":"公共施設","description":"","image_url":"","tags":"","prefecture":"福井","contractor":"","structural_designer":"","landscape_designer":"","shinkenchiku_url":""},{"id":4660,"title":"巣鴨信用金庫 中青木支店","architect":"エマニュエル・ムホー","year":2014.0,"address":"埼玉県川口市上青木1-1-1","latitude":35.820926666259766,"longitude":139.7177276611328,"category":"金融機関","big_category":"企業施設","description":"","image_url":"","tags":"","prefecture":"埼玉","contractor":"","structural_designer":"","landscape_designer":"","shinkenchiku_url":""},{"id":4661,"title":"十和田市市民交流プラザ","architect":"隈研吾","year":2014.0,"address":"青森県十和田市稲生町18-33","latitude":40.61369705200195,"longitude":141.21514892578125,"category":"公民館・交流施設","big_category":"公共施設","description":"","image_url":"","tags":"","prefecture":"青森","contractor":"","structural_designer":"","landscape_designer":"","shinkenchiku_url":""},{"id":4662,"title":"育良保育園","architect":"松島潤平","year":2014.0,"address":"長野県飯田市北方130","latitude":35.50966262817383,"longitude":137.8019256591797,"category":"幼稚園","big_category":"教育","description":"","image_url":"","tags":"2016年日本建築学会 作品選集新人賞,新建築2015年4月号","prefecture":"長野","contractor":"","structural_designer":"","landscape_designer":"","shinkenchiku_url":""},{"id":4663,"title":"嬉野市社会文化会館リバティ","architect":"SUEP.+佐々木信明","year":2014.0,"address":"佐賀県嬉野市塩田町大字五町田甲628","latitude":33.1304817199707,"longitude":130.061767578125,"category":"ホール・劇場","big_category":"文化施設","description":"","image_url":"","tags":"新建築2015年1月号","prefecture":"佐賀","contractor":"","structural_designer":"","landscape_designer":"","shinkenchiku_url":""},{"id":4664,"title":"嬉野市立塩田中学校","architect":"SUEP.+佐々木信明","year":2014.0,"address":"佐賀県嬉野市塩田町大字馬場下甲1801","latitude":33.13119125366211,"longitude":130.06259155273438,"category":"学校","big_category":"教育","description":"","image_url":"","tags":"新建築2015年1月号","prefecture":"佐賀","contractor":"","structural_designer":"","landscape_designer":"","shinkenchiku_url":""},{"id":4665,"title":"キッチンハウス 福岡店","architect":"窪田勝文","year":2014.0,"address":"福岡県福岡市博多区東平尾2-16-8","latitude":33.58757400512695,"longitude":130.45867919921875,"category":"店舗/低層オフィス","big_category":"商業施設,企業施設","description":"","image_url":"","tags":"新建築2015年3月号","prefecture":"福岡","contractor":"","structural_designer":"","landscape_designer":"","shinkenchiku_url":""},{"id":4666,"title":"草屋根 ラ・コリーナ近江八幡 メインショップ","architect":"藤森照信+中谷弘志","year":2014.0,"address":"滋賀県近江八幡市北之庄町615-1","latitude":35.148494720458984,"longitude":136.0919189453125,"category":"店舗/カフェ","big_category":"商業施設,商業施設","description":"2015年1月9日オープン予定。隣接地区に2016年、本社施設竣工予定。他カステラ店などの構想もある。","image_url":"","tags":"新建築2015年7月号","prefecture":"滋賀","contractor":"","structural_designer":"","landscape_designer":"","shinkenchiku_url":""},{"id":4667,"title":"空の森クリニック","architect":"手塚建築研究所","year":2014.0,"address":"沖縄県島尻郡八重瀬町字屋宜原229-1","latitude":26.164833068847656,"longitude":127.72392272949219,"category":"個人医院","big_category":"医療施設","description":"","image_url":"","tags":"2015年度JIA優秀建築賞,2019年日本建築学会 作品選奨,新建築2019年10月号","prefecture":"沖縄","contractor":"","structural_designer":"","landscape_designer":"","shinkenchiku_url":""},{"id":4668,"title":"後山山荘","architect":"前田圭介+藤井厚二","year":2013.0,"address":"広島県福山市鞆町後地1397","latitude":34.383670806884766,"longitude":133.37686157226562,"category":"和風住宅","big_category":"住宅","description":"藤井厚二設計の邸宅を前田圭介が再生。見学は毎月第2日曜日の10時〜15時。見学希望日の3ヶ月前の1日から、見学希望日の2週間前の日曜日までに要申し込み。また撮影許可も事前申し込み制。また、住所は医王寺のもの。その北隣にある。","image_url":"","tags":"","prefecture":"広島","contractor":"","structural_designer":"","landscape_designer":"","shinkenchiku_url":""},{"id":4669,"title":"松堂 神勝寺 寺務所","architect":"藤森照信","year":2014.0,"address":"広島県福山市沼隈町大字上山南91","latitude":34.42331314086914,"longitude":133.30953979492188,"category":"寺院","big_category":"宗教","description":"","image_url":"","tags":"新建築2014年11月号","prefecture":"広島","contractor":"","structural_designer":"構造設計舎","landscape_designer":"","shinkenchiku_url":"https://data.shinkenchiku.online/articles/SK_2014_11_100-0"},{"id":4670,"title":"京都国際ホテル","architect":"吉村順三","year":1961.0,"address":"京都府京都市中京区二条油小路町284","latitude":35.01346969604492,"longitude":135.7528076171875,"category":"ホテル","big_category":"宿泊","description":"取壊済。跡地にHOTEL THE MITSUI KYOTO","image_url":"","tags":"","prefecture":"京都","contractor":"","structural_designer":"","landscape_designer":"","shinkenchiku_url":""},{"id":4671,"title":"関東マツダ 目黒碑文谷店","architect":"谷尻誠","year":2014.0,"address":"東京都目黒区碑文谷5-14-22","latitude":35.621665954589844,"longitude":139.68191528320312,"category":"店舗","big_category":"商業施設","description":"","image_url":"","tags":"","prefecture":"東京","contractor":"","structural_designer":"","landscape_designer":"","shinkenchiku_url":""},{"id":4672,"title":"広尾の教会 21世紀キリスト教会広尾教会堂","architect":"安藤忠雄","year":2014.0,"address":"東京都渋谷区広尾5-9-7","latitude":35.64884567260742,"longitude":139.72137451171875,"category":"教会","big_category":"宗教","description":"日曜日の午前9時、午前11時、及び火曜日午後7時30分に見学可能。要事前予約。","image_url":"","tags":"新建築2015年1月号","prefecture":"東京","contractor":"鹿島建設","structural_designer":"","landscape_designer":"","shinkenchiku_url":""},{"id":4673,"title":"南相馬コアハウス 塚原公会堂","architect":"アトリエ・ワン","year":2014.0,"address":"福島県南相馬市小高区塚原沼ノ上65","latitude":37.57203674316406,"longitude":141.01943969726562,"category":"公民館・交流施設","big_category":"公共施設","description":"","image_url":"","tags":"新建築2015年1月号","prefecture":"福島","contractor":"中里工務店","structural_designer":"","landscape_designer":"","shinkenchiku_url":""},{"id":4674,"title":"美井戸神社","architect":"ドットアーキテクツ","year":2014.0,"address":"香川県小豆郡小豆島町坂手甲755","latitude":34.45880889892578,"longitude":134.3260040283203,"category":"ギャラリー","big_category":"ミュージアム","description":"","image_url":"","tags":"瀬戸内国際芸術祭,新建築2015年1月号","prefecture":"香川","contractor":"","structural_designer":"","landscape_designer":"","shinkenchiku_url":""},{"id":4675,"title":"東京国立博物館 黒田記念館","architect":"岡田信一郎+安井建築設計","year":1928.0,"address":"東京都台東区上野公園12-53","latitude":35.71890640258789,"longitude":139.77330017089844,"category":"博物館","big_category":"ミュージアム","description":"2014年に安井建築設計により改修","image_url":"","tags":"新建築2015年1月号","prefecture":"東京","contractor":"","structural_designer":"","landscape_designer":"","shinkenchiku_url":""},{"id":4676,"title":"ポールスター","architect":"剣持勇","year":1971.0,"address":"東京都新宿区西新宿2-2-1 鳩居堂 新宿店 京王プラザホテル45F","latitude":35.691986083984375,"longitude":139.6855010986328,"category":"バー・居酒屋","big_category":"商業施設","description":"京王プラザホテルのバー。2016年6月末を持って閉店。","image_url":"","tags":"","prefecture":"東京","contractor":"","structural_designer":"","landscape_designer":"","shinkenchiku_url":""},{"id":4677,"title":"金沢歌劇座 旧金沢市観光会館","architect":"日建設計+谷口吉郎","year":1961.0,"address":"石川県金沢市下本多町6-27","latitude":36.55747985839844,"longitude":136.6583251953125,"category":"ホール・劇場","big_category":"文化施設","description":"谷口吉郎監修との記載がある","image_url":"","tags":"第04回BCS賞 (1963)","prefecture":"石川","contractor":"","structural_designer":"","landscape_designer":"","shinkenchiku_url":""},{"id":4678,"title":"金沢市西町教育研修館 旧石川県繊維会館","architect":"谷口吉郎","year":1952.0,"address":"石川県金沢市西町三番丁16","latitude":36.56975555419922,"longitude":136.6560821533203,"category":"公共施設","big_category":"公共施設","description":"","image_url":"","tags":"登録有形文化財","prefecture":"石川","contractor":"","structural_designer":"","landscape_designer":"","shinkenchiku_url":""},{"id":4679,"title":"ヨコハマ創造都市センター 旧横浜アイランドタワー","architect":"槇文彦","year":2003.0,"address":"神奈川県横浜市中区本町6-50-1","latitude":35.45016098022461,"longitude":139.63514709472656,"category":"美術館","big_category":"ミュージアム","description":"","image_url":"","tags":"","prefecture":"神奈川","contractor":"","structural_designer":"","landscape_designer":"","shinkenchiku_url":""},{"id":4680,"title":"ホテルオークラ東京","architect":"谷口吉郎+小坂秀雄","year":1962.0,"address":"東京都港区虎ノ門2-10-4","latitude":35.66696548461914,"longitude":139.74435424804688,"category":"ホテル","big_category":"宿泊","description":"2015年9月に取り壊し、建て替え","image_url":"","tags":"","prefecture":"東京","contractor":"","structural_designer":"","landscape_designer":"","shinkenchiku_url":""},{"id":4681,"title":"キクノ本社ビル","architect":"松村正恒","year":1961.0,"address":"愛媛県松山市大手町1-8-8","latitude":33.83992385864258,"longitude":132.75608825683594,"category":"オフィスビル","big_category":"企業施設","description":"","image_url":"","tags":"","prefecture":"愛媛","contractor":"","structural_designer":"","landscape_designer":"","shinkenchiku_url":""},{"id":4682,"title":"鎌倉商工会議所会館","architect":"武基雄","year":1969.0,"address":"神奈川県鎌倉市御成町17-29","latitude":35.319854736328125,"longitude":139.54666137695312,"category":"組合施設","big_category":"公共施設","description":"","image_url":"","tags":"","prefecture":"神奈川","contractor":"","structural_designer":"","landscape_designer":"","shinkenchiku_url":""},{"id":4683,"title":"プラザミカドビル","architect":"鈴木エドワード+大江匡","year":1990.0,"address":"東京都港区赤坂2-14-5","latitude":35.67229080200195,"longitude":139.7377471923828,"category":"オフィスビル","big_category":"企業施設","description":"1990年に鈴木エドワード設計で竣工、2011年に大江匡設計でリニューアル","image_url":"","tags":"","prefecture":"東京","contractor":"","structural_designer":"","landscape_designer":"","shinkenchiku_url":""},{"id":4684,"title":"京都平安教会","architect":"山口文象","year":1974.0,"address":"京都府京都市左京区岩倉東五田町23","latitude":35.06462097167969,"longitude":135.78346252441406,"category":"教会","big_category":"宗教","description":"","image_url":"","tags":"","prefecture":"京都","contractor":"","structural_designer":"","landscape_designer":"","shinkenchiku_url":""},{"id":4685,"title":"一宮市小信中島公民館 旧墨会館","architect":"丹下健三","year":1957.0,"address":"愛知県一宮市小信中島南九反11-1","latitude":35.312992095947266,"longitude":136.7456817626953,"category":"公民館・交流施設","big_category":"公共施設","description":"2014年に改修され公民館となる。見学可能。隅々まで案内してくれます。","image_url":"","tags":"登録有形文化財","prefecture":"愛知","contractor":"","structural_designer":"","landscape_designer":"","shinkenchiku_url":""},{"id":4686,"title":"宮田屋珈琲美しが丘店","architect":"倉本龍彦","year":null,"address":"北海道札幌市清田区美しが丘2条1-6-7","latitude":42.98807144165039,"longitude":141.44754028320312,"category":"カフェ","big_category":"商業施設","description":"","image_url":"","tags":"","prefecture":"北海道","contractor":"","structural_designer":"","landscape_designer":"","shinkenchiku_url":""},{"id":4687,"title":"金沢菓子木型美術館・森八本店","architect":"水野一郎","year":2011.0,"address":"石川県金沢市大手町10-15","latitude":36.5694694519043,"longitude":136.66384887695312,"category":"店舗/ギャラリー","big_category":"商業施設,ミュージアム","description":"","image_url":"","tags":"","prefecture":"石川","contractor":"","structural_designer":"","landscape_designer":"","shinkenchiku_url":""},{"id":4688,"title":"箱根萬岳楼","architect":"池辺陽","year":1965.0,"address":"神奈川県足柄下郡箱根町仙石原1251","latitude":35.24991226196289,"longitude":139.0227813720703,"category":"旅館","big_category":"宿泊","description":"","image_url":"","tags":"","prefecture":"神奈川","contractor":"","structural_designer":"","landscape_designer":"","shinkenchiku_url":""},{"id":4689,"title":"内之浦宇宙空間観測所 旧東京大学鹿児島宇宙空間観測所","architect":"池辺陽","year":1964.0,"address":"鹿児島県肝属郡肝付町南方1791-13","latitude":31.251150131225586,"longitude":131.0761260986328,"category":"研究施設","big_category":"教育","description":"","image_url":"","tags":"DOCOMOMO","prefecture":"鹿児島","contractor":"","structural_designer":"","landscape_designer":"","shinkenchiku_url":""},{"id":4690,"title":"沼津市民文化センター","architect":"増沢洵","year":1983.0,"address":"静岡県沼津市御幸町15-1","latitude":35.095577239990234,"longitude":138.8667449951172,"category":"ホール・劇場","big_category":"文化施設","description":"","image_url":"","tags":"","prefecture":"静岡","contractor":"","structural_designer":"","landscape_designer":"","shinkenchiku_url":""},{"id":4691,"title":"十和田市立 新渡戸記念館","architect":"生田勉","year":1965.0,"address":"青森県十和田市東三番町24-1","latitude":40.61659240722656,"longitude":141.2195587158203,"category":"博物館","big_category":"ミュージアム","description":"","image_url":"","tags":"","prefecture":"青森","contractor":"","structural_designer":"","landscape_designer":"","shinkenchiku_url":""},{"id":4692,"title":"Umaki camp","architect":"ドットアーキテクツ","year":2013.0,"address":"香川県小豆郡小豆島町馬木甲967","latitude":34.474239349365234,"longitude":134.31991577148438,"category":"公民館・交流施設","big_category":"公共施設","description":"瀬戸内国際芸術祭2013","image_url":"","tags":"瀬戸内国際芸術祭","prefecture":"香川","contractor":"","structural_designer":"","landscape_designer":"","shinkenchiku_url":""},{"id":4693,"title":"ザ・キャピトルホテル東急","architect":"隈研吾","year":2010.0,"address":"東京都千代田区永田町2-10-3","latitude":35.674129486083984,"longitude":139.74114990234375,"category":"ホテル","big_category":"宿泊","description":"","image_url":"","tags":"","prefecture":"東京","contractor":"","structural_designer":"","landscape_designer":"","shinkenchiku_url":""},{"id":4694,"title":"小坂町立十和田小中学校","architect":"石井和紘","year":1996.0,"address":"秋田県鹿角郡小坂町十和田湖字大川岱83-1","latitude":40.455623626708984,"longitude":140.83921813964844,"category":"学校","big_category":"教育","description":"","image_url":"","tags":"","prefecture":"秋田","contractor":"","structural_designer":"","landscape_designer":"","shinkenchiku_url":""},{"id":4695,"title":"ゲイブルビル","architect":"石井和紘","year":1980.0,"address":"東京都港区芝大門1-3-5","latitude":35.65973663330078,"longitude":139.75482177734375,"category":"オフィスビル","big_category":"企業施設","description":"","image_url":"","tags":"","prefecture":"東京","contractor":"","structural_designer":"","landscape_designer":"","shinkenchiku_url":""},{"id":4696,"title":"東京都市大学 新建築学科棟 #4 旧武蔵工業大学 新建築学科棟 #4","architect":"岩崎堅一","year":2008.0,"address":"東京都世田谷区玉堤1-28-1","latitude":35.59899139404297,"longitude":139.65199279785156,"category":"大学","big_category":"教育","description":"","image_url":"","tags":"2008年日本建築学会 作品賞,2008年日本建築学会 作品選奨","prefecture":"東京","contractor":"","structural_designer":"","landscape_designer":"","shinkenchiku_url":""},{"id":4697,"title":"高知県立中芸高等学校格技場","architect":"山本長水","year":1995.0,"address":"高知県安芸郡田野町1203-4","latitude":33.433815002441406,"longitude":134.0110626220703,"category":"学校/体育館","big_category":"教育,レジャー施設","description":"","image_url":"","tags":"1999年日本建築学会 作品賞,2022年JIA25年賞 受賞作品","prefecture":"高知","contractor":"","structural_designer":"","landscape_designer":"","shinkenchiku_url":""},{"id":4698,"title":"東京都立東大和療育センター・ 東京都立北多摩看護専門学校","architect":"船越徹","year":1992.0,"address":"東京都東大和市桜が丘3-44-10","latitude":35.73200225830078,"longitude":139.4213409423828,"category":"病院/専門学校","big_category":"医療施設,教育","description":"","image_url":"","tags":"1993年日本建築学会 作品賞","prefecture":"東京","contractor":"","structural_designer":"","landscape_designer":"","shinkenchiku_url":""},{"id":4699,"title":"横須賀市立横須賀総合高校","architect":"船越徹","year":2002.0,"address":"神奈川県横須賀市久里浜6-1-1","latitude":35.22956466674805,"longitude":139.70895385742188,"category":"学校","big_category":"教育","description":"","image_url":"","tags":"2007年日本建築学会 作品選奨","prefecture":"神奈川","contractor":"","structural_designer":"","landscape_designer":"","shinkenchiku_url":""},{"id":4700,"title":"古河歴史博物館","architect":"吉田桂二","year":1990.0,"address":"茨城県古河市中央町3-10-56","latitude":36.191734313964844,"longitude":139.7008056640625,"category":"博物館","big_category":"ミュージアム","description":"","image_url":"","tags":"1992年日本建築学会 作品賞,1996年公共建築賞","prefecture":"茨城","contractor":"","structural_designer":"","landscape_designer":"","shinkenchiku_url":""}]}