{"page":181,"total_pages":290,"items_per_page":50,"total_items":14467,"items":[{"id":9001,"title":"アクアメディカルクリニック","architect":"坂本昭","year":2010.0,"address":"東京都江東区亀戸3-14-4","latitude":35.70437240600586,"longitude":139.81968688964844,"category":"個人医院","description":"","image_url":""},{"id":9002,"title":"Nowhere but Sajima","architect":"吉村靖孝","year":2009.0,"address":"神奈川県横須賀市佐島3-10-8","latitude":35.22602462768555,"longitude":139.60353088378906,"category":"ホテル/住宅","description":"貸別荘として宿泊可能","image_url":""},{"id":9003,"title":"Nowhere but Hayama","architect":"吉村靖孝","year":2009.0,"address":"神奈川県三浦郡葉山町一色2112","latitude":35.26246643066406,"longitude":139.5782012939453,"category":"ホテル/住宅/古民家","description":"古民家の改修。貸別荘として宿泊可能","image_url":""},{"id":9004,"title":"シャノアール研修センター","architect":"益子義弘+安宅研太郎","year":2008.0,"address":"千葉県市川市塩浜2-14-2","latitude":35.66651916503906,"longitude":139.92584228515625,"category":"研修施設","description":"","image_url":""},{"id":9005,"title":"仙石原の山荘 箱根仙石原山荘","architect":"益子義弘","year":1986.0,"address":"神奈川県足柄下郡箱根町仙石原1245-288","latitude":35.245567321777344,"longitude":138.9985809326172,"category":"ホテル","description":"くらしの友会員専用の保養所施設","image_url":""},{"id":9006,"title":"ラボット仙台 仙台の家","architect":"益子義弘","year":2007.0,"address":"宮城県仙台市青葉区南吉成1-16-1","latitude":38.28757095336914,"longitude":140.82015991210938,"category":"住宅","description":"SIMOKU住宅展示場 仙台","image_url":""},{"id":9007,"title":"HASE-BLDG.4 大須シネマ","architect":"シーラカンスアンドアソシエイツ","year":2018.0,"address":"愛知県名古屋市中区大須3-27-12","latitude":35.1591911315918,"longitude":136.90394592285156,"category":"ホール・劇場/低層オフィス","description":"現在は映画館大須シネマとして使われている","image_url":""},{"id":9008,"title":"東洋学園 児童部","architect":"シーラカンスアンドアソシエイツ","year":2018.0,"address":"福島県いわき市内郷宮町峰根65-189","latitude":37.052215576171875,"longitude":140.82745361328125,"category":"養護施設","description":"","image_url":""},{"id":9009,"title":"スペース23","architect":"シーラカンスアンドアソシエイツ","year":2017.0,"address":"東京都世田谷区中町2-17-23","latitude":35.6109619140625,"longitude":139.64463806152344,"category":"ギャラリー","description":"","image_url":""},{"id":9010,"title":"市が洞保育園・市が洞児童館","architect":"シーラカンスアンドアソシエイツ","year":2014.0,"address":"愛知県長久手市市が洞1-401","latitude":35.16563034057617,"longitude":137.02960205078125,"category":"幼稚園","description":"","image_url":""},{"id":9011,"title":"相模女子大学 体育館","architect":"日本設計","year":2007.0,"address":"神奈川県相模原市南区文京2-1-1","latitude":35.534751892089844,"longitude":139.42723083496094,"category":"大学/体育館","description":"","image_url":""},{"id":9012,"title":"代々木ゼミナール本部校 代ゼミタワーオベリスク","architect":"大成建設","year":2008.0,"address":"東京都渋谷区代々木2-25-7","latitude":35.68555450439453,"longitude":139.69866943359375,"category":"オフィスビル/寮/専門学校","description":"","image_url":""},{"id":9013,"title":"虎ノ門タワーズ オフィス","architect":"鹿島建設","year":2006.0,"address":"東京都港区虎ノ門4-1-28","latitude":35.66606140136719,"longitude":139.743896484375,"category":"オフィスビル","description":"","image_url":""},{"id":9014,"title":"黒松内中学校 エコ改修","architect":"アトリエブンク","year":2007.0,"address":"北海道寿都郡黒松内町字旭野48-1","latitude":42.67319869995117,"longitude":140.2996368408203,"category":"学校","description":"1978年竣工の校舎を改修","image_url":""},{"id":9015,"title":"総合地球環境学研究所","architect":"日建設計","year":2005.0,"address":"京都府京都市北区上賀茂本山457-4","latitude":35.072845458984375,"longitude":135.7643585205078,"category":"研究施設","description":"","image_url":""},{"id":9016,"title":"egota house A","architect":"坂本一成","year":2004.0,"address":"東京都中野区江古田4-30-7","latitude":35.72433090209961,"longitude":139.66200256347656,"category":"集合住宅","description":"","image_url":""},{"id":9017,"title":"京都市本能特別養護老人ホーム・京都市立堀川高等学校本能学舎","architect":"安井建築設計","year":2005.0,"address":"京都府京都市中京区元本能寺南町346","latitude":35.005958557128906,"longitude":135.7540283203125,"category":"学校/養護施設","description":"","image_url":""},{"id":9018,"title":"ROKI グローバル本社","architect":"久米設計","year":2006.0,"address":"静岡県浜松市天竜区二俣町二俣2396","latitude":34.85675811767578,"longitude":137.8209686279297,"category":"低層オフィス","description":"","image_url":""},{"id":9019,"title":"環境共生住宅ハーモニー団地","architect":"松永安光","year":2007.0,"address":"鹿児島県南さつま市加世田ハーモニー","latitude":31.404157638549805,"longitude":130.323486328125,"category":"集合住宅","description":"","image_url":""},{"id":9020,"title":"つくば市桜南児童館","architect":"松永安光","year":1985.0,"address":"茨城県つくば市並木4-7-3","latitude":36.061492919921875,"longitude":140.14585876464844,"category":"児童施設","description":"","image_url":""},{"id":9021,"title":"環境共生ラメール中名団地","architect":"松永安光","year":2007.0,"address":"鹿児島県鹿児島市喜入中名町1000-62","latitude":31.395402908325195,"longitude":130.53533935546875,"category":"集合住宅","description":"","image_url":""},{"id":9022,"title":"マブチモーター本社棟","architect":"日本設計","year":2004.0,"address":"千葉県松戸市松飛台430","latitude":35.77898406982422,"longitude":139.9593963623047,"category":"低層オフィス","description":"","image_url":""},{"id":9023,"title":"日本工業倶楽部会館・三菱UFJ信託銀行本店ビル","architect":"三菱地所","year":2003.0,"address":"東京都千代田区丸の内1-4-5","latitude":35.68365478515625,"longitude":139.7646026611328,"category":"オフィスビル","description":"","image_url":""},{"id":9024,"title":"時事通信ビル","architect":"鹿島建設","year":2003.0,"address":"東京都中央区銀座5-15-9","latitude":35.668060302734375,"longitude":139.76730346679688,"category":"オフィスビル","description":"","image_url":""},{"id":9025,"title":"昭和町立押原小学校","architect":"久米設計","year":2004.0,"address":"山梨県中巨摩郡昭和町押越885","latitude":35.62974166870117,"longitude":138.53497314453125,"category":"学校","description":"","image_url":""},{"id":9026,"title":"ホリデービレッジ","architect":"木津潤平","year":2019.0,"address":"神奈川県茅ヶ崎市円蔵1-19-46","latitude":35.345298767089844,"longitude":139.41110229492188,"category":"カフェ/公民館・交流施設","description":"","image_url":""},{"id":9027,"title":"ゲストハウス ソイ","architect":"木津潤平","year":2014.0,"address":"京都府京都市東山区下馬町509-2","latitude":34.991722106933594,"longitude":135.77761840820312,"category":"ホステル","description":"","image_url":""},{"id":9028,"title":"行燈旅館","architect":"入江正之","year":2003.0,"address":"東京都台東区日本堤2-34-10","latitude":35.72828674316406,"longitude":139.7955322265625,"category":"ホテル","description":"","image_url":""},{"id":9029,"title":"慈愛会 奄美病院","architect":"日建設計","year":2003.0,"address":"鹿児島県奄美市名瀬浜里町170","latitude":28.39699935913086,"longitude":129.4722442626953,"category":"病院","description":"","image_url":""},{"id":9030,"title":"山口県立きららスポーツ交流公園多目的ドーム きらら元気ドーム","architect":"日本設計","year":2002.0,"address":"山口県山口市阿知須","latitude":34.00472640991211,"longitude":131.3710174560547,"category":"スタジアム","description":"","image_url":""},{"id":9031,"title":"SME六番町ビル","architect":"大成建設","year":2001.0,"address":"東京都千代田区六番町4-5","latitude":35.68882369995117,"longitude":139.7348175048828,"category":"オフィスビル","description":"","image_url":""},{"id":9032,"title":"あべのHoop","architect":"竹中工務店","year":2000.0,"address":"大阪府大阪市阿倍野区阿倍野筋1-2-30","latitude":34.64524841308594,"longitude":135.51370239257812,"category":"モール","description":"","image_url":""},{"id":9033,"title":"獨協中学・高等学校","architect":"竹中工務店","year":1998.0,"address":"東京都文京区関口3-8-1","latitude":35.71360397338867,"longitude":139.72731018066406,"category":"学校","description":"","image_url":""},{"id":9034,"title":"SME白金台オフィス","architect":"アーキテクトファイブ","year":1996.0,"address":"東京都港区白金台5-12-7","latitude":35.639705657958984,"longitude":139.7222442626953,"category":"オフィスビル","description":"","image_url":""},{"id":9035,"title":"スクウェア・エニックス初台ビル","architect":"日建設計","year":1996.0,"address":"東京都渋谷区代々木4-31-8","latitude":35.68294143676758,"longitude":139.68963623046875,"category":"オフィスビル","description":"","image_url":""},{"id":9036,"title":"大阪ガス実験集合住宅 NEXT21","architect":"内田祥哉+近角真一","year":1993.0,"address":"大阪府大阪市天王寺区清水谷町6-16","latitude":34.67483901977539,"longitude":135.52171325683594,"category":"集合住宅","description":"設計クレジットは大阪ガスNEXT21建設委員会。委員長として内田祥哉、副委員長として巽和夫。委員として深尾精一、高田光雄、近角真一、高間三郎、遠藤彰三、千藤雅弘。統括として内田祥哉、近角真一。幾度かの改修を経て現存する住戸としては以下\n202-暖快の家/2007年/URサポート 川村眞次+遠藤剛生\n301-ファクター4の家/2007年/立花直美+大阪ガスKBI計画・設計事務所\n302・303-自在の家<住戸>を超える住まい/2020年/設計組織ADH\n304-住み継ぎの家/2011年/NEXT21次世代住環境小委員会+アトリエCK+空間計画\n305-余白に棲む家/2013年/竹原義二\n402-すこやかな家/1996年/吉村篤一\n403-しなやかな家/2013年/近角よう子\n404-4G HOUSE/2014年/NEXT21コンペ住戸基本設計研究会+岩村アトリエ\n405-次世代<家族>の家/2002年/近角よう子\n501-プラスワンの家/2014年/NEXT21コンペ住戸基本設計研究会+KBI計画・設計事務所\n502-ホームパーティーの家/1993年/塚口明洋\n503-風香る舎/2020年/三澤文子\n504-安らぎの家/1993年/吉村篤一\n601-\"き\"づきの家/2013年/大阪ガス住宅設備+KBI計画・設計事務所\n603-\"き\"がわりの家/2002年/内田祥哉+こうだ建築設計事務所\n605-DINKS APARTMENT/1993年/マルコ・ピーバ＋KBI＋根岸一之","image_url":""},{"id":9037,"title":"イナコスの橋","architect":"川口衞+永瀬克己","year":1994.0,"address":"大分県別府市南立石二区4548","latitude":33.29262924194336,"longitude":131.47451782226562,"category":"橋","description":"","image_url":""},{"id":9038,"title":"サレジオ小学校・中学校","architect":"藤木隆男","year":1993.0,"address":"東京都小平市上水南町4-7-1","latitude":35.709041595458984,"longitude":139.49049377441406,"category":"学校","description":"","image_url":""},{"id":9039,"title":"吉川油脂寄宿舎","architect":"野田俊太郎","year":1994.0,"address":"栃木県佐野市飛駒町3845-3","latitude":36.45455551147461,"longitude":139.4624786376953,"category":"寮","description":"","image_url":""},{"id":9040,"title":"もやい住宅 Mポート","architect":"延藤安弘+松下隆太+梅田彰","year":1992.0,"address":"熊本県熊本市津浦町13-93","latitude":32.821651458740234,"longitude":130.71151733398438,"category":"集合住宅","description":"","image_url":""},{"id":9041,"title":"TCC Therapy Park","architect":"小笠原岳+金子尚志","year":2019.0,"address":"滋賀県栗東市六地蔵31-6","latitude":35.019386291503906,"longitude":136.033447265625,"category":"体験施設/スポーツ施設","description":"","image_url":""},{"id":9042,"title":"太宰府市総合体育館 とびうめアリーナ","architect":"梓設計","year":2016.0,"address":"福岡県太宰府市大字向佐野21-2","latitude":33.513004302978516,"longitude":130.50152587890625,"category":"体育館","description":"","image_url":""},{"id":9043,"title":"ナインアワーズ浅草","architect":"平田晃久","year":2018.0,"address":"東京都台東区浅草2-6-15","latitude":35.7144660949707,"longitude":139.7939453125,"category":"ホテル","description":"","image_url":""},{"id":9044,"title":"和泉の門 ラポルタイズミ","architect":"梵寿綱","year":1990.0,"address":"東京都杉並区和泉1-4-8","latitude":35.672019958496094,"longitude":139.656982421875,"category":"集合住宅","description":"Art Complex07","image_url":""},{"id":9045,"title":"舞都和亜:心の響き マインド和亜ビル","architect":"梵寿綱","year":1992.0,"address":"東京都杉並区和泉2-27-27","latitude":35.67333984375,"longitude":139.65560913085938,"category":"集合住宅/カフェ/店舗","description":"1階部分にカフェ、コンビニ。Art Complex10","image_url":""},{"id":9046,"title":"ヴェッセル:輝く器 東商ビル","architect":"梵寿綱","year":1990.0,"address":"東京都豊島区南池袋2-31-3","latitude":35.72700119018555,"longitude":139.7157440185547,"category":"テナントビル","description":"Art Complex08","image_url":""},{"id":9047,"title":"斐禮祈:賢者の石 ルボワ平喜南池袋","architect":"梵寿綱","year":1979.0,"address":"東京都豊島区南池袋2-29-16","latitude":35.72749710083008,"longitude":139.71575927734375,"category":"集合住宅/バー・居酒屋","description":"1階が居酒屋、酒屋。Art Complex03","image_url":""},{"id":9048,"title":"プティ・エタン メゾン・ド・ブラン池袋","architect":"梵寿綱","year":1986.0,"address":"東京都豊島区池袋3-51-5","latitude":35.73661422729492,"longitude":139.70628356933594,"category":"集合住宅","description":"具象彫刻04","image_url":""},{"id":9049,"title":"無量寿舞:生命潮流 向台老人ホーム","architect":"梵寿綱","year":1985.0,"address":"東京都東大和市芋窪3-1638-2","latitude":35.7529296875,"longitude":139.41525268554688,"category":"養護施設","description":"Art Complex05","image_url":""},{"id":9050,"title":"秘羅禧:鎮守の杜 ルボワ平喜","architect":"梵寿綱","year":1977.0,"address":"東京都板橋区高島平1-76-14","latitude":35.78620529174805,"longitude":139.671142578125,"category":"集合住宅","description":"Art Complex02","image_url":""}]}