{"page":217,"total_pages":290,"items_per_page":50,"total_items":14467,"items":[{"id":10801,"title":"広島県民共済本社","architect":"北村彰朗","year":1997.0,"address":"広島県広島市東区光が丘14-10","latitude":34.40213394165039,"longitude":132.47787475585938,"category":"金融機関","big_category":"企業施設","description":"","image_url":"","tags":"Ver4.10(2021年10月)の追加建築","prefecture":"広島","contractor":"","structural_designer":"","landscape_designer":"","shinkenchiku_url":""},{"id":10802,"title":"唯信寺 ホスピタルホールパルティア","architect":"沖本初","year":2009.0,"address":"広島県広島市中区舟入南3-8-22","latitude":34.37785720825195,"longitude":132.43658447265625,"category":"寺院","big_category":"宗教","description":"","image_url":"","tags":"Ver4.10(2021年10月)の追加建築","prefecture":"広島","contractor":"","structural_designer":"","landscape_designer":"","shinkenchiku_url":""},{"id":10803,"title":"平和の時計塔","architect":"大旗正二","year":1967.0,"address":"広島県広島市中区中島町1","latitude":34.3953971862793,"longitude":132.45236206054688,"category":"オブジェ","big_category":"ミュージアム","description":"","image_url":"","tags":"Ver4.10(2021年10月)の追加建築","prefecture":"広島","contractor":"","structural_designer":"","landscape_designer":"","shinkenchiku_url":""},{"id":10804,"title":"原民喜詩碑","architect":"谷口吉郎","year":1951.0,"address":"広島県広島市中区大手町1-6-18","latitude":34.3951301574707,"longitude":132.45408630371094,"category":"オブジェ","big_category":"ミュージアム","description":"","image_url":"","tags":"Ver4.10(2021年10月)の追加建築","prefecture":"広島","contractor":"","structural_designer":"","landscape_designer":"","shinkenchiku_url":""},{"id":10805,"title":"広島平和記念公園 トイレ","architect":"丹下憲孝","year":2016.0,"address":"広島県広島市中区中島町1","latitude":34.3949089050293,"longitude":132.45401000976562,"category":"トイレ","big_category":"公共施設","description":"","image_url":"","tags":"Ver4.10(2021年10月)の追加建築","prefecture":"広島","contractor":"","structural_designer":"","landscape_designer":"","shinkenchiku_url":""},{"id":10806,"title":"ミグランス 橿原市役所分庁舎","architect":"梓設計","year":2018.0,"address":"奈良県橿原市内膳町1-1-60","latitude":34.51136016845703,"longitude":135.79248046875,"category":"庁舎/ホテル","big_category":"公共施設,宿泊","description":"","image_url":"","tags":"Ver4.10(2021年10月)の追加建築","prefecture":"奈良","contractor":"大林組","structural_designer":"","landscape_designer":"","shinkenchiku_url":""},{"id":10807,"title":"聖ラファエル教会","architect":"レーモンド設計事務所","year":1997.0,"address":"奈良県奈良市高畑町1096","latitude":34.67888259887695,"longitude":135.83355712890625,"category":"教会","big_category":"宗教","description":"","image_url":"","tags":"Ver4.10(2021年10月)の追加建築","prefecture":"奈良","contractor":"","structural_designer":"","landscape_designer":"","shinkenchiku_url":""},{"id":10808,"title":"袋町小学校平和資料館 旧袋町尋常高等小学校校舎","architect":"広島市営繕課","year":1937.0,"address":"広島県広島市中区袋町6-36","latitude":34.391536712646484,"longitude":132.458251953125,"category":"博物館/学校","big_category":"ミュージアム,教育","description":"被爆校舎1階・地階の一部保存","image_url":"","tags":"Ver4.10(2021年10月)の追加建築","prefecture":"広島","contractor":"","structural_designer":"","landscape_designer":"","shinkenchiku_url":""},{"id":10809,"title":"奈良学園中学校･高等学校","architect":"鹿島建設+福本設計","year":2010.0,"address":"奈良県大和郡山市山田町430","latitude":34.63438034057617,"longitude":135.73680114746094,"category":"学校","big_category":"教育","description":"2010年日本建築学会教育賞、第2回キッズデザイン賞、第44回SDA賞","image_url":"","tags":"Ver4.10(2021年10月)の追加建築","prefecture":"奈良","contractor":"","structural_designer":"","landscape_designer":"","shinkenchiku_url":""},{"id":10810,"title":"アイビス千駄ヶ谷","architect":"小室舞","year":2021.0,"address":"東京都渋谷区千駄ヶ谷1-7-17","latitude":35.67814254760742,"longitude":139.71067810058594,"category":"テナントビル/住宅","big_category":"商業施設,住宅","description":"","image_url":"","tags":"Ver4.10(2021年10月)の追加建築","prefecture":"東京","contractor":"大原工務所","structural_designer":"","landscape_designer":"","shinkenchiku_url":""},{"id":10811,"title":"シルバービルディング","architect":"葉祥栄","year":1981.0,"address":"福岡県筑紫野市針摺西1-7","latitude":33.48502731323242,"longitude":130.53184509277344,"category":"テナントビル","big_category":"商業施設","description":"","image_url":"","tags":"Ver4.10(2021年10月)の追加建築","prefecture":"福岡","contractor":"","structural_designer":"","landscape_designer":"","shinkenchiku_url":""},{"id":10812,"title":"清水ヶ丘高等学校 多目的教育棟","architect":"高橋志保彦","year":1998.0,"address":"広島県呉市青山町2-1","latitude":34.24056625366211,"longitude":132.56719970703125,"category":"学校","big_category":"教育","description":"","image_url":"","tags":"Ver4.10(2021年10月)の追加建築","prefecture":"広島","contractor":"","structural_designer":"","landscape_designer":"","shinkenchiku_url":""},{"id":10813,"title":"デンファレ コマツ","architect":"岩本秀三","year":1998.0,"address":"広島県呉市本通3-1-16","latitude":34.24473571777344,"longitude":132.56605529785156,"category":"オフィスビル","big_category":"企業施設","description":"","image_url":"","tags":"Ver4.10(2021年10月)の追加建築","prefecture":"広島","contractor":"","structural_designer":"","landscape_designer":"","shinkenchiku_url":""},{"id":10814,"title":"三菱日立パワーシステムズ呉工場厚生棟","architect":"鹿島建設","year":2001.0,"address":"広島県呉市宝町2-55","latitude":34.24483871459961,"longitude":132.55633544921875,"category":"寮","big_category":"住宅","description":"","image_url":"","tags":"Ver4.10(2021年10月)の追加建築","prefecture":"広島","contractor":"","structural_designer":"","landscape_designer":"","shinkenchiku_url":""},{"id":10815,"title":"熊平製作所本館","architect":"鹿島建設","year":2016.0,"address":"広島県広島市南区宇品東2-1-42","latitude":34.3663215637207,"longitude":132.4703826904297,"category":"低層オフィス","big_category":"企業施設","description":"","image_url":"","tags":"Ver4.10(2021年10月)の追加建築","prefecture":"広島","contractor":"","structural_designer":"","landscape_designer":"","shinkenchiku_url":""},{"id":10816,"title":"トヨタカローラ広島 本社","architect":"鹿島建設","year":2014.0,"address":"広島県広島市西区庚午中1-18-13","latitude":34.383785247802734,"longitude":132.4153289794922,"category":"低層オフィス/工場","big_category":"企業施設,企業施設","description":"","image_url":"","tags":"Ver4.10(2021年10月)の追加建築","prefecture":"広島","contractor":"","structural_designer":"","landscape_designer":"","shinkenchiku_url":""},{"id":10817,"title":"中国新聞広島工場","architect":"鹿島建設","year":2005.0,"address":"広島県廿日市市大野387-3","latitude":34.30754089355469,"longitude":132.2902374267578,"category":"工場","big_category":"企業施設","description":"","image_url":"","tags":"Ver4.10(2021年10月)の追加建築","prefecture":"広島","contractor":"","structural_designer":"","landscape_designer":"","shinkenchiku_url":""},{"id":10818,"title":"ちゅーピーパーク  メディアプラザ","architect":"鹿島建設","year":2005.0,"address":"広島県廿日市市大野387-3","latitude":34.30666732788086,"longitude":132.29092407226562,"category":"体験施設","big_category":"レジャー施設","description":"","image_url":"","tags":"Ver4.10(2021年10月)の追加建築","prefecture":"広島","contractor":"","structural_designer":"","landscape_designer":"","shinkenchiku_url":""},{"id":10819,"title":"マグナムマリンハーバー吉浦 広島クラブハウス","architect":"沖本初","year":2003.0,"address":"広島県呉市吉浦新町1-5-1","latitude":34.25600814819336,"longitude":132.52732849121094,"category":"クラブハウス/港","big_category":"レジャー施設,インフラ","description":"","image_url":"","tags":"Ver4.10(2021年10月)の追加建築","prefecture":"広島","contractor":"","structural_designer":"","landscape_designer":"","shinkenchiku_url":""},{"id":10820,"title":"蜜屋本舗","architect":"宮森洋一郎","year":2005.0,"address":"広島県呉市中通3-5-10","latitude":34.24592208862305,"longitude":132.56643676757812,"category":"店舗","big_category":"商業施設","description":"","image_url":"","tags":"Ver4.10(2021年10月)の追加建築","prefecture":"広島","contractor":"","structural_designer":"","landscape_designer":"","shinkenchiku_url":""},{"id":10821,"title":"山口サビエル記念聖堂","architect":"ルイジ・レオニ+コンスタンチノ・ルッジェリ","year":1998.0,"address":"山口県山口市亀山町4-1","latitude":34.17905044555664,"longitude":131.47308349609375,"category":"教会","big_category":"宗教","description":"","image_url":"","tags":"Ver4.10(2021年10月)の追加建築","prefecture":"山口","contractor":"","structural_designer":"","landscape_designer":"","shinkenchiku_url":""},{"id":10822,"title":"猿猴川アートプロムナード","architect":"佐々木葉二","year":1997.0,"address":"広島県広島市南区段原4","latitude":34.3897705078125,"longitude":132.47946166992188,"category":"都市計画/公園","big_category":"公共施設,レジャー施設","description":"","image_url":"","tags":"Ver4.10(2021年10月)の追加建築","prefecture":"広島","contractor":"","structural_designer":"","landscape_designer":"","shinkenchiku_url":""},{"id":10823,"title":"平和橋","architect":"岸和郎","year":2002.0,"address":"広島県広島市南区猿猴川","latitude":34.3891716003418,"longitude":132.48171997070312,"category":"橋","big_category":"インフラ","description":"","image_url":"","tags":"Ver4.10(2021年10月)の追加建築","prefecture":"広島","contractor":"","structural_designer":"","landscape_designer":"","shinkenchiku_url":""},{"id":10824,"title":"ヤマモトロックマシン第一工場","architect":"不明","year":1934.0,"address":"広島県庄原市東城町東城字下町6-3","latitude":34.8948860168457,"longitude":133.27317810058594,"category":"工場","big_category":"企業施設","description":"","image_url":"","tags":"登録有形文化財,Ver4.10(2021年10月)の追加建築","prefecture":"広島","contractor":"","structural_designer":"","landscape_designer":"","shinkenchiku_url":""},{"id":10825,"title":"エリザベト音楽大学 本部棟","architect":"日建設計","year":1982.0,"address":"広島県広島市中区幟町4-15","latitude":34.39520263671875,"longitude":132.4679412841797,"category":"大学","big_category":"教育","description":"","image_url":"","tags":"Ver4.10(2021年10月)の追加建築","prefecture":"広島","contractor":"","structural_designer":"","landscape_designer":"","shinkenchiku_url":""},{"id":10826,"title":"コミュニティほっとスペースぽんぽん","architect":"ラーバン","year":2008.0,"address":"広島県広島市安佐南区川内6-28-15","latitude":34.470943450927734,"longitude":132.48892211914062,"category":"カフェ/福祉センター","big_category":"商業施設,医療施設","description":"サイトによって竣工年の記述に差があるが広島県の記述を採用した","image_url":"","tags":"Ver4.10(2021年10月)の追加建築","prefecture":"広島","contractor":"","structural_designer":"","landscape_designer":"","shinkenchiku_url":""},{"id":10827,"title":"北広島町役場","architect":"NSP設計","year":2001.0,"address":"広島県山県郡北広島町有田1234","latitude":34.67461395263672,"longitude":132.53839111328125,"category":"庁舎","big_category":"公共施設","description":"","image_url":"","tags":"Ver4.10(2021年10月)の追加建築","prefecture":"広島","contractor":"","structural_designer":"","landscape_designer":"","shinkenchiku_url":""},{"id":10828,"title":"エリザベト音楽大学 新3号館","architect":"清水建設","year":2016.0,"address":"広島県広島市中区幟町4-15","latitude":34.39521789550781,"longitude":132.46824645996094,"category":"大学","big_category":"教育","description":"","image_url":"","tags":"Ver4.10(2021年10月)の追加建築","prefecture":"広島","contractor":"","structural_designer":"","landscape_designer":"","shinkenchiku_url":""},{"id":10829,"title":"エリザベト音楽大学 1号館 セシリアホール","architect":"日建設計","year":1979.0,"address":"広島県広島市中区幟町4-15","latitude":34.39536666870117,"longitude":132.46728515625,"category":"大学/ホール・劇場","big_category":"教育,文化施設","description":"","image_url":"","tags":"Ver4.10(2021年10月)の追加建築","prefecture":"広島","contractor":"","structural_designer":"","landscape_designer":"","shinkenchiku_url":""},{"id":10830,"title":"三原市中央公民館","architect":"岡田新一","year":1982.0,"address":"広島県三原市円一町2-3-1","latitude":34.3952522277832,"longitude":133.07810974121094,"category":"公民館・交流施設","big_category":"公共施設","description":"","image_url":"","tags":"Ver4.10(2021年10月)の追加建築","prefecture":"広島","contractor":"","structural_designer":"","landscape_designer":"","shinkenchiku_url":""},{"id":10831,"title":"亀川病院","architect":"黒川紀章","year":1980.0,"address":"広島県福山市神辺町下御領682-1","latitude":34.56470489501953,"longitude":133.3986358642578,"category":"病院","big_category":"医療施設","description":"","image_url":"","tags":"Ver4.10(2021年10月)の追加建築","prefecture":"広島","contractor":"","structural_designer":"","landscape_designer":"","shinkenchiku_url":""},{"id":10832,"title":"ハウス・バーンフリート戸坂","architect":"CAF垂井俊郎建築設計事務所","year":2007.0,"address":"広島県広島市東区戸坂数甲2-3-4","latitude":34.43230056762695,"longitude":132.49290466308594,"category":"集合住宅","big_category":"住宅","description":"ひろしま建築文化賞","image_url":"","tags":"Ver4.10(2021年10月)の追加建築","prefecture":"広島","contractor":"","structural_designer":"","landscape_designer":"","shinkenchiku_url":""},{"id":10833,"title":"ケゼットハウス","architect":"山下和正","year":1978.0,"address":"東京都渋谷区宇田川町30-2","latitude":35.660640716552734,"longitude":139.6981658935547,"category":"テナントビル","big_category":"商業施設","description":"","image_url":"","tags":"Ver4.10(2021年10月)の追加建築","prefecture":"東京","contractor":"","structural_designer":"","landscape_designer":"","shinkenchiku_url":""},{"id":10834,"title":"ペガサスビル","architect":"山下和正","year":1979.0,"address":"東京都港区南青山1-15-3","latitude":35.66987609863281,"longitude":139.72650146484375,"category":"集合住宅","big_category":"住宅","description":"","image_url":"","tags":"Ver4.10(2021年10月)の追加建築","prefecture":"東京","contractor":"","structural_designer":"","landscape_designer":"","shinkenchiku_url":""},{"id":10835,"title":"Hクリニック 早川クリニック","architect":"宮森洋一郎","year":2005.0,"address":"広島県呉市広大広2-7-4","latitude":34.2513313293457,"longitude":132.6208038330078,"category":"個人医院","big_category":"医療施設","description":"","image_url":"","tags":"Ver4.10(2021年10月)の追加建築","prefecture":"広島","contractor":"","structural_designer":"","landscape_designer":"","shinkenchiku_url":""},{"id":10836,"title":"そらビル かなたクリニック","architect":"宮森洋一郎","year":2001.0,"address":"広島県東広島市西条町御薗宇2049-1","latitude":34.410160064697266,"longitude":132.73406982421875,"category":"個人医院","big_category":"医療施設","description":"","image_url":"","tags":"Ver4.10(2021年10月)の追加建築","prefecture":"広島","contractor":"","structural_designer":"","landscape_designer":"","shinkenchiku_url":""},{"id":10837,"title":"川尻光幼稚園","architect":"宮森洋一郎","year":2006.0,"address":"広島県呉市川尻町森2-5-32 ","latitude":34.23524475097656,"longitude":132.69171142578125,"category":"幼稚園","big_category":"教育","description":"","image_url":"","tags":"Ver4.10(2021年10月)の追加建築","prefecture":"広島","contractor":"","structural_designer":"","landscape_designer":"","shinkenchiku_url":""},{"id":10838,"title":"SMALL HOTEL 広島本通","architect":"門内一生","year":2019.0,"address":"広島県広島市中区大手町1-5-13","latitude":34.39425277709961,"longitude":132.45529174804688,"category":"ホテル","big_category":"宿泊","description":"","image_url":"","tags":"Ver4.10(2021年10月)の追加建築","prefecture":"広島","contractor":"","structural_designer":"","landscape_designer":"","shinkenchiku_url":""},{"id":10839,"title":"本長寺学園 認定中央こども園","architect":"日比野設計","year":2014.0,"address":"広島県竹原市本町2-4-29","latitude":34.34707260131836,"longitude":132.91456604003906,"category":"幼稚園/カフェ","big_category":"教育,商業施設","description":"","image_url":"","tags":"Ver4.10(2021年10月)の追加建築","prefecture":"広島","contractor":"","structural_designer":"","landscape_designer":"","shinkenchiku_url":""},{"id":10840,"title":"三芦の家 ひろ中央動物病院","architect":"花本大作","year":2019.0,"address":"広島県呉市広三芦1-2-9","latitude":34.2458381652832,"longitude":132.6287841796875,"category":"個人医院/住宅","big_category":"医療施設,住宅","description":"","image_url":"","tags":"Ver4.10(2021年10月)の追加建築","prefecture":"広島","contractor":"","structural_designer":"","landscape_designer":"","shinkenchiku_url":""},{"id":10841,"title":"FLAP SUMMIT","architect":"土井一秀","year":2012.0,"address":"広島県広島市中区吉島西2-15-31","latitude":34.37373352050781,"longitude":132.44500732421875,"category":"店舗/住宅","big_category":"商業施設,住宅","description":"","image_url":"","tags":"Ver4.10(2021年10月)の追加建築","prefecture":"広島","contractor":"","structural_designer":"","landscape_designer":"","shinkenchiku_url":""},{"id":10842,"title":"尾道の歯科医院 しまなみ歯科医院","architect":"大石雅之","year":2012.0,"address":"広島県尾道市新浜1-3-46","latitude":34.402156829833984,"longitude":133.18600463867188,"category":"個人医院","big_category":"医療施設","description":"","image_url":"","tags":"Ver4.10(2021年10月)の追加建築","prefecture":"広島","contractor":"","structural_designer":"","landscape_designer":"","shinkenchiku_url":""},{"id":10843,"title":"ブリュッケホステル&カフェ","architect":"鍵山昌信","year":2018.0,"address":"兵庫県神戸市北区有馬町405-2","latitude":34.79663848876953,"longitude":135.2525177001953,"category":"カフェ/ホステル","big_category":"商業施設,宿泊","description":"","image_url":"","tags":"Ver4.10(2021年10月)の追加建築","prefecture":"兵庫","contractor":"","structural_designer":"","landscape_designer":"","shinkenchiku_url":""},{"id":10844,"title":"山口銀行 呉支店","architect":"日建設計","year":1954.0,"address":"広島県呉市中通2-5-8","latitude":34.24448013305664,"longitude":132.56484985351562,"category":"金融機関","big_category":"企業施設","description":"","image_url":"","tags":"Ver4.10(2021年10月)の追加建築","prefecture":"広島","contractor":"","structural_designer":"","landscape_designer":"","shinkenchiku_url":""},{"id":10845,"title":"カトリック呉教会","architect":"イグナチオ・グロッパー","year":1954.0,"address":"\t広島県呉市呉市和庄1-1-15","latitude":34.246482849121094,"longitude":132.57110595703125,"category":"教会","big_category":"宗教","description":"上智大学設計室設計","image_url":"","tags":"Ver4.10(2021年10月)の追加建築","prefecture":"\t広島","contractor":"","structural_designer":"","landscape_designer":"","shinkenchiku_url":""},{"id":10846,"title":"中国放送 本社","architect":"日建設計","year":1961.0,"address":"広島県広島市中区基町21-3","latitude":34.402000427246094,"longitude":132.46160888671875,"category":"低層オフィス","big_category":"企業施設","description":"","image_url":"","tags":"Ver4.10(2021年10月)の追加建築","prefecture":"広島","contractor":"","structural_designer":"","landscape_designer":"","shinkenchiku_url":""},{"id":10847,"title":"もみじ銀行 本社 旧広島相互銀行","architect":"日建設計","year":1960.0,"address":"広島県広島市中区胡町1-24","latitude":34.392887115478516,"longitude":132.4666290283203,"category":"金融機関/低層オフィス","big_category":"企業施設,企業施設","description":"","image_url":"","tags":"Ver4.10(2021年10月)の追加建築","prefecture":"広島","contractor":"","structural_designer":"","landscape_designer":"","shinkenchiku_url":""},{"id":10848,"title":"広島県果実農協連合会 広島県果実会館","architect":"藤野周次郎","year":1960.0,"address":"広島県竹原市忠海中町1-2-17","latitude":34.33665466308594,"longitude":132.99241638183594,"category":"組合施設","big_category":"公共施設","description":"","image_url":"","tags":"Ver4.10(2021年10月)の追加建築","prefecture":"広島","contractor":"","structural_designer":"","landscape_designer":"","shinkenchiku_url":""},{"id":10849,"title":"広島市医師会原爆殉職碑 祈りの手","architect":"河内義就+上野勇","year":1960.0,"address":"広島県広島市中区小町","latitude":34.38882827758789,"longitude":132.45858764648438,"category":"オブジェ","big_category":"ミュージアム","description":"","image_url":"","tags":"Ver4.10(2021年10月)の追加建築","prefecture":"広島","contractor":"","structural_designer":"","landscape_designer":"","shinkenchiku_url":""},{"id":10850,"title":"久保アグリファーム NYU SAGOTANI","architect":"鍵山昌信","year":2021.0,"address":"広島県広島市佐伯区湯来町大字白砂1207-2","latitude":34.437217712402344,"longitude":132.28280639648438,"category":"公民館・交流施設","big_category":"公共施設","description":"","image_url":"","tags":"Ver4.10(2021年10月)の追加建築","prefecture":"広島","contractor":"","structural_designer":"","landscape_designer":"","shinkenchiku_url":""}]}