{"page":90,"total_pages":290,"items_per_page":50,"total_items":14467,"items":[{"id":4451,"title":"出水市ツル博物館 クレインパークいずみ","architect":"日建設計","year":1995.0,"address":"鹿児島県出水市文化町1000","latitude":32.098201751708984,"longitude":130.34335327148438,"category":"博物館","description":"","image_url":""},{"id":4452,"title":"博多偕成ビル","architect":"不明","year":1974.0,"address":"福岡県福岡市博多区博多駅東2-5-28","latitude":33.58777618408203,"longitude":130.42259216308594,"category":"オフィスビル","description":"","image_url":""},{"id":4453,"title":"ザ・レジデンシャルスイート・福岡","architect":"三浦紀之+大林組+井手健一郎","year":1992.0,"address":"福岡県福岡市早良区百道浜1-3-70","latitude":33.59042739868164,"longitude":130.35546875,"category":"ホテル","description":"井手健一郎による改修","image_url":""},{"id":4454,"title":"沖縄県立武道館","architect":"本庄正之","year":1995.0,"address":"沖縄県那覇市奥武山町52","latitude":26.20462417602539,"longitude":127.67388916015625,"category":"体育館","description":"","image_url":""},{"id":4455,"title":"家具の家","architect":"坂茂","year":2013.0,"address":"群馬県嬬恋村干俣バラギ高原 無印良品 カンパーニャ嬬恋キャンプ場","latitude":36.54115295410156,"longitude":138.47698974609375,"category":"住宅/コテージ","description":"HOUSE VISION 2013に出展していた作品が群馬のキャンプ場に移転","image_url":""},{"id":4456,"title":"京都八百一本館","architect":"鹿島建設","year":2013.0,"address":"京都府京都市中京区東洞院通三条下る三文字町220","latitude":35.00764083862305,"longitude":135.76126098632812,"category":"テナントビル/レストラン","description":"","image_url":""},{"id":4457,"title":"松擧堂","architect":"原広司","year":1979.0,"address":"愛知県豊田市若林東町東山13","latitude":35.02532196044922,"longitude":137.10501098632812,"category":"ギャラリー/住宅","description":"","image_url":""},{"id":4458,"title":"遊喜庵","architect":"原広司","year":1988.0,"address":"群馬県渋川市伊香保町水沢198","latitude":36.47962951660156,"longitude":138.9479522705078,"category":"茶室/レストラン","description":"","image_url":""},{"id":4459,"title":"豊明市消防本部","architect":"アール・アイ・エー","year":1998.0,"address":"愛知県豊明市沓掛町宿234","latitude":35.0612678527832,"longitude":137.0210723876953,"category":"警察・消防署","description":"","image_url":""},{"id":4460,"title":"函南町 知恵の和館","architect":"アール・アイ・エー","year":2012.0,"address":"静岡県田方郡函南町上沢107-1","latitude":35.090999603271484,"longitude":138.9486083984375,"category":"図書館/公民館・交流施設","description":"","image_url":""},{"id":4461,"title":"杉並区立 井草中学校","architect":"アール・アイ・エー","year":2012.0,"address":"東京都杉並区上井草3-20-11","latitude":35.721824645996094,"longitude":139.6024627685547,"category":"学校","description":"","image_url":""},{"id":4462,"title":"せたがや がやがや館","architect":"アール・アイ・エー","year":2013.0,"address":"東京都世田谷区池尻2-3-11","latitude":35.64663314819336,"longitude":139.6824493408203,"category":"福祉センター/児童施設/公民館・交流施設","description":"","image_url":""},{"id":4463,"title":"池新田公民館","architect":"アール・アイ・エー","year":2005.0,"address":"静岡県御前崎市池新田3262","latitude":34.64817810058594,"longitude":138.12905883789062,"category":"ホール・劇場/公民館・交流施設","description":"","image_url":""},{"id":4464,"title":"金谷公民館 みんくる","architect":"アール・アイ・エー","year":2005.0,"address":"静岡県島田市金谷代官町3400","latitude":34.83506774902344,"longitude":138.12661743164062,"category":"図書館/公民館・交流施設","description":"","image_url":""},{"id":4465,"title":"田辺市文化交流センター たなべる","architect":"アール・アイ・エー","year":2011.0,"address":"和歌山県田辺市東陽31-1","latitude":33.726593017578125,"longitude":135.38243103027344,"category":"図書館/博物館","description":"","image_url":""},{"id":4466,"title":"泉佐野市営檀波羅浄園付設火葬場","architect":"アール・アイ・エー","year":2011.0,"address":"大阪府泉佐野市松風台1-1932","latitude":34.40188980102539,"longitude":135.33326721191406,"category":"斎場","description":"","image_url":""},{"id":4467,"title":"築上町火葬場","architect":"アール・アイ・エー","year":2009.0,"address":"福岡県築上郡築上町築城1784","latitude":33.66128158569336,"longitude":131.04391479492188,"category":"斎場","description":"","image_url":""},{"id":4468,"title":"多治見市立 池田小学校","architect":"アール・アイ・エー","year":2013.0,"address":"岐阜県多治見市池田町6-25","latitude":35.33409118652344,"longitude":137.1036376953125,"category":"学校","description":"","image_url":""},{"id":4469,"title":"オペーク名古屋","architect":"妹島和世","year":2001.0,"address":"愛知県名古屋市中区栄3-15-36","latitude":35.16645812988281,"longitude":136.9075164794922,"category":"店舗","description":"解体","image_url":""},{"id":4470,"title":"高萩市立図書館／歴史民俗資料館","architect":"若山滋","year":1983.0,"address":"茨城県高萩市高萩8-1","latitude":36.711631774902344,"longitude":140.70790100097656,"category":"図書館/博物館","description":"","image_url":""},{"id":4471,"title":"碧南市哲学たいけん村無我苑","architect":"若山滋+中村昌生+横内敏人","year":1992.0,"address":"愛知県碧南市坂口町3-100","latitude":34.91080856323242,"longitude":137.0098114013672,"category":"博物館/茶室","description":"","image_url":""},{"id":4472,"title":"中国木材 名古屋事業所","architect":"福島加津也+冨永祥子","year":2003.0,"address":"愛知県弥富市楠3-33","latitude":35.03400802612305,"longitude":136.797119140625,"category":"低層オフィス","description":"","image_url":""},{"id":4473,"title":"木の構築 工学院大学 弓道場・ボクシング場","architect":"福島加津也+冨永祥子","year":2013.0,"address":"東京都八王子市中野町2665-1","latitude":35.68562316894531,"longitude":139.32032775878906,"category":"大学/体育館","description":"","image_url":""},{"id":4474,"title":"三洋ソーラーアーク","architect":"鹿島建設","year":2001.0,"address":"岐阜県安八郡安八町大森180","latitude":35.33086395263672,"longitude":136.6713104248047,"category":"博物館","description":"2009年7月より、見学は学校関係の団体に限定","image_url":""},{"id":4475,"title":"金沢市文化ホール","architect":"芦原義信+谷口吉郎","year":1982.0,"address":"石川県金沢市高岡町15-1","latitude":36.566837310791016,"longitude":136.65280151367188,"category":"ホール・劇場","description":"谷口吉郎死後の着工なのでスタッフの設計か、谷口吉生の設計？","image_url":""},{"id":4476,"title":"更埴文化会館","architect":"芦原義信","year":1989.0,"address":"長野県千曲市杭瀬下1-64","latitude":36.53023147583008,"longitude":138.1177215576172,"category":"ホール・劇場","description":"","image_url":""},{"id":4477,"title":"旧清里北澤美術館","architect":"芦原義信","year":1989.0,"address":"山梨県北杜市高根町清里3545","latitude":35.92035675048828,"longitude":138.43472290039062,"category":"美術館","description":"","image_url":""},{"id":4478,"title":"東京大学御殿下記念館","architect":"芦原義信","year":1989.0,"address":"東京都文京区本郷7-3-1","latitude":35.712711334228516,"longitude":139.76385498046875,"category":"大学/体育館/プール","description":"","image_url":""},{"id":4479,"title":"ホテル紅や ヴィラ紅や","architect":"芦原義信","year":1987.0,"address":"長野県諏訪市湖岸通り2-7-21","latitude":36.051658630371094,"longitude":138.11317443847656,"category":"ホテル","description":"","image_url":""},{"id":4480,"title":"横浜市市民文化会館 関内ホール","architect":"芦原義信","year":1986.0,"address":"神奈川県横浜市中区住吉町4-42-1","latitude":35.44729995727539,"longitude":139.63624572753906,"category":"ホール・劇場","description":"","image_url":""},{"id":4481,"title":"佐倉市民音楽ホール／臼井公民館","architect":"芦原義信","year":1984.0,"address":"千葉県佐倉市王子台1-1-16","latitude":35.73105239868164,"longitude":140.1842041015625,"category":"ホール・劇場/公民館・交流施設","description":"","image_url":""},{"id":4482,"title":"北澤美術館","architect":"芦原義信","year":1983.0,"address":"長野県諏訪市湖岸通り1-13-28","latitude":36.05580520629883,"longitude":138.1117401123047,"category":"美術館","description":"","image_url":""},{"id":4483,"title":"東京第一科学者キリスト教会","architect":"芦原義信","year":1981.0,"address":"東京都渋谷区神宮前5-6-3","latitude":35.6661262512207,"longitude":139.70840454101562,"category":"教会","description":"","image_url":""},{"id":4484,"title":"飛騨・世界生活文化センター","architect":"芦原義信","year":2001.0,"address":"岐阜県高山市千島町900-1","latitude":36.12142562866211,"longitude":137.253662109375,"category":"総合文化施設/ホール・劇場/博物館","description":"","image_url":""},{"id":4485,"title":"東京国立近代美術館 フィルムセンター","architect":"芦原義信","year":1994.0,"address":"東京都中央区京橋3-7-6 ","latitude":35.675537109375,"longitude":139.7706298828125,"category":"美術館/ホール・劇場","description":"","image_url":""},{"id":4486,"title":"石川県立音楽堂","architect":"芦原義信","year":2001.0,"address":"石川県金沢市昭和町20-1","latitude":36.57672119140625,"longitude":136.64784240722656,"category":"ホール・劇場","description":"","image_url":""},{"id":4487,"title":"アイザック小杉文化ホール ラポール","architect":"芦原義信","year":1993.0,"address":"富山県射水市戸破1500","latitude":36.713645935058594,"longitude":137.1000518798828,"category":"ホール・劇場","description":"","image_url":""},{"id":4488,"title":"SUWA ガラスの里","architect":"芦原義信","year":1992.0,"address":"長野県諏訪市豊田2400-7","latitude":36.02842712402344,"longitude":138.08035278320312,"category":"美術館","description":"","image_url":""},{"id":4489,"title":"FLAMME-IGA COMPLEX","architect":"佐々木龍一+木津潤平+小堀哲夫","year":2005.0,"address":"三重県伊賀市上野茅町2668-1","latitude":34.76105880737305,"longitude":136.1363983154297,"category":"店舗/カフェ/展示・会議場","description":"","image_url":""},{"id":4490,"title":"BASE南青山","architect":"佐々木龍一+西村和哉","year":2011.0,"address":"東京都港区南青山3-4-2","latitude":35.667442321777344,"longitude":139.71749877929688,"category":"テナントビル","description":"","image_url":""},{"id":4491,"title":"AOYAMA 346","architect":"佐々木龍一+奥村梨枝子","year":2014.0,"address":"東京都港区南青山3-4-6","latitude":35.6673469543457,"longitude":139.7172393798828,"category":"店舗/低層オフィス","description":"","image_url":""},{"id":4492,"title":"SOLA 上野ガス亀山オフィス","architect":"木津潤平","year":2012.0,"address":"三重県亀山市椿世町547-1","latitude":34.866886138916016,"longitude":136.4698028564453,"category":"低層オフィス/店舗","description":"","image_url":""},{"id":4493,"title":"Cafe4U","architect":"木津潤平","year":2009.0,"address":"神奈川県鎌倉市大船1-18-12","latitude":35.35124588012695,"longitude":139.53286743164062,"category":"カフェ","description":"","image_url":""},{"id":4494,"title":"Oral Reading Space えいごや","architect":"木津潤平","year":2008.0,"address":"神奈川県藤沢市湘南台3-7-4","latitude":35.395416259765625,"longitude":139.4630126953125,"category":"専門学校/企業施設","description":"","image_url":""},{"id":4495,"title":"nokka","architect":"木津潤平","year":2011.0,"address":"神奈川県茅ヶ崎市東海岸南1-8-17","latitude":35.32365798950195,"longitude":139.40716552734375,"category":"レストラン","description":"","image_url":""},{"id":4496,"title":"flower + cafe Rakaposhi","architect":"木津潤平","year":2007.0,"address":"神奈川県鎌倉市御成町2-12","latitude":35.31748962402344,"longitude":139.5499267578125,"category":"カフェ/店舗","description":"","image_url":""},{"id":4497,"title":"ROKI Global Innovation Center","architect":"小堀哲夫","year":2013.0,"address":"静岡県浜松市天竜区二俣町二俣2396","latitude":34.85694885253906,"longitude":137.81956481933594,"category":"低層オフィス/研究施設","description":"","image_url":""},{"id":4498,"title":"東京理科大学 器官再生工学プロジェクト研究棟","architect":"小堀哲夫","year":2012.0,"address":"千葉県野田市山崎2641","latitude":35.9178581237793,"longitude":139.9099884033203,"category":"大学","description":"","image_url":""},{"id":4499,"title":"つくば臨床検査教育 研究センター","architect":"小堀哲夫","year":2010.0,"address":"茨城県つくば市天久保2-1","latitude":36.0919075012207,"longitude":140.10130310058594,"category":"研究施設","description":"","image_url":""},{"id":4500,"title":"HABA本社ビル","architect":"小堀哲夫","year":2011.0,"address":"東京都千代田区神田須田町1-24-11","latitude":35.694915771484375,"longitude":139.77090454101562,"category":"オフィスビル","description":"","image_url":""}]}