{"page":166,"total_pages":290,"items_per_page":50,"total_items":14467,"items":[{"id":8251,"title":"線路脇のコンプレックス クレアトゥール","architect":"坂茂","year":1992.0,"address":"東京都渋谷区元代々木町4-5","latitude":35.66970443725586,"longitude":139.68740844726562,"category":"テナントビル","description":"","image_url":""},{"id":8252,"title":"ここえみ保育園","architect":"髙本圭三","year":2018.0,"address":"愛媛県松山市水泥町1215","latitude":33.806114196777344,"longitude":132.8262939453125,"category":"幼稚園","description":"","image_url":""},{"id":8253,"title":"みかも喫茶","architect":"髙本圭三","year":2019.0,"address":"徳島県三好郡東みよし町加茂3214-1","latitude":34.03261947631836,"longitude":133.9375,"category":"カフェ","description":"","image_url":""},{"id":8254,"title":"C2 三吉店","architect":"髙本圭三","year":2017.0,"address":"広島県福山市三吉町5-1-16","latitude":34.496829986572266,"longitude":133.3741912841797,"category":"美容院","description":"","image_url":""},{"id":8255,"title":"レ・ザンジュ","architect":"髙本圭三","year":2017.0,"address":"山口県熊毛郡田布施町大字波野360-20","latitude":33.9566764831543,"longitude":132.04701232910156,"category":"店舗","description":"","image_url":""},{"id":8256,"title":"ダレン･アーモンド 曙店","architect":"髙本圭三","year":2013.0,"address":"広島県福山市曙町6-4-18","latitude":34.46718978881836,"longitude":133.3992156982422,"category":"店舗","description":"","image_url":""},{"id":8257,"title":"石窯パン工房くすくす 兵庫店 ","architect":"髙本圭三","year":2011.0,"address":"佐賀県佐賀市兵庫南1-26-11","latitude":33.25890350341797,"longitude":130.31512451171875,"category":"店舗","description":"","image_url":""},{"id":8258,"title":"ルメルシェ元宇品","architect":"髙本圭三","year":2011.0,"address":"広島県広島市南区元宇品町3-18","latitude":34.3497314453125,"longitude":132.4628448486328,"category":"結婚式場","description":"","image_url":""},{"id":8259,"title":"日野こもれび納骨堂","architect":"柳澤潤","year":2018.0,"address":"神奈川県横浜市港南区日野中央1-13-2","latitude":35.38648986816406,"longitude":139.5904083251953,"category":"霊園","description":"","image_url":""},{"id":8260,"title":"東京會舘 新生本舘","architect":"三菱地所","year":2018.0,"address":"東京都千代田区丸の内3-2-1","latitude":35.67774200439453,"longitude":139.76150512695312,"category":"結婚式場/レストラン/展示・会議場","description":"","image_url":""},{"id":8261,"title":"島居邸 洋館 旧島居邸","architect":"桐谷昌寛","year":1931.0,"address":"広島県尾道市東土堂町11-12","latitude":34.40928268432617,"longitude":133.20022583007812,"category":"ホテル/洋館","description":"1931年竣工（設計者不詳）の洋館を改装、ホテル・ゲストハウスに。改装設計は桐谷昌寛。","image_url":""},{"id":8262,"title":"出雲屋敷","architect":"中村昌生","year":null,"address":"広島県尾道市東土堂町11-12","latitude":34.40935134887695,"longitude":133.20010375976562,"category":"和風住宅/ホテル","description":"建築監修中村昌生。鳥居邸の隣ということでプロットしたが奥側かもしれません（やや自信無し）。こちらも宿泊可能","image_url":""},{"id":8263,"title":"ひかりの園","architect":"安藤忠雄","year":2019.0,"address":"東京都品川区西五反田4-12-1","latitude":35.62651443481445,"longitude":139.71022033691406,"category":"霊園","description":"","image_url":""},{"id":8264,"title":"ヘアドゥ","architect":"松井亮","year":2013.0,"address":"千葉県千葉市中央区新町20-10","latitude":35.61031723022461,"longitude":140.1121063232422,"category":"美容院","description":"","image_url":""},{"id":8265,"title":"上馬アパートメント カミウマプレイス","architect":"三家大地","year":2018.0,"address":"東京都世田谷区上馬1-33-3","latitude":35.63909912109375,"longitude":139.66885375976562,"category":"集合住宅","description":"","image_url":""},{"id":8266,"title":"里山ながや・星野川","architect":"アトリエ・ワン","year":2018.0,"address":"福岡県八女市上陽町久木1916-8","latitude":33.25218963623047,"longitude":130.68359375,"category":"集合住宅","description":"","image_url":""},{"id":8267,"title":"隱丘畫廊","architect":"千葉学","year":2017.0,"address":"東京都八王子市長沼町104-2 ヒルサイドテラス2-5","latitude":35.63955307006836,"longitude":139.37619018554688,"category":"ギャラリー/集合住宅","description":"マンションの一室を住居兼ギャラリーへ改修","image_url":""},{"id":8268,"title":"千本上立売のコンプレックス ゲストハウス樸宿 西陣","architect":"多田正治+遠藤正二郎","year":2018.0,"address":"京都府京都市上京区作庵町513","latitude":35.032691955566406,"longitude":135.74156188964844,"category":"ホステル/カフェ/住宅","description":"","image_url":""},{"id":8269,"title":"ホステル翆 京都粋伝庵はなれ","architect":"アルファヴィル","year":2018.0,"address":"京都府京都市上京区真倉町732","latitude":35.033878326416016,"longitude":135.74473571777344,"category":"ホステル","description":"","image_url":""},{"id":8270,"title":"日本基礎技術日吉寮","architect":"16A","year":2018.0,"address":"神奈川県横浜市港北区下田町6-10-47","latitude":35.559391021728516,"longitude":139.62957763671875,"category":"寮","description":"","image_url":""},{"id":8271,"title":"早稲田大学 98号館 早稲田大学本庄高等学院 梓寮","architect":"山下設計","year":2018.0,"address":"埼玉県本庄市早稲田の杜1-1","latitude":36.21805953979492,"longitude":139.17861938476562,"category":"寮","description":"","image_url":""},{"id":8272,"title":"長谷工テクニカルセンター","architect":"長谷工コーポレーション","year":2018.0,"address":"東京都多摩市鶴牧3-1-1","latitude":35.619964599609375,"longitude":139.421875,"category":"研究施設/博物館","description":"マンション博物館は事前予約で見学可能","image_url":""},{"id":8273,"title":"pas a pas","architect":"アルファヴィル","year":2015.0,"address":"滋賀県彦根市京町3-4-5","latitude":35.270179748535156,"longitude":136.25909423828125,"category":"集合住宅","description":"","image_url":""},{"id":8274,"title":"AWAI CAFE","architect":"アルファヴィル","year":2015.0,"address":"大阪府貝塚市北町13-12","latitude":34.45009231567383,"longitude":135.35824584960938,"category":"カフェ","description":"","image_url":""},{"id":8275,"title":"トナリエ大和高田","architect":"永山祐子","year":2018.0,"address":"奈良県大和高田市幸町3-18","latitude":34.518638610839844,"longitude":135.74417114257812,"category":"モール","description":"","image_url":""},{"id":8276,"title":"SSH No.1 ししいわハウス No.1","architect":"坂茂","year":2018.0,"address":"長野県北佐久郡軽井沢町長倉2147-646","latitude":36.36892318725586,"longitude":9581257728.0,"category":"ホテル","description":"","image_url":""},{"id":8277,"title":"神戸串乃家 大丸梅田店","architect":"坂茂","year":2011.0,"address":"大阪府大阪市北区梅田3-1-1 大丸梅田店14F","latitude":34.7016487121582,"longitude":135.4964141845703,"category":"バー・居酒屋","description":"","image_url":""},{"id":8278,"title":"石神井公園の集合住宅 モノデコール石神井公園","architect":"坂茂","year":1992.0,"address":"東京都練馬区石神井町3-3-31","latitude":35.74102020263672,"longitude":139.6075439453125,"category":"集合住宅","description":"","image_url":""},{"id":8279,"title":"B BUILDING 3枚の壁 BANビル","architect":"坂茂","year":1988.0,"address":"東京都世田谷区松原5-2-4","latitude":35.66258239746094,"longitude":139.65525817871094,"category":"オフィスビル","description":"","image_url":""},{"id":8280,"title":"小高区復興拠点施設 小高交流センター","architect":"山本・堀アーキテクツ+URリンケージ","year":2018.0,"address":"福島県南相馬市小高区本町2-28","latitude":37.56463623046875,"longitude":140.99253845214844,"category":"公民館・交流施設/シェアオフィス/児童施設","description":"","image_url":""},{"id":8281,"title":"宿毛まちのえき 林邸","architect":"古谷誠章+細木茂","year":2018.0,"address":"高知県宿毛市中央3-1-3","latitude":32.93815231323242,"longitude":132.7307586669922,"category":"和風住宅/PA・道の駅","description":"旧林有造邸の保存改修。林邸の竣工年は1889年","image_url":""},{"id":8282,"title":"Hama House","architect":"西田司","year":2017.0,"address":"東京都中央区日本橋浜町3-10-6","latitude":35.684288024902344,"longitude":139.78872680664062,"category":"シェアオフィス/カフェ/店舗","description":"HAMA 1961に隣接。こちらは新築だと思われる","image_url":""},{"id":8283,"title":"調布のスタジオ+カフェ KOZY STAND COFFEE","architect":"石黒由紀","year":2018.0,"address":"東京都調布市下石原2-60-2","latitude":35.65176773071289,"longitude":139.5369415283203,"category":"カフェ/企業施設","description":"リノベーション","image_url":""},{"id":8284,"title":"北千住BUoY／ON MAY FOURTH","architect":"佐藤研吾","year":2017.0,"address":"東京都足立区千住仲町49-11","latitude":35.74351501464844,"longitude":139.80224609375,"category":"カフェ/ギャラリー/ホール・劇場","description":"","image_url":""},{"id":8285,"title":"UTSUROI TSUCHIYA ANNEX","architect":"垣田博之","year":2018.0,"address":"兵庫県豊岡市城崎町湯島584-1","latitude":35.6246452331543,"longitude":134.8048858642578,"category":"旅館","description":"消防署から旅館へのコンバージョン","image_url":""},{"id":8286,"title":"ユクサおおすみ海の学校 旧鹿屋市立菅原小学校","architect":"ブルースタジオ+川畠康文","year":2018.0,"address":"鹿児島県鹿屋市天神町3629-1","latitude":31.372760772705078,"longitude":130.7797393798828,"category":"ホステル/体験施設/研修施設","description":"","image_url":""},{"id":8287,"title":"福岡県弁護士会館","architect":"古森弘一","year":2019.0,"address":"福岡県福岡市中央区六本松4-2-5","latitude":33.57588577270508,"longitude":130.37759399414062,"category":"組合施設","description":"","image_url":""},{"id":8288,"title":"えそらガーデン","architect":"古森弘一","year":2018.0,"address":"宮崎県東諸県郡綾町大字南俣字郷鴫131-1","latitude":31.997539520263672,"longitude":131.267822265625,"category":"低層オフィス/企業施設","description":"","image_url":""},{"id":8289,"title":"渋谷区役所 新庁舎","architect":"日本設計+星野裕明","year":2019.0,"address":"東京都渋谷区宇田川町1-1","latitude":35.663692474365234,"longitude":139.69775390625,"category":"庁舎","description":"","image_url":""},{"id":8290,"title":"前田建設工業 ICIラボ","architect":"前田建設工業","year":2019.0,"address":"茨城県取手市寺田5270","latitude":35.91068649291992,"longitude":140.0546417236328,"category":"研究施設/シェアオフィス","description":"","image_url":""},{"id":8291,"title":"大成建設技術センター 次世代研究開発棟","architect":"大成建設","year":2018.0,"address":"神奈川県横浜市戸塚区名瀬町344-1","latitude":35.42476272583008,"longitude":139.54168701171875,"category":"研究施設","description":"","image_url":""},{"id":8292,"title":"面白法人カヤック社屋 研究開発棟・ぼくらの会議棟","architect":"谷尻誠","year":2018.0,"address":"神奈川県鎌倉市御成町5-12","latitude":35.316612243652344,"longitude":139.54965209960938,"category":"低層オフィス","description":"","image_url":""},{"id":8293,"title":"HandiLabo","architect":"HandiHouse project","year":2018.0,"address":"神奈川県横浜市鶴見区駒岡4-30-49","latitude":35.53501510620117,"longitude":139.65362548828125,"category":"低層オフィス/シェアオフィス","description":"","image_url":""},{"id":8294,"title":"HafH Nagasaki SAI","architect":"百枝優","year":2019.0,"address":"長崎県長崎市古川町5-21","latitude":32.745975494384766,"longitude":129.8794403076172,"category":"シェアオフィス/カフェ/ホテル","description":"","image_url":""},{"id":8295,"title":"蕨の集合住宅 Tristar","architect":"駒田建築設計事務所","year":2019.0,"address":"埼玉県川口市芝中田1-12-15","latitude":35.82954788208008,"longitude":139.6979217529297,"category":"集合住宅","description":"","image_url":""},{"id":8296,"title":"RAUM-011 うどん緑","architect":"大室佑介","year":2019.0,"address":"三重県鈴鹿市神戸9-9-23","latitude":34.8830451965332,"longitude":136.58433532714844,"category":"レストラン","description":"","image_url":""},{"id":8297,"title":"富士山ゲストハウス掬水","architect":"勝亦・丸山建築計画","year":2019.0,"address":"静岡県富士宮市元城町22-3","latitude":35.22784423828125,"longitude":138.61131286621094,"category":"ホステル","description":"","image_url":""},{"id":8298,"title":"認定こども園ミライズそら","architect":"手塚建築研究所","year":2019.0,"address":"兵庫県丹波市柏原町鴨野316","latitude":35.136619567871094,"longitude":135.04275512695312,"category":"幼稚園","description":"","image_url":""},{"id":8299,"title":"梅光学院大学 The Learning Station CROSSLIGHT","architect":"小堀哲夫","year":2019.0,"address":"山口県下関市向洋町1-1-1","latitude":33.96794509887695,"longitude":130.93289184570312,"category":"大学","description":"","image_url":""},{"id":8300,"title":"瑞聖寺庫裡","architect":"隈研吾","year":2018.0,"address":"東京都港区白金台3-2-19","latitude":35.63706970214844,"longitude":139.72711181640625,"category":"寺院","description":"","image_url":""}]}