{"page":247,"total_pages":290,"items_per_page":50,"total_items":14467,"items":[{"id":12301,"title":"Nook The Hub","architect":"LTS設計","year":2019.0,"address":"兵庫県南あわじ市灘土生297","latitude":34.19957733154297,"longitude":134.79330444335938,"category":"コテージ","description":"","image_url":""},{"id":12302,"title":"渋谷東アパートメント HILLPEAK TOKIWAMATSU","architect":"伊東豊雄","year":2023.0,"address":"東京都渋谷区東4-101-32","latitude":35.65654754638672,"longitude":139.71200561523438,"category":"集合住宅","description":"2023年8月下旬竣工予定","image_url":""},{"id":12303,"title":"横浜泉ルーテル教会","architect":"稲冨昭","year":1965.0,"address":"神奈川県横浜市神奈川区青木町4-11","latitude":35.47024917602539,"longitude":139.62867736816406,"category":"教会","description":"","image_url":""},{"id":12304,"title":"ホテルインディゴ軽井沢","architect":"INA新建築研究所","year":2021.0,"address":"長野県北佐久郡軽井沢町大字長倉字屋敷添18-39","latitude":36.32440185546875,"longitude":138.6270294189453,"category":"ホテル","description":"","image_url":""},{"id":12305,"title":"ときわ邸 M-GARDEN","architect":"中郡大輔","year":2020.0,"address":"茨城県水戸市常磐町1-2-44","latitude":36.37423324584961,"longitude":140.4569091796875,"category":"レストラン/結婚式場/コテージ","description":"","image_url":""},{"id":12306,"title":"ITOMACHI HOTEL 0","architect":"隈研吾","year":2023.0,"address":"愛媛県西条市朔日市字兵衛田250-7","latitude":33.926170349121094,"longitude":133.18968200683594,"category":"ホテル","description":"2023年春開業予定","image_url":""},{"id":12307,"title":"Hi-ROOMS明大前A棟 / 線路際の長屋","architect":"若松均","year":2008.0,"address":"東京都杉並区和泉2-12-12","latitude":35.672584533691406,"longitude":139.6487579345703,"category":"集合住宅","description":"","image_url":""},{"id":12308,"title":"オールファーマシータウン","architect":"古本竜一","year":2019.0,"address":"広島県呉市中通1-3-14","latitude":34.24405288696289,"longitude":132.56253051757812,"category":"医療施設/テナントビル","description":"","image_url":""},{"id":12309,"title":"ピーチファーマーズビレッジ","architect":"前田圭介","year":2022.0,"address":"岡山県岡山市北区芳賀5111-48","latitude":34.706539154052734,"longitude":133.8738555908203,"category":"カフェ/観光施設/体験施設","description":"","image_url":""},{"id":12310,"title":"国際基督教大学 トロイヤー記念アーツ・サイエンス館","architect":"隈研吾+日本設計","year":2022.0,"address":"東京都三鷹市大沢3-10-2","latitude":35.68782043457031,"longitude":139.52874755859375,"category":"大学","description":"","image_url":""},{"id":12311,"title":"BOTANICAL POOL CLUB 旧城西国際大学 鋸南セミナーハウス","architect":"久米設計","year":2005.0,"address":"千葉県安房郡鋸南町下佐久間1510-2","latitude":35.10832595825195,"longitude":139.84454345703125,"category":"ホテル/大学","description":"2023年夏にホテルとしてオープン予定。画像からおそらく旧鋸南セミナーハウスを改修したと判断して掲載しています","image_url":""},{"id":12312,"title":"JINS 佐久平店","architect":"中村竜治","year":2023.0,"address":"長野県佐久市岩村田字上樋橋1496-1","latitude":36.27323913574219,"longitude":138.4623565673828,"category":"店舗","description":"","image_url":""},{"id":12313,"title":"新宮市文化複合施設 丹鶴ホール","architect":"山下設計","year":2021.0,"address":"和歌山県新宮市下本町2-2-1","latitude":33.73066711425781,"longitude":135.9893341064453,"category":"総合文化施設","description":"","image_url":""},{"id":12314,"title":"同志社幼稚園","architect":"日建設計","year":2020.0,"address":"京都府京都市上京区染殿町665-1","latitude":35.026737213134766,"longitude":135.7674102783203,"category":"幼稚園","description":"","image_url":""},{"id":12315,"title":"京都女子大学 E校舎","architect":"日建設計","year":2021.0,"address":"京都府京都市東山区今熊野北日吉町35","latitude":34.9883918762207,"longitude":135.77920532226562,"category":"大学","description":"","image_url":""},{"id":12316,"title":"東海村 歴史と未来の交流館","architect":"堀部安嗣+梓設計","year":2021.0,"address":"茨城県那珂郡東海村村松768-38","latitude":36.45896911621094,"longitude":140.563720703125,"category":"博物館","description":"建築学会新人賞、キッズデザイン賞、空間デザイン賞、茨城建築賞優秀賞","image_url":""},{"id":12317,"title":"上原成商事 本社","architect":"大林組","year":2020.0,"address":"京都府京都市中京区塗師屋町344","latitude":35.0114860534668,"longitude":135.76007080078125,"category":"オフィスビル","description":"","image_url":""},{"id":12318,"title":"登戸ゲートビルディング","architect":"梓設計","year":2020.0,"address":"神奈川県川崎市多摩区登戸2428","latitude":35.62055206298828,"longitude":139.5684051513672,"category":"テナントビル/住宅","description":"","image_url":""},{"id":12319,"title":"守口市立さくら小学校","architect":"昭和設計","year":2021.0,"address":"大阪府守口市東光町2-1-4","latitude":34.732177734375,"longitude":135.57557678222656,"category":"学校","description":"","image_url":""},{"id":12320,"title":"若久病院","architect":"青木茂","year":2023.0,"address":"福岡県福岡市南区若久5-3-1","latitude":33.54856872558594,"longitude":130.41029357910156,"category":"病院","description":"1933年開院のリファイニング。1期工事として新館増築、2期工事で本館の大規模改修","image_url":""},{"id":12321,"title":"さっぽろ創世スクエア","architect":"日建設計","year":2018.0,"address":"北海道札幌市中央区北1条西1-6","latitude":43.06312942504883,"longitude":141.35568237304688,"category":"オフィスビル/総合文化施設","description":"","image_url":""},{"id":12322,"title":"門川町庁舎","architect":"梓設計","year":2021.0,"address":"宮崎県東臼杵郡門川町平城東1-1","latitude":32.470909118652344,"longitude":6465711104.0,"category":"庁舎","description":"","image_url":""},{"id":12323,"title":"丸亀ボートレース場 ROKU・来賓室棟","architect":"梓設計","year":2021.0,"address":"香川県丸亀市富士見町4-1-1","latitude":34.305538177490234,"longitude":133.79415893554688,"category":"スポーツ施設","description":"","image_url":""},{"id":12324,"title":"土庄町庁舎","architect":"梓設計","year":2021.0,"address":"香川県小豆郡土庄町淵崎甲1400-2","latitude":34.48664855957031,"longitude":134.1886444091797,"category":"庁舎","description":"","image_url":""},{"id":12325,"title":"SAGAアクア","architect":"梓設計","year":2021.0,"address":"佐賀県佐賀市日の出2-1-10","latitude":33.2746696472168,"longitude":130.2917938232422,"category":"プール","description":"","image_url":""},{"id":12326,"title":"Well-Blend 蒲田","architect":"トラフ建築設計事務所+安井秀夫","year":2022.0,"address":"東京都大田区西蒲田7-52-2","latitude":35.56254577636719,"longitude":139.7101593017578,"category":"集合住宅","description":"意匠設計・監修:トラフ建築設計事務所。建築・設備設計:安井秀夫。","image_url":""},{"id":12327,"title":"エスコンフィールドHOKKAIDO","architect":"大林組+HKS","year":2022.0,"address":"北海道北広島市Ｆビレッジ1","latitude":42.99005889892578,"longitude":141.5497283935547,"category":"スタジアム","description":"七つ星横丁の内装設計は谷尻誠","image_url":""},{"id":12328,"title":"今治里山スタジアム","architect":"梓設計","year":2023.0,"address":"愛媛県今治市高橋ふれあいの丘1-3","latitude":34.040714263916016,"longitude":132.95901489257812,"category":"スタジアム","description":"","image_url":""},{"id":12329,"title":"新行政棟・文化庁移転施設 旧京都府警察本部","architect":"日本設計+岸和郎+田原幸夫","year":2022.0,"address":"京都府京都市上京区薮之内町85-3","latitude":35.020965576171875,"longitude":135.75624084472656,"category":"公共施設","description":"デザインアーキテクト：岸和郎 ヘリテージアーキテクト：田原幸夫","image_url":""},{"id":12330,"title":"熱田神宮 剣の宝庫草薙館 くさなぎ広場","architect":"上田徹","year":2021.0,"address":"愛知県名古屋市熱田区神宮1-1","latitude":35.124576568603516,"longitude":136.90830993652344,"category":"博物館/寺院","description":"","image_url":""},{"id":12331,"title":"熱田神宮 神楽殿","architect":"上田徹","year":2009.0,"address":"愛知県名古屋市熱田区神宮1-1","latitude":35.12654495239258,"longitude":136.9093475341797,"category":"寺院","description":"","image_url":""},{"id":12332,"title":"熱田神宮 勾玉苑","architect":"上田徹","year":2012.0,"address":"愛知県名古屋市熱田区神宮1-1","latitude":35.125518798828125,"longitude":136.90814208984375,"category":"寺院","description":"","image_url":""},{"id":12333,"title":"嚴浄院 書院","architect":"上田徹","year":1998.0,"address":"東京都文京区白山2-30-5","latitude":35.718509674072266,"longitude":139.7508087158203,"category":"寺院","description":"","image_url":""},{"id":12334,"title":"名古屋商科大学 国際教育研究センター","architect":"竹中工務店","year":2010.0,"address":"愛知県名古屋市千種区東山元町3-15-2","latitude":35.153804779052734,"longitude":136.97463989257812,"category":"大学/寮","description":"","image_url":""},{"id":12335,"title":"愛西市総合斎苑","architect":"山下設計","year":2011.0,"address":"愛知県愛西市西保町寄之内2-1","latitude":35.136802673339844,"longitude":136.7135467529297,"category":"斎場","description":"","image_url":""},{"id":12336,"title":"古川利意記念美術館 「農とくらし」","architect":"小泉立","year":2022.0,"address":"福島県耶麻郡西会津町奥川大字飯里里道2246","latitude":37.6868782043457,"longitude":139.6712646484375,"category":"美術館","description":"","image_url":""},{"id":12337,"title":"iti SETOUCHI","architect":"馬場正尊","year":2022.0,"address":"広島県福山市西町1-1-1","latitude":34.48814010620117,"longitude":133.35812377929688,"category":"モール","description":"","image_url":""},{"id":12338,"title":"日本さかな専門学校","architect":"手塚建築研究所","year":2022.0,"address":"神奈川県三浦市三崎5-255-10","latitude":35.14271545410156,"longitude":139.60865783691406,"category":"専門学校","description":"","image_url":""},{"id":12339,"title":"伊達の工場と店 ブーランジェリーibox 弄月店","architect":"AAOAA","year":2023.0,"address":"北海道伊達市弄月町59-35","latitude":42.463348388671875,"longitude":140.8820037841797,"category":"店舗/カフェ","description":"","image_url":""},{"id":12340,"title":"香美市立図書館 かみーる","architect":"東畑建築事務所+依光成元","year":2022.0,"address":"高知県香美市土佐山田町楠目736","latitude":33.611087799072266,"longitude":133.6934814453125,"category":"図書館","description":"","image_url":""},{"id":12341,"title":"東京ミッドタウン八重洲","architect":"日本設計+ピカード・チルトン+竹中工務店","year":2022.0,"address":"東京都中央区八重洲2-2-13","latitude":35.6791877746582,"longitude":139.76914978027344,"category":"複合ビル/ホテル","description":"都市計画・基本設計・実施設計：日本設計 実施設計：竹中工務店 マスターアーキテクト：ピカード・チルトン","image_url":""},{"id":12342,"title":"ヤンマー東京","architect":"日建設計+佐藤可士和","year":2022.0,"address":"東京都中央区八重洲2-1-1","latitude":35.6798210144043,"longitude":139.7694549560547,"category":"オフィスビル/テナントビル","description":"デザイン監修・アートワーク：佐藤可士和","image_url":""},{"id":12343,"title":"新菱神城ビル","architect":"三菱地所","year":2020.0,"address":"東京都千代田区神田多町2-9-2","latitude":35.69407653808594,"longitude":139.7689666748047,"category":"オフィスビル","description":"","image_url":""},{"id":12344,"title":"地中図書館","architect":"中村拓志","year":2023.0,"address":"千葉県木更津市矢那2503","latitude":35.32481002807617,"longitude":139.9835968017578,"category":"図書館","description":"クルックフィールズ内","image_url":""},{"id":12345,"title":"かなめのもりのビル","architect":"川島範久+松井建設","year":2023.0,"address":"東京都品川区荏原3-5-4","latitude":35.61695861816406,"longitude":139.70809936523438,"category":"テナントビル","description":"","image_url":""},{"id":12346,"title":"かなめのもり社務所","architect":"川島範久","year":2023.0,"address":"東京都品川区荏原3-5-4","latitude":35.617122650146484,"longitude":139.70816040039062,"category":"寺院","description":"","image_url":""},{"id":12347,"title":"立命館アジア太平洋大学 APハウス5","architect":"竹中工務店","year":2023.0,"address":"大分県別府市内竈3677-69","latitude":33.33634948730469,"longitude":131.47030639648438,"category":"大学/寮","description":"","image_url":""},{"id":12348,"title":"東海大学 阿蘇くまもと臨空キャンパス","architect":"石本建築事務所","year":2023.0,"address":"熊本県上益城郡益城町杉堂871-12","latitude":32.83600616455078,"longitude":130.86972045898438,"category":"大学","description":"","image_url":""},{"id":12349,"title":"蒜山そばの館","architect":"STUDIO YY","year":2022.0,"address":"岡山県真庭市蒜山上徳山1375-1","latitude":35.277366638183594,"longitude":133.6234893798828,"category":"レストラン","description":"","image_url":""},{"id":12350,"title":"みんなの工場","architect":"アリイイリエアーキテクツ","year":2023.0,"address":"北海道砂川市豊沼町54-1","latitude":43.46717834472656,"longitude":141.88467407226562,"category":"カフェ/工場/店舗","description":"","image_url":""}]}