{"page":271,"total_pages":290,"items_per_page":50,"total_items":14467,"items":[{"id":13501,"title":"箕面市立文化芸能劇場・箕面市立船場図書館・箕面市立船場生涯学習センター","architect":"久米設計+大林組+安田幸一","year":2021.0,"address":"大阪府箕面市船場東3-10-1","latitude":34.82183074951172,"longitude":135.49179077148438,"category":"総合文化施設/ホール・劇場/図書館","big_category":"文化施設,文化施設,文化施設","description":"","image_url":"","tags":"新建築2024年5月号,Ver5.40(2024年7月)の追加建築","prefecture":"大阪","contractor":"","structural_designer":"","landscape_designer":"","shinkenchiku_url":""},{"id":13502,"title":"東京工業大学 大岡山西5号館","architect":"久米設計+那須聖+安田幸一","year":2023.0,"address":"東京都目黒区大岡山2-12-1","latitude":35.606224060058594,"longitude":139.68228149414062,"category":"大学","big_category":"教育","description":"デザイン総合監修：安田幸一研究室 デザインアーキテクト：那須聖研究室 東京工業大学施設運営部再開発推進室+久米設計+総合設備コンサルタント","image_url":"","tags":"新建築2024年5月号,Ver5.40(2024年7月)の追加建築","prefecture":"東京","contractor":"","structural_designer":"竹内徹研究室","landscape_designer":"","shinkenchiku_url":""},{"id":13503,"title":"東京工業大学 大岡山西6号館","architect":"久米設計+塩崎太伸+安田幸一","year":2023.0,"address":"東京都目黒区大岡山2-12-1","latitude":35.60594177246094,"longitude":139.6816864013672,"category":"大学","big_category":"教育","description":"デザイン総合監修：安田幸一研究室 デザインアーキテクト：塩崎太伸研究室 東京工業大学施設運営部再開発推進室+久米設計+総合設備コンサルタント","image_url":"","tags":"新建築2024年5月号,Ver5.40(2024年7月)の追加建築","prefecture":"東京","contractor":"","structural_designer":"竹内徹研究室","landscape_designer":"","shinkenchiku_url":""},{"id":13504,"title":"東京芸術大学 彫刻棟増築","architect":"髙橋一平","year":2023.0,"address":"東京都台東区上野公園10-14","latitude":35.718902587890625,"longitude":139.77059936523438,"category":"大学","big_category":"教育","description":"","image_url":"","tags":"新建築2024年5月号,Ver5.40(2024年7月)の追加建築","prefecture":"東京","contractor":"","structural_designer":"","landscape_designer":"","shinkenchiku_url":""},{"id":13505,"title":"青山学院大学 マクレイ記念館","architect":"清水建設","year":2024.0,"address":"東京都渋谷区渋谷4-4-25","latitude":35.66141891479492,"longitude":139.71080017089844,"category":"大学/図書館","big_category":"教育,文化施設","description":"","image_url":"","tags":"新建築2024年5月号,Ver5.40(2024年7月)の追加建築","prefecture":"東京","contractor":"","structural_designer":"","landscape_designer":"","shinkenchiku_url":""},{"id":13506,"title":"なぎっ子こども園","architect":"楠山設計+マウントフジアーキテクツスタジオ","year":2024.0,"address":"岡山県勝田郡奈義町豊沢441","latitude":35.12498474121094,"longitude":134.17501831054688,"category":"幼稚園","big_category":"教育","description":"","image_url":"","tags":"新建築2024年5月号,Ver5.40(2024年7月)の追加建築","prefecture":"岡山","contractor":"","structural_designer":"","landscape_designer":"","shinkenchiku_url":""},{"id":13507,"title":"市原うさぎ幼稚園","architect":"アトリエ・ワン","year":2023.0,"address":"千葉県市原市山木136","latitude":35.51751708984375,"longitude":140.14195251464844,"category":"幼稚園","big_category":"教育","description":"","image_url":"","tags":"新建築2024年5月号,Ver5.40(2024年7月)の追加建築","prefecture":"千葉","contractor":"","structural_designer":"","landscape_designer":"","shinkenchiku_url":""},{"id":13508,"title":"認定こども園さざなみノイエ","architect":"竹原義二","year":2020.0,"address":"広島県東広島市西条町寺家252","latitude":34.42742919921875,"longitude":132.70303344726562,"category":"幼稚園","big_category":"教育","description":"","image_url":"","tags":"新建築2024年5月号,Ver5.40(2024年7月)の追加建築","prefecture":"広島","contractor":"","structural_designer":"","landscape_designer":"","shinkenchiku_url":""},{"id":13509,"title":"認定こども園さざなみの森","architect":"竹原義二","year":2011.0,"address":"広島県東広島市西条町寺家261","latitude":34.42875671386719,"longitude":132.70579528808594,"category":"幼稚園","big_category":"教育","description":"","image_url":"","tags":"新建築2024年5月号,Ver5.40(2024年7月)の追加建築","prefecture":"広島","contractor":"","structural_designer":"","landscape_designer":"","shinkenchiku_url":""},{"id":13510,"title":"中央区立晴海西小学校・晴海西中学校","architect":"石本建築事務所","year":2024.0,"address":"東京都中央区晴海5-3-5","latitude":35.65053939819336,"longitude":139.7755584716797,"category":"学校","big_category":"教育","description":"","image_url":"","tags":"新建築2024年5月号,Ver5.40(2024年7月)の追加建築","prefecture":"東京","contractor":"","structural_designer":"","landscape_designer":"","shinkenchiku_url":""},{"id":13511,"title":"社会福祉法人ライフの学校 六郷キャンパス","architect":"トミトアーキテクチャ+川見拓也","year":2023.0,"address":"宮城県仙台市若林区今泉門暮126-1","latitude":38.21309280395508,"longitude":140.9305877685547,"category":"養護施設/幼稚園","big_category":"医療施設,教育","description":"","image_url":"","tags":"新建築2024年5月号,Ver5.40(2024年7月)の追加建築","prefecture":"宮城","contractor":"","structural_designer":"","landscape_designer":"","shinkenchiku_url":""},{"id":13512,"title":"ときがわ町のグループホーム・クレア","architect":"乾久美子","year":2023.0,"address":"埼玉県比企郡ときがわ町玉川216-3","latitude":36.014522552490234,"longitude":139.31016540527344,"category":"養護施設","big_category":"医療施設","description":"","image_url":"","tags":"新建築2024年5月号,Ver5.40(2024年7月)の追加建築","prefecture":"埼玉","contractor":"細田建設","structural_designer":"テクトニカ","landscape_designer":"","shinkenchiku_url":""},{"id":13513,"title":"なないろこまち","architect":"黒田潤三","year":2019.0,"address":"茨城県つくば市手代木字東向1893-1","latitude":36.06171798706055,"longitude":140.10972595214844,"category":"個人医院/カフェ","big_category":"医療施設,商業施設","description":"","image_url":"","tags":"新建築2024年5月号,Ver5.40(2024年7月)の追加建築","prefecture":"茨城","contractor":"小林建設株式会社","structural_designer":"長谷川大輔構造計画","landscape_designer":"","shinkenchiku_url":""},{"id":13514,"title":"なないろレディースクリニック1","architect":"黒田潤三","year":2007.0,"address":"茨城県つくば市西大沼637-6","latitude":36.062950134277344,"longitude":140.1107940673828,"category":"個人医院","big_category":"医療施設","description":"","image_url":"","tags":"Ver5.40(2024年7月)の追加建築","prefecture":"茨城","contractor":"東武建設","structural_designer":"長谷川大輔構造計画","landscape_designer":"","shinkenchiku_url":""},{"id":13515,"title":"なないろレディースクリニック2","architect":"黒田潤三","year":2018.0,"address":"茨城県つくば市西大沼637-10","latitude":36.06234359741211,"longitude":140.1105194091797,"category":"個人医院","big_category":"医療施設","description":"","image_url":"","tags":"Ver5.40(2024年7月)の追加建築","prefecture":"茨城","contractor":"東武建設","structural_designer":"長谷川大輔構造計画","landscape_designer":"","shinkenchiku_url":""},{"id":13516,"title":"ばらのいずみクリニック","architect":"黒田潤三","year":2014.0,"address":"愛媛県松山市和泉南1-7-10","latitude":33.817588806152344,"longitude":132.76443481445312,"category":"個人医院","big_category":"医療施設","description":"","image_url":"","tags":"Ver5.40(2024年7月)の追加建築","prefecture":"愛媛","contractor":"一宮工務店","structural_designer":"小西泰孝建築構造設計","landscape_designer":"","shinkenchiku_url":""},{"id":13517,"title":"つくば木場公園クリニック","architect":"黒田潤三","year":2019.0,"address":"茨城県つくば市松野木101-6","latitude":36.059844970703125,"longitude":140.1113739013672,"category":"個人医院","big_category":"医療施設","description":"","image_url":"","tags":"Ver5.40(2024年7月)の追加建築","prefecture":"茨城","contractor":"東武建設","structural_designer":"長谷川大輔構造計画","landscape_designer":"","shinkenchiku_url":""},{"id":13518,"title":"WORK VILLA MITOSHIRO 旧住友商事美土代ビル","architect":"安井建築設計","year":1966.0,"address":"東京都千代田区神田美土代町1","latitude":35.69274139404297,"longitude":139.76536560058594,"category":"オフィスビル","big_category":"企業施設","description":"2023年安井建築設計により改修","image_url":"","tags":"新建築2024年6月号,Ver5.40(2024年7月)の追加建築","prefecture":"東京","contractor":"","structural_designer":"","landscape_designer":"","shinkenchiku_url":""},{"id":13519,"title":"Urban Green / RYOZAN PARK GREEN","architect":"平田晃久","year":2024.0,"address":"東京都豊島区南大塚2-35-11","latitude":35.728614807128906,"longitude":139.73001098632812,"category":"シェアオフィス/住宅","big_category":"商業施設,住宅","description":"","image_url":"","tags":"新建築2024年6月号,Ver5.40(2024年7月)の追加建築","prefecture":"東京","contractor":"","structural_designer":"","landscape_designer":"","shinkenchiku_url":""},{"id":13520,"title":"TORAYA Ginza Building","architect":"鹿島建設+内藤廣","year":2024.0,"address":"東京都中央区銀座7-8-17","latitude":35.66927719116211,"longitude":139.7624053955078,"category":"複合ビル","big_category":"企業施設","description":"TORAYA GINZA、及び5F銀座 黒田陶苑の内装設計を内藤廣が手がける","image_url":"","tags":"新建築2024年6月号,Ver5.40(2024年7月)の追加建築","prefecture":"東京","contractor":"鹿島建設","structural_designer":"","landscape_designer":"","shinkenchiku_url":""},{"id":13521,"title":"NTKJ ブリッジ 樹脂レンズ工場の建築群","architect":"宮城島崇人","year":2024.0,"address":"埼玉県熊谷市御稜威ケ原138-6","latitude":36.156410217285156,"longitude":139.30258178710938,"category":"橋/企業施設","big_category":"インフラ,企業施設","description":"日本特殊光学樹脂 熊谷工場の工場間に架かる橋","image_url":"","tags":"新建築2024年6月号,Ver5.40(2024年7月)の追加建築","prefecture":"埼玉","contractor":"シグマ建設","structural_designer":"金田泰裕","landscape_designer":"","shinkenchiku_url":""},{"id":13522,"title":"岐阜の冷凍自動倉庫 ヤマ食","architect":"伊藤維","year":2024.0,"address":"岐阜県岐阜市柳津町流通センター1-12-6","latitude":35.367252349853516,"longitude":136.70982360839844,"category":"工場","big_category":"企業施設","description":"","image_url":"","tags":"新建築2024年6月号,Ver5.40(2024年7月)の追加建築","prefecture":"岐阜","contractor":"","structural_designer":"","landscape_designer":"","shinkenchiku_url":""},{"id":13523,"title":"守山市立北部図書館 本の湖・守山市立速野会館","architect":"芦澤竜一+水原建築設計事務所","year":2023.0,"address":"滋賀県守山市水保町2236","latitude":35.10033416748047,"longitude":135.95843505859375,"category":"図書館/ホール・劇場","big_category":"文化施設,文化施設","description":"","image_url":"","tags":"新建築2024年6月号,Ver5.40(2024年7月)の追加建築","prefecture":"滋賀","contractor":"","structural_designer":"","landscape_designer":"","shinkenchiku_url":""},{"id":13524,"title":"CYCL","architect":"百枝優","year":2024.0,"address":"山梨県南都留郡山中湖村平野479-107","latitude":35.41495895385742,"longitude":138.8956298828125,"category":"温泉","big_category":"宿泊","description":"サウナ","image_url":"","tags":"新建築2024年6月号,Ver5.40(2024年7月)の追加建築","prefecture":"山梨","contractor":"","structural_designer":"","landscape_designer":"","shinkenchiku_url":""},{"id":13525,"title":"新菱冷熱工業イノベーションハブ本館","architect":"三菱地所","year":2023.0,"address":"茨城県つくば市和台41","latitude":36.15839385986328,"longitude":140.05104064941406,"category":"研究施設","big_category":"教育","description":"","image_url":"","tags":"新建築2024年6月号,Ver5.40(2024年7月)の追加建築","prefecture":"茨城","contractor":"竹中工務店","structural_designer":"","landscape_designer":"","shinkenchiku_url":""},{"id":13526,"title":"ジブリパーク2期 魔女の谷・もののけの里","architect":"日本設計+スタジオジブリ","year":2023.0,"address":"愛知県長久手市茨ケ廻間1533-1","latitude":35.173927307128906,"longitude":137.0933074951172,"category":"テーマパーク","big_category":"レジャー施設","description":"","image_url":"","tags":"新建築2024年6月号,Ver5.40(2024年7月)の追加建築","prefecture":"愛知","contractor":"","structural_designer":"","landscape_designer":"","shinkenchiku_url":""},{"id":13527,"title":"東京イースト21","architect":"三上祐三+鹿島建設","year":1992.0,"address":"東京都江東区東陽6-3-3","latitude":35.67469024658203,"longitude":139.8145294189453,"category":"複合ビル","big_category":"企業施設","description":"全体設計・オフィス棟・商業棟の設計を三上祐三（MIDI綜合設計研究所）が手がける","image_url":"","tags":"Ver5.40(2024年7月)の追加建築","prefecture":"東京","contractor":"鹿島建設","structural_designer":"","landscape_designer":"","shinkenchiku_url":""},{"id":13528,"title":"志木ニュータウン","architect":"三上祐三+鹿島建設","year":1979.0,"address":"埼玉県志木市館2-3","latitude":35.82730484008789,"longitude":139.55853271484375,"category":"都市計画/集合住宅","big_category":"公共施設,住宅","description":"南の森壱番街が1979年に竣工。以後順次拡張。総戸数3161戸","image_url":"","tags":"Ver5.40(2024年7月)の追加建築","prefecture":"埼玉","contractor":"鹿島建設","structural_designer":"","landscape_designer":"","shinkenchiku_url":""},{"id":13529,"title":"鹿島建設KIビル","architect":"三上祐三+鹿島建設","year":1982.0,"address":"東京都港区赤坂6-5-30","latitude":35.67039489746094,"longitude":139.73585510253906,"category":"オフィスビル","big_category":"企業施設","description":"","image_url":"","tags":"Ver5.40(2024年7月)の追加建築","prefecture":"東京","contractor":"鹿島建設","structural_designer":"","landscape_designer":"","shinkenchiku_url":""},{"id":13530,"title":"丸和新社屋","architect":"内藤廣","year":2024.0,"address":"和歌山県紀の川市桃山町調月1758-14","latitude":34.22134780883789,"longitude":135.33815002441406,"category":"低層オフィス","big_category":"企業施設","description":"","image_url":"","tags":"Ver5.40(2024年7月)の追加建築","prefecture":"和歌山","contractor":"","structural_designer":"","landscape_designer":"","shinkenchiku_url":""},{"id":13531,"title":"日鉄ロールズロール加工工場 旧日本製鉄八幡製鉄所ロール旋削工場","architect":"村野藤吾","year":1941.0,"address":"福岡県北九州市戸畑区中原 ロール施削工場","latitude":33.9058837890625,"longitude":130.8451690673828,"category":"工場","big_category":"企業施設","description":"","image_url":"","tags":"DOCOMOMO,Ver5.40(2024年7月)の追加建築","prefecture":"福岡","contractor":"","structural_designer":"","landscape_designer":"","shinkenchiku_url":""},{"id":13532,"title":"坂城町体育館","architect":"滝沢健児","year":1970.0,"address":"長野県埴科郡坂城町中之条2468","latitude":36.450740814208984,"longitude":138.1941375732422,"category":"体育館","big_category":"レジャー施設","description":"","image_url":"","tags":"DOCOMOMO,Ver5.40(2024年7月)の追加建築","prefecture":"長野","contractor":"中信建設","structural_designer":"田中弥壽雄","landscape_designer":"","shinkenchiku_url":""},{"id":13533,"title":"自由学園 幼児生活団 幼稚園","architect":"遠藤楽","year":1967.0,"address":"東京都東久留米市学園町1-11-17","latitude":35.75260925292969,"longitude":139.54002380371094,"category":"幼稚園","big_category":"教育","description":"","image_url":"","tags":"DOCOMOMO,Ver5.40(2024年7月)の追加建築","prefecture":"東京","contractor":"大明建設","structural_designer":"","landscape_designer":"","shinkenchiku_url":""},{"id":13534,"title":"萩原家住宅 旧萩原庫吉邸","architect":"遠藤新","year":1924.0,"address":"東京都世田谷区三宿1-15-2","latitude":35.64761734008789,"longitude":139.6753692626953,"category":"住宅","big_category":"住宅","description":"音楽教室、及びレンタルスペースとして利用可能","image_url":"","tags":"登録有形文化財,Ver5.40(2024年7月)の追加建築","prefecture":"東京","contractor":"","structural_designer":"","landscape_designer":"","shinkenchiku_url":""},{"id":13535,"title":"円福寺 客殿","architect":"多和良屋","year":2024.0,"address":"千葉県野田市三ツ堀101","latitude":35.941612243652344,"longitude":139.93191528320312,"category":"寺院","big_category":"宗教","description":"","image_url":"","tags":"Ver5.40(2024年7月)の追加建築","prefecture":"千葉","contractor":"水雅","structural_designer":"清水良太構造デザインスタジオ","landscape_designer":"","shinkenchiku_url":""},{"id":13536,"title":"時の納屋","architect":"堀部安嗣","year":2024.0,"address":"香川県さぬき市小田2671-75","latitude":34.365570068359375,"longitude":134.2080078125,"category":"カフェ","big_category":"商業施設","description":"","image_url":"","tags":"Ver5.40(2024年7月)の追加建築,新建築2024年11月号","prefecture":"香川","contractor":"菅組","structural_designer":"","landscape_designer":"","shinkenchiku_url":""},{"id":13537,"title":"鳴門市新庁舎","architect":"内藤廣+前田建設工業+吉成建設","year":2024.0,"address":"徳島県鳴門市撫養町南浜東浜170","latitude":34.173011779785156,"longitude":134.6089630126953,"category":"庁舎","big_category":"公共施設","description":"","image_url":"","tags":"Ver5.40(2024年7月)の追加建築,新建築2024年9月号","prefecture":"徳島","contractor":"","structural_designer":"","landscape_designer":"","shinkenchiku_url":""},{"id":13538,"title":"さくらんぼ畑のオフィス Otias新本社","architect":"o+h","year":2023.0,"address":"山形県東根市野田580","latitude":38.41997528076172,"longitude":140.35946655273438,"category":"低層オフィス","big_category":"企業施設","description":"","image_url":"","tags":"新建築2024年7月号,Ver5.40(2024年7月)の追加建築","prefecture":"山形","contractor":"Otias","structural_designer":"佐々木睦郎構造計画研究所","landscape_designer":"","shinkenchiku_url":""},{"id":13539,"title":"TGP TEGA POND CAFE stand","architect":"土田拓也","year":2022.0,"address":"千葉県我孫子市若松1","latitude":35.86585998535156,"longitude":140.0134735107422,"category":"カフェ/公園","big_category":"商業施設,レジャー施設","description":"","image_url":"","tags":"Ver5.40(2024年7月)の追加建築","prefecture":"千葉","contractor":"コンテナハウス2040","structural_designer":"","landscape_designer":"","shinkenchiku_url":""},{"id":13540,"title":"SKF FLAT369","architect":"土田拓也","year":2021.0,"address":"東京都世田谷区新町3-19-11","latitude":35.632328033447266,"longitude":139.64744567871094,"category":"集合住宅","big_category":"住宅","description":"","image_url":"","tags":"Ver5.40(2024年7月)の追加建築","prefecture":"東京","contractor":"江中建設","structural_designer":"シェルター","landscape_designer":"","shinkenchiku_url":""},{"id":13541,"title":"FSF ふたばの森 双葉こどもの園","architect":"土田拓也","year":2023.0,"address":"福島県須賀川市新町169","latitude":37.29487228393555,"longitude":140.3525390625,"category":"幼稚園","big_category":"教育","description":"","image_url":"","tags":"Ver5.40(2024年7月)の追加建築","prefecture":"福島","contractor":"蔭山工務店","structural_designer":"frameworks","landscape_designer":"","shinkenchiku_url":""},{"id":13542,"title":"CTE ambient","architect":"土田拓也","year":2023.0,"address":"千葉県銚子市天王台713-2","latitude":35.70570755004883,"longitude":140.8520965576172,"category":"シェアオフィス","big_category":"商業施設","description":"シェアキッチン、シェアスペース","image_url":"","tags":"Ver5.40(2024年7月)の追加建築","prefecture":"千葉","contractor":"プラススタイル","structural_designer":"","landscape_designer":"","shinkenchiku_url":""},{"id":13543,"title":"IDU いづみ学園 idumi nursery school + after school","architect":"土田拓也","year":2020.0,"address":"東京都西東京市芝久保町3-6-20","latitude":35.729820251464844,"longitude":139.5229034423828,"category":"幼稚園","big_category":"教育","description":"","image_url":"","tags":"Ver5.40(2024年7月)の追加建築","prefecture":"東京","contractor":"池田工務店","structural_designer":"frameworks","landscape_designer":"","shinkenchiku_url":""},{"id":13544,"title":"MAZ 広尾ピースオブモダンダンススタジオ","architect":"土田拓也","year":2020.0,"address":"東京都港区南麻布5-13-12","latitude":35.652198791503906,"longitude":139.72341918945312,"category":"専門学校/住宅","big_category":"教育,住宅","description":"","image_url":"","tags":"Ver5.40(2024年7月)の追加建築","prefecture":"東京","contractor":"","structural_designer":"多田脩二構造設計事務所","landscape_designer":"","shinkenchiku_url":""},{"id":13545,"title":"PNS 野村学園パール幼稚園","architect":"土田拓也","year":2020.0,"address":"東京都大田区東蒲田2-21-15","latitude":35.5618782043457,"longitude":139.72845458984375,"category":"幼稚園","big_category":"教育","description":"","image_url":"","tags":"Ver5.40(2024年7月)の追加建築","prefecture":"東京","contractor":"横山建設","structural_designer":"多田脩二構造設計事務所","landscape_designer":"","shinkenchiku_url":""},{"id":13546,"title":"JDK JDLドミトリ葛西","architect":"土田拓也","year":2015.0,"address":"東京都江戸川区東葛西1-17-10","latitude":35.67152786254883,"longitude":139.87925720214844,"category":"寮","big_category":"住宅","description":"","image_url":"","tags":"Ver5.40(2024年7月)の追加建築","prefecture":"東京","contractor":"ナカノフドー建設","structural_designer":"frameworks","landscape_designer":"","shinkenchiku_url":""},{"id":13547,"title":"IKS JOURNAL","architect":"土田拓也","year":2013.0,"address":"茨城県つくば市今鹿島4869-1","latitude":36.12922286987305,"longitude":140.03839111328125,"category":"カフェ/住宅","big_category":"商業施設,住宅","description":"","image_url":"","tags":"Ver5.40(2024年7月)の追加建築","prefecture":"茨城","contractor":"冨祥工務店","structural_designer":"frameworks","landscape_designer":"","shinkenchiku_url":""},{"id":13548,"title":"ひがし北海道IT専門学校","architect":"八木敦之+第一宅建設計+ケイ設計","year":2023.0,"address":"北海道標津郡中標津町東7条南9-6","latitude":43.54658126831055,"longitude":144.9864044189453,"category":"専門学校","big_category":"教育","description":"","image_url":"","tags":"Ver5.40(2024年7月)の追加建築","prefecture":"北海道","contractor":"犬飼・廣木特定建設工事共同企業体","structural_designer":"soaps","landscape_designer":"","shinkenchiku_url":""},{"id":13549,"title":"星美ホーム サローネ","architect":"藤原徹平","year":2024.0,"address":"東京都北区赤羽台4-2-14","latitude":35.7848014831543,"longitude":139.71328735351562,"category":"養護施設/児童施設","big_category":"医療施設,教育","description":"","image_url":"","tags":"Ver5.40(2024年7月)の追加建築","prefecture":"東京","contractor":"","structural_designer":"","landscape_designer":"","shinkenchiku_url":""},{"id":13550,"title":"中条共創の森オープンイノベーションラボ","architect":"小山光+パーク・コーポレーション","year":2024.0,"address":"新潟県胎内市村松浜1873","latitude":38.05595016479492,"longitude":139.33917236328125,"category":"研究施設","big_category":"教育","description":"","image_url":"","tags":"Ver5.40(2024年7月)の追加建築","prefecture":"新潟","contractor":"池田組","structural_designer":"構造設計工房デルタ","landscape_designer":"","shinkenchiku_url":""}]}