{"page":25,"total_pages":290,"items_per_page":50,"total_items":14467,"items":[{"id":1201,"title":"横浜ビジネスパーク ベリーニの丘","architect":"マリオ・ベリーニ","year":1990.0,"address":"神奈川県横浜市保土ヶ谷区神戸町134","latitude":35.4538688659668,"longitude":139.59774780273438,"category":"公園","description":"","image_url":"https://farm8.staticflickr.com/7430/10823426773_8e80e5680f_h.jpg"},{"id":1202,"title":"横浜市開港記念会館","architect":"福田重義+山田七五郎+佐藤四郎","year":1917.0,"address":"神奈川県横浜市中区本町1-6","latitude":35.44728088378906,"longitude":139.6412353515625,"category":"洋館","description":"","image_url":"https://lh3.googleusercontent.com/-h0TLLSHRkQY/Uoo6i-Z9bfI/AAAAAAABCoM/QjpSJykOwJE/s1024/lr-9277252.jpg"},{"id":1203,"title":"ベーリックホール","architect":"ジェイ・ヒル・モーガン","year":1930.0,"address":"神奈川県横浜市中区山手町72","latitude":35.43764114379883,"longitude":139.65072631835938,"category":"洋館","description":"","image_url":"https://lh3.googleusercontent.com/-eqiNCFmawy8/Uoo7o82lbaI/AAAAAAABCuc/Y0y_x1clg9U/s1280/lr-9277414.jpg"},{"id":1204,"title":"エリスマン邸","architect":"アントニン・レーモンド","year":1926.0,"address":"神奈川県横浜市中区山手町1-77-4","latitude":35.437557220458984,"longitude":139.65130615234375,"category":"住宅","description":"","image_url":"https://lh3.googleusercontent.com/-R-balAPkGaw/Uoo6NA7fakI/AAAAAAABCmU/cT3duzAoeME/s1280/lr-9277405.jpg"},{"id":1205,"title":"横浜美術館","architect":"丹下健三","year":1989.0,"address":"神奈川県横浜市西区みなとみらい3-4-1","latitude":35.45642852783203,"longitude":139.63095092773438,"category":"美術館","description":"横浜トリエンナーレの舞台会場。2024年大規模改修。グランドギャラリーを乾久美子が改修","image_url":""},{"id":1206,"title":"神奈川県庁本庁舎","architect":"小尾嘉郎","year":1928.0,"address":"神奈川県横浜市中区日本大通1","latitude":35.447505950927734,"longitude":139.64234924316406,"category":"庁舎","description":"","image_url":"https://lh3.googleusercontent.com/-THN8LaTVe-U/Uoo4xc3ikJI/AAAAAAABCeA/fyjQNncVXwE/s1024/lr-9277146.jpg"},{"id":1207,"title":"象の鼻パーク／テラス","architect":"小泉雅生","year":2009.0,"address":"神奈川県横浜市中区海岸通1-","latitude":35.44831085205078,"longitude":139.64532470703125,"category":"公園","description":"","image_url":"https://lh3.googleusercontent.com/-l7yHDzRwB3U/Uoo7Z2p-mNI/AAAAAAABCtY/cEBiuc4PIaA/s1024/lr-9277053.jpg"},{"id":1208,"title":"ホテルニューグランド","architect":"渡辺仁","year":1927.0,"address":"神奈川県横浜市中区山下町10","latitude":35.444942474365234,"longitude":139.64955139160156,"category":"ホテル","description":"","image_url":""},{"id":1209,"title":"山手111番館","architect":"ジェイ・ヒル・モーガン","year":1926.0,"address":"神奈川県横浜市中区山手町111","latitude":35.43876266479492,"longitude":139.6547393798828,"category":"洋館","description":"","image_url":""},{"id":1210,"title":"シルクセンタービル シルク博物館","architect":"坂倉準三","year":1959.0,"address":"神奈川県横浜市中区山下町1","latitude":35.44753646850586,"longitude":139.64524841308594,"category":"博物館/組合施設","description":"","image_url":"https://farm8.staticflickr.com/7372/10856600534_00322d16e5_h.jpg"},{"id":1211,"title":"横浜旧イギリス領事館 横浜開港資料館","architect":"英国工務省","year":1931.0,"address":"神奈川県横浜市中区日本大通3","latitude":35.447662353515625,"longitude":139.64390563964844,"category":"洋館","description":"","image_url":"https://lh3.googleusercontent.com/-Caww1gjylLk/Uoo4V2cDaZI/AAAAAAABCbg/X_Vv8DEUHaA/s1024/lr-9277301.jpg"},{"id":1212,"title":"横浜税関本関","architect":"大蔵省営繕管財局+香山壽夫+大野秀敏","year":1934.0,"address":"神奈川県横浜市中区海岸通1-1","latitude":35.44843292236328,"longitude":139.644775390625,"category":"公共施設","description":"2003年に改修工事","image_url":""},{"id":1213,"title":"神奈川県立近代美術館 鎌倉","architect":"坂倉準三","year":1951.0,"address":"神奈川県鎌倉市雪ノ下2-1-53","latitude":35.32464599609375,"longitude":139.55474853515625,"category":"美術館","description":"","image_url":""},{"id":1214,"title":"モンタナ修道院 聖母訪問会修院","architect":"今井兼次","year":1965.0,"address":"神奈川県鎌倉市津550","latitude":35.31250762939453,"longitude":139.501708984375,"category":"教会","description":"","image_url":""},{"id":1215,"title":"ウィークエンド ハウスアレイ","architect":"千葉学","year":2008.0,"address":"神奈川県鎌倉市七里ガ浜1-1-1","latitude":35.305580139160156,"longitude":139.51023864746094,"category":"集合住宅/カフェ/店舗","description":"","image_url":""},{"id":1216,"title":"西御門サローネ 旧里見弴邸","architect":"里見弴","year":1929.0,"address":"神奈川県鎌倉市西御門1-19-3","latitude":35.32914352416992,"longitude":139.560302734375,"category":"洋館","description":"月曜日のみ","image_url":""},{"id":1217,"title":"神奈川県立近代美術館 鎌倉別館","architect":"大高正人","year":1984.0,"address":"神奈川県鎌倉市雪ノ下2-8-1","latitude":35.327571868896484,"longitude":139.5557098388672,"category":"美術館","description":"","image_url":""},{"id":1218,"title":"旧華頂宮邸","architect":"不明","year":null,"address":"神奈川県鎌倉市浄明寺2-6-37","latitude":35.31818771362305,"longitude":139.5698699951172,"category":"洋館","description":"","image_url":""},{"id":1219,"title":"鎌倉文学館本館 旧前田侯爵家別邸","architect":"渡辺栄治","year":1936.0,"address":"神奈川県鎌倉市長谷1-5-3","latitude":35.315521240234375,"longitude":139.5388946533203,"category":"博物館","description":"","image_url":""},{"id":1220,"title":"鎌倉市長谷子ども会館 旧諸戸邸","architect":"不明","year":null,"address":"神奈川県鎌倉市長谷1-11-1","latitude":35.31417465209961,"longitude":139.53787231445312,"category":"洋館","description":"","image_url":""},{"id":1221,"title":"鎌倉プリンスホテル","architect":"清家清","year":1995.0,"address":"神奈川県鎌倉市七里ガ浜東1-2-18","latitude":35.30657196044922,"longitude":139.5152130126953,"category":"ホテル","description":"","image_url":""},{"id":1222,"title":"赤瀬川家の墓・庭瀬家の墓","architect":"藤森照信","year":2004.0,"address":"神奈川県鎌倉市山ノ内1367","latitude":35.33524703979492,"longitude":139.54563903808594,"category":"オブジェ/霊園","description":"","image_url":""},{"id":1223,"title":"さくら広場（茅ヶ崎）","architect":"安藤忠雄","year":2007.0,"address":"神奈川県茅ヶ崎市本宿町11-66","latitude":35.3376350402832,"longitude":139.44032287597656,"category":"公園/広場","description":"","image_url":""},{"id":1224,"title":"茅ヶ崎市美術館","architect":"洋建築企画","year":1997.0,"address":"神奈川県茅ヶ崎市東海岸北1-4-45","latitude":35.32622146606445,"longitude":139.40638732910156,"category":"美術館","description":"","image_url":""},{"id":1225,"title":"寒川神社 方徳資料館","architect":"日本造園設計","year":2009.0,"address":"神奈川県高座郡寒川町宮山3916","latitude":35.3788948059082,"longitude":139.3832244873047,"category":"博物館","description":"","image_url":""},{"id":1226,"title":"神奈川工科大学 KAIT工房","architect":"石上純也","year":2008.0,"address":"神奈川県厚木市下荻野1030","latitude":35.486968994140625,"longitude":139.34228515625,"category":"大学","description":"月曜日～土曜日　10時30分～11時30分または13時～14時の間","image_url":""},{"id":1227,"title":"神奈川工科大学 情報学部棟","architect":"鹿島建設","year":2006.0,"address":"神奈川県厚木市下荻野1030","latitude":35.485355377197266,"longitude":139.34133911132812,"category":"大学","description":"","image_url":""},{"id":1228,"title":"ヴァレオユニシアトランスミッション厚木工場","architect":"岡部憲明","year":2000.0,"address":"神奈川県厚木市飯山2585","latitude":35.459686279296875,"longitude":139.33079528808594,"category":"工場","description":"","image_url":""},{"id":1229,"title":"七沢希望の丘初等学校","architect":"中村勉","year":2008.0,"address":"神奈川県厚木市七沢433-1","latitude":35.437015533447266,"longitude":139.29434204101562,"category":"学校","description":"","image_url":""},{"id":1230,"title":"古稀庵","architect":"岩本勝五郎","year":1907.0,"address":"神奈川県小田原市板橋827","latitude":35.248878479003906,"longitude":139.14422607421875,"category":"和風住宅","description":"毎週日曜日のみ","image_url":""},{"id":1231,"title":"Green Cast","architect":"隈研吾","year":2011.0,"address":"神奈川県小田原市城山2-3-46","latitude":35.25829315185547,"longitude":139.15196228027344,"category":"オフィスビル","description":"","image_url":""},{"id":1232,"title":"松永記念館 老欅荘","architect":"不明","year":1946.0,"address":"神奈川県小田原市板橋941-1","latitude":35.24904251098633,"longitude":139.1414794921875,"category":"和風住宅","description":"","image_url":"https://lh3.googleusercontent.com/-IpdexMy0B1I/UZSBwKFdNLI/AAAAAAAA9Ec/nEcR5cSSawI/s1024/lr-4100458.jpg"},{"id":1233,"title":"清閑亭","architect":"不明","year":1906.0,"address":"神奈川県小田原市南町1-5-73","latitude":35.24870300292969,"longitude":139.1533660888672,"category":"和風住宅","description":"","image_url":"https://lh3.googleusercontent.com/-IAxNbjmcVFA/UZSBOsEJJzI/AAAAAAAA8_Y/zEyxcDLookU/s1024/lr-4100545.jpg"},{"id":1234,"title":"小田原文学館 旧田中光顕別邸","architect":"曽禰達蔵+中條精一郎","year":1924.0,"address":"神奈川県小田原市南町2-3-4","latitude":35.24474334716797,"longitude":139.15371704101562,"category":"洋館","description":"","image_url":"https://lh3.googleusercontent.com/-KUFJb7Ooims/UZSBaLQEHOI/AAAAAAAA9BE/dJg1VEeGqOw/s1152/lr-4100498.jpg"},{"id":1235,"title":"神奈川県立生命の星・地球博物館","architect":"国設計","year":1995.0,"address":"神奈川県小田原市入生田499","latitude":35.239227294921875,"longitude":139.1212615966797,"category":"博物館","description":"","image_url":"https://lh3.googleusercontent.com/-ekpDactKJ0w/U1dDPez-qSI/AAAAAAABNRo/ydy78L5xYpc/s1440/lr.jpg"},{"id":1236,"title":"松田山ハーブガーデン","architect":"高松伸","year":1997.0,"address":"神奈川県足柄上郡松田町松田惣領2951","latitude":35.35163497924805,"longitude":139.1375732421875,"category":"公園","description":"","image_url":""},{"id":1237,"title":"真鶴町立中川一政美術館","architect":"柳澤孝彦","year":1988.0,"address":"神奈川県足柄下郡真鶴町真鶴1178-1","latitude":35.14441680908203,"longitude":139.15185546875,"category":"美術館","description":"","image_url":"https://lh3.googleusercontent.com/-TX2C6E7n-iU/U1dCZD2vguI/AAAAAAABNN0/IrOTqNbCxtU/s1024/lr-6.jpg"},{"id":1238,"title":"無印良品 窓の家","architect":"隈研吾","year":2008.0,"address":"神奈川県秦野市曽屋6033-3","latitude":35.380001068115234,"longitude":139.24415588378906,"category":"住宅","description":"全国9カ所にモデルハウスあり","image_url":""},{"id":1239,"title":"曹洞宗亀王山 太岳院","architect":"安藤忠雄","year":2007.0,"address":"神奈川県秦野市今泉391","latitude":35.36781311035156,"longitude":139.2236785888672,"category":"寺院","description":"","image_url":"https://lh3.googleusercontent.com/-L75fJrtTa9I/U1dDAK-UCpI/AAAAAAABNQs/U04Bv3Bm8jw/s1024/lr-14.jpg"},{"id":1240,"title":"国民宿舎 丹沢ホーム","architect":"原広司","year":1996.0,"address":"神奈川県愛甲郡清川村煤ヶ谷5172","latitude":35.46037673950195,"longitude":139.21078491210938,"category":"ホテル","description":"","image_url":""},{"id":1241,"title":"直方体の森 中村正義の美術館","architect":"篠原一男","year":1971.0,"address":"神奈川県川崎市麻生区細山7-2-8","latitude":35.62234878540039,"longitude":139.51280212402344,"category":"美術館","description":"毎週土日祝日のみオープン","image_url":""},{"id":1242,"title":"東京都水道局 長沢浄水場","architect":"山田守","year":1957.0,"address":"神奈川県川崎市多摩区三田5-1-1","latitude":35.605533599853516,"longitude":139.54571533203125,"category":"公共施設","description":"","image_url":""},{"id":1243,"title":"星の子愛児園","architect":"石山修武","year":2002.0,"address":"神奈川県川崎市多摩区菅稲田堤1-17-25","latitude":35.63405227661133,"longitude":139.5342254638672,"category":"幼稚園","description":"2015年増築","image_url":""},{"id":1244,"title":"藤子・F・不二雄ミュージアム","architect":"日本設計","year":2011.0,"address":"神奈川県川崎市多摩区長尾2-8-1","latitude":35.6099739074707,"longitude":139.5732421875,"category":"博物館","description":"","image_url":""},{"id":1245,"title":"川崎市岡本太郎美術館","architect":"久米設計","year":1999.0,"address":"神奈川県川崎市多摩区枡形7-1-5","latitude":35.60805892944336,"longitude":139.5574951171875,"category":"美術館","description":"","image_url":""},{"id":1246,"title":"洗足学園音楽大学 eキューブ シルバーマウンテン","architect":"鹿島建設+押野見邦英","year":2013.0,"address":"神奈川県川崎市高津区久本2-3-1","latitude":35.595054626464844,"longitude":139.61480712890625,"category":"大学","description":"","image_url":""},{"id":1247,"title":"洗足学園音楽大学 ブラックホール","architect":"日建設計","year":2009.0,"address":"神奈川県川崎市高津区久本2-3-1","latitude":35.59443283081055,"longitude":139.6164093017578,"category":"大学","description":"","image_url":""},{"id":1248,"title":"川崎市市民ミュージアム","architect":"菊竹清訓","year":1988.0,"address":"神奈川県川崎市中原区等々力1-2","latitude":35.58870315551758,"longitude":139.64735412597656,"category":"博物館","description":"","image_url":""},{"id":1249,"title":"川崎市立御幸小学校","architect":"湯澤正信","year":2009.0,"address":"神奈川県川崎市幸区遠藤町1","latitude":35.54338073730469,"longitude":139.69189453125,"category":"学校","description":"","image_url":""},{"id":1250,"title":"藤野芸術の家","architect":"仙田満","year":1995.0,"address":"神奈川県相模原市緑区牧野4819","latitude":35.5948600769043,"longitude":139.1521759033203,"category":"体験施設","description":"","image_url":""}]}