{"page":190,"total_pages":290,"items_per_page":50,"total_items":14467,"items":[{"id":9451,"title":"武豊町立図書館","architect":"司設計事務所","year":1986.0,"address":"愛知県知多郡武豊町字山ノ神135-1","latitude":34.85588836669922,"longitude":136.9130859375,"category":"図書館","description":"","image_url":""},{"id":9452,"title":"マルフジ 羽村店","architect":"山本理顕","year":1987.0,"address":"東京都羽村市羽東1-21-28","latitude":35.75872039794922,"longitude":139.3126220703125,"category":"店舗","description":"","image_url":""},{"id":9453,"title":"山本クリニック","architect":"山本理顕","year":1996.0,"address":"岡山県岡山市中区東川原227-1","latitude":34.67501449584961,"longitude":133.94476318359375,"category":"個人医院","description":"","image_url":""},{"id":9454,"title":"横浜市下和泉地区センター・下和泉地域ケアプラザ","architect":"山本理顕","year":1997.0,"address":"神奈川県横浜市泉区和泉が丘1-26-1","latitude":35.40327453613281,"longitude":139.4954071044922,"category":"福祉施設","description":"","image_url":""},{"id":9455,"title":"横浜市営住宅三ツ境ハイツ","architect":"山本理顕","year":2000.0,"address":"神奈川県横浜市瀬谷区三ツ境56","latitude":35.46274185180664,"longitude":139.50238037109375,"category":"集合住宅","description":"","image_url":""},{"id":9456,"title":"GAZEBO","architect":"山本理顕","year":1986.0,"address":"神奈川県横浜市神奈川区泉町15-5","latitude":35.47382736206055,"longitude":139.6204071044922,"category":"集合住宅/テナントビル/低層オフィス","description":"","image_url":""},{"id":9457,"title":"ROTUNDA","architect":"山本理顕","year":1987.0,"address":"神奈川県横浜市神奈川区松本町4-28-2","latitude":35.47673034667969,"longitude":139.6197967529297,"category":"集合住宅/テナントビル/低層オフィス","description":"","image_url":""},{"id":9458,"title":"フルハウス","architect":"坂茂","year":2020.0,"address":"福島県南相馬市小高区東町1-10","latitude":37.563629150390625,"longitude":140.99375915527344,"category":"カフェ","description":"","image_url":""},{"id":9459,"title":"カフェ ポールスター","architect":"高橋利明","year":2013.0,"address":"徳島県勝浦郡上勝町大字福原平間32-1","latitude":33.88439178466797,"longitude":134.4154815673828,"category":"カフェ","description":"","image_url":""},{"id":9460,"title":"四国水族館","architect":"大成建設","year":2020.0,"address":"香川県綾歌郡宇多津町浜一番丁4","latitude":34.31257247924805,"longitude":133.80787658691406,"category":"水族館","description":"2020年4月オープン予定だったが延期","image_url":""},{"id":9461,"title":"立正大学 熊谷キャンパス","architect":"槇文彦","year":1967.0,"address":"埼玉県熊谷市万吉1700","latitude":36.10813522338867,"longitude":139.36476135253906,"category":"大学","description":"どのあたりまでが槇文彦設計か調べきれませんでした。現ゲートプラザは確実と思います。新建築では教室棟、福利厚生棟、体育館、エネルギーセンター、男子寮、女子寮とありましたがどこまで残っているかは不明。分かり次第分割予定","image_url":""},{"id":9462,"title":"祇園くろちくビル 旧ABL 京都クラフトセンター","architect":"槇文彦","year":1981.0,"address":"京都府京都市東山区祇園町北側340","latitude":35.004058837890625,"longitude":135.7758026123047,"category":"テナントビル","description":"","image_url":""},{"id":9463,"title":"都営多摩ニュータウン南大沢団地","architect":"槇文彦","year":1984.0,"address":"東京都八王子市南大沢1-155-4","latitude":35.617271423339844,"longitude":139.38262939453125,"category":"集合住宅","description":"","image_url":""},{"id":9464,"title":"横浜市篠原地区センター･ケアプラザ","architect":"槇文彦","year":1997.0,"address":"神奈川県横浜市港北区篠原東2-15-27","latitude":35.49909591674805,"longitude":139.62551879882812,"category":"福祉施設","description":"","image_url":""},{"id":9465,"title":"雪の里情報館 旧雪調庁舎","architect":"今和次郎","year":1933.0,"address":"山形県新庄市石川町4-15","latitude":38.770973205566406,"longitude":140.2971649169922,"category":"洋館/博物館","description":"","image_url":""},{"id":9466,"title":"旧大越娯楽場","architect":"今和次郎","year":1926.0,"address":"福島県田村市大越町上大越町1","latitude":37.38306427001953,"longitude":140.63064575195312,"category":"洋館","description":"","image_url":""},{"id":9467,"title":"龍谷大学 大宮キャンパス 東黌","architect":"日建設計","year":2018.0,"address":"京都府京都市下京区大工町125-1","latitude":34.98958969116211,"longitude":135.75128173828125,"category":"大学","description":"","image_url":""},{"id":9468,"title":"本覚寺の森 観音霊園・観音堂","architect":"辻瞳+三笠友洋+曽我部昌史+吉岡寛之 他","year":2017.0,"address":"神奈川県横浜市鶴見区獅子ヶ谷2-6-32","latitude":35.517372131347656,"longitude":139.64483642578125,"category":"寺院/霊園","description":"設計クレジット：辻瞳+三笠友洋+曽我部昌史+吉岡寛之+マチデザイン+長谷川明","image_url":""},{"id":9469,"title":"川中島の珈琲焙煎店 ピアノピアーノ","architect":"ピークスタジオ","year":2019.0,"address":"長野県長野市川中島町御厨1037","latitude":36.59331130981445,"longitude":138.1586151123047,"category":"カフェ","description":"","image_url":""},{"id":9470,"title":"三島の美容室付き住宅 Jiu","architect":"ピークスタジオ+高山正樹","year":2017.0,"address":"静岡県田方郡函南町大土肥61","latitude":35.08871078491211,"longitude":138.94671630859375,"category":"美容院/住宅","description":"","image_url":""},{"id":9471,"title":"望星会 望星病院","architect":"高山正樹","year":2018.0,"address":"埼玉県さいたま市浦和区針ヶ谷1-8-14","latitude":35.87933349609375,"longitude":139.6433563232422,"category":"病院","description":"","image_url":""},{"id":9472,"title":"あだち江北メディカルクリニック","architect":"高山正樹","year":2018.0,"address":"東京都足立区江北4-28-27","latitude":35.773468017578125,"longitude":139.76824951171875,"category":"病院","description":"","image_url":""},{"id":9473,"title":"神蔵学園 町田こばと幼稚園 ART ANNEX KOBATO","architect":"高山正樹","year":2012.0,"address":"東京都町田市旭町2-10-25","latitude":35.55854034423828,"longitude":139.43466186523438,"category":"ホール・劇場/体育館/児童施設","description":"","image_url":""},{"id":9474,"title":"GINZA 888 BUILDING","architect":"高山正樹","year":2008.0,"address":"東京都中央区銀座8-8-8","latitude":35.6681022644043,"longitude":139.7613067626953,"category":"テナントビル","description":"","image_url":""},{"id":9475,"title":"北山ル・アンジェ教会","architect":"高山正樹","year":2003.0,"address":"京都府京都市左京区松ケ崎六ノ坪町5","latitude":35.05143737792969,"longitude":135.77719116210938,"category":"結婚式場","description":"","image_url":""},{"id":9476,"title":"フルーツピークス 仙台富沢店","architect":"大野力","year":2018.0,"address":"宮城県仙台市太白区富沢字熊ノ前21-1","latitude":38.21255874633789,"longitude":140.8584747314453,"category":"カフェ","description":"","image_url":""},{"id":9477,"title":"薬樹薬局 上白根","architect":"大野力","year":2016.0,"address":"神奈川県横浜市旭区上白根2-66-22","latitude":35.494266510009766,"longitude":139.5339813232422,"category":"医療施設/店舗","description":"","image_url":""},{"id":9478,"title":"薬樹薬局 上白根2号店","architect":"大野力","year":2015.0,"address":"神奈川県横浜市旭区上白根2-66-25","latitude":35.493927001953125,"longitude":139.53411865234375,"category":"医療施設/店舗","description":"","image_url":""},{"id":9479,"title":"薬樹薬局 上小町","architect":"大野力","year":2013.0,"address":"埼玉県さいたま市大宮区上小町633-1","latitude":35.90061569213867,"longitude":139.6085205078125,"category":"医療施設/店舗","description":"","image_url":""},{"id":9480,"title":"陸前高田市市民文化会館 奇跡の一本松ホール","architect":"NTTファシリティーズ+関・空間設計","year":2020.0,"address":"岩手県陸前高田市高田町館の沖","latitude":39.01611328125,"longitude":141.63148498535156,"category":"ホール・劇場/公民館・交流施設","description":"","image_url":""},{"id":9481,"title":"福山市総合体育館 エフピコアリーナふくやま","architect":"梓設計+今川忠男","year":2020.0,"address":"広島県福山市草戸町5-12-1","latitude":34.46656036376953,"longitude":133.36721801757812,"category":"体育館","description":"","image_url":""},{"id":9482,"title":"御幸保育所","architect":"今川忠男","year":2018.0,"address":"広島県福山市御幸町535","latitude":34.53395462036133,"longitude":133.353515625,"category":"幼稚園","description":"","image_url":""},{"id":9483,"title":"平川市民体育館 ひらかわドリームアリーナ","architect":"川島隆太郎建築事務所","year":2020.0,"address":"青森県平川市町居南田249","latitude":40.58380126953125,"longitude":140.57647705078125,"category":"体育館","description":"","image_url":""},{"id":9484,"title":"長野県立武道館","architect":"仙田満+宮本忠長","year":2020.0,"address":"長野県佐久市猿久保165-1","latitude":36.26008987426758,"longitude":138.4858856201172,"category":"体育館","description":"","image_url":""},{"id":9485,"title":"鳥取県倉吉市 打吹回廊","architect":"仙田満","year":2019.0,"address":"鳥取県倉吉市明治町1032-19","latitude":35.43305969238281,"longitude":133.82455444335938,"category":"観光施設/展望台","description":"","image_url":""},{"id":9486,"title":"軽井沢風越学園","architect":"仙田満","year":2020.0,"address":"長野県北佐久郡軽井沢町大字発地1278-16","latitude":36.32014083862305,"longitude":138.60174560546875,"category":"学校/幼稚園","description":"","image_url":""},{"id":9487,"title":"さわやかアリーナ袋井市総合体育館","architect":"仙田満","year":2019.0,"address":"静岡県袋井市久能1724-1","latitude":34.76288604736328,"longitude":137.91835021972656,"category":"体育館","description":"","image_url":""},{"id":9488,"title":"舞岡幼稚園","architect":"仙田満","year":2014.0,"address":"神奈川県横浜市戸塚区舞岡町3557-4","latitude":35.410186767578125,"longitude":139.55091857910156,"category":"幼稚園","description":"","image_url":""},{"id":9489,"title":"五藤光学研究所 山梨工場","architect":"仙田満","year":1996.0,"address":"山梨県南アルプス市下市之瀬1247-1","latitude":35.59751892089844,"longitude":138.46072387695312,"category":"工場/研究施設","description":"","image_url":""},{"id":9490,"title":"末吉リバーサイドテラス","architect":"仙田満","year":1984.0,"address":"沖縄県那覇市首里末吉町1-175-10","latitude":26.22766876220703,"longitude":127.71273803710938,"category":"集合住宅","description":"","image_url":""},{"id":9491,"title":"LEGALAND下北沢","architect":"安藤忠雄","year":2020.0,"address":"東京都世田谷区代田5-23-3","latitude":35.6602668762207,"longitude":139.6630096435547,"category":"集合住宅","description":"","image_url":""},{"id":9492,"title":"熱海ベイリゾート後楽園 Aqua Square","architect":"竹中工務店","year":2019.0,"address":"静岡県熱海市和田浜南町10-1694-29","latitude":35.08826446533203,"longitude":139.08023071289062,"category":"ホテル/温泉","description":"","image_url":""},{"id":9493,"title":"T-RUNWAY","architect":"昭和設計","year":2018.0,"address":"和歌山県紀の川市杉原307","latitude":34.25720977783203,"longitude":135.403564453125,"category":"研修施設/低層オフィス","description":"","image_url":""},{"id":9494,"title":"MOUNTAIN HUT","architect":"MIGRANT","year":2019.0,"address":"長野県北安曇郡白馬村神城15150-2","latitude":36.65056610107422,"longitude":137.8638153076172,"category":"コテージ","description":"","image_url":""},{"id":9495,"title":"スリーウエルネス 旧グランエリプス北長瀬","architect":"手塚建築研究所","year":2015.0,"address":"岡山県岡山市北区北長瀬表町3-1-8","latitude":34.65080261230469,"longitude":133.8855743408203,"category":"ホテル","description":"","image_url":""},{"id":9496,"title":"富士文化幼稚園","architect":"手塚建築研究所","year":2018.0,"address":"愛知県名古屋市港区小賀須1-801","latitude":35.11452102661133,"longitude":136.82992553710938,"category":"幼稚園","description":"","image_url":""},{"id":9497,"title":"ふじようちえん スマイルエッグス","architect":"手塚建築研究所","year":2016.0,"address":"東京都立川市上砂町4-52-1","latitude":35.72817611694336,"longitude":139.39271545410156,"category":"幼稚園","description":"","image_url":""},{"id":9498,"title":"旅館 龍言","architect":"蘆田暢人","year":2019.0,"address":"新潟県南魚沼市坂戸1-6","latitude":37.05807876586914,"longitude":138.88304138183594,"category":"旅館","description":"旅館の改修","image_url":""},{"id":9499,"title":"折板屋根の家","architect":"蘆田暢人","year":2016.0,"address":"東京都渋谷区恵比寿3-29-17","latitude":35.6435432434082,"longitude":139.7154083251953,"category":"住宅/個人医院/テナントビル","description":"","image_url":""},{"id":9500,"title":"宇品のカフェ","architect":"五十嵐理人","year":2020.0,"address":"広島県広島市南区宇品西2-6-34","latitude":34.365108489990234,"longitude":132.4580535888672,"category":"カフェ","description":"","image_url":""}]}