{"page":257,"total_pages":290,"items_per_page":50,"total_items":14467,"items":[{"id":12801,"title":"筑後市庁舎","architect":"日建設計","year":1956.0,"address":"福岡県筑後市山ノ井898","latitude":33.21232986450195,"longitude":130.5020294189453,"category":"庁舎","description":"建て替え予定","image_url":""},{"id":12802,"title":"NOT A HOTEL ISHIGAKI EARTH","architect":"藤本壮介","year":2023.0,"address":"沖縄県石垣市宮良120-92","latitude":24.349695205688477,"longitude":124.22172546386719,"category":"コテージ","description":"","image_url":""},{"id":12803,"title":"龍角散ビル","architect":"大成建設","year":1991.0,"address":"東京都千代田区東神田2-5-12","latitude":35.6956672668457,"longitude":139.77972412109375,"category":"オフィスビル","description":"","image_url":""},{"id":12804,"title":"麻布台ヒルズ 森JPタワー","architect":"森ビル+日建設計+シーザー・ペリ","year":2023.0,"address":"東京都港区麻布台1-3-1","latitude":35.660850524902344,"longitude":139.74061584472656,"category":"複合ビル","description":"外観デザイン：シーザー・ペリ","image_url":""},{"id":12805,"title":"麻布台ヒルズ レジデンスA","architect":"森ビル+日建設計","year":2023.0,"address":"東京都港区麻布台1-2-2","latitude":35.66216278076172,"longitude":139.74029541015625,"category":"集合住宅","description":"","image_url":""},{"id":12806,"title":"麻布台ヒルズガーデンプラザ","architect":"森ビル+山下設計+トーマス・ヘザウィック","year":2023.0,"address":"東京都港区虎ノ門5-8","latitude":35.66200256347656,"longitude":139.7432098388672,"category":"モール/複合施設","description":"低層部デザイン：トーマス・ヘザウィック","image_url":""},{"id":12807,"title":"麻布台ヒルズ レジデンスB","architect":"森ビル+日建設計+日建ハウジングシステム","year":2023.0,"address":"東京都港区麻布台1-4-8","latitude":35.66256332397461,"longitude":139.73902893066406,"category":"集合住宅","description":"","image_url":""},{"id":12808,"title":"富士宮市民文化会館","architect":"横山公男","year":1979.0,"address":"静岡県富士宮市宮町14-2","latitude":35.22740936279297,"longitude":138.6074981689453,"category":"ホール・劇場","description":"","image_url":""},{"id":12809,"title":"馬場川通り公衆トイレ","architect":"髙濱史子+ジャスパー・モリソン","year":2024.0,"address":"群馬県前橋市本町2-1-6","latitude":36.39120101928711,"longitude":139.06910705566406,"category":"トイレ","description":"2024年春竣工予定。デザイン：ジャスパー・モリソン","image_url":""},{"id":12810,"title":"茨木市文化・子育て複合施設 おにクル","architect":"伊東豊雄+竹中工務店","year":2023.0,"address":"大阪府茨木市駅前3-9","latitude":34.815616607666016,"longitude":135.5693359375,"category":"総合文化施設/児童施設","description":"2023年11月26日オープン。2024年春グランドオープン予定。施設内にある、まちなかの森 もっくるの設計を岩瀬諒子設計事務所が手がける","image_url":""},{"id":12811,"title":"道の駅 若狭美浜はまびより","architect":"三橋設計+山口設計事務所+澤秀俊","year":2023.0,"address":"福井県三方郡美浜町松原35-15-1","latitude":35.604736328125,"longitude":135.9365234375,"category":"PA・道の駅","description":"","image_url":""},{"id":12812,"title":"ENOWA YUFUIN","architect":"クル","year":2023.0,"address":"大分県由布市湯布院町川上544","latitude":33.27641677856445,"longitude":131.36550903320312,"category":"ホテル","description":"","image_url":""},{"id":12813,"title":"熊本モノリス","architect":"クル","year":2020.0,"address":"熊本県熊本市南区江越2-23-83","latitude":32.771568298339844,"longitude":130.70205688476562,"category":"結婚式場","description":"","image_url":""},{"id":12814,"title":"オニジャスコーヒーヴィレッジ","architect":"クル","year":2014.0,"address":"大阪府富田林市喜志町5-10-8","latitude":34.52552032470703,"longitude":135.6055145263672,"category":"カフェ","description":"","image_url":""},{"id":12815,"title":"弧柳","architect":"クル","year":2021.0,"address":"大阪府大阪市中央区内淡路町3-3-3","latitude":34.686946868896484,"longitude":135.5100860595703,"category":"料亭","description":"","image_url":""},{"id":12816,"title":"コスモ神殿SS","architect":"クル","year":2022.0,"address":"奈良県奈良市神殿町634-1","latitude":34.65641784667969,"longitude":135.8192596435547,"category":"店舗","description":"ガソリンスタンド","image_url":""},{"id":12817,"title":"杵の音","architect":"クル","year":2022.0,"address":"奈良県奈良市中町4856-5","latitude":34.671539306640625,"longitude":135.755615234375,"category":"レストラン","description":"","image_url":""},{"id":12818,"title":"MID POINT渋谷神泉","architect":"クル","year":2021.0,"address":"東京都渋谷区神泉町20-21","latitude":35.656864166259766,"longitude":139.69155883789062,"category":"オフィスビル","description":"","image_url":""},{"id":12819,"title":"イドチャ京都","architect":"クル","year":2021.0,"address":"京都府京都市中京区室町通二条下る蛸薬師町287","latitude":35.012550354003906,"longitude":135.75816345214844,"category":"カフェ/料亭","description":"","image_url":""},{"id":12820,"title":"SEN.RETREAT TAKAHARA","architect":"クル+松村一輝","year":2020.0,"address":"和歌山県田辺市中辺路町高原1966","latitude":33.79243469238281,"longitude":135.5256805419922,"category":"ホテル","description":"","image_url":""},{"id":12821,"title":"TOGO BOOKS nomadik","architect":"松村一輝","year":2021.0,"address":"大阪府豊能郡能勢町野間稲地433-2","latitude":34.94407272338867,"longitude":135.45262145996094,"category":"店舗/和風住宅","description":"","image_url":""},{"id":12822,"title":"グッドランドリープレイス八尾店","architect":"クル","year":2019.0,"address":"大阪府八尾市東本町4-2-7","latitude":34.62635040283203,"longitude":135.60525512695312,"category":"店舗","description":"","image_url":""},{"id":12823,"title":"唐津 網元の宿 汐湯 凪の音","architect":"クル","year":2014.0,"address":"佐賀県唐津市浜玉町浜崎1613","latitude":33.45220947265625,"longitude":130.03871154785156,"category":"旅館","description":"","image_url":""},{"id":12824,"title":"淡路島けひの海ウェディング しまおと","architect":"クル","year":2014.0,"address":"兵庫県南あわじ市松帆古津路970-76","latitude":34.336578369140625,"longitude":134.7335205078125,"category":"結婚式場","description":"","image_url":""},{"id":12825,"title":"旧吉池医院","architect":"中條精一郎","year":1912.0,"address":"山形県山形市十日町2-4-16","latitude":38.24826431274414,"longitude":140.3369598388672,"category":"洋館","description":"2024年3月にも一般公開イベントを予定","image_url":""},{"id":12826,"title":"ナノテラス","architect":"日建設計","year":2022.0,"address":"宮城県仙台市青葉区荒巻字青葉468-1","latitude":38.251041412353516,"longitude":140.83169555664062,"category":"研究施設","description":"","image_url":""},{"id":12827,"title":"京都精華大学 叡山閣 旧比叡山国際観光ホテル別館","architect":"富家宏泰","year":1963.0,"address":"京都府京都市左京区一乗寺延暦寺山","latitude":35.05281448364258,"longitude":135.83059692382812,"category":"大学","description":"現在は京都精華大学の施設","image_url":""},{"id":12828,"title":"モキチ鎌倉 旧神奈川県鎌倉加圧ポンプ所","architect":"不明","year":1936.0,"address":"神奈川県鎌倉市長谷4-6-12","latitude":35.31772232055664,"longitude":139.53297424316406,"category":"レストラン/洋館","description":"","image_url":""},{"id":12829,"title":"城の西公民館","architect":"横内敏人","year":1993.0,"address":"兵庫県姫路市岡町33","latitude":34.840248107910156,"longitude":134.68496704101562,"category":"公民館・交流施設","description":"","image_url":""},{"id":12830,"title":"沖縄ホテル","architect":"仲座久雄","year":1961.0,"address":"沖縄県那覇市大道35","latitude":26.218135833740234,"longitude":127.7002182006836,"category":"ホテル","description":"旅館棟、瓦石垣、大道門が登録有形文化財に登録された","image_url":""},{"id":12831,"title":"そらすな","architect":"佐々木慧","year":2023.0,"address":"福岡県行橋市大字長井136-1","latitude":33.72286605834961,"longitude":131.02255249023438,"category":"ホテル","description":"","image_url":""},{"id":12832,"title":"入善町民会館 コスモホール","architect":"大江宏","year":1986.0,"address":"富山県下新川郡入善町入膳3200","latitude":36.93452835083008,"longitude":137.5018310546875,"category":"ホール・劇場","description":"","image_url":""},{"id":12833,"title":"温故創新の森 NOVARE","architect":"清水建設","year":2023.0,"address":"東京都江東区潮見2-8-20","latitude":35.6595458984375,"longitude":139.8189239501953,"category":"研究施設/博物館","description":"","image_url":""},{"id":12834,"title":"渋谷サクラステージ A街区","architect":"日建設計","year":2023.0,"address":"東京都渋谷区桜丘町2-3","latitude":35.65705490112305,"longitude":139.7018585205078,"category":"複合ビル","description":"","image_url":""},{"id":12835,"title":"渋谷サクラステージ サクラテラス B先端棟","architect":"日建設計+古谷誠章","year":2023.0,"address":"東京都渋谷区桜丘町1","latitude":35.656402587890625,"longitude":139.7019500732422,"category":"複合ビル","description":"","image_url":""},{"id":12836,"title":"渋谷サクラステージ SAKURAタワー B棟","architect":"日建設計","year":2023.0,"address":"東京都渋谷区桜丘町3-3","latitude":35.655574798583984,"longitude":139.70233154296875,"category":"複合ビル","description":"","image_url":""},{"id":12837,"title":"夕鶴の里","architect":"本間利雄","year":1993.0,"address":"山形県南陽市漆山2025-2","latitude":38.07088851928711,"longitude":140.12110900878906,"category":"博物館","description":"","image_url":""},{"id":12838,"title":"山辺町ふるさと交流センター あがらっしゃい","architect":"本間利雄","year":2013.0,"address":"山形県東村山郡山辺町山辺216","latitude":38.293643951416016,"longitude":140.2689666748047,"category":"公民館・交流施設","description":"元は明治期に建てられた旅籠を改修・一部増築","image_url":""},{"id":12839,"title":"東根公民館","architect":"本間利雄","year":2012.0,"address":"山形県東根市本町6-1","latitude":38.44021987915039,"longitude":140.39892578125,"category":"公民館・交流施設","description":"","image_url":""},{"id":12840,"title":"南陽市立図書館・中央公民館 えくぼプラザ","architect":"本間利雄","year":2000.0,"address":"山形県南陽市赤湯791-1","latitude":38.049339294433594,"longitude":140.16671752929688,"category":"公民館・交流施設/図書館","description":"","image_url":""},{"id":12841,"title":"大江町体育センター","architect":"本間利雄","year":1999.0,"address":"山形県西村山郡大江町本郷丁373-1","latitude":38.379783630371094,"longitude":140.1959991455078,"category":"体育館","description":"","image_url":""},{"id":12842,"title":"河北町紅花資料館","architect":"本間利雄","year":1983.0,"address":"山形県西村山郡河北町谷地戊1143","latitude":38.43852233886719,"longitude":140.29981994628906,"category":"博物館","description":"","image_url":""},{"id":12843,"title":"グリーンバレー神室 シェーネスハイム金山","architect":"本間利雄","year":1998.0,"address":"山形県最上郡金山町有屋1400","latitude":38.91706848144531,"longitude":140.39295959472656,"category":"ホテル","description":"","image_url":""},{"id":12844,"title":"肘折いでゆ館","architect":"本間利雄","year":1995.0,"address":"山形県最上郡大蔵村南山451-2","latitude":38.61116027832031,"longitude":140.16970825195312,"category":"温泉","description":"","image_url":""},{"id":12845,"title":"テルメ柏稜 大江町健康温泉館","architect":"本間利雄","year":1995.0,"address":"山形県西村山郡大江町藤田831-40","latitude":38.36714553833008,"longitude":140.215576171875,"category":"温泉","description":"","image_url":""},{"id":12846,"title":"シベールファクトリーパーク","architect":"本間利雄","year":1999.0,"address":"山形県山形市蔵王松ケ丘2-1-3","latitude":38.19337844848633,"longitude":140.31082153320312,"category":"工場/店舗","description":"","image_url":""},{"id":12847,"title":"湯の台温泉 鳥海山荘","architect":"本間利雄","year":2002.0,"address":"山形県酒田市草津湯ノ台66-1","latitude":39.0307502746582,"longitude":140.03292846679688,"category":"ホテル","description":"","image_url":""},{"id":12848,"title":"古殿町役場","architect":"本間利雄","year":1990.0,"address":"福島県石川郡古殿町松川新桑原31","latitude":37.08928680419922,"longitude":140.5556640625,"category":"庁舎","description":"","image_url":""},{"id":12849,"title":"仙台法務局古川支局庁舎","architect":"本間利雄","year":2001.0,"address":"宮城県大崎市古川旭6-3-1","latitude":38.56481170654297,"longitude":140.97909545898438,"category":"公共施設","description":"","image_url":""},{"id":12850,"title":"観世音寺 宝蔵","architect":"伊藤要太郎","year":1959.0,"address":"福岡県太宰府市観世音寺5-6-1","latitude":33.514915466308594,"longitude":130.5222625732422,"category":"寺院","description":"","image_url":""}]}