{"page":221,"total_pages":290,"items_per_page":50,"total_items":14467,"items":[{"id":11001,"title":"ホテルフラッグス諫早 チャペル Eternal Forest Chapel","architect":"小川博央","year":2020.0,"address":"長崎県諫早市金谷町8-7","latitude":32.8470458984375,"longitude":130.05197143554688,"category":"結婚式場","big_category":"宗教","description":"","image_url":"","tags":"Ver4.20(2021年12月)の追加建築","prefecture":"長崎","contractor":"","structural_designer":"","landscape_designer":"","shinkenchiku_url":""},{"id":11002,"title":"渋川メモリードホール別邸 春日邸","architect":"小川博央","year":2020.0,"address":"群馬県渋川市白井2179-1","latitude":36.5059814453125,"longitude":139.0166473388672,"category":"斎場","big_category":"公共施設","description":"","image_url":"","tags":"Ver4.20(2021年12月)の追加建築","prefecture":"群馬","contractor":"","structural_designer":"","landscape_designer":"","shinkenchiku_url":""},{"id":11003,"title":"ヴァレーギャラリー","architect":"安藤忠雄","year":2021.0,"address":"香川県香川郡直島町","latitude":34.447635650634766,"longitude":133.99037170410156,"category":"美術館","big_category":"ミュージアム","description":"2022年3月オープン予定。建築自体は竣工済","image_url":"","tags":"Ver4.20(2021年12月)の追加建築,新建築2022年7月号","prefecture":"香川","contractor":"","structural_designer":"","landscape_designer":"","shinkenchiku_url":""},{"id":11004,"title":"THE SHINMONZEN","architect":"安藤忠雄","year":2020.0,"address":"京都府京都市東山区新門前通西之町235","latitude":35.0062255859375,"longitude":135.77464294433594,"category":"ホテル","big_category":"宿泊","description":"","image_url":"","tags":"Ver4.20(2021年12月)の追加建築","prefecture":"京都","contractor":"","structural_designer":"","landscape_designer":"","shinkenchiku_url":""},{"id":11005,"title":"菊池建設 新東京支店","architect":"安藤忠雄","year":2021.0,"address":"東京都豊島区南池袋3-8-4","latitude":35.72407531738281,"longitude":139.71168518066406,"category":"オフィスビル","big_category":"企業施設","description":"","image_url":"","tags":"Ver4.20(2021年12月)の追加建築","prefecture":"東京","contractor":"","structural_designer":"","landscape_designer":"","shinkenchiku_url":""},{"id":11006,"title":"住吉の長屋2","architect":"安藤忠雄","year":2018.0,"address":"住所不明","latitude":0.0,"longitude":0.0,"category":"住宅/低層オフィス","big_category":"住宅,企業施設","description":"住吉の長屋のコピー","image_url":"","tags":"Ver4.20(2021年12月)の追加建築","prefecture":"","contractor":"","structural_designer":"","landscape_designer":"","shinkenchiku_url":""},{"id":11007,"title":"未来コンビニ","architect":"コクヨ+GEN設計","year":2020.0,"address":"徳島県那賀郡那賀町木頭北川宇いも志屋敷11-1","latitude":33.77505111694336,"longitude":134.11224365234375,"category":"店舗","big_category":"商業施設","description":"","image_url":"","tags":"Ver4.20(2021年12月)の追加建築","prefecture":"徳島","contractor":"北岡組","structural_designer":"","landscape_designer":"","shinkenchiku_url":""},{"id":11008,"title":"大田区立龍子記念館","architect":"川端龍子","year":1953.0,"address":"東京都大田区中央4-2-1","latitude":35.5823974609375,"longitude":139.7153778076172,"category":"美術館","big_category":"ミュージアム","description":"川端龍子自らの設計","image_url":"","tags":"Ver4.20(2021年12月)の追加建築","prefecture":"東京","contractor":"","structural_designer":"","landscape_designer":"","shinkenchiku_url":""},{"id":11009,"title":"和歌山県埋蔵文化財収蔵庫","architect":"浦辺鎮太郎","year":1974.0,"address":"和歌山県和歌山市岩橋1255","latitude":34.23019027709961,"longitude":135.23046875,"category":"博物館/公共施設","big_category":"ミュージアム,公共施設","description":"","image_url":"","tags":"Ver4.20(2021年12月)の追加建築","prefecture":"和歌山","contractor":"","structural_designer":"","landscape_designer":"","shinkenchiku_url":""},{"id":11010,"title":"千栄寺 本堂","architect":"菊竹清訓","year":1959.0,"address":"福岡県久留米市寺町21","latitude":33.318607330322266,"longitude":130.52032470703125,"category":"寺院","big_category":"宗教","description":"","image_url":"","tags":"Ver4.20(2021年12月)の追加建築","prefecture":"福岡","contractor":"","structural_designer":"","landscape_designer":"","shinkenchiku_url":""},{"id":11011,"title":"上野ビルディング","architect":"みかんぐみ","year":2007.0,"address":"東京都千代田区鍛冶町2-6-1","latitude":35.69196319580078,"longitude":139.77195739746094,"category":"オフィスビル","big_category":"企業施設","description":"1966年竣工のビルを改修","image_url":"","tags":"Ver4.20(2021年12月)の追加建築","prefecture":"東京","contractor":"","structural_designer":"","landscape_designer":"","shinkenchiku_url":""},{"id":11012,"title":"山梨中央銀行東京支店","architect":"徳永庸","year":1931.0,"address":"東京都千代田区鍛冶町1-6-10","latitude":35.69026565551758,"longitude":139.7720184326172,"category":"金融機関/洋館","big_category":"企業施設,近代建築/遺産","description":"","image_url":"","tags":"Ver4.20(2021年12月)の追加建築","prefecture":"東京","contractor":"","structural_designer":"","landscape_designer":"","shinkenchiku_url":""},{"id":11013,"title":"井澤金属東京支店","architect":"竹中工務店","year":1999.0,"address":"東京都千代田区内神田3-17-3","latitude":35.691932678222656,"longitude":139.769775390625,"category":"オフィスビル","big_category":"企業施設","description":"","image_url":"","tags":"Ver4.20(2021年12月)の追加建築","prefecture":"東京","contractor":"","structural_designer":"","landscape_designer":"","shinkenchiku_url":""},{"id":11014,"title":"内神田DNKビル","architect":"武澤秀一","year":1991.0,"address":"東京都千代田区内神田2-15-2","latitude":35.69171905517578,"longitude":139.76797485351562,"category":"オフィスビル","big_category":"企業施設","description":"","image_url":"","tags":"Ver4.20(2021年12月)の追加建築","prefecture":"東京","contractor":"","structural_designer":"","landscape_designer":"","shinkenchiku_url":""},{"id":11015,"title":"鷹岡東京支店","architect":"谷口忠","year":1935.0,"address":"東京都千代田区神田須田町1-3","latitude":35.69601821899414,"longitude":139.769775390625,"category":"店舗","big_category":"商業施設","description":"","image_url":"","tags":"Ver4.20(2021年12月)の追加建築","prefecture":"東京","contractor":"","structural_designer":"","landscape_designer":"","shinkenchiku_url":""},{"id":11016,"title":"ワテラス","architect":"佐藤総合計画","year":2013.0,"address":"東京都千代田区神田淡路町2-101","latitude":35.69755554199219,"longitude":139.7671661376953,"category":"複合ビル/集合住宅","big_category":"企業施設,住宅","description":"","image_url":"","tags":"Ver4.20(2021年12月)の追加建築","prefecture":"東京","contractor":"","structural_designer":"","landscape_designer":"","shinkenchiku_url":""},{"id":11017,"title":"神田スクエア","architect":"日建設計","year":2020.0,"address":"東京都千代田区神田錦町2-2","latitude":35.69303894042969,"longitude":139.76327514648438,"category":"オフィスビル","big_category":"企業施設","description":"","image_url":"","tags":"Ver4.20(2021年12月)の追加建築,2023年日本建築学会 作品選集新人賞","prefecture":"東京","contractor":"","structural_designer":"","landscape_designer":"","shinkenchiku_url":""},{"id":11018,"title":"ナディアパーク","architect":"株式会社大建設計","year":1996.0,"address":"愛知県名古屋市中区栄3-18-1","latitude":35.16539764404297,"longitude":136.90518188476562,"category":"オフィスビル/複合施設/テナントビル","big_category":"企業施設,商業施設,商業施設","description":"","image_url":"","tags":"第39回BCS賞 (1998),Ver4.20(2021年12月)の追加建築","prefecture":"愛知","contractor":"","structural_designer":"","landscape_designer":"","shinkenchiku_url":""},{"id":11019,"title":"ARK栄ビル","architect":"黒川紀章","year":1988.0,"address":"愛知県名古屋市中区錦3-22-7","latitude":35.1694221496582,"longitude":136.904052734375,"category":"テナントビル","big_category":"商業施設","description":"","image_url":"","tags":"Ver4.20(2021年12月)の追加建築","prefecture":"愛知","contractor":"","structural_designer":"","landscape_designer":"","shinkenchiku_url":""},{"id":11020,"title":"谷中の一連のプロジェクト 西日暮里スクランブル","architect":"宮崎晃吉","year":2019.0,"address":"東京都荒川区西日暮里5-24-1","latitude":35.73237991333008,"longitude":139.76727294921875,"category":"モール","big_category":"商業施設","description":"","image_url":"","tags":"Ver4.20(2021年12月)の追加建築,新建築2022年6月号","prefecture":"東京","contractor":"","structural_designer":"","landscape_designer":"","shinkenchiku_url":""},{"id":11021,"title":"徴古館","architect":"徳永庸","year":1927.0,"address":"佐賀県佐賀市松原2-5-22","latitude":33.25153732299805,"longitude":130.3013458251953,"category":"博物館","big_category":"ミュージアム","description":"","image_url":"","tags":"登録有形文化財,Ver4.20(2021年12月)の追加建築","prefecture":"佐賀","contractor":"","structural_designer":"","landscape_designer":"","shinkenchiku_url":""},{"id":11022,"title":"マリーゴールド門司港迎賓館 旧福岡銀行門司支店","architect":"徳永庸","year":1950.0,"address":"福岡県北九州市門司区港町2-21","latitude":33.94572448730469,"longitude":130.96481323242188,"category":"結婚式場/レストラン","big_category":"宗教,商業施設","description":"","image_url":"","tags":"Ver4.20(2021年12月)の追加建築","prefecture":"福岡","contractor":"","structural_designer":"","landscape_designer":"","shinkenchiku_url":""},{"id":11023,"title":"福岡カトリック神学院 旧サン・スルピス大神学校","architect":"徳永庸","year":1950.0,"address":"福岡県福岡市城南区松山1-1","latitude":33.55433654785156,"longitude":130.37017822265625,"category":"専門学校","big_category":"教育","description":"","image_url":"","tags":"Ver4.20(2021年12月)の追加建築","prefecture":"福岡","contractor":"","structural_designer":"","landscape_designer":"","shinkenchiku_url":""},{"id":11024,"title":"松井まちづくりセンター 旧所沢市立松井公民館","architect":"武澤秀一","year":1986.0,"address":"埼玉県所沢市上安松1286-1","latitude":35.79084777832031,"longitude":139.486083984375,"category":"公民館・交流施設/ホール・劇場","big_category":"公共施設,文化施設","description":"","image_url":"","tags":"Ver4.20(2021年12月)の追加建築","prefecture":"埼玉","contractor":"","structural_designer":"","landscape_designer":"","shinkenchiku_url":""},{"id":11025,"title":"TINY GARDEN 蓼科","architect":"加藤匡毅","year":2019.0,"address":"長野県茅野市北山8606-1","latitude":36.04918670654297,"longitude":138.25778198242188,"category":"ホテル/カフェ","big_category":"宿泊,商業施設","description":"","image_url":"","tags":"Ver4.20(2021年12月)の追加建築","prefecture":"長野","contractor":"","structural_designer":"","landscape_designer":"","shinkenchiku_url":""},{"id":11026,"title":"農家レストラン陽・燦燦","architect":"坂茂","year":2021.0,"address":"兵庫県淡路市野島常盤字源八1510-4","latitude":34.56380081176758,"longitude":134.9703826904297,"category":"レストラン","big_category":"商業施設","description":"","image_url":"","tags":"Ver4.20(2021年12月)の追加建築,新建築2022年6月号","prefecture":"兵庫","contractor":"","structural_designer":"","landscape_designer":"","shinkenchiku_url":""},{"id":11027,"title":"千葉JPFドーム","architect":"清水建設","year":2021.0,"address":"千葉県千葉市中央区弁天4-1-1","latitude":35.6214485168457,"longitude":140.11492919921875,"category":"スタジアム/体育館","big_category":"レジャー施設,レジャー施設","description":"","image_url":"","tags":"Ver4.20(2021年12月)の追加建築","prefecture":"千葉","contractor":"清水建設","structural_designer":"","landscape_designer":"","shinkenchiku_url":""},{"id":11028,"title":"ROKU KYOTO, LXR Hotels & Resorts","architect":"東急設計コンサルタント","year":2021.0,"address":"京都府京都市北区衣笠鏡石町44-1","latitude":35.04789352416992,"longitude":135.7347869873047,"category":"ホテル","big_category":"宿泊","description":"","image_url":"","tags":"Ver4.20(2021年12月)の追加建築","prefecture":"京都","contractor":"竹中工務店","structural_designer":"","landscape_designer":"","shinkenchiku_url":""},{"id":11029,"title":"マスタードホテル下北沢","architect":"大堀伸","year":2021.0,"address":"東京都世田谷区北沢3-9-19","latitude":35.6644287109375,"longitude":139.67147827148438,"category":"ホテル","big_category":"宿泊","description":"","image_url":"","tags":"Ver4.20(2021年12月)の追加建築","prefecture":"東京","contractor":"東急建設","structural_designer":"","landscape_designer":"","shinkenchiku_url":""},{"id":11030,"title":"錦町2-1ビル","architect":"長谷萬+竹中工務店","year":2021.0,"address":"東京都千代田区神田錦町2-1-1","latitude":35.692481994628906,"longitude":139.7633514404297,"category":"レストラン","big_category":"商業施設","description":"デザイン監修：竹中工務店","image_url":"","tags":"Ver4.20(2021年12月)の追加建築","prefecture":"東京","contractor":"","structural_designer":"","landscape_designer":"","shinkenchiku_url":""},{"id":11031,"title":"Hi Toilet THE TOKYO TOILET 03 七号通り公園トイレ","architect":"佐藤カズー+久保都島建築設計","year":2021.0,"address":"東京都渋谷区幡ヶ谷2-53-5","latitude":35.67888259887695,"longitude":139.67440795898438,"category":"トイレ","big_category":"公共施設","description":"","image_url":"","tags":"Ver4.20(2021年12月)の追加建築","prefecture":"東京","contractor":"","structural_designer":"","landscape_designer":"","shinkenchiku_url":""},{"id":11032,"title":"THE TOKYO TOILET 15 恵比寿駅西口公衆トイレ","architect":"佐藤可士和","year":2021.0,"address":"東京都渋谷区恵比寿南1-5-8","latitude":35.647430419921875,"longitude":139.7094268798828,"category":"トイレ","big_category":"公共施設","description":"","image_url":"","tags":"Ver4.20(2021年12月)の追加建築","prefecture":"東京","contractor":"","structural_designer":"","landscape_designer":"","shinkenchiku_url":""},{"id":11033,"title":"トイット タイニーベーカリー さつき店","architect":"上領大祐+高橋好和","year":2021.0,"address":"千葉県千葉市花見川区さつきが丘1-28-9","latitude":35.662811279296875,"longitude":140.0934295654297,"category":"店舗/住宅","big_category":"商業施設,住宅","description":"","image_url":"","tags":"Ver4.20(2021年12月)の追加建築","prefecture":"千葉","contractor":"","structural_designer":"","landscape_designer":"","shinkenchiku_url":""},{"id":11034,"title":"ICOR NISEKO","architect":"長谷川豪","year":2021.0,"address":"北海道虻田郡ニセコ町羊蹄99-3","latitude":42.81686782836914,"longitude":140.72677612304688,"category":"店舗/カフェ","big_category":"商業施設,商業施設","description":"","image_url":"","tags":"Ver4.20(2021年12月)の追加建築","prefecture":"北海道","contractor":"","structural_designer":"","landscape_designer":"","shinkenchiku_url":""},{"id":11035,"title":"タカオネ","architect":"海法圭","year":2021.0,"address":"東京都八王子市高尾町2264","latitude":35.63216018676758,"longitude":139.270751953125,"category":"ホテル","big_category":"宿泊","description":"1990年竣工のビルを改修","image_url":"","tags":"Ver4.20(2021年12月)の追加建築,新建築2022年8月号","prefecture":"東京","contractor":"","structural_designer":"","landscape_designer":"","shinkenchiku_url":""},{"id":11036,"title":"真庭市蒜山ミュージアム","architect":"隈研吾","year":2021.0,"address":"岡山県真庭市上福田1205-220","latitude":35.291709899902344,"longitude":133.6367645263672,"category":"美術館","big_category":"ミュージアム","description":"","image_url":"","tags":"Ver4.20(2021年12月)の追加建築","prefecture":"岡山","contractor":"","structural_designer":"","landscape_designer":"","shinkenchiku_url":""},{"id":11037,"title":"マザーハウス 京都三条メンズ店","architect":"o+h","year":2021.0,"address":"京都府京都市中京区石橋町11 SMJ三条共同ビル","latitude":35.00865173339844,"longitude":135.76748657226562,"category":"店舗","big_category":"商業施設","description":"","image_url":"","tags":"Ver4.20(2021年12月)の追加建築","prefecture":"京都","contractor":"","structural_designer":"","landscape_designer":"","shinkenchiku_url":""},{"id":11038,"title":"THE EYEVAN 京都祇園","architect":"森田恭通","year":2021.0,"address":"京都府京都市東山区祇園町南側570-125","latitude":35.003326416015625,"longitude":135.77523803710938,"category":"店舗","big_category":"商業施設","description":"","image_url":"","tags":"Ver4.20(2021年12月)の追加建築","prefecture":"京都","contractor":"","structural_designer":"","landscape_designer":"","shinkenchiku_url":""},{"id":11039,"title":"北野白梅町駅","architect":"森田恭通","year":2021.0,"address":"京都府京都市北区北野下白梅町 北野白梅町駅","latitude":35.02739715576172,"longitude":135.73094177246094,"category":"駅","big_category":"インフラ","description":"2021年3月リニューアル","image_url":"","tags":"Ver4.20(2021年12月)の追加建築","prefecture":"京都","contractor":"","structural_designer":"","landscape_designer":"","shinkenchiku_url":""},{"id":11040,"title":"全薬工業 南大沢研究開発センター","architect":"日建設計","year":2021.0,"address":"東京都八王子市南大沢4-7-1","latitude":35.61146545410156,"longitude":139.37655639648438,"category":"研究施設","big_category":"教育","description":"","image_url":"","tags":"Ver4.20(2021年12月)の追加建築,2023年日本建築学会 作品選集新人賞,2022年度JIA優秀建築賞","prefecture":"東京","contractor":"大林組","structural_designer":"","landscape_designer":"","shinkenchiku_url":""},{"id":11041,"title":"twist office","architect":"つばめ舎建築設計","year":2020.0,"address":"新潟県小千谷市片貝町船橋2387-1","latitude":37.36939239501953,"longitude":138.7871856689453,"category":"低層オフィス","big_category":"企業施設","description":"","image_url":"","tags":"Ver4.20(2021年12月)の追加建築","prefecture":"新潟","contractor":"","structural_designer":"","landscape_designer":"","shinkenchiku_url":""},{"id":11042,"title":"Higuma Doughnuts × Coffee Wrights 表参道","architect":"髙塚直樹","year":2018.0,"address":"東京都渋谷区新宮前4-9-13","latitude":35.66776657104492,"longitude":139.71047973632812,"category":"カフェ","big_category":"商業施設","description":"","image_url":"","tags":"Ver4.20(2021年12月)の追加建築","prefecture":"東京","contractor":"","structural_designer":"","landscape_designer":"","shinkenchiku_url":""},{"id":11043,"title":"上越妙高駅前 アイエムタクシー ラウンジ","architect":"川西康之","year":2020.0,"address":"新潟県上越市大和2-3-7","latitude":37.08259201049805,"longitude":138.24855041503906,"category":"駅/公共施設","big_category":"インフラ,公共施設","description":"","image_url":"","tags":"Ver4.20(2021年12月)の追加建築","prefecture":"新潟","contractor":"","structural_designer":"","landscape_designer":"","shinkenchiku_url":""},{"id":11044,"title":"富士山デザインハウス・インマヌエル","architect":"川西康之","year":2021.0,"address":"静岡県駿東郡小山町須走495-222","latitude":35.349830627441406,"longitude":138.8851776123047,"category":"養護施設","big_category":"医療施設","description":"","image_url":"","tags":"Ver4.20(2021年12月)の追加建築,新建築2024年5月号","prefecture":"静岡","contractor":"","structural_designer":"","landscape_designer":"","shinkenchiku_url":""},{"id":11045,"title":"フラット八戸","architect":"佐藤可士和+戸田建設","year":2020.0,"address":"青森県八戸市尻内町三条目7-7","latitude":40.512027740478516,"longitude":141.42813110351562,"category":"体育館","big_category":"レジャー施設","description":"","image_url":"","tags":"Ver4.20(2021年12月)の追加建築","prefecture":"青森","contractor":"戸田建設","structural_designer":"","landscape_designer":"","shinkenchiku_url":""},{"id":11046,"title":"NMC マリーコンツェルト","architect":"大塚亮","year":2021.0,"address":"東京都板橋区中板橋18-11","latitude":35.756752014160156,"longitude":139.69688415527344,"category":"住宅/ホール・劇場","big_category":"住宅,文化施設","description":"","image_url":"","tags":"Ver4.20(2021年12月)の追加建築","prefecture":"東京","contractor":"","structural_designer":"","landscape_designer":"","shinkenchiku_url":""},{"id":11047,"title":"京都中央信用金庫 旧厚生センター","architect":"関根要太郎","year":1930.0,"address":"京都府京都市下京区中居町113","latitude":34.989383697509766,"longitude":135.75917053222656,"category":"金融機関/洋館","big_category":"企業施設,近代建築/遺産","description":"","image_url":"","tags":"Ver4.20(2021年12月)の追加建築","prefecture":"京都","contractor":"","structural_designer":"","landscape_designer":"","shinkenchiku_url":""},{"id":11048,"title":"早稲田大学国際文学館 村上春樹ライブラリー 旧4号館","architect":"隈研吾","year":2021.0,"address":"東京都新宿区西早稲田1-6","latitude":35.7097282409668,"longitude":139.7198944091797,"category":"大学/博物館","big_category":"教育,ミュージアム","description":"1968年竣工の4号館を改修","image_url":"","tags":"Ver4.20(2021年12月)の追加建築,新建築2022年1月号","prefecture":"東京","contractor":"熊谷組","structural_designer":"","landscape_designer":"","shinkenchiku_url":""},{"id":11049,"title":"平和の灯","architect":"丹下健三","year":1964.0,"address":"広島県広島市中区中島町1-1","latitude":34.39344787597656,"longitude":132.45274353027344,"category":"オブジェ","big_category":"ミュージアム","description":"","image_url":"","tags":"Ver4.20(2021年12月)の追加建築","prefecture":"広島","contractor":"","structural_designer":"","landscape_designer":"","shinkenchiku_url":""},{"id":11050,"title":"京都市動物園 類人猿舎","architect":"沖種郎","year":1969.0,"address":"京都府京都市左京区岡崎法勝寺町","latitude":35.01246643066406,"longitude":135.78668212890625,"category":"動植物園","big_category":"レジャー施設","description":"","image_url":"","tags":"Ver4.20(2021年12月)の追加建築","prefecture":"京都","contractor":"","structural_designer":"","landscape_designer":"","shinkenchiku_url":""}]}