{"page":43,"total_pages":290,"items_per_page":50,"total_items":14467,"items":[{"id":2101,"title":"大阪市水上消防署","architect":"シーラカンスK&H","year":1998.0,"address":"大阪府大阪市港区築港3-1-47","latitude":34.657108306884766,"longitude":135.4334259033203,"category":"警察・消防署","big_category":"公共施設","description":"","image_url":"","tags":"","prefecture":"大阪","contractor":"","structural_designer":"","landscape_designer":"","shinkenchiku_url":""},{"id":2102,"title":"天王寺博覧会テーマ館 天王寺公園映像館・植物温室","architect":"安藤忠雄","year":1987.0,"address":"大阪府大阪市天王寺区茶臼山町1-82(天王寺公園内)","latitude":34.65012741088867,"longitude":135.51052856445312,"category":"動植物園","big_category":"レジャー施設","description":"2018年取壊","image_url":"","tags":"","prefecture":"大阪","contractor":"","structural_designer":"","landscape_designer":"","shinkenchiku_url":""},{"id":2103,"title":"大阪港国際フェリーターミナル","architect":"安藤忠雄","year":1996.0,"address":"大阪府大阪市住之江区南港北1-20-52","latitude":34.64285659790039,"longitude":135.421142578125,"category":"港","big_category":"インフラ","description":"","image_url":"","tags":"","prefecture":"大阪","contractor":"","structural_designer":"","landscape_designer":"","shinkenchiku_url":""},{"id":2104,"title":"阿倍野歩道橋","architect":"昭和設計","year":2013.0,"address":"大阪府大阪市阿倍野区阿倍野筋1-地内","latitude":34.64659881591797,"longitude":135.51321411132812,"category":"橋","big_category":"インフラ","description":"","image_url":"","tags":"","prefecture":"大阪","contractor":"","structural_designer":"","landscape_designer":"","shinkenchiku_url":""},{"id":2105,"title":"白い教会","architect":"青木淳","year":2006.0,"address":"大阪府大阪市住之江区南港北1-13-11","latitude":34.637081146240234,"longitude":135.41629028320312,"category":"教会","big_category":"宗教","description":"","image_url":"","tags":"","prefecture":"大阪","contractor":"","structural_designer":"","landscape_designer":"","shinkenchiku_url":""},{"id":2106,"title":"大阪市立平野区民センター コミュニティプラザ平野","architect":"出江寛","year":1995.0,"address":"大阪府大阪市平野区長吉出戸5-3-58","latitude":34.60886001586914,"longitude":135.5698699951172,"category":"公民館・交流施設","big_category":"公共施設","description":"","image_url":"","tags":"","prefecture":"大阪","contractor":"","structural_designer":"","landscape_designer":"","shinkenchiku_url":""},{"id":2107,"title":"ロレックス中津ビル","architect":"槇文彦","year":2009.0,"address":"大阪府大阪市北区豊崎5-3-22","latitude":34.71302032470703,"longitude":135.49960327148438,"category":"オフィスビル","big_category":"企業施設","description":"","image_url":"","tags":"","prefecture":"大阪","contractor":"","structural_designer":"","landscape_designer":"","shinkenchiku_url":""},{"id":2108,"title":"アーバンテラス茶屋町","architect":"北山孝二郎","year":2006.0,"address":"大阪府大阪市北区茶屋町15-22","latitude":34.707847595214844,"longitude":135.4984588623047,"category":"オフィスビル","big_category":"企業施設","description":"","image_url":"","tags":"","prefecture":"大阪","contractor":"","structural_designer":"","landscape_designer":"","shinkenchiku_url":""},{"id":2109,"title":"K2ビルディング ","architect":"篠原一男","year":1990.0,"address":"大阪府大阪市都島区東野田町2-9","latitude":34.69814682006836,"longitude":135.53199768066406,"category":"オフィスビル","big_category":"企業施設","description":"","image_url":"","tags":"","prefecture":"大阪","contractor":"","structural_designer":"","landscape_designer":"","shinkenchiku_url":""},{"id":2110,"title":"朝日放送本社","architect":"隈研吾+NTTファシリティーズ","year":2008.0,"address":"大阪府大阪市福島区福島1-1-30","latitude":34.69359588623047,"longitude":135.48846435546875,"category":"オフィスビル","big_category":"企業施設","description":"","image_url":"","tags":"","prefecture":"大阪","contractor":"","structural_designer":"","landscape_designer":"","shinkenchiku_url":""},{"id":2111,"title":"大阪倶楽部","architect":"安井武雄","year":1924.0,"address":"大阪府大阪市中央区今橋4-4-11","latitude":34.69098663330078,"longitude":135.49891662597656,"category":"オフィスビル","big_category":"企業施設","description":"毎年一定の日のみ","image_url":"","tags":"","prefecture":"大阪","contractor":"","structural_designer":"","landscape_designer":"","shinkenchiku_url":""},{"id":2112,"title":"Growtecture S 宣成社ビル","architect":"遠藤秀平","year":2002.0,"address":"大阪府大阪市中央区北浜1-5-8","latitude":34.69080352783203,"longitude":135.50833129882812,"category":"オフィスビル","big_category":"企業施設","description":"","image_url":"","tags":"","prefecture":"大阪","contractor":"","structural_designer":"","landscape_designer":"","shinkenchiku_url":""},{"id":2113,"title":"日本基督教団 浪花教会","architect":"竹中工務店+ウィリアム・メレル・ヴォーリズ","year":1930.0,"address":"大阪府大阪市中央区高麗橋2-6-2","latitude":34.68950653076172,"longitude":135.50376892089844,"category":"教会","big_category":"宗教","description":"ヴォーリズの設計指導","image_url":"","tags":"","prefecture":"大阪","contractor":"","structural_designer":"","landscape_designer":"","shinkenchiku_url":""},{"id":2114,"title":"日本基督教団 大阪教会","architect":"ウィリアム・メレル・ヴォーリズ","year":1922.0,"address":"大阪府大阪市西区江戸堀1-23-17","latitude":34.689449310302734,"longitude":135.4934844970703,"category":"教会","big_category":"宗教","description":"","image_url":"","tags":"","prefecture":"大阪","contractor":"","structural_designer":"","landscape_designer":"","shinkenchiku_url":""},{"id":2115,"title":"大阪国際会議場","architect":"黒川紀章","year":2000.0,"address":"大阪府大阪市北区中之島5-3-51","latitude":34.68937683105469,"longitude":135.48623657226562,"category":"展示・会議場","big_category":"公共施設","description":"","image_url":"","tags":"","prefecture":"大阪","contractor":"","structural_designer":"","landscape_designer":"","shinkenchiku_url":""},{"id":2116,"title":"大阪府警察本部庁舎","architect":"黒川紀章","year":2002.0,"address":"大阪府大阪市中央区大手前3-1-11","latitude":34.68397903442383,"longitude":135.5203857421875,"category":"警察・消防署","big_category":"公共施設","description":"","image_url":"","tags":"","prefecture":"大阪","contractor":"","structural_designer":"","landscape_designer":"","shinkenchiku_url":""},{"id":2117,"title":"華都飯店","architect":"隈研吾","year":2010.0,"address":"大阪府大阪市中央区本町3-6-4 本町ガーデンシティB2F ","latitude":34.683319091796875,"longitude":135.5011444091797,"category":"レストラン","big_category":"商業施設","description":"","image_url":"","tags":"","prefecture":"大阪","contractor":"","structural_designer":"","landscape_designer":"","shinkenchiku_url":""},{"id":2118,"title":"ジェー・ガーバー商会 大阪支店ビル","architect":"石井修","year":1970.0,"address":"大阪府大阪市中央区南本町1-4-10","latitude":34.682918548583984,"longitude":135.50869750976562,"category":"オフィスビル","big_category":"企業施設","description":"","image_url":"","tags":"","prefecture":"大阪","contractor":"","structural_designer":"","landscape_designer":"","shinkenchiku_url":""},{"id":2119,"title":"金光教大阪センター","architect":"日建設計","year":2009.0,"address":"大阪府大阪市中央区久太郎町1-4-13","latitude":34.68057632446289,"longitude":135.50927734375,"category":"教会","big_category":"宗教","description":"","image_url":"","tags":"","prefecture":"大阪","contractor":"","structural_designer":"","landscape_designer":"","shinkenchiku_url":""},{"id":2120,"title":"アップリカ葛西ビル","architect":"丹下健三+丹下憲孝","year":1989.0,"address":"大阪府大阪市中央区島之内1-13","latitude":34.67221450805664,"longitude":135.50767517089844,"category":"オフィスビル","big_category":"企業施設","description":"丹下健三、丹下憲孝どちらの設計か絞りきれず念のため併記。","image_url":"","tags":"","prefecture":"大阪","contractor":"","structural_designer":"","landscape_designer":"","shinkenchiku_url":""},{"id":2121,"title":"大阪市立クラフトパーク","architect":"類設計室","year":1999.0,"address":"大阪府大阪市平野区長吉六反1-8-44","latitude":34.61003494262695,"longitude":135.57940673828125,"category":"体験施設","big_category":"レジャー施設","description":"","image_url":"","tags":"","prefecture":"大阪","contractor":"","structural_designer":"","landscape_designer":"","shinkenchiku_url":""},{"id":2122,"title":"大阪市舞洲スラッジセンター","architect":"フリーデンスライヒ・フンデルトヴァッサー","year":2004.0,"address":"大阪府大阪市此花区北港白津2-2-7","latitude":34.6693229675293,"longitude":135.40615844726562,"category":"工場/公共施設","big_category":"企業施設,公共施設","description":"","image_url":"","tags":"","prefecture":"大阪","contractor":"","structural_designer":"","landscape_designer":"","shinkenchiku_url":""},{"id":2123,"title":"大阪市環境局舞洲工場","architect":"フリーデンスライヒ・フンデルトヴァッサー","year":2001.0,"address":"大阪府大阪市此花区北港白津1-2-48","latitude":34.665626525878906,"longitude":135.4066162109375,"category":"工場/公共施設","big_category":"企業施設,公共施設","description":"","image_url":"","tags":"","prefecture":"大阪","contractor":"","structural_designer":"","landscape_designer":"","shinkenchiku_url":""},{"id":2124,"title":"大阪文化館・天保山 旧サントリーミュージアム天保山","architect":"安藤忠雄","year":1994.0,"address":"大阪府大阪市港区海岸通1-5-10","latitude":34.6537971496582,"longitude":135.42953491210938,"category":"美術館","big_category":"ミュージアム","description":"","image_url":"","tags":"","prefecture":"大阪","contractor":"","structural_designer":"","landscape_designer":"","shinkenchiku_url":""},{"id":2125,"title":"海遊館","architect":"ケンブリッジ・セブン・アソシエイツ","year":1990.0,"address":"大阪府大阪市港区海岸通1-1-10","latitude":34.65504455566406,"longitude":135.4288787841797,"category":"美術館","big_category":"ミュージアム","description":"","image_url":"","tags":"","prefecture":"大阪","contractor":"","structural_designer":"","landscape_designer":"","shinkenchiku_url":""},{"id":2126,"title":"なにわの海の時空館","architect":"ポール・アンドリュー","year":2000.0,"address":"大阪府大阪市住之江区南港北2-5-20","latitude":34.640769958496094,"longitude":135.40585327148438,"category":"博物館","big_category":"ミュージアム","description":"","image_url":"","tags":"","prefecture":"大阪","contractor":"","structural_designer":"","landscape_designer":"","shinkenchiku_url":""},{"id":2127,"title":"大阪富国生命ビル","architect":"ドミニク・ペロー","year":2010.0,"address":"大阪府大阪市北区小松原町2-4","latitude":34.70235061645508,"longitude":135.500244140625,"category":"オフィスビル","big_category":"企業施設","description":"","image_url":"","tags":"","prefecture":"大阪","contractor":"","structural_designer":"","landscape_designer":"","shinkenchiku_url":""},{"id":2128,"title":"国立国際美術館","architect":"シーザー・ペリ","year":2004.0,"address":"大阪府大阪市北区中之島4-2-55","latitude":34.69185256958008,"longitude":135.49203491210938,"category":"美術館","big_category":"ミュージアム","description":"","image_url":"","tags":"","prefecture":"大阪","contractor":"","structural_designer":"","landscape_designer":"","shinkenchiku_url":""},{"id":2129,"title":"梅田スカイビル","architect":"原広司","year":1993.0,"address":"大阪府大阪市北区大淀中1-1-88","latitude":34.70537567138672,"longitude":135.4905242919922,"category":"オフィスビル","big_category":"企業施設","description":"","image_url":"","tags":"","prefecture":"大阪","contractor":"","structural_designer":"","landscape_designer":"","shinkenchiku_url":""},{"id":2130,"title":"Halftecture OR Halftecture 大阪城レストハウス 大手前","architect":"遠藤秀平","year":2006.0,"address":"大阪府大阪市中央区大阪城3-21","latitude":34.683597564697266,"longitude":135.5221710205078,"category":"トイレ/レストラン","big_category":"公共施設,商業施設","description":"大阪城のトイレ・カフェ。文献によってはGravitecture 大阪城とあるが、公式サイトの記述に従った","image_url":"","tags":"2008年日本建築学会 作品選奨","prefecture":"大阪","contractor":"","structural_designer":"","landscape_designer":"","shinkenchiku_url":""},{"id":2131,"title":"梅田換気塔","architect":"村野藤吾","year":1963.0,"address":"大阪府大阪市北区梅田1","latitude":34.70004653930664,"longitude":135.49868774414062,"category":"工場/公共施設","big_category":"企業施設,公共施設","description":"","image_url":"","tags":"","prefecture":"大阪","contractor":"","structural_designer":"","landscape_designer":"","shinkenchiku_url":""},{"id":2132,"title":"大阪エンタテインメントデザイン専門学校 旧ふれあい港館","architect":"フィリップ・ブランシェ+梓設計","year":1995.0,"address":"大阪府大阪住之江区南港北1-10-12","latitude":34.640472412109375,"longitude":135.41754150390625,"category":"専門学校","big_category":"教育","description":"","image_url":"","tags":"","prefecture":"大阪","contractor":"","structural_designer":"","landscape_designer":"","shinkenchiku_url":""},{"id":2133,"title":"逸翁美術館","architect":"竹中工務店","year":2009.0,"address":"大阪府池田市栄本町12‐27","latitude":34.82555389404297,"longitude":135.4287872314453,"category":"美術館","big_category":"ミュージアム","description":"","image_url":"","tags":"","prefecture":"大阪","contractor":"","structural_designer":"","landscape_designer":"","shinkenchiku_url":""},{"id":2134,"title":"池田市民文化会館 アゼリアネット","architect":"竹山聖","year":2001.0,"address":"大阪府池田市天神1-7-1","latitude":34.809505462646484,"longitude":135.44091796875,"category":"ホール・劇場","big_category":"文化施設","description":"","image_url":"","tags":"","prefecture":"大阪","contractor":"","structural_designer":"","landscape_designer":"","shinkenchiku_url":""},{"id":2135,"title":"ピースおおさか 大阪国際平和センター","architect":"シーラカンスK&H","year":1991.0,"address":"大阪府大阪市中央区大阪城2-1","latitude":34.68428039550781,"longitude":135.5269317626953,"category":"博物館","big_category":"ミュージアム","description":"","image_url":"","tags":"1996年日本建築学会 作品選奨","prefecture":"大阪","contractor":"","structural_designer":"","landscape_designer":"","shinkenchiku_url":""},{"id":2136,"title":"オーガニックビルディング","architect":"ガエタノ・ペッシェ","year":1993.0,"address":"大阪府大阪市中央区南船場4-7-21","latitude":34.677371978759766,"longitude":135.49913024902344,"category":"オフィスビル","big_category":"企業施設","description":"","image_url":"","tags":"","prefecture":"大阪","contractor":"","structural_designer":"","landscape_designer":"","shinkenchiku_url":""},{"id":2137,"title":"正木美術館","architect":"不明","year":1968.0,"address":"大阪府泉北郡忠岡町忠岡中2-9-26","latitude":34.494659423828125,"longitude":135.39212036132812,"category":"美術館","big_category":"ミュージアム","description":"","image_url":"","tags":"","prefecture":"大阪","contractor":"","structural_designer":"","landscape_designer":"","shinkenchiku_url":""},{"id":2138,"title":"田尻歴史館 旧谷口房蔵吉見別邸","architect":"不明","year":1923.0,"address":"大阪府泉南郡田尻町大字吉見1101","latitude":34.39425277709961,"longitude":135.2881317138672,"category":"洋館","big_category":"近代建築/遺産","description":"","image_url":"","tags":"","prefecture":"大阪","contractor":"","structural_designer":"","landscape_designer":"","shinkenchiku_url":""},{"id":2139,"title":"東大阪市役所旭町庁舎 旧枚岡市庁舎","architect":"坂倉準三+西澤文隆+東孝光","year":1964.0,"address":"大阪府東大阪市旭町1-1","latitude":34.667503356933594,"longitude":135.63949584960938,"category":"庁舎","big_category":"公共施設","description":"","image_url":"","tags":"DOCOMOMO","prefecture":"大阪","contractor":"","structural_designer":"","landscape_designer":"","shinkenchiku_url":""},{"id":2140,"title":"司馬遼太郎記念館","architect":"安藤忠雄","year":2001.0,"address":"大阪府東大阪市下小阪3-11-18","latitude":34.66050338745117,"longitude":135.58567810058594,"category":"博物館","big_category":"ミュージアム","description":"","image_url":"","tags":"","prefecture":"大阪","contractor":"","structural_designer":"","landscape_designer":"","shinkenchiku_url":""},{"id":2141,"title":"四天王寺学園小学校・四天王寺大学藤井寺駅前キャンパス","architect":"高松伸","year":2009.0,"address":"大阪府藤井寺市春日丘3-1-78","latitude":34.57096481323242,"longitude":135.59109497070312,"category":"学校","big_category":"教育","description":"","image_url":"","tags":"","prefecture":"大阪","contractor":"","structural_designer":"","landscape_designer":"","shinkenchiku_url":""},{"id":2142,"title":"能勢妙見山信徒会館 星嶺","architect":"高松伸","year":1998.0,"address":"大阪府豊能郡能勢町野間中661","latitude":34.92898178100586,"longitude":135.46646118164062,"category":"寺院","big_category":"宗教","description":"毎月15日の月例法要時に見学可能","image_url":"","tags":"","prefecture":"大阪","contractor":"","structural_designer":"","landscape_designer":"","shinkenchiku_url":""},{"id":2143,"title":"安中新田会所跡 旧植田家住宅","architect":"不明","year":1704.0,"address":"大阪府八尾市植松町1-1-25","latitude":34.61610794067383,"longitude":135.59840393066406,"category":"古民家","big_category":"近代建築/遺産","description":"","image_url":"","tags":"","prefecture":"大阪","contractor":"","structural_designer":"","landscape_designer":"","shinkenchiku_url":""},{"id":2144,"title":"さくら広場（豊中）","architect":"安藤忠雄","year":2008.0,"address":"大阪府豊中市稲津町1-11-1","latitude":34.7534294128418,"longitude":135.4757080078125,"category":"公園/広場","big_category":"レジャー施設,文化施設","description":"","image_url":"","tags":"","prefecture":"大阪","contractor":"","structural_designer":"","landscape_designer":"","shinkenchiku_url":""},{"id":2145,"title":"Rooftecture O-T オーラッシュ豊中","architect":"遠藤秀平","year":2005.0,"address":"大阪府豊中市少路2-10-8","latitude":34.80522537231445,"longitude":135.47152709960938,"category":"店舗","big_category":"商業施設","description":"","image_url":"","tags":"","prefecture":"大阪","contractor":"","structural_designer":"","landscape_designer":"","shinkenchiku_url":""},{"id":2146,"title":"認定こども園 あけぼの学園","architect":"竹原義二","year":2009.0,"address":"大阪府豊中市南桜塚2-14-7","latitude":34.77492904663086,"longitude":135.47305297851562,"category":"幼稚園","big_category":"教育","description":"","image_url":"","tags":"","prefecture":"大阪","contractor":"","structural_designer":"","landscape_designer":"","shinkenchiku_url":""},{"id":2147,"title":"ルイ・ヴィトン 大阪ヒルトン","architect":"乾久美子","year":2004.0,"address":"大阪市北区梅田2-2-2","latitude":34.69997024536133,"longitude":135.49525451660156,"category":"店舗","big_category":"商業施設","description":"","image_url":"","tags":"","prefecture":"大阪","contractor":"","structural_designer":"","landscape_designer":"","shinkenchiku_url":""},{"id":2148,"title":"以楽公園","architect":"重森三玲","year":1962.0,"address":"大阪府枚方市香里ヶ丘6-11","latitude":34.79649353027344,"longitude":135.64907836914062,"category":"庭園","big_category":"文化施設","description":"春・秋一週間のみ一般公開","image_url":"","tags":"","prefecture":"大阪","contractor":"","structural_designer":"","landscape_designer":"","shinkenchiku_url":""},{"id":2149,"title":"箕面市立止々呂美小学校・中学校","architect":"シーラカンスアンドアソシエイツ","year":2008.0,"address":"大阪府箕面市森町中1-23-14","latitude":34.886024475097656,"longitude":135.4612274169922,"category":"学校","big_category":"教育","description":"","image_url":"","tags":"","prefecture":"大阪","contractor":"","structural_designer":"","landscape_designer":"","shinkenchiku_url":""},{"id":2150,"title":"箕面観光ホテル","architect":"坂倉準三+西澤文隆","year":1968.0,"address":"大阪府箕面市温泉町1-1","latitude":34.83853530883789,"longitude":135.46817016601562,"category":"ホテル","big_category":"宿泊","description":"","image_url":"","tags":"","prefecture":"大阪","contractor":"","structural_designer":"","landscape_designer":"","shinkenchiku_url":""}]}