{"page":160,"total_pages":290,"items_per_page":50,"total_items":14467,"items":[{"id":7951,"title":"道の駅 くるら戸田","architect":"昭和設計","year":2015.0,"address":"静岡県沼津市戸田1294-3","latitude":34.971282958984375,"longitude":138.7866668701172,"category":"PA・道の駅","description":"","image_url":""},{"id":7952,"title":"神鍋温泉ゆとろぎ","architect":"昭和設計","year":2014.0,"address":"兵庫県豊岡市日高町栗栖野59-13","latitude":35.49937057495117,"longitude":134.67527770996094,"category":"PA・道の駅/温泉","description":"","image_url":""},{"id":7953,"title":"住吉川リバーサイドフォーラム 文化施設棟","architect":"昭和設計","year":2013.0,"address":"兵庫県神戸市東灘区住吉東町2-3-40","latitude":34.71944046020508,"longitude":135.2662353515625,"category":"図書館/博物館","description":"","image_url":""},{"id":7954,"title":"泉大津市営火葬場 ゆうしお","architect":"昭和設計","year":2011.0,"address":"大阪府泉大津市汐見町104-7","latitude":34.50446701049805,"longitude":135.38766479492188,"category":"斎場","description":"","image_url":""},{"id":7955,"title":"神戸芸術工科大学 D棟","architect":"昭和設計","year":2006.0,"address":"兵庫県神戸市西区学園西町8-1-1","latitude":34.678123474121094,"longitude":135.05758666992188,"category":"大学","description":"","image_url":""},{"id":7956,"title":"神戸芸術工科大学 学生会館","architect":"伊東豊雄","year":2016.0,"address":"兵庫県神戸市西区学園西町8-1-1","latitude":34.67698669433594,"longitude":135.05575561523438,"category":"大学","description":"","image_url":""},{"id":7957,"title":"四国学院大学 ノトス館","architect":"昭和設計","year":2006.0,"address":"香川県善通寺市文京町3-2-1","latitude":34.22544479370117,"longitude":133.78494262695312,"category":"大学","description":"","image_url":""},{"id":7958,"title":"姫路大学 1号館","architect":"昭和設計","year":2007.0,"address":"兵庫県姫路市大塩町2042-2","latitude":34.77195739746094,"longitude":134.75794982910156,"category":"大学","description":"","image_url":""},{"id":7959,"title":"神慈秀明会 西宮支部","architect":"昭和設計","year":2014.0,"address":"兵庫県西宮市大畑町1-33","latitude":34.747615814208984,"longitude":135.34945678710938,"category":"宗教施設","description":"","image_url":""},{"id":7960,"title":"福智町図書館・歴史資料館 ふくちのち","architect":"o+h","year":2017.0,"address":"福岡県田川郡福智町赤池970-2","latitude":33.696292877197266,"longitude":130.7646484375,"category":"図書館/博物館","description":"旧赤池町役場をリノベーション","image_url":""},{"id":7961,"title":"八ヶ岳の住宅・レストラン 八ヶ岳えさき","architect":"福田世志弥","year":2018.0,"address":"山梨県北杜市大泉町谷戸 八ヶ岳えさき","latitude":35.895362854003906,"longitude":138.38491821289062,"category":"レストラン/住宅","description":"","image_url":""},{"id":7962,"title":"福井県年縞博物館","architect":"内藤廣","year":2018.0,"address":"福井県三方上中郡若狭町鳥浜122-12-1","latitude":35.559043884277344,"longitude":135.8972625732422,"category":"博物館","description":"","image_url":""},{"id":7963,"title":"かつしかシンフォニーヒルズ","architect":"佐藤総合計画","year":1992.0,"address":"東京都葛飾区立石6-33-1","latitude":35.74256134033203,"longitude":139.8522491455078,"category":"ホール・劇場","description":"","image_url":""},{"id":7964,"title":"友の季ひまわり幼稚園","architect":"MAMM DESIGN","year":2017.0,"address":"東京都荒川区町屋1-10-12","latitude":35.74656295776367,"longitude":139.78468322753906,"category":"幼稚園","description":"","image_url":""},{"id":7965,"title":"ジュビロクラブハウス・アスレチックセンター","architect":"渡辺隆","year":2017.0,"address":"静岡県磐田市大久保891-106","latitude":34.75448989868164,"longitude":137.859130859375,"category":"クラブハウス/スポーツ施設","description":"","image_url":""},{"id":7966,"title":"知識の蜂の巣","architect":"長岡勉","year":2017.0,"address":"愛知県西尾市一色町小薮船江東 佐久島ナビステーション","latitude":34.794410705566406,"longitude":137.01365661621094,"category":"総合文化施設","description":"佐久島アート","image_url":""},{"id":7967,"title":"佐久島の秘密基地 アポロ","architect":"長岡勉","year":2013.0,"address":"愛知県西尾市一色町佐久島平古","latitude":34.71541976928711,"longitude":137.0499267578125,"category":"展望台","description":"佐久島アート","image_url":""},{"id":7968,"title":"香雪美術館 旧村山龍平邸 書院棟","architect":"藤井厚二","year":1918.0,"address":"兵庫県神戸市東灘区御影郡家2-12","latitude":34.72390365600586,"longitude":135.2562255859375,"category":"美術館/和風住宅","description":"洋館は1909年竣工、河合幾次設計。書院棟は1918年竣工、藤井厚二設計。イベント時のみ公開。","image_url":""},{"id":7969,"title":"韓国領事館駐神戸出張所 旧兵庫県信用連合会事務所","architect":"置塩章","year":1929.0,"address":"兵庫県神戸市中央区中山手通2-21-5","latitude":34.69542694091797,"longitude":135.18873596191406,"category":"公共施設","description":"","image_url":""},{"id":7970,"title":"ネッツトヨタ愛媛 J.spot今治","architect":"矢野青山建築設計事務所","year":2017.0,"address":"愛媛県今治市北高下町3-2-7","latitude":34.05110549926758,"longitude":133.01199340820312,"category":"店舗","description":"","image_url":""},{"id":7971,"title":"錦町ブンカイサン","architect":"菅原大輔","year":2018.0,"address":"東京都千代田区神田錦町3-15","latitude":35.69181442260742,"longitude":139.7620391845703,"category":"レストラン/オフィスビル/集合住宅","description":"","image_url":""},{"id":7972,"title":"下タ町醸し室 HIKOBE","architect":"菅原大輔","year":2018.0,"address":"秋田県南秋田郡五城目町下タ町236-2","latitude":39.94391632080078,"longitude":140.11961364746094,"category":"店舗/カフェ","description":"","image_url":""},{"id":7973,"title":"ウエハラコマチ","architect":"栗田祥弘","year":2018.0,"address":"東京都渋谷区上原2-42-10","latitude":35.66648864746094,"longitude":139.68130493164062,"category":"集合住宅","description":"","image_url":""},{"id":7974,"title":"西葛西APARTMENTS-2","architect":"駒田建築設計事務所","year":2018.0,"address":"東京都江戸川区西葛西7-29-10","latitude":35.65990447998047,"longitude":139.86338806152344,"category":"集合住宅","description":"","image_url":""},{"id":7975,"title":"ブルーボトルコーヒー 神戸カフェ","architect":"長坂常","year":2018.0,"address":"兵庫県神戸市中央区前町1","latitude":34.68718719482422,"longitude":135.1903076171875,"category":"カフェ","description":"","image_url":""},{"id":7976,"title":"分とく山 新本店","architect":"今津康夫","year":2018.0,"address":"東京都港区南麻布5-1-5","latitude":35.65562057495117,"longitude":139.7231903076172,"category":"料亭","description":"","image_url":""},{"id":7977,"title":"おおてまちこども園","architect":"小室下司建築設計事務所","year":2017.0,"address":"群馬県前橋市大手町3-8-1","latitude":36.393733978271484,"longitude":139.06298828125,"category":"幼稚園","description":"","image_url":""},{"id":7978,"title":"自転車洋品店ナリフリ","architect":"ドットアーキテクツ","year":2018.0,"address":"京都府京都市中京区桝屋町（麸屋町通）522","latitude":35.00431823730469,"longitude":135.7656707763672,"category":"店舗","description":"","image_url":""},{"id":7979,"title":"日本平山頂シンボル施設及び展望回廊 日本平夢テラス","architect":"隈研吾","year":2018.0,"address":"静岡県静岡市清水区馬走","latitude":34.9742317199707,"longitude":138.46568298339844,"category":"展望台","description":"2018年11月3日オープン予定","image_url":""},{"id":7980,"title":"天橋立ビューランド・モノレール山麓駅","architect":"半海宏一","year":2018.0,"address":"京都府宮津市文殊437","latitude":35.555885314941406,"longitude":135.18402099609375,"category":"駅","description":"","image_url":""},{"id":7981,"title":"パスタ ソリーゾ","architect":"半海宏一","year":2015.0,"address":"兵庫県姫路市山田町南山田105-3","latitude":34.9077033996582,"longitude":134.78602600097656,"category":"レストラン","description":"","image_url":""},{"id":7982,"title":"ステア","architect":"御手洗龍","year":2018.0,"address":"東京都目黒区中央町2-36-7","latitude":35.63188552856445,"longitude":139.6869659423828,"category":"テナントビル/住宅","description":"","image_url":""},{"id":7983,"title":"えちぜん鉄道福井駅","architect":"内藤廣","year":2018.0,"address":"福井県福井市中央1-1-1","latitude":36.062416076660156,"longitude":136.22354125976562,"category":"駅","description":"","image_url":""},{"id":7984,"title":"豊島合同庁舎","architect":"大江匡","year":1996.0,"address":"東京都豊島区西池袋1-17-1","latitude":35.73088073730469,"longitude":139.7084503173828,"category":"庁舎","description":"","image_url":""},{"id":7985,"title":"こうのINRクリニック","architect":"古谷誠章","year":2018.0,"address":"徳島県板野郡藍住町東中富字龍池傍示54-3","latitude":34.12486267089844,"longitude":134.4766387939453,"category":"個人医院","description":"","image_url":""},{"id":7986,"title":"イイナパーク歴史自然資料館","architect":"伊東豊雄","year":2018.0,"address":"埼玉県川口市赤山501-1","latitude":35.849029541015625,"longitude":139.7437286376953,"category":"博物館","description":"","image_url":""},{"id":7987,"title":"イイナパーク地域物産館","architect":"伊東豊雄","year":2018.0,"address":"埼玉県川口市赤山501-1","latitude":35.84962844848633,"longitude":139.74267578125,"category":"PA・道の駅/観光施設","description":"","image_url":""},{"id":7988,"title":"キッズドームソライ","architect":"坂茂","year":2018.0,"address":"山形県鶴岡市北京田字下鳥ノ巣6-1","latitude":38.745689392089844,"longitude":139.8239288330078,"category":"児童施設","description":"","image_url":""},{"id":7989,"title":"館山海軍航空隊赤山地下壕跡","architect":"不明","year":null,"address":"千葉県館山市宮城192-2","latitude":34.98173522949219,"longitude":139.84165954589844,"category":"産業遺産/城郭","description":"","image_url":""},{"id":7990,"title":"尾道駅新駅舎","architect":"アトリエ・ワン","year":2018.0,"address":"広島県尾道市東御所町1-1","latitude":34.40485382080078,"longitude":133.1931610107422,"category":"駅","description":"2018年末オープン予定","image_url":""},{"id":7991,"title":"羽咋すこやかセンター","architect":"三宅伸秀","year":1972.0,"address":"石川県羽咋市鶴多町亀田17","latitude":36.89803695678711,"longitude":136.79135131835938,"category":"福祉センター","description":"","image_url":""},{"id":7992,"title":"七尾高等学校旧図書館棟","architect":"三宅伸秀","year":1969.0,"address":"石川県七尾市西藤橋町エ-1-1","latitude":37.04355239868164,"longitude":136.9604949951172,"category":"学校","description":"","image_url":""},{"id":7993,"title":"大阪弁護士会館","architect":"日建設計","year":2006.0,"address":"大阪府大阪市北区西天満1-12-5","latitude":34.69459915161133,"longitude":135.506103515625,"category":"組合施設","description":"","image_url":""},{"id":7994,"title":"ギャラリー野田","architect":"安藤忠雄","year":1993.0,"address":"兵庫県神戸市灘区中原通6-1","latitude":34.7124137878418,"longitude":135.22024536132812,"category":"ギャラリー/住宅/バー・居酒屋","description":"","image_url":""},{"id":7995,"title":"心斎橋タワービル","architect":"出江寛","year":1980.0,"address":"大阪府大阪市中央区心斎橋筋1-10-1","latitude":34.6748046875,"longitude":135.50120544433594,"category":"テナントビル","description":"","image_url":""},{"id":7996,"title":"日本基督教団 京都御幸町教会","architect":"ウィリアム・メレル・ヴォーリズ","year":1913.0,"address":"京都府京都市中京区山本町434","latitude":35.01324462890625,"longitude":135.76670837402344,"category":"教会","description":"","image_url":""},{"id":7997,"title":"松村石油株式会社本社","architect":"増田友也+満野久","year":1967.0,"address":"大阪府大阪市北区西天満2-8-5","latitude":34.6962776184082,"longitude":135.50205993652344,"category":"オフィスビル","description":"増田友也、満野久（設計事務所ゲンプラン）の何れが設計者か絞り込めず併記","image_url":""},{"id":7998,"title":"クロスウェーブ梅田","architect":"大江匡","year":2005.0,"address":"大阪府大阪市北区神山町1-12","latitude":34.70267868041992,"longitude":135.506591796875,"category":"オフィスビル","description":"","image_url":""},{"id":7999,"title":"宇治電ビルディング","architect":"日本設計","year":2014.0,"address":"大阪府大阪市北区西天満4-8","latitude":34.69761276245117,"longitude":135.50430297851562,"category":"オフィスビル","description":"","image_url":""},{"id":8000,"title":"丸東第19ビル","architect":"高松伸","year":null,"address":"京都府京都市中京区大黒町（河原町通）71","latitude":35.00785827636719,"longitude":135.77015686035156,"category":"テナントビル","description":"","image_url":""}]}