{"page":101,"total_pages":290,"items_per_page":50,"total_items":14467,"items":[{"id":5001,"title":"福岡県庁舎","architect":"黒川紀章","year":1981.0,"address":"福岡県福岡市博多区東公園7-7","latitude":33.60637664794922,"longitude":130.41802978515625,"category":"庁舎","description":"","image_url":""},{"id":5002,"title":"青山ベルコモンズ","architect":"黒川紀章","year":1976.0,"address":"東京都港区北青山2-14-6","latitude":35.6695442199707,"longitude":139.71572875976562,"category":"複合ビル","description":"2014年にファッションビルとしては閉館。解体","image_url":""},{"id":5003,"title":"田島ビルディング","architect":"マイケル・グレイヴス","year":1994.0,"address":"東京都千代田区岩本町3-11-13","latitude":35.69667053222656,"longitude":139.7760772705078,"category":"オフィスビル","description":"","image_url":""},{"id":5004,"title":"ふくやま文学館","architect":"日建設計","year":1999.0,"address":"広島県福山市丸之内1-9-9","latitude":34.49247741699219,"longitude":133.35841369628906,"category":"博物館","description":"","image_url":""},{"id":5005,"title":"Billboard","architect":"タスエス","year":2014.0,"address":"三重県鈴鹿市三日市町字狭間989-2","latitude":34.875789642333984,"longitude":136.56011962890625,"category":"低層オフィス/集合住宅","description":"","image_url":""},{"id":5006,"title":"静岡県草薙総合運動場体育館","architect":"内藤廣","year":2015.0,"address":"静岡県静岡市駿河区栗原19-1","latitude":34.990909576416016,"longitude":138.4295654296875,"category":"体育館","description":"","image_url":""},{"id":5007,"title":"同志社京田辺会堂","architect":"Facet Studio","year":2015.0,"address":"京都府京田辺市多々羅都谷1","latitude":34.802101135253906,"longitude":135.77069091796875,"category":"大学/教会","description":"","image_url":""},{"id":5008,"title":"旭町診療所","architect":"田邊曜","year":2015.0,"address":"千葉県千葉市中央区旭町18-5","latitude":35.60846710205078,"longitude":140.13499450683594,"category":"個人医院","description":"","image_url":""},{"id":5009,"title":"立川第一小学校・柴崎図書館／学童保育所／学習館","architect":"シーラカンスアンドアソシエイツ","year":2014.0,"address":"東京都立川市柴崎町2-20-3","latitude":35.69450759887695,"longitude":139.40745544433594,"category":"学校/図書館/児童施設","description":"","image_url":""},{"id":5010,"title":"龍谷大学深草キャンパス 和顔館","architect":"飯田善彦","year":2015.0,"address":"京都府京都市伏見区深草塚本町67","latitude":34.96392059326172,"longitude":135.7678680419922,"category":"大学","description":"","image_url":""},{"id":5011,"title":"白金の丘学園","architect":"日建設計","year":2014.0,"address":"東京都港区白金4-1-12","latitude":35.64365005493164,"longitude":139.72706604003906,"category":"学校","description":"","image_url":""},{"id":5012,"title":"十日町産業文化発信館 いこて","architect":"手塚建築研究所","year":2015.0,"address":"新潟県十日町市本町5-39-6","latitude":37.135711669921875,"longitude":138.76138305664062,"category":"公民館・交流施設","description":"2015年6月14日オープン予定","image_url":""},{"id":5013,"title":"君田そらのにわ, OGINAU","architect":"穴吹デザイン専門学校","year":2015.0,"address":"広島県三次市君田町泉吉田311-3","latitude":34.89906692504883,"longitude":132.8494873046875,"category":"トイレ","description":"道の駅ふぉレスト君田内にあるトイレ。ひろしま建築チャレンジコンペに優勝した穴吹デザイン専門学校の学生が担当","image_url":""},{"id":5014,"title":"藪原宿にぎわい広場 笑ん館","architect":"寺内美紀子+山田健一郎","year":2014.0,"address":"長野県木曽郡木祖村薮原1019-1","latitude":35.9320068359375,"longitude":137.7835235595703,"category":"公民館・交流施設/観光施設","description":"","image_url":""},{"id":5015,"title":"リストランテ アルシエロ","architect":"山田健一郎","year":2009.0,"address":"長野県松本市島立817-1","latitude":36.233577728271484,"longitude":137.94674682617188,"category":"レストラン","description":"","image_url":""},{"id":5016,"title":"三次市農業交流連携拠点施設 トレッタみよし","architect":"ナフ・アーキテクト&デザイン","year":2015.0,"address":"広島県三次市東酒屋町438","latitude":34.77674865722656,"longitude":132.8667449951172,"category":"店舗/カフェ/体験施設","description":"","image_url":""},{"id":5017,"title":"等々力陸上競技場メインスタンド","architect":"日本設計+大成建設","year":2015.0,"address":"神奈川県川崎市中原区等々力1-1","latitude":35.5858154296875,"longitude":139.6527099609375,"category":"スタジアム","description":"","image_url":""},{"id":5018,"title":"成田国際空港 第3旅客ターミナルビル","architect":"日建設計","year":2015.0,"address":"千葉県成田市古込1-1","latitude":35.778812408447266,"longitude":140.38511657714844,"category":"空港","description":"","image_url":""},{"id":5019,"title":"高尾山口駅","architect":"隈研吾","year":2015.0,"address":"東京都八王子市高尾町2241","latitude":35.63212966918945,"longitude":139.2698516845703,"category":"駅","description":"リニューアル","image_url":""},{"id":5020,"title":"Junko Fukutake Terrace J-Terrace cafe","architect":"SANAA","year":2014.0,"address":"岡山県岡山市北区津島中1-1-1","latitude":34.68513488769531,"longitude":133.91952514648438,"category":"大学/カフェ","description":"","image_url":""},{"id":5021,"title":"千葉商科大学 The University DINING","architect":"シーラカンスK&H","year":2015.0,"address":"千葉県市川市国府台1-3-1","latitude":35.74266052246094,"longitude":139.90663146972656,"category":"大学/カフェ","description":"","image_url":""},{"id":5022,"title":"PFI まなウェルみやぎ","architect":"阿部仁史+佐藤総合計画+関・空間設計","year":2012.0,"address":"宮城県名取市美田園2-1-4","latitude":38.15978240966797,"longitude":140.91915893554688,"category":"児童施設/学校/福祉センター","description":"","image_url":""},{"id":5023,"title":"美しが丘西小学校","architect":"飯田善彦","year":2013.0,"address":"神奈川県横浜市青葉区美しが丘西2-48","latitude":35.5904426574707,"longitude":139.5343017578125,"category":"学校","description":"","image_url":""},{"id":5024,"title":"横浜国立大学 建築学棟","architect":"飯田善彦","year":2009.0,"address":"神奈川県横浜市保土ヶ谷区常盤台79","latitude":35.47346878051758,"longitude":139.5865478515625,"category":"大学","description":"","image_url":""},{"id":5025,"title":"黄金町バザール 日ノ出スタジオ","architect":"飯田善彦+SALHAUS","year":2008.0,"address":"神奈川県横浜市中区日ノ出町2-145","latitude":35.44354248046875,"longitude":139.6266326904297,"category":"ギャラリー","description":"","image_url":""},{"id":5026,"title":"佐野清澄高校 佐山記念体育館","architect":"飯田善彦","year":2008.0,"address":"栃木県佐野市堀米町840","latitude":36.326019287109375,"longitude":139.5904541015625,"category":"体育館/学校","description":"","image_url":""},{"id":5027,"title":"粕谷診療所","architect":"飯田善彦","year":2007.0,"address":"福岡県粕屋郡粕屋町大字仲原2531-1","latitude":33.61056900024414,"longitude":130.45709228515625,"category":"個人医院","description":"","image_url":""},{"id":5028,"title":"みどり野診療所","architect":"飯田善彦","year":2006.0,"address":"神奈川県横浜市緑区十日市場町915-14","latitude":35.5223388671875,"longitude":139.520263671875,"category":"個人医院","description":"","image_url":""},{"id":5029,"title":"松岡病院","architect":"飯田善彦","year":2004.0,"address":"福岡県久留米市安武町住吉1742-2","latitude":33.28279495239258,"longitude":130.46620178222656,"category":"個人医院","description":"","image_url":""},{"id":5030,"title":"興亜石油大阪製油所リファイニングセンター","architect":"飯田善彦","year":1998.0,"address":"大阪府高石市高砂2-1","latitude":34.534549713134766,"longitude":135.4096221923828,"category":"企業施設/工場","description":"","image_url":""},{"id":5031,"title":"新津組山梨営業所","architect":"飯田善彦","year":1996.0,"address":"山梨県北杜市高根町清里3545-1459","latitude":35.90251922607422,"longitude":138.4429931640625,"category":"低層オフィス","description":"","image_url":""},{"id":5032,"title":"中野坂上サンブライトアネックス","architect":"飯田善彦","year":1996.0,"address":"東京都中野区本町2-46-4","latitude":35.69691467285156,"longitude":139.6814727783203,"category":"複合施設","description":"","image_url":""},{"id":5033,"title":"黒崎テクノプラザ","architect":"池原義郎","year":1993.0,"address":"福岡県北九州市八幡西区西曲里町2-1","latitude":33.86078643798828,"longitude":130.7612762451172,"category":"オフィスビル","description":"","image_url":""},{"id":5034,"title":"西武園ゆうえんち","architect":"池原義郎","year":1985.0,"address":"埼玉県所沢市山口2964","latitude":35.76811599731445,"longitude":139.4405059814453,"category":"テーマパーク","description":"","image_url":""},{"id":5035,"title":"早稲田大学所沢キャンパス","architect":"池原義郎","year":1987.0,"address":"埼玉県所沢市三ヶ島2-579-15","latitude":35.78557586669922,"longitude":139.39947509765625,"category":"大学","description":"","image_url":""},{"id":5036,"title":"ギャラリー再会","architect":"石井修","year":1953.0,"address":"大阪府大阪市浪速区恵美須東1-4-16","latitude":34.652732849121094,"longitude":135.5068817138672,"category":"ギャラリー","description":"","image_url":""},{"id":5037,"title":"山梨学院大学 国際リベラルアーツ学部棟","architect":"伊東豊雄+清水建設","year":2015.0,"address":"山梨県甲府市酒折2-7-16","latitude":35.656288146972656,"longitude":138.60287475585938,"category":"大学","description":"","image_url":""},{"id":5038,"title":"丸東第17ビル","architect":"若林広幸","year":1991.0,"address":"京都府京都市東山区祇園町北側340","latitude":35.004329681396484,"longitude":135.7758331298828,"category":"テナントビル","description":"","image_url":""},{"id":5039,"title":"ログロード代官山","architect":"大堀伸","year":2015.0,"address":"東京都渋谷区代官山町13-1","latitude":35.649940490722656,"longitude":139.7046661376953,"category":"モール","description":"","image_url":""},{"id":5040,"title":"ラッドミュージシャン 名古屋","architect":"大堀伸","year":2007.0,"address":"愛知県名古屋市中区栄3-19-6","latitude":35.16566848754883,"longitude":136.90426635742188,"category":"店舗","description":"","image_url":""},{"id":5041,"title":"サタデーズ サーフ ニューヨーク 代官山店","architect":"大堀伸","year":2012.0,"address":"東京都目黒区青葉台1-5-2","latitude":35.649173736572266,"longitude":139.69839477539062,"category":"店舗","description":"","image_url":""},{"id":5042,"title":"ラッドミュージシャン フラッグショップ","architect":"大堀伸","year":2003.0,"address":"東京都渋谷区神宮前4-26-35","latitude":35.66946029663086,"longitude":139.70803833007812,"category":"店舗","description":"","image_url":""},{"id":5043,"title":"石のカフェ","architect":"伊東豊雄","year":2015.0,"address":"愛媛県今治市宮窪町宮窪5216-8","latitude":34.17394256591797,"longitude":133.07327270507812,"category":"カフェ","description":"","image_url":""},{"id":5044,"title":"那覇市庁舎","architect":"国建","year":2012.0,"address":"沖縄県那覇市泉崎1-1-1","latitude":26.212310791015625,"longitude":127.67921447753906,"category":"庁舎","description":"","image_url":""},{"id":5045,"title":"鎌倉こころのギャラリー館","architect":"ジェイ石田","year":2015.0,"address":"神奈川県鎌倉市長谷2-12-17","latitude":35.31174850463867,"longitude":139.53640747070312,"category":"集合住宅/ギャラリー","description":"","image_url":""},{"id":5046,"title":"ウェルピア長泉","architect":"日建設計","year":2013.0,"address":"静岡県駿東郡長泉町納米里549","latitude":35.140968322753906,"longitude":138.89501953125,"category":"体育館/プール/福祉センター","description":"","image_url":""},{"id":5047,"title":"かがわ物産館 栗林庵","architect":"松浦仁郎","year":2013.0,"address":"香川県高松市栗林町1-20-16","latitude":34.32966613769531,"longitude":134.04568481445312,"category":"店舗","description":"","image_url":""},{"id":5048,"title":"コープ共済プラザ","architect":"日建設計","year":2015.0,"address":"東京都渋谷区千駄ヶ谷4-1","latitude":35.67878341674805,"longitude":139.70492553710938,"category":"オフィスビル","description":"","image_url":""},{"id":5049,"title":"立山カルデラ砂防博物館","architect":"建築研究所アーキヴィジョン","year":2002.0,"address":"富山県中新川郡立山町芦峅寺ブナ坂68","latitude":36.582271575927734,"longitude":137.44589233398438,"category":"博物館","description":"","image_url":""},{"id":5050,"title":"黒部市芸術創造センター セレネ美術館","architect":"内井昭蔵+藤田順吉朗+押田建築設計事務所","year":1995.0,"address":"富山県黒部市宇奈月温泉6-3","latitude":36.81351852416992,"longitude":137.5852813720703,"category":"美術館","description":"","image_url":""}]}