{"page":59,"total_pages":290,"items_per_page":50,"total_items":14467,"items":[{"id":2901,"title":"末田美術館","architect":"原広司","year":1981.0,"address":"大分県由布市湯布院町川上1834","latitude":33.26340103149414,"longitude":131.36842346191406,"category":"美術館/ギャラリー","big_category":"ミュージアム,ミュージアム","description":"","image_url":"","tags":"","prefecture":"大分","contractor":"","structural_designer":"","landscape_designer":"","shinkenchiku_url":""},{"id":2902,"title":"現代っ子ミュージアム","architect":"石山修武","year":1999.0,"address":"宮崎県宮崎市松山1-6-20","latitude":31.907140731811523,"longitude":131.4265899658203,"category":"ギャラリー/住宅/カフェ","big_category":"ミュージアム,住宅,商業施設","description":"","image_url":"","tags":"","prefecture":"宮崎","contractor":"","structural_designer":"","landscape_designer":"","shinkenchiku_url":""},{"id":2903,"title":"宮崎県青島青少年自然の家","architect":"坂倉建築研究所","year":1974.0,"address":"宮崎県宮崎市熊野1385-4","latitude":31.820087432861328,"longitude":131.44374084472656,"category":"研修施設/児童施設","big_category":"教育,教育","description":"","image_url":"","tags":"","prefecture":"宮崎","contractor":"","structural_designer":"","landscape_designer":"","shinkenchiku_url":""},{"id":2904,"title":"宮崎県総合博物館","architect":"坂倉建築研究所","year":1971.0,"address":"宮崎県宮崎市神宮2-4-4","latitude":31.940011978149414,"longitude":131.42369079589844,"category":"博物館","big_category":"ミュージアム","description":"","image_url":"","tags":"","prefecture":"宮崎","contractor":"","structural_designer":"","landscape_designer":"","shinkenchiku_url":""},{"id":2905,"title":"宮崎県立美術館","architect":"岡田新一","year":1994.0,"address":"宮崎県宮崎市船塚3-210","latitude":31.933120727539062,"longitude":131.4197540283203,"category":"美術館","big_category":"ミュージアム","description":"","image_url":"","tags":"公共建築百選","prefecture":"宮崎","contractor":"","structural_designer":"","landscape_designer":"","shinkenchiku_url":""},{"id":2906,"title":"ザ・メイビア宮崎 旧ガーデンテラス宮崎","architect":"隈研吾","year":2012.0,"address":"宮崎県宮崎市下原町247-18","latitude":31.923385620117188,"longitude":131.4342498779297,"category":"ホテル","big_category":"宿泊","description":"2024年ブランド改称、新館増築","image_url":"","tags":"","prefecture":"宮崎","contractor":"","structural_designer":"","landscape_designer":"","shinkenchiku_url":""},{"id":2907,"title":"宮崎市埋蔵文化財・体験学習施設","architect":"東畑建築事務所","year":2009.0,"address":"宮崎県宮崎市跡江4058-1","latitude":31.946495056152344,"longitude":131.3841552734375,"category":"博物館","big_category":"ミュージアム","description":"","image_url":"","tags":"","prefecture":"宮崎","contractor":"","structural_designer":"","landscape_designer":"","shinkenchiku_url":""},{"id":2908,"title":"宮崎県立図書館","architect":"安井建築設計","year":1988.0,"address":"宮崎県宮崎市船塚3-210-1","latitude":31.935216903686523,"longitude":131.42019653320312,"category":"図書館","big_category":"文化施設","description":"","image_url":"","tags":"公共建築百選","prefecture":"宮崎","contractor":"","structural_designer":"","landscape_designer":"","shinkenchiku_url":""},{"id":2909,"title":"宮崎県立芸術劇場","architect":"佐藤総合計画","year":1993.0,"address":"宮崎県宮崎市船塚3-210","latitude":31.93326187133789,"longitude":131.42005920410156,"category":"ホール・劇場","big_category":"文化施設","description":"","image_url":"","tags":"公共建築百選","prefecture":"宮崎","contractor":"","structural_designer":"","landscape_designer":"","shinkenchiku_url":""},{"id":2910,"title":"宮崎科学技術館","architect":"仙田満","year":1987.0,"address":"宮崎県宮崎市宮崎駅東1-2-2","latitude":31.914453506469727,"longitude":131.43368530273438,"category":"博物館","big_category":"ミュージアム","description":"","image_url":"","tags":"","prefecture":"宮崎","contractor":"","structural_designer":"","landscape_designer":"","shinkenchiku_url":""},{"id":2911,"title":"宮崎県庁舎","architect":"置塩章","year":1932.0,"address":"宮崎県宮崎市橘通東2-10-1","latitude":31.911090850830078,"longitude":131.42385864257812,"category":"庁舎","big_category":"公共施設","description":"","image_url":"","tags":"","prefecture":"宮崎","contractor":"","structural_designer":"","landscape_designer":"","shinkenchiku_url":""},{"id":2912,"title":"宮崎県立西都原考古博物館","architect":"広瀬鎌二","year":1997.0,"address":"宮崎県西都市三宅5670","latitude":32.12531661987305,"longitude":131.3824005126953,"category":"博物館","big_category":"ミュージアム","description":"","image_url":"","tags":"","prefecture":"宮崎","contractor":"","structural_designer":"","landscape_designer":"","shinkenchiku_url":""},{"id":2913,"title":"都城市民会館","architect":"菊竹清訓","year":1966.0,"address":"宮崎県都城市八幡町3","latitude":31.720787048339844,"longitude":131.05921936035156,"category":"ホール・劇場","big_category":"文化施設","description":"保存運動、南九州学園への譲渡、市への返還など紆余曲折あったが取り壊された","image_url":"","tags":"DOCOMOMO","prefecture":"宮崎","contractor":"","structural_designer":"","landscape_designer":"","shinkenchiku_url":""},{"id":2914,"title":"北泉橋","architect":"又木啓子","year":1999.0,"address":"宮崎県都城市北原町","latitude":31.730905532836914,"longitude":131.07615661621094,"category":"橋","big_category":"インフラ","description":"","image_url":"","tags":"","prefecture":"宮崎","contractor":"","structural_designer":"","landscape_designer":"","shinkenchiku_url":""},{"id":2915,"title":"日向市駅","architect":"内藤廣","year":2008.0,"address":"宮崎県日向市上町1-19","latitude":32.425846099853516,"longitude":131.62789916992188,"category":"駅","big_category":"インフラ","description":"","image_url":"","tags":"","prefecture":"宮崎","contractor":"","structural_designer":"","landscape_designer":"","shinkenchiku_url":""},{"id":2916,"title":"日南市文化センター","architect":"丹下健三","year":1962.0,"address":"宮崎県日南市中央通1-7-1","latitude":31.600624084472656,"longitude":131.37901306152344,"category":"ホール・劇場","big_category":"文化施設","description":"","image_url":"","tags":"DOCOMOMO","prefecture":"宮崎","contractor":"大成建設","structural_designer":"","landscape_designer":"","shinkenchiku_url":""},{"id":2917,"title":"吉野ヶ里歴史公園センター","architect":"菊竹清訓","year":2000.0,"address":"佐賀県神埼郡吉野ヶ里町田手1843","latitude":33.3239631652832,"longitude":130.388671875,"category":"公園","big_category":"レジャー施設","description":"","image_url":"","tags":"","prefecture":"佐賀","contractor":"","structural_designer":"","landscape_designer":"","shinkenchiku_url":""},{"id":2918,"title":"国営吉野ヶ里歴史公園　弥生くらし館","architect":"東畑建築事務所","year":2007.0,"address":"佐賀県神埼郡吉野ヶ里町田手1869","latitude":33.32337951660156,"longitude":130.388671875,"category":"博物館","big_category":"ミュージアム","description":"","image_url":"","tags":"","prefecture":"佐賀","contractor":"","structural_designer":"","landscape_designer":"","shinkenchiku_url":""},{"id":2919,"title":"玄海エネルギーパーク","architect":"仙田満","year":2000.0,"address":"佐賀県東松浦郡玄海町大字今村4112-1","latitude":33.51477813720703,"longitude":129.84194946289062,"category":"博物館","big_category":"ミュージアム","description":"","image_url":"","tags":"","prefecture":"佐賀","contractor":"","structural_designer":"","landscape_designer":"","shinkenchiku_url":""},{"id":2920,"title":"市村記念体育館","architect":"坂倉準三","year":1963.0,"address":"佐賀県佐賀市城内2-1-35","latitude":33.24945831298828,"longitude":130.3019256591797,"category":"体育館","big_category":"レジャー施設","description":"","image_url":"","tags":"DOCOMOMO","prefecture":"佐賀","contractor":"","structural_designer":"","landscape_designer":"","shinkenchiku_url":""},{"id":2921,"title":"肥前国庁跡資料館","architect":"山本成一郎","year":2005.0,"address":"佐賀県佐賀市大和町大字久池井2754","latitude":33.31672286987305,"longitude":130.27392578125,"category":"城郭","big_category":"近代建築/遺産","description":"","image_url":"","tags":"","prefecture":"佐賀","contractor":"","structural_designer":"","landscape_designer":"","shinkenchiku_url":""},{"id":2922,"title":"佐賀市歴史民俗館 旧古賀銀行","architect":"舟木右馬之助","year":1916.0,"address":"佐賀県佐賀市柳町2-9","latitude":33.254112243652344,"longitude":130.3065948486328,"category":"洋館/金融機関","big_category":"近代建築/遺産,企業施設","description":"","image_url":"","tags":"","prefecture":"佐賀","contractor":"","structural_designer":"","landscape_designer":"","shinkenchiku_url":""},{"id":2923,"title":"佐賀県立博物館","architect":"高橋靗一+内田祥哉","year":1970.0,"address":"佐賀県佐賀市城内1-15","latitude":33.245033264160156,"longitude":130.30055236816406,"category":"博物館","big_category":"ミュージアム","description":"","image_url":"","tags":"1970年日本建築学会 作品賞,DOCOMOMO","prefecture":"佐賀","contractor":"","structural_designer":"","landscape_designer":"","shinkenchiku_url":""},{"id":2924,"title":"大隈重信記念館","architect":"今井兼次","year":1966.0,"address":"佐賀県佐賀市水ヶ江2-11-11","latitude":33.24797058105469,"longitude":130.30882263183594,"category":"博物館","big_category":"ミュージアム","description":"","image_url":"","tags":"登録有形文化財","prefecture":"佐賀","contractor":"","structural_designer":"","landscape_designer":"","shinkenchiku_url":""},{"id":2925,"title":"佐賀県教育センター","architect":"村野藤吾","year":1970.0,"address":"佐賀県佐賀市大和町大字川上","latitude":33.32665252685547,"longitude":130.26492309570312,"category":"公共施設","big_category":"公共施設","description":"","image_url":"","tags":"","prefecture":"佐賀","contractor":"","structural_designer":"","landscape_designer":"","shinkenchiku_url":""},{"id":2926,"title":"佐賀県立図書館","architect":"高橋靗一+内田祥哉","year":1962.0,"address":"佐賀県佐賀市城内2-1-41","latitude":33.249916076660156,"longitude":130.30101013183594,"category":"図書館","big_category":"文化施設","description":"","image_url":"","tags":"DOCOMOMO","prefecture":"佐賀","contractor":"松尾建設","structural_designer":"","landscape_designer":"","shinkenchiku_url":""},{"id":2927,"title":"神埼駅","architect":"青木茂","year":2001.0,"address":"佐賀県神埼市神埼町田道ヶ里2344-5","latitude":33.3158073425293,"longitude":130.37432861328125,"category":"駅","big_category":"インフラ","description":"","image_url":"","tags":"","prefecture":"佐賀","contractor":"","structural_designer":"","landscape_designer":"","shinkenchiku_url":""},{"id":2928,"title":"エコムスハウス エコムスファクトリー","architect":"山本理顕","year":2004.0,"address":"佐賀県鳥栖市弥生が丘7町目36","latitude":33.408897399902344,"longitude":130.51211547851562,"category":"企業施設","big_category":"企業施設","description":"","image_url":"","tags":"","prefecture":"佐賀","contractor":"","structural_designer":"","landscape_designer":"","shinkenchiku_url":""},{"id":2929,"title":"中冨記念くすり博物館","architect":"チェッコ・ボナノッテ","year":1994.0,"address":"佐賀県鳥栖市神辺町288-1","latitude":33.39777374267578,"longitude":130.5109405517578,"category":"博物館","big_category":"ミュージアム","description":"","image_url":"","tags":"","prefecture":"佐賀","contractor":"","structural_designer":"","landscape_designer":"","shinkenchiku_url":""},{"id":2930,"title":"オージー技研 九州支店","architect":"手塚建築研究所+大野博史","year":2012.0,"address":"佐賀県鳥栖市曽根崎町2371","latitude":33.37806701660156,"longitude":130.5249481201172,"category":"企業施設","big_category":"企業施設","description":"","image_url":"","tags":"","prefecture":"佐賀","contractor":"","structural_designer":"","landscape_designer":"","shinkenchiku_url":""},{"id":2931,"title":"佐賀県立名護屋城博物館","architect":"前川建築設計事務所","year":1993.0,"address":"佐賀県唐津市鎮西町名護屋1931-3","latitude":33.527835845947266,"longitude":129.8703155517578,"category":"博物館","big_category":"ミュージアム","description":"","image_url":"","tags":"","prefecture":"佐賀","contractor":"","structural_designer":"","landscape_designer":"","shinkenchiku_url":""},{"id":2932,"title":"唐津歴史民俗資料館 旧三菱合資会社唐津支店","architect":"曽禰達蔵","year":1908.0,"address":"佐賀県唐津市海岸通り7181","latitude":33.47086715698242,"longitude":129.95384216308594,"category":"洋館/博物館","big_category":"近代建築/遺産,ミュージアム","description":"閉館中","image_url":"","tags":"","prefecture":"佐賀","contractor":"","structural_designer":"","landscape_designer":"","shinkenchiku_url":""},{"id":2933,"title":"旧唐津銀行本店","architect":"田中実+辰野金吾","year":1912.0,"address":"佐賀県唐津市本町1513-15","latitude":33.44874572753906,"longitude":129.9711151123047,"category":"洋館/金融機関","big_category":"近代建築/遺産,企業施設","description":"","image_url":"","tags":"","prefecture":"佐賀","contractor":"","structural_designer":"","landscape_designer":"","shinkenchiku_url":""},{"id":2934,"title":"唐津市少年科学館","architect":"不明","year":null,"address":"佐賀県唐津市二タ子3-1-6","latitude":33.461265563964844,"longitude":129.9627685546875,"category":"博物館","big_category":"ミュージアム","description":"","image_url":"","tags":"","prefecture":"佐賀","contractor":"","structural_designer":"","landscape_designer":"","shinkenchiku_url":""},{"id":2935,"title":"唐津小笠原記念館","architect":"今井兼次","year":1956.0,"address":"佐賀県唐津市西寺町511","latitude":33.44987869262695,"longitude":129.96539306640625,"category":"博物館","big_category":"ミュージアム","description":"","image_url":"","tags":"","prefecture":"佐賀","contractor":"","structural_designer":"","landscape_designer":"","shinkenchiku_url":""},{"id":2936,"title":"武雄市図書館","architect":"スタジオアキリ","year":2012.0,"address":"佐賀県武雄市武雄町大字武雄5304-1","latitude":33.1890754699707,"longitude":130.023681640625,"category":"図書館","big_category":"文化施設","description":"","image_url":"","tags":"","prefecture":"佐賀","contractor":"","structural_designer":"","landscape_designer":"","shinkenchiku_url":""},{"id":2937,"title":"如蘭塾迎賓館","architect":"遠藤新","year":1942.0,"address":"佐賀県武雄市武雄町大字武雄4322","latitude":33.184669494628906,"longitude":130.0233612060547,"category":"和風住宅","big_category":"住宅","description":"","image_url":"","tags":"","prefecture":"佐賀","contractor":"","structural_designer":"","landscape_designer":"","shinkenchiku_url":""},{"id":2938,"title":"佐賀県立宇宙科学館 ゆめぎんが","architect":"佐藤総合計画","year":1999.0,"address":"佐賀県武雄市武雄町大字永島16351","latitude":33.179134368896484,"longitude":130.035400390625,"category":"博物館","big_category":"ミュージアム","description":"","image_url":"","tags":"","prefecture":"佐賀","contractor":"","structural_designer":"","landscape_designer":"","shinkenchiku_url":""},{"id":2939,"title":"有田町庁舎 旧西有田町タウンセンター","architect":"NKS2アーキテクツ","year":2005.0,"address":"佐賀県西松浦郡有田町立部乙2202","latitude":33.21057891845703,"longitude":129.84901428222656,"category":"庁舎","big_category":"公共施設","description":"","image_url":"","tags":"","prefecture":"佐賀","contractor":"","structural_designer":"","landscape_designer":"","shinkenchiku_url":""},{"id":2940,"title":"佐賀県立九州陶磁文化館","architect":"内田祥哉+三井所清典","year":1980.0,"address":"佐賀県西松浦郡有田町戸杓乙3100-1","latitude":33.17896270751953,"longitude":129.8806915283203,"category":"博物館","big_category":"ミュージアム","description":"日本建築学会 作品賞受賞者名：内田祥哉、三井所清典","image_url":"","tags":"1982年日本建築学会 作品賞,公共建築百選","prefecture":"佐賀","contractor":"","structural_designer":"","landscape_designer":"","shinkenchiku_url":""},{"id":2941,"title":"壱岐市立一支国博物館","architect":"黒川紀章","year":2010.0,"address":"長崎県壱岐市芦辺町深江鶴亀触515-1","latitude":33.76762008666992,"longitude":129.75537109375,"category":"博物館","big_category":"ミュージアム","description":"","image_url":"","tags":"","prefecture":"長崎","contractor":"","structural_designer":"","landscape_designer":"","shinkenchiku_url":""},{"id":2942,"title":"壱岐郷土美術館","architect":"宗本順三","year":2002.0,"address":"長崎県壱岐市郷ノ浦町本村触445","latitude":33.74946594238281,"longitude":129.6876983642578,"category":"美術館","big_category":"ミュージアム","description":"","image_url":"","tags":"","prefecture":"長崎","contractor":"","structural_designer":"","landscape_designer":"","shinkenchiku_url":""},{"id":2943,"title":"壱岐文化ホール","architect":"宗本順三","year":1996.0,"address":"長崎県壱岐市郷ノ浦町本村触445","latitude":33.74900817871094,"longitude":129.68704223632812,"category":"ホール・劇場","big_category":"文化施設","description":"","image_url":"","tags":"","prefecture":"長崎","contractor":"","structural_designer":"","landscape_designer":"","shinkenchiku_url":""},{"id":2944,"title":"貝津教会","architect":"不明","year":null,"address":"長崎県五島市三井楽町貝津郷458","latitude":32.718414306640625,"longitude":128.661376953125,"category":"教会","big_category":"宗教","description":"","image_url":"","tags":"","prefecture":"長崎","contractor":"","structural_designer":"","landscape_designer":"","shinkenchiku_url":""},{"id":2945,"title":"親和銀行 本店・懐霄館","architect":"白井晟一","year":1967.0,"address":"長崎県佐世保市島瀬町10-12","latitude":33.17159652709961,"longitude":129.72052001953125,"category":"金融機関/オフィスビル","big_category":"企業施設,企業施設","description":"月に2回ほど事前予約の定員制で見学が可能。第一期竣工が1967年、第二期が1969年、懐霄館の竣工が1976年。","image_url":"","tags":"1968年日本建築学会 作品賞,DOCOMOMO,2002年JIA25年賞","prefecture":"長崎","contractor":"","structural_designer":"","landscape_designer":"","shinkenchiku_url":""},{"id":2946,"title":"佐世保市新みなとターミナル","architect":"北川原温","year":2003.0,"address":"長崎県佐世保市新港町8-1","latitude":33.163578033447266,"longitude":129.7222900390625,"category":"港","big_category":"インフラ","description":"","image_url":"","tags":"","prefecture":"長崎","contractor":"","structural_designer":"","landscape_designer":"","shinkenchiku_url":""},{"id":2947,"title":"潜竜ヶ滝駅","architect":"團紀彦","year":1996.0,"address":"長崎県佐世保市江迎町田ノ元283","latitude":33.28084945678711,"longitude":129.68373107910156,"category":"駅","big_category":"インフラ","description":"","image_url":"","tags":"","prefecture":"長崎","contractor":"","structural_designer":"","landscape_designer":"","shinkenchiku_url":""},{"id":2948,"title":"弓張岳展望台","architect":"坪井善勝","year":1965.0,"address":"長崎県佐世保市小野町 弓張岳展望台","latitude":33.179420471191406,"longitude":129.7008819580078,"category":"展望台","big_category":"レジャー施設","description":"","image_url":"","tags":"","prefecture":"長崎","contractor":"","structural_designer":"","landscape_designer":"","shinkenchiku_url":""},{"id":2949,"title":"浄土宗麟鳳山九品寺本堂","architect":"古市徹雄","year":2003.0,"address":"長崎県佐世保市谷郷町8-7","latitude":33.17679214477539,"longitude":129.7188262939453,"category":"寺院","big_category":"宗教","description":"","image_url":"","tags":"","prefecture":"長崎","contractor":"","structural_designer":"","landscape_designer":"","shinkenchiku_url":""},{"id":2950,"title":"西海パールシーセンター","architect":"古市徹雄","year":1994.0,"address":"長崎県佐世保市鹿子前町1008","latitude":33.1612548828125,"longitude":129.67897033691406,"category":"博物館","big_category":"ミュージアム","description":"","image_url":"","tags":"","prefecture":"長崎","contractor":"","structural_designer":"","landscape_designer":"","shinkenchiku_url":""}]}