{"page":116,"total_pages":290,"items_per_page":50,"total_items":14467,"items":[{"id":5751,"title":"自治医科大学 ATLAS ARENA","architect":"石本建築事務所","year":2014.0,"address":"栃木県下野市薬師寺3311-1","latitude":36.40370559692383,"longitude":139.86216735839844,"category":"体育館/大学","description":"","image_url":""},{"id":5752,"title":"呉服町タワー","architect":"石本建築事務所","year":2014.0,"address":"静岡県静岡市葵区呉服町1-20","latitude":34.97571563720703,"longitude":138.3804473876953,"category":"テナントビル/集合住宅","description":"","image_url":""},{"id":5753,"title":"伊勢フットボールヴィレッジ","architect":"石本建築事務所","year":2013.0,"address":"三重県伊勢市朝熊町4383-426","latitude":34.490577697753906,"longitude":136.7703094482422,"category":"スタジアム","description":"","image_url":""},{"id":5754,"title":"東邦大学習志野キャンパス スポーツアリーナ","architect":"石本建築事務所","year":2013.0,"address":"千葉県船橋市三山2-2-2-1","latitude":35.69456481933594,"longitude":140.0490264892578,"category":"体育館/大学","description":"","image_url":""},{"id":5755,"title":"南アルプス市消防本部・地域防災交流センター","architect":"石本建築事務所","year":2010.0,"address":"山梨県南アルプス市十五所1014","latitude":35.645957946777344,"longitude":138.484619140625,"category":"警察・消防署","description":"","image_url":""},{"id":5756,"title":"獨協大学 東棟","architect":"石本建築事務所","year":2010.0,"address":"埼玉県草加市学園町1-1","latitude":35.84003448486328,"longitude":139.79539489746094,"category":"大学","description":"","image_url":""},{"id":5757,"title":"高槻市古曽部防災公園体育館","architect":"石本建築事務所","year":2010.0,"address":"大阪府高槻市古曽部町3-15-1","latitude":34.86304473876953,"longitude":135.62181091308594,"category":"体育館","description":"","image_url":""},{"id":5758,"title":"立正大学熊谷キャンパス 新校舎棟","architect":"石本建築事務所","year":2009.0,"address":"埼玉県熊谷市万吉1700","latitude":36.10847091674805,"longitude":139.36212158203125,"category":"大学","description":"","image_url":""},{"id":5759,"title":"福井県こども家族館","architect":"石本建築事務所","year":2008.0,"address":"福井県大飯郡おおい町成海1-1-1","latitude":35.48139572143555,"longitude":135.6280517578125,"category":"児童施設","description":"","image_url":""},{"id":5760,"title":"埼かつ斎場組合斎場","architect":"石本建築事務所","year":2007.0,"address":"埼玉県春日部市内牧1431","latitude":35.98324966430664,"longitude":139.72608947753906,"category":"斎場","description":"","image_url":""},{"id":5761,"title":"南越前町立今庄小学校","architect":"石本建築事務所","year":2007.0,"address":"福井県南条郡南越前町今庄28-10-1","latitude":35.7800178527832,"longitude":136.1983642578125,"category":"学校","description":"","image_url":""},{"id":5762,"title":"呉市広市民センター","architect":"石本建築事務所","year":2007.0,"address":"広島県呉市広古新開2-1-3","latitude":34.232566833496094,"longitude":132.61538696289062,"category":"総合文化施設","description":"","image_url":""},{"id":5763,"title":"アクアスやいづ","architect":"石本建築事務所","year":2006.0,"address":"静岡県焼津市鰯ケ島136-26","latitude":34.857215881347656,"longitude":138.3267059326172,"category":"プール","description":"","image_url":""},{"id":5764,"title":"鈴鹿市庁舎","architect":"石本建築事務所","year":2006.0,"address":"三重県鈴鹿市神戸1-18-18","latitude":34.88190460205078,"longitude":136.58438110351562,"category":"庁舎","description":"","image_url":""},{"id":5765,"title":"立正大学 品川キャンパス 9号館","architect":"石本建築事務所","year":2006.0,"address":"東京都品川区大崎4-2-16","latitude":35.62031936645508,"longitude":139.7236328125,"category":"大学","description":"熊谷キャンパスと誤記していました。品川キャンパスに訂正済み","image_url":""},{"id":5766,"title":"松山城ロープウェイ東雲口駅舎","architect":"石本建築事務所","year":2006.0,"address":"愛媛県松山市大街道3-2-46","latitude":33.844566345214844,"longitude":132.7718963623047,"category":"駅","description":"","image_url":""},{"id":5767,"title":"銚子市保健福祉センター すこやかなまなびの城","architect":"石本建築事務所","year":2006.0,"address":"千葉県銚子市若宮町4-8","latitude":35.73356246948242,"longitude":140.8269805908203,"category":"福祉センター","description":"","image_url":""},{"id":5768,"title":"大館市樹海体育館","architect":"石本建築事務所","year":2005.0,"address":"秋田県大館市上代野字八幡岱29-4","latitude":40.29350280761719,"longitude":140.59222412109375,"category":"体育館","description":"","image_url":""},{"id":5769,"title":"福崎町立図書館","architect":"石本建築事務所","year":2005.0,"address":"兵庫県神崎郡福崎町西治360-1","latitude":34.95159912109375,"longitude":134.7469024658203,"category":"図書館","description":"","image_url":""},{"id":5770,"title":"芸濃町総合庁舎","architect":"石本建築事務所","year":2004.0,"address":"三重県津市芸濃町椋本6141-1","latitude":34.80286407470703,"longitude":136.4363555908203,"category":"庁舎","description":"","image_url":""},{"id":5771,"title":"いなべ市立石榑小学校","architect":"石本建築事務所","year":2005.0,"address":"三重県いなべ市大安町石榑南611","latitude":35.10498809814453,"longitude":136.5050048828125,"category":"学校","description":"","image_url":""},{"id":5772,"title":"ラ チッタデッラ","architect":"ジョン・ジャーディ+石本建築事務所","year":2003.0,"address":"神奈川県川崎市川崎区小川町4-1","latitude":35.528045654296875,"longitude":139.6979522705078,"category":"モール","description":"","image_url":""},{"id":5773,"title":"妙高市立新井南小学校･ひまわり保育園","architect":"石本建築事務所","year":2003.0,"address":"新潟県妙高市除戸1887","latitude":36.98040771484375,"longitude":138.26925659179688,"category":"学校/幼稚園","description":"","image_url":""},{"id":5774,"title":"御食国若狭おばま食文化館","architect":"石本建築事務所","year":2003.0,"address":"福井県小浜市川崎3-4","latitude":35.501434326171875,"longitude":135.7377471923828,"category":"博物館/観光施設","description":"","image_url":""},{"id":5775,"title":"防府市火葬場 悠久苑","architect":"石本建築事務所","year":2003.0,"address":"山口県防府市高井1224-1","latitude":34.09291458129883,"longitude":131.54103088378906,"category":"斎場","description":"","image_url":""},{"id":5776,"title":"東村山市保健福祉総合センター・情報センター 東村山市いきいきプラザ","architect":"石本建築事務所","year":2003.0,"address":"東京都東村山市本町1-2","latitude":35.75418472290039,"longitude":139.46823120117188,"category":"福祉センター/公民館・交流施設","description":"","image_url":""},{"id":5777,"title":"志木小学校・いろは遊学図書館","architect":"石本建築事務所","year":2003.0,"address":"埼玉県志木市本町1-10-1","latitude":35.83113479614258,"longitude":139.57656860351562,"category":"学校/図書館","description":"","image_url":""},{"id":5778,"title":"岡山ドーム","architect":"石本建築事務所","year":2003.0,"address":"岡山県岡山市北区北長瀬表町1-1-1","latitude":34.65386199951172,"longitude":133.89242553710938,"category":"スタジアム","description":"","image_url":""},{"id":5779,"title":"彩の国 くまがやドーム","architect":"石本建築事務所","year":2003.0,"address":"埼玉県熊谷市上川上300","latitude":36.16646194458008,"longitude":139.40948486328125,"category":"スタジアム","description":"","image_url":""},{"id":5780,"title":"富里市立図書館","architect":"石本建築事務所","year":2002.0,"address":"千葉県富里市七栄653-1","latitude":35.72684860229492,"longitude":140.33877563476562,"category":"図書館","description":"","image_url":""},{"id":5781,"title":"拓殖大学紅陵高等学校","architect":"石本建築事務所","year":2002.0,"address":"千葉県木更津市桜井1403","latitude":35.36370086669922,"longitude":139.92764282226562,"category":"学校","description":"","image_url":""},{"id":5782,"title":"JSTイノベーションプラザ広島","architect":"石本建築事務所","year":2002.0,"address":"広島県東広島市鏡山3-10-23","latitude":34.397064208984375,"longitude":132.73434448242188,"category":"研究施設","description":"","image_url":""},{"id":5783,"title":"昭和町立常永小学校","architect":"石本建築事務所","year":2002.0,"address":"山梨県中巨摩郡昭和町河西15","latitude":35.61807632446289,"longitude":138.52548217773438,"category":"学校","description":"","image_url":""},{"id":5784,"title":"宮城県立白石高等技術専門校","architect":"石本建築事務所","year":2001.0,"address":"宮城県白石市白川津田新寺前5-1","latitude":38.031593322753906,"longitude":140.68663024902344,"category":"専門学校","description":"","image_url":""},{"id":5785,"title":"富士市消防防災庁舎","architect":"石本建築事務所","year":2001.0,"address":"静岡県富士市永田町1-100","latitude":35.161399841308594,"longitude":138.67547607421875,"category":"警察・消防署","description":"","image_url":""},{"id":5786,"title":"国際研究交流大学村 東京国際交流館 プラザ平成","architect":"石本建築事務所","year":2001.0,"address":"東京都江東区青海2-2","latitude":35.62074279785156,"longitude":139.77613830566406,"category":"研修施設/ホール・劇場","description":"","image_url":""},{"id":5787,"title":"豊橋市公会堂","architect":"中村與資平","year":1931.0,"address":"愛知県豊橋市八町通2-22","latitude":34.76803970336914,"longitude":137.39222717285156,"category":"庁舎","description":"2001年に石本建築事務所により改修","image_url":""},{"id":5788,"title":"鶴見大学記念館","architect":"石本建築事務所","year":2004.0,"address":"神奈川県横浜市鶴見区鶴見2-1-3","latitude":35.50497817993164,"longitude":139.67364501953125,"category":"ホール・劇場/大学","description":"","image_url":""},{"id":5789,"title":"日本大学 法学部図書館","architect":"石本建築事務所","year":2004.0,"address":"東京都千代田区三崎町2-3-1","latitude":35.699222564697266,"longitude":139.7546844482422,"category":"図書館/大学","description":"","image_url":""},{"id":5790,"title":"実践女子学園 桃夭館","architect":"石本建築事務所","year":2005.0,"address":"東京都渋谷区東1-1-11","latitude":35.65644836425781,"longitude":139.71041870117188,"category":"学校","description":"","image_url":""},{"id":5791,"title":"総務省 自治大学校","architect":"石本建築事務所","year":2002.0,"address":"東京都立川市緑町3591","latitude":35.70963668823242,"longitude":139.4100341796875,"category":"研修施設","description":"","image_url":""},{"id":5792,"title":"和洋学園 国府台キャンパス","architect":"石本建築事務所","year":2004.0,"address":"千葉県市川市国府台2-3-1","latitude":35.74237060546875,"longitude":139.90394592285156,"category":"大学","description":"","image_url":""},{"id":5793,"title":"港区立高輪台小学校","architect":"鈴木忠雄","year":1935.0,"address":"東京都港区高輪2-8-24","latitude":35.63628387451172,"longitude":139.73451232910156,"category":"学校","description":"2005年に石本建築事務所により改修","image_url":""},{"id":5794,"title":"紋別市紋別港氷海展望塔 オホーツクタワー","architect":"石本建築事務所","year":1996.0,"address":"北海道紋別市海洋公園1","latitude":44.33686065673828,"longitude":143.3806610107422,"category":"展望台","description":"","image_url":""},{"id":5795,"title":"大阪市立中央図書館","architect":"石本建築事務所","year":1996.0,"address":"大阪府大阪市西区北堀江4-3-2","latitude":34.6738166809082,"longitude":135.4862823486328,"category":"図書館","description":"","image_url":""},{"id":5796,"title":"日高市総合福祉センター 高麗の郷","architect":"石本建築事務所","year":1996.0,"address":"埼玉県日高市楡木201","latitude":35.889095306396484,"longitude":139.32998657226562,"category":"福祉センター","description":"","image_url":""},{"id":5797,"title":"能登三郷斎場","architect":"石本建築事務所","year":1996.0,"address":"石川県鳳珠郡能登町字藤ノ瀬ニ-30-1","latitude":37.327083587646484,"longitude":137.11651611328125,"category":"斎場","description":"","image_url":""},{"id":5798,"title":"フルーツパーク富士屋ホテル","architect":"石本建築事務所","year":1997.0,"address":"山梨県山梨市江曽原1388","latitude":35.70344543457031,"longitude":138.66183471679688,"category":"ホテル","description":"","image_url":""},{"id":5799,"title":"県立広島大学 旧県立広島女子大学","architect":"石本建築事務所","year":1997.0,"address":"広島県広島市南区宇品東1-1-71","latitude":34.366512298583984,"longitude":132.46873474121094,"category":"大学","description":"","image_url":""},{"id":5800,"title":"各務原市福祉の里","architect":"石本建築事務所","year":1997.0,"address":"岐阜県各務原市須衛7","latitude":35.43537521362305,"longitude":136.90525817871094,"category":"福祉センター","description":"","image_url":""}]}