{"page":71,"total_pages":290,"items_per_page":50,"total_items":14467,"items":[{"id":3501,"title":"中国銀行倉敷本町支店 旧倉敷銀行","architect":"薬師寺主計","year":1922.0,"address":"岡山県倉敷市本町3-1","latitude":34.59678649902344,"longitude":133.77137756347656,"category":"金融機関","big_category":"企業施設","description":"","image_url":"","tags":"","prefecture":"岡山","contractor":"","structural_designer":"","landscape_designer":"","shinkenchiku_url":""},{"id":3502,"title":"善通寺市庁舎","architect":"佐藤武夫","year":1968.0,"address":"香川県善通寺市文京町2-1-1","latitude":34.22853469848633,"longitude":133.78709411621094,"category":"庁舎","big_category":"公共施設","description":"","image_url":"","tags":"","prefecture":"香川","contractor":"","structural_designer":"","landscape_designer":"","shinkenchiku_url":""},{"id":3503,"title":"太陽セメント本社ビル","architect":"安藤忠雄","year":1986.0,"address":"大阪府大阪市福島区吉野4-22-9","latitude":34.687522888183594,"longitude":135.47079467773438,"category":"オフィスビル","big_category":"企業施設","description":"","image_url":"","tags":"","prefecture":"大阪","contractor":"","structural_designer":"","landscape_designer":"","shinkenchiku_url":""},{"id":3504,"title":"東京海上日動ビルディング","architect":"前川國男","year":1974.0,"address":"東京都千代田区丸の内1-2","latitude":35.68223190307617,"longitude":139.76292419433594,"category":"オフィスビル","big_category":"企業施設","description":"","image_url":"","tags":"","prefecture":"東京","contractor":"","structural_designer":"","landscape_designer":"","shinkenchiku_url":""},{"id":3505,"title":"三井本館","architect":"トローブリッジ・アンド・リヴィングストン","year":1929.0,"address":"東京都中央区日本橋室町2-1-1","latitude":35.68681716918945,"longitude":139.77249145507812,"category":"オフィスビル","big_category":"企業施設","description":"","image_url":"","tags":"重要文化財","prefecture":"東京","contractor":"","structural_designer":"","landscape_designer":"","shinkenchiku_url":""},{"id":3506,"title":"八重洲ダイビル 旧大阪ビルヂング八重洲口","architect":"村野藤吾","year":1967.0,"address":"東京都中央区京橋1-1-1","latitude":35.679386138916016,"longitude":139.77052307128906,"category":"オフィスビル","big_category":"企業施設","description":"2022年解体。2025年中頃に建て替えが日建設計により竣工予定","image_url":"","tags":"DOCOMOMO","prefecture":"東京","contractor":"","structural_designer":"","landscape_designer":"","shinkenchiku_url":""},{"id":3507,"title":"富ヶ谷のアトリエ","architect":"長谷川逸子","year":1986.0,"address":"東京都渋谷区富ヶ谷2-24-2","latitude":35.66325378417969,"longitude":139.6836395263672,"category":"テナントビル","big_category":"商業施設","description":"","image_url":"","tags":"","prefecture":"東京","contractor":"","structural_designer":"","landscape_designer":"","shinkenchiku_url":""},{"id":3508,"title":"丸石ビルディング 旧大洋商会ビル","architect":"山下寿郎","year":1931.0,"address":"東京都千代田区鍛冶町1-10-4","latitude":35.6903076171875,"longitude":139.7727813720703,"category":"オフィスビル","big_category":"企業施設","description":"","image_url":"","tags":"","prefecture":"東京","contractor":"","structural_designer":"","landscape_designer":"","shinkenchiku_url":""},{"id":3509,"title":"旧三菱銀行神戸支店","architect":"曽禰達蔵","year":1900.0,"address":"兵庫県神戸市中央区相生町1-1-21","latitude":34.68219757080078,"longitude":135.18020629882812,"category":"オフィスビル/金融機関","big_category":"企業施設,企業施設","description":"","image_url":"","tags":"","prefecture":"兵庫","contractor":"","structural_designer":"","landscape_designer":"","shinkenchiku_url":""},{"id":3510,"title":"北國銀行 武蔵ヶ辻支店 旧加能合同銀行本店","architect":"村野藤吾","year":1932.0,"address":"石川県金沢市青草町88","latitude":36.57148742675781,"longitude":136.6558837890625,"category":"金融機関","big_category":"企業施設","description":"","image_url":"","tags":"","prefecture":"石川","contractor":"","structural_designer":"","landscape_designer":"","shinkenchiku_url":""},{"id":3511,"title":"京都市役所 北庁舎","architect":"武田五一+中野進","year":1927.0,"address":"京都府京都市中京区榎木町101 京都市役所北庁舎","latitude":35.01194381713867,"longitude":135.76849365234375,"category":"庁舎","big_category":"公共施設","description":"","image_url":"","tags":"","prefecture":"京都","contractor":"","structural_designer":"","landscape_designer":"","shinkenchiku_url":""},{"id":3512,"title":"関西電力京都支店 旧京都電燈本社","architect":"武田五一","year":1937.0,"address":"京都府京都市下京区東塩小路町 関西電力京都（支）","latitude":34.98740768432617,"longitude":135.7572021484375,"category":"オフィスビル","big_category":"企業施設","description":"","image_url":"","tags":"DOCOMOMO","prefecture":"京都","contractor":"","structural_designer":"","landscape_designer":"","shinkenchiku_url":""},{"id":3513,"title":"大和郡山市庁舎","architect":"山田守","year":1962.0,"address":"奈良県大和郡山市北郡山町248-4","latitude":34.64936828613281,"longitude":135.78274536132812,"category":"庁舎","big_category":"公共施設","description":"2022年解体","image_url":"","tags":"","prefecture":"奈良","contractor":"","structural_designer":"","landscape_designer":"","shinkenchiku_url":""},{"id":3514,"title":"柏原市庁舎","architect":"池田宮彦","year":1969.0,"address":"大阪府柏原市安堂町1-55 ‎","latitude":34.57930374145508,"longitude":135.62864685058594,"category":"庁舎","big_category":"公共施設","description":"","image_url":"","tags":"","prefecture":"大阪","contractor":"","structural_designer":"","landscape_designer":"","shinkenchiku_url":""},{"id":3515,"title":"池田泉州銀行 和泉支店","architect":"村野藤吾","year":1966.0,"address":"大阪府和泉市府中町1-7-7","latitude":34.487911224365234,"longitude":135.42510986328125,"category":"金融機関","big_category":"企業施設","description":"","image_url":"","tags":"","prefecture":"大阪","contractor":"","structural_designer":"","landscape_designer":"","shinkenchiku_url":""},{"id":3516,"title":"池田泉州銀行 岸和田支店・泉州営業部 旧泉州銀行本店","architect":"村野藤吾","year":1959.0,"address":"大阪府岸和田市宮本町26-15","latitude":34.46194076538086,"longitude":135.37461853027344,"category":"金融機関","big_category":"企業施設","description":"","image_url":"","tags":"","prefecture":"大阪","contractor":"","structural_designer":"","landscape_designer":"","shinkenchiku_url":""},{"id":3517,"title":"美原区役所","architect":"村野藤吾","year":1965.0,"address":"大阪府堺市美原区黒山167-1","latitude":34.53849411010742,"longitude":135.5599365234375,"category":"庁舎","big_category":"公共施設","description":"2017年解体","image_url":"","tags":"","prefecture":"大阪","contractor":"","structural_designer":"","landscape_designer":"","shinkenchiku_url":""},{"id":3518,"title":"海岸ビルヂング 旧日濠会館","architect":"河合浩蔵","year":1911.0,"address":"兵庫県神戸市中央区海岸通3-1-5","latitude":34.685977935791016,"longitude":135.18679809570312,"category":"テナントビル","big_category":"商業施設","description":"","image_url":"","tags":"登録有形文化財","prefecture":"兵庫","contractor":"","structural_designer":"","landscape_designer":"","shinkenchiku_url":""},{"id":3519,"title":"シップ神戸海岸ビル 旧三井物産神戸支店","architect":"河合浩蔵+竹中工務店","year":1918.0,"address":"兵庫県神戸市中央区海岸通3 NOF神戸海岸ビル","latitude":34.686607360839844,"longitude":135.19061279296875,"category":"オフィスビル","big_category":"企業施設","description":"1998年に竹中工務店設計、旧外壁を再構築した形で建て替え","image_url":"","tags":"登録有形文化財","prefecture":"兵庫","contractor":"","structural_designer":"","landscape_designer":"","shinkenchiku_url":""},{"id":3520,"title":"福原ビル 旧国光生命保険相互会社大阪支店ビル","architect":"久野節","year":1932.0,"address":"大阪府大阪市中央区北浜東6-14","latitude":34.690406799316406,"longitude":135.51052856445312,"category":"オフィスビル","big_category":"企業施設","description":"","image_url":"","tags":"","prefecture":"大阪","contractor":"","structural_designer":"","landscape_designer":"","shinkenchiku_url":""},{"id":3521,"title":"黒田電気 大阪本店","architect":"村野藤吾","year":1970.0,"address":"大阪府大阪市淀川区木川東4-11-3","latitude":34.72757339477539,"longitude":135.4923858642578,"category":"オフィスビル","big_category":"企業施設","description":"","image_url":"","tags":"","prefecture":"大阪","contractor":"","structural_designer":"","landscape_designer":"","shinkenchiku_url":""},{"id":3522,"title":"神戸朝日ビル 旧神戸証券取引所・朝日会館","architect":"渡辺節+竹中工務店","year":1934.0,"address":"兵庫県神戸市中央区浪花町59","latitude":34.6894416809082,"longitude":135.1924591064453,"category":"オフィスビル","big_category":"企業施設","description":"渡辺節設計の外観を復元後、上部にオフィスビルを建設","image_url":"","tags":"","prefecture":"兵庫","contractor":"","structural_designer":"","landscape_designer":"","shinkenchiku_url":""},{"id":3523,"title":"大阪証券取引所","architect":"竹腰健造+三菱地所+日建設計","year":1935.0,"address":"大阪府大阪市中央区北浜1-8-16","latitude":34.69140625,"longitude":135.50721740722656,"category":"企業施設","big_category":"企業施設","description":"2004年に三菱地所設計、日建設計により増改築。元の建築は外観を保存、復元。","image_url":"","tags":"","prefecture":"大阪","contractor":"","structural_designer":"","landscape_designer":"","shinkenchiku_url":""},{"id":3524,"title":"WAVE 西麻布 旧スカラ","architect":"北川原温","year":1992.0,"address":"東京都港区西麻布1-14-17","latitude":35.66127395629883,"longitude":139.7233428955078,"category":"オフィスビル","big_category":"企業施設","description":"","image_url":"","tags":"","prefecture":"東京","contractor":"","structural_designer":"","landscape_designer":"","shinkenchiku_url":""},{"id":3525,"title":"Ms.REIKO TOKYO","architect":"葉祥栄","year":1997.0,"address":"東京都渋谷区鉢山町13-7","latitude":35.65125274658203,"longitude":139.69688415527344,"category":"店舗","big_category":"商業施設","description":"","image_url":"","tags":"","prefecture":"東京","contractor":"","structural_designer":"","landscape_designer":"","shinkenchiku_url":""},{"id":3526,"title":"TERRAZZA","architect":"竹山聖","year":1991.0,"address":"東京都渋谷区神宮前2-8-2","latitude":35.67335510253906,"longitude":139.71214294433594,"category":"オフィスビル","big_category":"企業施設","description":"","image_url":"","tags":"","prefecture":"東京","contractor":"","structural_designer":"","landscape_designer":"","shinkenchiku_url":""},{"id":3527,"title":"物質試行20 麻布EDGE","architect":"鈴木了二","year":1987.0,"address":"東京都港区西麻布1-1-1","latitude":35.66175079345703,"longitude":139.72787475585938,"category":"オフィスビル","big_category":"企業施設","description":"","image_url":"","tags":"","prefecture":"東京","contractor":"","structural_designer":"","landscape_designer":"","shinkenchiku_url":""},{"id":3528,"title":"浪花組大阪本社","architect":"村野藤吾","year":1964.0,"address":"大阪府大阪市中央区東心斎橋2-3-27","latitude":34.670963287353516,"longitude":135.5046844482422,"category":"オフィスビル","big_category":"企業施設","description":"","image_url":"","tags":"","prefecture":"大阪","contractor":"","structural_designer":"","landscape_designer":"","shinkenchiku_url":""},{"id":3529,"title":"沖縄こどもの国こども博物館","architect":"象設計集団","year":1972.0,"address":"沖縄県沖縄市胡屋5-7-1","latitude":26.327884674072266,"longitude":127.80347442626953,"category":"児童施設","big_category":"教育","description":"","image_url":"","tags":"","prefecture":"沖縄","contractor":"","structural_designer":"","landscape_designer":"","shinkenchiku_url":""},{"id":3530,"title":"名護市総合公園 21世紀の森","architect":"象設計集団","year":1975.0,"address":"沖縄県名護市大南2-1-1","latitude":26.592182159423828,"longitude":127.97000122070312,"category":"公園","big_category":"レジャー施設","description":"","image_url":"","tags":"","prefecture":"沖縄","contractor":"","structural_designer":"","landscape_designer":"","shinkenchiku_url":""},{"id":3531,"title":"森田ビル","architect":"村野藤吾","year":1962.0,"address":"大阪府大阪市中央区備後町2-4-6","latitude":34.68545913696289,"longitude":135.50537109375,"category":"オフィスビル","big_category":"企業施設","description":"","image_url":"","tags":"","prefecture":"大阪","contractor":"","structural_designer":"","landscape_designer":"","shinkenchiku_url":""},{"id":3532,"title":"常盤松御用邸 常陸宮邸","architect":"村野藤吾","year":1976.0,"address":"東京都渋谷区東4-3-5","latitude":35.6575927734375,"longitude":139.71267700195312,"category":"住宅","big_category":"住宅","description":"","image_url":"","tags":"Ver4.30(2022年2月)の追加建築","prefecture":"東京","contractor":"","structural_designer":"","landscape_designer":"","shinkenchiku_url":""},{"id":3533,"title":"JAにしみのグリーンパーク大垣","architect":"永田・北野建築研究所","year":1994.0,"address":"岐阜県大垣市東前町955-1","latitude":35.3458366394043,"longitude":136.63882446289062,"category":"組合施設","big_category":"公共施設","description":"","image_url":"","tags":"","prefecture":"岐阜","contractor":"","structural_designer":"","landscape_designer":"","shinkenchiku_url":""},{"id":3534,"title":"七里ヶ浜商店","architect":"西田司","year":2011.0,"address":"神奈川県鎌倉市七里ヶ浜東3-1-7","latitude":35.3094367980957,"longitude":139.51683044433594,"category":"店舗","big_category":"商業施設","description":"","image_url":"","tags":"","prefecture":"神奈川","contractor":"","structural_designer":"","landscape_designer":"","shinkenchiku_url":""},{"id":3535,"title":"六本木農園FARM","architect":"西田司","year":2010.0,"address":"東京都港区六本木6-6-15","latitude":35.66200637817383,"longitude":139.73170471191406,"category":"店舗","big_category":"商業施設","description":"","image_url":"","tags":"","prefecture":"東京","contractor":"","structural_designer":"","landscape_designer":"","shinkenchiku_url":""},{"id":3536,"title":"SNACKS","architect":"西田司","year":2010.0,"address":"神奈川県三浦郡葉山町一色2400-7","latitude":35.266334533691406,"longitude":139.57147216796875,"category":"オフィスビル","big_category":"企業施設","description":"閉鎖？","image_url":"","tags":"","prefecture":"神奈川","contractor":"","structural_designer":"","landscape_designer":"","shinkenchiku_url":""},{"id":3537,"title":"整形外科センター西能クリニック","architect":"西田司","year":2012.0,"address":"富山県富山市高田70","latitude":36.68486404418945,"longitude":137.18528747558594,"category":"病院","big_category":"医療施設","description":"","image_url":"","tags":"","prefecture":"富山","contractor":"","structural_designer":"","landscape_designer":"","shinkenchiku_url":""},{"id":3538,"title":"ヨコハマアパートメント","architect":"西田司","year":2009.0,"address":"神奈川県横浜市西区西戸部2-234","latitude":35.44868850708008,"longitude":139.61769104003906,"category":"集合住宅","big_category":"住宅","description":"","image_url":"","tags":"","prefecture":"神奈川","contractor":"","structural_designer":"","landscape_designer":"","shinkenchiku_url":""},{"id":3539,"title":"FIKA","architect":"西田司","year":2012.0,"address":"東京都豊島区長崎4-15-16","latitude":35.729209899902344,"longitude":139.68572998046875,"category":"店舗","big_category":"商業施設","description":"","image_url":"","tags":"","prefecture":"東京","contractor":"","structural_designer":"","landscape_designer":"","shinkenchiku_url":""},{"id":3540,"title":"SHUN＊SHOKU LOUNGE BY GURUNAVI","architect":"隈研吾","year":2013.0,"address":"大阪府大阪市北区大深町4-1","latitude":34.70322036743164,"longitude":135.49485778808594,"category":"観光施設","big_category":"レジャー施設","description":"","image_url":"","tags":"","prefecture":"大阪","contractor":"","structural_designer":"","landscape_designer":"","shinkenchiku_url":""},{"id":3541,"title":"星のや 竹富島","architect":"東利恵","year":2012.0,"address":"沖縄県八重山郡竹富町竹富 星のや 竹富島","latitude":24.322345733642578,"longitude":124.096923828125,"category":"ホテル","big_category":"宿泊","description":"","image_url":"","tags":"","prefecture":"沖縄","contractor":"","structural_designer":"","landscape_designer":"","shinkenchiku_url":""},{"id":3542,"title":"石水博物館","architect":"清水建設","year":2010.0,"address":"三重県津市垂水3032-18","latitude":34.697898864746094,"longitude":136.50474548339844,"category":"博物館","big_category":"ミュージアム","description":"","image_url":"","tags":"","prefecture":"三重","contractor":"","structural_designer":"","landscape_designer":"","shinkenchiku_url":""},{"id":3543,"title":"泗翠庵","architect":"中村昌生","year":1994.0,"address":"三重県四日市市鵜の森1-13-17","latitude":34.9644775390625,"longitude":136.6160430908203,"category":"茶室","big_category":"住宅","description":"","image_url":"","tags":"","prefecture":"三重","contractor":"","structural_designer":"","landscape_designer":"","shinkenchiku_url":""},{"id":3544,"title":"ホテル ブレストンコート","architect":"東利恵","year":2005.0,"address":"長野県北佐久郡軽井沢町長倉2144-18","latitude":36.357723236083984,"longitude":138.58876037597656,"category":"ホテル","big_category":"宿泊","description":"","image_url":"","tags":"","prefecture":"長野","contractor":"","structural_designer":"","landscape_designer":"","shinkenchiku_url":""},{"id":3545,"title":"星のや 軽井沢","architect":"東利恵","year":2005.0,"address":"長野県北佐久郡軽井沢町長倉2157-428","latitude":36.36428451538086,"longitude":138.59056091308594,"category":"ホテル","big_category":"宿泊","description":"","image_url":"","tags":"第5回芦原義信賞","prefecture":"長野","contractor":"","structural_designer":"","landscape_designer":"","shinkenchiku_url":""},{"id":3546,"title":"星野リゾート 界 加賀 旧白銀屋","architect":"東利恵","year":2005.0,"address":"石川県加賀市山代温泉18-47","latitude":36.28875732421875,"longitude":136.36093139648438,"category":"旅館","big_category":"宿泊","description":"","image_url":"","tags":"","prefecture":"石川","contractor":"","structural_designer":"","landscape_designer":"","shinkenchiku_url":""},{"id":3547,"title":"星野リゾート アンジン","architect":"東利恵","year":2008.0,"address":"静岡県伊東市渚町5-12","latitude":34.97140884399414,"longitude":139.10096740722656,"category":"ホテル","big_category":"宿泊","description":"","image_url":"","tags":"","prefecture":"静岡","contractor":"","structural_designer":"","landscape_designer":"","shinkenchiku_url":""},{"id":3548,"title":"星のや 京都","architect":"東利恵","year":2009.0,"address":"京都府京都市西京区嵐山元録山町11-2","latitude":35.016395568847656,"longitude":135.66656494140625,"category":"ホテル","big_category":"宿泊","description":"","image_url":"","tags":"","prefecture":"京都","contractor":"","structural_designer":"","landscape_designer":"","shinkenchiku_url":""},{"id":3549,"title":"セラタウンかさはらアメニティホール","architect":"田口知子+キャサリン・フィンドレイ","year":2000.0,"address":"岐阜県多治見市笠原町 セラタウンかさはら","latitude":35.31407928466797,"longitude":137.16348266601562,"category":"公民館・交流施設","big_category":"公共施設","description":"","image_url":"","tags":"","prefecture":"岐阜","contractor":"","structural_designer":"","landscape_designer":"","shinkenchiku_url":""},{"id":3550,"title":"PICA山中湖ヴィレッジ フジヤマガーデン ／ レストラン","architect":"山田貴宏","year":2007.0,"address":"山梨県南都留郡山中湖村平野506-296","latitude":35.407108306884766,"longitude":138.87466430664062,"category":"カフェ/レストラン","big_category":"商業施設,商業施設","description":"","image_url":"","tags":"","prefecture":"山梨","contractor":"","structural_designer":"","landscape_designer":"","shinkenchiku_url":""}]}