{"page":203,"total_pages":290,"items_per_page":50,"total_items":14467,"items":[{"id":10101,"title":"イワタノイエ 渡辺隆建築設計事務所","architect":"渡辺隆","year":2005.0,"address":"静岡県磐田市見付1768-34","latitude":34.74311447143555,"longitude":137.85801696777344,"category":"低層オフィス/住宅","big_category":"企業施設,住宅","description":"","image_url":"","tags":"Ver3.70(2021年1月)の追加建築","prefecture":"静岡","contractor":"","structural_designer":"","landscape_designer":"","shinkenchiku_url":""},{"id":10102,"title":"田園調布せせらぎ館","architect":"隈研吾","year":2020.0,"address":"東京都大田区田園調布1-53-12","latitude":35.5889778137207,"longitude":139.6695556640625,"category":"公民館・交流施設/カフェ/図書館","big_category":"公共施設,商業施設,文化施設","description":"2021年1月オープン予定","image_url":"","tags":"Ver3.70(2021年1月)の追加建築","prefecture":"東京","contractor":"","structural_designer":"","landscape_designer":"","shinkenchiku_url":""},{"id":10103,"title":"森林総合教育センター morinos","architect":"隈研吾+岐阜県立森林文化アカデミー木造建築スタジオ","year":2020.0,"address":"岐阜県美濃市曽代88","latitude":35.55400085449219,"longitude":136.9194793701172,"category":"体験施設","big_category":"レジャー施設","description":"","image_url":"","tags":"Ver3.70(2021年1月)の追加建築","prefecture":"岐阜","contractor":"","structural_designer":"","landscape_designer":"","shinkenchiku_url":""},{"id":10104,"title":"岐阜関ケ原古戦場記念館","architect":"東畑建築事務所+デザインボックス","year":2020.0,"address":"岐阜県関ケ原町894-55","latitude":35.36564254760742,"longitude":136.46624755859375,"category":"博物館","big_category":"ミュージアム","description":"","image_url":"","tags":"Ver3.70(2021年1月)の追加建築","prefecture":"岐阜","contractor":"","structural_designer":"","landscape_designer":"","shinkenchiku_url":""},{"id":10105,"title":"ぎふ木遊館","architect":"デザインボックス","year":2020.0,"address":"岐阜県岐阜市学園町2-33","latitude":35.440433502197266,"longitude":136.75794982910156,"category":"博物館/児童施設","big_category":"ミュージアム,教育","description":"","image_url":"","tags":"Ver3.70(2021年1月)の追加建築","prefecture":"岐阜","contractor":"","structural_designer":"","landscape_designer":"","shinkenchiku_url":""},{"id":10106,"title":"はぐくむ 湖畔","architect":"坂茂","year":2020.0,"address":"東京都世田谷区松原5-2-2 prendre ys1F","latitude":35.662506103515625,"longitude":139.6555633544922,"category":"レストラン","big_category":"商業施設","description":"内装設計","image_url":"","tags":"Ver3.70(2021年1月)の追加建築","prefecture":"東京","contractor":"","structural_designer":"","landscape_designer":"","shinkenchiku_url":""},{"id":10107,"title":"東京工業大学 Hisao & Hiroko Taki Plaza","architect":"隈研吾","year":2020.0,"address":"東京都目黒区大岡山2-12-1","latitude":35.60614013671875,"longitude":139.6846466064453,"category":"大学","big_category":"教育","description":"2021年4月グランドオープン予定","image_url":"","tags":"Ver3.70(2021年1月)の追加建築,新建築2021年5月号","prefecture":"東京","contractor":"","structural_designer":"","landscape_designer":"","shinkenchiku_url":""},{"id":10108,"title":"誓いの丘公園リニューアル","architect":"隈研吾","year":2020.0,"address":"静岡県駿東郡小山町竹之下3660-59","latitude":35.33367919921875,"longitude":139.00112915039062,"category":"公園","big_category":"レジャー施設","description":"公園内あずまや、トイレを設計","image_url":"","tags":"Ver3.70(2021年1月)の追加建築","prefecture":"静岡","contractor":"","structural_designer":"","landscape_designer":"","shinkenchiku_url":""},{"id":10109,"title":"ZOZO 新本社屋","architect":"中村拓志","year":2020.0,"address":"千葉県千葉市稲毛区緑町1-15-3","latitude":35.62535858154297,"longitude":140.0988311767578,"category":"低層オフィス","big_category":"企業施設","description":"2020年末竣工予定。2021年2月移転予定","image_url":"","tags":"Ver3.70(2021年1月)の追加建築,新建築2021年4月号,第31回AACA 奨励賞","prefecture":"千葉","contractor":"","structural_designer":"","landscape_designer":"","shinkenchiku_url":""},{"id":10110,"title":"星野リゾート リゾナーレ那須 本館 旧二期倶楽部 東棟","architect":"山本・堀アーキテクツ+コンラン&パートナーズ","year":2003.0,"address":"栃木県那須郡那須町高久乙道下2301","latitude":37.058189392089844,"longitude":139.97848510742188,"category":"ホテル","big_category":"宿泊","description":"旧二期倶楽部東棟。レセプション・温浴施設・及び宿泊棟。現在は本館として利用されている","image_url":"","tags":"Ver3.70(2021年1月)の追加建築","prefecture":"栃木","contractor":"","structural_designer":"","landscape_designer":"","shinkenchiku_url":""},{"id":10111,"title":"星野リゾート リゾナーレ那須 POKOPOKO","architect":"クライン・ダイサム・アーキテクツ","year":2019.0,"address":"栃木県那須郡那須町高久乙道下2301","latitude":37.05839920043945,"longitude":139.97760009765625,"category":"ホテル/カフェ","big_category":"宿泊,商業施設","description":"","image_url":"","tags":"Ver3.70(2021年1月)の追加建築,新建築2021年5月号","prefecture":"栃木","contractor":"","structural_designer":"","landscape_designer":"","shinkenchiku_url":""},{"id":10112,"title":"那須 無垢の音 スイートヴィラ 旧アートビオトープ那須","architect":"坂茂","year":2020.0,"address":"栃木県那須郡那須町高久乙道上2294-3","latitude":37.059814453125,"longitude":139.97987365722656,"category":"ホテル/コテージ","big_category":"宿泊,宿泊","description":"14棟15室","image_url":"","tags":"Ver3.70(2021年1月)の追加建築","prefecture":"栃木","contractor":"","structural_designer":"","landscape_designer":"","shinkenchiku_url":""},{"id":10113,"title":"那須 無垢の音 レストランμ 旧アートビオトープ那須","architect":"プラスニューオフィス","year":2020.0,"address":"栃木県那須郡那須町高久乙道上2294-3","latitude":37.05986022949219,"longitude":139.97927856445312,"category":"ホテル/レストラン","big_category":"宿泊,商業施設","description":"","image_url":"","tags":"Ver3.70(2021年1月)の追加建築","prefecture":"栃木","contractor":"","structural_designer":"","landscape_designer":"","shinkenchiku_url":""},{"id":10114,"title":"ヨックモック本社ビル","architect":"現代計画研究所","year":1978.0,"address":"東京都港区南青山5-3-3","latitude":35.66335678100586,"longitude":139.71495056152344,"category":"低層オフィス/店舗","big_category":"企業施設,商業施設","description":"","image_url":"","tags":"Ver3.70(2021年1月)の追加建築","prefecture":"東京","contractor":"","structural_designer":"","landscape_designer":"","shinkenchiku_url":""},{"id":10115,"title":"名古屋大学 オークマ工作機械工学館","architect":"諸江一紀+D.I.G Architects+佐々木勝敏+東畑建築事務所","year":2020.0,"address":"愛知県名古屋市千種区不老町1","latitude":35.155555725097656,"longitude":136.96629333496094,"category":"大学","big_category":"教育","description":"","image_url":"","tags":"Ver3.70(2021年1月)の追加建築","prefecture":"愛知","contractor":"","structural_designer":"","landscape_designer":"","shinkenchiku_url":""},{"id":10116,"title":"名古屋大学 赤崎記念研究館","architect":"シーラカンスアンドアソシエイツ","year":2006.0,"address":"愛知県名古屋市千種区不老町1","latitude":35.1568489074707,"longitude":136.96527099609375,"category":"大学","big_category":"教育","description":"","image_url":"","tags":"Ver3.70(2021年1月)の追加建築","prefecture":"愛知","contractor":"","structural_designer":"","landscape_designer":"","shinkenchiku_url":""},{"id":10117,"title":"嘉麻市新庁舎","architect":"久米設計","year":2020.0,"address":"福岡県嘉麻市岩崎1180-1","latitude":33.59844970703125,"longitude":130.71897888183594,"category":"庁舎","big_category":"公共施設","description":"","image_url":"","tags":"Ver3.70(2021年1月)の追加建築","prefecture":"福岡","contractor":"","structural_designer":"","landscape_designer":"","shinkenchiku_url":""},{"id":10118,"title":"ライダーズイン雲の上","architect":"太田憲男","year":1997.0,"address":"高知県高岡郡梼原町太郎川3763−2","latitude":33.38788986206055,"longitude":132.94064331054688,"category":"コテージ","big_category":"宿泊","description":"","image_url":"","tags":"Ver3.70(2021年1月)の追加建築","prefecture":"高知","contractor":"","structural_designer":"","landscape_designer":"","shinkenchiku_url":""},{"id":10119,"title":"ホテルガレリア御堂原","architect":"光浦高史","year":2020.0,"address":"大分県別府市堀田6組","latitude":33.28715133666992,"longitude":131.4610137939453,"category":"ホテル","big_category":"宿泊","description":"","image_url":"","tags":"Ver3.70(2021年1月)の追加建築","prefecture":"大分","contractor":"","structural_designer":"","landscape_designer":"","shinkenchiku_url":""},{"id":10120,"title":"長泉院附属現代彫刻美術館","architect":"堀響一","year":1982.0,"address":"東京都目黒区中目黒4-12-18","latitude":35.635929107666016,"longitude":139.70309448242188,"category":"美術館","big_category":"ミュージアム","description":"","image_url":"","tags":"Ver3.70(2021年1月)の追加建築","prefecture":"東京","contractor":"","structural_designer":"","landscape_designer":"","shinkenchiku_url":""},{"id":10121,"title":"HASE-BLDG.3","architect":"シーラカンスアンドアソシエイツ","year":2020.0,"address":"愛知県名古屋市中区大須3-1-35","latitude":35.16162109375,"longitude":136.90367126464844,"category":"テナントビル","big_category":"商業施設","description":"","image_url":"","tags":"Ver3.70(2021年1月)の追加建築","prefecture":"愛知","contractor":"","structural_designer":"","landscape_designer":"","shinkenchiku_url":""},{"id":10122,"title":"書写山圓教寺摩尼殿","architect":"武田五一","year":1933.0,"address":"兵庫県姫路市書写2968","latitude":34.89138412475586,"longitude":134.65753173828125,"category":"寺院","big_category":"宗教","description":"","image_url":"","tags":"Ver3.70(2021年1月)の追加建築","prefecture":"兵庫","contractor":"","structural_designer":"","landscape_designer":"","shinkenchiku_url":""},{"id":10123,"title":"田布施町役場","architect":"加藤実","year":1971.0,"address":"山口県熊毛郡田布施町下田布施3440-1","latitude":33.954734802246094,"longitude":132.04135131835938,"category":"庁舎","big_category":"公共施設","description":"","image_url":"","tags":"Ver3.70(2021年1月)の追加建築","prefecture":"山口","contractor":"","structural_designer":"","landscape_designer":"","shinkenchiku_url":""},{"id":10124,"title":"六甲最高峰トイレ","architect":"ofa","year":2020.0,"address":"神戸市北区有馬町字六甲山1913-2","latitude":34.77785873413086,"longitude":135.2637176513672,"category":"トイレ","big_category":"公共施設","description":"","image_url":"","tags":"Ver3.70(2021年1月)の追加建築,新建築2023年12月号","prefecture":"神戸","contractor":"","structural_designer":"","landscape_designer":"","shinkenchiku_url":""},{"id":10125,"title":"亀岡市庁舎別館 旧亀岡のガソリンスタンド","architect":"出江寛","year":1994.0,"address":"京都府亀岡市安町野々神31-1","latitude":35.013671875,"longitude":135.5720977783203,"category":"庁舎","big_category":"公共施設","description":"元ガソリンスタンド・レストラン。ガソリンスタンド部分は取壊？今は庁舎別館として使われているようです","image_url":"","tags":"Ver3.70(2021年1月)の追加建築","prefecture":"京都","contractor":"","structural_designer":"","landscape_designer":"","shinkenchiku_url":""},{"id":10126,"title":"里山トイレ","architect":"藤本壮介","year":2020.0,"address":"千葉県市原市牛久 上総牛久駅","latitude":35.40013885498047,"longitude":140.14181518554688,"category":"トイレ","big_category":"公共施設","description":"","image_url":"","tags":"Ver3.70(2021年1月)の追加建築","prefecture":"千葉","contractor":"","structural_designer":"","landscape_designer":"","shinkenchiku_url":""},{"id":10127,"title":"婦人之友社","architect":"遠藤楽","year":1963.0,"address":"東京都豊島区西池袋2-20-16","latitude":35.72626876831055,"longitude":139.7077178955078,"category":"低層オフィス","big_category":"企業施設","description":"","image_url":"","tags":"Ver3.70(2021年1月)の追加建築","prefecture":"東京","contractor":"","structural_designer":"","landscape_designer":"","shinkenchiku_url":""},{"id":10128,"title":"自由学園 羽仁両先生記念図書館","architect":"遠藤楽","year":1966.0,"address":"東京都東久留米市学園町1-8-15","latitude":35.754066467285156,"longitude":139.5368194580078,"category":"学校/図書館","big_category":"教育,文化施設","description":"","image_url":"","tags":"Ver3.70(2021年1月)の追加建築,DOCOMOMO","prefecture":"東京","contractor":"","structural_designer":"","landscape_designer":"","shinkenchiku_url":""},{"id":10129,"title":"自由学園 60周年記念講堂","architect":"遠藤楽","year":1981.0,"address":"東京都東久留米市学園町1-8-15","latitude":35.752464294433594,"longitude":139.53721618652344,"category":"学校/ホール・劇場","big_category":"教育,文化施設","description":"","image_url":"","tags":"Ver3.70(2021年1月)の追加建築","prefecture":"東京","contractor":"","structural_designer":"","landscape_designer":"","shinkenchiku_url":""},{"id":10130,"title":"日本基督教団 滝野川教会","architect":"遠藤楽","year":1991.0,"address":"東京都北区上中里1-1-12","latitude":35.7426872253418,"longitude":139.75094604492188,"category":"教会","big_category":"宗教","description":"2004年に百周年記念館を遠藤楽設計で増築","image_url":"","tags":"Ver3.70(2021年1月)の追加建築","prefecture":"東京","contractor":"","structural_designer":"","landscape_designer":"","shinkenchiku_url":""},{"id":10131,"title":"多摩美術大学 オリーブ館","architect":"田淵諭","year":2020.0,"address":"東京都町田市小山ヶ丘6-4-1","latitude":35.608360290527344,"longitude":139.34878540039062,"category":"寮/大学","big_category":"住宅,教育","description":"","image_url":"","tags":"Ver3.70(2021年1月)の追加建築","prefecture":"東京","contractor":"","structural_designer":"","landscape_designer":"","shinkenchiku_url":""},{"id":10132,"title":"京都鳩居堂 本店","architect":"内藤廣","year":2020.0,"address":"京都府京都市中京区下本能寺前町520","latitude":35.00992965698242,"longitude":135.76707458496094,"category":"店舗","big_category":"商業施設","description":"","image_url":"","tags":"Ver3.70(2021年1月)の追加建築,新建築2021年7月号","prefecture":"京都","contractor":"野口建設","structural_designer":"","landscape_designer":"","shinkenchiku_url":""},{"id":10133,"title":"市谷の杜 本と活字館","architect":"土居松市+宮内初太郎","year":1926.0,"address":"東京都新宿区市谷加賀町1-1-1","latitude":35.69609069824219,"longitude":139.7318115234375,"category":"博物館/体験施設","big_category":"ミュージアム,レジャー施設","description":"1926年に竣工した営業所（通称時計台）を改修","image_url":"","tags":"Ver3.70(2021年1月)の追加建築","prefecture":"東京","contractor":"","structural_designer":"","landscape_designer":"","shinkenchiku_url":""},{"id":10134,"title":"東海大学 札幌キャンパス サウスウィング・ノースウィング","architect":"山田守","year":1967.0,"address":"北海道札幌市南区南沢5条1-1-1","latitude":42.991207122802734,"longitude":141.31805419921875,"category":"大学","big_category":"教育","description":"","image_url":"","tags":"Ver3.70(2021年1月)の追加建築","prefecture":"北海道","contractor":"","structural_designer":"","landscape_designer":"","shinkenchiku_url":""},{"id":10135,"title":"SEC電算センタービル 旧百十三銀行本店","architect":"関根要太郎+蔵田周忠","year":1926.0,"address":"北海道函館市末広町18-16","latitude":41.76545333862305,"longitude":140.71388244628906,"category":"金融機関","big_category":"企業施設","description":"","image_url":"","tags":"Ver3.70(2021年1月)の追加建築","prefecture":"北海道","contractor":"","structural_designer":"","landscape_designer":"","shinkenchiku_url":""},{"id":10136,"title":"足利市庁舎別館","architect":"石本喜久治","year":1953.0,"address":"栃木県足利市本城3","latitude":36.34048080444336,"longitude":139.4503173828125,"category":"庁舎","big_category":"公共施設","description":"","image_url":"","tags":"Ver3.70(2021年1月)の追加建築","prefecture":"栃木","contractor":"","structural_designer":"","landscape_designer":"","shinkenchiku_url":""},{"id":10137,"title":"渋川市民会館","architect":"山口文象","year":1976.0,"address":"群馬県渋川市渋川2795","latitude":36.494659423828125,"longitude":138.99313354492188,"category":"ホール・劇場","big_category":"文化施設","description":"","image_url":"","tags":"Ver3.70(2021年1月)の追加建築","prefecture":"群馬","contractor":"","structural_designer":"","landscape_designer":"","shinkenchiku_url":""},{"id":10138,"title":"館山市庁舎","architect":"石本喜久治","year":1960.0,"address":"千葉県館山市北条1145-1","latitude":34.996524810791016,"longitude":139.87008666992188,"category":"庁舎","big_category":"公共施設","description":"","image_url":"","tags":"Ver3.70(2021年1月)の追加建築","prefecture":"千葉","contractor":"","structural_designer":"","landscape_designer":"","shinkenchiku_url":""},{"id":10139,"title":"野田市郷土博物館","architect":"山田守","year":1958.0,"address":"千葉県野田市野田370-8","latitude":35.94535827636719,"longitude":139.86544799804688,"category":"博物館","big_category":"ミュージアム","description":"","image_url":"","tags":"Ver3.70(2021年1月)の追加建築","prefecture":"千葉","contractor":"","structural_designer":"","landscape_designer":"","shinkenchiku_url":""},{"id":10140,"title":"日本キリスト教会 大森教会","architect":"山口文象","year":1959.0,"address":"東京都大田区大森北4-14-5","latitude":35.58311080932617,"longitude":139.728515625,"category":"教会","big_category":"宗教","description":"","image_url":"","tags":"Ver3.70(2021年1月)の追加建築","prefecture":"東京","contractor":"","structural_designer":"","landscape_designer":"","shinkenchiku_url":""},{"id":10141,"title":"日本キリスト教団 久が原教会","architect":"山口文象","year":1962.0,"address":"東京都大田区久が原4-37-14","latitude":35.57705307006836,"longitude":139.69029235839844,"category":"教会","big_category":"宗教","description":"","image_url":"","tags":"Ver3.70(2021年1月)の追加建築","prefecture":"東京","contractor":"","structural_designer":"","landscape_designer":"","shinkenchiku_url":""},{"id":10142,"title":"朝鮮大学校","architect":"山口文象","year":1959.0,"address":"東京都小平市小川町1-700","latitude":35.72422790527344,"longitude":139.44863891601562,"category":"学校","big_category":"教育","description":"","image_url":"","tags":"Ver3.70(2021年1月)の追加建築","prefecture":"東京","contractor":"","structural_designer":"","landscape_designer":"","shinkenchiku_url":""},{"id":10143,"title":"島田市役所","architect":"石本喜久治","year":1962.0,"address":"静岡県島田市中央町1-1","latitude":34.83632278442383,"longitude":138.1761474609375,"category":"庁舎","big_category":"公共施設","description":"2024年取り壊し","image_url":"","tags":"Ver3.70(2021年1月)の追加建築","prefecture":"静岡","contractor":"","structural_designer":"","landscape_designer":"","shinkenchiku_url":""},{"id":10144,"title":"富士吉田市役所","architect":"石本喜久治","year":1958.0,"address":"山梨県富士吉田市下吉田6-1-1","latitude":35.48054504394531,"longitude":138.80105590820312,"category":"庁舎","big_category":"公共施設","description":"","image_url":"","tags":"Ver3.70(2021年1月)の追加建築","prefecture":"山梨","contractor":"","structural_designer":"","landscape_designer":"","shinkenchiku_url":""},{"id":10145,"title":"三島市庁舎","architect":"石本喜久治","year":1959.0,"address":"静岡県三島市北田町4-47","latitude":35.118431091308594,"longitude":138.9185333251953,"category":"庁舎","big_category":"公共施設","description":"","image_url":"","tags":"Ver3.70(2021年1月)の追加建築","prefecture":"静岡","contractor":"","structural_designer":"","landscape_designer":"","shinkenchiku_url":""},{"id":10146,"title":"hotel sou","architect":"谷尻誠","year":2020.0,"address":"長崎県五島市栄町2-15","latitude":32.69597625732422,"longitude":128.84548950195312,"category":"ホテル","big_category":"宿泊","description":"","image_url":"","tags":"Ver3.70(2021年1月)の追加建築","prefecture":"長崎","contractor":"","structural_designer":"","landscape_designer":"","shinkenchiku_url":""},{"id":10147,"title":"松本十帖 松本本箱","architect":"谷尻誠","year":2020.0,"address":"長野県松本市浅間温泉3-13-1","latitude":36.263492584228516,"longitude":137.99151611328125,"category":"ホテル/店舗/カフェ","big_category":"宿泊,商業施設,商業施設","description":"1F/2Fにはブックストア松本本箱が入る。一般利用可能","image_url":"","tags":"Ver3.70(2021年1月)の追加建築","prefecture":"長野","contractor":"","structural_designer":"","landscape_designer":"","shinkenchiku_url":""},{"id":10148,"title":"箱根本箱","architect":"海法圭","year":2018.0,"address":"神奈川県足柄下郡箱根町強羅1320-49","latitude":35.2507209777832,"longitude":139.0389862060547,"category":"ホテル","big_category":"宿泊","description":"","image_url":"","tags":"Ver3.70(2021年1月)の追加建築","prefecture":"神奈川","contractor":"","structural_designer":"","landscape_designer":"","shinkenchiku_url":""},{"id":10149,"title":"アンジェリカ・ガーデン","architect":"海法圭","year":2014.0,"address":"福島県会津若松市神指町橋本71","latitude":37.506370544433594,"longitude":139.90872192382812,"category":"美容院","big_category":"商業施設","description":"","image_url":"","tags":"Ver3.70(2021年1月)の追加建築","prefecture":"福島","contractor":"","structural_designer":"","landscape_designer":"","shinkenchiku_url":""},{"id":10150,"title":"ドゥ・ミール","architect":"遠藤勝勧","year":2000.0,"address":"山梨県北杜市明野町浅尾5259-210","latitude":35.78012466430664,"longitude":138.46852111816406,"category":"店舗","big_category":"商業施設","description":"","image_url":"","tags":"Ver3.70(2021年1月)の追加建築","prefecture":"山梨","contractor":"","structural_designer":"","landscape_designer":"","shinkenchiku_url":""}]}