{"page":234,"total_pages":290,"items_per_page":50,"total_items":14467,"items":[{"id":11651,"title":"Villa SSK カップマルタンファニーハウス","architect":"廣部剛司","year":2012.0,"address":"千葉県安房郡鋸南町岩井袋261-5","latitude":35.100311279296875,"longitude":139.83441162109375,"category":"住宅/コテージ","description":"カップマルタンファニーハウス。貸別荘として宿泊可能","image_url":""},{"id":11652,"title":"仲見世通り隣のごはん屋 梅と星","architect":"ツバメアーキテクツ","year":2022.0,"address":"東京都台東区浅草2-2-4","latitude":35.712974548339844,"longitude":139.79672241210938,"category":"カフェ/店舗","description":"","image_url":""},{"id":11653,"title":"KOTOBUKI cheese factory","architect":"片田友樹","year":2018.0,"address":"鹿児島県鹿屋市北田町5-5","latitude":31.38778305053711,"longitude":130.84933471679688,"category":"工場","description":"","image_url":""},{"id":11654,"title":"KOTOBUKI HOTEL","architect":"片田友樹","year":2020.0,"address":"鹿児島県鹿屋市北田町5-40","latitude":31.388134002685547,"longitude":130.84939575195312,"category":"ホテル","description":"","image_url":""},{"id":11655,"title":"旧岡田ビル再生計画","architect":"神本豊秋","year":2022.0,"address":"東京都千代田区神田錦町2-9-15","latitude":35.69136047363281,"longitude":139.762939453125,"category":"オフィスビル","description":"築約50年のビル改修","image_url":""},{"id":11656,"title":"東急池上線長原駅","architect":"トラフ建築設計事務所+東急電鉄+交建設計","year":2021.0,"address":"東京都大田区上池台1-10","latitude":35.60224533081055,"longitude":139.69793701171875,"category":"駅","description":"築50年の駅舎改修。トラフによるデザイン監修","image_url":""},{"id":11657,"title":"ライトキューブ宇都宮","architect":"隈研吾+アール・アイ・エー+AIS総合設計","year":2022.0,"address":"栃木県宇都宮市宮みらい1-20","latitude":36.559410095214844,"longitude":139.90029907226562,"category":"展示・会議場","description":"2022年11月30日にオープン予定。デザイン監修：隈研吾","image_url":""},{"id":11658,"title":"ようび本社","architect":"ようび建築設計室","year":2018.0,"address":"岡山県英田郡西粟倉村坂根43","latitude":35.197452545166016,"longitude":134.3358154296875,"category":"低層オフィス","description":"","image_url":""},{"id":11659,"title":"omoや545","architect":"片岡八重子","year":2020.0,"address":"岡山県岡山市北区御津新庄545","latitude":34.81990051269531,"longitude":133.97457885742188,"category":"古民家/カフェ/店舗","description":"","image_url":""},{"id":11660,"title":"ナカイフローリスト","architect":"古野善昭+神谷幸治","year":2020.0,"address":"北海道夕張郡栗山町松風4-1-1","latitude":43.05478286743164,"longitude":141.78396606445312,"category":"店舗","description":"","image_url":""},{"id":11661,"title":"Innovation Garden Osaka Center","architect":"竹中工務店","year":2020.0,"address":"大阪府高槻市桜町1","latitude":34.847381591796875,"longitude":135.611083984375,"category":"研究施設/低層オフィス","description":"","image_url":""},{"id":11662,"title":"大阪学院大学 高等学校新校舎","architect":"北川原温","year":2020.0,"address":"大阪府吹田市岸部南2-6-1","latitude":34.77545166015625,"longitude":135.54107666015625,"category":"学校","description":"","image_url":""},{"id":11663,"title":"メモリアルホール和光","architect":"坂本昭","year":2001.0,"address":"富山県氷見市鞍川45","latitude":36.857200622558594,"longitude":136.975341796875,"category":"斎場","description":"","image_url":""},{"id":11664,"title":"きりはら心斎館","architect":"坂本昭","year":1999.0,"address":"長野県上高井郡小布施町上町895","latitude":36.68964767456055,"longitude":138.3160400390625,"category":"斎場","description":"","image_url":""},{"id":11665,"title":"掛川市生涯学習センター","architect":"一ノ宮賢治","year":1983.0,"address":"静岡県掛川市御所原17-1","latitude":34.779109954833984,"longitude":138.0192413330078,"category":"ホール・劇場","description":"","image_url":""},{"id":11666,"title":"はいむるぶし","architect":"一ノ宮賢治","year":1979.0,"address":"沖縄県八重山郡竹富町小浜2930","latitude":24.327190399169922,"longitude":123.99138641357422,"category":"ホテル","description":"","image_url":""},{"id":11667,"title":"つま恋リゾート 彩の郷","architect":"一ノ宮賢治","year":1974.0,"address":"静岡県掛川市満水2000","latitude":34.766075134277344,"longitude":138.04739379882812,"category":"ホテル","description":"","image_url":""},{"id":11668,"title":"葛城 北の丸","architect":"一ノ宮賢治","year":1984.0,"address":"静岡県袋井市宇刈2505-2","latitude":34.82078170776367,"longitude":137.93994140625,"category":"ホテル/旅館","description":"","image_url":""},{"id":11669,"title":"ヤマハマリーナ琵琶湖","architect":"一ノ宮賢治","year":1988.0,"address":"滋賀県大津市下阪本5-2-2","latitude":35.06427764892578,"longitude":135.88156127929688,"category":"港/クラブハウス","description":"","image_url":""},{"id":11670,"title":"菊川文化会館アエル","architect":"関・空間設計","year":1992.0,"address":"静岡県菊川市本所2488-2","latitude":34.74366760253906,"longitude":138.093017578125,"category":"ホール・劇場","description":"岡設計（旧名称）","image_url":""},{"id":11671,"title":"掛川市文化会館シオーネ","architect":"山下設計","year":1998.0,"address":"静岡県掛川市大坂7373","latitude":34.68466567993164,"longitude":138.05178833007812,"category":"ホール・劇場","description":"","image_url":""},{"id":11672,"title":"静岡市歴史博物館","architect":"SANAA","year":2022.0,"address":"静岡県静岡市葵区追手町4-16","latitude":34.97662353515625,"longitude":138.385009765625,"category":"博物館","description":"2022年7月23日にプレオープン、1Fのみ公開。2023年1月にオープン予定","image_url":""},{"id":11673,"title":"L stay & grow 晴海","architect":"上浪恒","year":1975.0,"address":"東京都中央区晴海3-8-1","latitude":35.65483856201172,"longitude":139.7796630859375,"category":"ホテル","description":"","image_url":""},{"id":11674,"title":"暮らしの香り 山中湖アトリエ","architect":"梅澤竜也","year":2021.0,"address":"山梨県南都留郡山中湖村山中285-83","latitude":35.40928268432617,"longitude":138.84902954101562,"category":"店舗/低層オフィス/カフェ","description":"","image_url":""},{"id":11675,"title":"インテュイションホテル ニセコ","architect":"梅澤竜也","year":2020.0,"address":"北海道虻田郡倶知安町樺山38-6","latitude":42.85622024536133,"longitude":140.7028045654297,"category":"ホテル","description":"","image_url":""},{"id":11676,"title":"スカイニセコ","architect":"アーキテクタス","year":2018.0,"address":"北海道虻田郡倶知安町山田204-7","latitude":42.86314010620117,"longitude":140.69815063476562,"category":"ホテル","description":"","image_url":""},{"id":11677,"title":"サエグサ本館ビル Apple Store GINZA","architect":"ボーリン・シウィンスキー・ジャクソン+鹿島建設","year":1966.0,"address":"東京都中央区銀座3-5-12","latitude":35.67229080200195,"longitude":139.7657928466797,"category":"店舗/オフィスビル","description":"1967年竣工、2003年Apple Storeとして改装","image_url":""},{"id":11678,"title":"ニセコ樺山の里 楽 水山","architect":"竹中工務店","year":2020.0,"address":"北海道虻田郡倶知安町樺山119-1","latitude":42.84213638305664,"longitude":140.7064208984375,"category":"ホテル","description":"","image_url":""},{"id":11679,"title":"ニセコ高橋牧場レストラン プラティーヴォ","architect":"中村好文","year":2011.0,"address":"北海道虻田郡ニセコ町曽我888-1","latitude":42.83761215209961,"longitude":140.67611694335938,"category":"レストラン","description":"","image_url":""},{"id":11680,"title":"ヒルトンニセコビレッジ 旧ニセコ東山プリンスホテル","architect":"清家清","year":1994.0,"address":"北海道虻田郡ニセコ町東山温泉","latitude":42.84648895263672,"longitude":140.684814453125,"category":"ホテル","description":"","image_url":""},{"id":11681,"title":"東山ニセコビレッジ リッツカールトンリザーブ","architect":"清水建設","year":2020.0,"address":"北海道虻田郡ニセコ町曽我919-28","latitude":42.84357833862305,"longitude":140.68243408203125,"category":"ホテル","description":"","image_url":""},{"id":11682,"title":"ライトオンつくばビル","architect":"久米設計","year":2006.0,"address":"茨城県つくば市吾妻1-11-1","latitude":36.081275939941406,"longitude":140.11305236816406,"category":"オフィスビル","description":"","image_url":""},{"id":11683,"title":"静岡県武道館","architect":"久米設計","year":2002.0,"address":"静岡県藤枝市前島2-10-1","latitude":34.845218658447266,"longitude":138.2515106201172,"category":"体育館","description":"","image_url":""},{"id":11684,"title":"箱根美術館 日光殿","architect":"吉田五十八","year":1949.0,"address":"神奈川県足柄下郡箱根町強羅1300-85 箱根美術館内","latitude":35.24795913696289,"longitude":139.0437469482422,"category":"ホール・劇場","description":"通常非公開。外観は見学可能。紅葉時など特別公開される時もある","image_url":""},{"id":11685,"title":"箱根美術館 観山亭","architect":"岡田茂吉+吉田五十八","year":1946.0,"address":"神奈川県足柄下郡箱根町強羅1300-85 箱根美術館内","latitude":35.248165130615234,"longitude":139.04299926757812,"category":"古民家","description":"サンルーム・風呂場増築の設計を吉田五十八が手がける","image_url":""},{"id":11686,"title":"静岡銀行 本店","architect":"中村與資平","year":1931.0,"address":"静岡県静岡市葵区呉服町1-10","latitude":34.975852966308594,"longitude":138.37893676757812,"category":"金融機関","description":"","image_url":""},{"id":11687,"title":"静岡県庁舎 東館","architect":"日建設計","year":1970.0,"address":"静岡県静岡市葵区追手町9-6","latitude":34.97646713256836,"longitude":138.38356018066406,"category":"庁舎","description":"","image_url":""},{"id":11688,"title":"静岡市役所 静岡庁舎新館","architect":"佐藤総合計画","year":1986.0,"address":"静岡県静岡市葵区追手町5-1","latitude":34.975189208984375,"longitude":138.38333129882812,"category":"庁舎","description":"","image_url":""},{"id":11689,"title":"サールナートホール","architect":"高木滋生","year":1995.0,"address":"静岡県静岡市葵区御幸町11-14","latitude":34.97373580932617,"longitude":138.38954162597656,"category":"ホール・劇場","description":"","image_url":""},{"id":11690,"title":"静岡県立美術館","architect":"高木滋生","year":1985.0,"address":"静岡県静岡市駿河区谷田53-2","latitude":34.99188995361328,"longitude":138.4459228515625,"category":"美術館","description":"設計クレジット：静岡設計連合","image_url":""},{"id":11691,"title":"菊川カントリークラブ クラブハウス","architect":"高木滋生","year":1978.0,"address":"静岡県菊川市富田230","latitude":34.78105926513672,"longitude":138.10470581054688,"category":"クラブハウス","description":"","image_url":""},{"id":11692,"title":"クレディア本社ビル","architect":"高木滋生","year":1997.0,"address":"静岡県静岡市駿河区南町10-5","latitude":34.97028732299805,"longitude":138.38992309570312,"category":"オフィスビル/テナントビル","description":"","image_url":""},{"id":11693,"title":"静岡銀行 浜松支店","architect":"中村與資平","year":1928.0,"address":"静岡県浜松市中区田町322-7","latitude":34.706783294677734,"longitude":137.7310028076172,"category":"金融機関","description":"2007年三菱地所設計により改修","image_url":""},{"id":11694,"title":"下田市民文化会館","architect":"茂木計一郎","year":1989.0,"address":"静岡県下田市4-1-2","latitude":34.67560958862305,"longitude":138.9419708251953,"category":"ホール・劇場","description":"","image_url":""},{"id":11695,"title":"横浜市少年自然の家 南伊豆臨海学園","architect":"内井昭蔵","year":1979.0,"address":"静岡県賀茂郡南伊豆町子浦1437","latitude":34.67271423339844,"longitude":138.7831573486328,"category":"研究施設","description":"","image_url":""},{"id":11696,"title":"BRANCH調布","architect":"大和リース+福田組","year":2022.0,"address":"東京都調布市深大寺東町7-47-1","latitude":35.681697845458984,"longitude":139.5582275390625,"category":"モール","description":"","image_url":""},{"id":11697,"title":"フレスポひばりが丘","architect":"大和リース","year":2019.0,"address":"東京都西東京市谷戸町2-3-7","latitude":35.74470138549805,"longitude":139.54263305664062,"category":"モール","description":"","image_url":""},{"id":11698,"title":"ジェームス山テラス","architect":"大和リース","year":2017.0,"address":"兵庫県神戸市垂水区松風台2-4-1","latitude":34.644649505615234,"longitude":135.07740783691406,"category":"モール/店舗","description":"","image_url":""},{"id":11699,"title":"ウインズ汐留","architect":"安井建築設計","year":2002.0,"address":"東京都港区東新橋2-8","latitude":35.66136932373047,"longitude":139.75808715820312,"category":"オフィスビル/店舗","description":"","image_url":""},{"id":11700,"title":"広島クリスタルプラザ","architect":"日建設計","year":1992.0,"address":"広島県広島市中区中町8-18","latitude":34.389892578125,"longitude":132.45785522460938,"category":"オフィスビル","description":"","image_url":""}]}