{"page":152,"total_pages":290,"items_per_page":50,"total_items":14467,"items":[{"id":7551,"title":"ナンバヒップス","architect":"高松伸","year":2007.0,"address":"大阪府大阪市中央区難波1-8-16","latitude":34.667640686035156,"longitude":135.500732421875,"category":"テナントビル","description":"","image_url":""},{"id":7552,"title":"伏見区総合庁舎","architect":"高松伸","year":2009.0,"address":"京都府京都市伏見区鷹匠町39-2","latitude":34.93600845336914,"longitude":135.76145935058594,"category":"庁舎","description":"","image_url":""},{"id":7553,"title":"近畿産業信用組合 西院支店","architect":"高松伸","year":2014.0,"address":"京都府京都市右京区西院東淳和院町28-1","latitude":35.0047721862793,"longitude":135.73223876953125,"category":"オフィスビル/公共施設","description":"","image_url":""},{"id":7554,"title":"枚方市菅原生涯学習市民センター","architect":"高松伸","year":1996.0,"address":"大阪府枚方市長尾元町1-35-1","latitude":34.82374572753906,"longitude":135.70883178710938,"category":"図書館","description":"","image_url":""},{"id":7555,"title":"オクタゴン belle恵比寿","architect":"高松伸","year":1992.0,"address":"東京都渋谷区恵比寿西1-3-11","latitude":35.649070739746094,"longitude":139.7081756591797,"category":"テナントビル","description":"","image_url":""},{"id":7556,"title":"上野グリーンクラブ","architect":"高松伸","year":1992.0,"address":"東京都台東区上野公園3-42","latitude":35.71533966064453,"longitude":139.76805114746094,"category":"低層オフィス/店舗/公共施設","description":"","image_url":""},{"id":7557,"title":"パレロワイヤル夕陽ヶ丘 離宮","architect":"高松伸","year":1991.0,"address":"大阪府大阪市天王寺区夕陽丘町4-30","latitude":34.65778350830078,"longitude":135.51329040527344,"category":"集合住宅","description":"","image_url":""},{"id":7558,"title":"イリオス GEETEXビル","architect":"高松伸","year":1991.0,"address":"兵庫県神戸市中央区小野柄通6-1-3","latitude":34.69367599487305,"longitude":135.19757080078125,"category":"テナントビル","description":"","image_url":""},{"id":7559,"title":"パチンコ&スロットルート1","architect":"高松伸","year":1990.0,"address":"京都府京都市南区上鳥羽上調子町8","latitude":34.96959686279297,"longitude":135.74465942382812,"category":"店舗","description":"外装は当初メタリック系、その後緑に塗られ、今は木目調になっていますが一応現存","image_url":""},{"id":7560,"title":"湖睦第二ビル","architect":"高松伸","year":1978.0,"address":"京都府京都市下京区寺町通五条上る西橋詰町767−1","latitude":34.996883392333984,"longitude":135.76710510253906,"category":"オフィスビル","description":"","image_url":""},{"id":7561,"title":"ハイツ御蔭","architect":"高松伸","year":1979.0,"address":"京都府京都市左京区田中樋ノ口町5","latitude":35.033477783203125,"longitude":135.78404235839844,"category":"集合住宅","description":"","image_url":""},{"id":7562,"title":"小倉マンション","architect":"高松伸","year":1986.0,"address":"京都府宇治市小倉町西畑40-31","latitude":34.888572692871094,"longitude":135.78306579589844,"category":"集合住宅","description":"","image_url":""},{"id":7563,"title":"北山Ining'23","architect":"高松伸","year":1987.0,"address":"京都府京都市左京区下鴨前萩町5-9","latitude":35.051246643066406,"longitude":135.7678985595703,"category":"テナントビル","description":"","image_url":""},{"id":7564,"title":"淀屋橋竹村ビル3","architect":"高松伸","year":1988.0,"address":"大阪府大阪市中央区今橋4-5","latitude":34.690635681152344,"longitude":135.49864196777344,"category":"オフィスビル","description":"","image_url":""},{"id":7565,"title":"オムロン 京阪奈イノベーションセンタ","architect":"日建設計+久米設計+高松伸","year":2003.0,"address":"京都府木津川市木津川台9-1","latitude":34.73977279663086,"longitude":135.77734375,"category":"低層オフィス/研究施設","description":"","image_url":""},{"id":7566,"title":"JEUGIAカルチャーセンターエコール 旧スペース21JEUGIA","architect":"高松伸","year":1989.0,"address":"京都府木津川市兜台6-6-1","latitude":34.731685638427734,"longitude":135.78750610351562,"category":"専門学校/その他文化施設","description":"","image_url":""},{"id":7567,"title":"プレイヤーズクラブパラ 向日市店 旧パーラーヌーベル","architect":"高松伸","year":1989.0,"address":"京都府向日市鶏冠井町極楽寺28","latitude":34.93857955932617,"longitude":135.71543884277344,"category":"店舗","description":"","image_url":""},{"id":7568,"title":"平安51","architect":"高松伸","year":1989.0,"address":"東京都目黒区中目黒3-5-11","latitude":35.640010833740234,"longitude":139.70269775390625,"category":"オフィスビル","description":"","image_url":""},{"id":7569,"title":"Metal Office ダイナミックツール本社ビル","architect":"山口隆","year":2004.0,"address":"京都府相楽郡精華町精華台7-4-6","latitude":34.74866485595703,"longitude":135.78512573242188,"category":"低層オフィス","description":"","image_url":""},{"id":7570,"title":"Silent Office 森忠商事株式会社本社屋","architect":"山口隆","year":2008.0,"address":"東京都大田区羽田1-10-10","latitude":35.55044937133789,"longitude":139.74462890625,"category":"低層オフィス","description":"","image_url":""},{"id":7571,"title":"ザ・パークハウス 晴海タワーズ","architect":"リチャード・マイヤー+三菱地所","year":2013.0,"address":"東京都中央区晴海2-28","latitude":35.6551399230957,"longitude":139.78514099121094,"category":"集合住宅","description":"クロノレジデンス棟が2013年竣工。ティアロレジデンス棟は2016年竣工。マイヤーはデザイン監修","image_url":""},{"id":7572,"title":"大阪市立大学 高原記念館","architect":"鹿島建設","year":2006.0,"address":"大阪府大阪市住吉区杉本3-3-138","latitude":34.591339111328125,"longitude":135.50460815429688,"category":"大学/ホール・劇場","description":"","image_url":""},{"id":7573,"title":"北九州市立総合体育館","architect":"山下寿郎","year":1973.0,"address":"福岡県北九州市八幡東区八王寺町4-1","latitude":33.87320327758789,"longitude":130.84152221679688,"category":"体育館","description":"","image_url":""},{"id":7574,"title":"一関市立一関図書館","architect":"久米設計","year":2014.0,"address":"岩手県一関市大手町2-46","latitude":38.928321838378906,"longitude":141.1341552734375,"category":"図書館","description":"","image_url":""},{"id":7575,"title":"一関市立花泉図書館","architect":"木村設計A・T","year":2013.0,"address":"岩手県一関市 花泉町涌津上三ノ町12","latitude":38.829219818115234,"longitude":141.1884307861328,"category":"図書館","description":"","image_url":""},{"id":7576,"title":"天王寺公園エントランスエリア てんしば","architect":"竹中工務店","year":2015.0,"address":"大阪府大阪市天王寺区茶臼山町5-55","latitude":34.64850616455078,"longitude":135.5110626220703,"category":"公園/店舗","description":"","image_url":""},{"id":7577,"title":"金光教烏丸教会","architect":"三澤博章","year":1971.0,"address":"京都府京都市中京区烏丸通夷川上る少将井町233","latitude":35.01566696166992,"longitude":135.75926208496094,"category":"宗教施設","description":"","image_url":""},{"id":7578,"title":"ぎおん石","architect":"三澤博章","year":1969.0,"address":"京都府京都市東山区祇園町南側555","latitude":35.003604888916016,"longitude":135.77638244628906,"category":"カフェ/店舗","description":"","image_url":""},{"id":7579,"title":"タイニーズ横浜日ノ出町","architect":"大田聡","year":2018.0,"address":"神奈川県横浜市中区日ノ出町2-166","latitude":35.44328689575195,"longitude":139.62644958496094,"category":"カフェ/ホテル","description":"","image_url":""},{"id":7580,"title":"美馬市地域交流センター ミライズ","architect":"アール・アイ・エー","year":2018.0,"address":"徳島県美馬市脇町大字猪尻西分116-1","latitude":34.06694412231445,"longitude":134.14955139160156,"category":"ホール・劇場/公共施設/展示・会議場","description":"","image_url":""},{"id":7581,"title":"近鉄賢島カンツリークラブ クラブハウス","architect":"坂倉準三","year":1969.0,"address":"三重県志摩市阿児町鵜方3620-5","latitude":34.31942367553711,"longitude":136.80726623535156,"category":"クラブハウス","description":"","image_url":""},{"id":7582,"title":"ボルトン工業新社屋","architect":"山下保博","year":2018.0,"address":"埼玉県蕨市塚越7-14-23","latitude":35.82343292236328,"longitude":139.7068634033203,"category":"低層オフィス","description":"","image_url":""},{"id":7583,"title":"香川県立武道館","architect":"山本忠司","year":1964.0,"address":"香川県高松市福岡町1-5-5","latitude":34.347015380859375,"longitude":134.06307983398438,"category":"体育館","description":"クレジットは香川県土木部建築課","image_url":""},{"id":7584,"title":"栗林公園讃岐民芸館","architect":"山本忠司","year":1970.0,"address":"香川県高松市栗林町1-20-16","latitude":34.330406188964844,"longitude":134.0451202392578,"category":"博物館","description":"","image_url":""},{"id":7585,"title":"香川県立高松西高等学校","architect":"山本忠司","year":1978.0,"address":"香川県高松市鬼無町山口257-1","latitude":34.32680892944336,"longitude":133.981201171875,"category":"学校","description":"","image_url":""},{"id":7586,"title":"さぬき市野外音楽広場テアトロン","architect":"山本忠司","year":1991.0,"address":"香川県さぬき市鴨庄1-20","latitude":34.36726379394531,"longitude":134.20709228515625,"category":"広場/ホール・劇場","description":"","image_url":""},{"id":7587,"title":"直島家プロジェクト 角屋","architect":"山本忠司","year":1997.0,"address":"香川県香川郡直島町（その他）792","latitude":34.46019744873047,"longitude":133.9974822998047,"category":"ギャラリー","description":"展示は現代美術家の宮島達男","image_url":""},{"id":7588,"title":"一ノ谷総合コミュニティセンター","architect":"岸上克康","year":2000.0,"address":"香川県観音寺市古川町85-1","latitude":34.12974548339844,"longitude":133.6988983154297,"category":"公民館・交流施設","description":"","image_url":""},{"id":7589,"title":"AQレジデンス馬込展示場","architect":"芦原太郎","year":2018.0,"address":"東京都大田区北馬込2-2-12","latitude":35.59791564941406,"longitude":139.70791625976562,"category":"住宅","description":"","image_url":""},{"id":7590,"title":"COCONOアートプレイス 大野市古民家ギャラリー","architect":"中西ひろむ","year":2018.0,"address":"福井県大野市元町12-2","latitude":35.98430633544922,"longitude":136.4907989501953,"category":"ギャラリー","description":"","image_url":""},{"id":7591,"title":"東御市立田中保育園","architect":"荻原雅史","year":2015.0,"address":"長野県東御市 田中459-2","latitude":36.35304641723633,"longitude":138.33041381835938,"category":"幼稚園","description":"","image_url":""},{"id":7592,"title":"佐渡国小木民俗博物館収蔵庫","architect":"建築研究所アーキヴィジョン","year":1976.0,"address":"新潟県佐渡市宿根木270-2","latitude":37.807979583740234,"longitude":138.24526977539062,"category":"博物館","description":"","image_url":""},{"id":7593,"title":"月影の郷","architect":"渡辺真理+北山恒+古谷誠章+篠原聡子","year":2005.0,"address":"新潟県上越市浦川原区横住410","latitude":37.126731872558594,"longitude":138.4207763671875,"category":"その他宿泊施設/体験施設/ホステル","description":"1972年竣工の小学校のリノベーション","image_url":""},{"id":7594,"title":"十日町市健康増進施設 ひだまりプール","architect":"内田文雄","year":2004.0,"address":"新潟県十日町市水口沢206-1","latitude":37.162715911865234,"longitude":138.73568725585938,"category":"プール","description":"","image_url":""},{"id":7595,"title":"たかき医院","architect":"原広司","year":1999.0,"address":"新潟県十日町市馬場丙1550-1","latitude":37.09446334838867,"longitude":138.7245635986328,"category":"個人医院","description":"","image_url":""},{"id":7596,"title":"The Kinta 苗場","architect":"伊丹潤","year":1985.0,"address":"新潟県南魚沼郡湯沢町三国469-91","latitude":36.78709411621094,"longitude":138.78652954101562,"category":"ホテル","description":"","image_url":""},{"id":7597,"title":"糸魚川フォッサマグナミュージアム","architect":"久米設計","year":1994.0,"address":"新潟県糸魚川市一ノ宮1313","latitude":37.0255241394043,"longitude":137.87042236328125,"category":"博物館","description":"","image_url":""},{"id":7598,"title":"新潟競馬場アイビススタンド","architect":"黒川紀章","year":1988.0,"address":"新潟県新潟市北区笹山3490","latitude":37.94892883300781,"longitude":139.1859130859375,"category":"スポーツ施設","description":"","image_url":""},{"id":7599,"title":"新潟美咲合同庁舎1号館","architect":"黒川紀章","year":2005.0,"address":"新潟県新潟市美咲町1-1-1","latitude":37.89486312866211,"longitude":139.01901245117188,"category":"庁舎","description":"","image_url":""},{"id":7600,"title":"新潟県立歴史博物館","architect":"日本設計","year":2000.0,"address":"新潟県長岡市関原町1-字権現堂2247-2","latitude":37.43852615356445,"longitude":138.76759338378906,"category":"博物館","description":"","image_url":""}]}