{"page":81,"total_pages":290,"items_per_page":50,"total_items":14467,"items":[{"id":4001,"title":"九州大学 生活支援施設 ビッグどら","architect":"坂倉建築研究所","year":2006.0,"address":"福岡県福岡市西区元岡744","latitude":33.597747802734375,"longitude":130.22291564941406,"category":"大学","big_category":"教育","description":"","image_url":"","tags":"","prefecture":"福岡","contractor":"","structural_designer":"","landscape_designer":"","shinkenchiku_url":""},{"id":4002,"title":"飯塚市立ちくほ図書館","architect":"黒田克樹","year":2003.0,"address":"福岡県飯塚市長尾1390-1","latitude":33.5714111328125,"longitude":130.6468963623047,"category":"図書館","big_category":"文化施設","description":"","image_url":"","tags":"","prefecture":"福岡","contractor":"","structural_designer":"","landscape_designer":"","shinkenchiku_url":""},{"id":4003,"title":"本吉町文化センター はまなすホール","architect":"黒田克樹","year":1995.0,"address":"宮城県気仙沼市本吉町津谷新明戸136","latitude":38.79413986206055,"longitude":141.5020751953125,"category":"ホール・劇場","big_category":"文化施設","description":"","image_url":"","tags":"","prefecture":"宮城","contractor":"","structural_designer":"","landscape_designer":"","shinkenchiku_url":""},{"id":4004,"title":"登米祝祭劇場","architect":"黒田克樹","year":1994.0,"address":"宮城県登米市迫町佐沼光ヶ丘30","latitude":38.68345642089844,"longitude":141.20518493652344,"category":"ホール・劇場","big_category":"文化施設","description":"","image_url":"","tags":"","prefecture":"宮城","contractor":"","structural_designer":"","landscape_designer":"","shinkenchiku_url":""},{"id":4005,"title":"北九州市立国際友好記念図書館","architect":"日本設計","year":1994.0,"address":"福岡県北九州市門司区東港町1-12","latitude":33.948036193847656,"longitude":130.96409606933594,"category":"図書館","big_category":"文化施設","description":"","image_url":"","tags":"","prefecture":"福岡","contractor":"","structural_designer":"","landscape_designer":"","shinkenchiku_url":""},{"id":4006,"title":"mci-a＋mj マミィクリニック伊集院","architect":"有馬裕之","year":2005.0,"address":"鹿児島県鹿児島市中山町2587-3","latitude":31.544538497924805,"longitude":130.5060272216797,"category":"個人医院","big_category":"医療施設","description":"","image_url":"","tags":"新建築2005年1月号","prefecture":"鹿児島","contractor":"","structural_designer":"","landscape_designer":"","shinkenchiku_url":""},{"id":4007,"title":"THE GATE T.Y.HARBOR","architect":"有馬裕之","year":2002.0,"address":"東京都品川区東品川2-1-6","latitude":35.6220703125,"longitude":139.74781799316406,"category":"レストラン","big_category":"商業施設","description":"","image_url":"","tags":"","prefecture":"東京","contractor":"","structural_designer":"","landscape_designer":"","shinkenchiku_url":""},{"id":4008,"title":"北九州市立大学 本館","architect":"池原義郎","year":1995.0,"address":"福岡県北九州市小倉南区北方4-2-1","latitude":33.84423065185547,"longitude":130.87855529785156,"category":"大学","big_category":"教育","description":"","image_url":"","tags":"","prefecture":"福岡","contractor":"","structural_designer":"","landscape_designer":"","shinkenchiku_url":""},{"id":4009,"title":"サンアクアTOTO 本社工場","architect":"白川直行","year":1994.0,"address":"福岡県北九州市小倉南区舞ヶ丘1-2-1","latitude":33.829734802246094,"longitude":130.90283203125,"category":"工場","big_category":"企業施設","description":"工場見学が可能。要申し込み","image_url":"","tags":"2021年JIA25年賞 受賞作品","prefecture":"福岡","contractor":"","structural_designer":"","landscape_designer":"","shinkenchiku_url":""},{"id":4010,"title":"小倉リハビリテーション病院","architect":"安井雅裕","year":2001.0,"address":"福岡県北九州市小倉北区篠崎1-5-1","latitude":33.868141174316406,"longitude":130.86907958984375,"category":"病院","big_category":"医療施設","description":"","image_url":"","tags":"","prefecture":"福岡","contractor":"","structural_designer":"","landscape_designer":"","shinkenchiku_url":""},{"id":4011,"title":"北九州市営みずき団地","architect":"小林正己+横山俊祐","year":1991.0,"address":"福岡県北九州市小倉南区北方3-56-3","latitude":33.847511291503906,"longitude":130.874267578125,"category":"集合住宅","big_category":"住宅","description":"","image_url":"","tags":"","prefecture":"福岡","contractor":"","structural_designer":"","landscape_designer":"","shinkenchiku_url":""},{"id":4012,"title":"北九州イノベーションギャラリー","architect":"田中皇彦+会田友朗+佐藤総合計画","year":2006.0,"address":"福岡県北九州市八幡東区東田2-2-11","latitude":33.868995666503906,"longitude":130.80604553222656,"category":"美術館/図書館","big_category":"ミュージアム,文化施設","description":"","image_url":"","tags":"","prefecture":"福岡","contractor":"","structural_designer":"","landscape_designer":"","shinkenchiku_url":""},{"id":4013,"title":"北九州ユースホステル","architect":"小川惇","year":1972.0,"address":"福岡県北九州市八幡東区尾倉1481","latitude":33.85607147216797,"longitude":130.79571533203125,"category":"ホステル","big_category":"宿泊","description":"","image_url":"","tags":"","prefecture":"福岡","contractor":"","structural_designer":"","landscape_designer":"","shinkenchiku_url":""},{"id":4014,"title":"西南女学院 マロリー記念館","architect":"ウィリアム・メレル・ヴォーリズ","year":1950.0,"address":"福岡県北九州市小倉北区井掘1-3-5","latitude":33.88321304321289,"longitude":130.84947204589844,"category":"博物館/洋館/大学","big_category":"ミュージアム,近代建築/遺産,教育","description":"","image_url":"","tags":"","prefecture":"福岡","contractor":"","structural_designer":"","landscape_designer":"","shinkenchiku_url":""},{"id":4015,"title":"九州ゴルフ倶楽部 八幡コース クラブハウス","architect":"黒川紀章","year":1992.0,"address":"福岡県北九州市八幡東区小熊野1467","latitude":33.84210968017578,"longitude":130.8385467529297,"category":"クラブハウス/レストラン","big_category":"レジャー施設,商業施設","description":"","image_url":"","tags":"2017年JIA25年賞 登録作品","prefecture":"福岡","contractor":"","structural_designer":"","landscape_designer":"","shinkenchiku_url":""},{"id":4016,"title":"早稲田大学 情報生産システム研究科","architect":"日本設計","year":2003.0,"address":"福岡県北九州市若松区ひびきの2-7","latitude":33.890106201171875,"longitude":130.7085723876953,"category":"大学","big_category":"教育","description":"","image_url":"","tags":"2005年日本建築学会 作品選奨","prefecture":"福岡","contractor":"","structural_designer":"","landscape_designer":"","shinkenchiku_url":""},{"id":4017,"title":"エンゼル病院","architect":"富永譲","year":2002.0,"address":"福岡県北九州市八幡西区友田1-11-1","latitude":33.867828369140625,"longitude":130.72491455078125,"category":"個人医院","big_category":"医療施設","description":"","image_url":"","tags":"","prefecture":"福岡","contractor":"","structural_designer":"","landscape_designer":"","shinkenchiku_url":""},{"id":4018,"title":"安川電機 本社ビル","architect":"アントニン・レーモンド","year":1953.0,"address":"福岡県北九州市八幡西区黒崎城石2-1","latitude":33.8681640625,"longitude":130.76666259765625,"category":"オフィスビル","big_category":"企業施設","description":"取壊","image_url":"","tags":"","prefecture":"福岡","contractor":"","structural_designer":"","landscape_designer":"","shinkenchiku_url":""},{"id":4019,"title":"ホテルクラウンパレス北九州 旧北九州プリンスホテル","architect":"池原義郎","year":1989.0,"address":"福岡県北九州市八幡西区東曲里町3-1","latitude":33.85814666748047,"longitude":130.7620849609375,"category":"ホテル","big_category":"宿泊","description":"","image_url":"","tags":"2016年JIA25年賞 登録作品","prefecture":"福岡","contractor":"","structural_designer":"","landscape_designer":"","shinkenchiku_url":""},{"id":4020,"title":"遠賀コミュニティセンター","architect":"鮎川透","year":1985.0,"address":"福岡県遠賀郡遠賀町広渡（大字）-1412-2","latitude":33.846466064453125,"longitude":130.68072509765625,"category":"公民館・交流施設","big_category":"公共施設","description":"","image_url":"","tags":"","prefecture":"福岡","contractor":"","structural_designer":"","landscape_designer":"","shinkenchiku_url":""},{"id":4021,"title":"旧三井港倶楽部","architect":"清水満之助","year":1908.0,"address":"福岡県大牟田市西港町2-6","latitude":33.018192291259766,"longitude":130.42799377441406,"category":"洋館/レストラン/結婚式場","big_category":"近代建築/遺産,商業施設,宗教","description":"","image_url":"","tags":"","prefecture":"福岡","contractor":"","structural_designer":"","landscape_designer":"","shinkenchiku_url":""},{"id":4022,"title":"筑穂町内住コミュニティセンター 内住保育所","architect":"葉祥栄","year":1994.0,"address":"福岡県飯塚市内住2613","latitude":33.596649169921875,"longitude":130.5880889892578,"category":"児童施設/幼稚園","big_category":"教育,教育","description":"","image_url":"","tags":"","prefecture":"福岡","contractor":"","structural_designer":"","landscape_designer":"","shinkenchiku_url":""},{"id":4023,"title":"井上孝治写真館","architect":"柿沼守利","year":2003.0,"address":"福岡県糸島郡志摩町野北1497-73 スコーレヒル","latitude":33.626766204833984,"longitude":130.16250610351562,"category":"ギャラリー","big_category":"ミュージアム","description":"","image_url":"","tags":"","prefecture":"福岡","contractor":"","structural_designer":"","landscape_designer":"","shinkenchiku_url":""},{"id":4024,"title":"淨圓寺庫裡・伝道ホール","architect":"野田俊太郎","year":2000.0,"address":"福岡県八女郡星野村13069","latitude":33.2509880065918,"longitude":130.7630615234375,"category":"寺院/宗教施設","big_category":"宗教,宗教","description":"","image_url":"","tags":"","prefecture":"福岡","contractor":"","structural_designer":"","landscape_designer":"","shinkenchiku_url":""},{"id":4025,"title":"苅田町立図書館","architect":"菅孝能","year":1990.0,"address":"福岡県京都郡苅田町富久町1-17-8","latitude":33.776309967041016,"longitude":130.9785614013672,"category":"図書館","big_category":"文化施設","description":"","image_url":"","tags":"","prefecture":"福岡","contractor":"","structural_designer":"","landscape_designer":"","shinkenchiku_url":""},{"id":4026,"title":"田川文化エリア","architect":"徳岡設計","year":1991.0,"address":"福岡県田川市新町11-56-61","latitude":33.64395523071289,"longitude":130.80633544921875,"category":"図書館/美術館/総合文化施設","big_category":"文化施設,ミュージアム,文化施設","description":"","image_url":"","tags":"公共建築百選,2017年JIA25年賞 受賞作品","prefecture":"福岡","contractor":"","structural_designer":"","landscape_designer":"","shinkenchiku_url":""},{"id":4027,"title":"日本赤十字 九州国際看護大学","architect":"黒川紀章","year":2000.0,"address":"福岡県宗像市アスティ1-1","latitude":33.79573059082031,"longitude":130.6102752685547,"category":"大学","big_category":"教育","description":"","image_url":"","tags":"","prefecture":"福岡","contractor":"","structural_designer":"","landscape_designer":"","shinkenchiku_url":""},{"id":4028,"title":"福岡県立大学 看護学部","architect":"安井建築設計","year":2003.0,"address":"福岡県田川市伊田4395","latitude":33.65037155151367,"longitude":130.81381225585938,"category":"大学","big_category":"教育","description":"","image_url":"","tags":"","prefecture":"福岡","contractor":"","structural_designer":"","landscape_designer":"","shinkenchiku_url":""},{"id":4029,"title":"八女市立中学校 矢部中学校 体育館「木龍」","architect":"黒川哲郎","year":2003.0,"address":"福岡県八女市矢部村北矢部11047-2","latitude":33.15391159057617,"longitude":130.81610107421875,"category":"体育館/学校","big_category":"レジャー施設,教育","description":"","image_url":"","tags":"","prefecture":"福岡","contractor":"","structural_designer":"","landscape_designer":"","shinkenchiku_url":""},{"id":4030,"title":"下山田小学校","architect":"鮎川透","year":1999.0,"address":"福岡県嘉麻市下山田341","latitude":33.57566833496094,"longitude":130.7532958984375,"category":"学校","big_category":"教育","description":"","image_url":"","tags":"","prefecture":"福岡","contractor":"","structural_designer":"","landscape_designer":"","shinkenchiku_url":""},{"id":4031,"title":"今村教会","architect":"鉄川与助","year":1913.0,"address":"福岡県三井郡大刀洗町今707","latitude":33.37066650390625,"longitude":130.59910583496094,"category":"教会","big_category":"宗教","description":"","image_url":"","tags":"","prefecture":"福岡","contractor":"","structural_designer":"","landscape_designer":"","shinkenchiku_url":""},{"id":4032,"title":"ホテル ザ・ルイガンズ 旧ホテル 海の中道","architect":"三浦紀之","year":1987.0,"address":"福岡県福岡市東区西戸崎18-25","latitude":33.663360595703125,"longitude":130.36468505859375,"category":"ホテル/レストラン/結婚式場","big_category":"宿泊,商業施設,宗教","description":"","image_url":"","tags":"","prefecture":"福岡","contractor":"","structural_designer":"","landscape_designer":"","shinkenchiku_url":""},{"id":4033,"title":"筑前町複合施設 めくばーる","architect":"徳岡設計","year":1999.0,"address":"福岡県朝倉郡筑前町久光951-1","latitude":33.43409729003906,"longitude":130.6343994140625,"category":"総合文化施設/図書館/ホール・劇場","big_category":"文化施設,文化施設,文化施設","description":"","image_url":"","tags":"","prefecture":"福岡","contractor":"","structural_designer":"","landscape_designer":"","shinkenchiku_url":""},{"id":4034,"title":"ベイサイドプレイス博多埠頭","architect":"北山孝二郎","year":1991.0,"address":"福岡県福岡市博多区築港本町13-6","latitude":33.603851318359375,"longitude":130.3988037109375,"category":"モール","big_category":"商業施設","description":"","image_url":"","tags":"","prefecture":"福岡","contractor":"","structural_designer":"","landscape_designer":"","shinkenchiku_url":""},{"id":4035,"title":"桟敷小屋 弐十匁","architect":"吉柳満","year":1987.0,"address":"福岡県糟屋郡篠栗町篠栗987","latitude":33.6195068359375,"longitude":130.572265625,"category":"ホール・劇場","big_category":"文化施設","description":"","image_url":"","tags":"","prefecture":"福岡","contractor":"","structural_designer":"","landscape_designer":"","shinkenchiku_url":""},{"id":4036,"title":"末盧館","architect":"三井所清典","year":1990.0,"address":"佐賀県唐津市菜畑3359-2","latitude":33.44853591918945,"longitude":129.9578857421875,"category":"博物館","big_category":"ミュージアム","description":"","image_url":"","tags":"","prefecture":"佐賀","contractor":"","structural_designer":"","landscape_designer":"","shinkenchiku_url":""},{"id":4037,"title":"チャイナ・オン・ザ・パーク 忠次館","architect":"柿沼守利","year":1989.0,"address":"佐賀県西松浦郡有田町原明乙111","latitude":33.18218994140625,"longitude":129.85072326660156,"category":"博物館","big_category":"ミュージアム","description":"","image_url":"","tags":"","prefecture":"佐賀","contractor":"","structural_designer":"","landscape_designer":"","shinkenchiku_url":""},{"id":4038,"title":"佐賀県立有田工業高等学校","architect":"三井所清典","year":1990.0,"address":"佐賀県西松浦郡有田町桑古場乙2902","latitude":33.17795181274414,"longitude":129.88677978515625,"category":"学校","big_category":"教育","description":"","image_url":"","tags":"","prefecture":"佐賀","contractor":"","structural_designer":"","landscape_designer":"","shinkenchiku_url":""},{"id":4039,"title":"シトー会 伊万里の聖母トラピスチヌ修道院","architect":"香山壽夫","year":1993.0,"address":"佐賀県伊万里市二里町大里甲1-41","latitude":33.248809814453125,"longitude":129.86940002441406,"category":"教会","big_category":"宗教","description":"","image_url":"","tags":"新建築1994年7月号","prefecture":"佐賀","contractor":"九州建設","structural_designer":"","landscape_designer":"","shinkenchiku_url":""},{"id":4040,"title":"茶苑 海月","architect":"吉村順三","year":1994.0,"address":"佐賀県唐津市鎮西町名護屋3458","latitude":33.52897262573242,"longitude":129.86746215820312,"category":"茶室","big_category":"住宅","description":"","image_url":"","tags":"","prefecture":"佐賀","contractor":"","structural_designer":"","landscape_designer":"","shinkenchiku_url":""},{"id":4041,"title":"嬉野観光ホテル 大正屋","architect":"吉村順三","year":1976.0,"address":"佐賀県嬉野市嬉野町大字下宿乙2276-1","latitude":33.09592819213867,"longitude":129.9830780029297,"category":"ホテル","big_category":"宿泊","description":"1978年に第二期、1986年に第三期、1990年に第四期竣工","image_url":"","tags":"","prefecture":"佐賀","contractor":"","structural_designer":"","landscape_designer":"","shinkenchiku_url":""},{"id":4042,"title":"武雄市立若木小学校","architect":"竹下輝和","year":1996.0,"address":"佐賀県武雄市若木町大字川古8038","latitude":33.25382995605469,"longitude":129.99505615234375,"category":"学校","big_category":"教育","description":"","image_url":"","tags":"","prefecture":"佐賀","contractor":"","structural_designer":"","landscape_designer":"","shinkenchiku_url":""},{"id":4043,"title":"活水学院","architect":"J.H.ヴォーゲル","year":1926.0,"address":"長崎県長崎市東山手町1-50","latitude":32.738826751708984,"longitude":129.87344360351562,"category":"学校","big_category":"教育","description":"","image_url":"","tags":"","prefecture":"長崎","contractor":"","structural_designer":"","landscape_designer":"","shinkenchiku_url":""},{"id":4044,"title":"AIG長崎ビル","architect":"大成建設+ジョージ・ダシック","year":2005.0,"address":"長崎県長崎市常盤町1-1","latitude":32.740352630615234,"longitude":129.870849609375,"category":"低層オフィス","big_category":"企業施設","description":"","image_url":"","tags":"","prefecture":"長崎","contractor":"","structural_designer":"","landscape_designer":"","shinkenchiku_url":""},{"id":4045,"title":"福砂屋 松ヶ枝店","architect":"中村享一+藤江和子","year":2003.0,"address":"長崎県長崎市松が枝町2-43","latitude":32.736167907714844,"longitude":129.87062072753906,"category":"店舗/カフェ","big_category":"商業施設,商業施設","description":"","image_url":"","tags":"","prefecture":"長崎","contractor":"","structural_designer":"","landscape_designer":"","shinkenchiku_url":""},{"id":4046,"title":"カトリック西町教会","architect":"内井康夫","year":1968.0,"address":"長崎県長崎市音無町9-34","latitude":32.78841781616211,"longitude":129.85845947265625,"category":"教会","big_category":"宗教","description":"","image_url":"","tags":"","prefecture":"長崎","contractor":"","structural_designer":"","landscape_designer":"","shinkenchiku_url":""},{"id":4047,"title":"カトリック浦上教会","architect":"鉄川工務店","year":1959.0,"address":"長崎県長崎市本尾町1-79","latitude":32.776153564453125,"longitude":129.86839294433594,"category":"教会","big_category":"宗教","description":"","image_url":"","tags":"","prefecture":"長崎","contractor":"","structural_designer":"","landscape_designer":"","shinkenchiku_url":""},{"id":4048,"title":"佐世保更生保護会 白雲","architect":"團紀彦","year":1994.0,"address":"長崎県佐世保市白岳町730-1","latitude":33.150691986083984,"longitude":129.75318908691406,"category":"養護施設","big_category":"医療施設","description":"","image_url":"","tags":"","prefecture":"長崎","contractor":"","structural_designer":"","landscape_designer":"","shinkenchiku_url":""},{"id":4049,"title":"浄土宗麟鳳山九品寺 山門・納骨堂","architect":"古市徹雄","year":2000.0,"address":"長崎県佐世保市谷郷町8-7","latitude":33.17662811279297,"longitude":129.71885681152344,"category":"寺院","big_category":"宗教","description":"","image_url":"","tags":"","prefecture":"長崎","contractor":"","structural_designer":"","landscape_designer":"","shinkenchiku_url":""},{"id":4050,"title":"島原文化会館","architect":"武基雄","year":1974.0,"address":"長崎県島原市城内1-1177-2 ‎","latitude":32.79103469848633,"longitude":130.3667449951172,"category":"ホール・劇場","big_category":"文化施設","description":"","image_url":"","tags":"","prefecture":"長崎","contractor":"","structural_designer":"","landscape_designer":"","shinkenchiku_url":""}]}