{"page":159,"total_pages":290,"items_per_page":50,"total_items":14467,"items":[{"id":7901,"title":"旧アルプス社","architect":"高橋靗一","year":1974.0,"address":"群馬県前橋市千代田町2-6-1","latitude":36.39164733886719,"longitude":139.06826782226562,"category":"店舗","description":"","image_url":""},{"id":7902,"title":"群馬ロイヤルホテル","architect":"坂倉建築研究所","year":1975.0,"address":"群馬県前橋市大手町1-9-7","latitude":36.387840270996094,"longitude":139.0593719482422,"category":"ホテル","description":"","image_url":""},{"id":7903,"title":"シェアフラット馬場川","architect":"石田敏明+TDLアーキテクツ","year":2014.0,"address":"群馬県前橋市千代田町2-12-1","latitude":36.391300201416016,"longitude":139.06915283203125,"category":"寮/集合住宅","description":"","image_url":""},{"id":7904,"title":"群馬県立図書館","architect":"岡田新一","year":1978.0,"address":"群馬県前橋市日吉町1-9-1","latitude":36.39779281616211,"longitude":139.07374572753906,"category":"図書館","description":"","image_url":""},{"id":7905,"title":"金沢市立泉野図書館","architect":"岡田新一","year":1995.0,"address":"石川県金沢市泉野町4-22-22","latitude":36.54414749145508,"longitude":136.6493377685547,"category":"図書館","description":"","image_url":""},{"id":7906,"title":"藤沢市総合市民図書館","architect":"岡田新一","year":1987.0,"address":"神奈川県藤沢市湘南台7-18-2","latitude":35.3956413269043,"longitude":139.47308349609375,"category":"図書館","description":"","image_url":""},{"id":7907,"title":"取手桜が丘ゴルフクラブ クラブハウス 旧藤代ゴルフ倶楽部","architect":"岡田新一","year":1989.0,"address":"茨城県取手市渋沼1393","latitude":35.90309143066406,"longitude":140.1215362548828,"category":"クラブハウス","description":"","image_url":""},{"id":7908,"title":"あきる野市中央図書館","architect":"岡田新一","year":2007.0,"address":"東京都あきる野市秋川1-16-2","latitude":35.730655670166016,"longitude":139.28872680664062,"category":"図書館","description":"","image_url":""},{"id":7909,"title":"南九州大学 都城キャンパス","architect":"岡田新一","year":2009.0,"address":"宮崎県都城市立野町3764-1","latitude":31.727676391601562,"longitude":131.0965118408203,"category":"大学","description":"","image_url":""},{"id":7910,"title":"日本歯科大学 新潟生命歯学部 体育館","architect":"岡田新一","year":1976.0,"address":"新潟県新潟市中央区浜浦町1-8","latitude":37.91286849975586,"longitude":139.01136779785156,"category":"大学/体育館","description":"","image_url":""},{"id":7911,"title":"東京電力 電気の史料館","architect":"高橋靗一","year":2000.0,"address":"神奈川県横浜市鶴見区江ケ崎町4-1","latitude":35.533790588378906,"longitude":139.6728973388672,"category":"博物館","description":"","image_url":""},{"id":7912,"title":"実践女子大学 日野キャンパス","architect":"高橋靗一","year":1985.0,"address":"東京都日野市大坂上4-1-1","latitude":35.6714973449707,"longitude":139.38987731933594,"category":"大学","description":"","image_url":""},{"id":7913,"title":"スリーレイクスカントリークラブ クラブハウス","architect":"前川國男","year":1977.0,"address":"三重県いなべ市員弁町畑新田字溜岸1-1","latitude":35.134765625,"longitude":136.56727600097656,"category":"クラブハウス","description":"","image_url":""},{"id":7914,"title":"岡山県庁西庁舎","architect":"前川國男","year":1971.0,"address":"岡山県岡山市北区内山下2-4","latitude":34.66155242919922,"longitude":133.93411254882812,"category":"庁舎","description":"南庁舎(1972）も前川國男設計だが2016年に取り壊された模様","image_url":""},{"id":7915,"title":"長岡市北部体育館","architect":"前川國男","year":1984.0,"address":"新潟県長岡市東蔵王2-2-72","latitude":37.46974182128906,"longitude":138.85765075683594,"category":"体育館","description":"","image_url":""},{"id":7916,"title":"長岡ロングライフセンター","architect":"前川國男","year":1980.0,"address":"新潟県長岡市日越185-2","latitude":37.43920135498047,"longitude":138.7791290283203,"category":"公民館・交流施設","description":"","image_url":""},{"id":7917,"title":"国立音楽大学 附属幼稚園","architect":"前川國男","year":1983.0,"address":"東京都国立市中1-8-25","latitude":35.69865798950195,"longitude":139.44400024414062,"category":"幼稚園","description":"","image_url":""},{"id":7918,"title":"学習院大学 南5号館","architect":"前川國男","year":1983.0,"address":"東京都豊島区目白1-5-1","latitude":35.71735382080078,"longitude":139.70947265625,"category":"大学","description":"","image_url":""},{"id":7919,"title":"世田谷区役所 第二庁舎","architect":"前川國男","year":1969.0,"address":"東京都世田谷区世田谷4-22-35","latitude":35.64613723754883,"longitude":139.65167236328125,"category":"庁舎","description":"","image_url":""},{"id":7920,"title":"姫嶋神社 参集殿","architect":"橋口新一郎","year":2017.0,"address":"大阪府大阪市西淀川区姫島4-14-2","latitude":34.70425033569336,"longitude":135.4533233642578,"category":"寺院","description":"","image_url":""},{"id":7921,"title":"日本郵船歴史博物館","architect":"和田順顕","year":1936.0,"address":"神奈川県横浜市中区海岸通3-9","latitude":35.45033645629883,"longitude":139.639404296875,"category":"博物館","description":"","image_url":""},{"id":7922,"title":"日本アイソトープ協会 川崎技術開発センター","architect":"三菱地所","year":2017.0,"address":"神奈川県川崎市川崎区殿町3-25","latitude":35.54039001464844,"longitude":139.75733947753906,"category":"研究施設/企業施設","description":"","image_url":""},{"id":7923,"title":"ペプチドリーム本社・研究所","architect":"竹中工務店","year":2017.0,"address":"神奈川県川崎市川崎区殿町3-25-23","latitude":35.539398193359375,"longitude":139.75865173339844,"category":"研究施設/低層オフィス","description":"","image_url":""},{"id":7924,"title":"栗源第一薪炭供給所(1K)","architect":"アトリエ・ワン","year":2018.0,"address":"千葉県香取市沢2452-1","latitude":35.80162048339844,"longitude":140.4663848876953,"category":"企業施設/工場","description":"","image_url":""},{"id":7925,"title":"商店街HOTEL 講 大津百町","architect":"竹原義二","year":2018.0,"address":"滋賀県大津市中央1-2-6","latitude":35.00758743286133,"longitude":135.863525390625,"category":"ホテル","description":"","image_url":""},{"id":7926,"title":"青梅麦酒","architect":"西沢大良","year":2018.0,"address":"東京都青梅市本町145","latitude":35.78887176513672,"longitude":139.2591552734375,"category":"バー・居酒屋/醸造所","description":"","image_url":""},{"id":7927,"title":"Ginza Sony Park","architect":"荒木信雄","year":2018.0,"address":"東京都中央区銀座5-3-1","latitude":35.672237396240234,"longitude":139.76319885253906,"category":"公園","description":"","image_url":""},{"id":7928,"title":"松栄山仙行寺","architect":"マウントフジアーキテクツスタジオ","year":2018.0,"address":"東京都豊島区南池袋2-20-4","latitude":35.72657012939453,"longitude":139.71432495117188,"category":"寺院","description":"","image_url":""},{"id":7929,"title":"クリばこ","architect":"伊藤孝紀","year":2018.0,"address":"愛知県名古屋市中村区名駅南2-11-42 ","latitude":35.165626525878906,"longitude":136.88771057128906,"category":"公民館・交流施設","description":"","image_url":""},{"id":7930,"title":"山王のオフィス","architect":"studio velocity","year":2018.0,"address":"愛知県岡崎市井田町山王22-1","latitude":34.97442626953125,"longitude":137.1649169921875,"category":"低層オフィス","description":"","image_url":""},{"id":7931,"title":"eggg Cafe 小平本店","architect":"原広司","year":2018.0,"address":"東京都小平市鈴木町1-466-16","latitude":35.720882415771484,"longitude":139.49716186523438,"category":"カフェ","description":"","image_url":""},{"id":7932,"title":"猿楽十方楼","architect":"平井政俊","year":2018.0,"address":"東京都渋谷区猿楽町6","latitude":35.65247344970703,"longitude":139.70310974121094,"category":"集合住宅/店舗/オフィスビル","description":"","image_url":""},{"id":7933,"title":"竹中研修所 匠 新館増築","architect":"竹中工務店","year":2018.0,"address":"兵庫県川西市柳谷字隠場41-1","latitude":34.86355972290039,"longitude":135.3904571533203,"category":"研修施設","description":"","image_url":""},{"id":7934,"title":"小林市庁舎","architect":"梓設計","year":2017.0,"address":"宮崎県小林市細野300","latitude":31.996755599975586,"longitude":130.97303771972656,"category":"庁舎","description":"","image_url":""},{"id":7935,"title":"熊本県総合防災航空センター","architect":"小川次郎+ライト設計","year":2017.0,"address":"熊本県菊池郡菊陽町大字戸次1698","latitude":32.83934783935547,"longitude":130.87020874023438,"category":"公共施設","description":"","image_url":""},{"id":7936,"title":"みんなの交流館 ならはCANvas","architect":"手島浩之","year":2018.0,"address":"福島県双葉郡楢葉町北田字中満259","latitude":37.278099060058594,"longitude":140.9964599609375,"category":"公民館・交流施設","description":"","image_url":""},{"id":7937,"title":"あいの実クランベリー","architect":"手島浩之","year":2015.0,"address":"宮城県仙台市泉区実沢中山北100-2","latitude":38.305301666259766,"longitude":140.8136749267578,"category":"福祉センター","description":"","image_url":""},{"id":7938,"title":"大槌町文化交流センター おしゃっち","architect":"前田建設工業+松永安光+中居敬一都市建築設計","year":2018.0,"address":"岩手県上閉伊郡大槌町末広町1-15","latitude":39.35951614379883,"longitude":141.9057159423828,"category":"総合文化施設","description":"クレジットは「前田建設工業・近代建築研究所・中居敬一都市建築設計・TOC異業種特定建設共同企業体＋ホルツストラ」","image_url":""},{"id":7939,"title":"英照院本堂","architect":"越智隆浩","year":2017.0,"address":"山形県新庄市十日町太田6104","latitude":38.78062438964844,"longitude":140.30528259277344,"category":"寺院","description":"","image_url":""},{"id":7940,"title":"日本キリスト教団 小松教会","architect":"山内康子","year":2016.0,"address":"石川県小松市本町3-13-3","latitude":36.4024658203125,"longitude":136.44528198242188,"category":"教会","description":"","image_url":""},{"id":7941,"title":"日本キリスト教団 武生教会","architect":"山内康子","year":2010.0,"address":"福井県越前市姫川1-5-35","latitude":35.89078903198242,"longitude":136.16847229003906,"category":"教会","description":"","image_url":""},{"id":7942,"title":"白山宮 足王社","architect":"鵜飼昭年","year":2016.0,"address":"愛知県日進市本郷町宮下519-1","latitude":35.13973617553711,"longitude":137.0469512939453,"category":"寺院","description":"","image_url":""},{"id":7943,"title":"吊り梁のシルエットルーフ アキュラホームつくば支店","architect":"飯田貴之","year":2017.0,"address":"茨城県つくば市研究学園4-2-5","latitude":36.0852165222168,"longitude":140.07798767089844,"category":"低層オフィス","description":"","image_url":""},{"id":7944,"title":"東京都庭園美術館レストラン","architect":"久米設計","year":2018.0,"address":"東京都港区白金台5-21-9","latitude":35.635658264160156,"longitude":139.72044372558594,"category":"レストラン","description":"","image_url":""},{"id":7945,"title":"あけのべドーム 森の館","architect":"三竿修一","year":2001.0,"address":"兵庫県養父市大屋町明延1184","latitude":35.27516174316406,"longitude":134.6642608642578,"category":"体育館","description":"","image_url":""},{"id":7946,"title":"ラ・ジュネス山手倶楽部","architect":"三竿修一","year":2013.0,"address":"兵庫県相生市大石町1-18","latitude":34.8176383972168,"longitude":134.4763946533203,"category":"店舗/美容院","description":"","image_url":""},{"id":7947,"title":"香美町立村岡小学校・村岡幼稚園","architect":"現代計画研究所","year":2015.0,"address":"兵庫県美方郡香美町村岡区村岡2940","latitude":35.46773910522461,"longitude":134.59902954101562,"category":"学校","description":"","image_url":""},{"id":7948,"title":"福岡大学 4号館","architect":"昭和設計","year":2018.0,"address":"福岡県福岡市城南区七隈8-19-1","latitude":33.550567626953125,"longitude":130.36679077148438,"category":"大学","description":"","image_url":""},{"id":7949,"title":"高知県立大学 永国寺キャンパス 図書館","architect":"昭和設計","year":2017.0,"address":"高知県高知市永国寺町2-22","latitude":33.564239501953125,"longitude":133.5343475341797,"category":"大学/図書館","description":"","image_url":""},{"id":7950,"title":"高知県立大学 永国寺キャンパス 体育館棟","architect":"昭和設計","year":2017.0,"address":"高知県高知市永国寺町2-22","latitude":33.56393051147461,"longitude":133.53399658203125,"category":"大学/体育館","description":"","image_url":""}]}