{"page":165,"total_pages":290,"items_per_page":50,"total_items":14467,"items":[{"id":8201,"title":"アメリカンスクールインジャパン 調布キャンパス","architect":"丹下憲孝","year":2015.0,"address":"東京都調布市1-1-1","latitude":35.6810188293457,"longitude":139.521484375,"category":"学校","big_category":"教育","description":"","image_url":"","tags":"Ver2.70(2019年2月)の追加建築","prefecture":"東京","contractor":"","structural_designer":"","landscape_designer":"","shinkenchiku_url":""},{"id":8202,"title":"奈良公園バスターミナル","architect":"アール・アイ・エー","year":2018.0,"address":"奈良県奈良市登大路町 奈良公園バスターミナル","latitude":34.685123443603516,"longitude":135.83412170410156,"category":"駅","big_category":"インフラ","description":"","image_url":"","tags":"Ver2.70(2019年2月)の追加建築","prefecture":"奈良","contractor":"","structural_designer":"","landscape_designer":"","shinkenchiku_url":""},{"id":8203,"title":"オーベルジュ豊岡1925 旧兵庫縣農工銀行豊岡支店","architect":"渡辺節","year":1934.0,"address":"兵庫県豊岡市中央町11-22","latitude":35.54374694824219,"longitude":134.81993103027344,"category":"結婚式場/レストラン","big_category":"宗教,商業施設","description":"","image_url":"","tags":"Ver2.70(2019年2月)の追加建築","prefecture":"兵庫","contractor":"","structural_designer":"","landscape_designer":"","shinkenchiku_url":""},{"id":8204,"title":"そごう神戸店 旧三宮阪神ビル","architect":"久野節","year":1933.0,"address":"兵庫県神戸市中央区小野柄通8-1-8","latitude":34.693115234375,"longitude":135.19557189941406,"category":"テナントビル/モール","big_category":"商業施設,商業施設","description":"1969年、1981年に増改築","image_url":"","tags":"Ver2.70(2019年2月)の追加建築","prefecture":"兵庫","contractor":"","structural_designer":"","landscape_designer":"","shinkenchiku_url":""},{"id":8205,"title":"兵庫県立神戸高等学校","architect":"神田省三","year":1938.0,"address":"兵庫県神戸市灘区城の下通1-5-1","latitude":34.71834945678711,"longitude":135.2139892578125,"category":"学校","big_category":"教育","description":"玄関部のみ保存","image_url":"","tags":"Ver2.70(2019年2月)の追加建築","prefecture":"兵庫","contractor":"","structural_designer":"","landscape_designer":"","shinkenchiku_url":""},{"id":8206,"title":"大阪府夕陽丘庁舎","architect":"浦辺鎮太郎","year":1974.0,"address":"大阪府大阪市天王寺区伶人町2-7","latitude":34.65534973144531,"longitude":135.5133056640625,"category":"庁舎","big_category":"公共施設","description":"","image_url":"","tags":"Ver2.70(2019年2月)の追加建築","prefecture":"大阪","contractor":"","structural_designer":"","landscape_designer":"","shinkenchiku_url":""},{"id":8207,"title":"奥道後壱湯の守 本館","architect":"根津耕一郎","year":1963.0,"address":"愛媛県松山市末町267","latitude":33.865474700927734,"longitude":132.82485961914062,"category":"旅館","big_category":"宿泊","description":"","image_url":"","tags":"Ver2.70(2019年2月)の追加建築","prefecture":"愛媛","contractor":"","structural_designer":"","landscape_designer":"","shinkenchiku_url":""},{"id":8208,"title":"佐竹台小学校","architect":"渡辺節","year":1964.0,"address":"大阪府吹田市佐竹台4-12-1","latitude":34.787628173828125,"longitude":135.51539611816406,"category":"学校","big_category":"教育","description":"","image_url":"","tags":"Ver2.70(2019年2月)の追加建築","prefecture":"大阪","contractor":"","structural_designer":"","landscape_designer":"","shinkenchiku_url":""},{"id":8209,"title":"京懐石 柿傳","architect":"谷口吉郎","year":1970.0,"address":"東京都新宿区新宿3-37-11","latitude":35.69061279296875,"longitude":139.70132446289062,"category":"料亭","big_category":"商業施設","description":"","image_url":"","tags":"Ver2.70(2019年2月)の追加建築","prefecture":"東京","contractor":"","structural_designer":"","landscape_designer":"","shinkenchiku_url":""},{"id":8210,"title":"東京造形大学附属 横山記念マンズー美術館","architect":"白井晟一","year":null,"address":"東京都八王子市宇津貫町1556","latitude":35.614990234375,"longitude":139.33383178710938,"category":"美術館/大学","big_category":"ミュージアム,教育","description":"設計原案白井晟一","image_url":"","tags":"Ver2.70(2019年2月)の追加建築","prefecture":"東京","contractor":"","structural_designer":"","landscape_designer":"","shinkenchiku_url":""},{"id":8211,"title":"岩国市民文化会館","architect":"小林美夫+松重設計","year":1979.0,"address":"山口県岩国市山手町1-15-3","latitude":34.16729736328125,"longitude":132.21839904785156,"category":"ホール・劇場","big_category":"文化施設","description":"","image_url":"","tags":"Ver2.70(2019年2月)の追加建築","prefecture":"山口","contractor":"","structural_designer":"","landscape_designer":"","shinkenchiku_url":""},{"id":8212,"title":"笠松運動公園体育館","architect":"小林美夫","year":1974.0,"address":"茨城県那珂市向山1278","latitude":36.45920944213867,"longitude":140.54188537597656,"category":"体育館","big_category":"レジャー施設","description":"","image_url":"","tags":"Ver2.70(2019年2月)の追加建築","prefecture":"茨城","contractor":"","structural_designer":"","landscape_designer":"","shinkenchiku_url":""},{"id":8213,"title":"BDS柏の杜","architect":"小林美夫","year":2007.0,"address":"千葉県柏市金山770","latitude":35.823978424072266,"longitude":140.02857971191406,"category":"展示・会議場","big_category":"公共施設","description":"","image_url":"","tags":"Ver2.70(2019年2月)の追加建築","prefecture":"千葉","contractor":"","structural_designer":"","landscape_designer":"","shinkenchiku_url":""},{"id":8214,"title":"一戸町コミュニティセンター","architect":"小林美夫","year":2002.0,"address":"岩手県二戸郡一戸町一戸砂森117-2","latitude":40.21037673950195,"longitude":141.30410766601562,"category":"公民館・交流施設/図書館","big_category":"公共施設,文化施設","description":"","image_url":"","tags":"Ver2.70(2019年2月)の追加建築","prefecture":"岩手","contractor":"","structural_designer":"","landscape_designer":"","shinkenchiku_url":""},{"id":8215,"title":"修善寺生きいきプラザ","architect":"小林美夫","year":1994.0,"address":"静岡県伊豆市小立野66-1","latitude":34.97560119628906,"longitude":138.94699096679688,"category":"福祉センター/公民館・交流施設/図書館","big_category":"医療施設,公共施設,文化施設","description":"","image_url":"","tags":"Ver2.70(2019年2月)の追加建築","prefecture":"静岡","contractor":"","structural_designer":"","landscape_designer":"","shinkenchiku_url":""},{"id":8216,"title":"岩手県営武道館","architect":"小林美夫","year":1982.0,"address":"岩手県盛岡市みたけ3-24-1","latitude":39.741119384765625,"longitude":141.11512756347656,"category":"体育館","big_category":"レジャー施設","description":"","image_url":"","tags":"Ver2.70(2019年2月)の追加建築","prefecture":"岩手","contractor":"","structural_designer":"","landscape_designer":"","shinkenchiku_url":""},{"id":8217,"title":"大宮公園水泳競技場","architect":"小林美夫","year":1983.0,"address":"埼玉県さいたま市大宮区高鼻町4","latitude":35.92183303833008,"longitude":139.62841796875,"category":"プール","big_category":"レジャー施設","description":"","image_url":"","tags":"Ver2.70(2019年2月)の追加建築","prefecture":"埼玉","contractor":"","structural_designer":"","landscape_designer":"","shinkenchiku_url":""},{"id":8218,"title":"茨城県港公園 展望塔","architect":"小林美夫","year":1981.0,"address":"茨城県神栖市東深芝10","latitude":35.9134407043457,"longitude":140.6720733642578,"category":"展望台","big_category":"レジャー施設","description":"","image_url":"","tags":"Ver2.70(2019年2月)の追加建築","prefecture":"茨城","contractor":"","structural_designer":"","landscape_designer":"","shinkenchiku_url":""},{"id":8219,"title":"神栖市 平和の塔","architect":"小林美夫","year":1981.0,"address":"茨城県神栖市溝口 平和の塔","latitude":35.88822555541992,"longitude":140.66845703125,"category":"オブジェ","big_category":"ミュージアム","description":"","image_url":"","tags":"Ver2.70(2019年2月)の追加建築","prefecture":"茨城","contractor":"","structural_designer":"","landscape_designer":"","shinkenchiku_url":""},{"id":8220,"title":"東京綜合写真専門学校","architect":"川島甲士","year":1967.0,"address":"神奈川県横浜市港北区箕輪町2-2-32","latitude":35.54733657836914,"longitude":139.64425659179688,"category":"専門学校","big_category":"教育","description":"","image_url":"","tags":"Ver2.70(2019年2月)の追加建築","prefecture":"神奈川","contractor":"","structural_designer":"","landscape_designer":"","shinkenchiku_url":""},{"id":8221,"title":"姫路市文化センター","architect":"日建設計","year":1972.0,"address":"兵庫県姫路市西延末426-1","latitude":34.82404327392578,"longitude":134.67678833007812,"category":"ホール・劇場","big_category":"文化施設","description":"","image_url":"","tags":"Ver2.70(2019年2月)の追加建築","prefecture":"兵庫","contractor":"大林組","structural_designer":"","landscape_designer":"","shinkenchiku_url":""},{"id":8222,"title":"北海道大学 クラーク会館","architect":"太田實","year":1954.0,"address":"北海道札幌市北区北8条西8-","latitude":43.06962966918945,"longitude":141.3434295654297,"category":"カフェ/ホール・劇場/大学","big_category":"商業施設,文化施設,教育","description":"","image_url":"","tags":"Ver2.70(2019年2月)の追加建築","prefecture":"北海道","contractor":"","structural_designer":"","landscape_designer":"","shinkenchiku_url":""},{"id":8223,"title":"羽島市勤労青少年ホーム","architect":"坂倉準三","year":1963.0,"address":"岐阜県羽島市竹鼻町86","latitude":35.31972122192383,"longitude":136.70274353027344,"category":"公民館・交流施設","big_category":"公共施設","description":"2019年に解体","image_url":"","tags":"Ver2.70(2019年2月)の追加建築","prefecture":"岐阜","contractor":"","structural_designer":"","landscape_designer":"","shinkenchiku_url":""},{"id":8224,"title":"欅の音terrace","architect":"つばめ舎建築設計","year":2018.0,"address":"東京都練馬区桜台5-11-18","latitude":35.74180221557617,"longitude":139.65782165527344,"category":"モール/集合住宅","big_category":"商業施設,住宅","description":"","image_url":"","tags":"Ver2.70(2019年2月)の追加建築,新建築2019年2月号","prefecture":"東京","contractor":"","structural_designer":"","landscape_designer":"","shinkenchiku_url":""},{"id":8225,"title":"守山市立図書館","architect":"隈研吾","year":2018.0,"address":"滋賀県守山市守山5-3-17","latitude":35.061458587646484,"longitude":135.98606872558594,"category":"図書館","big_category":"文化施設","description":"","image_url":"","tags":"Ver2.70(2019年2月)の追加建築","prefecture":"滋賀","contractor":"","structural_designer":"","landscape_designer":"","shinkenchiku_url":""},{"id":8226,"title":"東京堂千代田ビルディング","architect":"日建設計","year":1977.0,"address":"東京都千代田区九段南1-3","latitude":35.69434356689453,"longitude":139.7529296875,"category":"オフィスビル","big_category":"企業施設","description":"","image_url":"","tags":"Ver2.70(2019年2月)の追加建築","prefecture":"東京","contractor":"","structural_designer":"","landscape_designer":"","shinkenchiku_url":""},{"id":8227,"title":"APA赤坂中央ビル","architect":"圓堂政嘉","year":1964.0,"address":"東京都港区赤坂3-2-6","latitude":35.67591094970703,"longitude":139.73745727539062,"category":"オフィスビル","big_category":"企業施設","description":"","image_url":"","tags":"Ver2.70(2019年2月)の追加建築","prefecture":"東京","contractor":"","structural_designer":"","landscape_designer":"","shinkenchiku_url":""},{"id":8228,"title":"泉屋博古館 本館","architect":"日建設計","year":1970.0,"address":"京都府京都市左京区鹿ケ谷下宮ノ前町24","latitude":35.0175895690918,"longitude":135.79281616210938,"category":"博物館","big_category":"ミュージアム","description":"","image_url":"","tags":"Ver2.70(2019年2月)の追加建築,2017年JIA25年賞 登録作品","prefecture":"京都","contractor":"","structural_designer":"","landscape_designer":"","shinkenchiku_url":""},{"id":8229,"title":"京都サロン","architect":"伊礼智","year":2014.0,"address":"京都府西京区大原野上里南ノ町354-5","latitude":34.950416564941406,"longitude":135.68753051757812,"category":"住宅","big_category":"住宅","description":"見学は事前予約制","image_url":"","tags":"Ver2.70(2019年2月)の追加建築","prefecture":"京都","contractor":"","structural_designer":"","landscape_designer":"","shinkenchiku_url":""},{"id":8230,"title":"ハイド記念館","architect":"ウィリアム・メレル・ヴォーリズ","year":1931.0,"address":"滋賀県近江八幡市市井町177","latitude":35.1400260925293,"longitude":136.09548950195312,"category":"博物館","big_category":"ミュージアム","description":"","image_url":"","tags":"Ver2.70(2019年2月)の追加建築","prefecture":"滋賀","contractor":"","structural_designer":"","landscape_designer":"","shinkenchiku_url":""},{"id":8231,"title":"ヴォーリズ記念館","architect":"ウィリアム・メレル・ヴォーリズ","year":1931.0,"address":"滋賀県近江八幡市慈恩寺町元11","latitude":35.139896392822266,"longitude":136.09474182128906,"category":"博物館/住宅","big_category":"ミュージアム,住宅","description":"見学は事前予約制","image_url":"","tags":"Ver2.70(2019年2月)の追加建築","prefecture":"滋賀","contractor":"","structural_designer":"","landscape_designer":"","shinkenchiku_url":""},{"id":8232,"title":"木更津市郷土博物館 金のすず","architect":"河合正一+有田和夫","year":1970.0,"address":"千葉県木更津市太田2-16-2","latitude":35.37945556640625,"longitude":139.9381866455078,"category":"博物館","big_category":"ミュージアム","description":"","image_url":"","tags":"Ver2.70(2019年2月)の追加建築","prefecture":"千葉","contractor":"","structural_designer":"","landscape_designer":"","shinkenchiku_url":""},{"id":8233,"title":"伊東市観光会館","architect":"河合正一","year":1966.0,"address":"静岡県伊東市和田1-16-1","latitude":34.97127914428711,"longitude":139.10238647460938,"category":"ホール・劇場/公民館・交流施設","big_category":"文化施設,公共施設","description":"","image_url":"","tags":"Ver2.70(2019年2月)の追加建築","prefecture":"静岡","contractor":"","structural_designer":"","landscape_designer":"","shinkenchiku_url":""},{"id":8234,"title":"北山紅茶館","architect":"吉村篤一","year":1995.0,"address":"京都府京都市左京区松ケ崎雲路町6-12","latitude":35.051841735839844,"longitude":135.78277587890625,"category":"カフェ","big_category":"商業施設","description":"","image_url":"","tags":"Ver2.70(2019年2月)の追加建築","prefecture":"京都","contractor":"","structural_designer":"","landscape_designer":"","shinkenchiku_url":""},{"id":8235,"title":"経堂のカフェ併用住宅 ファインタイムコーヒーロースターズ","architect":"成瀬・猪熊建築設計事務所","year":2016.0,"address":"東京都世田谷区経堂1-12-15","latitude":35.65031814575195,"longitude":139.63748168945312,"category":"カフェ/住宅","big_category":"商業施設,住宅","description":"","image_url":"","tags":"Ver2.70(2019年2月)の追加建築","prefecture":"東京","contractor":"","structural_designer":"","landscape_designer":"","shinkenchiku_url":""},{"id":8236,"title":"ガーデンテラス鷹の台","architect":"成瀬・猪熊建築設計事務所","year":2015.0,"address":"東京都小平市たかの台41-9","latitude":35.722354888916016,"longitude":139.46011352539062,"category":"住宅/寮","big_category":"住宅,住宅","description":"","image_url":"","tags":"Ver2.70(2019年2月)の追加建築","prefecture":"東京","contractor":"","structural_designer":"","landscape_designer":"","shinkenchiku_url":""},{"id":8237,"title":"天川村南日裏定住促進住宅","architect":"成瀬・猪熊建築設計事務所","year":2017.0,"address":"奈良県吉野郡天川村南日裏","latitude":34.227134704589844,"longitude":135.84005737304688,"category":"住宅","big_category":"住宅","description":"","image_url":"","tags":"新建築2017年8月号,Ver2.70(2019年2月)の追加建築","prefecture":"奈良","contractor":"","structural_designer":"","landscape_designer":"","shinkenchiku_url":""},{"id":8238,"title":"和合クラブ","architect":"横内敏人","year":2016.0,"address":"愛知県日進市藤塚6-321","latitude":35.112876892089844,"longitude":137.03683471679688,"category":"研究施設/住宅","big_category":"教育,住宅","description":"","image_url":"","tags":"Ver2.70(2019年2月)の追加建築","prefecture":"愛知","contractor":"","structural_designer":"","landscape_designer":"","shinkenchiku_url":""},{"id":8239,"title":"茨城県立県民文化センター","architect":"芦原義信","year":1966.0,"address":"茨城県水戸市千波町東久保697","latitude":36.366336822509766,"longitude":140.4656219482422,"category":"ホール・劇場","big_category":"文化施設","description":"","image_url":"","tags":"Ver2.70(2019年2月)の追加建築","prefecture":"茨城","contractor":"","structural_designer":"","landscape_designer":"","shinkenchiku_url":""},{"id":8240,"title":"日本大学理工学部 船橋図書館","architect":"小林美夫","year":1971.0,"address":"千葉県船橋市習志野台7-24-1","latitude":35.723087310791016,"longitude":140.05889892578125,"category":"大学/図書館","big_category":"教育,文化施設","description":"","image_url":"","tags":"Ver2.70(2019年2月)の追加建築","prefecture":"千葉","contractor":"","structural_designer":"","landscape_designer":"","shinkenchiku_url":""},{"id":8241,"title":"JA能登 わかば鹿西支店 ","architect":"三宅伸秀","year":1972.0,"address":"石川県中能登町能登部上テ100","latitude":36.961666107177734,"longitude":136.86976623535156,"category":"組合施設","big_category":"公共施設","description":"","image_url":"","tags":"Ver2.70(2019年2月)の追加建築","prefecture":"石川","contractor":"","structural_designer":"","landscape_designer":"","shinkenchiku_url":""},{"id":8242,"title":"神慈秀明会 千葉支部","architect":"横内敏人","year":2016.0,"address":"千葉県千葉市稲毛区園生町1317-1","latitude":35.65361785888672,"longitude":140.1235809326172,"category":"宗教施設","big_category":"宗教","description":"","image_url":"","tags":"Ver2.70(2019年2月)の追加建築","prefecture":"千葉","contractor":"","structural_designer":"","landscape_designer":"","shinkenchiku_url":""},{"id":8243,"title":"Overlap House","architect":"平田晃久","year":2018.0,"address":"東京都豊島区南大塚2-31-4","latitude":35.72795867919922,"longitude":139.7321319580078,"category":"住宅/集合住宅","big_category":"住宅,住宅","description":"3戸の賃貸住宅","image_url":"","tags":"Ver2.70(2019年2月)の追加建築","prefecture":"東京","contractor":"","structural_designer":"","landscape_designer":"","shinkenchiku_url":""},{"id":8244,"title":"仏光法水寺","architect":"楠山設計","year":2018.0,"address":"群馬県渋川市伊香保町伊香保637-43","latitude":36.48725128173828,"longitude":138.93821716308594,"category":"寺院","big_category":"宗教","description":"","image_url":"","tags":"Ver2.70(2019年2月)の追加建築","prefecture":"群馬","contractor":"","structural_designer":"","landscape_designer":"","shinkenchiku_url":""},{"id":8245,"title":"大手町タワー アマン東京","architect":"大成建設+コーン・ペダーセン・フォックス","year":2014.0,"address":"東京都千代田区大手町1-5-5","latitude":35.685489654541016,"longitude":139.76536560058594,"category":"オフィスビル/ホテル","big_category":"企業施設,宿泊","description":"アマン東京のインテリアデザインをケリー・ヒルが担当","image_url":"","tags":"Ver2.70(2019年2月)の追加建築,新建築2015年3月号,新建築2014年7月号","prefecture":"東京","contractor":"大成建設","structural_designer":"大成建設","landscape_designer":"","shinkenchiku_url":"https://data.shinkenchiku.online/articles/SK_2014_07_130-0"},{"id":8246,"title":"東京サンケイビル","architect":"竹中工務店+三菱地所","year":2000.0,"address":"東京都千代田区大手町1-7-2","latitude":35.68703079223633,"longitude":139.76536560058594,"category":"複合ビル","big_category":"企業施設","description":"2000年に第一期、2002年に第二期竣工","image_url":"","tags":"Ver2.70(2019年2月)の追加建築,2005年日本建築学会 作品選奨","prefecture":"東京","contractor":"","structural_designer":"","landscape_designer":"","shinkenchiku_url":""},{"id":8247,"title":"大手町野村ビル","architect":"大成建設","year":1994.0,"address":"東京都千代田区大手町2-1-1","latitude":35.685245513916016,"longitude":139.7662353515625,"category":"オフィスビル","big_category":"企業施設","description":"","image_url":"","tags":"Ver2.70(2019年2月)の追加建築","prefecture":"東京","contractor":"","structural_designer":"","landscape_designer":"","shinkenchiku_url":""},{"id":8248,"title":"大手町ビルヂング","architect":"三菱地所","year":1958.0,"address":"東京都千代田区大手町1-6-1","latitude":35.68648910522461,"longitude":139.76414489746094,"category":"オフィスビル","big_category":"企業施設","description":"2020年12月リノベーション","image_url":"","tags":"Ver2.70(2019年2月)の追加建築,新建築2021年3月号","prefecture":"東京","contractor":"","structural_designer":"","landscape_designer":"","shinkenchiku_url":""},{"id":8249,"title":"JAビル","architect":"三菱地所+NTTファシリティーズ","year":2009.0,"address":"東京都千代田区大手町1-3-1","latitude":35.68866729736328,"longitude":139.76280212402344,"category":"オフィスビル","big_category":"企業施設","description":"","image_url":"","tags":"Ver2.70(2019年2月)の追加建築","prefecture":"東京","contractor":"","structural_designer":"","landscape_designer":"","shinkenchiku_url":""},{"id":8250,"title":"新大手町ビルヂング","architect":"三菱地所","year":1958.0,"address":"東京都千代田区大手町2-2-1","latitude":35.6849250793457,"longitude":139.7670440673828,"category":"オフィスビル","big_category":"企業施設","description":"","image_url":"","tags":"Ver2.70(2019年2月)の追加建築","prefecture":"東京","contractor":"","structural_designer":"","landscape_designer":"","shinkenchiku_url":""}]}