{"page":17,"total_pages":290,"items_per_page":50,"total_items":14467,"items":[{"id":801,"title":"ONE 表参道","architect":"隈研吾","year":2003.0,"address":"東京都港区北青山3-5-29","latitude":35.66587829589844,"longitude":139.71176147460938,"category":"店舗/オフィスビル","big_category":"商業施設,企業施設","description":"","image_url":"","tags":"","prefecture":"東京","contractor":"","structural_designer":"","landscape_designer":"","shinkenchiku_url":""},{"id":802,"title":"La Chiara 表参道","architect":"北山恒","year":2002.0,"address":"東京都港区北青山3-8-18","latitude":35.665531158447266,"longitude":139.7101593017578,"category":"テナントビル","big_category":"商業施設","description":"","image_url":"","tags":"","prefecture":"東京","contractor":"","structural_designer":"","landscape_designer":"","shinkenchiku_url":""},{"id":803,"title":"汐留シティセンター","architect":"ケヴィン・ローチ+日本設計","year":2003.0,"address":"東京都港区東新橋1-5-2","latitude":35.665401458740234,"longitude":139.7610626220703,"category":"複合ビル","big_category":"企業施設","description":"","image_url":"","tags":"","prefecture":"東京","contractor":"","structural_designer":"","landscape_designer":"","shinkenchiku_url":""},{"id":804,"title":"電通本社ビル","architect":"ジャン・ヌーヴェル+大林組+ジョン・ジャーディ","year":2002.0,"address":"東京都港区東新橋1-8-1","latitude":35.66436004638672,"longitude":139.76211547851562,"category":"オフィスビル","big_category":"企業施設","description":"","image_url":"","tags":"","prefecture":"東京","contractor":"","structural_designer":"","landscape_designer":"","shinkenchiku_url":""},{"id":805,"title":"AOビル","architect":"日本設計","year":2008.0,"address":"東京都港区北青山3-11-7","latitude":35.663753509521484,"longitude":139.71075439453125,"category":"複合ビル","big_category":"企業施設","description":"","image_url":"","tags":"","prefecture":"東京","contractor":"","structural_designer":"","landscape_designer":"","shinkenchiku_url":""},{"id":806,"title":"岡本太郎記念館 旧岡本太郎自邸・アトリエ","architect":"坂倉準三","year":1954.0,"address":"東京都港区南青山6-1-19","latitude":35.66128158569336,"longitude":139.71559143066406,"category":"住宅/美術館/博物館","big_category":"住宅,ミュージアム,ミュージアム","description":"2014年3月上旬まで休業","image_url":"","tags":"","prefecture":"東京","contractor":"","structural_designer":"","landscape_designer":"","shinkenchiku_url":""},{"id":807,"title":"ルイ・ヴィトン 六本木ヒルズ店","architect":"青木淳","year":2003.0,"address":"東京都港区六本木6-12-3","latitude":35.65886306762695,"longitude":139.73008728027344,"category":"店舗","big_category":"商業施設","description":"","image_url":"","tags":"","prefecture":"東京","contractor":"","structural_designer":"","landscape_designer":"","shinkenchiku_url":""},{"id":808,"title":"ザ・ウォール","architect":"ナイジェル・コーツ","year":1990.0,"address":"東京都港区西麻布4-2-4","latitude":35.65819549560547,"longitude":139.7235870361328,"category":"オフィスビル","big_category":"企業施設","description":"","image_url":"","tags":"","prefecture":"東京","contractor":"","structural_designer":"","landscape_designer":"","shinkenchiku_url":""},{"id":809,"title":"ラッセンブリ広尾 旧石丸助三郎邸","architect":"西村伊作","year":1923.0,"address":"東京都港区南麻布5-2-3","latitude":35.655250549316406,"longitude":139.7237548828125,"category":"結婚式場/住宅","big_category":"宗教,住宅","description":"","image_url":"","tags":"","prefecture":"東京","contractor":"","structural_designer":"","landscape_designer":"","shinkenchiku_url":""},{"id":810,"title":"東京都立中央図書館","architect":"高橋靗一","year":1972.0,"address":"東京都港区南麻布5-7-13","latitude":35.652095794677734,"longitude":139.72633361816406,"category":"図書館","big_category":"文化施設","description":"","image_url":"","tags":"","prefecture":"東京","contractor":"","structural_designer":"","landscape_designer":"","shinkenchiku_url":""},{"id":811,"title":"ユーネックスナニナニ ツツイ白金台ビル","architect":"フィリップ・スタルク","year":1989.0,"address":"東京都港区白金台4-9-23","latitude":35.63840866088867,"longitude":139.72335815429688,"category":"オフィスビル","big_category":"企業施設","description":"","image_url":"","tags":"","prefecture":"東京","contractor":"","structural_designer":"","landscape_designer":"","shinkenchiku_url":""},{"id":812,"title":"プラダブティック青山","architect":"ヘルツォーク&ド・ムロン","year":2003.0,"address":"東京都港区南青山5-2-6","latitude":35.66376495361328,"longitude":139.71441650390625,"category":"企業施設/店舗","big_category":"企業施設,商業施設","description":"","image_url":"https://lh3.googleusercontent.com/-rFya83bLu0U/UCifRuRzGuI/AAAAAAAAQ90/QXBYHLPjgIs/s800/lr-6203124.jpg","tags":"2005年日本建築学会 作品賞","prefecture":"東京","contractor":"","structural_designer":"","landscape_designer":"","shinkenchiku_url":""},{"id":813,"title":"SHIBAURA HOUSE","architect":"妹島和世","year":2011.0,"address":"東京都港区芝浦3-15-4","latitude":35.64216613769531,"longitude":139.7484130859375,"category":"その他文化施設","big_category":"文化施設","description":"","image_url":"https://lh3.googleusercontent.com/-AryO08rdYEw/T45hPTOgEcI/AAAAAAAAKeg/S4sdOoFI7Fs/s800/P4178000.JPG","tags":"","prefecture":"東京","contractor":"","structural_designer":"","landscape_designer":"","shinkenchiku_url":""},{"id":814,"title":"根津美術館","architect":"隈研吾","year":2009.0,"address":"東京都港区南青山6-5-1","latitude":35.6622314453125,"longitude":139.71710205078125,"category":"美術館","big_category":"ミュージアム","description":"","image_url":"https://farm4.staticflickr.com/3693/8910250524_9fba560512_h.jpg","tags":"","prefecture":"東京","contractor":"","structural_designer":"","landscape_designer":"","shinkenchiku_url":""},{"id":815,"title":"21_21 DESIGN SIGHT ","architect":"安藤忠雄","year":2007.0,"address":"東京都港区赤坂9-7-6","latitude":35.667503356933594,"longitude":139.73052978515625,"category":"美術館","big_category":"ミュージアム","description":"","image_url":"https://farm4.staticflickr.com/3682/8949580657_444295f8dc_h.jpg","tags":"","prefecture":"東京","contractor":"","structural_designer":"","landscape_designer":"","shinkenchiku_url":""},{"id":816,"title":"東京都庭園美術館 旧朝香宮邸","architect":"権藤要吉","year":1933.0,"address":"東京都港区白金台5-21-9","latitude":35.63689041137695,"longitude":139.71939086914062,"category":"美術館","big_category":"ミュージアム","description":"主要内装設計はアンリ・ラパン。2013年久米設計により改修","image_url":"","tags":"重要文化財,新建築2015年1月号","prefecture":"東京","contractor":"","structural_designer":"","landscape_designer":"","shinkenchiku_url":""},{"id":817,"title":"コレッツィオーネ","architect":"安藤忠雄","year":1989.0,"address":"東京都港区南青山6-1-3","latitude":35.66252136230469,"longitude":139.71624755859375,"category":"テナントビル","big_category":"商業施設","description":"","image_url":"https://lh3.googleusercontent.com/-NMXVPSafT0o/UCikQczMXrI/AAAAAAAARuA/QAaAP1khskE/s1024/lr-6203079.jpg","tags":"","prefecture":"東京","contractor":"","structural_designer":"","landscape_designer":"","shinkenchiku_url":""},{"id":818,"title":"国立新美術館","architect":"黒川紀章","year":2006.0,"address":"東京都港区六本木7-22-2","latitude":35.665184020996094,"longitude":139.72616577148438,"category":"美術館","big_category":"ミュージアム","description":"","image_url":"","tags":"","prefecture":"東京","contractor":"","structural_designer":"","landscape_designer":"","shinkenchiku_url":""},{"id":819,"title":"東京ガス千住見学サイト Ei-WALK","architect":"伊東豊雄","year":2011.0,"address":"東京都荒川区南千住3-13-1","latitude":35.72916030883789,"longitude":139.8049774169922,"category":"住宅","big_category":"住宅","description":"事前予約制","image_url":"","tags":"","prefecture":"東京","contractor":"","structural_designer":"","landscape_designer":"","shinkenchiku_url":""},{"id":820,"title":"旧三河島汚水処分場喞筒場(ポンプ場)施設","architect":"土居松市","year":1921.0,"address":"東京都荒川区荒川8-25-1","latitude":35.73879623413086,"longitude":139.78634643554688,"category":"公共施設","big_category":"公共施設","description":"要事前予約。午前・午後の二部制","image_url":"","tags":"","prefecture":"東京","contractor":"","structural_designer":"","landscape_designer":"","shinkenchiku_url":""},{"id":821,"title":"東京経済大学 大倉喜八郎進一層館 旧図書館","architect":"鬼頭梓+佐藤総合計画","year":1968.0,"address":"東京都国分寺市南町1-7-34","latitude":35.69952392578125,"longitude":139.48988342285156,"category":"図書館","big_category":"文化施設","description":"2016年に佐藤総合計画により改修、「大倉喜八郎進一層館」に。","image_url":"","tags":"1968年日本建築学会 作品賞,DOCOMOMO,新建築2016年6月号","prefecture":"東京","contractor":"","structural_designer":"","landscape_designer":"","shinkenchiku_url":""},{"id":822,"title":"くにたち郷土文化館","architect":"石井和紘","year":1994.0,"address":"東京都国立市谷保6231","latitude":35.67900466918945,"longitude":139.43260192871094,"category":"博物館","big_category":"ミュージアム","description":"","image_url":"","tags":"","prefecture":"東京","contractor":"","structural_designer":"","landscape_designer":"","shinkenchiku_url":""},{"id":823,"title":"三鷹の森ジブリ美術館","architect":"不明","year":null,"address":"東京都三鷹市下連雀1-1-83 ","latitude":35.696292877197266,"longitude":139.57037353515625,"category":"博物館","big_category":"ミュージアム","description":"要予約","image_url":"","tags":"","prefecture":"東京","contractor":"","structural_designer":"","landscape_designer":"","shinkenchiku_url":""},{"id":824,"title":"三鷹天命反転住宅 In Memory of Helen Keller","architect":"荒川修作+マドリン・ギンズ","year":2005.0,"address":"東京都三鷹市大沢2-2-8","latitude":35.68098068237305,"longitude":139.53805541992188,"category":"集合住宅","big_category":"住宅","description":"","image_url":"","tags":"","prefecture":"東京","contractor":"","structural_designer":"","landscape_designer":"","shinkenchiku_url":""},{"id":825,"title":"ルーテル学院大学","architect":"村野藤吾","year":1963.0,"address":"東京都三鷹市大沢3-10-20","latitude":35.68827438354492,"longitude":139.5352020263672,"category":"大学","big_category":"教育","description":"","image_url":"","tags":"DOCOMOMO","prefecture":"東京","contractor":"","structural_designer":"","landscape_designer":"","shinkenchiku_url":""},{"id":826,"title":"三鷹市山本有三記念館","architect":"不明","year":1926.0,"address":"東京都三鷹市下連雀2-12-27","latitude":35.699581146240234,"longitude":139.56765747070312,"category":"洋館","big_category":"近代建築/遺産","description":"","image_url":"","tags":"","prefecture":"東京","contractor":"","structural_designer":"","landscape_designer":"","shinkenchiku_url":""},{"id":827,"title":"スマート・パーク三鷹","architect":"宇賀亮介","year":2010.0,"address":"東京都三鷹市下連雀3-38-16","latitude":35.69898223876953,"longitude":139.56002807617188,"category":"公共施設","big_category":"公共施設","description":"","image_url":"","tags":"","prefecture":"東京","contractor":"","structural_designer":"","landscape_designer":"","shinkenchiku_url":""},{"id":828,"title":"三鷹市芸術文化センター","architect":"柳澤孝彦","year":1995.0,"address":"東京都三鷹市上連雀6-12-14","latitude":35.692771911621094,"longitude":139.55831909179688,"category":"総合文化施設","big_category":"文化施設","description":"","image_url":"","tags":"","prefecture":"東京","contractor":"","structural_designer":"","landscape_designer":"","shinkenchiku_url":""},{"id":829,"title":"中近東文化センター","architect":"岡田新一","year":1979.0,"address":"東京都三鷹市大沢3-10-31","latitude":35.68878936767578,"longitude":139.53390502929688,"category":"美術館","big_category":"ミュージアム","description":"","image_url":"","tags":"","prefecture":"東京","contractor":"","structural_designer":"","landscape_designer":"","shinkenchiku_url":""},{"id":830,"title":"ヒルサイドテラス A・B棟","architect":"槇文彦","year":1973.0,"address":"東京都渋谷区猿楽町29-18","latitude":35.647438049316406,"longitude":139.701416015625,"category":"モール/集合住宅/ギャラリー","big_category":"商業施設,住宅,ミュージアム","description":"ヒルサイドテラス第一期。ヒルサイドテラス1～2期を2000年JIA25年賞、3～6期を2017年JIA25年賞受賞作品として受賞している。","image_url":"","tags":"DOCOMOMO,2000年JIA25年賞","prefecture":"東京","contractor":"","structural_designer":"","landscape_designer":"","shinkenchiku_url":""},{"id":831,"title":"東急プラザ 表参道原宿店","architect":"中村拓志","year":2012.0,"address":"東京都渋谷区神宮前4-30-3","latitude":35.66862106323242,"longitude":139.7058868408203,"category":"モール","big_category":"商業施設","description":"","image_url":"","tags":"","prefecture":"東京","contractor":"","structural_designer":"","landscape_designer":"","shinkenchiku_url":""},{"id":832,"title":"表参道けやきビル","architect":"團紀彦","year":2013.0,"address":"東京都渋谷区神宮前5-1-5","latitude":35.66596603393555,"longitude":139.71029663085938,"category":"店舗/オフィスビル","big_category":"商業施設,企業施設","description":"","image_url":"","tags":"2014年度JIA優秀建築賞,新建築2014年1月号","prefecture":"東京","contractor":"辰","structural_designer":"Arup","landscape_designer":"","shinkenchiku_url":"https://data.shinkenchiku.online/articles/SK_2014_01_136-0"},{"id":833,"title":"ケリングビル 旧TOD'S表参道ビル","architect":"伊東豊雄","year":2002.0,"address":"東京都渋谷区神宮前5-1-5","latitude":35.666019439697266,"longitude":139.7101593017578,"category":"店舗/オフィスビル","big_category":"商業施設,企業施設","description":"","image_url":"","tags":"新建築2005年1月号","prefecture":"東京","contractor":"","structural_designer":"","landscape_designer":"","shinkenchiku_url":""},{"id":834,"title":"ビラ・モデルナ","architect":"坂倉建築研究所","year":1974.0,"address":"東京都渋谷区渋谷1-3-18","latitude":35.661964416503906,"longitude":139.7059326171875,"category":"集合住宅","big_category":"住宅","description":"","image_url":"","tags":"","prefecture":"東京","contractor":"","structural_designer":"","landscape_designer":"","shinkenchiku_url":""},{"id":835,"title":"新国立劇場","architect":"柳澤孝彦","year":1997.0,"address":"東京都渋谷区本町1-1-1","latitude":35.68259048461914,"longitude":139.6856689453125,"category":"ホール・劇場","big_category":"文化施設","description":"","image_url":"","tags":"1998年日本建築学会 作品賞","prefecture":"東京","contractor":"","structural_designer":"","landscape_designer":"","shinkenchiku_url":""},{"id":836,"title":"ユーキャン代々木ANNEX","architect":"遠藤克彦","year":2011.0,"address":"東京都渋谷区代々木1-11-1","latitude":35.681880950927734,"longitude":139.69876098632812,"category":"オフィスビル","big_category":"企業施設","description":"","image_url":"","tags":"","prefecture":"東京","contractor":"","structural_designer":"","landscape_designer":"","shinkenchiku_url":""},{"id":837,"title":"国立能楽堂","architect":"大江宏","year":1983.0,"address":"東京都渋谷区千駄ヶ谷4-18-1","latitude":35.6802864074707,"longitude":139.70816040039062,"category":"ホール・劇場","big_category":"文化施設","description":"","image_url":"","tags":"","prefecture":"東京","contractor":"","structural_designer":"","landscape_designer":"","shinkenchiku_url":""},{"id":838,"title":"東京体育館","architect":"槇文彦","year":1990.0,"address":"東京都渋谷区千駄ヶ谷1-17-1","latitude":35.67973327636719,"longitude":139.71246337890625,"category":"体育館","big_category":"レジャー施設","description":"","image_url":"","tags":"東京2020オリンピック競技会場","prefecture":"東京","contractor":"","structural_designer":"","landscape_designer":"","shinkenchiku_url":""},{"id":839,"title":"GAギャラリー","architect":"鈴木恂+二川幸夫","year":1981.0,"address":"東京都渋谷区千駄ヶ谷3-12-14","latitude":35.678001403808594,"longitude":139.704833984375,"category":"ギャラリー","big_category":"ミュージアム","description":"","image_url":"","tags":"","prefecture":"東京","contractor":"","structural_designer":"","landscape_designer":"","shinkenchiku_url":""},{"id":840,"title":"レイカズン本社ビル","architect":"照井信三","year":2006.0,"address":"東京都渋谷区千駄ヶ谷3-24-9","latitude":35.6763916015625,"longitude":139.7079620361328,"category":"オフィスビル","big_category":"企業施設","description":"","image_url":"","tags":"","prefecture":"東京","contractor":"","structural_designer":"","landscape_designer":"","shinkenchiku_url":""},{"id":841,"title":"キラービル","architect":"下吹越武人","year":2006.0,"address":"東京都渋谷区神宮前3-39-5","latitude":35.671409606933594,"longitude":139.7131805419922,"category":"オフィスビル","big_category":"企業施設","description":"","image_url":"","tags":"","prefecture":"東京","contractor":"","structural_designer":"","landscape_designer":"","shinkenchiku_url":""},{"id":842,"title":"ディオール表参道","architect":"SANAA","year":2003.0,"address":"東京都渋谷区神宮前5-9-11","latitude":35.667320251464844,"longitude":139.707275390625,"category":"店舗","big_category":"商業施設","description":"","image_url":"","tags":"","prefecture":"東京","contractor":"","structural_designer":"","landscape_designer":"","shinkenchiku_url":""},{"id":843,"title":"ルイ・ヴィトン 表参道","architect":"青木淳","year":2002.0,"address":"東京都渋谷区神宮前5-7-5","latitude":35.6665153503418,"longitude":139.7090606689453,"category":"店舗","big_category":"商業施設","description":"","image_url":"","tags":"","prefecture":"東京","contractor":"","structural_designer":"","landscape_designer":"","shinkenchiku_url":""},{"id":844,"title":"ジ・アイスバーグビル","architect":"ベンジャミン・ウォーナー","year":2006.0,"address":"東京都渋谷区神宮前6-12-18","latitude":35.66635513305664,"longitude":139.7042999267578,"category":"オフィスビル","big_category":"企業施設","description":"","image_url":"","tags":"","prefecture":"東京","contractor":"","structural_designer":"","landscape_designer":"","shinkenchiku_url":""},{"id":845,"title":"RAGTAG 原宿店 旧hhstyle.com原宿店","architect":"妹島和世","year":2000.0,"address":"東京都渋谷区神宮前6-14-2","latitude":35.66633605957031,"longitude":139.70565795898438,"category":"店舗","big_category":"商業施設","description":"","image_url":"","tags":"","prefecture":"東京","contractor":"","structural_designer":"","landscape_designer":"","shinkenchiku_url":""},{"id":846,"title":"BANK GALLERY 旧hhstyle.com／casa","architect":"安藤忠雄","year":2005.0,"address":"東京都渋谷区神宮前6-14-5","latitude":35.66608810424805,"longitude":139.70547485351562,"category":"ホール・劇場/ギャラリー","big_category":"文化施設,ミュージアム","description":"2015年にギャラリー、イベントスペースとして転用","image_url":"","tags":"","prefecture":"東京","contractor":"","structural_designer":"","landscape_designer":"","shinkenchiku_url":""},{"id":847,"title":"キャットビル","architect":"下吹越武人","year":2006.0,"address":"東京都渋谷区神宮前5-27-7","latitude":35.66476058959961,"longitude":139.70346069335938,"category":"オフィスビル","big_category":"企業施設","description":"","image_url":"","tags":"","prefecture":"東京","contractor":"","structural_designer":"","landscape_designer":"","shinkenchiku_url":""},{"id":848,"title":"Case","architect":"SANAA","year":2013.0,"address":"東京都渋谷区神山町28-9","latitude":35.6635627746582,"longitude":139.68898010253906,"category":"住宅","big_category":"住宅","description":"","image_url":"","tags":"","prefecture":"東京","contractor":"","structural_designer":"","landscape_designer":"","shinkenchiku_url":""},{"id":849,"title":"みやしたこうえん","architect":"アトリエ・ワン","year":2011.0,"address":"東京都渋谷区神宮前6-20-10","latitude":35.663028717041016,"longitude":139.70181274414062,"category":"公園","big_category":"レジャー施設","description":"","image_url":"","tags":"","prefecture":"東京","contractor":"","structural_designer":"","landscape_designer":"","shinkenchiku_url":""},{"id":850,"title":"赤城神社・パークコート神楽坂","architect":"隈研吾","year":2010.0,"address":"東京都新宿区赤城元町1-10","latitude":35.70481872558594,"longitude":139.73622131347656,"category":"寺院/集合住宅","big_category":"宗教,住宅","description":"","image_url":"","tags":"","prefecture":"東京","contractor":"","structural_designer":"","landscape_designer":"","shinkenchiku_url":""}]}