{"page":50,"total_pages":290,"items_per_page":50,"total_items":14467,"items":[{"id":2451,"title":"安芸灘交流館 呉市豊公民館","architect":"内田文雄","year":2005.0,"address":"広島県呉市豊町大長5915-3","latitude":34.18301773071289,"longitude":132.857666015625,"category":"公民館・交流施設","description":"","image_url":""},{"id":2452,"title":"桂浜ふれあいセンター 倉橋町まちづくりセンター","architect":"長谷川逸子","year":1998.0,"address":"広島県呉市倉橋町才ノ木431","latitude":34.102108001708984,"longitude":132.51226806640625,"category":"公民館・交流施設","description":"","image_url":""},{"id":2453,"title":"川尻小学校","architect":"村上徹","year":2000.0,"address":"広島県呉市川尻町久俊1-5-24","latitude":34.238037109375,"longitude":132.69342041015625,"category":"学校","description":"","image_url":""},{"id":2454,"title":"呉市海事歴史科学館 大和ミュージアム","architect":"久米設計","year":2005.0,"address":"広島県呉市宝町5-20","latitude":34.241146087646484,"longitude":132.55584716796875,"category":"博物館","description":"","image_url":""},{"id":2455,"title":"海上自衛隊呉資料館","architect":"日立建設設計","year":1907.0,"address":"広島県呉市宝町5-32","latitude":34.24223709106445,"longitude":132.55540466308594,"category":"博物館","description":"","image_url":""},{"id":2456,"title":"入船山記念館 旧呉鎮守府司令長官官舎","architect":"桜井小太郎","year":1906.0,"address":"広島県呉市幸町4-6","latitude":34.240333557128906,"longitude":132.56393432617188,"category":"洋館/博物館","description":"","image_url":""},{"id":2457,"title":"呉市立美術館","architect":"不明","year":1982.0,"address":"広島県呉市幸町4-9","latitude":34.239959716796875,"longitude":132.56370544433594,"category":"美術館","description":"","image_url":""},{"id":2458,"title":"呉市音戸市民センター","architect":"隈研吾","year":2007.0,"address":"広島県呉市音戸町南隠渡1-7-1","latitude":34.188201904296875,"longitude":132.53390502929688,"category":"公民館・交流施設/ホール・劇場","description":"","image_url":""},{"id":2459,"title":"基町・長寿園高層アパート","architect":"大高正人","year":1969.0,"address":"広島県広島市中区基町20","latitude":34.40333557128906,"longitude":132.45713806152344,"category":"集合住宅","description":"","image_url":""},{"id":2460,"title":"浮箱の家 フロート float - 毘沙門台","architect":"谷尻誠","year":2003.0,"address":"広島県広島市安佐南区毘沙門台2-3-16","latitude":34.47182083129883,"longitude":132.4646759033203,"category":"カフェ/住宅","description":"","image_url":""},{"id":2461,"title":"広島市西風館","architect":"日総建","year":2011.0,"address":"広島県広島市安佐南区伴西2-7-1","latitude":34.470767974853516,"longitude":132.38470458984375,"category":"斎場","description":"","image_url":""},{"id":2462,"title":"安佐南区総合福祉センター","architect":"村上徹","year":2008.0,"address":"広島県広島市安佐南区中須1-38-13","latitude":34.45660400390625,"longitude":132.47061157226562,"category":"福祉センター","description":"","image_url":""},{"id":2463,"title":"brood","architect":"三分一博志","year":2005.0,"address":"広島県広島市安佐南区西原6-26-2","latitude":34.44010543823242,"longitude":132.47352600097656,"category":"店舗/レストラン","description":"","image_url":""},{"id":2464,"title":"広島市立基町高等学校","architect":"原広司","year":2000.0,"address":"広島県広島市中区西白島町25-1","latitude":34.404052734375,"longitude":132.45986938476562,"category":"学校","description":"","image_url":""},{"id":2465,"title":"広島モノリス","architect":"安井秀夫","year":2010.0,"address":"広島県広島市東区光が丘8-26","latitude":34.40274429321289,"longitude":132.47842407226562,"category":"結婚式場","description":"","image_url":""},{"id":2466,"title":"ひろしま美術館","architect":"日建設計","year":1978.0,"address":"広島県広島市中区基町3-2(中央公園内)","latitude":34.3989372253418,"longitude":132.4581756591797,"category":"美術館","description":"","image_url":""},{"id":2467,"title":"WoodEgg お好み焼館","architect":"三分一博志","year":2008.0,"address":"広島県広島市西区商工センター7-4-5","latitude":34.36664581298828,"longitude":132.3854217529297,"category":"博物館","description":"要予約。工場見学とセット","image_url":""},{"id":2468,"title":"県立広島大学 図書館","architect":"石本建築事務所","year":1997.0,"address":"広島県広島市南区宇品東1-1-71","latitude":34.366615295410156,"longitude":132.46963500976562,"category":"図書館/大学","description":"","image_url":""},{"id":2469,"title":"鶴学園 なぎさ公園小学校","architect":"村上徹","year":2003.0,"address":"広島県広島市佐伯区海老山南2-2-30","latitude":34.360408782958984,"longitude":132.36985778808594,"category":"学校","description":"","image_url":""},{"id":2470,"title":"鶴学園 広島なぎさ中学校・高等学校","architect":"村上徹","year":2008.0,"address":"広島県広島市佐伯区海老山南2-2-1","latitude":34.359130859375,"longitude":132.36695861816406,"category":"学校","description":"","image_url":""},{"id":2471,"title":"広島市水道資料館","architect":"不明","year":1924.0,"address":"広島県広島市東区牛田新町1-8-1","latitude":34.41783142089844,"longitude":132.46649169921875,"category":"洋館","description":"","image_url":""},{"id":2472,"title":"ホテル フレックス","architect":"宮崎浩","year":1994.0,"address":"広島県広島市中区上幟町7-1","latitude":34.39678955078125,"longitude":132.46998596191406,"category":"ホテル","description":"","image_url":""},{"id":2473,"title":"広島ミッドタウン 旧MIDビル","architect":"出江寛","year":1987.0,"address":"広島県広島市中区紙屋町1-1-17","latitude":34.394588470458984,"longitude":132.45936584472656,"category":"オフィスビル","description":"","image_url":""},{"id":2474,"title":"広島市文化交流会館 旧広島厚生年金会館","architect":"丹下健三","year":1985.0,"address":"広島県広島市中区加古町3-3","latitude":34.38898468017578,"longitude":132.4488067626953,"category":"総合文化施設","description":"","image_url":""},{"id":2475,"title":"M-CLINIC みやた眼科","architect":"窪田勝文","year":2005.0,"address":"広島県広島市西区井口4-2-34","latitude":34.36872100830078,"longitude":132.37437438964844,"category":"個人医院","description":"","image_url":""},{"id":2476,"title":"広島市江波山気象館 旧広島地方気象台","architect":"不明","year":1934.0,"address":"広島県広島市中区江波南1-40-1","latitude":34.366172790527344,"longitude":132.43508911132812,"category":"洋館","description":"","image_url":""},{"id":2477,"title":"広島市郷土資料館 旧陸軍糧秣支廠","architect":"不明","year":1911.0,"address":"広島県広島市南区宇品御幸2-6-20","latitude":34.36598205566406,"longitude":132.46185302734375,"category":"洋館","description":"","image_url":""},{"id":2478,"title":"パラダイスの塔","architect":"ストゥーディオステラ","year":1989.0,"address":"広島県広島市南区宇品海岸3-12-17","latitude":34.352561950683594,"longitude":132.46981811523438,"category":"オブジェ","description":"","image_url":""},{"id":2479,"title":"グランドプリンスホテル広島","architect":"池原義郎","year":1994.0,"address":"広島県広島市南区元宇品町23-1","latitude":34.343223571777344,"longitude":132.46408081054688,"category":"ホテル","description":"","image_url":""},{"id":2480,"title":"広島市立矢野南小学校","architect":"象設計集団","year":1998.0,"address":"広島県広島市安芸区矢野南4-17-1","latitude":34.33811950683594,"longitude":132.5346221923828,"category":"学校","description":"","image_url":""},{"id":2481,"title":"広島平和記念資料館","architect":"丹下健三","year":1952.0,"address":"広島県広島市中区中島町1-2","latitude":34.3914909362793,"longitude":132.45306396484375,"category":"博物館","description":"","image_url":""},{"id":2482,"title":"広島市環境局中工場","architect":"谷口吉生","year":2004.0,"address":"広島県広島市中区南吉島1-5-1","latitude":34.358333587646484,"longitude":132.4432830810547,"category":"工場","description":"","image_url":""},{"id":2483,"title":"世界平和記念聖堂","architect":"村野藤吾","year":1953.0,"address":"広島県広島市中区幟町4-42","latitude":34.395652770996094,"longitude":132.46780395507812,"category":"教会","description":"","image_url":""},{"id":2484,"title":"原爆ドーム 旧広島県産業奨励館","architect":"ヤン・レツル","year":1915.0,"address":"広島県広島市中区大手町1-10","latitude":34.395450592041016,"longitude":132.45303344726562,"category":"博物館","description":"","image_url":""},{"id":2485,"title":"広島市西消防署","architect":"山本理顕","year":2000.0,"address":"広島県広島市西区都町43-10","latitude":34.394771575927734,"longitude":132.43661499023438,"category":"警察・消防署","description":"","image_url":""},{"id":2486,"title":"国立広島原爆死没者追悼平和祈念館","architect":"丹下健三","year":2002.0,"address":"広島県広島市中区中島町1-6","latitude":34.39329147338867,"longitude":132.45350646972656,"category":"博物館","description":"","image_url":""},{"id":2487,"title":"広島市現代美術館","architect":"黒川紀章","year":1988.0,"address":"広島県広島市南区比治山公園1-1","latitude":34.38612365722656,"longitude":132.47317504882812,"category":"美術館","description":"2023年に大規模改修","image_url":""},{"id":2488,"title":"平和の門","architect":"ジャン・ミシェル・ヴィルモット+クララ・アルテール","year":2005.0,"address":"広島県広島市中区中島町57-2","latitude":34.39064407348633,"longitude":132.4516143798828,"category":"オブジェ","description":"","image_url":""},{"id":2489,"title":"旧海軍兵学校跡地 大講堂 教育参考館 幹部候補生学校","architect":"ジョン・ダイアック","year":1893.0,"address":"広島県江田島市江田島町中央2-15-20","latitude":34.24845886230469,"longitude":132.47251892089844,"category":"学校","description":"10:30、13:00、15:00の回で見学可能","image_url":""},{"id":2490,"title":"三原市芸術文化センター","architect":"槇文彦","year":2007.0,"address":"広島県三原市宮浦2-1-1","latitude":34.40069580078125,"longitude":133.06793212890625,"category":"総合文化施設","description":"","image_url":""},{"id":2491,"title":"奥田元宋・小由女美術館","architect":"柳澤孝彦","year":2005.0,"address":"広島県三次市東酒屋町453-6","latitude":34.776329040527344,"longitude":132.86834716796875,"category":"美術館","description":"","image_url":""},{"id":2492,"title":"三次市立灰塚小学校","architect":"西宮善幸","year":1995.0,"address":"広島県三次市三良坂町灰塚60-1","latitude":34.756988525390625,"longitude":132.9989471435547,"category":"学校","description":"","image_url":""},{"id":2493,"title":"三良坂町陶芸学習舎","architect":"吉松秀樹","year":1999.0,"address":"広島県三次市三良坂町仁賀563","latitude":34.77444076538086,"longitude":132.9883575439453,"category":"体験施設","description":"","image_url":""},{"id":2494,"title":"灰塚湖畔の森コテージ・レストハウス 三良坂町コテージ","architect":"トム・ヘネガン","year":1995.0,"address":"広島県三次市三良坂町仁賀563","latitude":34.774288177490234,"longitude":132.98870849609375,"category":"コテージ","description":"","image_url":""},{"id":2495,"title":"三良坂町無縁墓地（のぞみが丘霊園）","architect":"吉松秀樹","year":1998.0,"address":"広島県三次市三良坂町灰塚9-1","latitude":34.761985778808594,"longitude":132.99334716796875,"category":"霊園","description":"","image_url":""},{"id":2496,"title":"アースワークセンター","architect":"吉松秀樹","year":2000.0,"address":"広島県三次市三良坂町灰塚のぞみが丘37-9","latitude":34.7603874206543,"longitude":132.9917449951172,"category":"観光施設","description":"","image_url":""},{"id":2497,"title":"ロードサイドミュージアムXa104","architect":"齊藤正","year":1996.0,"address":"広島県三次市吉舎町吉舎349-2","latitude":34.720489501953125,"longitude":132.99398803710938,"category":"PA・道の駅/ギャラリー","description":"","image_url":""},{"id":2498,"title":"グラスブリッジ・ハイズカニイキルモノ","architect":"吉松秀樹","year":1998.0,"address":"広島県三次市三良坂町仁賀563","latitude":34.77107238769531,"longitude":132.99984741210938,"category":"橋","description":"","image_url":""},{"id":2499,"title":"リストアステーション","architect":"小川晋一","year":1991.0,"address":"広島県庄原市総領町下領家1-3 ","latitude":34.78459167480469,"longitude":133.07131958007812,"category":"PA・道の駅","description":"","image_url":""},{"id":2500,"title":"大久野島毒ガス資料館","architect":"不明","year":1988.0,"address":"広島県竹原市忠海町大久野島5491","latitude":34.304691314697266,"longitude":132.9935302734375,"category":"博物館","description":"","image_url":""}]}