{"page":178,"total_pages":290,"items_per_page":50,"total_items":14467,"items":[{"id":8851,"title":"マルトー15 丸東15ビル","architect":"若林広幸","year":1990.0,"address":"京都府京都市東山区祇園町北側347-140","latitude":35.00460433959961,"longitude":135.7763214111328,"category":"テナントビル","description":"","image_url":""},{"id":8852,"title":"メルパルク京都 旧ぱるるプラザ京都","architect":"似内志朗","year":1999.0,"address":"京都府京都市下京区東洞院通七条下ル東塩小路町676-13","latitude":34.9864616394043,"longitude":135.76080322265625,"category":"ホテル","description":"","image_url":""},{"id":8853,"title":"毎日新聞京都ビル","architect":"若林広幸","year":1999.0,"address":"京都府京都市上京区河原町通丸太町上る西入錦砂町285","latitude":35.01850128173828,"longitude":135.76902770996094,"category":"オフィスビル","description":"","image_url":""},{"id":8854,"title":"先斗町歌舞練場","architect":"木村得三郎+大林組+武田五一","year":1927.0,"address":"京都府京都市中京区橋下町130","latitude":35.008052825927734,"longitude":135.771240234375,"category":"ホール・劇場","description":"設計顧問として武田五一","image_url":""},{"id":8855,"title":"高岡市立博物館","architect":"木村得三郎","year":1951.0,"address":"富山県高岡市古城1-5","latitude":36.74656677246094,"longitude":137.0208740234375,"category":"博物館","description":"時期は未定も移転予定","image_url":""},{"id":8856,"title":"弥栄会館","architect":"木村得三郎","year":1936.0,"address":"京都府京都市東山区祇園町南側570-2","latitude":35.00178527832031,"longitude":135.77548217773438,"category":"ホール・劇場","description":"2026年より一部を残した状態で帝国ホテル 京都として開業予定。内装設計を新素材研究所が担当","image_url":""},{"id":8857,"title":"ギャラリーカフェTakeno","architect":"堀部直子","year":2010.0,"address":"奈良県奈良市今御門町32-1","latitude":34.680023193359375,"longitude":135.8302764892578,"category":"カフェ/ギャラリー","description":"","image_url":""},{"id":8858,"title":"奈良市保健所・教育総合センター","architect":"日本設計","year":2012.0,"address":"奈良県奈良市三条本町13-1","latitude":34.67918395996094,"longitude":135.8173370361328,"category":"公共施設/福祉センター","description":"","image_url":""},{"id":8859,"title":"平安女学院 昭和館","architect":"ジョン・ヴァン・ウィ・バーガミニー","year":1929.0,"address":"京都府京都市上京区烏丸通下立売西入","latitude":35.019775390625,"longitude":135.7581329345703,"category":"大学","description":"","image_url":""},{"id":8860,"title":"平安女学院 明治館","architect":"アレクサンダー・ネルソン・ハンセル","year":1895.0,"address":"京都府京都市上京区五町目町172-2","latitude":35.019527435302734,"longitude":135.75875854492188,"category":"大学","description":"","image_url":""},{"id":8861,"title":"日本聖公会 聖アグネス教会","architect":"ジェームズ・ガーディナー","year":1898.0,"address":"京都府京都市上京区烏丸下立売角","latitude":35.01979064941406,"longitude":135.75904846191406,"category":"教会","description":"","image_url":""},{"id":8862,"title":"ROSSCO Palace Agartha 旧ゲストハウスachaque","architect":"安藤忠雄","year":1995.0,"address":"兵庫県芦屋市平田町5-6","latitude":34.722076416015625,"longitude":135.30401611328125,"category":"結婚式場/住宅","description":"現在は閉館中の模様","image_url":""},{"id":8863,"title":"ザ・ヒルサイド神戸","architect":"安藤忠雄","year":1986.0,"address":"兵庫県神戸市灘区六甲台町5-30","latitude":34.72602081298828,"longitude":135.23226928710938,"category":"結婚式場","description":"","image_url":""},{"id":8864,"title":"理化学研究所 融合連携イノベーション推進棟","architect":"石本建築事務所","year":2015.0,"address":"兵庫県神戸市中央区港島南町6-7-1","latitude":34.6568603515625,"longitude":135.2186737060547,"category":"研究施設","description":"","image_url":""},{"id":8865,"title":"養父市立会館おおやホール","architect":"毛綱毅曠","year":1994.0,"address":"兵庫県養父市大屋町大屋市場20-1","latitude":35.33339309692383,"longitude":134.66537475585938,"category":"ホール・劇場","description":"","image_url":""},{"id":8866,"title":"芦屋タウンハウス","architect":"竹山実","year":1995.0,"address":"兵庫県芦屋市西芦屋町3-22","latitude":34.7330436706543,"longitude":135.2986297607422,"category":"集合住宅/カフェ","description":"","image_url":""},{"id":8867,"title":"セレモニーレストラン白桜記","architect":"安藤忠雄","year":2010.0,"address":"岡山県岡山市中区東山4-7-26","latitude":34.646522521972656,"longitude":133.94224548339844,"category":"レストラン","description":"","image_url":""},{"id":8868,"title":"鳥取大丸／ホテルニューオータニ鳥取","architect":"黒川紀章","year":1975.0,"address":"鳥取県鳥取市今町2-151","latitude":35.495338439941406,"longitude":134.2257843017578,"category":"ホテル/モール","description":"","image_url":""},{"id":8869,"title":"北九州銀行門司支店","architect":"桜井小太郎","year":1934.0,"address":"福岡県北九州市門司区清滝2-3-4","latitude":33.944366455078125,"longitude":130.9636688232422,"category":"金融機関","description":"","image_url":""},{"id":8870,"title":"サンプレイス","architect":"安藤忠雄","year":1982.0,"address":"香川県高松市南新町5-6","latitude":34.33946990966797,"longitude":134.04893493652344,"category":"テナントビル","description":"","image_url":""},{"id":8871,"title":"STEPビル","architect":"安藤忠雄","year":2006.0,"address":"香川県高松市丸亀町9-1","latitude":34.34291076660156,"longitude":134.05006408691406,"category":"テナントビル","description":"","image_url":""},{"id":8872,"title":"税理士法人 船倉事務所 本店","architect":"三分一博志","year":2011.0,"address":"広島市中区白島九軒町6-20","latitude":34.40755081176758,"longitude":132.4658203125,"category":"低層オフィス","description":"","image_url":""},{"id":8873,"title":"アーバンBLD心斎橋","architect":"大江匡","year":1981.0,"address":"大阪府大阪市中央区西心斎橋1-5-5","latitude":34.6721305847168,"longitude":135.4999542236328,"category":"テナントビル/オフィスビル","description":"","image_url":""},{"id":8874,"title":"アールビル本館","architect":"村野藤吾","year":1969.0,"address":"大阪府大阪市北区西天満5-9-3","latitude":34.698036193847656,"longitude":135.50735473632812,"category":"オフィスビル","description":"","image_url":""},{"id":8875,"title":"堺平成病院","architect":"安藤忠雄","year":2019.0,"address":"大阪府堺市中区深井沢町6-13","latitude":34.526611328125,"longitude":135.49884033203125,"category":"病院","description":"","image_url":""},{"id":8876,"title":"シーズビル","architect":"安藤忠雄","year":1991.0,"address":"大阪府大阪市北区松ケ枝町6-11","latitude":34.69860076904297,"longitude":135.514892578125,"category":"オフィスビル","description":"","image_url":""},{"id":8877,"title":"武田道修町ビル","architect":"松室重光","year":1928.0,"address":"大阪府中央区道修町2-3-6","latitude":34.68833923339844,"longitude":135.50486755371094,"category":"博物館/オフィスビル","description":"","image_url":""},{"id":8878,"title":"大丸心斎橋店 新本館","architect":"竹中工務店+ウィリアム・メレル・ヴォーリズ","year":2019.0,"address":"大阪府大阪市中央区心斎橋筋1-7-1","latitude":34.67316436767578,"longitude":135.50103759765625,"category":"モール","description":"ヴォーリズ設計の旧館、御堂筋側の外壁及び内装の67%を再活用。設計元ということでヴォーリズの名前を併記。","image_url":""},{"id":8879,"title":"TSビル","architect":"安藤忠雄","year":1986.0,"address":"大阪府大阪市北区天満3-1-2","latitude":34.692203521728516,"longitude":135.5155792236328,"category":"オフィスビル","description":"","image_url":""},{"id":8880,"title":"中之島三井ビルディング","architect":"日建設計+シーザー・ペリ","year":2002.0,"address":"大阪府大阪市北区中之島3-3-3","latitude":34.69317626953125,"longitude":135.49417114257812,"category":"オフィスビル","description":"デザイン改修シーザー・ペリ","image_url":""},{"id":8881,"title":"日本生命保険相互会社本店","architect":"竹腰健造+日建設計","year":1938.0,"address":"大阪府大阪市中央区今橋3-5-12","latitude":34.691097259521484,"longitude":135.5014190673828,"category":"オフィスビル/金融機関","description":"第1期長谷部竹腰建築事務所設計で1938年竣工。第2期日建設計の設計により1962年竣工。","image_url":""},{"id":8882,"title":"ヒコ・みづのジュエリーカレッジ大阪","architect":"吉柳満","year":2007.0,"address":"大阪府大阪市西区北堀江2-14-3","latitude":34.67408752441406,"longitude":135.49124145507812,"category":"専門学校","description":"","image_url":""},{"id":8883,"title":"ホテルロイヤルクラシック大阪難波","architect":"隈研吾+鹿島建設","year":2019.0,"address":"大阪府大阪市中央区難波4-3-25","latitude":34.66586685180664,"longitude":135.49989318847656,"category":"ホテル","description":"村野藤吾設計の大阪新歌舞伎座跡地に建設。2019年12月オープン予定。","image_url":""},{"id":8884,"title":"風蘭ビル 旧明治屋ビル","architect":"曽禰達蔵+中條精一郎","year":1924.0,"address":"大阪府大阪市中央区南本町2-2-2","latitude":34.68258285522461,"longitude":135.50624084472656,"category":"オフィスビル","description":"","image_url":""},{"id":8885,"title":"プラダ大阪心斎橋店","architect":"ロベルト・バチョッキ","year":2015.0,"address":"大阪府大阪市中央区心斎橋筋2-8-18","latitude":34.67148208618164,"longitude":135.5006866455078,"category":"店舗/テナントビル","description":"","image_url":""},{"id":8886,"title":"プラダ 神戸店","architect":"ロベルト・バチョッキ","year":2013.0,"address":"兵庫県神戸市中央区浪花町27","latitude":34.687965393066406,"longitude":135.19236755371094,"category":"店舗","description":"","image_url":""},{"id":8887,"title":"ガーデンテラス佐賀 ホテル&マリトピア","architect":"小川博央","year":2018.0,"address":"佐賀県佐賀市新栄東3-7-8","latitude":33.256683349609375,"longitude":130.2747039794922,"category":"ホテル","description":"","image_url":""},{"id":8888,"title":"メモリードホール高木瀬","architect":"小川博央","year":2018.0,"address":"佐賀県佐賀市高木瀬町長瀬918-1","latitude":33.28874969482422,"longitude":130.2884979248047,"category":"斎場","description":"","image_url":""},{"id":8889,"title":"湖畔の森教会 モリノネ","architect":"小川博央","year":2017.0,"address":"佐賀県武雄市武雄町大字永島15750-1","latitude":33.183135986328125,"longitude":130.03424072265625,"category":"結婚式場","description":"","image_url":""},{"id":8890,"title":"住居No.40 DOKI ROKKO","architect":"内藤廣","year":2016.0,"address":"兵庫県神戸市灘区六甲山町中一里山1-29","latitude":34.75025177001953,"longitude":135.2142333984375,"category":"ギャラリー/住宅","description":"","image_url":""},{"id":8891,"title":"横浜赤レンガ倉庫","architect":"妻木頼黄+新居千秋","year":1911.0,"address":"神奈川県横浜市中区新港1-1-1","latitude":35.45261764526367,"longitude":139.642822265625,"category":"モール/産業遺産","description":"2002年新居千秋により改修","image_url":""},{"id":8892,"title":"THE STANDARD BAKERS","architect":"大沼広樹+渡辺有規","year":2018.0,"address":"栃木県宇都宮市大谷町1159","latitude":36.594974517822266,"longitude":139.8186492919922,"category":"カフェ/店舗","description":"","image_url":""},{"id":8893,"title":"大倉集古館","architect":"伊東忠太+谷口吉生","year":1927.0,"address":"東京都港区虎ノ門2-10-3","latitude":35.66700744628906,"longitude":139.74334716796875,"category":"博物館","description":"2019年谷口吉生により保存改修","image_url":""},{"id":8894,"title":"祝祭の広場","architect":"建設コンサルタントサニー+ヒュマス+ヨコミゾマコト+都市企画工房","year":2019.0,"address":"大分県大分市府内町1-1-1","latitude":33.235252380371094,"longitude":131.60797119140625,"category":"広場/トイレ/駐車・駐輪場","description":"","image_url":""},{"id":8895,"title":"南三陸町生涯学習センター","architect":"八重樫直人+日新設計","year":2019.0,"address":"宮城県本吉郡南三陸町志津川新井田165-1","latitude":38.68316650390625,"longitude":141.4513397216797,"category":"公民館・交流施設/図書館","description":"","image_url":""},{"id":8896,"title":"ミライon図書館","architect":"佐藤総合計画+佐々木信明","year":2019.0,"address":"長崎県大村市東本町481","latitude":32.90827178955078,"longitude":129.96176147460938,"category":"図書館/博物館","description":"","image_url":""},{"id":8897,"title":"コーカ","architect":"アットカマタ+馬淵建設","year":2019.0,"address":"東京都大田区大森西6-17-17","latitude":35.56843948364258,"longitude":139.72959899902344,"category":"シェアオフィス/ギャラリー","description":"","image_url":""},{"id":8898,"title":"富岡倉庫3号倉庫 おかって市場","architect":"隈研吾","year":2019.0,"address":"群馬県富岡市富岡1450","latitude":36.259910583496094,"longitude":138.89068603515625,"category":"モール","description":"1910年頃設立の富岡倉庫3号倉庫の改修","image_url":""},{"id":8899,"title":"ザ・パークレックス 博多","architect":"三菱地所+馬場正尊","year":1985.0,"address":"福岡県福岡市博多区博多駅東2-16-1","latitude":33.58960723876953,"longitude":130.426025390625,"category":"オフィスビル","description":"印刷工場をオフィスにリノベーション","image_url":""},{"id":8900,"title":"国立京都国際会館 ニューホール","architect":"日建設計","year":2018.0,"address":"京都府京都市左京区岩倉大鷺町422","latitude":35.06288146972656,"longitude":135.7841796875,"category":"ホール・劇場","description":"","image_url":""}]}