{"page":147,"total_pages":290,"items_per_page":50,"total_items":14467,"items":[{"id":7301,"title":"宮沢賢治記念館","architect":"菅建築設計","year":1982.0,"address":"岩手県花巻市矢沢第1地割1-36","latitude":39.39910125732422,"longitude":141.162353515625,"category":"博物館","big_category":"ミュージアム","description":"","image_url":"","tags":"Ver2.40(2018年3月)の追加建築","prefecture":"岩手","contractor":"","structural_designer":"","landscape_designer":"","shinkenchiku_url":""},{"id":7302,"title":"盛岡先人記念館","architect":"圓堂政嘉","year":1987.0,"address":"岩手県盛岡市本宮蛇屋敷2-2","latitude":39.694061279296875,"longitude":141.12661743164062,"category":"博物館","big_category":"ミュージアム","description":"","image_url":"","tags":"Ver2.40(2018年3月)の追加建築","prefecture":"岩手","contractor":"","structural_designer":"","landscape_designer":"","shinkenchiku_url":""},{"id":7303,"title":"三渓記念館","architect":"大江宏","year":1988.0,"address":"神奈川県横浜市中区本牧三之谷58","latitude":35.41706848144531,"longitude":139.65882873535156,"category":"美術館","big_category":"ミュージアム","description":"","image_url":"","tags":"Ver2.40(2018年3月)の追加建築","prefecture":"神奈川","contractor":"","structural_designer":"","landscape_designer":"","shinkenchiku_url":""},{"id":7304,"title":"龍野市立歴史文化資料館","architect":"鹿島建設","year":1989.0,"address":"兵庫県たつの市龍野町上霞城128-3","latitude":34.86853790283203,"longitude":134.54624938964844,"category":"博物館","big_category":"ミュージアム","description":"","image_url":"","tags":"Ver2.40(2018年3月)の追加建築","prefecture":"兵庫","contractor":"","structural_designer":"","landscape_designer":"","shinkenchiku_url":""},{"id":7305,"title":"UCCコーヒー博物館","architect":"竹中工務店","year":1987.0,"address":"兵庫県神戸市中央区港島中町6-6-2","latitude":34.66516876220703,"longitude":135.2169189453125,"category":"博物館","big_category":"ミュージアム","description":"","image_url":"","tags":"Ver2.40(2018年3月)の追加建築","prefecture":"兵庫","contractor":"","structural_designer":"","landscape_designer":"","shinkenchiku_url":""},{"id":7306,"title":"群馬ガラス工芸美術館","architect":"藤江通昌","year":1997.0,"address":"群馬県渋川市渋川4204","latitude":36.498573303222656,"longitude":138.95530700683594,"category":"博物館","big_category":"ミュージアム","description":"","image_url":"","tags":"Ver2.40(2018年3月)の追加建築","prefecture":"群馬","contractor":"","structural_designer":"","landscape_designer":"","shinkenchiku_url":""},{"id":7307,"title":"おぶせミュージアム・中島千波館","architect":"宮本忠長+久保田建築設計事務所","year":1992.0,"address":"長野県上高井郡小布施町小布施595","latitude":36.69873046875,"longitude":138.31906127929688,"category":"美術館","big_category":"ミュージアム","description":"","image_url":"","tags":"Ver2.40(2018年3月)の追加建築","prefecture":"長野","contractor":"","structural_designer":"","landscape_designer":"","shinkenchiku_url":""},{"id":7308,"title":"磐田市卓球場・アーチェリー場 ラリーナ","architect":"渡辺隆","year":2018.0,"address":"静岡県磐田市見付4075-1","latitude":34.72709655761719,"longitude":137.8462371826172,"category":"体育館","big_category":"レジャー施設","description":"2018年4月オープン予定。場所はややずれている可能性あり。（かぶと塚公園内）","image_url":"","tags":"Ver2.40(2018年3月)の追加建築","prefecture":"静岡","contractor":"","structural_designer":"","landscape_designer":"","shinkenchiku_url":""},{"id":7309,"title":"神田テラスビル","architect":"小山光","year":2017.0,"address":"東京都千代田区神田錦町1-14-13","latitude":35.69380187988281,"longitude":139.76455688476562,"category":"テナントビル","big_category":"商業施設","description":"","image_url":"","tags":"Ver2.40(2018年3月)の追加建築","prefecture":"東京","contractor":"","structural_designer":"","landscape_designer":"","shinkenchiku_url":""},{"id":7310,"title":"ヨツヤテネラ","architect":"小山光","year":2010.0,"address":"東京都新宿区若葉1-13","latitude":35.68470001220703,"longitude":139.72659301757812,"category":"集合住宅","big_category":"住宅","description":"","image_url":"","tags":"Ver2.40(2018年3月)の追加建築","prefecture":"東京","contractor":"","structural_designer":"","landscape_designer":"","shinkenchiku_url":""},{"id":7311,"title":"ZARA 名古屋店","architect":"小山光","year":2017.0,"address":"愛知県名古屋市中区栄3-7-20","latitude":35.16706466674805,"longitude":136.90673828125,"category":"店舗","big_category":"商業施設","description":"","image_url":"","tags":"Ver2.40(2018年3月)の追加建築","prefecture":"愛知","contractor":"","structural_designer":"","landscape_designer":"","shinkenchiku_url":""},{"id":7312,"title":"ニューヨークコーナー161","architect":"小山光","year":2016.0,"address":"東京都目黒区中根1-6-1","latitude":35.61740493774414,"longitude":139.6752166748047,"category":"テナントビル","big_category":"商業施設","description":"","image_url":"","tags":"Ver2.40(2018年3月)の追加建築","prefecture":"東京","contractor":"","structural_designer":"","landscape_designer":"","shinkenchiku_url":""},{"id":7313,"title":"シラハマ校舎 旧長尾小学校","architect":"あわデザインスタジオ","year":2016.0,"address":"千葉県南房総市白浜町滝口5185","latitude":34.91083908081055,"longitude":139.8595733642578,"category":"低層オフィス/レストラン/ホテル","big_category":"企業施設,商業施設,宿泊","description":"小学校が閉校した後、シェアオフィス、カフェ、ゲストハウスとしてリノベーション。池原義郎設計の体育館は取り壊しの模様。","image_url":"","tags":"Ver2.40(2018年3月)の追加建築","prefecture":"千葉","contractor":"","structural_designer":"","landscape_designer":"","shinkenchiku_url":""},{"id":7314,"title":"オステリア・ベッカフィーコ","architect":"あわデザインスタジオ+アーキテクチャー・ラボ","year":2015.0,"address":"千葉県館山市塩見226-4","latitude":34.977752685546875,"longitude":139.81228637695312,"category":"レストラン/住宅","big_category":"商業施設,住宅","description":"","image_url":"","tags":"Ver2.40(2018年3月)の追加建築","prefecture":"千葉","contractor":"","structural_designer":"","landscape_designer":"","shinkenchiku_url":""},{"id":7315,"title":"TRAYCLE Market&Coffee","architect":"あわデザインスタジオ","year":2016.0,"address":"千葉県館山市館山95-70","latitude":34.98616027832031,"longitude":139.8520965576172,"category":"カフェ/店舗","big_category":"商業施設,商業施設","description":"","image_url":"","tags":"Ver2.40(2018年3月)の追加建築","prefecture":"千葉","contractor":"","structural_designer":"","landscape_designer":"","shinkenchiku_url":""},{"id":7316,"title":"芦屋ベイコート倶楽部 ホテル＆スパリゾート","architect":"日建設計","year":2017.0,"address":"兵庫県芦屋市海洋町14-1","latitude":34.71037292480469,"longitude":135.3214874267578,"category":"ホテル","big_category":"宿泊","description":"","image_url":"","tags":"Ver2.40(2018年3月)の追加建築,2020年日本建築学会 作品選集新人賞","prefecture":"兵庫","contractor":"","structural_designer":"","landscape_designer":"","shinkenchiku_url":""},{"id":7317,"title":"八女市民会館 おりなす八女 研修棟","architect":"光吉健次","year":1968.0,"address":"福岡県八女市本町602-1","latitude":33.212066650390625,"longitude":130.556884765625,"category":"研修施設/公民館・交流施設","big_category":"教育,公共施設","description":"","image_url":"","tags":"Ver2.40(2018年3月)の追加建築","prefecture":"福岡","contractor":"","structural_designer":"","landscape_designer":"","shinkenchiku_url":""},{"id":7318,"title":"Zepp 大阪ベイサイド","architect":"鹿島建設","year":2017.0,"address":"大阪府大阪市此花区桜島1-1-61","latitude":34.66202163696289,"longitude":135.43484497070312,"category":"ホール・劇場","big_category":"文化施設","description":"","image_url":"","tags":"Ver2.40(2018年3月)の追加建築","prefecture":"大阪","contractor":"","structural_designer":"","landscape_designer":"","shinkenchiku_url":""},{"id":7319,"title":"豆皿茶屋","architect":"五井建築研究所","year":2017.0,"address":"石川県金沢市丸の内1","latitude":36.564788818359375,"longitude":136.66012573242188,"category":"カフェ","big_category":"商業施設","description":"","image_url":"","tags":"Ver2.40(2018年3月)の追加建築","prefecture":"石川","contractor":"","structural_designer":"","landscape_designer":"","shinkenchiku_url":""},{"id":7320,"title":"むらかみ食堂","architect":"伊藤瑞貴","year":2014.0,"address":"福井県福井市杉谷町10","latitude":36.01762008666992,"longitude":136.19223022460938,"category":"レストラン","big_category":"商業施設","description":"","image_url":"","tags":"Ver2.40(2018年3月)の追加建築","prefecture":"福井","contractor":"","structural_designer":"","landscape_designer":"","shinkenchiku_url":""},{"id":7321,"title":"多治見市火葬場 華立やすらぎの杜","architect":"久米設計","year":2016.0,"address":"岐阜県多治見市大薮町上迫間洞249","latitude":35.3811149597168,"longitude":137.05747985839844,"category":"斎場","big_category":"公共施設","description":"","image_url":"","tags":"Ver2.40(2018年3月)の追加建築","prefecture":"岐阜","contractor":"","structural_designer":"","landscape_designer":"","shinkenchiku_url":""},{"id":7322,"title":"ATM Nursery","architect":"日比野設計","year":2017.0,"address":"大阪府豊中市新千里南町2-7-1","latitude":34.796966552734375,"longitude":135.49063110351562,"category":"幼稚園","big_category":"教育","description":"","image_url":"","tags":"Ver2.40(2018年3月)の追加建築","prefecture":"大阪","contractor":"","structural_designer":"","landscape_designer":"","shinkenchiku_url":""},{"id":7323,"title":"豊永郷民俗資料館","architect":"上田堯世","year":2016.0,"address":"高知県長岡郡大豊町粟生","latitude":33.79472351074219,"longitude":133.76901245117188,"category":"博物館","big_category":"ミュージアム","description":"","image_url":"","tags":"Ver2.40(2018年3月)の追加建築","prefecture":"高知","contractor":"","structural_designer":"","landscape_designer":"","shinkenchiku_url":""},{"id":7324,"title":"からすや食堂","architect":"栗田祥弘","year":2014.0,"address":"福島県いわき市久之浜町久之浜北町67","latitude":37.142913818359375,"longitude":140.99853515625,"category":"レストラン","big_category":"商業施設","description":"","image_url":"","tags":"Ver2.40(2018年3月)の追加建築","prefecture":"福島","contractor":"","structural_designer":"","landscape_designer":"","shinkenchiku_url":""},{"id":7325,"title":"證大寺 手紙処","architect":"UA","year":2017.0,"address":"千葉県船橋市大神保町1306","latitude":35.76911926269531,"longitude":140.06544494628906,"category":"霊園","big_category":"宗教","description":"","image_url":"","tags":"Ver2.40(2018年3月)の追加建築","prefecture":"千葉","contractor":"","structural_designer":"","landscape_designer":"","shinkenchiku_url":""},{"id":7326,"title":"大泉こどもおとな歯科診療室","architect":"UA","year":2015.0,"address":"東京都練馬区東大泉6-46-7","latitude":35.74781036376953,"longitude":139.5836639404297,"category":"個人医院","big_category":"医療施設","description":"","image_url":"","tags":"Ver2.40(2018年3月)の追加建築","prefecture":"東京","contractor":"","structural_designer":"","landscape_designer":"","shinkenchiku_url":""},{"id":7327,"title":"長徳寺永代墓 ハクラ","architect":"ヨコミゾマコト","year":2015.0,"address":"新潟県新発田市大栄町2-7-22","latitude":37.94656753540039,"longitude":139.322021484375,"category":"霊園","big_category":"宗教","description":"真宗大谷派松霊山長徳寺の境内につくられた永代墓","image_url":"","tags":"Ver2.40(2018年3月)の追加建築","prefecture":"新潟","contractor":"","structural_designer":"","landscape_designer":"","shinkenchiku_url":""},{"id":7328,"title":"無量寿院月の森","architect":"UA","year":2016.0,"address":"埼玉県北葛飾郡松伏町上赤岩1195","latitude":35.91972351074219,"longitude":139.81948852539062,"category":"霊園","big_category":"宗教","description":"","image_url":"","tags":"Ver2.40(2018年3月)の追加建築","prefecture":"埼玉","contractor":"","structural_designer":"","landscape_designer":"","shinkenchiku_url":""},{"id":7329,"title":"米沢格子の集合住宅 レジデンスTOMO本町18","architect":"UA","year":2016.0,"address":"山形県米沢市本町1-3","latitude":37.89807891845703,"longitude":140.10748291015625,"category":"集合住宅","big_category":"住宅","description":"","image_url":"","tags":"Ver2.40(2018年3月)の追加建築","prefecture":"山形","contractor":"","structural_designer":"","landscape_designer":"","shinkenchiku_url":""},{"id":7330,"title":"米沢半円の集合住宅 レジデンスTOMO城南13","architect":"UA","year":2015.0,"address":"山形県米沢市城南4-1","latitude":37.9002571105957,"longitude":140.1063995361328,"category":"集合住宅","big_category":"住宅","description":"","image_url":"","tags":"Ver2.40(2018年3月)の追加建築","prefecture":"山形","contractor":"","structural_designer":"","landscape_designer":"","shinkenchiku_url":""},{"id":7331,"title":"八木山ゲートテラス","architect":"AL建築設計","year":2017.0,"address":"宮城県仙台市太白区長町越路19-1","latitude":38.24578094482422,"longitude":140.84774780273438,"category":"テーマパーク","big_category":"レジャー施設","description":"","image_url":"","tags":"Ver2.40(2018年3月)の追加建築","prefecture":"宮城","contractor":"","structural_designer":"","landscape_designer":"","shinkenchiku_url":""},{"id":7332,"title":"石巻市復興まちづくり情報交流館 中央館","architect":"AL建築設計","year":2015.0,"address":"宮城県石巻市中央2-8-11","latitude":38.43079376220703,"longitude":141.30934143066406,"category":"観光施設/公民館・交流施設","big_category":"レジャー施設,公共施設","description":"","image_url":"","tags":"Ver2.40(2018年3月)の追加建築","prefecture":"宮城","contractor":"","structural_designer":"","landscape_designer":"","shinkenchiku_url":""},{"id":7333,"title":"反復する切妻屋根のオフィス 内藤証券 金剛支店","architect":"内藤誠人+101デザイン","year":2014.0,"address":"大阪府大阪狭山市半田1-650-3","latitude":34.49678421020508,"longitude":135.5588836669922,"category":"金融機関","big_category":"企業施設","description":"","image_url":"","tags":"Ver2.40(2018年3月)の追加建築","prefecture":"大阪","contractor":"","structural_designer":"","landscape_designer":"","shinkenchiku_url":""},{"id":7334,"title":"ふかさわミル保育園","architect":"呉屋彦四郎","year":2016.0,"address":"東京都世田谷区深沢1-32-24","latitude":35.619789123535156,"longitude":139.66580200195312,"category":"幼稚園","big_category":"教育","description":"","image_url":"","tags":"Ver2.40(2018年3月)の追加建築","prefecture":"東京","contractor":"","structural_designer":"","landscape_designer":"","shinkenchiku_url":""},{"id":7335,"title":"土岐市立濃南小学校","architect":"石本建築事務所","year":2015.0,"address":"岐阜県土岐市鶴里町細野138","latitude":35.27819061279297,"longitude":137.23770141601562,"category":"学校","big_category":"教育","description":"","image_url":"","tags":"Ver2.40(2018年3月)の追加建築","prefecture":"岐阜","contractor":"","structural_designer":"","landscape_designer":"","shinkenchiku_url":""},{"id":7336,"title":"猪名川霊園 倉庫棟","architect":"小山光","year":2015.0,"address":"兵庫県川辺郡猪名川町清水字北谷27","latitude":34.969337463378906,"longitude":135.31861877441406,"category":"霊園","big_category":"宗教","description":"","image_url":"","tags":"Ver2.40(2018年3月)の追加建築","prefecture":"兵庫","contractor":"","structural_designer":"","landscape_designer":"","shinkenchiku_url":""},{"id":7337,"title":"水天宮","architect":"竹中工務店","year":2016.0,"address":"東京都中央区日本橋蛎殻町2-4-1","latitude":35.68366622924805,"longitude":139.78504943847656,"category":"寺院","big_category":"宗教","description":"","image_url":"","tags":"Ver2.40(2018年3月)の追加建築","prefecture":"東京","contractor":"","structural_designer":"","landscape_designer":"","shinkenchiku_url":""},{"id":7338,"title":"八寿恵荘","architect":"山田貴宏","year":2015.0,"address":"長野県北安曇郡池田町広津4098","latitude":36.452266693115234,"longitude":137.8973846435547,"category":"旅館","big_category":"宿泊","description":"","image_url":"","tags":"Ver2.40(2018年3月)の追加建築","prefecture":"長野","contractor":"","structural_designer":"","landscape_designer":"","shinkenchiku_url":""},{"id":7339,"title":"みなまき みんなのひろば・みなまきラボ","architect":"熊谷玄+西田司","year":2015.0,"address":"神奈川県横浜市旭区柏町127","latitude":35.451934814453125,"longitude":139.52584838867188,"category":"広場/公民館・交流施設","big_category":"文化施設,公共施設","description":"","image_url":"","tags":"Ver2.40(2018年3月)の追加建築","prefecture":"神奈川","contractor":"","structural_designer":"","landscape_designer":"","shinkenchiku_url":""},{"id":7340,"title":"N's YARD","architect":"石田建太朗","year":2018.0,"address":"栃木県那須塩原市青木28-3","latitude":37.003292083740234,"longitude":139.98623657226562,"category":"美術館","big_category":"ミュージアム","description":"毎週火曜と水曜は休館","image_url":"","tags":"Ver2.40(2018年3月)の追加建築,新建築2019年1月号","prefecture":"栃木","contractor":"","structural_designer":"","landscape_designer":"","shinkenchiku_url":""},{"id":7341,"title":"桐朋学園 音楽部門仙川新キャンパス","architect":"隈研吾+前田建設工業","year":2017.0,"address":"東京都調布市若葉町1-41-1","latitude":35.65961837768555,"longitude":139.58358764648438,"category":"大学","big_category":"教育","description":"","image_url":"","tags":"Ver2.40(2018年3月)の追加建築","prefecture":"東京","contractor":"","structural_designer":"","landscape_designer":"","shinkenchiku_url":""},{"id":7342,"title":"むく保育園","architect":"手塚建築研究所","year":2018.0,"address":"静岡県富士市大淵3800-9","latitude":35.21851348876953,"longitude":138.67694091796875,"category":"幼稚園","big_category":"教育","description":"","image_url":"","tags":"Ver2.40(2018年3月)の追加建築,新建築2018年6月号,2020年日本建築学会 作品選奨","prefecture":"静岡","contractor":"","structural_designer":"","landscape_designer":"","shinkenchiku_url":""},{"id":7343,"title":"日本キリスト教団 番町教会","architect":"手塚建築研究所","year":2018.0,"address":"東京都千代田区六番町7-12","latitude":35.68699645996094,"longitude":139.7330780029297,"category":"教会","big_category":"宗教","description":"","image_url":"","tags":"Ver2.40(2018年3月)の追加建築,新建築2019年11月号","prefecture":"東京","contractor":"","structural_designer":"","landscape_designer":"","shinkenchiku_url":""},{"id":7344,"title":"つるがしま中央交流センター くれよん","architect":"藤村龍至","year":2018.0,"address":"埼玉県鶴ヶ島市藤金871-3","latitude":35.94669723510742,"longitude":139.4033203125,"category":"公民館・交流施設/レストラン","big_category":"公共施設,商業施設","description":"","image_url":"","tags":"Ver2.40(2018年3月)の追加建築,新建築2019年3月号","prefecture":"埼玉","contractor":"","structural_designer":"","landscape_designer":"","shinkenchiku_url":""},{"id":7345,"title":"宮崎県婦人会館 ユースホステルサンフラワー宮崎","architect":"川島甲士","year":1965.0,"address":"宮崎県宮崎市旭1-3-10","latitude":31.910018920898438,"longitude":131.42503356933594,"category":"ホステル","big_category":"宿泊","description":"","image_url":"","tags":"Ver2.40(2018年3月)の追加建築","prefecture":"宮崎","contractor":"","structural_designer":"","landscape_designer":"","shinkenchiku_url":""},{"id":7346,"title":"東亜道路工業 本社ビル","architect":"日建設計","year":2015.0,"address":"東京都港区六本木7-3-7","latitude":35.66645431518555,"longitude":139.72772216796875,"category":"オフィスビル","big_category":"企業施設","description":"","image_url":"","tags":"Ver2.40(2018年3月)の追加建築","prefecture":"東京","contractor":"","structural_designer":"","landscape_designer":"","shinkenchiku_url":""},{"id":7347,"title":"ISSEY MIYAKE KYOTO","architect":"深澤直人","year":2018.0,"address":"京都府京都市中京区柳馬場通三条下ル槌屋町89","latitude":35.007877349853516,"longitude":135.76393127441406,"category":"店舗","big_category":"商業施設","description":"","image_url":"","tags":"Ver2.40(2018年3月)の追加建築","prefecture":"京都","contractor":"","structural_designer":"","landscape_designer":"","shinkenchiku_url":""},{"id":7348,"title":"こばと夢ナーサリー","architect":"土田拓也","year":2018.0,"address":"茨城県牛久市猪子町828-33","latitude":35.99265670776367,"longitude":140.144287109375,"category":"幼稚園","big_category":"教育","description":"2020年に同設計者により増築","image_url":"","tags":"Ver2.50(2018年5月)の追加建築","prefecture":"茨城","contractor":"髙塚建設工業","structural_designer":"シェルター","landscape_designer":"","shinkenchiku_url":""},{"id":7349,"title":"すばる保育園","architect":"藤村龍至+林田俊二","year":2018.0,"address":"福岡県小郡市大保957-1","latitude":33.411643981933594,"longitude":130.56414794921875,"category":"幼稚園","big_category":"教育","description":"","image_url":"","tags":"Ver2.50(2018年5月)の追加建築,新建築2018年6月号,第30回AACA 奨励賞","prefecture":"福岡","contractor":"","structural_designer":"","landscape_designer":"","shinkenchiku_url":""},{"id":7350,"title":"ウミトタ","architect":"皆川明","year":2018.0,"address":"香川県小豆郡土庄町豊島家浦423-2","latitude":34.49495315551758,"longitude":134.06826782226562,"category":"コテージ","big_category":"宿泊","description":"一棟貸しの宿泊施設。既存民家を皆川明がディレクション。","image_url":"","tags":"Ver2.50(2018年5月)の追加建築","prefecture":"香川","contractor":"","structural_designer":"","landscape_designer":"","shinkenchiku_url":""}]}