{"page":289,"total_pages":290,"items_per_page":50,"total_items":14467,"items":[{"id":14401,"title":"VillEdge ぷかぷかコミューン","architect":"今津修平+北川浩明+川上真誠+姫治恒太","year":2022.0,"address":"兵庫県丹波篠山市遠方16-3","latitude":35.16670608520508,"longitude":135.2746124267578,"category":"店舗/カフェ","big_category":"商業施設,商業施設","description":"","image_url":"","tags":"Ver5.60(2025年2月)の追加建築","prefecture":"兵庫","contractor":"あかい工房","structural_designer":"清水良太構造デザインスタジオ","landscape_designer":"ミドリデザイン","shinkenchiku_url":""},{"id":14402,"title":"VillEdge ミノムシの塔","architect":"今津修平+川上真誠","year":2024.0,"address":"兵庫県丹波篠山市遠方16-3","latitude":35.16591262817383,"longitude":135.27244567871094,"category":"コテージ","big_category":"宿泊","description":"","image_url":"","tags":"Ver5.60(2025年2月)の追加建築","prefecture":"兵庫","contractor":"あかい工房","structural_designer":"清水良太構造デザインスタジオ","landscape_designer":"","shinkenchiku_url":""},{"id":14403,"title":"COVA KAKUDA MIHARASHI HAMAAGE OKI-TAKA","architect":"北川浩明+小坂田雄介","year":2022.0,"address":"三重県志摩市志摩町片田1397-14","latitude":34.26700210571289,"longitude":136.84498596191406,"category":"コテージ","big_category":"宿泊","description":"","image_url":"","tags":"Ver5.60(2025年2月)の追加建築","prefecture":"三重","contractor":"浜佐建設","structural_designer":"門藤芳樹構造設計事務所","landscape_designer":"","shinkenchiku_url":""},{"id":14404,"title":"CrossFit 高知","architect":"今津修平+北川浩明","year":2021.0,"address":"高知県高知市北久保19-15","latitude":33.568870544433594,"longitude":133.56752014160156,"category":"体育館/店舗","big_category":"レジャー施設,商業施設","description":"","image_url":"","tags":"Ver5.60(2025年2月)の追加建築","prefecture":"高知","contractor":"大旺新洋","structural_designer":"NAG設計室","landscape_designer":"","shinkenchiku_url":""},{"id":14405,"title":"ISAI AQUS","architect":"北川浩明","year":2020.0,"address":"兵庫県神戸市須磨区車字仏坂816","latitude":34.69158935546875,"longitude":135.1071319580078,"category":"福祉センター","big_category":"医療施設","description":"","image_url":"","tags":"Ver5.60(2025年2月)の追加建築","prefecture":"兵庫","contractor":"たかとり工務店","structural_designer":"","landscape_designer":"","shinkenchiku_url":""},{"id":14406,"title":"灘-E","architect":"北川浩明+今津修平","year":2020.0,"address":"兵庫県神戸市灘区城内通5-5-11","latitude":34.70720672607422,"longitude":135.2162322998047,"category":"集合住宅/テナントビル","big_category":"住宅,商業施設","description":"","image_url":"","tags":"Ver5.60(2025年2月)の追加建築","prefecture":"兵庫","contractor":"伊田工務店","structural_designer":"","landscape_designer":"","shinkenchiku_url":""},{"id":14407,"title":"ドッグランのあるカフェ Cocoloami","architect":"小坂田雄介","year":2024.0,"address":"兵庫県淡路市斗ノ内386-1","latitude":34.532405853271484,"longitude":134.90452575683594,"category":"カフェ","big_category":"商業施設","description":"","image_url":"","tags":"Ver5.60(2025年2月)の追加建築","prefecture":"兵庫","contractor":"加藤兵吉商店","structural_designer":"","landscape_designer":"","shinkenchiku_url":""},{"id":14408,"title":"さくらい腎泌尿器科クリニック","architect":"川上真誠","year":2022.0,"address":"愛知県半田市有楽町6-163-4","latitude":34.87471008300781,"longitude":136.91915893554688,"category":"個人医院","big_category":"医療施設","description":"","image_url":"","tags":"Ver5.60(2025年2月)の追加建築","prefecture":"愛知","contractor":"沢田工務店","structural_designer":"ルート構造設計事務所","landscape_designer":"","shinkenchiku_url":""},{"id":14409,"title":"杖立温泉 中の橋ほっこり蒸し場","architect":"川嵜義彦","year":2018.0,"address":"熊本県阿蘇郡小国町下城3363-3","latitude":33.1834716796875,"longitude":131.033203125,"category":"公共施設","big_category":"公共施設","description":"蒸気を利用し、食材を自由に蒸すことができる無料の蒸し場","image_url":"","tags":"Ver5.60(2025年2月)の追加建築","prefecture":"熊本","contractor":"","structural_designer":"","landscape_designer":"","shinkenchiku_url":""},{"id":14410,"title":"北里柴三郎記念館","architect":"不明","year":1916.0,"address":"熊本県阿蘇郡小国町大字北里3199","latitude":33.1422004699707,"longitude":131.09046936035156,"category":"博物館/和風住宅","big_category":"ミュージアム,住宅","description":"1987年復元","image_url":"","tags":"Ver5.60(2025年2月)の追加建築","prefecture":"熊本","contractor":"","structural_designer":"","landscape_designer":"","shinkenchiku_url":""},{"id":14411,"title":"LUCE JARDIN","architect":"小山光","year":2025.0,"address":"東京都豊島区東池袋1-17-4","latitude":35.73176574707031,"longitude":139.71475219726562,"category":"オフィスビル","big_category":"企業施設","description":"","image_url":"","tags":"Ver5.60(2025年2月)の追加建築","prefecture":"東京","contractor":"","structural_designer":"","landscape_designer":"","shinkenchiku_url":""},{"id":14412,"title":"瀬戸内暮らしの大学","architect":"しわく堂","year":2022.0,"address":"香川県三豊市仁尾町仁尾辛35-3","latitude":34.19669723510742,"longitude":133.6459503173828,"category":"学校/専門学校","big_category":"教育,教育","description":"","image_url":"","tags":"Ver5.60(2025年2月)の追加建築","prefecture":"香川","contractor":"菅組","structural_designer":"","landscape_designer":"","shinkenchiku_url":""},{"id":14413,"title":"たかた内科医院","architect":"しわく堂","year":2024.0,"address":"香川県観音寺市坂本町4-1-5","latitude":34.12504196166992,"longitude":133.6652374267578,"category":"個人医院","big_category":"医療施設","description":"","image_url":"","tags":"Ver5.60(2025年2月)の追加建築","prefecture":"香川","contractor":"菅組","structural_designer":"","landscape_designer":"","shinkenchiku_url":""},{"id":14414,"title":"大学薬局さかもと","architect":"しわく堂","year":2024.0,"address":"香川県観音寺市坂本町4-1-6","latitude":34.125335693359375,"longitude":133.66461181640625,"category":"医療施設/店舗","big_category":"医療施設,商業施設","description":"","image_url":"","tags":"Ver5.60(2025年2月)の追加建築","prefecture":"香川","contractor":"建築屋","structural_designer":"","landscape_designer":"","shinkenchiku_url":""},{"id":14415,"title":"木らり","architect":"永冶祐太","year":2020.0,"address":"岐阜県多治見市小泉町5-136","latitude":35.34650421142578,"longitude":137.0904083251953,"category":"企業施設","big_category":"企業施設","description":"事務所からショールームへのコンバージョンプロジェクト","image_url":"","tags":"Ver5.60(2025年2月)の追加建築","prefecture":"岐阜","contractor":"","structural_designer":"","landscape_designer":"","shinkenchiku_url":""},{"id":14416,"title":"ひらざわ内科ハートクリニック","architect":"伊藤瑞貴","year":2019.0,"address":"福井県福井市西谷2-2113","latitude":36.03939437866211,"longitude":136.2027587890625,"category":"個人医院","big_category":"医療施設","description":"","image_url":"","tags":"Ver5.60(2025年2月)の追加建築","prefecture":"福井","contractor":"","structural_designer":"","landscape_designer":"","shinkenchiku_url":""},{"id":14417,"title":"八幡浜市道の駅みなっとトイレ棟","architect":"bUdアトリエ一級建築士事務所","year":2013.0,"address":"愛媛県八幡浜市桧谷1581-21","latitude":33.458229064941406,"longitude":132.4180145263672,"category":"トイレ/PA・道の駅","big_category":"公共施設,インフラ","description":"","image_url":"","tags":"Ver5.60(2025年2月)の追加建築","prefecture":"愛媛","contractor":"","structural_designer":"","landscape_designer":"","shinkenchiku_url":""},{"id":14418,"title":"東京学芸大学附属高等学校 旧青山師範学校","architect":"東京府営繕課","year":1935.0,"address":"東京都世田谷区下馬4-1-5","latitude":35.63453674316406,"longitude":139.67886352539062,"category":"学校","big_category":"教育","description":"","image_url":"","tags":"Ver5.60(2025年2月)の追加建築","prefecture":"東京","contractor":"上遠組","structural_designer":"","landscape_designer":"","shinkenchiku_url":""},{"id":14419,"title":"東京学芸大学附属高等学校講堂","architect":"不明","year":1936.0,"address":"東京都世田谷区下馬4-1-5","latitude":35.6342658996582,"longitude":139.6781005859375,"category":"学校/ホール・劇場","big_category":"教育,文化施設","description":"設計者は調べきれませんでしたが、学校と同様であれば東京府営繕課の設計と思われます","image_url":"","tags":"Ver5.60(2025年2月)の追加建築","prefecture":"東京","contractor":"","structural_designer":"","landscape_designer":"","shinkenchiku_url":""},{"id":14420,"title":"富沢西EBデンタルクリニック","architect":"千葉託巳","year":2019.0,"address":"宮城県仙台市太白区富沢西4-6-8","latitude":38.21261978149414,"longitude":140.8607635498047,"category":"個人医院","big_category":"医療施設","description":"","image_url":"","tags":"Ver5.60(2025年2月)の追加建築","prefecture":"宮城","contractor":"下館工務店","structural_designer":"","landscape_designer":"","shinkenchiku_url":""},{"id":14421,"title":"リタサウナ","architect":"千葉託巳","year":2024.0,"address":"宮城県仙台市泉区根白石上花輪32","latitude":38.34635543823242,"longitude":140.78086853027344,"category":"温泉/古民家","big_category":"宿泊,近代建築/遺産","description":"古民家を改修したサウナ","image_url":"","tags":"Ver5.60(2025年2月)の追加建築","prefecture":"宮城","contractor":"共栄ハウジング","structural_designer":"","landscape_designer":"","shinkenchiku_url":""},{"id":14422,"title":"コートハウスニシキチョウ","architect":"千葉託巳","year":2023.0,"address":"宮城県仙台市青葉区錦町1","latitude":38.26802062988281,"longitude":140.878173828125,"category":"集合住宅","big_category":"住宅","description":"","image_url":"","tags":"Ver5.60(2025年2月)の追加建築","prefecture":"宮城","contractor":"T-plan","structural_designer":"","landscape_designer":"","shinkenchiku_url":""},{"id":14423,"title":"熊谷美術館 熊谷家住宅","architect":"不明","year":1768.0,"address":"山口県萩市今魚店町47","latitude":34.4168586730957,"longitude":131.39598083496094,"category":"古民家/美術館","big_category":"近代建築/遺産,ミュージアム","description":"熊谷家は問屋と金融、仲買、製塩を業とし、萩藩御用達として栄えた豪商で、熊谷五右衛門が明和5年 (1768) に新築したものといわれる「熊谷家住宅」は、主屋・離れ・本蔵・宝蔵の4棟が国の重要文化財に指定されています。熊谷美術館は、昭和40年 (1965) 4月に、文化資料を保存及び公開することを目的として開館。萩藩の御用商人・熊谷家の蔵を改造した展示室に、熊谷家代々の当主が収集した美術品が展示されています。","image_url":"","tags":"重要文化財,Ver5.60(2025年2月)の追加建築","prefecture":"山口","contractor":"","structural_designer":"","landscape_designer":"","shinkenchiku_url":""},{"id":14424,"title":"上越新斎場","architect":"石本建築事務所","year":2024.0,"address":"新潟県上越市居多776","latitude":37.16508865356445,"longitude":138.21389770507812,"category":"斎場","big_category":"公共施設","description":"","image_url":"","tags":"Ver5.60(2025年2月)の追加建築","prefecture":"新潟","contractor":"","structural_designer":"","landscape_designer":"","shinkenchiku_url":""},{"id":14425,"title":"DAMDAM TOKYO 京都店","architect":"橋村雄一","year":2023.0,"address":"京都府京都市東山区祇園町北側289 林泉楽堂1階","latitude":35.00390625,"longitude":135.7769317626953,"category":"店舗","big_category":"商業施設","description":"","image_url":"","tags":"Ver5.60(2025年2月)の追加建築","prefecture":"京都","contractor":"","structural_designer":"","landscape_designer":"","shinkenchiku_url":""},{"id":14426,"title":"NOCHINO OPTICAL 南青山本店","architect":"橋村雄一","year":2023.0,"address":"東京都港区南青山6-2-2 南青山ホームズ 108A","latitude":35.66114807128906,"longitude":139.71531677246094,"category":"店舗","big_category":"商業施設","description":"","image_url":"","tags":"Ver5.60(2025年2月)の追加建築","prefecture":"東京","contractor":"","structural_designer":"","landscape_designer":"","shinkenchiku_url":""},{"id":14427,"title":"THE NORTH FACE Sphere","architect":"橋村雄一","year":2022.0,"address":"東京都渋谷区神宮前6-10-11","latitude":35.66749954223633,"longitude":139.70494079589844,"category":"店舗","big_category":"商業施設","description":"","image_url":"","tags":"Ver5.60(2025年2月)の追加建築","prefecture":"東京","contractor":"","structural_designer":"","landscape_designer":"","shinkenchiku_url":""},{"id":14428,"title":"h+BASE","architect":"伊藤瑞貴","year":2022.0,"address":"福井県福井市石盛町302","latitude":36.1178092956543,"longitude":136.22457885742188,"category":"店舗","big_category":"商業施設","description":"https://h-plus.biz/blog/1976/","image_url":"","tags":"Ver5.60(2025年2月)の追加建築","prefecture":"福井","contractor":"","structural_designer":"","landscape_designer":"","shinkenchiku_url":""},{"id":14429,"title":"宮坂区民センター","architect":"野沢正光","year":1990.0,"address":"東京都世田谷区宮坂1-24-6","latitude":35.647850036621094,"longitude":139.64476013183594,"category":"体育館/福祉センター","big_category":"レジャー施設,医療施設","description":"","image_url":"","tags":"Ver5.60(2025年2月)の追加建築","prefecture":"東京","contractor":"","structural_designer":"","landscape_designer":"","shinkenchiku_url":""},{"id":14430,"title":"国立学園80周年記念体育館","architect":"川﨑建築計画事務所","year":2006.0,"address":"東京都国立市中2-6-6","latitude":35.694618225097656,"longitude":139.4398193359375,"category":"体育館/学校","big_category":"レジャー施設,教育","description":"","image_url":"","tags":"Ver5.60(2025年2月)の追加建築","prefecture":"東京","contractor":"鹿島建設","structural_designer":"稲見構造設計事務所","landscape_designer":"","shinkenchiku_url":""},{"id":14431,"title":"Numata (DESIGN+ART) Museum","architect":"不明","year":2024.0,"address":"宮城県柴田郡川崎町今宿向古関184-5","latitude":38.20182800292969,"longitude":140.5830841064453,"category":"美術館/博物館","big_category":"ミュージアム,ミュージアム","description":"月・火・木はアポイント制（要メール予約）。金・土・日は10～17時開館。時代・国を問わずデザイン性が高いと感じるプロダクトを展示","image_url":"","tags":"Ver5.60(2025年2月)の追加建築","prefecture":"宮城","contractor":"","structural_designer":"","landscape_designer":"","shinkenchiku_url":""},{"id":14432,"title":"さわやか矯正歯科クリニック","architect":"伊藤瑞貴","year":2012.0,"address":"福井県福井市新田塚町302","latitude":36.08821487426758,"longitude":136.2136688232422,"category":"個人医院","big_category":"医療施設","description":"","image_url":"","tags":"Ver5.60(2025年2月)の追加建築","prefecture":"福井","contractor":"","structural_designer":"","landscape_designer":"","shinkenchiku_url":""},{"id":14433,"title":"青木医院","architect":"伊藤瑞貴","year":2022.0,"address":"静岡県駿東郡長泉町下長窪568-1","latitude":35.14254379272461,"longitude":138.8909454345703,"category":"個人医院","big_category":"医療施設","description":"","image_url":"","tags":"Ver5.60(2025年2月)の追加建築","prefecture":"静岡","contractor":"","structural_designer":"","landscape_designer":"","shinkenchiku_url":""},{"id":14434,"title":"聖台病院 東病棟","architect":"藤本壮介","year":1999.0,"address":"北海道上川郡東神楽町町東1線1線","latitude":43.71919631958008,"longitude":142.4015350341797,"category":"病院","big_category":"医療施設","description":"","image_url":"","tags":"Ver5.60(2025年2月)の追加建築","prefecture":"北海道","contractor":"","structural_designer":"","landscape_designer":"","shinkenchiku_url":""},{"id":14435,"title":"立華学苑","architect":"石嶋寿和","year":2022.0,"address":"東京都台東区谷中5-4-19","latitude":35.72494125366211,"longitude":139.76644897460938,"category":"幼稚園","big_category":"教育","description":"","image_url":"","tags":"Ver5.60(2025年2月)の追加建築","prefecture":"東京","contractor":"","structural_designer":"","landscape_designer":"","shinkenchiku_url":""},{"id":14436,"title":"ラフ・クルー烏山保育園","architect":"石嶋寿和","year":2020.0,"address":"東京都世田谷区南烏山6-37-4","latitude":35.671531677246094,"longitude":139.59922790527344,"category":"幼稚園","big_category":"教育","description":"","image_url":"","tags":"Ver5.60(2025年2月)の追加建築","prefecture":"東京","contractor":"","structural_designer":"","landscape_designer":"","shinkenchiku_url":""},{"id":14437,"title":"グローバルキッズ松陰神社駅前保育園","architect":"石嶋寿和","year":2022.0,"address":"東京都世田谷区若林3-16-13","latitude":35.64338684082031,"longitude":139.65573120117188,"category":"幼稚園","big_category":"教育","description":"","image_url":"","tags":"Ver5.60(2025年2月)の追加建築","prefecture":"東京","contractor":"","structural_designer":"","landscape_designer":"","shinkenchiku_url":""},{"id":14438,"title":"大日向中学校","architect":"石嶋寿和","year":2022.0,"address":"長野県南佐久郡佐久穂町大日向1110","latitude":36.14327621459961,"longitude":138.54872131347656,"category":"幼稚園","big_category":"教育","description":"","image_url":"","tags":"Ver5.60(2025年2月)の追加建築","prefecture":"長野","contractor":"","structural_designer":"","landscape_designer":"","shinkenchiku_url":""},{"id":14439,"title":"ひなた保育園つくばみらい","architect":"石嶋寿和","year":2018.0,"address":"茨城県つくばみらい市板橋1813-1","latitude":35.979522705078125,"longitude":140.0496826171875,"category":"幼稚園","big_category":"教育","description":"","image_url":"","tags":"Ver5.60(2025年2月)の追加建築","prefecture":"茨城","contractor":"","structural_designer":"","landscape_designer":"","shinkenchiku_url":""},{"id":14440,"title":"わらべ保育園","architect":"石嶋寿和","year":2017.0,"address":"神奈川県大和市下鶴間413-6","latitude":35.514442443847656,"longitude":139.46078491210938,"category":"幼稚園","big_category":"教育","description":"","image_url":"","tags":"Ver5.60(2025年2月)の追加建築","prefecture":"神奈川","contractor":"","structural_designer":"","landscape_designer":"","shinkenchiku_url":""},{"id":14441,"title":"あいわ保育園","architect":"石嶋寿和","year":2018.0,"address":"茨城県結城市鹿窪1744-11","latitude":36.27577209472656,"longitude":139.85902404785156,"category":"幼稚園","big_category":"教育","description":"","image_url":"","tags":"Ver5.60(2025年2月)の追加建築","prefecture":"茨城","contractor":"","structural_designer":"","landscape_designer":"","shinkenchiku_url":""},{"id":14442,"title":"すくすくの杜 あびこ園","architect":"石嶋寿和","year":2017.0,"address":"大阪府大阪市住吉区我孫子4-9-12","latitude":34.597251892089844,"longitude":135.5095672607422,"category":"幼稚園","big_category":"教育","description":"","image_url":"","tags":"Ver5.60(2025年2月)の追加建築","prefecture":"大阪","contractor":"","structural_designer":"","landscape_designer":"","shinkenchiku_url":""},{"id":14443,"title":"グローバルキッズ狛江園","architect":"石嶋寿和","year":2017.0,"address":"東京都狛江市中和泉3-19-14","latitude":35.635414123535156,"longitude":139.56723022460938,"category":"幼稚園","big_category":"教育","description":"","image_url":"","tags":"Ver5.60(2025年2月)の追加建築","prefecture":"東京","contractor":"","structural_designer":"","landscape_designer":"","shinkenchiku_url":""},{"id":14444,"title":"グローバルキッズあざみ野園","architect":"石嶋寿和","year":2014.0,"address":"神奈川県横浜市青葉区新石川1-2-10","latitude":35.565574645996094,"longitude":139.55545043945312,"category":"幼稚園","big_category":"教育","description":"","image_url":"","tags":"Ver5.60(2025年2月)の追加建築","prefecture":"神奈川","contractor":"","structural_designer":"","landscape_designer":"","shinkenchiku_url":""},{"id":14445,"title":"すくすくの杜 戎本町園","architect":"石嶋寿和","year":2015.0,"address":"大阪府大阪市浪速区戎本町2-6-26","latitude":34.652618408203125,"longitude":135.50039672851562,"category":"幼稚園","big_category":"教育","description":"","image_url":"","tags":"Ver5.60(2025年2月)の追加建築","prefecture":"大阪","contractor":"","structural_designer":"","landscape_designer":"","shinkenchiku_url":""},{"id":14446,"title":"グローバルキッズ柳沢園","architect":"石嶋寿和","year":2013.0,"address":"東京都西東京市保谷町3-24-25","latitude":35.72941970825195,"longitude":139.55148315429688,"category":"幼稚園","big_category":"教育","description":"","image_url":"","tags":"Ver5.60(2025年2月)の追加建築","prefecture":"東京","contractor":"","structural_designer":"","landscape_designer":"","shinkenchiku_url":""},{"id":14447,"title":"メディック中村橋","architect":"石嶋寿和","year":2024.0,"address":"東京都練馬区中村北4-19-13","latitude":35.73527908325195,"longitude":139.6358642578125,"category":"テナントビル/個人医院","big_category":"商業施設,医療施設","description":"","image_url":"","tags":"Ver5.60(2025年2月)の追加建築","prefecture":"東京","contractor":"","structural_designer":"","landscape_designer":"","shinkenchiku_url":""},{"id":14448,"title":"モニカ矢口渡園","architect":"石嶋寿和","year":2021.0,"address":"東京都大田区新蒲田2-10-5","latitude":35.5610466003418,"longitude":139.70408630371094,"category":"幼稚園","big_category":"教育","description":"","image_url":"","tags":"Ver5.60(2025年2月)の追加建築","prefecture":"東京","contractor":"","structural_designer":"","landscape_designer":"","shinkenchiku_url":""},{"id":14449,"title":"NIPPONIA秩父 門前町 KOIKE・MIYATANI棟 旧小池煙草店","architect":"不明","year":1934.0,"address":"埼玉県秩父市番場町17-10","latitude":35.99430465698242,"longitude":139.0838623046875,"category":"ホテル/カフェ/洋館","big_category":"宿泊,商業施設,近代建築/遺産","description":"登録有形文化財","image_url":"","tags":"Ver5.60(2025年2月)の追加建築","prefecture":"埼玉","contractor":"","structural_designer":"","landscape_designer":"","shinkenchiku_url":""},{"id":14450,"title":"北向きに建つ保育園 彩の調保育園南浦和 空","architect":"ツバメアーキテクツ","year":2024.0,"address":"埼玉県さいたま市南区南本町1-11-19","latitude":35.84495162963867,"longitude":139.66775512695312,"category":"幼稚園","big_category":"教育","description":"","image_url":"","tags":"Ver5.60(2025年2月)の追加建築","prefecture":"埼玉","contractor":"山崎工務店","structural_designer":"木下洋介構造計画","landscape_designer":"en景観設計","shinkenchiku_url":""}]}