{"page":184,"total_pages":290,"items_per_page":50,"total_items":14467,"items":[{"id":9151,"title":"いでた平成眼科クリニック","architect":"松山将勝","year":2019.0,"address":"熊本県熊本市南区馬渡1-14-25","latitude":32.77516174316406,"longitude":130.7070770263672,"category":"個人医院","description":"","image_url":""},{"id":9152,"title":"高橋眼科","architect":"松山将勝","year":2018.0,"address":"福岡県太宰府市大佐野3-1","latitude":33.501312255859375,"longitude":130.49566650390625,"category":"個人医院","description":"","image_url":""},{"id":9153,"title":"ゆいレディースクリニック","architect":"松山将勝","year":2018.0,"address":"福岡県糟屋郡粕屋町原町5-12-1","latitude":33.616085052490234,"longitude":130.4665985107422,"category":"個人医院","description":"","image_url":""},{"id":9154,"title":"笠岡眼科","architect":"松山将勝","year":2018.0,"address":"熊本県熊本市北区武蔵ケ丘4-17-17","latitude":32.85578918457031,"longitude":130.77047729492188,"category":"個人医院","description":"","image_url":""},{"id":9155,"title":"鶴丸眼科","architect":"松山将勝","year":2018.0,"address":"福岡県筑後市大字前津60-1","latitude":33.21504592895508,"longitude":130.51905822753906,"category":"個人医院","description":"","image_url":""},{"id":9156,"title":"いちみや皮フ科クリニック","architect":"松山将勝","year":2017.0,"address":"大分県大分市六坊北町5-42","latitude":33.228328704833984,"longitude":131.61837768554688,"category":"個人医院","description":"","image_url":""},{"id":9157,"title":"弥田内科","architect":"松山将勝","year":2017.0,"address":"愛知県豊川市御津町大草西郷31-1","latitude":34.81352615356445,"longitude":137.301025390625,"category":"個人医院","description":"","image_url":""},{"id":9158,"title":"平井医院","architect":"松山将勝","year":2017.0,"address":"福岡県筑後市大字和泉382","latitude":33.20764923095703,"longitude":130.49557495117188,"category":"個人医院","description":"","image_url":""},{"id":9159,"title":"ウイメンズクリニックグリーンヒル","architect":"松山将勝","year":2007.0,"address":"熊本県熊本市東区戸島西3-1","latitude":32.81337356567383,"longitude":130.78224182128906,"category":"個人医院","description":"","image_url":""},{"id":9160,"title":"にしむら歯科医院","architect":"松山将勝","year":2006.0,"address":"宮崎県宮崎市大字跡江3344-1","latitude":31.931650161743164,"longitude":131.37942504882812,"category":"個人医院","description":"","image_url":""},{"id":9161,"title":"高尾デンタルクリニック","architect":"松山将勝","year":2009.0,"address":"福岡県小郡市寺福童287-1","latitude":33.381935119628906,"longitude":130.55006408691406,"category":"個人医院","description":"","image_url":""},{"id":9162,"title":"たねだひ尿器科クリニック","architect":"松山将勝","year":2010.0,"address":"鹿児島県鹿児島市長田町18-11","latitude":31.60444450378418,"longitude":130.55538940429688,"category":"個人医院","description":"","image_url":""},{"id":9163,"title":"まりふ歯科クリニック","architect":"松山将勝","year":2011.0,"address":"鹿児島県霧島市国分新町1163-4","latitude":31.74635124206543,"longitude":130.7626190185547,"category":"個人医院","description":"","image_url":""},{"id":9164,"title":"朝日新聞 奄美支局","architect":"松山将勝","year":2008.0,"address":"鹿児島県奄美市名瀬小浜町20-6","latitude":28.381698608398438,"longitude":129.50006103515625,"category":"低層オフィス","description":"","image_url":""},{"id":9165,"title":"奄美きょら海工房パン屋 朝日通店","architect":"松山将勝","year":2011.0,"address":"鹿児島県奄美市名瀬末広町5-3","latitude":28.379196166992188,"longitude":129.49618530273438,"category":"店舗","description":"","image_url":""},{"id":9166,"title":"奄美きょら海工房 笠利店","architect":"松山将勝","year":2009.0,"address":"鹿児島県奄美市笠利町大字用安1254-1","latitude":28.403589248657227,"longitude":129.6460418701172,"category":"店舗","description":"","image_url":""},{"id":9167,"title":"奈良文化財研究所","architect":"日本設計","year":2018.0,"address":"奈良県奈良市二条町2-9-1","latitude":34.69166564941406,"longitude":135.78831481933594,"category":"研究施設","description":"","image_url":""},{"id":9168,"title":"ソラリア西鉄ホテル京都プレミア","architect":"日建設計","year":2017.0,"address":"京都府京都市中京区三条上る上大阪町509","latitude":35.010562896728516,"longitude":135.77076721191406,"category":"ホテル","description":"","image_url":""},{"id":9169,"title":"日本リーテック 総合研修センター","architect":"日建設計","year":2018.0,"address":"茨城県取手市ゆめみ野4-2-1","latitude":35.924686431884766,"longitude":140.03964233398438,"category":"研修施設","description":"","image_url":""},{"id":9170,"title":"酒田市斎場","architect":"針生承一","year":2018.0,"address":"山形県酒田市浜中字八間山1897","latitude":38.85978317260742,"longitude":139.797607421875,"category":"斎場","description":"","image_url":""},{"id":9171,"title":"北見市立留辺蘂小学校","architect":"日建設計","year":2018.0,"address":"北海道北見市留辺蘂町栄町18","latitude":43.78487014770508,"longitude":143.60850524902344,"category":"学校","description":"","image_url":""},{"id":9172,"title":"岡崎信用金庫 城下町支店","architect":"日建設計","year":2016.0,"address":"愛知県岡崎市上六名2-8-8","latitude":34.950767517089844,"longitude":137.1546630859375,"category":"金融機関","description":"","image_url":""},{"id":9173,"title":"瑞浪北中学校","architect":"日建設計","year":2018.0,"address":"岐阜県瑞浪市土岐町973","latitude":35.37544631958008,"longitude":137.25254821777344,"category":"学校","description":"","image_url":""},{"id":9174,"title":"和歌山地方合同庁舎","architect":"日建設計","year":2018.0,"address":"和歌山県和歌山市二番丁3","latitude":34.22785568237305,"longitude":135.1758270263672,"category":"庁舎","description":"","image_url":""},{"id":9175,"title":"アマダ記念会館","architect":"竹中工務店","year":2018.0,"address":"神奈川県伊勢原市石田200","latitude":35.4183464050293,"longitude":139.33853149414062,"category":"博物館/企業施設","description":"","image_url":""},{"id":9176,"title":"新潟の集合住宅III ザ・パーク一番堀","architect":"細海拓也","year":2018.0,"address":"新潟県新潟市中央区東堀前通1番町343","latitude":37.9151611328125,"longitude":139.04104614257812,"category":"集合住宅","description":"","image_url":""},{"id":9177,"title":"成田山水上寺 みなかみペット霊園","architect":"伊藤昭博","year":2019.0,"address":"群馬県利根郡みなかみ町湯原340","latitude":36.77381134033203,"longitude":138.96334838867188,"category":"霊園","description":"","image_url":""},{"id":9178,"title":"茶屋 見城亭","architect":"隈研吾","year":2019.0,"address":"石川県金沢市兼六町1-19","latitude":36.564208984375,"longitude":136.66204833984375,"category":"カフェ","description":"","image_url":""},{"id":9179,"title":"深江竹友寮","architect":"竹中工務店","year":2019.0,"address":"兵庫県神戸市東灘区深江北町2-10-12","latitude":34.72565841674805,"longitude":135.2939910888672,"category":"寮","description":"","image_url":""},{"id":9180,"title":"三組坂flat","architect":"伊藤博之","year":2019.0,"address":"東京都文京区湯島3-12-10","latitude":35.7047004699707,"longitude":139.76869201660156,"category":"集合住宅","description":"","image_url":""},{"id":9181,"title":"はつせ三田","architect":"ihrmk","year":2019.0,"address":"東京都港区三田5-10-2","latitude":35.6462287902832,"longitude":139.7383270263672,"category":"集合住宅","description":"","image_url":""},{"id":9182,"title":"向丘・旬創館","architect":"下吹越武人","year":2019.0,"address":"東京都文京区向丘1-5-14","latitude":35.7181282043457,"longitude":139.7559356689453,"category":"集合住宅","description":"","image_url":""},{"id":9183,"title":"関町東の集合住宅 KOMORE Bldg.","architect":"野沢正光","year":2019.0,"address":"東京都練馬区関町東1-16-1","latitude":35.72560501098633,"longitude":139.5829315185547,"category":"集合住宅","description":"","image_url":""},{"id":9184,"title":"Layer","architect":"駒田建築設計事務所","year":2018.0,"address":"東京都豊島区巣鴨5-41-17","latitude":35.740379333496094,"longitude":139.73475646972656,"category":"集合住宅","description":"","image_url":""},{"id":9185,"title":"御成ふくろ小路","architect":"河野有悟","year":2018.0,"address":"神奈川県鎌倉市御成町5-16","latitude":35.316280364990234,"longitude":139.54934692382812,"category":"集合住宅/住宅/ギャラリー","description":"","image_url":""},{"id":9186,"title":"江古田の杜プロジェクト プライムメゾン江古田の杜","architect":"坂倉建築研究所","year":2018.0,"address":"東京都中野区江古田3-14-13","latitude":35.7281494140625,"longitude":139.66741943359375,"category":"集合住宅","description":"","image_url":""},{"id":9187,"title":"江古田の杜プロジェクト グランドメゾン江古田の杜","architect":"長谷工コーポレーション","year":2018.0,"address":"東京都中野区江古田3-14-13","latitude":35.728599548339844,"longitude":139.6654052734375,"category":"集合住宅","description":"","image_url":""},{"id":9188,"title":"甲佐地区住まいの復興拠点施設 災害公営住宅・防災公園","architect":"岡野道子+ビルディングランドスケープ+ライト設計","year":2019.0,"address":"熊本県上益城郡甲佐町大字豊内719","latitude":32.65046691894531,"longitude":130.81234741210938,"category":"住宅/公園/都市計画","description":"","image_url":""},{"id":9189,"title":"甲佐地区子育て支援住宅 ヴェルデ甲佐","architect":"岡野道子+ビルディングランドスケープ+ライト設計","year":2019.0,"address":"熊本県上益城郡甲佐町大字豊内719","latitude":32.65126037597656,"longitude":130.8124542236328,"category":"集合住宅","description":"","image_url":""},{"id":9190,"title":"甲佐地区住まいの復興拠点施設 みんなの家","architect":"岡野道子+ビルディングランドスケープ+ライト設計","year":2019.0,"address":"熊本県上益城郡甲佐町大字豊内719","latitude":32.65085983276367,"longitude":130.81253051757812,"category":"公民館・交流施設","description":"","image_url":""},{"id":9191,"title":"あざみ野のみんなの公園","architect":"岡野道子","year":2019.0,"address":"神奈川県横浜市青葉区大場町704-60","latitude":35.57144546508789,"longitude":139.53634643554688,"category":"公園","description":"","image_url":""},{"id":9192,"title":"神門通りおもてなしステーション","architect":"ビルディングランドスケープ","year":2012.0,"address":"島根県出雲市大社町杵築南780-4","latitude":35.39480972290039,"longitude":132.68682861328125,"category":"観光施設","description":"","image_url":""},{"id":9193,"title":"桃源村","architect":"江角俊則","year":2010.0,"address":"島根県出雲市矢野町920-1","latitude":35.380531311035156,"longitude":132.7399444580078,"category":"モール/店舗","description":"","image_url":""},{"id":9194,"title":"カプリコーヒービーンズ","architect":"江角俊則","year":2015.0,"address":"鳥取県鳥取市上町76","latitude":35.49815368652344,"longitude":134.241455078125,"category":"カフェ","description":"","image_url":""},{"id":9195,"title":"甲佐町営白旗団地災害公営住宅","architect":"シーラカンスK&H","year":2018.0,"address":"熊本県上益城郡甲佐町大字芝原950","latitude":32.712276458740234,"longitude":130.77590942382812,"category":"住宅/都市計画","description":"","image_url":""},{"id":9196,"title":"甲佐町営乙女団地災害公営住宅","architect":"シーラカンスK&H","year":2019.0,"address":"熊本県上益城郡甲佐町大字田口4263","latitude":32.69623565673828,"longitude":130.76295471191406,"category":"住宅/都市計画","description":"","image_url":""},{"id":9197,"title":"宇城市豊野町響原復興住宅・みんなの家","architect":"シーラカンスK&H","year":2019.0,"address":"熊本県宇城市豊野町糸石2510-1","latitude":32.63231658935547,"longitude":130.754638671875,"category":"住宅/都市計画","description":"","image_url":""},{"id":9198,"title":"宇土市営境目団地災害公営住宅","architect":"内田文雄+西山英夫","year":2018.0,"address":"熊本県宇土市境目町字帆立町521-1","latitude":32.675140380859375,"longitude":130.67337036132812,"category":"住宅/都市計画","description":"","image_url":""},{"id":9199,"title":"南阿蘇村災害公営住宅 馬立団地","architect":"FONS","year":2019.0,"address":"熊本県阿蘇郡南阿蘇村大字立野","latitude":32.877681732177734,"longitude":130.9779815673828,"category":"住宅/都市計画","description":"FONSの内訳は大谷一翔建築設計事務所、堺武治建築事務所、坂本達哉建築設計事務所、SPACELAB一級建築士事務所（佐藤健治）、長野聖二建築設計、深水建築設計事務所（深水智章）、フジモトミユキ設計室","image_url":""},{"id":9200,"title":"嘉島町上六嘉のみんなの家","architect":"千葉学","year":2019.0,"address":"熊本県上益城郡嘉島町大字上六嘉2445-2","latitude":32.74275207519531,"longitude":130.7711944580078,"category":"公民館・交流施設","description":"","image_url":""}]}