{"page":19,"total_pages":290,"items_per_page":50,"total_items":14467,"items":[{"id":901,"title":"旧小笠原伯爵邸","architect":"曽禰達蔵+中條精一郎","year":1927.0,"address":"東京都新宿区河田町10-10","latitude":35.69832992553711,"longitude":139.71751403808594,"category":"洋館/レストラン","description":"","image_url":""},{"id":902,"title":"龍生会館","architect":"西川驍","year":1966.0,"address":"東京都新宿区市谷田町3-19","latitude":35.697227478027344,"longitude":139.7392578125,"category":"企業施設","description":"2010年末頃に取り壊された","image_url":""},{"id":903,"title":"NTT東日本 新宿本社ビル","architect":"シーザー・ペリ+山下設計","year":1995.0,"address":"東京都新宿区西新宿3-19-2","latitude":35.68349838256836,"longitude":139.68801879882812,"category":"オフィスビル","description":"","image_url":""},{"id":904,"title":"日本基督教団 信濃町教会","architect":"内井昭蔵","year":2004.0,"address":"東京都新宿区信濃町30","latitude":35.68210983276367,"longitude":139.71995544433594,"category":"教会","description":"","image_url":""},{"id":905,"title":"SIA青山ビルディング","architect":"青木淳","year":2008.0,"address":"東京都渋谷区渋谷1-3-3","latitude":35.66202163696289,"longitude":139.706298828125,"category":"オフィスビル","description":"","image_url":""},{"id":906,"title":"新島ガラスアートセンター","architect":"團紀彦","year":1991.0,"address":"東京都新島村アザセトヤマ−122","latitude":34.36073684692383,"longitude":139.2456817626953,"category":"美術館","description":"","image_url":""},{"id":907,"title":"東京女子大学","architect":"アントニン・レーモンド","year":1924.0,"address":"東京都杉並区善福寺2-6-1","latitude":35.71080017089844,"longitude":139.59033203125,"category":"大学/教会","description":"本館・講堂・礼拝堂・外国人教師館・ライシャワー館・安田記念館","image_url":""},{"id":908,"title":"パークコート杉並宮前","architect":"早川邦彦","year":1996.0,"address":"東京都杉並区宮前2-13-9","latitude":35.69453430175781,"longitude":139.6112823486328,"category":"集合住宅","description":"","image_url":""},{"id":909,"title":"児童青少年センター ゆう杉並","architect":"六角鬼丈","year":1997.0,"address":"東京都杉並区荻窪1-56-3","latitude":35.69456481933594,"longitude":139.62744140625,"category":"児童施設","description":"","image_url":""},{"id":910,"title":"浴風会本館","architect":"内田祥三+土岐達人","year":1926.0,"address":"東京都杉並区高井戸西1-12-1","latitude":35.68124771118164,"longitude":139.60946655273438,"category":"医療施設","description":"","image_url":""},{"id":911,"title":"杉並区立杉並芸術会館 座・高円寺","architect":"伊東豊雄","year":2009.0,"address":"東京都杉並区高円寺北2-1-2","latitude":35.705902099609375,"longitude":139.6540069580078,"category":"ホール・劇場","description":"","image_url":"https://lh3.googleusercontent.com/-uCoJqC-YVZk/T22rC47H_RI/AAAAAAAAJks/yia0MyRO9Is/s1024/P3176428.JPG"},{"id":912,"title":"賀川豊彦記念 松沢資料館","architect":"阿部勤","year":1982.0,"address":"東京都世田谷区上北沢3-8-19","latitude":35.66777038574219,"longitude":139.6258544921875,"category":"博物館","description":"","image_url":""},{"id":913,"title":"成城タウンハウス ガーデンコート成城 UNITED CUBES","architect":"妹島和世","year":2007.0,"address":"東京都世田谷区成城5-25-19","latitude":35.64454650878906,"longitude":139.59390258789062,"category":"集合住宅","description":"","image_url":""},{"id":914,"title":"東京聖十字教会","architect":"アントニン・レーモンド","year":1961.0,"address":"東京都世田谷区若林4-18-8","latitude":35.64485168457031,"longitude":139.65672302246094,"category":"教会","description":"","image_url":""},{"id":915,"title":"成城五丁目猪股庭園 旧猪股邸","architect":"吉田五十八","year":1967.0,"address":"東京都世田谷区成城5-12-19","latitude":35.64208221435547,"longitude":139.5947265625,"category":"和風住宅/住宅","description":"","image_url":""},{"id":916,"title":"カトリック成城教会","architect":"今井兼次","year":1955.0,"address":"東京都世田谷区成城2-21-16","latitude":35.638423919677734,"longitude":139.59988403320312,"category":"教会","description":"","image_url":""},{"id":917,"title":"世田谷区立下馬南地区会館","architect":"新居千秋","year":1993.0,"address":"東京都世田谷区下馬6-41-6","latitude":35.632293701171875,"longitude":139.67901611328125,"category":"公民館・交流施設","description":"","image_url":""},{"id":918,"title":"東京マザーズクリニック","architect":"伊東豊雄","year":2011.0,"address":"東京都世田谷区上用賀4-5-1","latitude":35.633602142333984,"longitude":139.62850952148438,"category":"個人医院","description":"","image_url":""},{"id":919,"title":"ケヤキアパートメント","architect":"吉富興産","year":2010.0,"address":"東京都世田谷区用賀2-11-10","latitude":35.629554748535156,"longitude":139.6392822265625,"category":"集合住宅","description":"","image_url":""},{"id":920,"title":"駒沢オリンピック公園 総合運動場体育館・オリンピック記念塔","architect":"芦原義信","year":1964.0,"address":"東京都世田谷区駒沢公園1-1","latitude":35.62484359741211,"longitude":139.66078186035156,"category":"スポーツ施設/スタジアム","description":"","image_url":""},{"id":921,"title":"静嘉堂文庫美術館","architect":"桜井小太郎","year":1924.0,"address":"東京都世田谷区岡本2-23-1","latitude":35.622379302978516,"longitude":139.61927795410156,"category":"美術館","description":"","image_url":""},{"id":922,"title":"東急大井町線 上野毛駅","architect":"安藤忠雄","year":2011.0,"address":"東京都世田谷区上野毛1-26-6","latitude":35.61184310913086,"longitude":139.63912963867188,"category":"駅","description":"","image_url":""},{"id":923,"title":"GRAZ","architect":"中村拓志","year":2013.0,"address":"東京都世田谷区等々力2-36-6","latitude":35.605628967285156,"longitude":139.64654541015625,"category":"モール/店舗","description":"","image_url":""},{"id":924,"title":"千歳温水プール","architect":"早川邦彦","year":1999.0,"address":"東京都世田谷区船橋7-9-1","latitude":35.65913772583008,"longitude":139.616455078125,"category":"プール","description":"","image_url":""},{"id":925,"title":"世田谷区立知的障害者就労支援センター 「すきっぷ」","architect":"高谷時彦","year":1997.0,"address":"東京都世田谷区船橋5-33-1","latitude":35.65742874145508,"longitude":139.62539672851562,"category":"公共施設","description":"","image_url":""},{"id":926,"title":"TRIO","architect":"千葉学","year":2003.0,"address":"東京都世田谷区代田3-15-4","latitude":35.65394973754883,"longitude":139.6551055908203,"category":"集合住宅","description":"","image_url":""},{"id":927,"title":"齋田記念館","architect":"渡辺明","year":1997.0,"address":"東京都世田谷区代田3-23-35","latitude":35.65342712402344,"longitude":139.66000366210938,"category":"博物館","description":"","image_url":""},{"id":928,"title":"東京農業大学 食と農の博物館","architect":"隈研吾","year":2004.0,"address":"東京都世田谷区上用賀2-4-28","latitude":35.63896942138672,"longitude":139.63168334960938,"category":"博物館","description":"","image_url":""},{"id":929,"title":"旧レストラン パスティーナ","architect":"伊東豊雄","year":1989.0,"address":"東京都世田谷区砧1-9-10","latitude":35.63528060913086,"longitude":139.6170654296875,"category":"店舗","description":"","image_url":""},{"id":930,"title":"村井正誠記念美術館","architect":"隈研吾","year":2004.0,"address":"東京都世田谷区中町1-6-12","latitude":35.608211517333984,"longitude":139.64505004882812,"category":"美術館","description":"要予約","image_url":""},{"id":931,"title":"玉川高島屋S・C ファサード／マロニエコート","architect":"隈研吾","year":2009.0,"address":"東京都世田谷区玉川3-17-1","latitude":35.61466979980469,"longitude":139.62716674804688,"category":"モール","description":"","image_url":""},{"id":932,"title":"世田谷美術館","architect":"内井昭蔵","year":1985.0,"address":"東京都世田谷区砧公園1-2","latitude":35.631507873535156,"longitude":139.62188720703125,"category":"美術館","description":"","image_url":""},{"id":933,"title":"旧小坂家住宅","architect":"不明","year":null,"address":"東京都世田谷区瀬田4-41-21","latitude":35.62168502807617,"longitude":139.6233367919922,"category":"和風住宅","description":"","image_url":""},{"id":934,"title":"五島美術館","architect":"吉田五十八","year":1960.0,"address":"東京都世田谷区上野毛3-9-25","latitude":35.61225128173828,"longitude":139.6356658935547,"category":"美術館","description":"改修のデザイン監修に堀越英嗣","image_url":""},{"id":935,"title":"清瀬けやきホール","architect":"青木茂","year":2010.0,"address":"東京都清瀬市元町1-6-6","latitude":35.774688720703125,"longitude":139.5195770263672,"category":"ホール・劇場","description":"","image_url":""},{"id":936,"title":"多摩六都科学館","architect":"仙田満","year":1993.0,"address":"東京都西東京市芝久保町5-10-64","latitude":35.73447036743164,"longitude":139.5230255126953,"category":"博物館","description":"","image_url":""},{"id":937,"title":"玉堂美術館","architect":"吉田五十八","year":1961.0,"address":"東京都青梅市御岳1-75-1","latitude":35.80007553100586,"longitude":139.18409729003906,"category":"美術館","description":"","image_url":""},{"id":938,"title":"ニコライ堂","architect":"ミハイル・シチュールポフ+ジョサイア・コンドル","year":1891.0,"address":"東京都千代田区神田駿河台4-1-3","latitude":35.69806671142578,"longitude":139.76547241210938,"category":"教会","description":"","image_url":""},{"id":939,"title":"聖イグナチオ教会","architect":"坂倉建築研究所","year":1999.0,"address":"東京都千代田区麹町6-5-1","latitude":35.684940338134766,"longitude":139.73130798339844,"category":"教会","description":"","image_url":""},{"id":940,"title":"最高裁判所","architect":"岡田新一","year":1974.0,"address":"東京都千代田区隼町4-2","latitude":35.68050003051758,"longitude":139.7435760498047,"category":"公共施設","description":"","image_url":""},{"id":941,"title":"明治生命館 明治生命保険相互会社本社本館","architect":"岡田信一郎+岡田捷五郎","year":1934.0,"address":"東京都千代田区丸の内2-1-1","latitude":35.6790771484375,"longitude":139.76170349121094,"category":"洋館","description":"毎週土・日曜日のみ公開","image_url":""},{"id":942,"title":"国会議事堂","architect":"矢橋賢吉+大熊喜邦+吉武東里","year":1936.0,"address":"東京都千代田区永田町1-7-1","latitude":35.6758918762207,"longitude":139.744873046875,"category":"公共施設","description":"平日のみ","image_url":""},{"id":943,"title":"法務省旧本館","architect":"ヘルマン・エンデ+ヴィルヘルム・ベックマン","year":1895.0,"address":"東京都千代田区霞が関1-1-1","latitude":35.67565155029297,"longitude":139.75442504882812,"category":"洋館","description":"","image_url":""},{"id":944,"title":"皇居 新御所","architect":"内井昭蔵","year":1993.0,"address":"東京都千代田区千代田1-1","latitude":35.68421936035156,"longitude":139.7481689453125,"category":"公共施設","description":"","image_url":""},{"id":945,"title":"皇居 新宮殿","architect":"吉村順三","year":1963.0,"address":"東京都千代田区千代田1-1","latitude":35.68218994140625,"longitude":139.7534942626953,"category":"公共施設","description":"2014年より年2回一般公開","image_url":""},{"id":946,"title":"アテネ・フランセ","architect":"吉阪隆正","year":1962.0,"address":"東京都千代田区神田駿河台2-11","latitude":35.700714111328125,"longitude":139.75839233398438,"category":"学校","description":"","image_url":""},{"id":947,"title":"コイズミライティングシアター","architect":"北山孝二郎+ピーター・アイゼンマン","year":1990.0,"address":"東京都千代田区神田佐久間町3-12","latitude":35.697418212890625,"longitude":139.77780151367188,"category":"オフィスビル","description":"","image_url":""},{"id":948,"title":"昭和館","architect":"菊竹清訓","year":1998.0,"address":"東京都千代田区九段南1-6-1","latitude":35.6950569152832,"longitude":139.7508087158203,"category":"博物館","description":"","image_url":""},{"id":949,"title":"神保町シアタービル","architect":"日建設計","year":2007.0,"address":"東京都千代田区神保町1-23-3","latitude":35.695030212402344,"longitude":139.76083374023438,"category":"ホール・劇場","description":"","image_url":""},{"id":950,"title":"インド大使館 インド文化センター","architect":"宮崎浩","year":2009.0,"address":"東京都千代田区九段南2-2-11","latitude":35.69395446777344,"longitude":139.74716186523438,"category":"公共施設","description":"","image_url":""}]}