{"page":206,"total_pages":290,"items_per_page":50,"total_items":14467,"items":[{"id":10251,"title":"TBM 一菱金属","architect":"新関謙一郎","year":2020.0,"address":"新潟県燕市燕21-1","latitude":37.67536926269531,"longitude":138.91213989257812,"category":"低層オフィス","big_category":"企業施設","description":"","image_url":"","tags":"新建築2021年5月号,Ver3.80(2021年6月)の追加建築","prefecture":"新潟","contractor":"吉田建設","structural_designer":"","landscape_designer":"","shinkenchiku_url":""},{"id":10252,"title":"meet tree NAKATSUGAWA","architect":"成瀬・猪熊建築設計事務所","year":2021.0,"address":"岐阜県中津川市新町4-19","latitude":35.4971809387207,"longitude":137.50469970703125,"category":"店舗","big_category":"商業施設","description":"","image_url":"","tags":"新建築2021年5月号,Ver3.80(2021年6月)の追加建築","prefecture":"岐阜","contractor":"","structural_designer":"","landscape_designer":"","shinkenchiku_url":""},{"id":10253,"title":"武庫川女子大学 カヌー部部室棟","architect":"竹中工務店","year":2020.0,"address":"兵庫県西宮市東鳴尾町2-16","latitude":34.709381103515625,"longitude":135.3766632080078,"category":"大学/クラブハウス","big_category":"教育,レジャー施設","description":"","image_url":"","tags":"新建築2021年5月号,Ver3.80(2021年6月)の追加建築","prefecture":"兵庫","contractor":"永瀬","structural_designer":"","landscape_designer":"","shinkenchiku_url":""},{"id":10254,"title":"廣榮堂 中納言本店","architect":"大角雄三","year":2019.0,"address":"岡山県岡山市中区中納言町7-32","latitude":34.65763473510742,"longitude":133.93789672851562,"category":"店舗","big_category":"商業施設","description":"","image_url":"","tags":"新建築2021年5月号,Ver3.80(2021年6月)の追加建築","prefecture":"岡山","contractor":"坂本工務店","structural_designer":"","landscape_designer":"","shinkenchiku_url":""},{"id":10255,"title":"THE WOOD 東京発条製作所本社ビル","architect":"腰越耕太","year":2018.0,"address":"東京都大田区蒲田4-27-3","latitude":35.56010818481445,"longitude":139.7206268310547,"category":"オフィスビル","big_category":"企業施設","description":"","image_url":"","tags":"新建築2021年5月号,Ver3.80(2021年6月)の追加建築","prefecture":"東京","contractor":"","structural_designer":"","landscape_designer":"","shinkenchiku_url":""},{"id":10256,"title":"髙惣木工ビル","architect":"シェルター","year":2021.0,"address":"宮城県仙台市宮城野区榴岡2-5-5","latitude":38.26042938232422,"longitude":140.885009765625,"category":"オフィスビル","big_category":"企業施設","description":"","image_url":"","tags":"新建築2021年5月号,Ver3.80(2021年6月)の追加建築","prefecture":"宮城","contractor":"シェルター","structural_designer":"","landscape_designer":"","shinkenchiku_url":""},{"id":10257,"title":"青鹿寮","architect":"吉阪隆正","year":1968.0,"address":"岩手県下閉伊郡田野畑村菅窪223-1","latitude":39.91129684448242,"longitude":141.89935302734375,"category":"寮","big_category":"住宅","description":"早稲田大学施設","image_url":"","tags":"Ver3.80(2021年6月)の追加建築","prefecture":"岩手","contractor":"","structural_designer":"","landscape_designer":"","shinkenchiku_url":""},{"id":10258,"title":"最上稲荷妙教寺 仁王門","architect":"岸田日出刀","year":1958.0,"address":"岡山県岡山市北区高松稲荷","latitude":34.70874786376953,"longitude":133.83291625976562,"category":"寺院","big_category":"宗教","description":"","image_url":"","tags":"Ver3.80(2021年6月)の追加建築","prefecture":"岡山","contractor":"","structural_designer":"","landscape_designer":"","shinkenchiku_url":""},{"id":10259,"title":"大みかゴルフクラブ クラブハウス","architect":"岸田日出刀","year":1936.0,"address":"茨城県日立市大みか町6-19-22","latitude":36.5130615234375,"longitude":140.61434936523438,"category":"クラブハウス","big_category":"レジャー施設","description":"","image_url":"","tags":"Ver3.80(2021年6月)の追加建築","prefecture":"茨城","contractor":"","structural_designer":"","landscape_designer":"","shinkenchiku_url":""},{"id":10260,"title":"新宿京王百貨店","architect":"圓堂政嘉","year":1964.0,"address":"東京都新宿区西新宿1-1-4","latitude":35.690181732177734,"longitude":139.69911193847656,"category":"モール","big_category":"商業施設","description":"","image_url":"","tags":"Ver3.80(2021年6月)の追加建築","prefecture":"東京","contractor":"","structural_designer":"","landscape_designer":"","shinkenchiku_url":""},{"id":10261,"title":"藤崎百貨店","architect":"山下寿郎","year":1963.0,"address":"宮城県仙台市青葉区一番町3-2-17","latitude":38.260684967041016,"longitude":140.87428283691406,"category":"モール","big_category":"商業施設","description":"","image_url":"","tags":"Ver3.80(2021年6月)の追加建築","prefecture":"宮城","contractor":"","structural_designer":"","landscape_designer":"","shinkenchiku_url":""},{"id":10262,"title":"新城テラス","architect":"ピークスタジオ","year":2016.0,"address":"神奈川県川崎市中原区上新城2-7-1","latitude":35.58802032470703,"longitude":139.6304931640625,"category":"カフェ","big_category":"商業施設","description":"","image_url":"","tags":"Ver3.80(2021年6月)の追加建築","prefecture":"神奈川","contractor":"","structural_designer":"","landscape_designer":"","shinkenchiku_url":""},{"id":10263,"title":"東山八ッ橋本舗 旧佐々木製菓社屋","architect":"高松伸","year":1981.0,"address":"京都府京都市左京区吉田中阿達町22-1","latitude":35.023712158203125,"longitude":135.77490234375,"category":"低層オフィス","big_category":"企業施設","description":"","image_url":"","tags":"Ver3.80(2021年6月)の追加建築","prefecture":"京都","contractor":"","structural_designer":"","landscape_designer":"","shinkenchiku_url":""},{"id":10264,"title":"浅草三業会館","architect":"安東勝男","year":1955.0,"address":"東京都台東区浅草3-33-5","latitude":35.7173957824707,"longitude":139.7967071533203,"category":"組合施設","big_category":"公共施設","description":"","image_url":"","tags":"Ver3.80(2021年6月)の追加建築","prefecture":"東京","contractor":"","structural_designer":"","landscape_designer":"","shinkenchiku_url":""},{"id":10265,"title":"新宿区役所","architect":"明石信道","year":1966.0,"address":"東京都新宿区歌舞伎町1-4-1","latitude":35.69389343261719,"longitude":139.70343017578125,"category":"庁舎","big_category":"公共施設","description":"","image_url":"","tags":"Ver3.80(2021年6月)の追加建築","prefecture":"東京","contractor":"","structural_designer":"","landscape_designer":"","shinkenchiku_url":""},{"id":10266,"title":"横浜市磯子地域ケアセンター","architect":"ワークステーション","year":2000.0,"address":"神奈川県横浜市磯子区磯子3-1-22","latitude":35.40521240234375,"longitude":139.62074279785156,"category":"福祉センター","big_category":"医療施設","description":"","image_url":"","tags":"Ver3.80(2021年6月)の追加建築","prefecture":"神奈川","contractor":"","structural_designer":"","landscape_designer":"","shinkenchiku_url":""},{"id":10267,"title":"磯子アヴェニュー","architect":"象設計集団","year":1987.0,"address":"神奈川県横浜市磯子区磯子3","latitude":35.40362548828125,"longitude":139.62005615234375,"category":"公園/広場","big_category":"レジャー施設,文化施設","description":"磯子駅付近の磯子産業道路沿いの歩道整備","image_url":"","tags":"Ver3.80(2021年6月)の追加建築","prefecture":"神奈川","contractor":"","structural_designer":"","landscape_designer":"","shinkenchiku_url":""},{"id":10268,"title":"源兵衛川ランドスケープ","architect":"アトリエ鯨","year":1999.0,"address":"静岡県三島市泉町1-45","latitude":35.12050247192383,"longitude":138.91256713867188,"category":"公園/広場","big_category":"レジャー施設,文化施設","description":"","image_url":"","tags":"Ver3.80(2021年6月)の追加建築","prefecture":"静岡","contractor":"","structural_designer":"","landscape_designer":"","shinkenchiku_url":""},{"id":10269,"title":"青梅ゴルフ倶楽部 クラブハウス","architect":"佐藤武夫","year":1958.0,"address":"東京都青梅市根ヶ布1-490","latitude":35.802433013916016,"longitude":139.2728729248047,"category":"クラブハウス","big_category":"レジャー施設","description":"","image_url":"","tags":"Ver3.80(2021年6月)の追加建築","prefecture":"東京","contractor":"","structural_designer":"","landscape_designer":"","shinkenchiku_url":""},{"id":10270,"title":"谷町の家 エストコーポレーション","architect":"安藤忠雄","year":1999.0,"address":"大阪府大阪市中央区谷町6-6-1","latitude":34.675621032714844,"longitude":135.51675415039062,"category":"店舗/住宅","big_category":"商業施設,住宅","description":"","image_url":"","tags":"Ver3.80(2021年6月)の追加建築","prefecture":"大阪","contractor":"","structural_designer":"","landscape_designer":"","shinkenchiku_url":""},{"id":10271,"title":"太融寺 正門（南門）","architect":"吉田五十八","year":1964.0,"address":"大阪府大阪市北区太融寺町3-7","latitude":34.70155334472656,"longitude":135.50421142578125,"category":"寺院","big_category":"宗教","description":"","image_url":"","tags":"Ver3.80(2021年6月)の追加建築","prefecture":"大阪","contractor":"","structural_designer":"","landscape_designer":"","shinkenchiku_url":""},{"id":10272,"title":"奈良県立畝傍高等学校 本館","architect":"岩崎平太郎+寺師通尚+笠原敏郎","year":1932.0,"address":"奈良県橿原市八木町3-13-2","latitude":34.50926971435547,"longitude":135.79942321777344,"category":"学校","big_category":"教育","description":"設計顧問：笠原敏郎／設計：寺師通尚／技手：岩﨑平太郎。設計の実務は岩﨑平太郎という記述がある。","image_url":"","tags":"Ver3.80(2021年6月)の追加建築","prefecture":"奈良","contractor":"","structural_designer":"","landscape_designer":"","shinkenchiku_url":""},{"id":10273,"title":"畝傍駅 駅舎・貴賓室","architect":"不明","year":1940.0,"address":"奈良県橿原市八木町2-1-9","latitude":34.50841522216797,"longitude":135.79371643066406,"category":"駅","big_category":"インフラ","description":"貴賓室は年に数回ずつ一般公開","image_url":"","tags":"Ver3.80(2021年6月)の追加建築","prefecture":"奈良","contractor":"","structural_designer":"","landscape_designer":"","shinkenchiku_url":""},{"id":10274,"title":"奈良県橿原警察署庁舎","architect":"平成建設","year":1993.0,"address":"奈良県橿原市四条町618-1","latitude":34.50331497192383,"longitude":135.79107666015625,"category":"警察・消防署","big_category":"公共施設","description":"","image_url":"","tags":"Ver3.80(2021年6月)の追加建築","prefecture":"奈良","contractor":"","structural_designer":"","landscape_designer":"","shinkenchiku_url":""},{"id":10275,"title":"Jour Ferie la BANK 旧六十八銀行","architect":"舟橋俊一","year":1928.0,"address":"奈良県橿原市八木町1-2-13","latitude":34.50859451293945,"longitude":135.79270935058594,"category":"洋館/レストラン/金融機関","big_category":"近代建築/遺産,商業施設,企業施設","description":"","image_url":"","tags":"Ver3.80(2021年6月)の追加建築","prefecture":"奈良","contractor":"","structural_designer":"","landscape_designer":"","shinkenchiku_url":""},{"id":10276,"title":"日本聖公会八木基督教会","architect":"光安梶之助","year":1936.0,"address":"奈良県橿原市南八木町1-8-1","latitude":34.50751876831055,"longitude":135.7921142578125,"category":"教会","big_category":"宗教","description":"","image_url":"","tags":"Ver3.80(2021年6月)の追加建築","prefecture":"奈良","contractor":"","structural_designer":"","landscape_designer":"","shinkenchiku_url":""},{"id":10277,"title":"大開口の家","architect":"田中敏溥","year":null,"address":"新潟県新潟市西区善久760-1 西区","latitude":37.86339569091797,"longitude":139.01995849609375,"category":"住宅","big_category":"住宅","description":"モデルハウス","image_url":"","tags":"Ver3.80(2021年6月)の追加建築","prefecture":"新潟","contractor":"","structural_designer":"","landscape_designer":"","shinkenchiku_url":""},{"id":10278,"title":"四季の森文化館","architect":"田中敏溥","year":1996.0,"address":"福井県吉田郡永平寺町山9-1-2","latitude":36.087554931640625,"longitude":136.32492065429688,"category":"博物館/図書館","big_category":"ミュージアム,文化施設","description":"","image_url":"","tags":"Ver3.80(2021年6月)の追加建築","prefecture":"福井","contractor":"","structural_designer":"","landscape_designer":"","shinkenchiku_url":""},{"id":10279,"title":"下石神井小学校","architect":"佐藤総合計画","year":2020.0,"address":"東京都練馬区下石神井2-20","latitude":35.73142623901367,"longitude":139.60525512695312,"category":"学校","big_category":"教育","description":"","image_url":"","tags":"Ver3.80(2021年6月)の追加建築","prefecture":"東京","contractor":"","structural_designer":"","landscape_designer":"","shinkenchiku_url":""},{"id":10280,"title":"代々木ビル","architect":"泉幸甫","year":null,"address":"東京都渋谷区代々木1-42-4","latitude":35.6826057434082,"longitude":139.6995849609375,"category":"オフィスビル","big_category":"企業施設","description":"","image_url":"","tags":"Ver3.80(2021年6月)の追加建築","prefecture":"東京","contractor":"","structural_designer":"","landscape_designer":"","shinkenchiku_url":""},{"id":10281,"title":"草加せんべいの庭","architect":"泉幸甫","year":2008.0,"address":"埼玉県草加市金明町790-2","latitude":35.8522834777832,"longitude":139.78855895996094,"category":"店舗","big_category":"商業施設","description":"","image_url":"","tags":"Ver3.80(2021年6月)の追加建築","prefecture":"埼玉","contractor":"","structural_designer":"","landscape_designer":"","shinkenchiku_url":""},{"id":10282,"title":"板橋区立中央図書館","architect":"松田平田設計","year":2020.0,"address":"東京都板橋区常盤台4-3-1","latitude":35.76292419433594,"longitude":139.6815948486328,"category":"図書館","big_category":"文化施設","description":"","image_url":"","tags":"Ver3.80(2021年6月)の追加建築,新建築2021年12月号","prefecture":"東京","contractor":"","structural_designer":"","landscape_designer":"","shinkenchiku_url":""},{"id":10283,"title":"芦屋リバービュウアーバンライフ","architect":"竹中工務店","year":1985.0,"address":"兵庫県芦屋市山手町11-41","latitude":34.74114227294922,"longitude":135.29852294921875,"category":"集合住宅","big_category":"住宅","description":"","image_url":"","tags":"Ver3.80(2021年6月)の追加建築","prefecture":"兵庫","contractor":"竹中工務店","structural_designer":"","landscape_designer":"","shinkenchiku_url":""},{"id":10284,"title":"ハコニワ","architect":"東海林健","year":2020.0,"address":"新潟県柏崎市横山440-1","latitude":37.34883117675781,"longitude":138.55648803710938,"category":"モール/公園","big_category":"商業施設,レジャー施設","description":"","image_url":"","tags":"Ver3.80(2021年6月)の追加建築","prefecture":"新潟","contractor":"","structural_designer":"","landscape_designer":"","shinkenchiku_url":""},{"id":10285,"title":"湘南幼児学園","architect":"オーエルシージャパン","year":2018.0,"address":"神奈川県茅ヶ崎市汐見台3-3-15","latitude":35.32236099243164,"longitude":139.43771362304688,"category":"幼稚園","big_category":"教育","description":"","image_url":"","tags":"Ver3.80(2021年6月)の追加建築","prefecture":"神奈川","contractor":"","structural_designer":"","landscape_designer":"","shinkenchiku_url":""},{"id":10286,"title":"地域総合子ども家庭支援センター・テラ センター棟 クリニック棟","architect":"坂牛卓","year":2021.0,"address":"山梨県甲府市伊勢3-8-11","latitude":35.64297103881836,"longitude":138.566162109375,"category":"福祉センター","big_category":"医療施設","description":"","image_url":"","tags":"Ver3.80(2021年6月)の追加建築","prefecture":"山梨","contractor":"","structural_designer":"","landscape_designer":"","shinkenchiku_url":""},{"id":10287,"title":"HOTEL KYOTOLOGY","architect":"GENETO建築設計+コスモスモア","year":2020.0,"address":"京都府京都市東山区本瓦町672-6","latitude":34.98674774169922,"longitude":135.7733154296875,"category":"ホテル","big_category":"宿泊","description":"基本設計・デザイン監修：GENETO","image_url":"","tags":"Ver3.80(2021年6月)の追加建築","prefecture":"京都","contractor":"","structural_designer":"","landscape_designer":"","shinkenchiku_url":""},{"id":10288,"title":"JINS PARK 前橋","architect":"永山祐子","year":2021.0,"address":"群馬県前橋市川原町1-21-9","latitude":36.424983978271484,"longitude":139.04576110839844,"category":"店舗","big_category":"商業施設","description":"","image_url":"","tags":"Ver3.80(2021年6月)の追加建築,新建築2021年6月号","prefecture":"群馬","contractor":"冬木工業","structural_designer":"","landscape_designer":"","shinkenchiku_url":""},{"id":10289,"title":"ブルーボトルコーヒー 渋谷カフェ","architect":"日建設計+芦沢啓治","year":2021.0,"address":"東京都渋谷区神南1-7-3","latitude":35.66407012939453,"longitude":139.69944763183594,"category":"カフェ","big_category":"商業施設","description":"内装設計：芦沢啓治","image_url":"","tags":"Ver3.80(2021年6月)の追加建築","prefecture":"東京","contractor":"","structural_designer":"","landscape_designer":"","shinkenchiku_url":""},{"id":10290,"title":"ヤマデン本社社屋兼工場","architect":"井坂幸恵","year":2020.0,"address":"東京都八王子市鑓水2-174-3","latitude":35.612274169921875,"longitude":139.3471221923828,"category":"工場","big_category":"企業施設","description":"","image_url":"","tags":"Ver3.80(2021年6月)の追加建築","prefecture":"東京","contractor":"","structural_designer":"","landscape_designer":"","shinkenchiku_url":""},{"id":10291,"title":"阿久根市民交流センター 風テラスあくね","architect":"古谷誠章","year":2018.0,"address":"鹿児島県阿久根市塩鶴町2-2","latitude":32.0120849609375,"longitude":130.19436645507812,"category":"ホール・劇場","big_category":"文化施設","description":"","image_url":"","tags":"Ver3.80(2021年6月)の追加建築,2023年日本建築学会 作品選奨,新建築2023年11月号","prefecture":"鹿児島","contractor":"","structural_designer":"","landscape_designer":"","shinkenchiku_url":""},{"id":10292,"title":"shimanto + terrace はれのば","architect":"今西伴仁","year":2020.0,"address":"高知県四万十市中村天神橋39","latitude":32.99292755126953,"longitude":132.93313598632812,"category":"モール/広場","big_category":"商業施設,文化施設","description":"","image_url":"","tags":"Ver3.80(2021年6月)の追加建築,2022年日本建築学会 作品選集新人賞","prefecture":"高知","contractor":"","structural_designer":"","landscape_designer":"","shinkenchiku_url":""},{"id":10293,"title":"キッズラボ南流山園","architect":"チームラボアーキテクツ","year":2021.0,"address":"千葉県流山市木18","latitude":35.830650329589844,"longitude":139.8924560546875,"category":"幼稚園","big_category":"教育","description":"","image_url":"","tags":"Ver3.80(2021年6月)の追加建築","prefecture":"千葉","contractor":"","structural_designer":"","landscape_designer":"","shinkenchiku_url":""},{"id":10294,"title":"横浜市電保存館 しでんほーる","architect":"エイバンバ","year":2016.0,"address":"神奈川県横浜市磯子区滝頭3-1-42","latitude":35.42023468017578,"longitude":139.6239013671875,"category":"博物館","big_category":"ミュージアム","description":"","image_url":"","tags":"Ver3.80(2021年6月)の追加建築","prefecture":"神奈川","contractor":"","structural_designer":"","landscape_designer":"","shinkenchiku_url":""},{"id":10295,"title":"つくりて 厚木店","architect":"吉田裕一","year":2019.0,"address":"神奈川県厚木市妻田南2-12-22","latitude":35.45451736450195,"longitude":139.3563995361328,"category":"店舗/住宅","big_category":"商業施設,住宅","description":"","image_url":"","tags":"Ver3.80(2021年6月)の追加建築","prefecture":"神奈川","contractor":"","structural_designer":"","landscape_designer":"","shinkenchiku_url":""},{"id":10296,"title":"マスケン本社屋","architect":"篠崎弘之","year":2020.0,"address":"栃木県宇都宮市西川田東町11-1","latitude":36.50535583496094,"longitude":139.8583221435547,"category":"低層オフィス","big_category":"企業施設","description":"","image_url":"","tags":"Ver3.80(2021年6月)の追加建築","prefecture":"栃木","contractor":"","structural_designer":"","landscape_designer":"","shinkenchiku_url":""},{"id":10297,"title":"JINS 熊谷肥塚店","architect":"松葉邦彦","year":2020.0,"address":"埼玉県熊谷市肥塚4-177","latitude":36.162532806396484,"longitude":139.38705444335938,"category":"店舗","big_category":"商業施設","description":"","image_url":"","tags":"Ver3.80(2021年6月)の追加建築","prefecture":"埼玉","contractor":"","structural_designer":"","landscape_designer":"","shinkenchiku_url":""},{"id":10298,"title":"アーチ矯正歯科","architect":"松葉邦彦","year":2021.0,"address":"東京都八王子市みなみ野3-4-14","latitude":35.62994384765625,"longitude":139.3273468017578,"category":"個人医院","big_category":"医療施設","description":"","image_url":"","tags":"Ver3.80(2021年6月)の追加建築","prefecture":"東京","contractor":"","structural_designer":"","landscape_designer":"","shinkenchiku_url":""},{"id":10299,"title":"網代園","architect":"松葉邦彦","year":2016.0,"address":"東京都八王子市横山町10-14","latitude":35.659767150878906,"longitude":139.33462524414062,"category":"店舗","big_category":"商業施設","description":"","image_url":"","tags":"Ver3.80(2021年6月)の追加建築","prefecture":"東京","contractor":"","structural_designer":"","landscape_designer":"","shinkenchiku_url":""},{"id":10300,"title":"青梅市吉川英治記念館","architect":"谷口吉郎","year":1976.0,"address":"東京都青梅市柚木町1-101-1","latitude":35.79631805419922,"longitude":139.2130584716797,"category":"博物館","big_category":"ミュージアム","description":"","image_url":"","tags":"Ver3.80(2021年6月)の追加建築","prefecture":"東京","contractor":"","structural_designer":"","landscape_designer":"","shinkenchiku_url":""}]}