{"page":64,"total_pages":290,"items_per_page":50,"total_items":14467,"items":[{"id":3151,"title":"中村家住宅","architect":"不明","year":null,"address":"沖縄県中頭郡北中城村大城106","latitude":26.28986358642578,"longitude":127.80067443847656,"category":"古民家","description":"","image_url":""},{"id":3152,"title":"中城城跡","architect":"不明","year":null,"address":"沖縄県中頭郡北中城村大城503","latitude":26.2856502532959,"longitude":127.80329132080078,"category":"城郭/遺跡","description":"","image_url":""},{"id":3153,"title":"名護市庁舎","architect":"象設計集団+丸山欣也","year":1981.0,"address":"沖縄県名護市港1-1-1","latitude":26.591554641723633,"longitude":127.97747802734375,"category":"庁舎","description":"","image_url":""},{"id":3154,"title":"万国津梁館","architect":"国建","year":2000.0,"address":"沖縄県名護市喜瀬1792","latitude":26.54289436340332,"longitude":127.93374633789062,"category":"ホール・劇場/カフェ/結婚式場","description":"","image_url":""},{"id":3155,"title":"名護市民会館","architect":"二基設計","year":1985.0,"address":"沖縄県名護市港2-1-1","latitude":26.59075164794922,"longitude":127.97523498535156,"category":"ホール・劇場","description":"","image_url":""},{"id":3156,"title":"聖クララ教会","architect":"片岡献+SOM","year":1958.0,"address":"沖縄県島尻郡与那原町与那原3090-4","latitude":26.200096130371094,"longitude":127.75374603271484,"category":"教会","description":"","image_url":""},{"id":3157,"title":"神奈川県立体育センター スポーツアリーナ","architect":"久米設計","year":1997.0,"address":"神奈川県藤沢市善行7-1-2","latitude":35.35982131958008,"longitude":139.47654724121094,"category":"体育館/プール","description":"","image_url":""},{"id":3158,"title":"カトリック松が峰教会 マリア会館","architect":"小野里信","year":2012.0,"address":"栃木県宇都宮市松が峰1-1-5","latitude":36.557952880859375,"longitude":139.88119506835938,"category":"教会","description":"","image_url":""},{"id":3159,"title":"福島県立医科大学 会津医療センター","architect":"古市徹雄","year":2013.0,"address":"福島県会津若松市河東町谷沢字前田21-2","latitude":37.55241394042969,"longitude":139.9075164794922,"category":"病院","description":"","image_url":""},{"id":3160,"title":"山形済生会病院 付属棟","architect":"古市徹雄","year":1999.0,"address":"山形県山形市沖町79-1 ‎","latitude":38.28512954711914,"longitude":140.33494567871094,"category":"病院","description":"","image_url":""},{"id":3161,"title":"Relaxation SPA Keyforest","architect":"北川原温","year":2007.0,"address":"山梨県北杜市小淵沢町10249-1","latitude":35.887001037597656,"longitude":138.31805419921875,"category":"ホテル","description":"","image_url":""},{"id":3162,"title":"山鹿市立鹿北小学校","architect":"古谷誠章","year":2013.0,"address":"熊本県山鹿市鹿北町四丁1469-1","latitude":33.108150482177734,"longitude":130.69517517089844,"category":"学校","description":"","image_url":""},{"id":3163,"title":"大磯プリンスホテル シーサイドチャペル","architect":"池原義郎","year":2000.0,"address":"神奈川県中郡大磯町国府本郷546","latitude":35.30140686035156,"longitude":139.28042602539062,"category":"結婚式場","description":"","image_url":""},{"id":3164,"title":"合葬墓の墓参所 鎌倉霊園","architect":"池原義郎","year":2002.0,"address":"神奈川県鎌倉市十二所512","latitude":35.32728958129883,"longitude":139.5833282470703,"category":"霊園","description":"","image_url":""},{"id":3165,"title":"西武園競輪場","architect":"池原義郎","year":1997.0,"address":"埼玉県所沢市荒幡1215","latitude":35.769588470458984,"longitude":139.4469451904297,"category":"スポーツ施設/スタジアム","description":"","image_url":""},{"id":3166,"title":"光第１ビル","architect":"青木茂","year":2013.0,"address":"福岡県大野城市白木原2-9-6","latitude":33.526432037353516,"longitude":130.48257446289062,"category":"オフィスビル","description":"","image_url":""},{"id":3167,"title":"満珠荘","architect":"青木茂","year":2011.0,"address":"山口県下関市みもすそ川町3-75","latitude":33.96855926513672,"longitude":130.96142578125,"category":"養護施設","description":"","image_url":""},{"id":3168,"title":"日蓮宗法華堂教会 江東メモリアル","architect":"宮崎浩","year":2001.0,"address":"東京都江東区東砂2-11-28","latitude":35.682621002197266,"longitude":139.84304809570312,"category":"寺院","description":"","image_url":""},{"id":3169,"title":"新進AKIBAビル ファーストキャビン秋葉原","architect":"大江匡","year":2013.0,"address":"東京都千代田区神田佐久間町3-38","latitude":35.69776916503906,"longitude":139.777099609375,"category":"ホテル","description":"","image_url":""},{"id":3170,"title":"第二博多偕成ビル","architect":"大江匡","year":2012.0,"address":"福岡県福岡市博多区博多駅南1-10-4","latitude":33.58595657348633,"longitude":130.42112731933594,"category":"オフィスビル","description":"","image_url":""},{"id":3171,"title":"認定こども園エンゼル","architect":"大江匡","year":2012.0,"address":"愛媛県伊予郡松前町西古泉561-1","latitude":33.793418884277344,"longitude":132.70980834960938,"category":"幼稚園","description":"","image_url":""},{"id":3172,"title":"akebono研修センター Ai-Village","architect":"大江匡","year":2012.0,"address":"埼玉県羽生市東5-4-71","latitude":36.176753997802734,"longitude":139.55120849609375,"category":"企業施設","description":"","image_url":""},{"id":3173,"title":"道の駅 多古 あじさい館","architect":"團紀彦","year":2001.0,"address":"千葉県香取郡多古町多古1069-1","latitude":35.73147201538086,"longitude":140.47525024414062,"category":"PA・道の駅","description":"","image_url":""},{"id":3174,"title":"道の駅 くりもと 紅小町の郷","architect":"團紀彦","year":2002.0,"address":"千葉県香取市沢1372-1","latitude":35.805850982666016,"longitude":140.46994018554688,"category":"PA・道の駅","description":"","image_url":""},{"id":3175,"title":"にしじまクリニック","architect":"團紀彦","year":2005.0,"address":"埼玉県富士見市勝瀬1034-1","latitude":35.86439514160156,"longitude":139.5309295654297,"category":"個人医院","description":"","image_url":""},{"id":3176,"title":"湘南信用金庫 大口支店","architect":"團紀彦","year":1998.0,"address":"神奈川県横浜市神奈川区大口通127-9","latitude":35.49077224731445,"longitude":139.64512634277344,"category":"オフィスビル/金融機関","description":"","image_url":""},{"id":3177,"title":"道躰クリニック","architect":"團紀彦","year":1997.0,"address":"神奈川県鎌倉市小町1-2-16","latitude":35.3178825378418,"longitude":139.5508270263672,"category":"個人医院","description":"","image_url":""},{"id":3178,"title":"江迎町文化会館 インフィニタス","architect":"團紀彦","year":1995.0,"address":"長崎県佐世保市江迎町田ノ元265-1","latitude":33.28129196166992,"longitude":129.6845703125,"category":"ホール・劇場","description":"","image_url":""},{"id":3179,"title":"水野美術館","architect":"宮本忠長","year":2002.0,"address":"長野県長野市若里6-2-20","latitude":36.62823486328125,"longitude":138.1930389404297,"category":"美術館","description":"","image_url":""},{"id":3180,"title":"鉄の展示館","architect":"宮本忠長","year":2002.0,"address":"長野県埴科郡坂城町坂城6313-2","latitude":36.46354675292969,"longitude":138.18304443359375,"category":"博物館","description":"","image_url":""},{"id":3181,"title":"梅野記念絵画館","architect":"宮本忠長","year":1998.0,"address":"長野県東御市八重原935-1","latitude":36.32380294799805,"longitude":138.32215881347656,"category":"美術館","description":"","image_url":""},{"id":3182,"title":"森の文化博物館","architect":"宮本忠長","year":1995.0,"address":"岐阜県揖斐郡揖斐川町春日美束1902-183","latitude":35.51715087890625,"longitude":136.45298767089844,"category":"博物館","description":"","image_url":""},{"id":3183,"title":"国民宿舎 サンライズ九十九里","architect":"宮本忠長","year":1996.0,"address":"千葉県山武郡九十九里町真亀4908","latitude":35.503997802734375,"longitude":140.4310302734375,"category":"ホテル","description":"","image_url":""},{"id":3184,"title":"東北大学 百周年記念会館 川内萩ホール","architect":"阿部仁史","year":2008.0,"address":"宮城県仙台市青葉区川内40","latitude":38.252296447753906,"longitude":140.85597229003906,"category":"ホール・劇場","description":"","image_url":""},{"id":3185,"title":"パチンコタイガー松森店","architect":"阿部仁史","year":2003.0,"address":"宮城県仙台市泉区松森後沢19","latitude":38.303958892822266,"longitude":140.91534423828125,"category":"店舗","description":"","image_url":""},{"id":3186,"title":"京都芸術大学 ギャルリオーブ","architect":"横内敏人","year":2004.0,"address":"京都市左京区北白川瓜生山2-116","latitude":35.037113189697266,"longitude":135.79205322265625,"category":"大学","description":"","image_url":""},{"id":3187,"title":"京都芸術大学 未来館","architect":"横内敏人","year":2004.0,"address":"京都市左京区北白川瓜生山2-116","latitude":35.03791809082031,"longitude":135.79342651367188,"category":"大学","description":"","image_url":""},{"id":3188,"title":"The South Harbor Resort","architect":"谷尻誠","year":2008.0,"address":"広島県広島市南区元宇品町2-19","latitude":34.35093688964844,"longitude":132.46096801757812,"category":"結婚式場","description":"","image_url":""},{"id":3189,"title":"内科離宮","architect":"谷尻誠","year":2008.0,"address":"広島県呉市広大新開1-4-19","latitude":34.23310852050781,"longitude":132.62326049804688,"category":"個人医院","description":"","image_url":""},{"id":3190,"title":"まぶね教会","architect":"山本英明","year":2001.0,"address":"神奈川県川崎市麻生区下麻生2-27-30","latitude":35.581390380859375,"longitude":139.5096893310547,"category":"教会","description":"","image_url":""},{"id":3191,"title":"東京都大島支庁新島出張所・島しょ保健所大島出張所新島支所","architect":"芦原太郎","year":1995.0,"address":"東京都新島村本村6-4-24","latitude":34.37265396118164,"longitude":139.25294494628906,"category":"庁舎","description":"","image_url":""},{"id":3192,"title":"山梨県立大学 看護学部 旧山梨県立看護短期大学","architect":"芦原太郎","year":1994.0,"address":"山梨県甲府市池田1-6-1","latitude":35.67210006713867,"longitude":138.54629516601562,"category":"大学","description":"","image_url":""},{"id":3193,"title":"紀尾井アートギャラリー","architect":"芦原太郎","year":2003.0,"address":"東京都千代田区紀尾井町3-32","latitude":35.68119430541992,"longitude":139.7375030517578,"category":"美術館","description":"","image_url":""},{"id":3194,"title":"石彩の教会","architect":"伊丹潤","year":1991.0,"address":"北海道苫小牧市植苗430","latitude":42.71504211425781,"longitude":141.6547088623047,"category":"結婚式場","description":"","image_url":""},{"id":3195,"title":"森の教会 レナード・バーンスタイン記念館","architect":"伊丹潤","year":1996.0,"address":"北海道苫小牧市植苗430","latitude":42.715492248535156,"longitude":141.65684509277344,"category":"結婚式場","description":"","image_url":""},{"id":3196,"title":"軽井沢ハーモニーハウス エロイーズカフェ","architect":"吉村順三","year":1983.0,"address":"長野県北佐久郡軽井沢町軽井沢（大字）1067-31　ハーモニーハウス","latitude":36.33338165283203,"longitude":138.62782287597656,"category":"カフェ/住宅/ホール・劇場","description":"カフェとして2015年4月末より運営","image_url":""},{"id":3197,"title":"世田谷区民会館・区役所","architect":"前川國男","year":1959.0,"address":"東京都世田谷区世田谷4-21-27","latitude":35.64596939086914,"longitude":139.65277099609375,"category":"ホール・劇場","description":"1959～1967年にかけて3期にわけて建設","image_url":""},{"id":3198,"title":"埼玉会館・埼玉県立図書館","architect":"前川國男","year":1966.0,"address":"埼玉県さいたま市浦和区高砂3-1-4","latitude":35.85784149169922,"longitude":139.65228271484375,"category":"ホール・劇場/図書館","description":"","image_url":""},{"id":3199,"title":"星薬科大学 大講堂 旧星商業学校","architect":"アントニン・レーモンド","year":1924.0,"address":"東京都品川区荏原2-4-41","latitude":35.61894989013672,"longitude":139.71217346191406,"category":"大学","description":"","image_url":""},{"id":3200,"title":"聖パトリック教会 カトリック豊島教会","architect":"アントニン・レーモンド","year":1956.0,"address":"東京都豊島区長崎1-28-22","latitude":35.72930908203125,"longitude":139.69686889648438,"category":"教会","description":"","image_url":""}]}