{"page":199,"total_pages":290,"items_per_page":50,"total_items":14467,"items":[{"id":9901,"title":"千壽庵吉宗 奈良総本店","architect":"橋口新一郎","year":2017.0,"address":"奈良県奈良市押上町39-1","latitude":34.6885986328125,"longitude":135.83457946777344,"category":"店舗","description":"","image_url":""},{"id":9902,"title":"老犬ホーム ワールドアニマルケアセンター","architect":"橋口新一郎","year":2019.0,"address":"大阪府高石市西取石1-10-22","latitude":34.52410888671875,"longitude":135.4491729736328,"category":"個人医院/医療施設","description":"老犬の介護施設","image_url":""},{"id":9903,"title":"絹と黄金の茶室","architect":"橋口新一郎","year":2019.0,"address":"京都府京都市下京区二帖半敷町661 西陣織あさぎ美術館","latitude":35.001644134521484,"longitude":135.7593994140625,"category":"茶室","description":"","image_url":""},{"id":9904,"title":"ヴォーリズ記念病院 希望館 旧近江療養院 五葉館","architect":"ウィリアム・メレル・ヴォーリズ","year":1918.0,"address":"滋賀県近江八幡市北之庄町492","latitude":35.152286529541016,"longitude":136.08856201171875,"category":"病院","description":"","image_url":""},{"id":9905,"title":"各務原市老人保健施設サンバレーかかみ野","architect":"若山滋","year":1994.0,"address":"岐阜県各務原市須衛町3-136","latitude":35.43973922729492,"longitude":136.88546752929688,"category":"養護施設","description":"","image_url":""},{"id":9906,"title":"沖本邸 カフェおきもと","architect":"川崎忍","year":1932.0,"address":"東京都国分寺市内藤2-43-9","latitude":35.698665618896484,"longitude":139.4518280029297,"category":"カフェ/洋館","description":"","image_url":""},{"id":9907,"title":"旧松本（土井）邸","architect":"川崎忍","year":1937.0,"address":"兵庫県宝塚市桜ガ丘3-45","latitude":34.81642532348633,"longitude":135.33763122558594,"category":"洋館","description":"非公開だが毎年5月と11月に特別公開","image_url":""},{"id":9908,"title":"日本基督教団 本郷中央教会","architect":"J.H.ヴォーゲル+川崎忍","year":1929.0,"address":"東京都文京区本郷3-37-9","latitude":35.70732879638672,"longitude":139.76242065429688,"category":"教会","description":"J.H.ヴォーゲルは原案とされる","image_url":""},{"id":9909,"title":"神水幼稚園 旧慈愛園・クロンク幼稚園","architect":"川崎忍","year":1929.0,"address":"熊本県熊本市中央区神水1-14-1","latitude":32.7846565246582,"longitude":130.74127197265625,"category":"幼稚園","description":"","image_url":""},{"id":9910,"title":"スミレアオイハウス","architect":"小泉誠","year":1999.0,"address":"東京都三鷹市井口1-8-7","latitude":35.69182205200195,"longitude":139.54957580566406,"category":"住宅","description":"増沢洵自邸「最小限住居」を原型に1999年小泉誠により竣工。2020年より民泊施設として宿泊可能","image_url":""},{"id":9911,"title":"奈良市立一条高等学校 新講堂 Ichijo Hall 2020","architect":"隈研吾","year":2020.0,"address":"奈良県奈良市法華寺町1351","latitude":34.691829681396484,"longitude":135.8102264404297,"category":"体育館/学校","description":"","image_url":""},{"id":9912,"title":"UAKビル","architect":"樫永一男","year":1995.0,"address":"大阪府大阪市北区南扇町1-5","latitude":34.7000732421875,"longitude":135.50851440429688,"category":"オフィスビル","description":"","image_url":""},{"id":9913,"title":"マトリス","architect":"樫永一男","year":1993.0,"address":"東京都港区南青山2-13-7","latitude":35.670658111572266,"longitude":139.7204132080078,"category":"テナントビル","description":"","image_url":""},{"id":9914,"title":"スペースX","architect":"樫永一男","year":1988.0,"address":"大阪府大阪市北区紅梅町5-5","latitude":34.69941711425781,"longitude":135.51419067382812,"category":"オフィスビル","description":"","image_url":""},{"id":9915,"title":"タカセビル","architect":"樫永一男","year":1988.0,"address":"大阪府大阪市北区天満橋1-3-21","latitude":34.6974983215332,"longitude":135.51844787597656,"category":"オフィスビル","description":"","image_url":""},{"id":9916,"title":"くれない保育所","architect":"樫永一男","year":2001.0,"address":"大阪府大阪市城東区鴫野東3-23-12","latitude":34.689002990722656,"longitude":135.5485076904297,"category":"幼稚園","description":"","image_url":""},{"id":9917,"title":"nol kyoto sanjo","architect":"魚谷繁礼","year":2020.0,"address":"京都府京都市中京区大阪材木町700","latitude":35.0091438293457,"longitude":135.76333618164062,"category":"ホテル","description":"","image_url":""},{"id":9918,"title":"百十四銀行 白鳥支店","architect":"日建設計","year":1966.0,"address":"香川県東かがわ市湊1838-1","latitude":34.24375915527344,"longitude":134.35792541503906,"category":"金融機関","description":"","image_url":""},{"id":9919,"title":"服部緑地レストハウス","architect":"浦辺鎮太郎","year":1966.0,"address":"大阪府豊中市服部緑地1","latitude":34.77533721923828,"longitude":135.48782348632812,"category":"店舗","description":"","image_url":""},{"id":9920,"title":"明石とき打ち太鼓櫓","architect":"瀧光夫","year":1979.0,"address":"兵庫県明石市明石公園1","latitude":34.65052795410156,"longitude":134.99163818359375,"category":"観光施設/オブジェ","description":"","image_url":""},{"id":9921,"title":"奈良県コンベンションセンター","architect":"大林組+梓設計","year":2020.0,"address":"奈良県奈良市三条大路1-1-691-1","latitude":34.68338394165039,"longitude":135.80517578125,"category":"展示・会議場","description":"","image_url":""},{"id":9922,"title":"ROPPONGI TERRACE","architect":"シーラカンスアンドアソシエイツ","year":2020.0,"address":"東京都港区六本木7-17-36","latitude":35.66340637207031,"longitude":139.72943115234375,"category":"集合住宅/オフィスビル","description":"","image_url":""},{"id":9923,"title":"京都鳩居堂 聞香処","architect":"内藤廣","year":2018.0,"address":"京都府京都市中京区妙満寺前町464","latitude":35.01247024536133,"longitude":135.7671661376953,"category":"店舗","description":"改修","image_url":""},{"id":9924,"title":"横濱聖苑","architect":"隈研吾","year":2020.0,"address":"神奈川県横浜市港北区篠原町97-1","latitude":35.496517181396484,"longitude":139.62109375,"category":"霊園/カフェ/レストラン","description":"室内墓所、カフェ、レストラン","image_url":""},{"id":9925,"title":"神水公衆浴場","architect":"西村浩+竹味佑人","year":2020.0,"address":"熊本県熊本市中央区神水2-2-18","latitude":32.786277770996094,"longitude":130.7469940185547,"category":"温泉","description":"","image_url":""},{"id":9926,"title":"筒井時正玩具花火製造所","architect":"宗像友昭+中庭日出海","year":2014.0,"address":"福岡県みやま市高田町竹飯1950-1","latitude":33.121707916259766,"longitude":130.50177001953125,"category":"住宅/工場","description":"","image_url":""},{"id":9927,"title":"平戸城懐柔櫓宿泊施設","architect":"山下保博","year":2020.0,"address":"長崎県平戸市岩の上町1458","latitude":33.36801528930664,"longitude":129.55841064453125,"category":"その他宿泊施設/城郭","description":"2021年春オープン予定。平戸城の懐柔櫓を宿泊施設化する","image_url":""},{"id":9928,"title":"ふきあげ納富病院 ","architect":"西村浩","year":2020.0,"address":"佐賀県鹿島市大字高津原1797","latitude":33.09898376464844,"longitude":130.09005737304688,"category":"病院","description":"","image_url":""},{"id":9929,"title":"モトガッコ","architect":"西村浩+梓設計","year":2019.0,"address":"福島県石川郡石川町関根165","latitude":37.146610260009766,"longitude":140.4591064453125,"category":"児童施設/カフェ/図書館","description":"元小学校の改修","image_url":""},{"id":9930,"title":"糸魚川市駅北広場 キターレ","architect":"西村浩","year":2020.0,"address":"新潟県糸魚川市大町2-2-19","latitude":37.044715881347656,"longitude":137.85922241210938,"category":"広場/博物館/シェアオフィス","description":"広場、レンタルキッチンなど","image_url":""},{"id":9931,"title":"長崎漁港防災緑地 おのうえの丘","architect":"西村浩+パシフィックコンサルタンツ","year":2017.0,"address":"長崎県長崎市尾上町3","latitude":32.74925231933594,"longitude":129.86863708496094,"category":"広場/公園","description":"","image_url":""},{"id":9932,"title":"大分駅北口駅前広場","architect":"西村浩+パシフィックコンサルタンツ+東亜コンサルタント","year":2015.0,"address":"大分県大分市末広町1-1","latitude":33.23400115966797,"longitude":131.60687255859375,"category":"広場","description":"","image_url":""},{"id":9933,"title":"函館市電函館駅前停留所","architect":"西村浩","year":2014.0,"address":"北海道函館市若松町16","latitude":41.7723388671875,"longitude":140.72789001464844,"category":"駅","description":"","image_url":""},{"id":9934,"title":"合戦峰物産販売所","architect":"隈研吾","year":2017.0,"address":"熊本県球磨郡山江村大字山田乙2676-1","latitude":32.229591369628906,"longitude":130.76461791992188,"category":"店舗","description":"本当に隈研吾設計なのかやや自信なし","image_url":""},{"id":9935,"title":"宮崎大学 地域デザイン棟","architect":"中園美博","year":2017.0,"address":"宮崎県宮崎市学園木花台西1-1","latitude":31.830127716064453,"longitude":131.4145965576172,"category":"大学","description":"","image_url":""},{"id":9936,"title":"秋田県立スケート場","architect":"久米設計","year":1971.0,"address":"秋田市新屋町字砂奴寄2-2","latitude":39.72600173950195,"longitude":140.0782928466797,"category":"体育館","description":"","image_url":""},{"id":9937,"title":"池田市立五月山児童文化センター","architect":"ベニス・スタヂオ建築設計事務所","year":1973.0,"address":"大阪府池田市綾羽2-5-9","latitude":34.82897186279297,"longitude":135.43011474609375,"category":"児童施設","description":"","image_url":""},{"id":9938,"title":"寝屋川市役所","architect":"ベニス・スタヂオ建築設計事務所","year":1964.0,"address":"大阪府寝屋川市本町1-1","latitude":34.76610565185547,"longitude":135.62806701660156,"category":"庁舎","description":"","image_url":""},{"id":9939,"title":"ARTBAY TOKYO","architect":"萬代基介","year":2020.0,"address":"東京都江東区青海1-3-12","latitude":35.6266975402832,"longitude":139.78062438964844,"category":"カフェ/ギャラリー","description":"","image_url":""},{"id":9940,"title":"長岡市立中央図書館","architect":"鬼頭梓","year":1987.0,"address":"新潟県長岡市学校町1-2-2","latitude":37.44060516357422,"longitude":138.86126708984375,"category":"図書館","description":"","image_url":""},{"id":9941,"title":"山口県立山口図書館","architect":"鬼頭梓","year":1973.0,"address":"山口県山口市後河原150-1","latitude":34.181488037109375,"longitude":131.476318359375,"category":"図書館","description":"","image_url":""},{"id":9942,"title":"同志社女子大学 今出川キャンパス図書館","architect":"鬼頭梓","year":1977.0,"address":"京都府京都市上京区西入今出川通","latitude":35.02938461303711,"longitude":135.7633514404297,"category":"図書館/大学","description":"","image_url":""},{"id":9943,"title":"甲南大学 図書館","architect":"鬼頭梓","year":1978.0,"address":"兵庫県神戸市東灘区岡本8-9-1","latitude":34.728973388671875,"longitude":135.2678985595703,"category":"図書館/大学","description":"","image_url":""},{"id":9944,"title":"法政大学 80年館","architect":"鬼頭梓","year":1980.0,"address":"東京都千代田区富士見2-15-13","latitude":35.6956672668457,"longitude":139.74215698242188,"category":"図書館/大学","description":"","image_url":""},{"id":9945,"title":"周南市立中央図書館","architect":"鬼頭梓","year":1981.0,"address":"山口県周南市岐山通2-7","latitude":34.05658721923828,"longitude":131.8073272705078,"category":"図書館","description":"","image_url":""},{"id":9946,"title":"立教新座中学校・高等学校 図書館棟","architect":"鬼頭梓","year":1981.0,"address":"埼玉県新座市北野1-2-25","latitude":35.81544494628906,"longitude":139.56808471679688,"category":"図書館/学校","description":"","image_url":""},{"id":9947,"title":"関西大学 総合図書館","architect":"鬼頭梓","year":1984.0,"address":"大阪府吹田市山手町3-10-3-35","latitude":34.77399444580078,"longitude":135.51011657714844,"category":"図書館/大学","description":"","image_url":""},{"id":9948,"title":"東京神学大学 図書館","architect":"鬼頭梓","year":1986.0,"address":"東京都三鷹市大沢3-10-30","latitude":35.68831253051758,"longitude":139.53411865234375,"category":"図書館/大学","description":"","image_url":""},{"id":9949,"title":"武蔵野市立吉祥寺図書館","architect":"鬼頭梓","year":1987.0,"address":"東京都武蔵野市吉祥寺本町1-21-13","latitude":35.70499038696289,"longitude":139.58224487304688,"category":"図書館","description":"","image_url":""},{"id":9950,"title":"袋井市立袋井図書館","architect":"鬼頭梓","year":1988.0,"address":"静岡県袋井市高尾町19-1","latitude":34.74543762207031,"longitude":137.92564392089844,"category":"図書館","description":"","image_url":""}]}