{"page":102,"total_pages":290,"items_per_page":50,"total_items":14467,"items":[{"id":5051,"title":"健康交流プラザ サンウェル","architect":"水野一郎","year":2000.0,"address":"富山県下新川郡入善町上野2793-1","latitude":36.92343521118164,"longitude":137.50189208984375,"category":"福祉センター/公民館・交流施設","big_category":"医療施設,公共施設","description":"","image_url":"","tags":"","prefecture":"富山","contractor":"","structural_designer":"","landscape_designer":"","shinkenchiku_url":""},{"id":5052,"title":"YKK前沢ガーデンハウス","architect":"槇文彦","year":1982.0,"address":"富山県黒部市前沢3418","latitude":36.86109161376953,"longitude":137.462646484375,"category":"企業施設","big_category":"企業施設","description":"","image_url":"","tags":"2011年JIA25年賞","prefecture":"富山","contractor":"","structural_designer":"","landscape_designer":"","shinkenchiku_url":""},{"id":5053,"title":"黒部市美術館","architect":"三井所清典","year":1993.0,"address":"富山県黒部市堀切1035","latitude":36.88186264038086,"longitude":137.4251708984375,"category":"美術館","big_category":"ミュージアム","description":"","image_url":"","tags":"","prefecture":"富山","contractor":"","structural_designer":"","landscape_designer":"","shinkenchiku_url":""},{"id":5054,"title":"岩瀬スポーツ公園 健康スポーツドーム","architect":"三井所清典","year":1992.0,"address":"富山県富山市森5-1-17","latitude":36.742469787597656,"longitude":137.23863220214844,"category":"体育館","big_category":"レジャー施設","description":"","image_url":"","tags":"","prefecture":"富山","contractor":"","structural_designer":"","landscape_designer":"","shinkenchiku_url":""},{"id":5055,"title":"長野市城山公民館別館","architect":"三沢浩+大村六郎","year":1967.0,"address":"長野市大字長野東之門町2462","latitude":36.660606384277344,"longitude":138.19175720214844,"category":"公民館・交流施設","big_category":"公共施設","description":"","image_url":"","tags":"","prefecture":"長野","contractor":"","structural_designer":"","landscape_designer":"","shinkenchiku_url":""},{"id":5056,"title":"小松市立博物館","architect":"浦建築研究所","year":1970.0,"address":"石川県小松市丸の内公園町19","latitude":36.40882110595703,"longitude":136.44834899902344,"category":"博物館","big_category":"ミュージアム","description":"","image_url":"","tags":"","prefecture":"石川","contractor":"","structural_designer":"","landscape_designer":"","shinkenchiku_url":""},{"id":5057,"title":"石川県立美術館","architect":"富家宏泰","year":1983.0,"address":"石川県金沢市出羽町2-1","latitude":36.5601921081543,"longitude":136.6612548828125,"category":"美術館","big_category":"ミュージアム","description":"","image_url":"","tags":"","prefecture":"石川","contractor":"","structural_designer":"","landscape_designer":"","shinkenchiku_url":""},{"id":5058,"title":"石川県輪島漆芸美術館","architect":"富家宏泰","year":1981.0,"address":"石川県輪島市水守町四十苅11","latitude":37.38986587524414,"longitude":136.89193725585938,"category":"美術館","big_category":"ミュージアム","description":"","image_url":"","tags":"","prefecture":"石川","contractor":"","structural_designer":"","landscape_designer":"","shinkenchiku_url":""},{"id":5059,"title":"金沢市立中村記念美術館","architect":"釣谷建築事務所","year":1989.0,"address":"石川県金沢市本多町3-2-29","latitude":36.55877685546875,"longitude":136.66053771972656,"category":"美術館","big_category":"ミュージアム","description":"","image_url":"","tags":"","prefecture":"石川","contractor":"","structural_designer":"","landscape_designer":"","shinkenchiku_url":""},{"id":5060,"title":"富山能楽堂","architect":"内井昭蔵","year":1987.0,"address":"富山県富山市友杉 富山能楽堂","latitude":36.63922119140625,"longitude":137.19822692871094,"category":"ホール・劇場","big_category":"文化施設","description":"","image_url":"","tags":"","prefecture":"富山","contractor":"","structural_designer":"","landscape_designer":"","shinkenchiku_url":""},{"id":5061,"title":"桐朋オーケストラアカデミー","architect":"日建設計","year":1996.0,"address":"富山県富山市呉羽町1884-17","latitude":36.717777252197266,"longitude":137.16543579101562,"category":"大学","big_category":"教育","description":"","image_url":"","tags":"","prefecture":"富山","contractor":"","structural_designer":"","landscape_designer":"","shinkenchiku_url":""},{"id":5062,"title":"富山県民共生センター サンフォルテ","architect":"山下設計","year":1997.0,"address":"富山県富山市湊入船町6-7","latitude":36.70761489868164,"longitude":137.21466064453125,"category":"公共施設","big_category":"公共施設","description":"","image_url":"","tags":"","prefecture":"富山","contractor":"","structural_designer":"","landscape_designer":"","shinkenchiku_url":""},{"id":5063,"title":"富山勤労総合福祉センター とやま自遊館","architect":"山下設計","year":1996.0,"address":"富山県富山市湊入船町9-1","latitude":36.706974029541016,"longitude":137.2154083251953,"category":"ホテル/プール","big_category":"宿泊,レジャー施設","description":"","image_url":"","tags":"","prefecture":"富山","contractor":"","structural_designer":"","landscape_designer":"","shinkenchiku_url":""},{"id":5064,"title":"富山市総合体育館","architect":"山下設計","year":1999.0,"address":"富山県富山市湊入船町12-1","latitude":36.70693588256836,"longitude":137.21383666992188,"category":"体育館","big_category":"レジャー施設","description":"","image_url":"","tags":"","prefecture":"富山","contractor":"","structural_designer":"","landscape_designer":"","shinkenchiku_url":""},{"id":5065,"title":"富山市オーバード・ホール","architect":"久米設計","year":1996.0,"address":"富山県富山市牛島町9-28","latitude":36.703548431396484,"longitude":137.21302795410156,"category":"ホール・劇場","big_category":"文化施設","description":"","image_url":"","tags":"","prefecture":"富山","contractor":"","structural_designer":"","landscape_designer":"","shinkenchiku_url":""},{"id":5066,"title":"富山市庁舎","architect":"日本設計","year":1992.0,"address":"富山県富山市新桜町7","latitude":36.69588851928711,"longitude":137.21368408203125,"category":"庁舎","big_category":"公共施設","description":"","image_url":"","tags":"1996年公共建築賞,1995年日本建築学会 作品選奨,2019年JIA25年賞 登録作品","prefecture":"富山","contractor":"","structural_designer":"","landscape_designer":"","shinkenchiku_url":""},{"id":5067,"title":"北野建設白馬営業所","architect":"吉村順三","year":1988.0,"address":"長野県北安曇郡白馬村北城 北野建設（株）白馬（営）","latitude":36.68906784057617,"longitude":137.85914611816406,"category":"低層オフィス","big_category":"企業施設","description":"","image_url":"","tags":"","prefecture":"長野","contractor":"","structural_designer":"","landscape_designer":"","shinkenchiku_url":""},{"id":5068,"title":"シェラリゾート白馬","architect":"不明","year":1994.0,"address":"長野県北安曇郡白馬村北城14863-6","latitude":36.73458480834961,"longitude":137.86209106445312,"category":"ホテル","big_category":"宿泊","description":"","image_url":"","tags":"","prefecture":"長野","contractor":"","structural_designer":"","landscape_designer":"","shinkenchiku_url":""},{"id":5069,"title":"富山県立富山中部高等学校","architect":"福見建築設計","year":2014.0,"address":"富山県富山市芝園町3-1-26","latitude":36.695858001708984,"longitude":137.20376586914062,"category":"学校","big_category":"教育","description":"","image_url":"","tags":"","prefecture":"富山","contractor":"","structural_designer":"","landscape_designer":"","shinkenchiku_url":""},{"id":5070,"title":"TOYAMAキラリ","architect":"隈研吾","year":2015.0,"address":"富山県富山市上本町9-7","latitude":36.688419342041016,"longitude":137.21502685546875,"category":"総合文化施設/図書館/美術館","big_category":"文化施設,文化施設,ミュージアム","description":"","image_url":"","tags":"新建築2016年3月号","prefecture":"富山","contractor":"","structural_designer":"","landscape_designer":"","shinkenchiku_url":""},{"id":5071,"title":"軽井沢 天空カフェ・アウラ","architect":"玉上貴人","year":2011.0,"address":"長野県北佐久郡軽井沢町大字軽井沢字深古屋1369-51","latitude":36.37693405151367,"longitude":138.6177520751953,"category":"カフェ","big_category":"商業施設","description":"閉店という記述有り","image_url":"","tags":"","prefecture":"長野","contractor":"","structural_designer":"","landscape_designer":"","shinkenchiku_url":""},{"id":5072,"title":"草津ホテル 別館 綿の湯","architect":"玉上貴人","year":2007.0,"address":"群馬県吾妻郡草津町草津469-4","latitude":36.62382125854492,"longitude":138.59246826171875,"category":"旅館/ホテル","big_category":"宿泊,宿泊","description":"","image_url":"","tags":"","prefecture":"群馬","contractor":"","structural_designer":"","landscape_designer":"","shinkenchiku_url":""},{"id":5073,"title":"ぬまづ健康福祉プラザ サンウェルぬまづ","architect":"久米設計","year":2007.0,"address":"静岡県沼津市日の出町1-15","latitude":35.110008239746094,"longitude":138.86654663085938,"category":"総合文化施設/公民館・交流施設","big_category":"文化施設,公共施設","description":"","image_url":"","tags":"","prefecture":"静岡","contractor":"","structural_designer":"","landscape_designer":"","shinkenchiku_url":""},{"id":5074,"title":"工学院大学 八王子キャンパス スチューデントセンター","architect":"山本・堀アーキテクツ","year":2011.0,"address":"東京都八王子市中野町2665-1","latitude":35.684234619140625,"longitude":139.31788635253906,"category":"大学","big_category":"教育","description":"","image_url":"","tags":"","prefecture":"東京","contractor":"","structural_designer":"","landscape_designer":"","shinkenchiku_url":""},{"id":5075,"title":"工学院大学 八王子キャンパス 15号館","architect":"山本・堀アーキテクツ","year":2000.0,"address":"東京都八王子市中野町2665-1","latitude":35.68311309814453,"longitude":139.3180694580078,"category":"大学","big_category":"教育","description":"","image_url":"","tags":"2002年日本建築学会 作品選奨","prefecture":"東京","contractor":"","structural_designer":"","landscape_designer":"","shinkenchiku_url":""},{"id":5076,"title":"東北大学 青葉山東キャンパス マテリアル・開発系材料共同研究棟","architect":"山本・堀アーキテクツ","year":2011.0,"address":"宮城県仙台市青葉区荒巻字青葉6-6","latitude":38.253822326660156,"longitude":140.8426055908203,"category":"大学","big_category":"教育","description":"","image_url":"","tags":"","prefecture":"宮城","contractor":"","structural_designer":"","landscape_designer":"","shinkenchiku_url":""},{"id":5077,"title":"東北大学 片平北門会館","architect":"山本・堀アーキテクツ","year":2013.0,"address":"宮城県仙台市青葉区一番町1-14-8","latitude":38.25525665283203,"longitude":140.87315368652344,"category":"大学/寮","big_category":"教育,住宅","description":"","image_url":"","tags":"","prefecture":"宮城","contractor":"","structural_designer":"","landscape_designer":"","shinkenchiku_url":""},{"id":5078,"title":"九州大学 伊都キャンパス 最先端有機光エレクトロニクス研究棟","architect":"山本・堀アーキテクツ","year":2011.0,"address":"福岡県福岡市西区元岡744","latitude":33.59530258178711,"longitude":130.2147216796875,"category":"大学","big_category":"教育","description":"","image_url":"","tags":"","prefecture":"福岡","contractor":"","structural_designer":"","landscape_designer":"","shinkenchiku_url":""},{"id":5079,"title":"庄内町ギャラリー温泉 町湯","architect":"高谷時彦","year":2014.0,"address":"山形県東田川郡庄内町余目土堤下35","latitude":38.84202575683594,"longitude":139.905517578125,"category":"温泉/ギャラリー","big_category":"宿泊,ミュージアム","description":"","image_url":"","tags":"","prefecture":"山形","contractor":"","structural_designer":"","landscape_designer":"","shinkenchiku_url":""},{"id":5080,"title":"ひみ漁業交流館 魚々座","architect":"手塚建築研究所","year":2015.0,"address":"富山県氷見市中央町7-1","latitude":36.86102294921875,"longitude":136.98928833007812,"category":"PA・道の駅/観光施設","big_category":"インフラ,レジャー施設","description":"","image_url":"","tags":"","prefecture":"富山","contractor":"","structural_designer":"","landscape_designer":"","shinkenchiku_url":""},{"id":5081,"title":"しいきアルゲリッチハウス","architect":"水野宏+東九州設計工務","year":2015.0,"address":"大分県別府市野口原3030-1","latitude":33.284420013427734,"longitude":131.48805236816406,"category":"ホール・劇場","big_category":"文化施設","description":"","image_url":"","tags":"","prefecture":"大分","contractor":"","structural_designer":"","landscape_designer":"","shinkenchiku_url":""},{"id":5082,"title":"練馬区立向山庭園","architect":"内藤廣","year":2013.0,"address":"東京都練馬区向山3-1-21","latitude":35.74211120605469,"longitude":139.6466522216797,"category":"庭園","big_category":"文化施設","description":"","image_url":"","tags":"","prefecture":"東京","contractor":"","structural_designer":"","landscape_designer":"","shinkenchiku_url":""},{"id":5083,"title":"とらや御殿場店","architect":"内藤廣","year":2006.0,"address":"静岡県御殿場市新橋728-1","latitude":35.29962921142578,"longitude":138.94064331054688,"category":"店舗","big_category":"商業施設","description":"","image_url":"","tags":"","prefecture":"静岡","contractor":"","structural_designer":"","landscape_designer":"","shinkenchiku_url":""},{"id":5084,"title":"二期倶楽部 七石舞台 \"かがみ\"","architect":"内藤廣","year":2006.0,"address":"栃木県那須郡那須町高久乙道下2301","latitude":37.05722427368164,"longitude":139.97618103027344,"category":"ホテル/オブジェ","big_category":"宿泊,ミュージアム","description":"現在は使われていない模様","image_url":"","tags":"","prefecture":"栃木","contractor":"","structural_designer":"","landscape_designer":"","shinkenchiku_url":""},{"id":5085,"title":"パチンコパーラー II 金馬車 那珂店","architect":"妹島和世","year":1993.0,"address":"茨城県那珂市菅谷647-1","latitude":36.45824432373047,"longitude":140.50059509277344,"category":"店舗","big_category":"商業施設","description":"なお、パチンコパーラーIIIは移転、現存せず","image_url":"","tags":"","prefecture":"茨城","contractor":"","structural_designer":"","landscape_designer":"","shinkenchiku_url":""},{"id":5086,"title":"パチンコパーラー I 金馬車 日立銀座店","architect":"妹島和世","year":1992.0,"address":"茨城県日立市鹿島町1-13-3","latitude":36.59514617919922,"longitude":140.65138244628906,"category":"店舗","big_category":"商業施設","description":"","image_url":"","tags":"","prefecture":"茨城","contractor":"","structural_designer":"","landscape_designer":"","shinkenchiku_url":""},{"id":5087,"title":"江山閣","architect":"妹島和世","year":2000.0,"address":"茨城県水戸市三の丸3-10 江山閣","latitude":36.37220764160156,"longitude":140.48214721679688,"category":"学校/研修施設","big_category":"教育,教育","description":"","image_url":"","tags":"","prefecture":"茨城","contractor":"","structural_designer":"","landscape_designer":"","shinkenchiku_url":""},{"id":5088,"title":"下御門ビル","architect":"妹島和世","year":2003.0,"address":"奈良県奈良市下御門町3-1","latitude":34.6786003112793,"longitude":135.82882690429688,"category":"低層オフィス","big_category":"企業施設","description":"","image_url":"","tags":"","prefecture":"奈良","contractor":"","structural_designer":"","landscape_designer":"","shinkenchiku_url":""},{"id":5089,"title":"埼玉県農林会館","architect":"清家清","year":1962.0,"address":"埼玉県さいたま市浦和区高砂3-12-9","latitude":35.85811233520508,"longitude":139.6494140625,"category":"組合施設","big_category":"公共施設","description":"","image_url":"","tags":"","prefecture":"埼玉","contractor":"","structural_designer":"","landscape_designer":"","shinkenchiku_url":""},{"id":5090,"title":"横浜北部斎場","architect":"竹山実","year":2002.0,"address":"神奈川県横浜市緑区長津田町5125-1","latitude":35.5106201171875,"longitude":139.48733520507812,"category":"斎場","big_category":"公共施設","description":"","image_url":"","tags":"","prefecture":"神奈川","contractor":"","structural_designer":"","landscape_designer":"","shinkenchiku_url":""},{"id":5091,"title":"埼玉県市町村職員共済組合草津保養所 アルペンローゼ","architect":"竹山実","year":1990.0,"address":"群馬県吾妻郡草津町草津512-2","latitude":36.6245231628418,"longitude":138.5946502685547,"category":"ホテル/組合施設","big_category":"宿泊,公共施設","description":"","image_url":"","tags":"","prefecture":"群馬","contractor":"","structural_designer":"","landscape_designer":"","shinkenchiku_url":""},{"id":5092,"title":"中村記念病院","architect":"竹山実","year":1980.0,"address":"北海道札幌市中央区南1条西14-291-190","latitude":43.05645751953125,"longitude":141.33636474609375,"category":"病院","big_category":"医療施設","description":"","image_url":"","tags":"","prefecture":"北海道","contractor":"","structural_designer":"","landscape_designer":"","shinkenchiku_url":""},{"id":5093,"title":"武蔵野美術大学 10号館","architect":"竹山実","year":1981.0,"address":"東京都小平市小川町1-736","latitude":35.72673797607422,"longitude":139.44900512695312,"category":"大学","big_category":"教育","description":"","image_url":"","tags":"","prefecture":"東京","contractor":"","structural_designer":"","landscape_designer":"","shinkenchiku_url":""},{"id":5094,"title":"エジプト大使館","architect":"竹山実","year":1986.0,"address":"東京都目黒区青葉台1-5-4","latitude":35.64898681640625,"longitude":139.69847106933594,"category":"公共施設","big_category":"公共施設","description":"","image_url":"","tags":"","prefecture":"東京","contractor":"","structural_designer":"","landscape_designer":"","shinkenchiku_url":""},{"id":5095,"title":"北見北斗病院","architect":"竹山実","year":1988.0,"address":"北海道北見市北5条西1-16-2","latitude":43.80666732788086,"longitude":143.89254760742188,"category":"病院","big_category":"医療施設","description":"","image_url":"","tags":"","prefecture":"北海道","contractor":"","structural_designer":"","landscape_designer":"","shinkenchiku_url":""},{"id":5096,"title":"ネオアージュ中目黒","architect":"竹山実","year":1990.0,"address":"東京都目黒区東山1-3-1","latitude":35.64761734008789,"longitude":139.6938018798828,"category":"集合住宅","big_category":"住宅","description":"","image_url":"","tags":"","prefecture":"東京","contractor":"","structural_designer":"","landscape_designer":"","shinkenchiku_url":""},{"id":5097,"title":"味覚糖本社","architect":"竹山実","year":1992.0,"address":"大阪府大阪市中央区神崎町4-12","latitude":34.67710494995117,"longitude":135.5123748779297,"category":"オフィスビル","big_category":"企業施設","description":"","image_url":"","tags":"","prefecture":"大阪","contractor":"","structural_designer":"","landscape_designer":"","shinkenchiku_url":""},{"id":5098,"title":"テック広尾","architect":"竹山実","year":1992.0,"address":"東京都渋谷区広尾1-10-5","latitude":35.64833068847656,"longitude":139.7169952392578,"category":"オフィスビル","big_category":"企業施設","description":"","image_url":"","tags":"","prefecture":"東京","contractor":"","structural_designer":"","landscape_designer":"","shinkenchiku_url":""},{"id":5099,"title":"ガトーキングダムサッポロ 旧テルメインターナショナルホテル札幌","architect":"竹山実","year":1993.0,"address":"北海道札幌市北区東茨戸132","latitude":43.17101287841797,"longitude":141.35552978515625,"category":"ホテル","big_category":"宿泊","description":"","image_url":"","tags":"","prefecture":"北海道","contractor":"","structural_designer":"","landscape_designer":"","shinkenchiku_url":""},{"id":5100,"title":"広尾プラザ","architect":"竹山実","year":1993.0,"address":"東京都渋谷区広尾5-6-6","latitude":35.65004348754883,"longitude":139.7220001220703,"category":"テナントビル","big_category":"商業施設","description":"","image_url":"","tags":"","prefecture":"東京","contractor":"","structural_designer":"","landscape_designer":"","shinkenchiku_url":""}]}