{"page":244,"total_pages":290,"items_per_page":50,"total_items":14467,"items":[{"id":12151,"title":"「団地キッチン」田島","architect":"つばめ舎建築設計+蓑部和人","year":2022.0,"address":"埼玉県さいたま市桜区田島6-1-20","latitude":35.84330368041992,"longitude":139.62850952148438,"category":"カフェ/シェアオフィス","big_category":"商業施設,商業施設","description":"","image_url":"","tags":"新建築2023年2月号,Ver4.90(2023年4月)の追加建築","prefecture":"埼玉","contractor":"","structural_designer":"","landscape_designer":"","shinkenchiku_url":""},{"id":12152,"title":"MNH","architect":"長田直之","year":2022.0,"address":"神奈川県川崎市中原区下小田中3-17","latitude":35.573097229003906,"longitude":139.64199829101562,"category":"集合住宅/養護施設","big_category":"住宅,医療施設","description":"","image_url":"","tags":"新建築2023年2月号,Ver4.90(2023年4月)の追加建築","prefecture":"神奈川","contractor":"","structural_designer":"","landscape_designer":"","shinkenchiku_url":""},{"id":12153,"title":"TAKANAWA CUBE","architect":"千葉学","year":2022.0,"address":"東京都港区高輪1-20-13","latitude":35.63917541503906,"longitude":139.73374938964844,"category":"集合住宅","big_category":"住宅","description":"","image_url":"","tags":"新建築2023年2月号,Ver4.90(2023年4月)の追加建築","prefecture":"東京","contractor":"","structural_designer":"","landscape_designer":"","shinkenchiku_url":""},{"id":12154,"title":"鎌倉アパートメント","architect":"miCo.","year":2022.0,"address":"神奈川県鎌倉市長谷1-7-2","latitude":35.313804626464844,"longitude":139.54037475585938,"category":"集合住宅","big_category":"住宅","description":"","image_url":"","tags":"新建築2023年2月号,Ver4.90(2023年4月)の追加建築","prefecture":"神奈川","contractor":"","structural_designer":"","landscape_designer":"","shinkenchiku_url":""},{"id":12155,"title":"VENTINOVE","architect":"布施茂","year":2022.0,"address":"群馬県利根郡川場村谷地2593-1","latitude":36.702857971191406,"longitude":139.11203002929688,"category":"レストラン","big_category":"商業施設","description":"","image_url":"","tags":"新建築2023年2月号,Ver4.90(2023年4月)の追加建築","prefecture":"群馬","contractor":"","structural_designer":"","landscape_designer":"","shinkenchiku_url":""},{"id":12156,"title":"プラウドタワー亀戸クロス","architect":"前田建設工業+野村不動産","year":2022.0,"address":"東京都江東区亀戸6-31-1","latitude":35.69575500488281,"longitude":139.82862854003906,"category":"集合住宅","big_category":"住宅","description":"","image_url":"","tags":"新建築2023年2月号,Ver4.90(2023年4月)の追加建築","prefecture":"東京","contractor":"","structural_designer":"","landscape_designer":"","shinkenchiku_url":""},{"id":12157,"title":"カメイドクロック","architect":"東急設計コンサルタント+前田建設工業","year":2022.0,"address":"東京都江東区亀戸6-31-6","latitude":35.69590377807617,"longitude":139.82931518554688,"category":"モール","big_category":"商業施設","description":"","image_url":"","tags":"新建築2023年2月号,Ver4.90(2023年4月)の追加建築","prefecture":"東京","contractor":"","structural_designer":"","landscape_designer":"","shinkenchiku_url":""},{"id":12158,"title":"チャームプレミア グラン 御殿山弐番館","architect":"日建ハウジングシステム","year":2022.0,"address":"東京都品川区北品川6-6-38","latitude":35.62543869018555,"longitude":139.73318481445312,"category":"養護施設/集合住宅","big_category":"医療施設,住宅","description":"","image_url":"","tags":"新建築2023年2月号,Ver4.90(2023年4月)の追加建築","prefecture":"東京","contractor":"","structural_designer":"","landscape_designer":"","shinkenchiku_url":""},{"id":12159,"title":"明治大学 和泉ラーニングスクエア","architect":"松田平田設計","year":2022.0,"address":"東京都杉並区永福1-9-1","latitude":35.669708251953125,"longitude":139.6477508544922,"category":"大学","big_category":"教育","description":"","image_url":"","tags":"新建築2023年3月号,Ver4.90(2023年4月)の追加建築","prefecture":"東京","contractor":"戸田建設","structural_designer":"","landscape_designer":"","shinkenchiku_url":""},{"id":12160,"title":"AGIRLS本社ビル","architect":"竹山聖","year":2022.0,"address":"和歌山県和歌山市三葛3-5","latitude":34.18727111816406,"longitude":135.18954467773438,"category":"低層オフィス/店舗","big_category":"企業施設,商業施設","description":"","image_url":"","tags":"新建築2023年3月号,Ver4.90(2023年4月)の追加建築","prefecture":"和歌山","contractor":"淺川組","structural_designer":"","landscape_designer":"","shinkenchiku_url":""},{"id":12161,"title":"ROVAL社屋","architect":"マウントフジアーキテクツスタジオ","year":2023.0,"address":"大阪府枚方市野村元町1-1","latitude":34.808929443359375,"longitude":135.69308471679688,"category":"低層オフィス/工場","big_category":"企業施設,企業施設","description":"","image_url":"","tags":"新建築2023年3月号,Ver4.90(2023年4月)の追加建築","prefecture":"大阪","contractor":"藤木工務店","structural_designer":"","landscape_designer":"","shinkenchiku_url":""},{"id":12162,"title":"杭とトンガリ","architect":"能作文徳+常山未央","year":2022.0,"address":"東京都渋谷区西原1-14-9","latitude":35.674808502197266,"longitude":139.67955017089844,"category":"店舗","big_category":"商業施設","description":"","image_url":"","tags":"新建築2023年3月号,Ver4.90(2023年4月)の追加建築","prefecture":"東京","contractor":"","structural_designer":"","landscape_designer":"","shinkenchiku_url":""},{"id":12163,"title":"瀬戸内「　　　」資料館 へんこつ","architect":"能作文徳","year":2022.0,"address":"香川県香川郡直島町2310-77","latitude":34.45980453491211,"longitude":133.97425842285156,"category":"ギャラリー","big_category":"ミュージアム","description":"2023年4月より毎週土曜日に定期開催。アーティスト・下道基行によるプロジェクト","image_url":"","tags":"新建築2023年3月号,Ver4.90(2023年4月)の追加建築","prefecture":"香川","contractor":"","structural_designer":"","landscape_designer":"","shinkenchiku_url":""},{"id":12164,"title":"宮浦ギャラリー六区","architect":"西沢大良","year":2013.0,"address":"香川県香川郡直島町2310-77","latitude":34.45977783203125,"longitude":133.9744110107422,"category":"ギャラリー","big_category":"ミュージアム","description":"","image_url":"","tags":"新建築2013年9月号,Ver4.90(2023年4月)の追加建築","prefecture":"香川","contractor":"","structural_designer":"","landscape_designer":"","shinkenchiku_url":""},{"id":12165,"title":"OTA Lines","architect":"平田晃久","year":2022.0,"address":"群馬県太田市脇屋町826-1","latitude":36.30173110961914,"longitude":139.32981872558594,"category":"レストラン/ギャラリー","big_category":"商業施設,ミュージアム","description":"レストラン・ギャラリーなどの複合施設","image_url":"","tags":"新建築2023年3月号,Ver4.90(2023年4月)の追加建築","prefecture":"群馬","contractor":"","structural_designer":"","landscape_designer":"","shinkenchiku_url":""},{"id":12166,"title":"熊本県フットボールセンター COSMOS","architect":"TASS建築研究所","year":2022.0,"address":"熊本県上益城郡嘉島町下六嘉1536-2","latitude":32.757511138916016,"longitude":130.75648498535156,"category":"スポーツ施設/スタジアム","big_category":"レジャー施設,レジャー施設","description":"","image_url":"","tags":"新建築2023年3月号,Ver4.90(2023年4月)の追加建築","prefecture":"熊本","contractor":"","structural_designer":"","landscape_designer":"","shinkenchiku_url":""},{"id":12167,"title":"鳥飼八幡宮 式年遷宮","architect":"二宮設計","year":2022.0,"address":"福岡県福岡市中央区今川2-1-17","latitude":33.58712387084961,"longitude":130.3661346435547,"category":"寺院","big_category":"宗教","description":"本殿拝殿の建替","image_url":"","tags":"新建築2023年3月号,Ver4.90(2023年4月)の追加建築","prefecture":"福岡","contractor":"","structural_designer":"","landscape_designer":"","shinkenchiku_url":""},{"id":12168,"title":"ESCON 九段北ビル","architect":"永山祐子","year":2022.0,"address":"東京都千代田区九段北1-15-12","latitude":35.69620132446289,"longitude":139.7483367919922,"category":"オフィスビル","big_category":"企業施設","description":"","image_url":"","tags":"新建築2023年3月号,Ver4.90(2023年4月)の追加建築","prefecture":"東京","contractor":"","structural_designer":"","landscape_designer":"","shinkenchiku_url":""},{"id":12169,"title":"尾州ビレッジ","architect":"MARU。architecture","year":2022.0,"address":"愛知県一宮市栄3-1-2","latitude":35.30197525024414,"longitude":136.79798889160156,"category":"モール","big_category":"商業施設","description":"","image_url":"","tags":"新建築2023年3月号,Ver4.90(2023年4月)の追加建築","prefecture":"愛知","contractor":"","structural_designer":"","landscape_designer":"","shinkenchiku_url":""},{"id":12170,"title":"神奈川県立図書館 本館","architect":"奥野設計","year":2022.0,"address":"神奈川県横浜市西区紅葉ケ丘9-2","latitude":35.45125961303711,"longitude":139.6253662109375,"category":"図書館","big_category":"文化施設","description":"","image_url":"","tags":"新建築2023年3月号,Ver4.90(2023年4月)の追加建築","prefecture":"神奈川","contractor":"","structural_designer":"","landscape_designer":"","shinkenchiku_url":""},{"id":12171,"title":"三宮プラッツ","architect":"畑友洋","year":2020.0,"address":"兵庫県神戸市中央区三宮町1-1-3","latitude":34.69062423706055,"longitude":135.1936492919922,"category":"広場","big_category":"文化施設","description":"","image_url":"","tags":"新建築2023年3月号,Ver4.90(2023年4月)の追加建築","prefecture":"兵庫","contractor":"","structural_designer":"","landscape_designer":"","shinkenchiku_url":""},{"id":12172,"title":"神山まるごと高専 HOME 西上角校舎・学生寮","architect":"吉田周一郎+須磨一清","year":2023.0,"address":"徳島県名西郡神山町神領西上角175-1","latitude":33.9727783203125,"longitude":134.36282348632812,"category":"学校/寮","big_category":"教育,住宅","description":"","image_url":"","tags":"新建築2023年4月号,Ver4.90(2023年4月)の追加建築","prefecture":"徳島","contractor":"北島コーポレーション","structural_designer":"","landscape_designer":"","shinkenchiku_url":""},{"id":12173,"title":"神山まるごと高専 OFFICE 大埜地校舎","architect":"吉田周一郎+須磨一清","year":2023.0,"address":"徳島県名西郡神山町神領字大埜地343","latitude":33.97343826293945,"longitude":134.36024475097656,"category":"学校","big_category":"教育","description":"","image_url":"","tags":"新建築2023年4月号,Ver4.90(2023年4月)の追加建築","prefecture":"徳島","contractor":"北島コーポレーション","structural_designer":"","landscape_designer":"","shinkenchiku_url":""},{"id":12174,"title":"ジューテック本社ビル","architect":"鹿島建設","year":2023.0,"address":"東京都港区新橋6-3-4","latitude":35.662452697753906,"longitude":139.75343322753906,"category":"オフィスビル","big_category":"企業施設","description":"","image_url":"","tags":"新建築2023年4月号,Ver4.90(2023年4月)の追加建築","prefecture":"東京","contractor":"","structural_designer":"","landscape_designer":"","shinkenchiku_url":""},{"id":12175,"title":"awaもくよんプロジェクト 新浜町団地県営住宅","architect":"内野輝明+島津臣志+カワグチテイ建築計画","year":2023.0,"address":"徳島県徳島市新浜町1-5-2","latitude":34.051761627197266,"longitude":134.5686798095703,"category":"集合住宅","big_category":"住宅","description":"","image_url":"","tags":"新建築2023年4月号,Ver4.90(2023年4月)の追加建築","prefecture":"徳島","contractor":"","structural_designer":"","landscape_designer":"","shinkenchiku_url":""},{"id":12176,"title":"内外テクノス本社工場","architect":"大林組","year":2023.0,"address":"埼玉県ふじみ野市亀久保1150","latitude":35.85496139526367,"longitude":139.50350952148438,"category":"工場/低層オフィス","big_category":"企業施設,企業施設","description":"","image_url":"","tags":"新建築2023年4月号,Ver4.90(2023年4月)の追加建築","prefecture":"埼玉","contractor":"大林組","structural_designer":"","landscape_designer":"","shinkenchiku_url":""},{"id":12177,"title":"鉄と木の積層オフィス Sreed EBISU+t","architect":"SALHAUS","year":2023.0,"address":"東京都渋谷区恵比寿西1-21-5","latitude":35.64643096923828,"longitude":139.7059326171875,"category":"オフィスビル","big_category":"企業施設","description":"","image_url":"","tags":"新建築2023年4月号,Ver4.90(2023年4月)の追加建築","prefecture":"東京","contractor":"","structural_designer":"","landscape_designer":"","shinkenchiku_url":""},{"id":12178,"title":"岡山大学 共育共創コモンズ オークス","architect":"隈研吾+清水建設","year":2023.0,"address":"岡山県岡山市北区津島中3-1","latitude":34.689414978027344,"longitude":133.92381286621094,"category":"大学","big_category":"教育","description":"監修・基本計画:隈研吾","image_url":"","tags":"新建築2023年4月号,Ver4.90(2023年4月)の追加建築","prefecture":"岡山","contractor":"","structural_designer":"","landscape_designer":"","shinkenchiku_url":""},{"id":12179,"title":"大豊町立大豊学園・大杉保育所","architect":"平山昌信","year":2022.0,"address":"高知県長岡郡大豊町中村大王1057","latitude":33.7526741027832,"longitude":133.66510009765625,"category":"幼稚園","big_category":"教育","description":"","image_url":"","tags":"新建築2023年4月号,Ver4.90(2023年4月)の追加建築","prefecture":"高知","contractor":"藤川工務店","structural_designer":"","landscape_designer":"","shinkenchiku_url":""},{"id":12180,"title":"みなみあいづ森と木の情報・活動ステーション きとね","architect":"はりゅうウッドスタジオ+福島県建築設計協同組合","year":2022.0,"address":"福島県南会津郡南会津町田島宮本東33-1","latitude":37.20582962036133,"longitude":139.7781982421875,"category":"公民館・交流施設","big_category":"公共施設","description":"","image_url":"","tags":"新建築2023年4月号,Ver4.90(2023年4月)の追加建築,2024年日本建築学会 作品選奨","prefecture":"福島","contractor":"","structural_designer":"","landscape_designer":"","shinkenchiku_url":""},{"id":12181,"title":"星野神社 本殿・覆殿","architect":"望月成高","year":2021.0,"address":"愛知県豊川市平尾町上貝津102","latitude":34.84994888305664,"longitude":137.34535217285156,"category":"寺院","big_category":"宗教","description":"","image_url":"","tags":"新建築2023年4月号,Ver4.90(2023年4月)の追加建築","prefecture":"愛知","contractor":"","structural_designer":"","landscape_designer":"","shinkenchiku_url":""},{"id":12182,"title":"郭巨山会所","architect":"魚谷繁礼","year":2022.0,"address":"京都府京都市下京区郭巨山町18","latitude":35.003570556640625,"longitude":135.7559356689453,"category":"公民館・交流施設","big_category":"公共施設","description":"郭巨山の町会所改修","image_url":"","tags":"新建築2023年4月号,Ver4.90(2023年4月)の追加建築,2023年日本建築学会 作品賞","prefecture":"京都","contractor":"","structural_designer":"","landscape_designer":"","shinkenchiku_url":""},{"id":12183,"title":"浦河フレンド森のようちえん","architect":"照井康穂","year":2022.0,"address":"北海道浦河郡浦河町東町かしわ4-339-2","latitude":42.17021179199219,"longitude":142.80157470703125,"category":"幼稚園","big_category":"教育","description":"","image_url":"","tags":"新建築2023年4月号,Ver4.90(2023年4月)の追加建築","prefecture":"北海道","contractor":"","structural_designer":"","landscape_designer":"","shinkenchiku_url":""},{"id":12184,"title":"大黒屋 d&i","architect":"佐々木信明","year":2022.0,"address":"長崎県大村市東三城町162","latitude":32.9101676940918,"longitude":129.95713806152344,"category":"低層オフィス","big_category":"企業施設","description":"","image_url":"","tags":"新建築2023年4月号,Ver4.90(2023年4月)の追加建築","prefecture":"長崎","contractor":"","structural_designer":"","landscape_designer":"","shinkenchiku_url":""},{"id":12185,"title":"望洋楼","architect":"川添善行","year":2021.0,"address":"福井県坂井市三国町米ケ脇4-3-38","latitude":36.2255859375,"longitude":136.13232421875,"category":"旅館","big_category":"宿泊","description":"","image_url":"","tags":"Ver4.90(2023年4月)の追加建築","prefecture":"福井","contractor":"","structural_designer":"","landscape_designer":"","shinkenchiku_url":""},{"id":12186,"title":"和歌山市駅前広場","architect":"川添善行","year":2020.0,"address":"和歌山県和歌山市東蔵前丁39","latitude":34.236026763916016,"longitude":135.16705322265625,"category":"広場","big_category":"文化施設","description":"","image_url":"","tags":"Ver4.90(2023年4月)の追加建築","prefecture":"和歌山","contractor":"","structural_designer":"","landscape_designer":"","shinkenchiku_url":""},{"id":12187,"title":"アプリュス芝スタジオ 旧社員寮棟","architect":"鍋野友哉","year":2022.0,"address":"埼玉県川口市芝4-17-16","latitude":35.835052490234375,"longitude":139.6934051513672,"category":"ギャラリー/その他文化施設/低層オフィス","big_category":"ミュージアム,文化施設,企業施設","description":"改修設計","image_url":"","tags":"新建築2023年4月号,Ver4.90(2023年4月)の追加建築","prefecture":"埼玉","contractor":"","structural_designer":"","landscape_designer":"","shinkenchiku_url":""},{"id":12188,"title":"松田町立松田小学校","architect":"前田建設工業+杉本洋文+類設計室+関野建設","year":2022.0,"address":"神奈川県足柄上郡松田町松田庶子204","latitude":35.34549331665039,"longitude":139.1343536376953,"category":"学校","big_category":"教育","description":"","image_url":"","tags":"新建築2023年4月号,Ver4.90(2023年4月)の追加建築","prefecture":"神奈川","contractor":"","structural_designer":"","landscape_designer":"","shinkenchiku_url":""},{"id":12189,"title":"JR卯之町駅舎","architect":"齊藤正","year":2022.0,"address":"愛媛県西予市宇和町卯之町2","latitude":33.36316680908203,"longitude":132.50999450683594,"category":"駅","big_category":"インフラ","description":"","image_url":"","tags":"新建築2023年4月号,Ver4.90(2023年4月)の追加建築","prefecture":"愛媛","contractor":"","structural_designer":"","landscape_designer":"","shinkenchiku_url":""},{"id":12190,"title":"長崎市庁舎","architect":"山下設計+建友社設計+有馬建築設計事務所","year":2022.0,"address":"長崎県長崎市魚の町4-1","latitude":32.74928665161133,"longitude":129.88011169433594,"category":"庁舎","big_category":"公共施設","description":"","image_url":"","tags":"新建築2023年4月号,Ver4.90(2023年4月)の追加建築","prefecture":"長崎","contractor":"","structural_designer":"","landscape_designer":"","shinkenchiku_url":""},{"id":12191,"title":"emCAMPUS EAST東棟 豊橋市まちなか広場","architect":"北山孝二郎+アール・アイ・エー","year":2022.0,"address":"愛知県豊橋市駅前大通2-81","latitude":34.762535095214844,"longitude":137.38710021972656,"category":"総合文化施設/複合施設","big_category":"文化施設,商業施設","description":"","image_url":"","tags":"Ver4.90(2023年4月)の追加建築,新建築2025年2月号","prefecture":"愛知","contractor":"","structural_designer":"","landscape_designer":"","shinkenchiku_url":""},{"id":12192,"title":"SINKO AIR DESIGN STUDIO","architect":"竹中工務店","year":2020.0,"address":"大阪府寝屋川市宇谷町11-13","latitude":34.76676559448242,"longitude":135.64797973632812,"category":"企業施設/博物館/低層オフィス","big_category":"企業施設,ミュージアム,企業施設","description":"ショールーム。見学は要予約","image_url":"","tags":"Ver4.90(2023年4月)の追加建築","prefecture":"大阪","contractor":"","structural_designer":"","landscape_designer":"","shinkenchiku_url":""},{"id":12193,"title":"YHRPミュージアム","architect":"岡河貢","year":2018.0,"address":"広島県広島市南区出汐1-5-17","latitude":34.379764556884766,"longitude":132.47767639160156,"category":"美術館","big_category":"ミュージアム","description":"大学病院内の美術館","image_url":"","tags":"Ver4.90(2023年4月)の追加建築","prefecture":"広島","contractor":"","structural_designer":"","landscape_designer":"","shinkenchiku_url":""},{"id":12194,"title":"芦花小学校・中学校","architect":"NTTファシリティーズ","year":2012.0,"address":"東京都世田谷区粕谷2−22−1","latitude":35.666297912597656,"longitude":139.61123657226562,"category":"学校","big_category":"教育","description":"","image_url":"","tags":"Ver4.90(2023年4月)の追加建築","prefecture":"東京","contractor":"","structural_designer":"","landscape_designer":"","shinkenchiku_url":""},{"id":12195,"title":"新宿区立中村彝アトリエ記念館","architect":"不明","year":1916.0,"address":"東京都新宿区下落合3-5-7","latitude":35.72087860107422,"longitude":139.70118713378906,"category":"博物館","big_category":"ミュージアム","description":"","image_url":"","tags":"Ver4.90(2023年4月)の追加建築","prefecture":"東京","contractor":"","structural_designer":"","landscape_designer":"","shinkenchiku_url":""},{"id":12196,"title":"兵庫県庁舎","architect":"光安義光","year":1966.0,"address":"兵庫県神戸市中央区下山手通5-10-1","latitude":34.69121551513672,"longitude":135.18309020996094,"category":"庁舎","big_category":"公共施設","description":"","image_url":"","tags":"Ver4.90(2023年4月)の追加建築","prefecture":"兵庫","contractor":"","structural_designer":"","landscape_designer":"","shinkenchiku_url":""},{"id":12197,"title":"遺愛学院講堂","architect":"ウィリアム・メレル・ヴォーリズ","year":1935.0,"address":"北海道函館市杉並町64-1","latitude":41.787513732910156,"longitude":140.7572021484375,"category":"学校/洋館","big_category":"教育,近代建築/遺産","description":"講堂および渡り廊下増築","image_url":"","tags":"Ver4.90(2023年4月)の追加建築","prefecture":"北海道","contractor":"","structural_designer":"","landscape_designer":"","shinkenchiku_url":""},{"id":12198,"title":"旧ロシア領事館","architect":"リヒャルト・ゼール","year":1908.0,"address":"北海道函館市船見町17-3","latitude":41.76762390136719,"longitude":140.70204162597656,"category":"公共施設/洋館","big_category":"公共施設,近代建築/遺産","description":"1906年竣工、1908年再建","image_url":"","tags":"Ver4.90(2023年4月)の追加建築","prefecture":"北海道","contractor":"","structural_designer":"","landscape_designer":"","shinkenchiku_url":""},{"id":12199,"title":"旧函館検疫所","architect":"内務省","year":1885.0,"address":"北海道函館市船見町25-18","latitude":41.76641082763672,"longitude":140.69541931152344,"category":"洋館","big_category":"近代建築/遺産","description":"","image_url":"","tags":"Ver4.90(2023年4月)の追加建築","prefecture":"北海道","contractor":"","structural_designer":"","landscape_designer":"","shinkenchiku_url":""},{"id":12200,"title":"函館海産商同業組合事務所","architect":"関根要太郎","year":1920.0,"address":"北海道函館市末広町15-3","latitude":41.76532745361328,"longitude":140.71629333496094,"category":"洋館/組合施設","big_category":"近代建築/遺産,公共施設","description":"","image_url":"","tags":"Ver4.90(2023年4月)の追加建築","prefecture":"北海道","contractor":"","structural_designer":"","landscape_designer":"","shinkenchiku_url":""}]}