{"page":153,"total_pages":290,"items_per_page":50,"total_items":14467,"items":[{"id":7601,"title":"上越市立水族博物館 うみがたり","architect":"日本設計","year":2018.0,"address":"新潟県上越市西本町4-19-27","latitude":37.17400360107422,"longitude":138.23410034179688,"category":"水族館","description":"2018年6月頃開館予定","image_url":""},{"id":7602,"title":"新潟市亀田総合体育館","architect":"山下設計","year":1996.0,"address":"新潟県新潟市江南区茅野山3-1-13","latitude":37.85603332519531,"longitude":139.09754943847656,"category":"体育館","description":"","image_url":""},{"id":7603,"title":"新潟市秋葉区総合体育館","architect":"久米設計","year":2013.0,"address":"新潟県新潟市秋葉区程島2009","latitude":37.78864669799805,"longitude":139.11228942871094,"category":"体育館","description":"","image_url":""},{"id":7604,"title":"新潟大学 科学技術交流悠久会館","architect":"西村伸也+鹿島建設","year":2007.0,"address":"新潟県新潟市西区五十嵐2の町8050","latitude":37.866249084472656,"longitude":138.9387664794922,"category":"大学","description":"","image_url":""},{"id":7605,"title":"田上町老人憩の家 心起園","architect":"難波和彦","year":1975.0,"address":"新潟県南蒲原郡田上町田上丙1189","latitude":37.71196365356445,"longitude":139.0726776123047,"category":"福祉センター","description":"","image_url":""},{"id":7606,"title":"原ヶ崎交流センター 旧竹の友幼稚園","architect":"難波和彦","year":1975.0,"address":"新潟県南蒲原郡田上町吉田新田丁242-2","latitude":37.695091247558594,"longitude":139.0654754638672,"category":"公民館・交流施設","description":"","image_url":""},{"id":7607,"title":"長岡市緑化センター 花テラス","architect":"松田平田設計","year":2010.0,"address":"新潟県長岡市千歳1-3-80","latitude":37.438846588134766,"longitude":138.8500213623047,"category":"動植物園/公園","description":"","image_url":""},{"id":7608,"title":"新潟大学附属図書館 増築","architect":"仙田満","year":2013.0,"address":"新潟県新潟市西区五十嵐2の町8050","latitude":37.86787033081055,"longitude":138.94461059570312,"category":"大学/図書館","description":"","image_url":""},{"id":7609,"title":"新潟大学 ベンチャービジネスラボラトリー","architect":"内井建築設計事務所","year":2004.0,"address":"新潟県新潟市西区五十嵐2の町8050","latitude":37.8663215637207,"longitude":138.94137573242188,"category":"大学","description":"","image_url":""},{"id":7610,"title":"長岡市立宮内中学校","architect":"木村博幸","year":2010.0,"address":"新潟県長岡市宮栄2-3-50","latitude":37.42189407348633,"longitude":138.837158203125,"category":"学校","description":"","image_url":""},{"id":7611,"title":"新潟大学 六花寮","architect":"株式会社大建設計","year":2011.0,"address":"新潟県新潟市西区五十嵐2の町 六花寮","latitude":37.869014739990234,"longitude":138.93746948242188,"category":"寮/大学","description":"","image_url":""},{"id":7612,"title":"PLATE アー・アッラ・ゼータ","architect":"細海拓也","year":2015.0,"address":"新潟県新潟市西区黒鳥5004-1","latitude":37.85039138793945,"longitude":138.97943115234375,"category":"レストラン","description":"","image_url":""},{"id":7613,"title":"Wow! Sta.Niigata","architect":"東海林健","year":2015.0,"address":"新潟県新潟市中央区堀之内50-11","latitude":37.90574645996094,"longitude":139.0503387451172,"category":"レストラン/複合施設/低層オフィス","description":"","image_url":""},{"id":7614,"title":"新潟の集合住宅I フェリシア東万代","architect":"細海拓也","year":2013.0,"address":"新潟県新潟市中央区東万代町4-23","latitude":37.91684341430664,"longitude":139.0647735595703,"category":"集合住宅","description":"","image_url":""},{"id":7615,"title":"日和山五合目 hiyoriyama coffee","architect":"大塚住宅建材","year":2014.0,"address":"新潟県新潟市中央区東堀通13番町2962-1","latitude":37.93165588378906,"longitude":139.0461883544922,"category":"カフェ","description":"","image_url":""},{"id":7616,"title":"トラットリア ラ・ペントラッチャ","architect":"谷尻誠","year":2016.0,"address":"新潟県上越市下門前2292","latitude":37.162506103515625,"longitude":138.25172424316406,"category":"レストラン","description":"","image_url":""},{"id":7617,"title":"新潟市子ども創造センター","architect":"仙田満","year":2013.0,"address":"新潟県新潟市中央区清五郎375-2","latitude":37.88032150268555,"longitude":139.04991149902344,"category":"児童施設","description":"","image_url":""},{"id":7618,"title":"新潟市鳥屋野総合体育館","architect":"佐藤総合計画","year":1983.0,"address":"新潟県新潟市中央区神道寺南2-3-46","latitude":37.895347595214844,"longitude":139.0615692138672,"category":"体育館","description":"","image_url":""},{"id":7619,"title":"北越高等学校","architect":"山下設計+西村伸也","year":2009.0,"address":"新潟県新潟市中央区米山5-12-1","latitude":37.90398406982422,"longitude":139.05621337890625,"category":"学校","description":"","image_url":""},{"id":7620,"title":"日本歯科大学 新潟生命歯学部","architect":"岡田新一","year":1971.0,"address":"新潟県新潟市中央区浜浦町1-8","latitude":37.91116714477539,"longitude":139.0105438232422,"category":"大学/病院","description":"","image_url":""},{"id":7621,"title":"新潟駅南口駅舎接続施設 南口広場","architect":"堀越英嗣","year":2009.0,"address":"新潟県新潟市中央区花園1-1-1","latitude":37.91172409057617,"longitude":139.0618133544922,"category":"駅/広場","description":"","image_url":""},{"id":7622,"title":"朱鷺メッセ 新潟コンベンションセンター","architect":"槇文彦+鹿島建設","year":2002.0,"address":"新潟県新潟市中央区万代島6-1","latitude":37.92698287963867,"longitude":139.0606689453125,"category":"展示・会議場/オフィスビル/複合施設","description":"","image_url":""},{"id":7623,"title":"新潟市音楽文化会館","architect":"岡田新一","year":1977.0,"address":"新潟県新潟市中央区一番堀通町3-2","latitude":37.91324234008789,"longitude":139.0418701171875,"category":"ホール・劇場","description":"","image_url":""},{"id":7624,"title":"シェイクスピアカントリークラブ クラブハウス","architect":"アーキテクトファイブ","year":1990.0,"address":"北海道石狩市八幡町高岡306-11","latitude":43.25393295288086,"longitude":141.46368408203125,"category":"クラブハウス","description":"","image_url":""},{"id":7625,"title":"世田谷ビジネススクエア","architect":"アーキテクトファイブ","year":1993.0,"address":"東京都世田谷区用賀4-10-1","latitude":35.626609802246094,"longitude":139.63291931152344,"category":"複合ビル","description":"","image_url":""},{"id":7626,"title":"LINK dB-SOFT本社研究所","architect":"アーキテクトファイブ","year":1988.0,"address":"北海道札幌市厚別区下野幌テクノパーク1-1-15","latitude":43.03013229370117,"longitude":141.50271606445312,"category":"低層オフィス/研究施設","description":"","image_url":""},{"id":7627,"title":"LINK BUG本社研究所","architect":"アーキテクトファイブ","year":1988.0,"address":"北海道札幌市厚別区下野幌テクノパーク1-1-14","latitude":43.030250549316406,"longitude":141.50364685058594,"category":"低層オフィス/研究施設","description":"","image_url":""},{"id":7628,"title":"健康パークあざい","architect":"仙田満","year":2004.0,"address":"滋賀県長浜市野瀬町828","latitude":35.463321685791016,"longitude":136.3192596435547,"category":"福祉センター/プール","description":"","image_url":""},{"id":7629,"title":"国営アルプスあづみの公園","architect":"仙田満","year":2008.0,"address":"長野県安曇野市堀金烏川33-4","latitude":36.314453125,"longitude":137.8410186767578,"category":"公園/体験施設","description":"","image_url":""},{"id":7630,"title":"岡崎げんき館","architect":"仙田満","year":2008.0,"address":"愛知県岡崎市若宮町2-1-1","latitude":34.95329666137695,"longitude":137.18116760253906,"category":"プール/児童施設","description":"","image_url":""},{"id":7631,"title":"兵庫県南但馬自然学校","architect":"仙田満","year":1994.0,"address":"兵庫県朝来市山東町迫間字原189","latitude":35.2858772277832,"longitude":134.8553466796875,"category":"研修施設","description":"","image_url":""},{"id":7632,"title":"多治見市立滝呂小学校","architect":"仙田満","year":2006.0,"address":"岐阜県多治見市滝呂町12-186-4","latitude":35.31389617919922,"longitude":137.15399169921875,"category":"学校","description":"","image_url":""},{"id":7633,"title":"広島県立可部高等学校","architect":"仙田満","year":2008.0,"address":"広島県広島市安佐北区可部東4-27-1","latitude":34.51643753051758,"longitude":132.51934814453125,"category":"学校","description":"","image_url":""},{"id":7634,"title":"慶應義塾日吉キャンパス 協生館","architect":"仙田満","year":2008.0,"address":"神奈川県横浜市港北区日吉4-1-1","latitude":35.55203628540039,"longitude":139.64732360839844,"category":"大学/プール","description":"","image_url":""},{"id":7635,"title":"東京辰巳国際水泳場","architect":"仙田満","year":1993.0,"address":"東京都江東区辰巳2-8-10","latitude":35.647666931152344,"longitude":139.8189239501953,"category":"プール","description":"","image_url":""},{"id":7636,"title":"川崎市青少年科学館 かわさき宙と緑の科学館","architect":"仙田満","year":2012.0,"address":"神奈川県川崎市多摩区枡形7-1-2","latitude":35.608421325683594,"longitude":139.5614776611328,"category":"博物館/児童施設","description":"","image_url":""},{"id":7637,"title":"コロロDR館","architect":"青島裕之","year":2016.0,"address":"東京都西多摩郡瑞穂町箱根ケ崎940","latitude":35.79179763793945,"longitude":139.33209228515625,"category":"医療施設","description":"","image_url":""},{"id":7638,"title":"食菜館くらら・キラ星館","architect":"青島裕之","year":2011.0,"address":"秋田県潟上市天王江川上谷地109-2","latitude":39.85663986206055,"longitude":140.00982666015625,"category":"PA・道の駅/店舗","description":"","image_url":""},{"id":7639,"title":"大潟村 ガーデンケルク・縁JOY","architect":"青島裕之","year":2011.0,"address":"秋田県南秋田郡大潟村北1-3","latitude":40.027652740478516,"longitude":139.95352172851562,"category":"結婚式場","description":"","image_url":""},{"id":7640,"title":"猪苗代町立緑小学校","architect":"青島裕之","year":2006.0,"address":"福島県耶麻郡猪苗代町中小松狐川原1566-1","latitude":37.516475677490234,"longitude":140.13185119628906,"category":"学校","description":"","image_url":""},{"id":7641,"title":"犬山里山学センター","architect":"青島裕之","year":2006.0,"address":"愛知県犬山市塔野地大畔364-2","latitude":35.3702507019043,"longitude":136.9857635498047,"category":"体験施設/研修施設/博物館","description":"","image_url":""},{"id":7642,"title":"藤里町三世代交流館","architect":"青島裕之","year":1996.0,"address":"秋田県山本郡藤里町藤琴家の後67","latitude":40.27777862548828,"longitude":140.26202392578125,"category":"公民館・交流施設/図書館","description":"","image_url":""},{"id":7643,"title":"雄和観光交流館 Villa フローラ","architect":"青島裕之","year":1996.0,"address":"秋田県秋田市雄和妙法糠塚1-1","latitude":39.59562301635742,"longitude":140.18621826171875,"category":"観光施設/レストラン","description":"","image_url":""},{"id":7644,"title":"佐渡島 小木温泉 旅館かもめ荘","architect":"青島裕之","year":1989.0,"address":"新潟県佐渡市小木町11-7","latitude":37.82057189941406,"longitude":138.28619384765625,"category":"旅館","description":"","image_url":""},{"id":7645,"title":"マリンプラザ小木 南佐渡観光案内所","architect":"青島裕之","year":1992.0,"address":"新潟県佐渡市小木町1935-26","latitude":37.81521987915039,"longitude":138.27967834472656,"category":"観光施設","description":"","image_url":""},{"id":7646,"title":"カトリック仙台司教区センター","architect":"青島裕之+團紀彦","year":1993.0,"address":"宮城県仙台市青葉区本町1-2-12","latitude":38.263694763183594,"longitude":140.87840270996094,"category":"教会","description":"","image_url":""},{"id":7647,"title":"浜松まつり会館","architect":"建築研究所アーキヴィジョン","year":1985.0,"address":"静岡県浜松市南区中田島町1313","latitude":34.66569137573242,"longitude":137.7423095703125,"category":"博物館","description":"","image_url":""},{"id":7648,"title":"奈良県立橿原考古学研究所附属博物館","architect":"建築研究所アーキヴィジョン","year":1980.0,"address":"奈良県橿原市畝傍町50-2","latitude":34.49223327636719,"longitude":135.7913818359375,"category":"博物館","description":"","image_url":""},{"id":7649,"title":"常滑市民俗資料館 とこなめ陶の森資料館","architect":"建築研究所アーキヴィジョン","year":1981.0,"address":"愛知県常滑市瀬木町4-203","latitude":34.8865852355957,"longitude":136.8498077392578,"category":"博物館","description":"","image_url":""},{"id":7650,"title":"袖ヶ浦町郷土博物館","architect":"建築研究所アーキヴィジョン","year":1983.0,"address":"千葉県袖ケ浦市下新田1133","latitude":35.42094421386719,"longitude":139.99468994140625,"category":"博物館","description":"","image_url":""}]}