{"page":252,"total_pages":290,"items_per_page":50,"total_items":14467,"items":[{"id":12551,"title":"清流認定こども園","architect":"アーキヴィジョン広谷スタジオ","year":2018.0,"address":"岐阜県岐阜市岩滝西1-332","latitude":35.43391036987305,"longitude":136.8441619873047,"category":"幼稚園","description":"","image_url":""},{"id":12552,"title":"菱岡工業新社屋","architect":"アーキヴィジョン広谷スタジオ","year":2018.0,"address":"和歌山県和歌山市中島528","latitude":34.214473724365234,"longitude":135.19114685058594,"category":"低層オフィス","description":"","image_url":""},{"id":12553,"title":"COO本大久保保育園","architect":"アーキヴィジョン広谷スタジオ","year":2019.0,"address":"千葉県習志野市本大久保4-1-4","latitude":35.6830940246582,"longitude":140.04812622070312,"category":"幼稚園","description":"","image_url":""},{"id":12554,"title":"五万石茶寮","architect":"アーキヴィジョン広谷スタジオ","year":2018.0,"address":"富山県富山市婦中町島本郷10-10","latitude":36.677764892578125,"longitude":137.17227172851562,"category":"カフェ","description":"","image_url":""},{"id":12555,"title":"レイモンド下高井戸保育園","architect":"アーキヴィジョン広谷スタジオ","year":2019.0,"address":"東京都杉並区下高井戸3-23-10","latitude":35.67347717285156,"longitude":139.63375854492188,"category":"幼稚園","description":"","image_url":""},{"id":12556,"title":"総持寺 ポタラ","architect":"アーキヴィジョン広谷スタジオ","year":2019.0,"address":"大阪府茨木市総持寺1-6-1","latitude":34.82887268066406,"longitude":135.58160400390625,"category":"カフェ","description":"","image_url":""},{"id":12557,"title":"金沢美術工芸大学 新校舎","architect":"SALHAUS+カワグチテイ建築計画+仲建築設計スタジオ","year":2023.0,"address":"石川県金沢市小立野2-933-5","latitude":36.54781723022461,"longitude":136.68165588378906,"category":"大学","description":"2023年2月竣工。10月移転","image_url":""},{"id":12558,"title":"東京国際空港貨物合同庁舎","architect":"久米設計","year":2010.0,"address":"東京都大田区羽田空港2-6-3","latitude":35.540435791015625,"longitude":139.77459716796875,"category":"空港","description":"","image_url":""},{"id":12559,"title":"キャロットタワー","architect":"石本建築事務所","year":1996.0,"address":"東京都世田谷区太子堂4-1-1","latitude":35.6436882019043,"longitude":139.6693115234375,"category":"複合ビル","description":"","image_url":""},{"id":12560,"title":"エムエデギャラリー","architect":"パーシモンヒルズ・アーキテクツ","year":2018.0,"address":"東京都世田谷区三軒茶屋1-13-20","latitude":35.6389274597168,"longitude":139.67283630371094,"category":"ギャラリー/住宅/店舗","description":"","image_url":""},{"id":12561,"title":"旧ASTILE三軒茶屋I","architect":"黒川智之","year":2020.0,"address":"東京都世田谷区下馬2-10-12","latitude":35.64007568359375,"longitude":139.67750549316406,"category":"集合住宅","description":"","image_url":""},{"id":12562,"title":"旧久邇宮邸 御常御殿(パレス)","architect":"森山松之助","year":1924.0,"address":"東京都渋谷区広尾4-3-1","latitude":35.652252197265625,"longitude":139.718994140625,"category":"古民家","description":"2023年3月に3年ぶりに公開イベントが行われた","image_url":""},{"id":12563,"title":"聖心女子大学 1号館","architect":"竹腰健造","year":1950.0,"address":"東京都渋谷区広尾4-3-1","latitude":35.65117263793945,"longitude":139.72007751464844,"category":"大学","description":"","image_url":""},{"id":12564,"title":"聖心女子大学 聖マグダレナ・ソフィア聖堂","architect":"竹腰健造","year":1959.0,"address":"東京都渋谷区広尾4-3-1","latitude":35.65174102783203,"longitude":139.72006225585938,"category":"大学/教会","description":"","image_url":""},{"id":12565,"title":"聖心女子大学 大学管理棟","architect":"丹下健三","year":1975.0,"address":"東京都渋谷区広尾4-3-1","latitude":35.651100158691406,"longitude":139.71923828125,"category":"大学","description":"","image_url":""},{"id":12566,"title":"聖心女子大学 マリアンホール","architect":"竹腰健造","year":1954.0,"address":"東京都渋谷区広尾4-3-1","latitude":35.651527404785156,"longitude":139.71954345703125,"category":"大学","description":"","image_url":""},{"id":12567,"title":"ソフトバンク府中データセンター","architect":"日本設計","year":1994.0,"address":"東京都府中市日鋼町1-9","latitude":35.674800872802734,"longitude":139.47056579589844,"category":"企業施設","description":"","image_url":""},{"id":12568,"title":"KOENJI Crossover 高円寺クロスオーバー","architect":"東電設計+篠原聡子","year":2022.0,"address":"東京都中野区大和町1-67-8","latitude":35.70928955078125,"longitude":139.65245056152344,"category":"集合住宅/カフェ/シェアオフィス","description":"基本計画・デザイン監修：篠原聡子","image_url":""},{"id":12569,"title":"慶應義塾大学湘南藤沢キャンパス イータヴィレッジ","architect":"槇文彦","year":2023.0,"address":"神奈川県藤沢市遠藤5232-1","latitude":35.3900260925293,"longitude":139.42779541015625,"category":"大学/寮","description":"","image_url":""},{"id":12570,"title":"えきにし住宅 双葉駅西側地区災害公営住宅等整備プロジェクト","architect":"ブルースタジオ+パシフィックコンサルタンツ","year":2023.0,"address":"福島県双葉郡双葉町長塚町西11","latitude":37.45410919189453,"longitude":141.00540161132812,"category":"都市計画/住宅","description":"北エリアなど一部竣工","image_url":""},{"id":12571,"title":"八神里山住宅","architect":"アトリエ・ワン","year":2023.0,"address":"島根県飯石郡飯南町八神","latitude":35.10914993286133,"longitude":132.6959991455078,"category":"都市計画/住宅","description":"子育て世代の移住者向け賃貸住宅","image_url":""},{"id":12572,"title":"神田神保町武田ビル再生 REDO JIMBOCHOビル","architect":"渡邉明弘+オクムラデザイン","year":2023.0,"address":"東京都千代田区神田神保町1-37-1","latitude":35.6948127746582,"longitude":139.7601318359375,"category":"シェアオフィス","description":"1974年竣工のビル改修","image_url":""},{"id":12573,"title":"ソーシャルベース東中野","architect":"成瀬・猪熊建築設計事務所+金田 未来","year":2023.0,"address":"東京都中野区東中野5-7-3","latitude":35.70738220214844,"longitude":139.68809509277344,"category":"集合住宅/住宅","description":"","image_url":""},{"id":12574,"title":"まちのはなれ セシーズイシイ23","architect":"ピークスタジオ","year":2023.0,"address":"神奈川県川崎市中原区上新城2-7-5","latitude":35.588016510009766,"longitude":139.63014221191406,"category":"集合住宅","description":"","image_url":""},{"id":12575,"title":"I-TOWN A・B街区","architect":"みかんぐみ","year":2023.0,"address":"富山県黒部市吉田 I-TOWN","latitude":36.90365982055664,"longitude":137.4256134033203,"category":"寮","description":"YKK社員寮","image_url":""},{"id":12576,"title":"代々木参宮橋テラス","architect":"竹中工務店","year":2023.0,"address":"東京都渋谷区代々木4-52-21","latitude":35.67800521850586,"longitude":139.68995666503906,"category":"集合住宅","description":"","image_url":""},{"id":12577,"title":"kif annex","architect":"千葉学","year":2023.0,"address":"東京都新宿区若宮町13-1","latitude":35.700218200683594,"longitude":139.7393798828125,"category":"集合住宅/店舗","description":"","image_url":""},{"id":12578,"title":"nishico 西小山コートハウス","architect":"佐藤光彦","year":2023.0,"address":"東京都品川区荏原6-15-13","latitude":35.611778259277344,"longitude":139.70265197753906,"category":"集合住宅","description":"","image_url":""},{"id":12579,"title":"VOXEL APARTMENT","architect":"藤村龍至","year":2023.0,"address":"広島県広島市西区楠木町1-3","latitude":34.409019470214844,"longitude":132.45654296875,"category":"集合住宅/店舗","description":"","image_url":""},{"id":12580,"title":"熊本地震震災ミュージアム KIOKU","architect":"o+h+産紘設計","year":2023.0,"address":"熊本県阿蘇郡南阿蘇村河陽5343-1","latitude":32.89019012451172,"longitude":130.9968719482422,"category":"博物館","description":"","image_url":""},{"id":12581,"title":"大西熱学小牧事業所","architect":"o+h","year":2023.0,"address":"愛知県西春日井郡豊山町豊場幸田156","latitude":35.246639251708984,"longitude":136.9064483642578,"category":"低層オフィス","description":"","image_url":""},{"id":12582,"title":"TEA SQUARE MORIHAN","architect":"内田康博+アルファヴィル","year":2023.0,"address":"京都府宇治市小倉町久保78","latitude":34.896183013916016,"longitude":135.7847137451172,"category":"カフェ/古民家","description":"第1期を内田康博、第2期をアルファヴィルの設計。1836年創業の店舗を増改築","image_url":""},{"id":12583,"title":"Bunkamuraル・シネマ 渋谷宮下","architect":"中山英之","year":2023.0,"address":"東京都渋谷区渋谷1-24-12 東映プラザ7F/9F","latitude":35.65992736816406,"longitude":139.7020263671875,"category":"ホール・劇場","description":"","image_url":""},{"id":12584,"title":"稲荷湯 長屋","architect":"せんとうとまち","year":1927.0,"address":"東京都北区滝野川6-27-17","latitude":35.74473190307617,"longitude":139.7245330810547,"category":"カフェ/古民家/公民館・交流施設","description":"2022年改修","image_url":""},{"id":12585,"title":"扇芳閣 再生プロジェクト","architect":"藤原徹平","year":2023.0,"address":"三重県鳥羽市鳥羽2-12-24","latitude":34.480411529541016,"longitude":136.83946228027344,"category":"旅館","description":"2023年再生プロジェクト第一期。客室・レストラン・ラウンジ・森のプレイネスト・カフェ","image_url":""},{"id":12586,"title":"小浜ヴィレッジ","architect":"藤原徹平","year":2023.0,"address":"鹿児島県霧島市隼人町小浜37−１","latitude":31.73273277282715,"longitude":130.6943817138672,"category":"低層オフィス/モール","description":"2023年秋オープン予定","image_url":""},{"id":12587,"title":"徳島県立東部防災館 おきのすインドアパーク","architect":"前田茂樹+泉設計室+構造計画研究所","year":2023.0,"address":"徳島県徳島市市東沖洲1-8","latitude":34.06550979614258,"longitude":134.59861755371094,"category":"体育館/カフェ/体験施設","description":"","image_url":""},{"id":12588,"title":"芽室町役場","architect":"アトリエブンク","year":2021.0,"address":"北海道河西郡芽室町東2条2-14-14","latitude":42.911556243896484,"longitude":143.0509033203125,"category":"庁舎","description":"","image_url":""},{"id":12589,"title":"ファームトゥーミー シュガーファクトリー","architect":"新居千秋","year":2023.0,"address":"東京都江東区常盤1-4-4","latitude":35.684871673583984,"longitude":139.7941131591797,"category":"店舗/レストラン","description":"","image_url":""},{"id":12590,"title":"旧渋沢邸 深川渋沢栄一邸和館","architect":"清水喜助清矩+西村好時","year":1878.0,"address":"東京都江東区潮見2-8-4","latitude":35.66004180908203,"longitude":139.81971740722656,"category":"古民家","description":"1878年江東区永代に竣工後、1908年に三田綱町へ移築。1929年西村好時により洋館を増築。1991年青森県古牧温泉渋澤公園内に移築。2023年に江東区の清水建設研究開発拠点に移築。2025年に一般公開予定","image_url":""},{"id":12591,"title":"ABiz Hotel 京都先斗町","architect":"Noiz Architects","year":2023.0,"address":"京都府京都市中京区材木町178-4","latitude":35.00800323486328,"longitude":135.7706756591797,"category":"ホテル","description":"2023年9月21日オープン予定","image_url":""},{"id":12592,"title":"TAS+NAKANO BLD. 旧新中野豊国ビル再生計画","architect":"神本豊秋","year":2023.0,"address":"東京都中野区本町6-27-12","latitude":35.697269439697266,"longitude":139.66357421875,"category":"オフィスビル","description":"1973年竣工のオフィスビルの改修","image_url":""},{"id":12593,"title":"粟津邸","architect":"原広司","year":1972.0,"address":"神奈川県川崎市多摩区南生田1-5-24","latitude":35.61050796508789,"longitude":139.53262329101562,"category":"住宅/ギャラリー","description":"アートスペースとして公開中。2023年10月29日まで吉國元の個展が開催されている。土日のみ開催。","image_url":""},{"id":12594,"title":"NODE KANAZAWA","architect":"奈良祐希","year":2023.0,"address":"石川県金沢市問屋町1−27−1","latitude":36.60457992553711,"longitude":136.63563537597656,"category":"カフェ/レストラン","description":"レストランは要予約","image_url":""},{"id":12595,"title":"黒松内町庁舎・防災センター","architect":"アトリエブンク","year":2015.0,"address":"北海道寿都郡黒松内町黒松内302-1","latitude":42.667884826660156,"longitude":140.30752563476562,"category":"庁舎/公共施設","description":"築50年以上になる役場庁舎の大規模改修と防災センターの増築","image_url":""},{"id":12596,"title":"JIYUGAOKA de aone","architect":"山﨑健太郎+イチケン","year":2023.0,"address":"東京都目黒区自由が丘2-15-4","latitude":35.60782241821289,"longitude":139.66664123535156,"category":"モール","description":"2023年10月20日オープン予定","image_url":""},{"id":12597,"title":"ABURAYAMA FUKUOKA","architect":"谷尻誠","year":2023.0,"address":"福岡県福岡市南区柏原710-2","latitude":33.509117126464844,"longitude":130.37718200683594,"category":"公園/シェアオフィス/店舗","description":"シェアオフィス、カフェなどが竣工。2024年春には宿泊施設も竣工予定。建築内装デザイン・監修を谷尻誠が担当","image_url":""},{"id":12598,"title":"つづき屋根の集合住宅","architect":"三野貞佳","year":2023.0,"address":"京都府向日市上植野町山ノ下7-7","latitude":34.937984466552734,"longitude":135.701416015625,"category":"集合住宅","description":"","image_url":""},{"id":12599,"title":"ネッツトヨタ愛媛 だんだんPARK","architect":"矢野青山建築設計事務所","year":2022.0,"address":"愛媛県松山市空港通2-6-33","latitude":33.82796859741211,"longitude":132.74021911621094,"category":"店舗/カフェ/児童施設","description":"カーディーラーにカフェや児童施設、イベントスペースなどを併設","image_url":""},{"id":12600,"title":"和泉屋 本店","architect":"隈研吾","year":2023.0,"address":"長崎県長崎市万屋町4-16","latitude":32.74485778808594,"longitude":129.87864685058594,"category":"店舗","description":"2023年10月17日リニューアルオープン予定","image_url":""}]}