{"page":275,"total_pages":290,"items_per_page":50,"total_items":14467,"items":[{"id":13701,"title":"東京大学 向ヶ岡ファカルティハウス","architect":"阪根宏彦","year":2009.0,"address":"東京都文京区弥生1-1-1","latitude":35.717689514160156,"longitude":139.7619171142578,"category":"その他宿泊施設/レストラン","description":"東大関係者が宿泊できる滞在型教員室・レストラン・バー等","image_url":""},{"id":13702,"title":"堺自然ふれあいの森","architect":"緑景","year":2004.0,"address":"大阪府堺市南区畑1740","latitude":34.459903717041016,"longitude":135.52554321289062,"category":"公園","description":"","image_url":""},{"id":13703,"title":"ブランチ大津京","architect":"悠設計","year":2019.0,"address":"滋賀県大津市二本松1-1","latitude":35.02938461303711,"longitude":135.86483764648438,"category":"モール","description":"","image_url":""},{"id":13704,"title":"kinone 東久留米","architect":"藤原徹平+針谷將史","year":2024.0,"address":"東京都東久留米市本町1-4-6","latitude":35.75944137573242,"longitude":139.53347778320312,"category":"集合住宅","description":"","image_url":""},{"id":13705,"title":"小竹向原キリスト教会","architect":"西島正樹","year":2024.0,"address":"東京都板橋区小茂根1-9-22","latitude":35.74441146850586,"longitude":139.68055725097656,"category":"教会","description":"","image_url":""},{"id":13706,"title":"北部学園 泗水幼稚園","architect":"西島正樹","year":2022.0,"address":"熊本県菊池市泗水町吉富1593","latitude":32.92507553100586,"longitude":130.7753143310547,"category":"幼稚園","description":"","image_url":""},{"id":13707,"title":"にぬふぁ保育園","architect":"西島正樹","year":2021.0,"address":"沖縄県那覇市具志2-20-46","latitude":26.181001663208008,"longitude":127.65975952148438,"category":"幼稚園","description":"","image_url":""},{"id":13708,"title":"C.T.L.BANK 旧和泉銀行本店","architect":"渡辺節","year":1933.0,"address":"大阪府岸和田市北町14-3","latitude":34.46455001831055,"longitude":135.37301635742188,"category":"金融機関/洋館/低層オフィス","description":"","image_url":""},{"id":13709,"title":"廣野ゴルフ倶楽部 クラブハウス","architect":"渡辺節","year":1958.0,"address":"兵庫県三木市志染町広野7-3","latitude":34.7703857421875,"longitude":135.02174377441406,"category":"クラブハウス","description":"","image_url":""},{"id":13710,"title":"城陽カントリー倶楽部クラブハウス","architect":"渡辺節","year":1959.0,"address":"京都府城陽市寺田奥山1-46","latitude":34.853981018066406,"longitude":135.8057861328125,"category":"クラブハウス","description":"","image_url":""},{"id":13711,"title":"ザ・ベイス 旧日本綿花横浜支店","architect":"渡辺節","year":1928.0,"address":"神奈川県横浜市中区日本大通34","latitude":35.44500732421875,"longitude":139.6416015625,"category":"レストラン/シェアオフィス/低層オフィス","description":"西田司による改修","image_url":""},{"id":13712,"title":"銀座ソニーパーク","architect":"Ginza Sony Park Project+荒木信雄+石本建築事務所+竹中工務店","year":2024.0,"address":"東京都中央区銀座5-3-1","latitude":35.672122955322266,"longitude":139.76319885253906,"category":"オフィスビル","description":"","image_url":""},{"id":13713,"title":"ZOOM新宿御苑前","architect":"小山光+合田工務店","year":2024.0,"address":"東京都新宿区新宿1-26-11","latitude":35.690834045410156,"longitude":139.714599609375,"category":"集合住宅","description":"デザイン監修：小山光","image_url":""},{"id":13714,"title":"ヒューリック将棋会館千駄ヶ谷ビル","architect":"大成建設","year":2024.0,"address":"東京都渋谷区千駄ヶ谷1-18-5","latitude":35.68000411987305,"longitude":139.7108612060547,"category":"オフィスビル/組合施設","description":"","image_url":""},{"id":13715,"title":"灘のオフィスビル","architect":"安藤忠雄","year":2023.0,"address":"兵庫県神戸市灘区岩屋中町5-1-4","latitude":34.70270538330078,"longitude":135.2169952392578,"category":"オフィスビル","description":"","image_url":""},{"id":13716,"title":"認定こども園 こどものにわ 西浦和幼稚園","architect":"古谷誠章","year":2024.0,"address":"埼玉県さいたま市南区曲本1-21-22","latitude":35.83695602416992,"longitude":139.63038635253906,"category":"幼稚園","description":"","image_url":""},{"id":13717,"title":"峰山往来文庫","architect":"長田慶太","year":2018.0,"address":"香川県高松市峰山町1784-1","latitude":34.329227447509766,"longitude":134.02493286132812,"category":"図書館","description":"私設図書館。入館料100円。長田慶太氏の父が設計したレストランを2018年に取得、2023年10月に図書館に改修オープン。便宜上設計者の名前を長田慶太、竣工を2018年にしてあります（詳細分かり次第変更予定）","image_url":""},{"id":13718,"title":"アシル動物病院","architect":"長田慶太","year":2014.0,"address":"香川県高松市御厩町474-2","latitude":34.307010650634766,"longitude":133.99038696289062,"category":"個人医院/住宅","description":"","image_url":""},{"id":13719,"title":"石川税理士事務所","architect":"長田慶太","year":2014.0,"address":"香川県高松市木太町5076-6","latitude":34.31294631958008,"longitude":134.0675048828125,"category":"低層オフィス/住宅","description":"","image_url":""},{"id":13720,"title":"FLAT","architect":"長田慶太","year":2014.0,"address":"香川県丸亀市飯野町東分2752-59","latitude":34.27446746826172,"longitude":133.83685302734375,"category":"店舗/住宅","description":"鍼灸マッサージ店","image_url":""},{"id":13721,"title":"バイシクルショップクラウズ 修理専門工房","architect":"長田慶太","year":2015.0,"address":"香川県高松市太田下町1663-1","latitude":34.30320358276367,"longitude":134.0499267578125,"category":"店舗/住宅","description":"","image_url":""},{"id":13722,"title":"パティスリー アラキ","architect":"長田慶太","year":2016.0,"address":"香川県高松市林町2547-5","latitude":34.30508041381836,"longitude":134.06393432617188,"category":"店舗","description":"","image_url":""},{"id":13723,"title":"mokki","architect":"長田慶太","year":2017.0,"address":"香川県高松市峰山町1838-65","latitude":34.331153869628906,"longitude":134.02757263183594,"category":"店舗","description":"","image_url":""},{"id":13724,"title":"バイシクルショップ 田町クラウズ","architect":"長田慶太","year":2019.0,"address":"香川県高松市田町2-1","latitude":34.338775634765625,"longitude":134.04876708984375,"category":"店舗","description":"","image_url":""},{"id":13725,"title":"不二ベーカリー レトロ","architect":"長田慶太","year":2019.0,"address":"香川県高松市春日町1619-4","latitude":34.33642578125,"longitude":134.0887908935547,"category":"店舗/住宅","description":"","image_url":""},{"id":13726,"title":"美容院 ho:ho hair","architect":"長田慶太","year":2019.0,"address":"香川県高松市香川町大野561-1","latitude":34.25632095336914,"longitude":134.0254364013672,"category":"美容院/住宅","description":"","image_url":""},{"id":13727,"title":"久保動物病院","architect":"長田慶太","year":2020.0,"address":"香川県仲多度郡まんのう町四條614-1","latitude":34.193946838378906,"longitude":133.83547973632812,"category":"個人医院","description":"","image_url":""},{"id":13728,"title":"ViVa forest","architect":"長田慶太","year":2022.0,"address":"香川県高松市今新町8-3","latitude":34.34407424926758,"longitude":134.05078125,"category":"店舗/集合住宅","description":"","image_url":""},{"id":13729,"title":"サニーサイドフィールズ","architect":"長田慶太","year":2022.0,"address":"香川県仲多度郡まんのう町長尾2237","latitude":34.19524002075195,"longitude":133.87461853027344,"category":"カフェ/店舗","description":"","image_url":""},{"id":13730,"title":"神宮寺 納骨堂 多宝塔","architect":"長田慶太","year":2022.0,"address":"徳島県美馬郡つるぎ町半田東久保884","latitude":34.02943801879883,"longitude":134.03407287597656,"category":"寺院","description":"","image_url":""},{"id":13731,"title":"オリーブの宿 澳邸","architect":"長田慶太","year":2023.0,"address":"香川県高松市西植田町4532","latitude":34.238624572753906,"longitude":134.05921936035156,"category":"コテージ","description":"一棟貸し","image_url":""},{"id":13732,"title":"ブルーボトルコーヒー 豊洲パークカフェ","architect":"長坂常","year":2024.0,"address":"東京都江東区豊洲2-3-6","latitude":35.65363693237305,"longitude":139.79330444335938,"category":"カフェ","description":"","image_url":""},{"id":13733,"title":"九州国際重粒子線がん治療センター","architect":"日建設計","year":2012.0,"address":"佐賀県鳥栖市原古賀町3049","latitude":33.37104797363281,"longitude":130.4890594482422,"category":"病院","description":"","image_url":""},{"id":13734,"title":"清香庵 M-GARDEN","architect":"中郡大輔","year":2024.0,"address":"茨城県水戸市常磐町1-2-43","latitude":36.37416458129883,"longitude":140.45651245117188,"category":"寺院/カフェ","description":"","image_url":""},{"id":13735,"title":"EMONS CAFE","architect":"倉俣史朗","year":1988.0,"address":"東京都千代田区外神田3-13-12 1F","latitude":35.700321197509766,"longitude":139.7711639404297,"category":"カフェ","description":"内装設計を倉俣史朗が手がける","image_url":""},{"id":13736,"title":"バンヤンツリー・東山 京都","architect":"隈研吾+東洋設計+入江三宅設計事務所","year":2024.0,"address":"京都府京都市東山区清閑寺霊山町7","latitude":34.99830627441406,"longitude":135.78346252441406,"category":"ホテル","description":"デザインアーキテクトに隈研吾。インテリアデザインをdwp、客室デザインを橋本夕紀夫が担当","image_url":""},{"id":13737,"title":"渋谷区SCC千駄ヶ谷コミュニティーセンター・原宿こども園","architect":"隈研吾","year":2024.0,"address":"東京都渋谷区神宮前1-1-10","latitude":35.674068450927734,"longitude":139.70664978027344,"category":"公民館・交流施設/幼稚園","description":"","image_url":""},{"id":13738,"title":"シェアオフィス蒜山ひととき","architect":"隈研吾","year":2023.0,"address":"岡山県真庭市蒜山上福田1205-780","latitude":35.29651641845703,"longitude":133.62892150878906,"category":"シェアオフィス","description":"","image_url":""},{"id":13739,"title":"東川町共生プラザ そらいろ","architect":"隈研吾+Fan建築設計","year":2023.0,"address":"北海道上川郡東川町東町2-12","latitude":43.697410583496094,"longitude":142.51455688476562,"category":"公民館・交流施設","description":"デザイン監修：隈研吾","image_url":""},{"id":13740,"title":"Miru Amami","architect":"安斎好太郎","year":2024.0,"address":"鹿児島県大島郡龍郷町芦徳800","latitude":28.434104919433594,"longitude":129.62643432617188,"category":"ホテル","description":"","image_url":""},{"id":13741,"title":"SANU 2nd Home 那須1st","architect":"安斎好太郎","year":2023.0,"address":"栃木県那須郡那須町高久乙3370-449","latitude":37.07497787475586,"longitude":139.97833251953125,"category":"コテージ","description":"","image_url":""},{"id":13742,"title":"對龍山荘 旧伊集院兼常別邸","architect":"島田藤吉+小川治兵衛","year":1905.0,"address":"京都府京都市左京区南禅寺福地町22","latitude":35.01074981689453,"longitude":135.78965759277344,"category":"古民家/庭園","description":"2025年1月15日より一般公開。作庭は小川治兵衛","image_url":""},{"id":13743,"title":"湯快リゾートプレミアム 平戸千里ヶ浜温泉 ホテル蘭風","architect":"国建","year":1977.0,"address":"長崎県平戸市川内町55","latitude":33.3339729309082,"longitude":129.53271484375,"category":"ホテル","description":"","image_url":""},{"id":13744,"title":"旧本多庄作邸","architect":"久米権九郎","year":1939.0,"address":"神奈川県逗子市山の根2-4-17","latitude":35.29909896850586,"longitude":139.58058166503906,"category":"洋館","description":"一般公開を予定","image_url":""},{"id":13745,"title":"日光金谷ホテル 別館","architect":"久米権九郎","year":1935.0,"address":"栃木県日光市上鉢石町1300-2","latitude":36.75246810913086,"longitude":139.6040802001953,"category":"ホテル","description":"","image_url":""},{"id":13746,"title":"座間チャペル","architect":"久米権九郎","year":1952.0,"address":"神奈川県座間市座間","latitude":35.49258041381836,"longitude":139.39794921875,"category":"教会","description":"","image_url":""},{"id":13747,"title":"日本競輪選手養成所","architect":"レーモンド設計事務所","year":1969.0,"address":"静岡県伊豆市大野1827","latitude":35.00167465209961,"longitude":139.0068359375,"category":"専門学校","description":"","image_url":""},{"id":13748,"title":"宇陀市役所","architect":"日建設計","year":2003.0,"address":"奈良県宇陀市榛原下井足17-3","latitude":34.52798080444336,"longitude":135.952392578125,"category":"庁舎","description":"","image_url":""},{"id":13749,"title":"牛谷家住宅主屋","architect":"坂倉準三+東孝光","year":1968.0,"address":"奈良県宇陀市榛原萩原1720","latitude":34.534114837646484,"longitude":135.95538330078125,"category":"住宅","description":"坂倉準三建築研究所所属時代の東孝光が担当。","image_url":""},{"id":13750,"title":"帝京大学医学部附属溝口病院","architect":"伊藤喜三郎","year":2017.0,"address":"神奈川県川崎市高津区二子5-1-1","latitude":35.602359771728516,"longitude":139.61619567871094,"category":"病院","description":"","image_url":""}]}