{"page":52,"total_pages":290,"items_per_page":50,"total_items":14467,"items":[{"id":2551,"title":"大社文化プレイス","architect":"伊東豊雄","year":1999.0,"address":"島根県出雲市大社町杵築南1338-9","latitude":35.39034652709961,"longitude":132.6851806640625,"category":"総合文化施設/図書館/ホール・劇場","description":"","image_url":""},{"id":2552,"title":"島根県立古代出雲歴史博物館","architect":"槇文彦","year":2006.0,"address":"島根県出雲市大社町杵築東99-4","latitude":35.39881896972656,"longitude":132.68875122070312,"category":"博物館","description":"","image_url":""},{"id":2553,"title":"島根県立図書館","architect":"菊竹清訓","year":1968.0,"address":"島根県松江市内中原町52","latitude":35.473243713378906,"longitude":133.04901123046875,"category":"図書館","description":"","image_url":""},{"id":2554,"title":"田部美術館","architect":"菊竹清訓","year":1979.0,"address":"島根県松江市北堀町310-5","latitude":35.47919845581055,"longitude":133.04981994628906,"category":"美術館","description":"","image_url":""},{"id":2555,"title":"松江郷土館 興雲閣","architect":"不明","year":1903.0,"address":"島根県松江市殿町1-59","latitude":35.47359085083008,"longitude":133.0504913330078,"category":"洋館","description":"","image_url":""},{"id":2556,"title":"島根県民会館","architect":"安田臣","year":1968.0,"address":"島根県松江市殿町158","latitude":35.47274398803711,"longitude":133.05296325683594,"category":"ホール・劇場","description":"","image_url":""},{"id":2557,"title":"島根県庁第三分庁舎 旧島根県立博物館","architect":"菊竹清訓","year":1959.0,"address":"島根県松江市殿町1","latitude":35.47114944458008,"longitude":133.051513671875,"category":"庁舎","description":"","image_url":""},{"id":2558,"title":"島根県立武道館","architect":"菊竹清訓","year":1970.0,"address":"島根県松江市内中原町52","latitude":35.471923828125,"longitude":133.04908752441406,"category":"体育館","description":"","image_url":""},{"id":2559,"title":"島根県庁舎","architect":"安田臣+重森完途","year":1959.0,"address":"島根県松江市殿町1","latitude":35.47115707397461,"longitude":133.05078125,"category":"庁舎","description":"","image_url":""},{"id":2560,"title":"カラコロ工房","architect":"長野宇平治","year":1938.0,"address":"島根県松江市殿町43","latitude":35.47064208984375,"longitude":133.0531768798828,"category":"洋館","description":"","image_url":""},{"id":2561,"title":"くにびきメッセ","architect":"高松伸","year":1993.0,"address":"島根県松江市学園南1-2-1","latitude":35.46934127807617,"longitude":133.06707763671875,"category":"展示・会議場","description":"","image_url":""},{"id":2562,"title":"島根県立八雲立つ風土記の丘","architect":"八木章","year":1972.0,"address":"島根県松江市大庭町456","latitude":35.42633056640625,"longitude":133.09024047851562,"category":"博物館","description":"","image_url":""},{"id":2563,"title":"玉造温泉ゆ～ゆ","architect":"高松伸","year":1996.0,"address":"島根県松江市玉湯町玉造255","latitude":35.417179107666016,"longitude":133.01040649414062,"category":"温泉","description":"","image_url":""},{"id":2564,"title":"松江地方合同庁舎","architect":"高松伸","year":2004.0,"address":"島根県松江市向島町134-10","latitude":35.46881103515625,"longitude":133.06459045410156,"category":"庁舎","description":"","image_url":""},{"id":2565,"title":"モニュメントミュージアム来待ストーン","architect":"黒川雅之","year":1995.0,"address":"島根県松江市宍道町東来待1574-1","latitude":35.4147834777832,"longitude":132.9491424560547,"category":"博物館","description":"","image_url":""},{"id":2566,"title":"メテオプラザ","architect":"高松伸","year":1995.0,"address":"島根県松江市美保関町七類3246-1","latitude":35.57102966308594,"longitude":133.22711181640625,"category":"博物館/港","description":"","image_url":""},{"id":2567,"title":"島根県立美術館","architect":"菊竹清訓","year":1999.0,"address":"島根県松江市袖師町1-5","latitude":35.45964050292969,"longitude":133.05258178710938,"category":"美術館","description":"","image_url":""},{"id":2568,"title":"かわもとおとぎ館 旧悠邑ふるさと会館・サウンドアミュージアム かわもと音戯館","architect":"新居千秋","year":1998.0,"address":"島根県邑智郡川本町川本332-15","latitude":34.99162292480469,"longitude":132.49703979492188,"category":"総合文化施設/ホテル","description":"","image_url":""},{"id":2569,"title":"仁摩サンドミュージアム","architect":"高松伸","year":1990.0,"address":"島根県大田市仁摩町天河内975","latitude":35.146358489990234,"longitude":132.40463256835938,"category":"博物館","description":"","image_url":""},{"id":2570,"title":"羅漢寺","architect":"不明","year":null,"address":"島根県大田市大森町ｲ804","latitude":35.11330032348633,"longitude":132.44618225097656,"category":"寺院","description":"","image_url":""},{"id":2571,"title":"仁摩町ふれあい交流館","architect":"高松伸","year":1993.0,"address":"島根県大田市仁摩町天河内975","latitude":35.1469612121582,"longitude":132.4051513671875,"category":"観光施設","description":"","image_url":""},{"id":2572,"title":"森鴎外記念館","architect":"宮本忠長","year":1995.0,"address":"島根県鹿足郡津和野町町田ｲ-238","latitude":34.45732116699219,"longitude":131.76852416992188,"category":"博物館","description":"","image_url":""},{"id":2573,"title":"津和野町立安野光雅美術館","architect":"番匠設計","year":2001.0,"address":"島根県鹿足郡津和野町後田ｲ-60-1","latitude":34.472049713134766,"longitude":131.7742919921875,"category":"美術館","description":"","image_url":""},{"id":2574,"title":"浜田市世界こども美術館","architect":"高松伸","year":1996.0,"address":"島根県浜田市野原町859-1","latitude":34.886253356933594,"longitude":132.07687377929688,"category":"児童施設","description":"","image_url":""},{"id":2575,"title":"三隅町立三隅小学校","architect":"高松伸","year":1997.0,"address":"島根県浜田市三隅町古市場450","latitude":34.78412628173828,"longitude":131.95343017578125,"category":"学校","description":"","image_url":""},{"id":2576,"title":"宇部教会","architect":"西森陸雄","year":1996.0,"address":"山口県宇部市鍋倉町2-2","latitude":33.9661750793457,"longitude":131.23243713378906,"category":"教会","description":"","image_url":""},{"id":2577,"title":"ときわミュージアム 緑と花と彫刻の博物館","architect":"不明","year":2007.0,"address":"山口県宇部市野中3-4-29","latitude":33.94856262207031,"longitude":131.28176879882812,"category":"美術館","description":"野外彫刻展示場は大高正人設計","image_url":""},{"id":2578,"title":"宇部銀行館 ヒストリア宇部 旧宇部銀行本店","architect":"村野藤吾","year":1939.0,"address":"山口県宇部市新天町1-1-11","latitude":33.950531005859375,"longitude":131.24652099609375,"category":"金融機関/博物館","description":"","image_url":""},{"id":2579,"title":"宇部市渡辺翁記念会館 旧宇部市民館","architect":"村野藤吾","year":1937.0,"address":"山口県宇部市朝日町8-1","latitude":33.9581413269043,"longitude":131.24468994140625,"category":"ホール・劇場","description":"","image_url":""},{"id":2580,"title":"ときわ公園","architect":"川元明春 他","year":null,"address":"山口県宇部市則貞3-4-1","latitude":33.945030212402344,"longitude":131.28257751464844,"category":"公園","description":"","image_url":""},{"id":2581,"title":"山口大学医学部創立50周年記念会館","architect":"岸和郎","year":1997.0,"address":"山口県宇部市南小串1-1-1","latitude":33.95813751220703,"longitude":131.24859619140625,"category":"大学","description":"","image_url":""},{"id":2582,"title":"ANAクラウンプラザホテル宇部 旧宇部興産ビル","architect":"村野藤吾","year":1983.0,"address":"山口県宇部市相生町8-1","latitude":33.95509719848633,"longitude":131.24496459960938,"category":"ホテル","description":"","image_url":""},{"id":2583,"title":"宇部市文化会館","architect":"村野藤吾","year":1979.0,"address":"山口県宇部市朝日町8-1","latitude":33.95772171020508,"longitude":131.24444580078125,"category":"総合文化施設","description":"","image_url":""},{"id":2584,"title":"厚母大仏安養寺 木造阿弥陀如来坐像 収蔵施設","architect":"隈研吾","year":2002.0,"address":"山口県下関市豊浦町大字厚母郷541","latitude":34.11161422729492,"longitude":130.90480041503906,"category":"寺院","description":"","image_url":""},{"id":2585,"title":"Running Green Project","architect":"三分一博志","year":2001.0,"address":"山口県下関市豊北町大字阿川","latitude":34.34104919433594,"longitude":130.92855834960938,"category":"オブジェ","description":"阿川ほうせんぐり海浜公園内","image_url":""},{"id":2586,"title":"下関市豊北生涯学習センター","architect":"青木茂","year":2005.0,"address":"山口県下関市豊北町大字神田1199-1","latitude":34.31599807739258,"longitude":130.89198303222656,"category":"ホール・劇場/公民館・交流施設","description":"","image_url":""},{"id":2587,"title":"川棚グランドホテル 温泉・山頭火","architect":"有馬裕之","year":2004.0,"address":"山口県下関市豊浦町大字川棚","latitude":34.13977813720703,"longitude":130.93951416015625,"category":"ホテル","description":"","image_url":""},{"id":2588,"title":"楓居","architect":"有馬裕之","year":2001.0,"address":"山口県下関市豊浦町大字川棚4912-1","latitude":34.13951110839844,"longitude":130.93942260742188,"category":"茶室","description":"","image_url":""},{"id":2589,"title":"下関市立美術館","architect":"不明","year":1983.0,"address":"山口県下関市長府黒門東町1-1","latitude":33.98976516723633,"longitude":130.99078369140625,"category":"美術館","description":"","image_url":""},{"id":2590,"title":"下関市体育館","architect":"坪井善勝","year":1963.0,"address":"山口県下関市向洋町1-12-1","latitude":33.96711730957031,"longitude":130.9315643310547,"category":"体育館","description":"2024年解体。解体見学会が開催された","image_url":""},{"id":2591,"title":"壇之浦パーキングエリア","architect":"菊竹清訓","year":1973.0,"address":"山口県下関市壇之浦町6-1","latitude":33.96343994140625,"longitude":130.95343017578125,"category":"PA・道の駅","description":"","image_url":""},{"id":2592,"title":"山口銀行本店","architect":"圓堂政嘉","year":1965.0,"address":"山口県下関市竹崎町4-2-36","latitude":33.95039367675781,"longitude":130.92518615722656,"category":"金融機関","description":"","image_url":""},{"id":2593,"title":"下関観光情報センター 旧秋田商会ビル","architect":"秋田寅之助","year":1915.0,"address":"山口県下関市南部町23-11","latitude":33.95687484741211,"longitude":130.9419403076172,"category":"洋館","description":"","image_url":""},{"id":2594,"title":"フロイデ彦島","architect":"大野秀敏","year":2005.0,"address":"山口県下関市彦島西山町3-12-1","latitude":33.94486618041992,"longitude":130.87986755371094,"category":"養護施設","description":"","image_url":""},{"id":2595,"title":"旧下関英国領事館","architect":"アレクサンダー・ネルソン・ハンセル","year":1906.0,"address":"山口県下関市唐戸町4-11","latitude":33.95695495605469,"longitude":130.94320678710938,"category":"洋館","description":"","image_url":""},{"id":2596,"title":"下関市川棚温泉交流センター 川棚の杜","architect":"隈研吾","year":2010.0,"address":"山口県下関市豊浦町川棚5180","latitude":34.13771438598633,"longitude":130.93948364257812,"category":"総合文化施設/博物館","description":"","image_url":""},{"id":2597,"title":"唐戸市場","architect":"池原義郎","year":2001.0,"address":"山口県下関市唐戸町5-50","latitude":33.95656967163086,"longitude":130.94580078125,"category":"モール/公共施設","description":"","image_url":""},{"id":2598,"title":"下関市立しものせき水族館 海響館","architect":"日本設計","year":2001.0,"address":"山口県下関市あるかぽｰと6-1","latitude":33.9544792175293,"longitude":130.9424285888672,"category":"水族館","description":"","image_url":""},{"id":2599,"title":"火の山公園山頂展望施設","architect":"菊竹清訓","year":1973.0,"address":"山口県下関市藤ヶ谷 火の山パークウェイ駐車場","latitude":33.973533630371094,"longitude":130.95835876464844,"category":"公園/展望台","description":"2017年取壊済み","image_url":""},{"id":2600,"title":"下関市生涯学習プラザ ／ 下関市立中央図書館","architect":"シーザー・ペリ","year":2010.0,"address":"山口県下関市細江町3-1-1","latitude":33.951393127441406,"longitude":130.9302215576172,"category":"総合文化施設/図書館","description":"","image_url":""}]}