{"page":58,"total_pages":290,"items_per_page":50,"total_items":14467,"items":[{"id":2851,"title":"北九州国際会議場","architect":"磯崎新","year":1990.0,"address":"福岡県北九州市小倉北区浅野3-9-30","latitude":33.88997268676758,"longitude":130.88836669921875,"category":"展示・会議場","description":"","image_url":""},{"id":2852,"title":"リバーウォーク北九州","architect":"ジョン・ジャーディ","year":2003.0,"address":"福岡県北九州市小倉北区室町1-1","latitude":33.8856086730957,"longitude":130.87649536132812,"category":"モール","description":"","image_url":""},{"id":2853,"title":"松濤園・史料館 柳川藩主立花家別邸","architect":"不明","year":1908.0,"address":"福岡県柳川市新外町1","latitude":33.158321380615234,"longitude":130.39805603027344,"category":"庭園","description":"","image_url":""},{"id":2854,"title":"ダブルテンポ  ミント宇佐店","architect":"吉村靖孝","year":1999.0,"address":"大分県宇佐市法鏡寺80-1","latitude":33.52641677856445,"longitude":131.34254455566406,"category":"店舗","description":"","image_url":""},{"id":2855,"title":"城井掩体壕群","architect":"不明","year":1943.0,"address":"大分県宇佐市城井243","latitude":33.54876708984375,"longitude":131.33804321289062,"category":"産業遺産","description":"","image_url":""},{"id":2856,"title":"杵築市役所山香庁舎 山香町役場","architect":"新居千秋","year":1996.0,"address":"大分県杵築市山香町大字野原1010-2","latitude":33.446075439453125,"longitude":131.50157165527344,"category":"庁舎","description":"","image_url":""},{"id":2857,"title":"大分農業文化公園中心施設 パークアルカディア","architect":"伊東豊雄","year":2000.0,"address":"大分県杵築市山香町大字日指1-1","latitude":33.43363571166992,"longitude":131.4305877685547,"category":"公園/観光施設","description":"","image_url":""},{"id":2858,"title":"豊後森機関庫","architect":"不明","year":1934.0,"address":"大分県玖珠郡玖珠町帆足450","latitude":33.28110122680664,"longitude":131.1584930419922,"category":"産業遺産","description":"","image_url":""},{"id":2859,"title":"国見町生涯学習センター みんなんかん","architect":"塩塚隆生","year":2000.0,"address":"大分県国東市国見町伊美2305-1","latitude":33.67821502685547,"longitude":131.59422302246094,"category":"ホール・劇場/図書館/公民館・交流施設","description":"","image_url":""},{"id":2860,"title":"くにさき総合文化センター アストくにさき","architect":"新居千秋","year":2001.0,"address":"大分県国東市国東町鶴川160-2","latitude":33.562774658203125,"longitude":131.7317352294922,"category":"総合文化施設/ホール・劇場","description":"","image_url":""},{"id":2861,"title":"佐伯市宇目振興局 旧宇目町役場","architect":"青木茂","year":1999.0,"address":"大分県佐伯市宇目大字千束1060-1","latitude":32.857994079589844,"longitude":131.65647888183594,"category":"庁舎","description":"","image_url":""},{"id":2862,"title":"佐伯市蒲江 海の資料館 時間の船","architect":"青木茂","year":2005.0,"address":"大分県佐伯市蒲江大字竹野浦河内2342","latitude":32.820037841796875,"longitude":131.96522521972656,"category":"博物館","description":"","image_url":""},{"id":2863,"title":"豊後水道海事博物館 旧水ノ子島灯台吏員退息所","architect":"不明","year":1904.0,"address":"大分県佐伯市鶴見大字梶寄浦537","latitude":32.94335174560547,"longitude":132.07530212402344,"category":"洋館","description":"","image_url":""},{"id":2864,"title":"鶴御崎 パノラマ展望ブリッジ","architect":"山口隆史","year":1991.0,"address":"大分県佐伯市鶴見大字梶寄浦519","latitude":32.94218063354492,"longitude":132.0748748779297,"category":"公園","description":"","image_url":""},{"id":2865,"title":"ホルトホール大分","architect":"佐藤総合計画","year":2013.0,"address":"大分県大分市金池南1-5-1","latitude":33.23054122924805,"longitude":131.60586547851562,"category":"総合文化施設","description":"","image_url":""},{"id":2866,"title":"大分マリーンパレス水族館","architect":"日建設計","year":2004.0,"address":"大分県大分市神崎3078-40","latitude":33.259429931640625,"longitude":131.5343017578125,"category":"水族館","description":"","image_url":""},{"id":2867,"title":"100 years' tree 大分駅モニュメント","architect":"塩塚隆生","year":2013.0,"address":"大分県大分市金池南1-5-1","latitude":33.231449127197266,"longitude":131.6054229736328,"category":"オブジェ","description":"","image_url":""},{"id":2868,"title":"坂ノ市市民センター","architect":"塩塚隆生","year":2011.0,"address":"大分県大分市坂ノ市南3-5-33","latitude":33.23081970214844,"longitude":131.751708984375,"category":"庁舎","description":"","image_url":""},{"id":2869,"title":"富士見カントリークラブハウス","architect":"磯崎新","year":1974.0,"address":"大分県大分市横瀬1473","latitude":33.182674407958984,"longitude":131.53550720214844,"category":"クラブハウス","description":"","image_url":""},{"id":2870,"title":"のつはるこども園 旧野津原町多世代交流プラザ","architect":"青木茂","year":2000.0,"address":"大分県大分市野津原1731-3","latitude":33.163902282714844,"longitude":131.52896118164062,"category":"公共施設/福祉センター/幼稚園","description":"2000年リファイニング建築として竣工。2011年にこども園に再リファイニング・増改築。場所はずっと間違えたまま掲載してました、スイマセン","image_url":""},{"id":2871,"title":"大分スポーツ公園総合競技場 大分銀行ドーム \"ビッグアイ\"","architect":"黒川紀章","year":2001.0,"address":"大分県大分市横尾1351","latitude":33.20072555541992,"longitude":131.6585693359375,"category":"スタジアム","description":"","image_url":""},{"id":2872,"title":"アートプラザ 旧大分県立図書館","architect":"磯崎新","year":1966.0,"address":"大分県大分市荷揚町3-31","latitude":33.24057388305664,"longitude":131.60952758789062,"category":"美術館","description":"オリジナルは1966年竣工、1998年に改築","image_url":""},{"id":2873,"title":"豊の国情報ライブラリー","architect":"磯崎新","year":1995.0,"address":"大分県大分市王子西町14-1","latitude":33.23951721191406,"longitude":131.59002685546875,"category":"図書館","description":"","image_url":""},{"id":2874,"title":"大分市美術館","architect":"内井昭蔵","year":1998.0,"address":"大分県大分市上野865","latitude":33.223453521728516,"longitude":131.60215759277344,"category":"美術館","description":"","image_url":""},{"id":2875,"title":"大分市情報学習センター","architect":"磯崎新","year":1979.0,"address":"大分県大分市荏隈 大分市情報学習センター","latitude":33.210594177246094,"longitude":131.5872802734375,"category":"公民館・交流施設/図書館","description":"","image_url":""},{"id":2876,"title":"久住高原ロードパーク展望レストラン","architect":"高崎正治","year":1994.0,"address":"大分県竹田市久住町大字久住4008-1","latitude":33.066837310791016,"longitude":131.2328643798828,"category":"レストラン","description":"","image_url":""},{"id":2877,"title":"レゾネイトクラブくじゅう","architect":"丸山欣也","year":1993.0,"address":"大分県竹田市久住町大字有氏1773","latitude":33.066654205322266,"longitude":131.27798461914062,"category":"ホテル","description":"","image_url":""},{"id":2878,"title":"ラムネ温泉館","architect":"藤森照信","year":2005.0,"address":"大分県竹田市直入町大字長湯7676-2","latitude":33.06842041015625,"longitude":131.38018798828125,"category":"温泉","description":"","image_url":""},{"id":2879,"title":"温泉療養文化館 御前湯","architect":"象設計集団","year":1998.0,"address":"大分県竹田市直入町大字長湯7962-1","latitude":33.0706901550293,"longitude":131.38430786132812,"category":"温泉","description":"","image_url":""},{"id":2880,"title":"中津市立小幡記念図書館","architect":"槇文彦","year":1993.0,"address":"大分県中津市（その他）-1366-1","latitude":33.603816986083984,"longitude":131.1844024658203,"category":"図書館","description":"","image_url":""},{"id":2881,"title":"コアやまくに 旧山国町役場","architect":"栗生明","year":1996.0,"address":"大分県中津市山国町守美130","latitude":33.402259826660156,"longitude":131.04159545898438,"category":"総合文化施設","description":"","image_url":""},{"id":2882,"title":"中津市歴史民俗資料館 旧小幡記念図書館","architect":"不明","year":1938.0,"address":"大分県中津市殿町1385","latitude":33.6030387878418,"longitude":131.18455505371094,"category":"洋館","description":"","image_url":""},{"id":2883,"title":"風の丘葬斎場","architect":"槇文彦","year":1997.0,"address":"大分県中津市相原3032-16","latitude":33.566734313964844,"longitude":131.19459533691406,"category":"斎場","description":"","image_url":""},{"id":2884,"title":"中津市木村記念美術館 又庵","architect":"大江匡","year":1989.0,"address":"大分県中津市片端町1366-3","latitude":33.60421371459961,"longitude":131.18406677246094,"category":"美術館","description":"","image_url":""},{"id":2885,"title":"日田市民文化会館 パトリア日田","architect":"香山壽夫","year":2007.0,"address":"大分県日田市三本松1-8-11","latitude":33.31926727294922,"longitude":130.93423461914062,"category":"ホール・劇場","description":"","image_url":""},{"id":2886,"title":"日田市中央公民館 複合文化施設 AOSE","architect":"黒川紀章","year":1977.0,"address":"大分県日田市上城内町2-6","latitude":33.325958251953125,"longitude":130.94190979003906,"category":"公民館・交流施設/ホール・劇場","description":"","image_url":""},{"id":2887,"title":"中津江村鯛生金山砂金採取場 「月兎黄金」","architect":"黒川哲郎","year":1998.0,"address":"大分県日田市中津江村合瀬3750","latitude":33.12801742553711,"longitude":130.88180541992188,"category":"博物館","description":"","image_url":""},{"id":2888,"title":"上津江村屋根付交流広場　「臨川技楽」","architect":"黒川哲郎","year":1997.0,"address":"大分県日田市上津江町川原3932-8","latitude":33.12075424194336,"longitude":130.96676635742188,"category":"公民館・交流施設","description":"","image_url":""},{"id":2889,"title":"日田市立上津江診療所 保健センター","architect":"黒川哲郎","year":1996.0,"address":"大分県日田市上津江町川原3933","latitude":33.11955261230469,"longitude":130.96810913085938,"category":"医療施設/福祉センター","description":"","image_url":""},{"id":2890,"title":"platform01","architect":"塩塚隆生","year":2008.0,"address":"大分県別府市元町8-3","latitude":33.27751541137695,"longitude":131.5048828125,"category":"ギャラリー","description":"","image_url":""},{"id":2891,"title":"platform02","architect":"塩塚隆生","year":2008.0,"address":"大分県別府市元町6-21","latitude":33.27682876586914,"longitude":131.5048065185547,"category":"ギャラリー","description":"","image_url":""},{"id":2892,"title":"ビーコンプラザ","architect":"磯崎新","year":1995.0,"address":"大分県別府市山の手町12-1","latitude":33.28310775756836,"longitude":131.48724365234375,"category":"展示・会議場","description":"","image_url":""},{"id":2893,"title":"豊後高田市立図書館","architect":"三上建築事務所","year":2013.0,"address":"大分県豊後高田市御玉101-1","latitude":33.558311462402344,"longitude":131.44483947753906,"category":"図書館","description":"","image_url":""},{"id":2894,"title":"大野町のバスターミナル","architect":"塩塚隆生","year":2002.0,"address":"大分県豊後大野市大野町田中94","latitude":33.039039611816406,"longitude":131.50132751464844,"category":"駅","description":"","image_url":""},{"id":2895,"title":"道の駅 あさじ 「菜花朧月館」","architect":"黒川哲郎","year":1999.0,"address":"大分県豊後大野市朝地町板井迫1018-1","latitude":33.0025634765625,"longitude":131.4480743408203,"category":"PA・道の駅","description":"","image_url":""},{"id":2896,"title":"朝倉文夫記念館・記念文化ホール","architect":"清家清","year":1990.0,"address":"大分県豊後大野市朝地町池田1587-11","latitude":33.0265998840332,"longitude":131.44659423828125,"category":"美術館","description":"","image_url":""},{"id":2897,"title":"大分市野津原支所 旧野津原町庁舎","architect":"伊東豊雄","year":1998.0,"address":"大分県大分市野津原800","latitude":33.162601470947266,"longitude":131.52978515625,"category":"庁舎","description":"","image_url":""},{"id":2898,"title":"由布院美術館","architect":"象設計集団","year":1991.0,"address":"大分県由布市湯布院町川上2995","latitude":33.265316009521484,"longitude":131.36138916015625,"category":"美術館","description":"2012年閉館、その後解体","image_url":""},{"id":2899,"title":"空想の森美術館 アルテジオ","architect":"田中俊彰","year":2002.0,"address":"大分県由布市湯布院町川上1272-175","latitude":33.275726318359375,"longitude":131.36846923828125,"category":"美術館","description":"","image_url":""},{"id":2900,"title":"由布院駅舎","architect":"磯崎新","year":1990.0,"address":"大分県由布市湯布院町川北 由布院駅","latitude":33.26264190673828,"longitude":131.3551025390625,"category":"駅","description":"","image_url":""}]}