{"page":115,"total_pages":290,"items_per_page":50,"total_items":14467,"items":[{"id":5701,"title":"ぜんなみ歯科クリニック","architect":"谷尻誠","year":2011.0,"address":"愛知県名古屋市天白区野並3-435","latitude":35.10101318359375,"longitude":136.9563751220703,"category":"個人医院","big_category":"医療施設","description":"","image_url":"","tags":"","prefecture":"愛知","contractor":"","structural_designer":"","landscape_designer":"","shinkenchiku_url":""},{"id":5702,"title":"musubiまちの家","architect":"谷尻誠","year":2014.0,"address":"大阪府東大阪市中鴻池町1-7-30","latitude":34.69692611694336,"longitude":135.59385681152344,"category":"養護施設/住宅","big_category":"医療施設,住宅","description":"","image_url":"","tags":"","prefecture":"大阪","contractor":"","structural_designer":"","landscape_designer":"","shinkenchiku_url":""},{"id":5703,"title":"今治のオフィス 真鍋造機 本社","architect":"谷尻誠","year":2013.0,"address":"愛媛県今治市高部甲633-3","latitude":34.09627151489258,"longitude":132.97207641601562,"category":"低層オフィス","big_category":"企業施設","description":"","image_url":"","tags":"","prefecture":"愛媛","contractor":"","structural_designer":"","landscape_designer":"","shinkenchiku_url":""},{"id":5704,"title":"箕面自由学園 記念体育館","architect":"村野藤吾","year":1976.0,"address":"大阪府豊中市宮山町4-21-1","latitude":34.81168746948242,"longitude":135.462890625,"category":"体育館/学校","big_category":"レジャー施設,教育","description":"","image_url":"","tags":"","prefecture":"大阪","contractor":"","structural_designer":"","landscape_designer":"","shinkenchiku_url":""},{"id":5705,"title":"箕面ビジターセンター","architect":"村野藤吾","year":1967.0,"address":"大阪府箕面市箕面1576","latitude":34.857688903808594,"longitude":135.47879028320312,"category":"観光施設","big_category":"レジャー施設","description":"","image_url":"","tags":"","prefecture":"大阪","contractor":"","structural_designer":"","landscape_designer":"","shinkenchiku_url":""},{"id":5706,"title":"豊後森機関庫ミュージアム","architect":"水戸岡鋭治","year":2015.0,"address":"大分県玖珠郡玖珠町帆足245","latitude":33.28153991699219,"longitude":131.156982421875,"category":"観光施設/博物館","big_category":"レジャー施設,ミュージアム","description":"","image_url":"","tags":"","prefecture":"大分","contractor":"","structural_designer":"","landscape_designer":"","shinkenchiku_url":""},{"id":5707,"title":"BUKATSUDO","architect":"田中裕之","year":2014.0,"address":"神奈川県横浜市 西区みなとみらい2-2-1 ランドマークプラザB1F","latitude":35.45486068725586,"longitude":139.63232421875,"category":"その他文化施設","big_category":"文化施設","description":"","image_url":"","tags":"","prefecture":"神奈川","contractor":"","structural_designer":"","landscape_designer":"","shinkenchiku_url":""},{"id":5708,"title":"彩都やまもり 彩輝館","architect":"光嶋裕介","year":2015.0,"address":"大阪府箕面市彩都粟生南1-17-26","latitude":34.84825897216797,"longitude":135.5222625732422,"category":"ギャラリー","big_category":"ミュージアム","description":"住宅展示場のギャラリー棟","image_url":"","tags":"","prefecture":"大阪","contractor":"","structural_designer":"","landscape_designer":"","shinkenchiku_url":""},{"id":5709,"title":"古今果","architect":"中村拓志","year":2015.0,"address":"広島県廿日市市宮島口1-12-5","latitude":34.31177520751953,"longitude":132.30389404296875,"category":"店舗/カフェ","big_category":"商業施設,商業施設","description":"","image_url":"","tags":"","prefecture":"広島","contractor":"","structural_designer":"","landscape_designer":"","shinkenchiku_url":""},{"id":5710,"title":"都市交流施設・道の駅 保田小学校","architect":"古谷誠章+北山恒+設計組織ADH+篠原聡子","year":2015.0,"address":"千葉県安房郡鋸南町保田724","latitude":35.14302444458008,"longitude":139.84375,"category":"PA・道の駅","big_category":"インフラ","description":"2015年12月11日オープン予定。廃校を改修","image_url":"","tags":"新建築2016年1月号","prefecture":"千葉","contractor":"","structural_designer":"","landscape_designer":"","shinkenchiku_url":""},{"id":5711,"title":"桜井市庁舎","architect":"久米設計","year":1967.0,"address":"奈良県桜井市大字粟殿432-1","latitude":34.518699645996094,"longitude":135.84315490722656,"category":"庁舎","big_category":"公共施設","description":"","image_url":"","tags":"","prefecture":"奈良","contractor":"","structural_designer":"","landscape_designer":"","shinkenchiku_url":""},{"id":5712,"title":"ベイサイドスクエア皆生ホテル","architect":"PARK DESIGN","year":2009.0,"address":"鳥取県米子市皆生温泉4-21-1","latitude":35.458412170410156,"longitude":133.35955810546875,"category":"ホテル","big_category":"宿泊","description":"","image_url":"","tags":"","prefecture":"鳥取","contractor":"","structural_designer":"","landscape_designer":"","shinkenchiku_url":""},{"id":5713,"title":"勝田台のいえ ヴァンローゼ","architect":"永山祐子","year":2013.0,"address":"千葉県八千代市勝田台1-36-10","latitude":35.71299362182617,"longitude":140.128173828125,"category":"店舗/住宅","big_category":"商業施設,住宅","description":"","image_url":"","tags":"","prefecture":"千葉","contractor":"","structural_designer":"","landscape_designer":"","shinkenchiku_url":""},{"id":5714,"title":"泉北ニュータウン三原台アレイハウス","architect":"上田篤","year":1984.0,"address":"大阪府堺市南区三原台1","latitude":34.49895095825195,"longitude":135.5184783935547,"category":"住宅/都市計画","big_category":"住宅,公共施設","description":"","image_url":"","tags":"","prefecture":"大阪","contractor":"","structural_designer":"","landscape_designer":"","shinkenchiku_url":""},{"id":5715,"title":"神戸市ポートアイランド市民広場","architect":"上田篤","year":1981.0,"address":"兵庫県神戸市中央区港島中町6-9-2","latitude":34.66595458984375,"longitude":135.2137451171875,"category":"公共施設/広場/都市計画","big_category":"公共施設,文化施設,公共施設","description":"","image_url":"","tags":"","prefecture":"兵庫","contractor":"","structural_designer":"","landscape_designer":"","shinkenchiku_url":""},{"id":5716,"title":"京都精華大学 増設","architect":"上田篤","year":1987.0,"address":"京都府京都市左京区岩倉木野町137","latitude":35.07317352294922,"longitude":135.76995849609375,"category":"大学","big_category":"教育","description":"玄関、講義棟、研究室棟、図書館、体育館、厚生棟、クラブボックスを1987～1997年にかけて設計。","image_url":"","tags":"","prefecture":"京都","contractor":"","structural_designer":"","landscape_designer":"","shinkenchiku_url":""},{"id":5717,"title":"ポラリス ジ・アートステージ","architect":"泉幸甫","year":2004.0,"address":"神奈川県鎌倉市台1752-10","latitude":35.3375244140625,"longitude":139.5378875732422,"category":"ギャラリー","big_category":"ミュージアム","description":"","image_url":"","tags":"","prefecture":"神奈川","contractor":"","structural_designer":"","landscape_designer":"","shinkenchiku_url":""},{"id":5718,"title":"長府製作所記念館 蛍遊苑","architect":"泉幸甫","year":2014.0,"address":"山口県下関市長府侍町2-6-45","latitude":33.99613952636719,"longitude":130.9888458251953,"category":"博物館/ホール・劇場","big_category":"ミュージアム,文化施設","description":"","image_url":"","tags":"新建築2014年11月号","prefecture":"山口","contractor":"安成工務店","structural_designer":"山田憲明構造設計事務所","landscape_designer":"","shinkenchiku_url":"https://data.shinkenchiku.online/articles/SK_2014_11_168-0"},{"id":5719,"title":"アパートメント惣","architect":"泉幸甫","year":2013.0,"address":"東京都豊島区南長崎2-11-19","latitude":35.724586486816406,"longitude":139.69119262695312,"category":"集合住宅","big_category":"住宅","description":"","image_url":"","tags":"","prefecture":"東京","contractor":"","structural_designer":"","landscape_designer":"","shinkenchiku_url":""},{"id":5720,"title":"泰山館","architect":"泉幸甫","year":1990.0,"address":"東京都目黒区東が丘1-16-17","latitude":35.628196716308594,"longitude":139.6686248779297,"category":"集合住宅","big_category":"住宅","description":"","image_url":"","tags":"","prefecture":"東京","contractor":"","structural_designer":"","landscape_designer":"","shinkenchiku_url":""},{"id":5721,"title":"アパートメント傳","architect":"泉幸甫","year":1998.0,"address":"東京都中野区上高田1-1-1","latitude":35.7100830078125,"longitude":139.68255615234375,"category":"集合住宅/カフェ","big_category":"住宅,商業施設","description":"","image_url":"","tags":"","prefecture":"東京","contractor":"","structural_designer":"","landscape_designer":"","shinkenchiku_url":""},{"id":5722,"title":"アパートメント鶉","architect":"泉幸甫","year":2002.0,"address":"東京都豊島区目白2-8","latitude":35.720401763916016,"longitude":139.71133422851562,"category":"集合住宅/ギャラリー","big_category":"住宅,ミュージアム","description":"","image_url":"","tags":"","prefecture":"東京","contractor":"","structural_designer":"","landscape_designer":"","shinkenchiku_url":""},{"id":5723,"title":"アパートメントなかなか","architect":"泉幸甫","year":2006.0,"address":"東京都中野区本町6-9","latitude":35.695472717285156,"longitude":139.66603088378906,"category":"集合住宅","big_category":"住宅","description":"","image_url":"","tags":"","prefecture":"東京","contractor":"","structural_designer":"","landscape_designer":"","shinkenchiku_url":""},{"id":5724,"title":"アパートメント楓","architect":"泉幸甫","year":2012.0,"address":"東京都杉並区上高井戸1-2-8","latitude":35.66963577270508,"longitude":139.61424255371094,"category":"集合住宅","big_category":"住宅","description":"","image_url":"","tags":"","prefecture":"東京","contractor":"","structural_designer":"","landscape_designer":"","shinkenchiku_url":""},{"id":5725,"title":"市立吹田サッカースタジアム","architect":"竹中工務店","year":2015.0,"address":"大阪府吹田市千里万博公園3-3","latitude":34.80264663696289,"longitude":135.53810119628906,"category":"スタジアム","big_category":"レジャー施設","description":"","image_url":"","tags":"新建築2015年12月号,Ver1.70(2016年2月)の追加建築,2020年日本建築学会 作品賞,2023年公共建築賞・特別賞","prefecture":"大阪","contractor":"","structural_designer":"","landscape_designer":"","shinkenchiku_url":""},{"id":5726,"title":"太子町新庁舎 太子の環","architect":"坂本昭","year":2015.0,"address":"兵庫県揖保郡太子町鵤280-1","latitude":34.83306121826172,"longitude":134.5723114013672,"category":"庁舎","big_category":"公共施設","description":"","image_url":"","tags":"新建築2015年12月号,Ver1.70(2016年2月)の追加建築,2017年度JIA優秀建築賞,2018年日本建築学会 作品選奨","prefecture":"兵庫","contractor":"","structural_designer":"","landscape_designer":"","shinkenchiku_url":""},{"id":5727,"title":"日本橋室町の家","architect":"室伏次郎","year":2015.0,"address":"東京都中央区日本橋室町1-12-13","latitude":35.6859245300293,"longitude":139.77540588378906,"category":"店舗/住宅","big_category":"商業施設,住宅","description":"","image_url":"","tags":"新建築2015年12月号,Ver1.70(2016年2月)の追加建築","prefecture":"東京","contractor":"","structural_designer":"","landscape_designer":"","shinkenchiku_url":""},{"id":5728,"title":"東松山農産物直売所 いなほてらす","architect":"馬場兼伸+江泉光哲+金井直","year":2015.0,"address":"埼玉県東松山市下青鳥714-1","latitude":36.01692199707031,"longitude":139.4040069580078,"category":"店舗/PA・道の駅","big_category":"商業施設,インフラ","description":"","image_url":"","tags":"新建築2015年12月号,Ver1.70(2016年2月)の追加建築,2018年日本建築学会 作品選奨","prefecture":"埼玉","contractor":"森田建設","structural_designer":"多田脩二構造設計事務所","landscape_designer":"オンサイト計画設計事務所","shinkenchiku_url":""},{"id":5729,"title":"星のや 富士","architect":"東利恵","year":2015.0,"address":"山梨県南都留郡富士河口湖町大石1408","latitude":35.525367736816406,"longitude":138.74522399902344,"category":"ホテル","big_category":"宿泊","description":"","image_url":"","tags":"新建築2015年12月号,Ver1.70(2016年2月)の追加建築","prefecture":"山梨","contractor":"清水建設","structural_designer":"","landscape_designer":"","shinkenchiku_url":""},{"id":5730,"title":"新山口駅 南北自由通路","architect":"宮崎浩+ジェイアール西日本コンサルタンツ","year":2015.0,"address":"山口県山口市小郡下郷 新山口駅","latitude":34.093719482421875,"longitude":131.39634704589844,"category":"駅","big_category":"インフラ","description":"","image_url":"","tags":"新建築2015年12月号,Ver1.70(2016年2月)の追加建築","prefecture":"山口","contractor":"大鉄工業+大成建設","structural_designer":"","landscape_designer":"","shinkenchiku_url":""},{"id":5731,"title":"江東区 豊洲シビックセンター","architect":"日建設計","year":2015.0,"address":"東京都江東区豊洲2-2-18","latitude":35.653839111328125,"longitude":139.79495239257812,"category":"総合文化施設","big_category":"文化施設","description":"","image_url":"","tags":"新建築2015年12月号,Ver1.70(2016年2月)の追加建築","prefecture":"東京","contractor":"","structural_designer":"","landscape_designer":"","shinkenchiku_url":""},{"id":5732,"title":"長浜市庁舎","architect":"日本設計","year":2015.0,"address":"滋賀県長浜市八幡東町632","latitude":35.380760192871094,"longitude":136.2786102294922,"category":"庁舎","big_category":"公共施設","description":"","image_url":"","tags":"新建築2015年12月号,Ver1.70(2016年2月)の追加建築","prefecture":"滋賀","contractor":"","structural_designer":"","landscape_designer":"","shinkenchiku_url":""},{"id":5733,"title":"キヤノン川崎事業所高層棟","architect":"大林組","year":2015.0,"address":"神奈川県川崎市幸区柳町70-1","latitude":35.52973937988281,"longitude":139.69064331054688,"category":"オフィスビル","big_category":"企業施設","description":"","image_url":"","tags":"新建築2015年12月号,Ver1.70(2016年2月)の追加建築","prefecture":"神奈川","contractor":"大林組","structural_designer":"","landscape_designer":"","shinkenchiku_url":""},{"id":5734,"title":"アンリツグローバル本社棟","architect":"竹中工務店","year":2015.0,"address":"神奈川県厚木市恩名5-1-1","latitude":35.44692611694336,"longitude":139.3408660888672,"category":"オフィスビル","big_category":"企業施設","description":"","image_url":"","tags":"新建築2015年12月号,Ver1.70(2016年2月)の追加建築","prefecture":"神奈川","contractor":"","structural_designer":"","landscape_designer":"","shinkenchiku_url":""},{"id":5735,"title":"明治屋京橋ビル","architect":"曽禰達蔵+中條精一郎","year":1933.0,"address":"東京都中央区京橋2-2-8","latitude":35.677581787109375,"longitude":139.7695770263672,"category":"オフィスビル","big_category":"企業施設","description":"2015年にU.A建築研究室・清水建設により改修","image_url":"","tags":"新建築2015年12月号,Ver1.70(2016年2月)の追加建築","prefecture":"東京","contractor":"","structural_designer":"","landscape_designer":"","shinkenchiku_url":""},{"id":5736,"title":"クレオホール","architect":"坂本昭","year":1995.0,"address":"富山県南砺市小林121-1","latitude":36.54823684692383,"longitude":136.88055419921875,"category":"斎場","big_category":"公共施設","description":"","image_url":"","tags":"Ver1.70(2016年2月)の追加建築","prefecture":"富山","contractor":"","structural_designer":"","landscape_designer":"","shinkenchiku_url":""},{"id":5737,"title":"ライトホールエチゴ","architect":"坂本昭","year":1998.0,"address":"富山県射水市善光寺17-22","latitude":36.775489807128906,"longitude":137.07913208007812,"category":"斎場","big_category":"公共施設","description":"","image_url":"","tags":"Ver1.70(2016年2月)の追加建築","prefecture":"富山","contractor":"","structural_designer":"","landscape_designer":"","shinkenchiku_url":""},{"id":5738,"title":"倉吉葬祭会館 創想の杜","architect":"坂本昭","year":1999.0,"address":"鳥取県倉吉市幸町461-6","latitude":35.43734359741211,"longitude":133.83802795410156,"category":"斎場","big_category":"公共施設","description":"","image_url":"","tags":"Ver1.70(2016年2月)の追加建築","prefecture":"鳥取","contractor":"","structural_designer":"","landscape_designer":"","shinkenchiku_url":""},{"id":5739,"title":"太子町立斑鳩小学校 屋内運動場 太子の杜","architect":"坂本昭","year":2012.0,"address":"兵庫県揖保郡太子町鵤713","latitude":34.837493896484375,"longitude":134.57693481445312,"category":"体育館/学校","big_category":"レジャー施設,教育","description":"","image_url":"","tags":"Ver1.70(2016年2月)の追加建築","prefecture":"兵庫","contractor":"","structural_designer":"","landscape_designer":"","shinkenchiku_url":""},{"id":5740,"title":"きのみむすび保育園","architect":"坂本昭","year":1996.0,"address":"大阪府大阪市住之江区西加賀屋4-4-10","latitude":34.6147575378418,"longitude":135.47486877441406,"category":"幼稚園","big_category":"教育","description":"","image_url":"","tags":"Ver1.70(2016年2月)の追加建築","prefecture":"大阪","contractor":"","structural_designer":"","landscape_designer":"","shinkenchiku_url":""},{"id":5741,"title":"多摩市総合福祉センター","architect":"類設計室","year":1997.0,"address":"東京都多摩市南野3-15-1","latitude":35.61251449584961,"longitude":139.41265869140625,"category":"福祉センター","big_category":"医療施設","description":"","image_url":"","tags":"Ver1.70(2016年2月)の追加建築","prefecture":"東京","contractor":"","structural_designer":"","landscape_designer":"","shinkenchiku_url":""},{"id":5742,"title":"新潟日報メディアシップ","architect":"石本建築事務所","year":2013.0,"address":"新潟県新潟市中央区万代3-1-1","latitude":37.91841125488281,"longitude":139.05618286132812,"category":"オフィスビル","big_category":"企業施設","description":"","image_url":"","tags":"Ver1.70(2016年2月)の追加建築","prefecture":"新潟","contractor":"","structural_designer":"","landscape_designer":"","shinkenchiku_url":""},{"id":5743,"title":"スクエア荏原","architect":"石本建築事務所","year":2013.0,"address":"東京都品川区荏原4-5-28","latitude":35.61530685424805,"longitude":139.70758056640625,"category":"総合文化施設/児童施設","big_category":"文化施設,教育","description":"","image_url":"","tags":"Ver1.70(2016年2月)の追加建築","prefecture":"東京","contractor":"","structural_designer":"","landscape_designer":"","shinkenchiku_url":""},{"id":5744,"title":"大正大学 3号館","architect":"石本建築事務所","year":2012.0,"address":"東京都豊島区西巣鴨3-20-1","latitude":35.742347717285156,"longitude":139.72718811035156,"category":"大学","big_category":"教育","description":"","image_url":"","tags":"Ver1.70(2016年2月)の追加建築","prefecture":"東京","contractor":"","structural_designer":"","landscape_designer":"","shinkenchiku_url":""},{"id":5745,"title":"獨協大学 学生センター","architect":"石本建築事務所","year":2012.0,"address":"埼玉県草加市学園町1-1","latitude":35.84052658081055,"longitude":139.7952423095703,"category":"大学","big_category":"教育","description":"","image_url":"","tags":"Ver1.70(2016年2月)の追加建築","prefecture":"埼玉","contractor":"","structural_designer":"","landscape_designer":"","shinkenchiku_url":""},{"id":5746,"title":"大田区総合体育館","architect":"石本建築事務所","year":2012.0,"address":"東京都大田区東蒲田1-1-11-1","latitude":35.56436538696289,"longitude":139.72789001464844,"category":"体育館","big_category":"レジャー施設","description":"","image_url":"","tags":"Ver1.70(2016年2月)の追加建築","prefecture":"東京","contractor":"","structural_designer":"","landscape_designer":"","shinkenchiku_url":""},{"id":5747,"title":"摂南大学 枚方キャンパス 7号館","architect":"石本建築事務所","year":2012.0,"address":"大阪府枚方市長尾峠町45-1","latitude":34.84979248046875,"longitude":135.70655822753906,"category":"大学","big_category":"教育","description":"","image_url":"","tags":"Ver1.70(2016年2月)の追加建築","prefecture":"大阪","contractor":"","structural_designer":"","landscape_designer":"","shinkenchiku_url":""},{"id":5748,"title":"亀山市立関中学校","architect":"石本建築事務所","year":2011.0,"address":"三重県亀山市関町新所1863","latitude":34.85641860961914,"longitude":136.39015197753906,"category":"学校","big_category":"教育","description":"","image_url":"","tags":"2016年公共建築賞,Ver1.70(2016年2月)の追加建築","prefecture":"三重","contractor":"","structural_designer":"","landscape_designer":"","shinkenchiku_url":""},{"id":5749,"title":"三四六総合運動公園 田辺スポーツパーク","architect":"石本建築事務所","year":2015.0,"address":"和歌山県田辺市上の山1-23-1","latitude":33.74106216430664,"longitude":135.36460876464844,"category":"体育館/スタジアム","big_category":"レジャー施設,レジャー施設","description":"","image_url":"","tags":"Ver1.70(2016年2月)の追加建築","prefecture":"和歌山","contractor":"","structural_designer":"","landscape_designer":"","shinkenchiku_url":""},{"id":5750,"title":"生駒市立病院","architect":"石本建築事務所","year":2015.0,"address":"奈良県生駒市東生駒1-6-2","latitude":34.690940856933594,"longitude":135.71176147460938,"category":"病院","big_category":"医療施設","description":"","image_url":"","tags":"Ver1.70(2016年2月)の追加建築","prefecture":"奈良","contractor":"","structural_designer":"","landscape_designer":"","shinkenchiku_url":""}]}