{"page":28,"total_pages":290,"items_per_page":50,"total_items":14467,"items":[{"id":1351,"title":"御前崎市清川泰次芸術館・市民ギャラリー","architect":"清川泰次","year":1995.0,"address":"静岡県御前崎市御前崎45-31","latitude":34.59756851196289,"longitude":138.22149658203125,"category":"美術館","big_category":"ミュージアム","description":"土日のみ","image_url":"","tags":"","prefecture":"静岡","contractor":"","structural_designer":"","landscape_designer":"","shinkenchiku_url":""},{"id":1352,"title":"国立中央青少年交流の家","architect":"柳澤孝彦","year":2010.0,"address":"静岡県御殿場市中畑2092-5","latitude":35.32371139526367,"longitude":138.86997985839844,"category":"研修施設","big_category":"教育","description":"","image_url":"","tags":"","prefecture":"静岡","contractor":"","structural_designer":"","landscape_designer":"","shinkenchiku_url":""},{"id":1353,"title":"LaLa GOTENBA ホテル＆リゾート 旧オムロン御殿場リゾートセンター","architect":"若林広幸","year":1993.0,"address":"静岡県御殿場市深沢永尾2571","latitude":35.28901672363281,"longitude":138.9696807861328,"category":"ホテル","big_category":"宿泊","description":"","image_url":"","tags":"","prefecture":"静岡","contractor":"","structural_designer":"","landscape_designer":"","shinkenchiku_url":""},{"id":1354,"title":"倫理研究所 富士高原研修所","architect":"内藤廣","year":2001.0,"address":"静岡県御殿場市印野1383-9 ","latitude":35.29997634887695,"longitude":138.8689727783203,"category":"研修施設","big_category":"教育","description":"","image_url":"","tags":"","prefecture":"静岡","contractor":"","structural_designer":"","landscape_designer":"","shinkenchiku_url":""},{"id":1355,"title":"東山旧岸邸","architect":"吉田五十八","year":1969.0,"address":"静岡県御殿場市東山1082-1","latitude":35.29452896118164,"longitude":138.9605255126953,"category":"和風住宅","big_category":"住宅","description":"","image_url":"https://lh3.googleusercontent.com/-4ptSnLSXY-o/UOg8A-PBJMI/AAAAAAAAzEc/0x4GmwiY-cE/s1024/lr-283023.jpg","tags":"","prefecture":"静岡","contractor":"","structural_designer":"","landscape_designer":"","shinkenchiku_url":""},{"id":1356,"title":"東山旧岸邸 とらや工房","architect":"内藤廣","year":2007.0,"address":"静岡県御殿場市東山1022-1","latitude":35.295379638671875,"longitude":138.9599151611328,"category":"カフェ","big_category":"商業施設","description":"","image_url":"https://lh3.googleusercontent.com/-a7LAwmcwjOU/UOg8MFPWmDI/AAAAAAAAzGA/MZtXGUS_tHk/s1280/lr-283051.jpg","tags":"","prefecture":"静岡","contractor":"","structural_designer":"","landscape_designer":"","shinkenchiku_url":""},{"id":1357,"title":"楽寿館 旧小松宮彰仁親王御別邸","architect":"不明","year":1891.0,"address":"静岡県三島市一番町19","latitude":35.123130798339844,"longitude":138.91201782226562,"category":"和風住宅","big_category":"住宅","description":"","image_url":"","tags":"","prefecture":"静岡","contractor":"","structural_designer":"","landscape_designer":"","shinkenchiku_url":""},{"id":1358,"title":"52（ごじゅうに）","architect":"谷尻誠","year":2011.0,"address":"静岡市駿河区曲金4-12-50-2","latitude":34.97492599487305,"longitude":138.4102020263672,"category":"店舗","big_category":"商業施設","description":"","image_url":"https://lh3.googleusercontent.com/-UzZnE3lpdF4/UIO94XX7ziI/AAAAAAAAfHs/Shz_VHljnRM/s1024/lr-8203624.jpg","tags":"","prefecture":"静岡","contractor":"","structural_designer":"","landscape_designer":"","shinkenchiku_url":""},{"id":1359,"title":"豊門会館 旧和田豊治家住宅","architect":"不明","year":1909.0,"address":"静岡県駿東郡小山町藤曲543","latitude":35.36223602294922,"longitude":138.983642578125,"category":"和風住宅","big_category":"住宅","description":"内部見学は年数回のイベント時のみ","image_url":"","tags":"","prefecture":"静岡","contractor":"","structural_designer":"","landscape_designer":"","shinkenchiku_url":""},{"id":1360,"title":"伊豆の長八美術館","architect":"石山修武","year":1984.0,"address":"静岡県賀茂郡松崎町松崎23","latitude":34.75039291381836,"longitude":138.7789764404297,"category":"美術館","big_category":"ミュージアム","description":"1995年駐車場公衆トイレ、1997年収蔵庫増築","image_url":"https://lh3.googleusercontent.com/-N0dbrX1sEFY/UCiwldawdnI/AAAAAAAA9X0/uA3THwGhdxA/s1024/lr-6142006.jpg","tags":"公共建築百選,1985年吉田五十八賞","prefecture":"静岡","contractor":"","structural_designer":"","landscape_designer":"","shinkenchiku_url":""},{"id":1361,"title":"沼津中央高校","architect":"長谷川逸子","year":2002.0,"address":"静岡県沼津市杉崎町11-20","latitude":35.10737991333008,"longitude":138.86634826660156,"category":"学校","big_category":"教育","description":"","image_url":"","tags":"","prefecture":"静岡","contractor":"","structural_designer":"","landscape_designer":"","shinkenchiku_url":""},{"id":1362,"title":"沼津倶楽部","architect":"渡辺明","year":2008.0,"address":"静岡県沼津市千本郷林1907","latitude":35.08821487426758,"longitude":138.85098266601562,"category":"ホテル","big_category":"宿泊","description":"2023年6月にリニューアル","image_url":"","tags":"","prefecture":"静岡","contractor":"","structural_designer":"","landscape_designer":"","shinkenchiku_url":""},{"id":1363,"title":"修養団捧誠会 御霊所","architect":"内井昭蔵","year":1984.0,"address":"静岡県沼津市西浦河内543","latitude":34.97796630859375,"longitude":138.8472900390625,"category":"寺院","big_category":"宗教","description":"","image_url":"","tags":"","prefecture":"静岡","contractor":"","structural_designer":"","landscape_designer":"","shinkenchiku_url":""},{"id":1364,"title":"芹沢光治良記念館","architect":"菊竹清訓","year":1970.0,"address":"静岡県沼津市我入道蔓陀ヶ原517-1","latitude":35.075584411621094,"longitude":138.8623809814453,"category":"博物館","big_category":"ミュージアム","description":"","image_url":"https://lh3.googleusercontent.com/-RaHot0V46JQ/UjbQNCu6LrI/AAAAAAABAQ8/JVckr-iUC3k/s1024/lr-9134885.jpg","tags":"","prefecture":"静岡","contractor":"","structural_designer":"","landscape_designer":"","shinkenchiku_url":""},{"id":1365,"title":"焼津市天文科学館 ディスカバリーパーク焼津","architect":"河原泰","year":1997.0,"address":"静岡県焼津市田尻2968-1","latitude":34.82279968261719,"longitude":138.33172607421875,"category":"博物館","big_category":"ミュージアム","description":"","image_url":"","tags":"","prefecture":"静岡","contractor":"","structural_designer":"","landscape_designer":"","shinkenchiku_url":""},{"id":1366,"title":"旧五十嵐邸","architect":"不明","year":null,"address":"静岡県静岡市清水区蒲原三-23-3","latitude":35.11984634399414,"longitude":138.60325622558594,"category":"洋館","big_category":"近代建築/遺産","description":"","image_url":"","tags":"","prefecture":"静岡","contractor":"","structural_designer":"","landscape_designer":"","shinkenchiku_url":""},{"id":1367,"title":"黄金崎クリスタルパーク","architect":"毛綱毅曠","year":1997.0,"address":"静岡県賀茂郡西伊豆町宇久須2204-3","latitude":34.84412384033203,"longitude":138.76849365234375,"category":"美術館","big_category":"ミュージアム","description":"","image_url":"https://farm4.staticflickr.com/3692/8911373807_243ace02cd_h.jpg","tags":"","prefecture":"静岡","contractor":"","structural_designer":"","landscape_designer":"","shinkenchiku_url":""},{"id":1368,"title":"静岡市清水文化会館 マリナート","architect":"槇文彦+大成建設","year":2012.0,"address":"静岡県静岡市清水区島崎町214","latitude":35.02189254760742,"longitude":138.48965454101562,"category":"ホール・劇場","big_category":"文化施設","description":"","image_url":"","tags":"","prefecture":"静岡","contractor":"","structural_designer":"","landscape_designer":"","shinkenchiku_url":""},{"id":1369,"title":"静岡県舞台芸術公園","architect":"磯崎新","year":1997.0,"address":"静岡県静岡市駿河区平沢100-1","latitude":34.980472564697266,"longitude":138.44810485839844,"category":"ホール・劇場","big_category":"文化施設","description":"","image_url":"","tags":"","prefecture":"静岡","contractor":"","structural_designer":"","landscape_designer":"","shinkenchiku_url":""},{"id":1370,"title":"静岡市東海道広重美術館","architect":"針谷建築事務所","year":1994.0,"address":"静岡県静岡市清水区由比297-1","latitude":35.10772705078125,"longitude":138.5674285888672,"category":"美術館","big_category":"ミュージアム","description":"","image_url":"","tags":"","prefecture":"静岡","contractor":"","structural_designer":"","landscape_designer":"","shinkenchiku_url":""},{"id":1371,"title":"旧エンバーソン邸","architect":"不明","year":1904.0,"address":"静岡県静岡市駿河区池田1767-6","latitude":34.980438232421875,"longitude":138.43780517578125,"category":"洋館","big_category":"近代建築/遺産","description":"静岡市立日本平動物園に隣接して移築","image_url":"","tags":"","prefecture":"静岡","contractor":"","structural_designer":"","landscape_designer":"","shinkenchiku_url":""},{"id":1372,"title":"日本平ホテル","architect":"日建設計","year":2012.0,"address":"静岡県静岡市清水区馬走1500-2","latitude":34.980247497558594,"longitude":138.46495056152344,"category":"ホテル","big_category":"宿泊","description":"","image_url":"","tags":"","prefecture":"静岡","contractor":"","structural_designer":"","landscape_designer":"","shinkenchiku_url":""},{"id":1373,"title":"駿府匠宿","architect":"高木滋生","year":1999.0,"address":"静岡県静岡市駿河区丸子3240-1","latitude":34.953468322753906,"longitude":138.3330078125,"category":"体験施設","big_category":"レジャー施設","description":"","image_url":"","tags":"","prefecture":"静岡","contractor":"","structural_designer":"","landscape_designer":"","shinkenchiku_url":""},{"id":1374,"title":"旧マッケンジー邸","architect":"ウィリアム・メレル・ヴォーリズ","year":1940.0,"address":"静岡県静岡市駿河区高松2852","latitude":34.94563293457031,"longitude":138.41943359375,"category":"洋館","big_category":"近代建築/遺産","description":"","image_url":"","tags":"","prefecture":"静岡","contractor":"","structural_designer":"","landscape_designer":"","shinkenchiku_url":""},{"id":1375,"title":"静岡大成中学校・高等学校","architect":"長谷川逸子","year":2004.0,"address":"静岡県静岡市葵区鷹匠2-4-18","latitude":34.97832107543945,"longitude":138.38880920410156,"category":"学校","big_category":"教育","description":"","image_url":"https://lh3.googleusercontent.com/-UFIYuDde670/UIO966QbTOI/AAAAAAAAfH8/d-c4oMbF2wQ/s1024/lr-8203649.jpg","tags":"","prefecture":"静岡","contractor":"","structural_designer":"","landscape_designer":"","shinkenchiku_url":""},{"id":1376,"title":"駿府教会","architect":"西沢大良","year":2008.0,"address":"静岡県静岡市葵区相生町15-1","latitude":34.977718353271484,"longitude":138.39268493652344,"category":"教会","big_category":"宗教","description":"","image_url":"https://lh3.googleusercontent.com/-P038TvJkkks/UIO-V8iy2wI/AAAAAAAAfLI/m3CaZGiPiFQ/s1024/lr-8203640.jpg","tags":"","prefecture":"静岡","contractor":"","structural_designer":"","landscape_designer":"","shinkenchiku_url":""},{"id":1377,"title":"グランシップ","architect":"磯崎新","year":1999.0,"address":"静岡県静岡市駿河区池田79-4","latitude":34.98569107055664,"longitude":138.41714477539062,"category":"ホール・劇場","big_category":"文化施設","description":"","image_url":"https://lh3.googleusercontent.com/-wNHMzkr-8Qs/TyVLxFgr9mI/AAAAAAAA2TM/zhNfu8AEFLY/s1024/P1291695.JPG","tags":"","prefecture":"静岡","contractor":"","structural_designer":"","landscape_designer":"","shinkenchiku_url":""},{"id":1378,"title":"石水館 静岡市立芹沢銈介美術館","architect":"白井晟一","year":1981.0,"address":"静岡県静岡市駿河区登呂5-10-5","latitude":34.95509719848633,"longitude":138.408203125,"category":"美術館","big_category":"ミュージアム","description":"","image_url":"https://lh3.googleusercontent.com/-U3hDta_wqjI/TyVLh3UHw2I/AAAAAAAA2TM/7H1IGxDKTdI/s1024/P1291613.JPG","tags":"公共建築百選","prefecture":"静岡","contractor":"","structural_designer":"","landscape_designer":"","shinkenchiku_url":""},{"id":1379,"title":"奥大井 音戯の郷","architect":"堀尾佳弘","year":1998.0,"address":"静岡県榛原郡川根本町千頭1217-2","latitude":35.10682678222656,"longitude":138.13601684570312,"category":"博物館","big_category":"ミュージアム","description":"","image_url":"","tags":"","prefecture":"静岡","contractor":"","structural_designer":"","landscape_designer":"","shinkenchiku_url":""},{"id":1380,"title":"袋井市役所 メロープラザ","architect":"昭和設計","year":2010.0,"address":"静岡県袋井市浅名1027","latitude":34.70781326293945,"longitude":137.93264770507812,"category":"庁舎/ホール・劇場","big_category":"公共施設,文化施設","description":"","image_url":"","tags":"","prefecture":"静岡","contractor":"","structural_designer":"","landscape_designer":"","shinkenchiku_url":""},{"id":1381,"title":"澤野医院記念館","architect":"不明","year":null,"address":"静岡県袋井市川井444","latitude":34.746726989746094,"longitude":137.91554260253906,"category":"洋館","big_category":"近代建築/遺産","description":"","image_url":"","tags":"","prefecture":"静岡","contractor":"","structural_designer":"","landscape_designer":"","shinkenchiku_url":""},{"id":1382,"title":"月見の里学遊館","architect":"長谷川逸子","year":2000.0,"address":"静岡県袋井市上山梨4-3-7","latitude":34.78717041015625,"longitude":137.90203857421875,"category":"総合文化施設/公共施設","big_category":"文化施設,公共施設","description":"","image_url":"https://lh3.googleusercontent.com/-VY8pm4RPHCc/UIPCkFPa6KI/AAAAAAAAfwA/sUlmtECOVBA/s1280/lr-8203597.jpg","tags":"","prefecture":"静岡","contractor":"","structural_designer":"","landscape_designer":"","shinkenchiku_url":""},{"id":1383,"title":"紙の資料館 特種製紙Pam B館","architect":"坂茂","year":2002.0,"address":"静岡県駿東郡長泉町本宿437","latitude":35.12160110473633,"longitude":138.89059448242188,"category":"企業施設/博物館","big_category":"企業施設,ミュージアム","description":"","image_url":"https://farm3.staticflickr.com/2818/8927129028_801a5eee1a_h.jpg","tags":"","prefecture":"静岡","contractor":"","structural_designer":"","landscape_designer":"","shinkenchiku_url":""},{"id":1384,"title":"クレマチスの丘 ヴァンジ彫刻庭園美術館","architect":"宗本順三","year":2002.0,"address":"静岡県駿東郡長泉町東野347-1","latitude":35.17134475708008,"longitude":138.8756561279297,"category":"美術館/庭園","big_category":"ミュージアム,文化施設","description":"","image_url":"https://lh3.googleusercontent.com/-wa6S7Kkru7E/Tshr0veXooI/AAAAAAAADFc/5KSMRDPr8cA/s1024/P1040530.JPG","tags":"","prefecture":"静岡","contractor":"","structural_designer":"","landscape_designer":"","shinkenchiku_url":""},{"id":1385,"title":"藤枝市郷土博物館・文学館","architect":"大宇根弘司","year":2006.0,"address":"静岡県藤枝市若王子500","latitude":34.876197814941406,"longitude":138.25674438476562,"category":"博物館","big_category":"ミュージアム","description":"","image_url":"","tags":"","prefecture":"静岡","contractor":"","structural_designer":"","landscape_designer":"","shinkenchiku_url":""},{"id":1386,"title":"旧日向別邸","architect":"渡辺仁+ブルーノ・タウト","year":1936.0,"address":"静岡県熱海市春日町8-37","latitude":35.103370666503906,"longitude":139.0816192626953,"category":"住宅","big_category":"住宅","description":"毎週土・日曜日及び祝祭日のみ開館。予約が必要な場合あり。母屋の設計が渡辺仁、地下室の設計がブルーノ・タウト","image_url":"","tags":"DOCOMOMO,重要文化財","prefecture":"静岡","contractor":"","structural_designer":"","landscape_designer":"","shinkenchiku_url":""},{"id":1387,"title":"水/ガラス ATAMI 海峯楼","architect":"隈研吾","year":1995.0,"address":"静岡県熱海市春日町8-33","latitude":35.10334014892578,"longitude":139.0812530517578,"category":"ホテル","big_category":"宿泊","description":"","image_url":"","tags":"","prefecture":"静岡","contractor":"","structural_designer":"","landscape_designer":"","shinkenchiku_url":""},{"id":1388,"title":"星野リゾート 界 熱海　古々比の瀧","architect":"隈研吾","year":2003.0,"address":"静岡県熱海市伊豆山750-6","latitude":35.11345291137695,"longitude":139.08694458007812,"category":"ホテル","big_category":"宿泊","description":"","image_url":"","tags":"","prefecture":"静岡","contractor":"","structural_designer":"","landscape_designer":"","shinkenchiku_url":""},{"id":1389,"title":"星野リゾート ヴィラ・デル・ソル 南葵文庫 旧徳川頼倫邸","architect":"不明","year":1899.0,"address":"静岡県熱海市伊豆山759","latitude":35.11299133300781,"longitude":139.08766174316406,"category":"ホテル/レストラン","big_category":"宿泊,商業施設","description":"","image_url":"","tags":"登録有形文化財","prefecture":"静岡","contractor":"","structural_designer":"","landscape_designer":"","shinkenchiku_url":""},{"id":1390,"title":"池田満寿夫・佐藤陽子 創作の家","architect":"不明","year":2005.0,"address":"静岡県熱海市海光町10-24","latitude":35.106693267822266,"longitude":139.0822296142578,"category":"美術館/住宅","big_category":"ミュージアム,住宅","description":"","image_url":"","tags":"","prefecture":"静岡","contractor":"","structural_designer":"","landscape_designer":"","shinkenchiku_url":""},{"id":1391,"title":"雙柿舎","architect":"坪内逍遥","year":1920.0,"address":"静岡県熱海市水口町11-17","latitude":35.09566879272461,"longitude":139.0662384033203,"category":"和風住宅","big_category":"住宅","description":"毎週日曜日のみ開館","image_url":"","tags":"","prefecture":"静岡","contractor":"","structural_designer":"","landscape_designer":"","shinkenchiku_url":""},{"id":1392,"title":"熱海リフレッシュセンター","architect":"横内敏人","year":1989.0,"address":"静岡県熱海市伊豆山392-1","latitude":35.112632751464844,"longitude":139.07862854003906,"category":"ホテル","big_category":"宿泊","description":"","image_url":"","tags":"","prefecture":"静岡","contractor":"","structural_designer":"","landscape_designer":"","shinkenchiku_url":""},{"id":1393,"title":"起雲閣","architect":"大友弘","year":1919.0,"address":"静岡県熱海市昭和町4-2","latitude":35.09285354614258,"longitude":139.07095336914062,"category":"和風住宅","big_category":"住宅","description":"","image_url":"https://farm3.staticflickr.com/2913/14037836793_aa98aea192_h.jpg","tags":"","prefecture":"静岡","contractor":"","structural_designer":"","landscape_designer":"","shinkenchiku_url":""},{"id":1394,"title":"MOA美術館","architect":"柳澤孝彦+竹中工務店+杉本博司+榊田倫之","year":1981.0,"address":"静岡県熱海市桃山町26-2","latitude":35.1090087890625,"longitude":139.0750732421875,"category":"美術館","big_category":"ミュージアム","description":"2017年新素材研究所により改修","image_url":"https://lh3.googleusercontent.com/-extawRKcs5A/U55gwwMXMnI/AAAAAAABN5A/YQJ5JvOGfik/s1024/lr-2075005.jpg","tags":"2017年JIA25年賞 登録作品","prefecture":"静岡","contractor":"","structural_designer":"","landscape_designer":"","shinkenchiku_url":""},{"id":1395,"title":"澤田政廣記念美術館","architect":"熱海市建築課","year":1987.0,"address":"静岡県熱海市梅園町9-46","latitude":35.09883499145508,"longitude":139.05784606933594,"category":"美術館","big_category":"ミュージアム","description":"村野藤吾の谷村美術館を参考に設計された","image_url":"https://lh3.googleusercontent.com/-tEein2Ri6iM/U1dCHQNpkXI/AAAAAAABNMg/3wxQTAq0g24/s1024/lr.jpg","tags":"","prefecture":"静岡","contractor":"","structural_designer":"","landscape_designer":"","shinkenchiku_url":""},{"id":1396,"title":"パサディナハイツ","architect":"菊竹清訓","year":1974.0,"address":"静岡県田方郡函南町上沢956-1","latitude":35.114830017089844,"longitude":138.9606170654297,"category":"集合住宅","big_category":"住宅","description":"","image_url":"https://lh3.googleusercontent.com/-YlaZq3tOVAU/UCiqbkDLtQI/AAAAAAAASws/TT95hVuUsGw/s1024/lr-6152519.jpg","tags":"","prefecture":"静岡","contractor":"","structural_designer":"","landscape_designer":"","shinkenchiku_url":""},{"id":1397,"title":"かんなみ仏の里美術館","architect":"栗生明","year":2012.0,"address":"静岡県田方郡函南町桑原89-1","latitude":35.12004470825195,"longitude":138.97274780273438,"category":"美術館","big_category":"ミュージアム","description":"","image_url":"https://farm4.staticflickr.com/3698/9759014746_e4c18e31a1_h.jpg","tags":"","prefecture":"静岡","contractor":"","structural_designer":"","landscape_designer":"","shinkenchiku_url":""},{"id":1398,"title":"豊岡中学校 体育館","architect":"安藤忠雄","year":2003.0,"address":"静岡県磐田市合代島943","latitude":34.833099365234375,"longitude":137.83779907226562,"category":"学校/体育館","big_category":"教育,レジャー施設","description":"","image_url":"","tags":"","prefecture":"静岡","contractor":"","structural_designer":"","landscape_designer":"","shinkenchiku_url":""},{"id":1399,"title":"旧見付学校","architect":"不明","year":1875.0,"address":"静岡県磐田市見付2452","latitude":34.727500915527344,"longitude":137.85696411132812,"category":"洋館","big_category":"近代建築/遺産","description":"","image_url":"","tags":"","prefecture":"静岡","contractor":"","structural_designer":"","landscape_designer":"","shinkenchiku_url":""},{"id":1400,"title":"ロック・フィールド静岡ファクトリー","architect":"安藤忠雄","year":1991.0,"address":"静岡県磐田市下野部2280","latitude":34.83391189575195,"longitude":137.85281372070312,"category":"企業施設/工場","big_category":"企業施設,企業施設","description":"見学は要事前予約","image_url":"","tags":"","prefecture":"静岡","contractor":"","structural_designer":"","landscape_designer":"","shinkenchiku_url":""}]}