{"page":109,"total_pages":290,"items_per_page":50,"total_items":14467,"items":[{"id":5401,"title":"松江しんじ湖温泉駅","architect":"田中正夫","year":2001.0,"address":"島根県松江市中原町30-2","latitude":35.46735382080078,"longitude":133.04603576660156,"category":"駅","big_category":"インフラ","description":"","image_url":"","tags":"","prefecture":"島根","contractor":"","structural_designer":"","landscape_designer":"","shinkenchiku_url":""},{"id":5402,"title":"みずほ楽器","architect":"村上徹","year":1999.0,"address":"島根県浜田市浅井町1585","latitude":34.90129089355469,"longitude":132.08853149414062,"category":"店舗/テナントビル","big_category":"商業施設,商業施設","description":"","image_url":"","tags":"","prefecture":"島根","contractor":"","structural_designer":"","landscape_designer":"","shinkenchiku_url":""},{"id":5403,"title":"柿木村総合福祉センター かきのき保育所","architect":"中林建築設計","year":1999.0,"address":"島根県鹿足郡吉賀町柿木村柿木80-2","latitude":34.43687438964844,"longitude":131.86767578125,"category":"福祉センター/幼稚園","big_category":"医療施設,教育","description":"","image_url":"","tags":"","prefecture":"島根","contractor":"","structural_designer":"","landscape_designer":"","shinkenchiku_url":""},{"id":5404,"title":"柿木郵便局","architect":"鞴建築設計舎","year":1993.0,"address":"島根県鹿足郡吉賀町柿木村柿木541-1","latitude":34.440608978271484,"longitude":131.86888122558594,"category":"公共施設","big_category":"公共施設","description":"","image_url":"","tags":"","prefecture":"島根","contractor":"","structural_designer":"","landscape_designer":"","shinkenchiku_url":""},{"id":5405,"title":"柿木村交流会館／庁舎／道の駅","architect":"足立正智","year":1995.0,"address":"島根県鹿足郡吉賀町柿木村柿木500-1","latitude":34.44245147705078,"longitude":131.86790466308594,"category":"公民館・交流施設/PA・道の駅","big_category":"公共施設,インフラ","description":"","image_url":"","tags":"","prefecture":"島根","contractor":"","structural_designer":"","landscape_designer":"","shinkenchiku_url":""},{"id":5406,"title":"津和野カトリック教会","architect":"川原正治","year":1931.0,"address":"島根県鹿足郡津和野町後田","latitude":34.46746826171875,"longitude":131.7740936279297,"category":"教会","big_category":"宗教","description":"","image_url":"","tags":"","prefecture":"島根","contractor":"","structural_designer":"","landscape_designer":"","shinkenchiku_url":""},{"id":5407,"title":"鳥取砂丘こどもの国","architect":"仙田満","year":1973.0,"address":"鳥取県鳥取市浜坂1157-1","latitude":35.53370666503906,"longitude":134.22401428222656,"category":"観光施設/児童施設","big_category":"レジャー施設,教育","description":"2000年に改修","image_url":"","tags":"","prefecture":"鳥取","contractor":"","structural_designer":"","landscape_designer":"","shinkenchiku_url":""},{"id":5408,"title":"えひめこどもの城","architect":"仙田満","year":1998.0,"address":"愛媛県松山市西野町108-1","latitude":33.761810302734375,"longitude":132.797607421875,"category":"観光施設/児童施設","big_category":"レジャー施設,教育","description":"","image_url":"","tags":"","prefecture":"愛媛","contractor":"","structural_designer":"","landscape_designer":"","shinkenchiku_url":""},{"id":5409,"title":"鳥取県立博物館","architect":"日建設計","year":1972.0,"address":"鳥取県鳥取市東町2-124","latitude":35.508323669433594,"longitude":134.2361297607422,"category":"博物館","big_category":"ミュージアム","description":"","image_url":"","tags":"","prefecture":"鳥取","contractor":"","structural_designer":"","landscape_designer":"","shinkenchiku_url":""},{"id":5410,"title":"倉吉博物館","architect":"日建設計","year":1973.0,"address":"鳥取県倉吉市仲ノ町3445-8","latitude":35.428993225097656,"longitude":133.8253631591797,"category":"博物館","big_category":"ミュージアム","description":"","image_url":"","tags":"","prefecture":"鳥取","contractor":"","structural_designer":"","landscape_designer":"","shinkenchiku_url":""},{"id":5411,"title":"アイテムえひめ","architect":"日本設計","year":1996.0,"address":"愛媛県松山市大可賀2-1-28","latitude":33.84999465942383,"longitude":132.71484375,"category":"展示・会議場","big_category":"公共施設","description":"","image_url":"","tags":"","prefecture":"愛媛","contractor":"","structural_designer":"","landscape_designer":"","shinkenchiku_url":""},{"id":5412,"title":"内子町児童館 旧化育小学校","architect":"鈴木充","year":1983.0,"address":"愛媛県喜多郡内子町内子2019","latitude":33.551856994628906,"longitude":132.65184020996094,"category":"児童施設","big_category":"教育","description":"明治12年竣工の小学校を1983年に改修","image_url":"","tags":"","prefecture":"愛媛","contractor":"","structural_designer":"","landscape_designer":"","shinkenchiku_url":""},{"id":5413,"title":"八幡浜市役所保内庁舎","architect":"木島安史","year":1992.0,"address":"愛媛県八幡浜市保内町宮内1-260","latitude":33.48371887207031,"longitude":132.40093994140625,"category":"庁舎","big_category":"公共施設","description":"","image_url":"","tags":"","prefecture":"愛媛","contractor":"","structural_designer":"","landscape_designer":"","shinkenchiku_url":""},{"id":5414,"title":"高松市立図書館／歴史資料館／菊池寛記念館","architect":"梓設計","year":1992.0,"address":"香川県高松市昭和町1-2-20","latitude":34.34395217895508,"longitude":134.03439331054688,"category":"図書館/博物館","big_category":"文化施設,ミュージアム","description":"","image_url":"","tags":"","prefecture":"香川","contractor":"","structural_designer":"","landscape_designer":"","shinkenchiku_url":""},{"id":5415,"title":"オリーブ高松メディカルクリニック 旧高松逓信病院","architect":"山田守","year":1962.0,"address":"香川県高松市観光町649-8","latitude":34.33402633666992,"longitude":134.06324768066406,"category":"病院","big_category":"医療施設","description":"","image_url":"","tags":"","prefecture":"香川","contractor":"西松建設","structural_designer":"","landscape_designer":"","shinkenchiku_url":""},{"id":5416,"title":"竹林山 光教寺","architect":"榎大作","year":1985.0,"address":"香川県高松市木太町1673","latitude":34.32410430908203,"longitude":134.07272338867188,"category":"寺院","big_category":"宗教","description":"","image_url":"","tags":"","prefecture":"香川","contractor":"","structural_designer":"","landscape_designer":"","shinkenchiku_url":""},{"id":5417,"title":"龍の医院 安藤医院","architect":"多田善昭","year":1993.0,"address":"香川県善通寺市上吉田町2-4-11","latitude":34.22948455810547,"longitude":133.7837677001953,"category":"個人医院","big_category":"医療施設","description":"","image_url":"","tags":"2019年JIA25年賞 登録作品","prefecture":"香川","contractor":"菅組","structural_designer":"","landscape_designer":"","shinkenchiku_url":""},{"id":5418,"title":"善通寺市民会館","architect":"萩原克彦","year":1978.0,"address":"香川県善通寺市文京町3-3-1","latitude":34.22728729248047,"longitude":133.7835693359375,"category":"ホール・劇場","big_category":"文化施設","description":"","image_url":"","tags":"","prefecture":"香川","contractor":"","structural_designer":"","landscape_designer":"","shinkenchiku_url":""},{"id":5419,"title":"善通寺稲荷大明神","architect":"多田善昭","year":1986.0,"address":"香川県善通寺市善通寺町","latitude":34.22323989868164,"longitude":133.7718505859375,"category":"寺院","big_category":"宗教","description":"","image_url":"","tags":"","prefecture":"香川","contractor":"","structural_designer":"","landscape_designer":"","shinkenchiku_url":""},{"id":5420,"title":"三木・長尾葬斎組合葬斎場 しずかの里","architect":"八木澤壮一+NUK建築計画事務所","year":1999.0,"address":"香川県木田郡三木町井戸993","latitude":34.2435188293457,"longitude":134.16604614257812,"category":"斎場","big_category":"公共施設","description":"","image_url":"","tags":"","prefecture":"香川","contractor":"","structural_designer":"","landscape_designer":"","shinkenchiku_url":""},{"id":5421,"title":"高知県立高知追手前高等学校","architect":"武田五一","year":1930.0,"address":"高知県高知市追手筋2-2-10","latitude":33.56156921386719,"longitude":133.5365753173828,"category":"学校","big_category":"教育","description":"","image_url":"","tags":"","prefecture":"高知","contractor":"","structural_designer":"","landscape_designer":"","shinkenchiku_url":""},{"id":5422,"title":"はりまや橋商店街","architect":"平山昌信+西森啓史","year":1998.0,"address":"高知県高知市はりまや町1","latitude":33.56005859375,"longitude":133.54388427734375,"category":"モール","big_category":"商業施設","description":"","image_url":"","tags":"新建築1998年6月号","prefecture":"高知","contractor":"","structural_designer":"","landscape_designer":"","shinkenchiku_url":""},{"id":5423,"title":"こうち男女共同参画センター ソーレ","architect":"上田堯世","year":1999.0,"address":"高知県高知市旭町3-115","latitude":33.55622482299805,"longitude":133.50747680664062,"category":"公共施設","big_category":"公共施設","description":"","image_url":"","tags":"","prefecture":"高知","contractor":"","structural_designer":"","landscape_designer":"","shinkenchiku_url":""},{"id":5424,"title":"高知県紙産業技術センター","architect":"上田堯世","year":1993.0,"address":"高知県吾川郡いの町波川287-4","latitude":33.54474639892578,"longitude":133.411376953125,"category":"公共施設","big_category":"公共施設","description":"","image_url":"","tags":"","prefecture":"高知","contractor":"","structural_designer":"","landscape_designer":"","shinkenchiku_url":""},{"id":5425,"title":"健康センター セレネ","architect":"日本総合計画研究所","year":1992.0,"address":"高知県香美市香北町美良布1211","latitude":33.6480712890625,"longitude":133.78256225585938,"category":"PA・道の駅/プール","big_category":"インフラ,レジャー施設","description":"","image_url":"","tags":"","prefecture":"高知","contractor":"","structural_designer":"","landscape_designer":"","shinkenchiku_url":""},{"id":5426,"title":"きつつき学習館・生涯学習館","architect":"細木茂","year":1984.0,"address":"高知県高岡郡梼原町太郎川","latitude":33.38778305053711,"longitude":132.9451446533203,"category":"図書館","big_category":"文化施設","description":"","image_url":"","tags":"","prefecture":"高知","contractor":"","structural_designer":"","landscape_designer":"","shinkenchiku_url":""},{"id":5427,"title":"阿波銀行本店","architect":"日建設計","year":1966.0,"address":"徳島県徳島市西船場町2-24-1","latitude":34.07307434082031,"longitude":134.5467529296875,"category":"金融機関","big_category":"企業施設","description":"","image_url":"","tags":"","prefecture":"徳島","contractor":"鹿島建設","structural_designer":"","landscape_designer":"","shinkenchiku_url":""},{"id":5428,"title":"野々瀬建築都市設計事務所","architect":"野々瀬徹","year":1998.0,"address":"徳島県徳島市中徳島町2-102","latitude":34.07587432861328,"longitude":134.55921936035156,"category":"住宅/低層オフィス","big_category":"住宅,企業施設","description":"","image_url":"","tags":"","prefecture":"徳島","contractor":"","structural_designer":"","landscape_designer":"","shinkenchiku_url":""},{"id":5429,"title":"四国大学 中央棟","architect":"野々瀬徹","year":2009.0,"address":"徳島県徳島市応神町古川戎子野123-1","latitude":34.10319137573242,"longitude":134.5532684326172,"category":"大学","big_category":"教育","description":"","image_url":"","tags":"","prefecture":"徳島","contractor":"","structural_designer":"","landscape_designer":"","shinkenchiku_url":""},{"id":5430,"title":"四国大学 児童教育館／情報メディア館","architect":"野々瀬徹","year":2006.0,"address":"徳島県徳島市応神町古川戎子野123-1","latitude":34.10274887084961,"longitude":134.55206298828125,"category":"大学","big_category":"教育","description":"","image_url":"","tags":"","prefecture":"徳島","contractor":"","structural_designer":"","landscape_designer":"","shinkenchiku_url":""},{"id":5431,"title":"四国大学 30周年記念館／経営情報館","architect":"野々瀬徹","year":1992.0,"address":"徳島県徳島市応神町古川戎子野123-1","latitude":34.10346984863281,"longitude":134.55389404296875,"category":"大学","big_category":"教育","description":"","image_url":"","tags":"","prefecture":"徳島","contractor":"","structural_designer":"","landscape_designer":"","shinkenchiku_url":""},{"id":5432,"title":"四国大学 交流プラザ","architect":"野々瀬徹","year":2004.0,"address":"徳島県徳島市寺島本町西2-35-8","latitude":34.075592041015625,"longitude":134.54823303222656,"category":"大学","big_category":"教育","description":"","image_url":"","tags":"","prefecture":"徳島","contractor":"","structural_designer":"","landscape_designer":"","shinkenchiku_url":""},{"id":5433,"title":"四国大学 共通講義棟／第1期キャンパス再開発","architect":"野々瀬徹","year":1997.0,"address":"徳島県徳島市応神町古川戎子野123-1","latitude":34.10133361816406,"longitude":134.553955078125,"category":"大学","big_category":"教育","description":"","image_url":"","tags":"","prefecture":"徳島","contractor":"","structural_designer":"","landscape_designer":"","shinkenchiku_url":""},{"id":5434,"title":"四国大学 書道文化館","architect":"野々瀬徹","year":2001.0,"address":"徳島県徳島市応神町古川戎子野123-1","latitude":34.102420806884766,"longitude":134.5541534423828,"category":"大学","big_category":"教育","description":"","image_url":"","tags":"","prefecture":"徳島","contractor":"","structural_designer":"","landscape_designer":"","shinkenchiku_url":""},{"id":5435,"title":"四国大学 養保館／ビジネス・コミュニケーション館","architect":"野々瀬徹","year":2001.0,"address":"徳島県徳島市応神町古川戎子野123-1","latitude":34.103816986083984,"longitude":134.5542755126953,"category":"大学","big_category":"教育","description":"","image_url":"","tags":"","prefecture":"徳島","contractor":"","structural_designer":"","landscape_designer":"","shinkenchiku_url":""},{"id":5436,"title":"アスティー徳島","architect":"日建設計","year":1993.0,"address":"徳島県徳島市山城町東浜傍示1","latitude":34.053077697753906,"longitude":134.5635223388672,"category":"ホール・劇場","big_category":"文化施設","description":"","image_url":"","tags":"","prefecture":"徳島","contractor":"","structural_designer":"","landscape_designer":"","shinkenchiku_url":""},{"id":5437,"title":"Tio-TAKAHARA コクサイ東船場113ビル","architect":"中川俊博","year":1998.0,"address":"徳島県徳島市東船場町1-13","latitude":34.070335388183594,"longitude":134.54893493652344,"category":"オフィスビル","big_category":"企業施設","description":"","image_url":"","tags":"","prefecture":"徳島","contractor":"","structural_designer":"","landscape_designer":"","shinkenchiku_url":""},{"id":5438,"title":"徳島市立内町小学校","architect":"指宿真智雄","year":1979.0,"address":"徳島県徳島市徳島町城内1-15","latitude":34.07650375366211,"longitude":134.55088806152344,"category":"学校","big_category":"教育","description":"","image_url":"","tags":"","prefecture":"徳島","contractor":"","structural_designer":"","landscape_designer":"","shinkenchiku_url":""},{"id":5439,"title":"ジャストシステム旧本社 Jビル","architect":"野々瀬徹","year":1987.0,"address":"徳島県徳島市沖浜東3-46","latitude":34.05024337768555,"longitude":134.55477905273438,"category":"オフィスビル","big_category":"企業施設","description":"","image_url":"","tags":"","prefecture":"徳島","contractor":"","structural_designer":"","landscape_designer":"","shinkenchiku_url":""},{"id":5440,"title":"ジャストシステム ブレインズ 徳島本社","architect":"野々瀬徹","year":1997.0,"address":"徳島県徳島市川内町平石若松108-4","latitude":34.112247467041016,"longitude":134.58810424804688,"category":"オフィスビル","big_category":"企業施設","description":"","image_url":"","tags":"","prefecture":"徳島","contractor":"","structural_designer":"","landscape_designer":"","shinkenchiku_url":""},{"id":5441,"title":"徳島市営末広団地","architect":"内井昭蔵","year":1998.0,"address":"徳島県徳島市末広4-9-47","latitude":34.06621170043945,"longitude":134.58087158203125,"category":"集合住宅","big_category":"住宅","description":"","image_url":"","tags":"","prefecture":"徳島","contractor":"","structural_designer":"","landscape_designer":"","shinkenchiku_url":""},{"id":5442,"title":"西出雲駅南口待合・トイレ","architect":"宇佐美淳","year":1999.0,"address":"島根県出雲市西新町1-985","latitude":35.33468246459961,"longitude":132.72181701660156,"category":"駅","big_category":"インフラ","description":"","image_url":"","tags":"","prefecture":"島根","contractor":"","structural_designer":"","landscape_designer":"","shinkenchiku_url":""},{"id":5443,"title":"ハートピア出雲","architect":"大江匡","year":2000.0,"address":"島根県出雲市武志町693-4","latitude":35.3955078125,"longitude":132.77252197265625,"category":"養護施設","big_category":"医療施設","description":"","image_url":"","tags":"","prefecture":"島根","contractor":"","structural_designer":"","landscape_designer":"","shinkenchiku_url":""},{"id":5444,"title":"大田市立図書館","architect":"龜谷清+山根秀明","year":1998.0,"address":"島根県大田市大田町大田イ−113-2","latitude":35.194217681884766,"longitude":132.49993896484375,"category":"図書館","big_category":"文化施設","description":"","image_url":"","tags":"","prefecture":"島根","contractor":"","structural_designer":"","landscape_designer":"","shinkenchiku_url":""},{"id":5445,"title":"松江北堀美術館芸術文化ホール","architect":"龜谷清","year":2001.0,"address":"島根県松江市北堀町333","latitude":35.47847366333008,"longitude":133.04823303222656,"category":"ホール・劇場","big_category":"文化施設","description":"","image_url":"","tags":"","prefecture":"島根","contractor":"","structural_designer":"","landscape_designer":"","shinkenchiku_url":""},{"id":5446,"title":"出雲合同庁舎","architect":"龜谷清","year":1999.0,"address":"島根県出雲市大津町1139","latitude":35.369346618652344,"longitude":132.7647705078125,"category":"庁舎","big_category":"公共施設","description":"","image_url":"","tags":"","prefecture":"島根","contractor":"","structural_designer":"","landscape_designer":"","shinkenchiku_url":""},{"id":5447,"title":"出雲科学館","architect":"龜谷清","year":2002.0,"address":"島根県出雲市今市町1900-2","latitude":35.361942291259766,"longitude":132.76597595214844,"category":"博物館","big_category":"ミュージアム","description":"","image_url":"","tags":"","prefecture":"島根","contractor":"","structural_designer":"","landscape_designer":"","shinkenchiku_url":""},{"id":5448,"title":"cafe naka蔵","architect":"龜谷清","year":2009.0,"address":"島根県出雲市今市町中町689","latitude":35.364200592041016,"longitude":132.75668334960938,"category":"カフェ","big_category":"商業施設","description":"","image_url":"","tags":"","prefecture":"島根","contractor":"","structural_designer":"","landscape_designer":"","shinkenchiku_url":""},{"id":5449,"title":"アルナージ","architect":"龜谷清","year":2008.0,"address":"島根県出雲市中野美保南2-1-16","latitude":35.37562942504883,"longitude":132.7633056640625,"category":"カフェ/住宅","big_category":"商業施設,住宅","description":"","image_url":"","tags":"","prefecture":"島根","contractor":"","structural_designer":"","landscape_designer":"","shinkenchiku_url":""},{"id":5450,"title":"松江市役所支所 八束庁舎","architect":"山根秀明","year":1995.0,"address":"島根県松江市八束町波入2060","latitude":35.49488067626953,"longitude":133.1724395751953,"category":"庁舎","big_category":"公共施設","description":"","image_url":"","tags":"","prefecture":"島根","contractor":"","structural_designer":"","landscape_designer":"","shinkenchiku_url":""}]}