{"page":119,"total_pages":290,"items_per_page":50,"total_items":14467,"items":[{"id":5901,"title":"大阪市立大学 理系学舎","architect":"東畑建築事務所","year":2012.0,"address":"大阪府大阪市住吉区杉本3-3-138","latitude":34.593360900878906,"longitude":135.50582885742188,"category":"大学","big_category":"教育","description":"2012年に理系共通実験棟、2014年にA棟、B棟が竣工。他、耐震補強工事等。","image_url":"","tags":"新建築2016年3月号,Ver1.80(2016年5月)の追加建築","prefecture":"大阪","contractor":"戸田建設","structural_designer":"","landscape_designer":"","shinkenchiku_url":""},{"id":5902,"title":"野村胡堂・あらえびす記念館","architect":"邑計画工房","year":1994.0,"address":"岩手県紫波郡紫波町彦部暮坪193-1","latitude":39.53085708618164,"longitude":141.19265747070312,"category":"博物館","big_category":"ミュージアム","description":"","image_url":"","tags":"Ver1.80(2016年5月)の追加建築","prefecture":"岩手","contractor":"","structural_designer":"","landscape_designer":"","shinkenchiku_url":""},{"id":5903,"title":"新潟県立こども自然王国","architect":"木村博幸","year":1995.0,"address":"新潟県柏崎市高柳町高尾30-33","latitude":37.2118034362793,"longitude":138.6332244873047,"category":"研修施設/児童施設","big_category":"教育,教育","description":"","image_url":"","tags":"Ver1.80(2016年5月)の追加建築","prefecture":"新潟","contractor":"","structural_designer":"","landscape_designer":"","shinkenchiku_url":""},{"id":5904,"title":"神勝寺 非佛堂","architect":"中村昌生","year":null,"address":"広島県福山市沼隈町大字上山南91","latitude":34.42390441894531,"longitude":133.30984497070312,"category":"寺院","big_category":"宗教","description":"","image_url":"","tags":"Ver1.80(2016年5月)の追加建築","prefecture":"広島","contractor":"","structural_designer":"","landscape_designer":"","shinkenchiku_url":""},{"id":5905,"title":"神勝寺 秀路軒","architect":"中村昌生","year":null,"address":"広島県福山市沼隈町大字上山南91","latitude":34.42575454711914,"longitude":133.30789184570312,"category":"茶室","big_category":"住宅","description":"","image_url":"","tags":"Ver1.80(2016年5月)の追加建築","prefecture":"広島","contractor":"","structural_designer":"","landscape_designer":"","shinkenchiku_url":""},{"id":5906,"title":"神勝寺 一来亭","architect":"中村昌生","year":null,"address":"広島県福山市沼隈町大字上山南91","latitude":34.42683792114258,"longitude":133.30775451660156,"category":"茶室","big_category":"住宅","description":"","image_url":"","tags":"Ver1.80(2016年5月)の追加建築","prefecture":"広島","contractor":"","structural_designer":"","landscape_designer":"","shinkenchiku_url":""},{"id":5907,"title":"柱の杜","architect":"間宮晨一千","year":2013.0,"address":"愛知県日進市赤池2-808","latitude":35.121299743652344,"longitude":137.02142333984375,"category":"低層オフィス","big_category":"企業施設","description":"","image_url":"","tags":"Ver1.80(2016年5月)の追加建築","prefecture":"愛知","contractor":"","structural_designer":"","landscape_designer":"","shinkenchiku_url":""},{"id":5908,"title":"熊本県立熊本かがやきの森支援学校","architect":"日建設計","year":2014.0,"address":"熊本県熊本市西区横手5-16-28","latitude":32.78337478637695,"longitude":130.7291717529297,"category":"学校","big_category":"教育","description":"JIA優秀建築賞受賞者名：川島克也、近藤彰宏、中島究、髙木研作、河野豊","image_url":"","tags":"Ver1.80(2016年5月)の追加建築,2016年度JIA優秀建築賞,新建築2017年11月号,2021年公共建築賞","prefecture":"熊本","contractor":"","structural_designer":"","landscape_designer":"","shinkenchiku_url":""},{"id":5909,"title":"山口市阿知須総合支所 旧阿知須町役場","architect":"藤原・山下設計事務所","year":1969.0,"address":"山口県山口市阿知須2743","latitude":34.01262664794922,"longitude":131.35919189453125,"category":"庁舎","big_category":"公共施設","description":"","image_url":"","tags":"Ver1.80(2016年5月)の追加建築","prefecture":"山口","contractor":"","structural_designer":"","landscape_designer":"","shinkenchiku_url":""},{"id":5910,"title":"成蹊小学校","architect":"坂茂","year":2008.0,"address":"東京都武蔵野市吉祥寺北町3-3","latitude":35.71318054199219,"longitude":139.57530212402344,"category":"学校","big_category":"教育","description":"","image_url":"","tags":"Ver1.80(2016年5月)の追加建築","prefecture":"東京","contractor":"","structural_designer":"","landscape_designer":"","shinkenchiku_url":""},{"id":5911,"title":"GC 富士小山工場","architect":"坂茂","year":2007.0,"address":"静岡県駿東郡小山町中日向584-1","latitude":35.364898681640625,"longitude":138.9392852783203,"category":"工場","big_category":"企業施設","description":"","image_url":"","tags":"Ver1.80(2016年5月)の追加建築","prefecture":"静岡","contractor":"","structural_designer":"","landscape_designer":"","shinkenchiku_url":""},{"id":5912,"title":"卸町コミュ二ティプラザ","architect":"阿部仁史","year":2016.0,"address":"宮城県仙台市若林区卸町3-1-1","latitude":38.256378173828125,"longitude":140.9397430419922,"category":"集合住宅/公民館・交流施設","big_category":"住宅,公共施設","description":"","image_url":"","tags":"新建築2016年4月号,Ver1.80(2016年5月)の追加建築","prefecture":"宮城","contractor":"","structural_designer":"","landscape_designer":"","shinkenchiku_url":""},{"id":5913,"title":"INTILAQ東北イノベーションセンター","architect":"阿部仁史","year":2016.0,"address":"宮城県仙台市若林区卸町2-9-1","latitude":38.254722595214844,"longitude":140.92234802246094,"category":"公民館・交流施設/ホール・劇場/公共施設","big_category":"公共施設,文化施設,公共施設","description":"","image_url":"","tags":"新建築2016年4月号,Ver1.80(2016年5月)の追加建築","prefecture":"宮城","contractor":"","structural_designer":"","landscape_designer":"","shinkenchiku_url":""},{"id":5914,"title":"シーパルピア女川","architect":"東利恵","year":2016.0,"address":"宮城県牡鹿郡女川町女川浜大原1-4","latitude":38.44618225097656,"longitude":141.44525146484375,"category":"モール","big_category":"商業施設","description":"","image_url":"","tags":"新建築2016年4月号,Ver1.80(2016年5月)の追加建築","prefecture":"宮城","contractor":"","structural_designer":"","landscape_designer":"","shinkenchiku_url":""},{"id":5915,"title":"おしか番屋","architect":"萬代基介","year":2016.0,"address":"宮城県石巻市鮎川浜南66-1","latitude":38.296592712402344,"longitude":141.50938415527344,"category":"公共施設","big_category":"公共施設","description":"","image_url":"","tags":"新建築2016年4月号,Ver1.80(2016年5月)の追加建築","prefecture":"宮城","contractor":"","structural_designer":"","landscape_designer":"","shinkenchiku_url":""},{"id":5916,"title":"上田市交流文化芸術センター・上田市立美術館 サントミューゼ","architect":"柳澤孝彦+梓設計","year":2014.0,"address":"長野県上田市天神3-15-15","latitude":36.39905548095703,"longitude":138.24232482910156,"category":"美術館/ホール・劇場","big_category":"ミュージアム,文化施設","description":"","image_url":"","tags":"2016年日本建築学会 作品選奨,Ver1.80(2016年5月)の追加建築","prefecture":"長野","contractor":"","structural_designer":"","landscape_designer":"","shinkenchiku_url":""},{"id":5917,"title":"竜美丘コートビレジ","architect":"Eureka","year":2013.0,"address":"愛知県岡崎市明大寺町大圦","latitude":34.93331527709961,"longitude":137.17210388183594,"category":"集合住宅","big_category":"住宅","description":"","image_url":"","tags":"2016年日本建築学会 作品選集新人賞,Ver1.80(2016年5月)の追加建築,新建築2014年2月号","prefecture":"愛知","contractor":"太啓建設","structural_designer":"Eureka","landscape_designer":"","shinkenchiku_url":"https://data.shinkenchiku.online/articles/SK_2014_02_074-0"},{"id":5918,"title":"黒部市庁舎","architect":"山下設計","year":2015.0,"address":"富山県黒部市三日市1301","latitude":36.87154006958008,"longitude":137.4478302001953,"category":"庁舎","big_category":"公共施設","description":"","image_url":"","tags":"新建築2016年4月号,Ver1.80(2016年5月)の追加建築","prefecture":"富山","contractor":"","structural_designer":"","landscape_designer":"","shinkenchiku_url":""},{"id":5919,"title":"小諸市役所・こもろプラザ","architect":"石本建築事務所+東浜設計","year":2015.0,"address":"長野県小諸市相生町3-3-3","latitude":36.32685852050781,"longitude":138.42604064941406,"category":"庁舎/図書館","big_category":"公共施設,文化施設","description":"","image_url":"","tags":"新建築2016年4月号,Ver1.80(2016年5月)の追加建築","prefecture":"長野","contractor":"","structural_designer":"","landscape_designer":"","shinkenchiku_url":""},{"id":5920,"title":"北本市庁舎・児童館","architect":"安井建築設計","year":2015.0,"address":"埼玉県北本市本町1-111","latitude":36.026817321777344,"longitude":139.53005981445312,"category":"庁舎/児童施設","big_category":"公共施設,教育","description":"","image_url":"","tags":"新建築2016年4月号,Ver1.80(2016年5月)の追加建築","prefecture":"埼玉","contractor":"","structural_designer":"","landscape_designer":"","shinkenchiku_url":""},{"id":5921,"title":"下野市庁舎","architect":"佐藤総合計画","year":2016.0,"address":"栃木県下野市笹原26","latitude":36.395179748535156,"longitude":139.85203552246094,"category":"庁舎","big_category":"公共施設","description":"","image_url":"","tags":"新建築2016年4月号,Ver1.80(2016年5月)の追加建築","prefecture":"栃木","contractor":"","structural_designer":"","landscape_designer":"","shinkenchiku_url":""},{"id":5922,"title":"滋賀県危機管理センター","architect":"日建設計","year":2015.0,"address":"滋賀県大津市京町4-1-1","latitude":35.00441360473633,"longitude":135.869384765625,"category":"公共施設","big_category":"公共施設","description":"","image_url":"","tags":"新建築2016年4月号,Ver1.80(2016年5月)の追加建築","prefecture":"滋賀","contractor":"","structural_designer":"","landscape_designer":"","shinkenchiku_url":""},{"id":5923,"title":"滋賀県庁舎本館","architect":"佐藤功一","year":1939.0,"address":"滋賀県大津市京町4-1-1","latitude":35.00440216064453,"longitude":135.86854553222656,"category":"庁舎","big_category":"公共施設","description":"","image_url":"","tags":"Ver1.80(2016年5月)の追加建築","prefecture":"滋賀","contractor":"","structural_designer":"","landscape_designer":"","shinkenchiku_url":""},{"id":5924,"title":"茅ヶ崎市役所本庁舎","architect":"株式会社大建設計","year":2015.0,"address":"神奈川県茅ヶ崎市茅ヶ崎1-1-1","latitude":35.333866119384766,"longitude":139.40365600585938,"category":"庁舎","big_category":"公共施設","description":"","image_url":"","tags":"新建築2016年4月号,Ver1.80(2016年5月)の追加建築","prefecture":"神奈川","contractor":"","structural_designer":"","landscape_designer":"","shinkenchiku_url":""},{"id":5925,"title":"みやこ伊良原学園","architect":"安藤忠雄","year":2016.0,"address":"福岡県京都郡みやこ町犀川上伊良原178","latitude":33.56287384033203,"longitude":130.9531707763672,"category":"学校","big_category":"教育","description":"","image_url":"","tags":"Ver1.80(2016年5月)の追加建築","prefecture":"福岡","contractor":"","structural_designer":"","landscape_designer":"","shinkenchiku_url":""},{"id":5926,"title":"復興まちづくり情報交流館 牡鹿館","architect":"萬代基介","year":2016.0,"address":"宮城県石巻市鮎川浜湊川63","latitude":38.30137252807617,"longitude":141.50906372070312,"category":"博物館/公共施設","big_category":"ミュージアム,公共施設","description":"","image_url":"","tags":"Ver1.80(2016年5月)の追加建築","prefecture":"宮城","contractor":"","structural_designer":"","landscape_designer":"","shinkenchiku_url":""},{"id":5927,"title":"北菓楼 札幌本館 旧北海道立文書館別館","architect":"安藤忠雄+竹中工務店","year":1926.0,"address":"北海道札幌市中央区北1条西5-1-2","latitude":43.06193542480469,"longitude":141.3488311767578,"category":"店舗","big_category":"商業施設","description":"北海道立文書館別館を2016年、安藤忠雄がリノベーション","image_url":"","tags":"Ver1.80(2016年5月)の追加建築,第26回AACA 奨励賞,新建築2018年4月号","prefecture":"北海道","contractor":"","structural_designer":"","landscape_designer":"","shinkenchiku_url":""},{"id":5928,"title":"アマネム","architect":"ケリー・ヒル","year":2016.0,"address":"三重県志摩市浜島町迫子2165","latitude":34.295047760009766,"longitude":136.79519653320312,"category":"ホテル","big_category":"宿泊","description":"","image_url":"","tags":"Ver1.80(2016年5月)の追加建築","prefecture":"三重","contractor":"","structural_designer":"","landscape_designer":"","shinkenchiku_url":""},{"id":5929,"title":"あかがねミュージアム","architect":"日建設計","year":2015.0,"address":"愛媛県新居浜市坂井町2-8-1","latitude":33.949466705322266,"longitude":133.29507446289062,"category":"美術館/体験施設/ホール・劇場","big_category":"ミュージアム,レジャー施設,文化施設","description":"","image_url":"","tags":"Ver1.80(2016年5月)の追加建築","prefecture":"愛媛","contractor":"","structural_designer":"","landscape_designer":"","shinkenchiku_url":""},{"id":5930,"title":"豊岡市立弘道小学校","architect":"いるか設計集団","year":1991.0,"address":"兵庫県豊岡市出石町寺町345","latitude":35.4648551940918,"longitude":134.87953186035156,"category":"学校","big_category":"教育","description":"","image_url":"","tags":"Ver1.80(2016年5月)の追加建築","prefecture":"兵庫","contractor":"","structural_designer":"","landscape_designer":"","shinkenchiku_url":""},{"id":5931,"title":"久留米シティプラザ","architect":"香山壽夫","year":2016.0,"address":"福岡県久留米市六ツ門町8-32-10","latitude":33.31385040283203,"longitude":130.5134735107422,"category":"ホール・劇場/総合文化施設","big_category":"文化施設,文化施設","description":"","image_url":"","tags":"Ver1.80(2016年5月)の追加建築","prefecture":"福岡","contractor":"","structural_designer":"","landscape_designer":"","shinkenchiku_url":""},{"id":5932,"title":"東急プラザ銀座","architect":"日建設計","year":2016.0,"address":"東京都中央区銀座5-2-1","latitude":35.67216110229492,"longitude":139.76243591308594,"category":"店舗/テナントビル","big_category":"商業施設,商業施設","description":"","image_url":"","tags":"Ver1.80(2016年5月)の追加建築","prefecture":"東京","contractor":"","structural_designer":"","landscape_designer":"","shinkenchiku_url":""},{"id":5933,"title":"バリー 東急プラザ銀座店","architect":"デイビッド・チッパーフィールド","year":2016.0,"address":"東京都中央区銀座5-2-1","latitude":35.67245101928711,"longitude":139.76275634765625,"category":"店舗","big_category":"商業施設","description":"","image_url":"","tags":"Ver1.80(2016年5月)の追加建築","prefecture":"東京","contractor":"","structural_designer":"","landscape_designer":"","shinkenchiku_url":""},{"id":5934,"title":"Remember HOPE 浪板海岸ヴィレッジ","architect":"白川在","year":2016.0,"address":"岩手県上閉伊郡大槌町吉里々々第7地割12-7","latitude":39.38195037841797,"longitude":141.9381103515625,"category":"店舗/モール","big_category":"商業施設,商業施設","description":"","image_url":"","tags":"Ver1.80(2016年5月)の追加建築","prefecture":"岩手","contractor":"","structural_designer":"","landscape_designer":"","shinkenchiku_url":""},{"id":5935,"title":"アトレ恵比寿西館","architect":"大江匡+ジェイアール東日本建築設計事務所","year":2016.0,"address":"東京都渋谷区恵比寿南1-5-5","latitude":35.646522521972656,"longitude":139.70962524414062,"category":"テナントビル","big_category":"商業施設","description":"","image_url":"","tags":"Ver1.80(2016年5月)の追加建築","prefecture":"東京","contractor":"","structural_designer":"","landscape_designer":"","shinkenchiku_url":""},{"id":5936,"title":"常滑トイレパーク","architect":"象設計集団","year":1988.0,"address":"愛知県常滑市奥栄町1-130","latitude":34.880897521972656,"longitude":136.84864807128906,"category":"トイレ","big_category":"公共施設","description":"","image_url":"","tags":"Ver1.80(2016年5月)の追加建築","prefecture":"愛知","contractor":"","structural_designer":"","landscape_designer":"","shinkenchiku_url":""},{"id":5937,"title":"ボン・ヴィヴァン 旧山田郵便局電話分室","architect":"吉田鉄郎","year":1923.0,"address":"三重県伊勢市本町20-24","latitude":34.487998962402344,"longitude":136.70773315429688,"category":"レストラン/公共施設","big_category":"商業施設,公共施設","description":"","image_url":"","tags":"Ver1.80(2016年5月)の追加建築","prefecture":"三重","contractor":"","structural_designer":"","landscape_designer":"","shinkenchiku_url":""},{"id":5938,"title":"博多古門戸アパートメント 旧福岡ワカ末ビル","architect":"増田友也","year":1965.0,"address":"福岡県福岡市博多区古門戸町10-20","latitude":33.59919738769531,"longitude":130.40350341796875,"category":"集合住宅","big_category":"住宅","description":"","image_url":"","tags":"Ver1.80(2016年5月)の追加建築","prefecture":"福岡","contractor":"","structural_designer":"","landscape_designer":"","shinkenchiku_url":""},{"id":5939,"title":"平沼記念体育館","architect":"芦原義信","year":1970.0,"address":"神奈川県横浜市神奈川区三ツ沢西町3-1","latitude":35.46976089477539,"longitude":139.60665893554688,"category":"体育館","big_category":"レジャー施設","description":"","image_url":"","tags":"Ver1.80(2016年5月)の追加建築","prefecture":"神奈川","contractor":"","structural_designer":"","landscape_designer":"","shinkenchiku_url":""},{"id":5940,"title":"ヤクルトビル","architect":"圓堂政嘉","year":1972.0,"address":"東京都港区東新橋1-1-19","latitude":35.66594696044922,"longitude":139.7603302001953,"category":"オフィスビル","big_category":"企業施設","description":"","image_url":"","tags":"Ver1.80(2016年5月)の追加建築","prefecture":"東京","contractor":"","structural_designer":"","landscape_designer":"","shinkenchiku_url":""},{"id":5941,"title":"土浦市市民会館","architect":"佐藤武夫","year":1968.0,"address":"茨城県土浦市東真鍋町2-6","latitude":36.09122848510742,"longitude":140.2050323486328,"category":"ホール・劇場","big_category":"文化施設","description":"","image_url":"","tags":"Ver1.80(2016年5月)の追加建築","prefecture":"茨城","contractor":"","structural_designer":"","landscape_designer":"","shinkenchiku_url":""},{"id":5942,"title":"三鷹市民センター・三鷹市役所","architect":"石本建築事務所","year":1965.0,"address":"東京都三鷹市野崎1-1-1","latitude":35.68324661254883,"longitude":139.5590362548828,"category":"ホール・劇場/庁舎","big_category":"文化施設,公共施設","description":"","image_url":"","tags":"Ver1.80(2016年5月)の追加建築","prefecture":"東京","contractor":"","structural_designer":"","landscape_designer":"","shinkenchiku_url":""},{"id":5943,"title":"所沢文化センター MUSE","architect":"石本建築事務所","year":1993.0,"address":"埼玉県所沢市並木1-9-1","latitude":35.80060958862305,"longitude":139.47296142578125,"category":"ホール・劇場/展示・会議場","big_category":"文化施設,公共施設","description":"","image_url":"","tags":"Ver1.80(2016年5月)の追加建築","prefecture":"埼玉","contractor":"","structural_designer":"","landscape_designer":"","shinkenchiku_url":""},{"id":5944,"title":"湘南大庭市民センター・公民館","architect":"緒形昭義","year":1985.0,"address":"神奈川県藤沢市大庭5406-1","latitude":35.36499786376953,"longitude":139.4466094970703,"category":"公民館・交流施設","big_category":"公共施設","description":"","image_url":"","tags":"Ver1.80(2016年5月)の追加建築","prefecture":"神奈川","contractor":"","structural_designer":"","landscape_designer":"","shinkenchiku_url":""},{"id":5945,"title":"藤沢市労働会館","architect":"緒形昭義","year":1976.0,"address":"神奈川県藤沢市本町1-12-17","latitude":35.344364166259766,"longitude":139.48162841796875,"category":"公共施設/ホール・劇場","big_category":"公共施設,文化施設","description":"","image_url":"","tags":"Ver1.80(2016年5月)の追加建築","prefecture":"神奈川","contractor":"","structural_designer":"","landscape_designer":"","shinkenchiku_url":""},{"id":5946,"title":"磐田市豊岡中央交流センター","architect":"渡辺隆","year":2016.0,"address":"静岡県磐田市壱貫地76-5","latitude":34.821197509765625,"longitude":137.8346405029297,"category":"公民館・交流施設","big_category":"公共施設","description":"","image_url":"","tags":"新建築2016年9月号,Ver1.80(2016年5月)の追加建築","prefecture":"静岡","contractor":"","structural_designer":"","landscape_designer":"","shinkenchiku_url":""},{"id":5947,"title":"前橋地方合同庁舎","architect":"安井建築設計","year":2015.0,"address":"群馬県前橋市大手町2-3-1","latitude":36.390953063964844,"longitude":139.06349182128906,"category":"庁舎","big_category":"公共施設","description":"","image_url":"","tags":"Ver1.80(2016年5月)の追加建築","prefecture":"群馬","contractor":"","structural_designer":"","landscape_designer":"","shinkenchiku_url":""},{"id":5948,"title":"ハグミュージアム","architect":"安井建築設計","year":2014.0,"address":"大阪府大阪市西区千代崎3-南2-59","latitude":34.6692008972168,"longitude":135.47850036621094,"category":"博物館/展示・会議場","big_category":"ミュージアム,公共施設","description":"","image_url":"","tags":"Ver1.80(2016年5月)の追加建築","prefecture":"大阪","contractor":"","structural_designer":"","landscape_designer":"","shinkenchiku_url":""},{"id":5949,"title":"東京都府中合同庁舎","architect":"安井建築設計","year":2014.0,"address":"東京都府中市宮西町1-26-1","latitude":35.671085357666016,"longitude":139.47731018066406,"category":"庁舎","big_category":"公共施設","description":"","image_url":"","tags":"Ver1.80(2016年5月)の追加建築","prefecture":"東京","contractor":"","structural_designer":"","landscape_designer":"","shinkenchiku_url":""},{"id":5950,"title":"北陸新幹線 糸魚川駅","architect":"安井建築設計","year":2014.0,"address":"新潟県糸魚川市大町1-7","latitude":37.043155670166016,"longitude":137.86146545410156,"category":"駅","big_category":"インフラ","description":"","image_url":"","tags":"Ver1.80(2016年5月)の追加建築","prefecture":"新潟","contractor":"","structural_designer":"","landscape_designer":"","shinkenchiku_url":""}]}