{"page":253,"total_pages":290,"items_per_page":50,"total_items":14467,"items":[{"id":12601,"title":"鋸南町都市交流施設 道の駅保田小附属ようちえん わっか・みまもり広場 ","architect":"遠藤克彦+アトリエコ","year":2023.0,"address":"千葉県安房郡鋸南町保田755-16","latitude":35.14351272583008,"longitude":139.84243774414062,"category":"公民館・交流施設/公園/児童施設","big_category":"公共施設,レジャー施設,教育","description":"道の駅 保田小学校隣接の幼稚園を改修し、児童施設に。中央広場を増築","image_url":"","tags":"Ver5.10(2023年10月)の追加建築,新建築2023年11月号","prefecture":"千葉","contractor":"","structural_designer":"","landscape_designer":"","shinkenchiku_url":""},{"id":12602,"title":"POWERX FACTORY PROJECT Power Base モジュール工場","architect":"妹島和世","year":2023.0,"address":"岡山県玉野市6-9-1","latitude":34.51355743408203,"longitude":133.95773315429688,"category":"工場","big_category":"企業施設","description":"","image_url":"","tags":"Ver5.10(2023年10月)の追加建築,新建築2024年3月号","prefecture":"岡山","contractor":"","structural_designer":"","landscape_designer":"","shinkenchiku_url":""},{"id":12603,"title":"青井の杜 国宝記念館","architect":"隈研吾","year":2023.0,"address":"熊本県人吉市上青井町868","latitude":32.21357727050781,"longitude":130.75332641601562,"category":"博物館/寺院","big_category":"ミュージアム,宗教","description":"2023年11月上旬開館予定","image_url":"","tags":"Ver5.10(2023年10月)の追加建築","prefecture":"熊本","contractor":"","structural_designer":"","landscape_designer":"","shinkenchiku_url":""},{"id":12604,"title":"明月館","architect":"伊丹潤","year":1979.0,"address":"東京都新宿区西新宿1-4-5","latitude":35.69291687011719,"longitude":139.6986083984375,"category":"テナントビル","big_category":"商業施設","description":"","image_url":"","tags":"Ver5.10(2023年10月)の追加建築","prefecture":"東京","contractor":"","structural_designer":"","landscape_designer":"","shinkenchiku_url":""},{"id":12605,"title":"松川ボックス(まつかわ・ぼっくす) THE MIRROR","architect":"宮脇檀","year":1971.0,"address":"東京都新宿区西早稲田2-14-15","latitude":35.708770751953125,"longitude":139.7115936279297,"category":"住宅/ギャラリー","big_category":"住宅,ミュージアム","description":"ギャラリーとして再生。2023年9月20日～2024年3月29日までアニッシュ・カプーア展を開催している。水～金、要予約。","image_url":"","tags":"Ver5.10(2023年10月)の追加建築","prefecture":"東京","contractor":"","structural_designer":"","landscape_designer":"","shinkenchiku_url":""},{"id":12606,"title":"白想居 瀬田ファースト","architect":"大江匡","year":1991.0,"address":"東京都世田谷区瀬田1-9-43","latitude":35.61362838745117,"longitude":139.63174438476562,"category":"集合住宅","big_category":"住宅","description":"","image_url":"","tags":"Ver5.10(2023年10月)の追加建築","prefecture":"東京","contractor":"","structural_designer":"","landscape_designer":"","shinkenchiku_url":""},{"id":12607,"title":"ストラーダ 青山ファッションカレッジ","architect":"團紀彦","year":1991.0,"address":"東京都港区北青山3-5-17","latitude":35.66592025756836,"longitude":139.71275329589844,"category":"専門学校","big_category":"教育","description":"","image_url":"","tags":"Ver5.10(2023年10月)の追加建築","prefecture":"東京","contractor":"","structural_designer":"","landscape_designer":"","shinkenchiku_url":""},{"id":12608,"title":"ラフォーレ原宿","architect":"入江三宅設計事務所","year":1978.0,"address":"東京都渋谷区神宮前1-11-6","latitude":35.66902542114258,"longitude":139.70542907714844,"category":"モール","big_category":"商業施設","description":"","image_url":"","tags":"Ver5.10(2023年10月)の追加建築","prefecture":"東京","contractor":"","structural_designer":"","landscape_designer":"","shinkenchiku_url":""},{"id":12609,"title":"コープオリンピア","architect":"清水建設","year":1965.0,"address":"東京都渋谷区神宮前6-35-3","latitude":35.66923141479492,"longitude":139.70303344726562,"category":"集合住宅","big_category":"住宅","description":"","image_url":"","tags":"Ver5.10(2023年10月)の追加建築","prefecture":"東京","contractor":"","structural_designer":"","landscape_designer":"","shinkenchiku_url":""},{"id":12610,"title":"010 BUILDING","architect":"CLOUDS Architecture Office+NKS2アーキテクツ+中原拓海","year":2023.0,"address":"福岡県福岡市博多区住吉1-4-17","latitude":33.588111877441406,"longitude":130.4102325439453,"category":"ホール・劇場/バー・居酒屋/カフェ","big_category":"文化施設,商業施設,商業施設","description":"デザインアーキテクト:CLOUDS Architecture Office / 基本設計､実施設計:NKS2アーキテクツ+中原拓海","image_url":"","tags":"Ver5.10(2023年10月)の追加建築","prefecture":"福岡","contractor":"","structural_designer":"","landscape_designer":"","shinkenchiku_url":""},{"id":12611,"title":"伊根町文化振興多世代交流施設 伊根の杜","architect":"木下昌大","year":2023.0,"address":"京都府与謝郡伊根町平田151-2","latitude":35.67668914794922,"longitude":135.2871551513672,"category":"古民家/公民館・交流施設","big_category":"近代建築/遺産,公共施設","description":"1929年竣工の民家を改修","image_url":"","tags":"Ver5.10(2023年10月)の追加建築,新建築2024年4月号","prefecture":"京都","contractor":"","structural_designer":"","landscape_designer":"","shinkenchiku_url":""},{"id":12612,"title":"武蔵野音楽大学 ベートーヴェンホール","architect":"大林組","year":1960.0,"address":"東京都練馬区羽沢1-13","latitude":35.74155807495117,"longitude":139.6719512939453,"category":"大学/ホール・劇場","big_category":"教育,文化施設","description":"2017年改修","image_url":"","tags":"Ver5.10(2023年10月)の追加建築","prefecture":"東京","contractor":"大林組","structural_designer":"","landscape_designer":"","shinkenchiku_url":""},{"id":12613,"title":"武蔵野音楽大学 江古田キャンパス","architect":"大林組","year":2017.0,"address":"東京都練馬区羽沢1-13","latitude":35.74125289916992,"longitude":139.67210388183594,"category":"大学","big_category":"教育","description":"","image_url":"","tags":"Ver5.10(2023年10月)の追加建築","prefecture":"東京","contractor":"大林組","structural_designer":"","landscape_designer":"","shinkenchiku_url":""},{"id":12614,"title":"上毛町立体育館ループアリーナ","architect":"中村拓志","year":2023.0,"address":"福岡県上毛町安雲852","latitude":33.58026123046875,"longitude":131.1549835205078,"category":"体育館","big_category":"レジャー施設","description":"","image_url":"","tags":"Ver5.10(2023年10月)の追加建築,新建築2024年7月号","prefecture":"福岡","contractor":"","structural_designer":"","landscape_designer":"","shinkenchiku_url":""},{"id":12615,"title":"Rakuten STAY 熱海","architect":"佐藤宏尚+若林建築設計事務所","year":2022.0,"address":"静岡県熱海市和田浜南町3-5","latitude":35.09149932861328,"longitude":139.07333374023438,"category":"ホテル","big_category":"宿泊","description":"","image_url":"","tags":"Ver5.10(2023年10月)の追加建築","prefecture":"静岡","contractor":"","structural_designer":"","landscape_designer":"","shinkenchiku_url":""},{"id":12616,"title":"有田市民水泳場 えみくるARIDA","architect":"綜企画設計+山下和希","year":2020.0,"address":"和歌山県有田市初島町浜1650-1","latitude":34.09148025512695,"longitude":135.10977172851562,"category":"プール","big_category":"レジャー施設","description":"","image_url":"","tags":"Ver5.10(2023年10月)の追加建築","prefecture":"和歌山","contractor":"","structural_designer":"","landscape_designer":"","shinkenchiku_url":""},{"id":12617,"title":"紀三井寺ケーブル山麓駅","architect":"清水建設","year":2022.0,"address":"和歌山県和歌山市紀三井寺1116","latitude":34.18431091308594,"longitude":135.18893432617188,"category":"駅","big_category":"インフラ","description":"","image_url":"","tags":"Ver5.10(2023年10月)の追加建築","prefecture":"和歌山","contractor":"","structural_designer":"","landscape_designer":"","shinkenchiku_url":""},{"id":12618,"title":"キトウシの森きとろん","architect":"隈研吾+アイエイ研究所","year":2023.0,"address":"北海道上川郡東川町西4号北46","latitude":43.72698974609375,"longitude":142.53981018066406,"category":"温泉","big_category":"宿泊","description":"デザイン監修：隈研吾","image_url":"","tags":"Ver5.10(2023年10月)の追加建築","prefecture":"北海道","contractor":"","structural_designer":"","landscape_designer":"","shinkenchiku_url":""},{"id":12619,"title":"鶴川シオン幼稚園・多目的棟","architect":"手塚建築研究所","year":2023.0,"address":"東京都町田市野津田町2024","latitude":35.589908599853516,"longitude":139.44068908691406,"category":"幼稚園","big_category":"教育","description":"","image_url":"","tags":"Ver5.10(2023年10月)の追加建築","prefecture":"東京","contractor":"","structural_designer":"","landscape_designer":"","shinkenchiku_url":""},{"id":12620,"title":"ナオミ保育園","architect":"手塚建築研究所","year":2023.0,"address":"東京都世田谷区等々力4-13-10","latitude":35.609153747558594,"longitude":139.6531524658203,"category":"幼稚園","big_category":"教育","description":"","image_url":"","tags":"Ver5.10(2023年10月)の追加建築","prefecture":"東京","contractor":"","structural_designer":"","landscape_designer":"","shinkenchiku_url":""},{"id":12621,"title":"かもいクリニック","architect":"手塚建築研究所","year":2022.0,"address":"長野県塩尻市広丘高出2199-2","latitude":36.12858581542969,"longitude":137.95318603515625,"category":"個人医院","big_category":"医療施設","description":"","image_url":"","tags":"Ver5.10(2023年10月)の追加建築","prefecture":"長野","contractor":"","structural_designer":"","landscape_designer":"","shinkenchiku_url":""},{"id":12622,"title":"南阿蘇鉄道 高森駅","architect":"ヌーブ","year":2023.0,"address":"熊本県阿蘇郡高森町高森1537-2","latitude":32.81949234008789,"longitude":131.1226348876953,"category":"駅","big_category":"インフラ","description":"","image_url":"","tags":"くまもとアートポリス,Ver5.10(2023年10月)の追加建築,新建築2024年12月号","prefecture":"熊本","contractor":"","structural_designer":"","landscape_designer":"","shinkenchiku_url":""},{"id":12623,"title":"八幡アパートメンツ","architect":"柳澤潤","year":2015.0,"address":"千葉県市川市八幡3-20","latitude":35.7249755859375,"longitude":139.9270477294922,"category":"集合住宅","big_category":"住宅","description":"","image_url":"","tags":"Ver5.10(2023年10月)の追加建築","prefecture":"千葉","contractor":"","structural_designer":"","landscape_designer":"","shinkenchiku_url":""},{"id":12624,"title":"人吉市温泉町のみんなの家","architect":"乾久美子","year":2023.0,"address":"熊本県人吉市温泉町2507","latitude":32.214149475097656,"longitude":130.72886657714844,"category":"公民館・交流施設","big_category":"公共施設","description":"","image_url":"","tags":"くまもとアートポリス,Ver5.10(2023年10月)の追加建築,新建築2023年11月号","prefecture":"熊本","contractor":"","structural_designer":"","landscape_designer":"","shinkenchiku_url":""},{"id":12625,"title":"人吉市大工町・二日町のみんなの家","architect":"乾久美子","year":2023.0,"address":"熊本県人吉市大工町13-1","latitude":32.2159538269043,"longitude":130.7624053955078,"category":"公民館・交流施設","big_category":"公共施設","description":"","image_url":"","tags":"くまもとアートポリス,Ver5.10(2023年10月)の追加建築,新建築2023年11月号","prefecture":"熊本","contractor":"","structural_designer":"","landscape_designer":"","shinkenchiku_url":""},{"id":12626,"title":"守山市新庁舎","architect":"隈研吾","year":2023.0,"address":"滋賀県守山市吉身2-5-22","latitude":35.05833435058594,"longitude":135.99411010742188,"category":"庁舎","big_category":"公共施設","description":"","image_url":"","tags":"Ver5.10(2023年10月)の追加建築","prefecture":"滋賀","contractor":"","structural_designer":"","landscape_designer":"","shinkenchiku_url":""},{"id":12627,"title":"アオヤ カンパーニュ","architect":"隈研吾","year":2023.0,"address":"栃木県小山市萩島116-1","latitude":36.309268951416016,"longitude":139.77330017089844,"category":"店舗","big_category":"商業施設","description":"","image_url":"","tags":"Ver5.10(2023年10月)の追加建築","prefecture":"栃木","contractor":"","structural_designer":"","landscape_designer":"","shinkenchiku_url":""},{"id":12628,"title":"氷川神社 社務所南館","architect":"佐野健太","year":2023.0,"address":"東京都練馬区氷川台4-47−3","latitude":35.75193405151367,"longitude":139.66455078125,"category":"寺院","big_category":"宗教","description":"","image_url":"","tags":"Ver5.10(2023年10月)の追加建築","prefecture":"東京","contractor":"","structural_designer":"","landscape_designer":"","shinkenchiku_url":""},{"id":12629,"title":"HOTEL水脈 mio 旧堀部家住宅","architect":"佐々木信明+PAAK DESIGN","year":2023.0,"address":"長崎県島原市万町503-5","latitude":32.78672409057617,"longitude":130.3695831298828,"category":"ホテル/カフェ/古民家","big_category":"宿泊,商業施設,近代建築/遺産","description":"古民家改修","image_url":"","tags":"Ver5.10(2023年10月)の追加建築","prefecture":"長崎","contractor":"","structural_designer":"","landscape_designer":"","shinkenchiku_url":""},{"id":12630,"title":"福岡ピノキオこども園","architect":"佐々木信明","year":2022.0,"address":"福岡県那珂川市恵子1-1-2","latitude":33.515106201171875,"longitude":130.41961669921875,"category":"幼稚園","big_category":"教育","description":"","image_url":"","tags":"Ver5.10(2023年10月)の追加建築","prefecture":"福岡","contractor":"","structural_designer":"","landscape_designer":"","shinkenchiku_url":""},{"id":12631,"title":"南畑ピノキオ森のこども園","architect":"佐々木信明","year":2022.0,"address":"福岡県那珂川市埋金811-1","latitude":33.46308517456055,"longitude":130.42799377441406,"category":"幼稚園","big_category":"教育","description":"","image_url":"","tags":"Ver5.10(2023年10月)の追加建築","prefecture":"福岡","contractor":"","structural_designer":"","landscape_designer":"","shinkenchiku_url":""},{"id":12632,"title":"いちご保育園","architect":"佐々木信明","year":2022.0,"address":"長崎県諫早市栗面町315","latitude":32.8341064453125,"longitude":130.0397186279297,"category":"幼稚園","big_category":"教育","description":"","image_url":"","tags":"Ver5.10(2023年10月)の追加建築","prefecture":"長崎","contractor":"","structural_designer":"","landscape_designer":"","shinkenchiku_url":""},{"id":12633,"title":"アーキテクトカフェ エン","architect":"伊礼智+前川建設","year":2023.0,"address":"兵庫県加古川市加古川町木村191-6","latitude":34.763816833496094,"longitude":134.82972717285156,"category":"カフェ/低層オフィス","big_category":"商業施設,企業施設","description":"監修:伊礼智","image_url":"","tags":"Ver5.10(2023年10月)の追加建築","prefecture":"兵庫","contractor":"","structural_designer":"","landscape_designer":"","shinkenchiku_url":""},{"id":12634,"title":"野外音楽堂 Dstage","architect":"隈研吾","year":2023.0,"address":"岩手県陸前高田市気仙町土手影309","latitude":39.01169967651367,"longitude":141.61968994140625,"category":"広場/ホール・劇場","big_category":"文化施設,文化施設","description":"陸前高田ワタミオーガニックランド内","image_url":"","tags":"Ver5.10(2023年10月)の追加建築","prefecture":"岩手","contractor":"","structural_designer":"","landscape_designer":"","shinkenchiku_url":""},{"id":12635,"title":"天神町place","architect":"伊藤博之","year":2023.0,"address":"東京都文京区湯島3-20-8","latitude":35.70539474487305,"longitude":139.7676544189453,"category":"集合住宅","big_category":"住宅","description":"","image_url":"","tags":"Ver5.10(2023年10月)の追加建築,新建築2024年2月号,2024年度JIA優秀建築賞","prefecture":"東京","contractor":"","structural_designer":"","landscape_designer":"","shinkenchiku_url":""},{"id":12636,"title":"中村藤吉 平等院店","architect":"ムトカ建築事務所","year":2023.0,"address":"京都府宇治市宇治蓮華5-1","latitude":34.89147186279297,"longitude":135.80661010742188,"category":"カフェ/店舗","big_category":"商業施設,商業施設","description":"","image_url":"","tags":"Ver5.10(2023年10月)の追加建築,新建築2023年11月号","prefecture":"京都","contractor":"","structural_designer":"","landscape_designer":"","shinkenchiku_url":""},{"id":12637,"title":"The Hive","architect":"上田真路+宇那木麻衣","year":2022.0,"address":"富山県中新川郡立山町日中上野18","latitude":36.661041259765625,"longitude":137.346435546875,"category":"温泉/コテージ","big_category":"宿泊,宿泊","description":"一棟貸しのサウナホテル","image_url":"","tags":"Ver5.10(2023年10月)の追加建築","prefecture":"富山","contractor":"","structural_designer":"","landscape_designer":"","shinkenchiku_url":""},{"id":12638,"title":"埼玉トヨタ本庄早稲田店","architect":"宇那木麻衣","year":2022.0,"address":"埼玉県本庄市早稲田の杜1-9-23","latitude":36.21929168701172,"longitude":139.18255615234375,"category":"店舗","big_category":"商業施設","description":"","image_url":"","tags":"Ver5.10(2023年10月)の追加建築","prefecture":"埼玉","contractor":"","structural_designer":"","landscape_designer":"","shinkenchiku_url":""},{"id":12639,"title":"埼玉トヨタ熊谷南店","architect":"宇那木麻衣","year":2022.0,"address":"埼玉県鴻巣市新宿2-176-2","latitude":36.11430358886719,"longitude":139.43930053710938,"category":"店舗","big_category":"商業施設","description":"","image_url":"","tags":"Ver5.10(2023年10月)の追加建築","prefecture":"埼玉","contractor":"","structural_designer":"","landscape_designer":"","shinkenchiku_url":""},{"id":12640,"title":"厳島いろは","architect":"竹原義二","year":2022.0,"address":"広島県廿日市市宮島町589-4","latitude":34.29960250854492,"longitude":132.32180786132812,"category":"旅館","big_category":"宿泊","description":"改装","image_url":"","tags":"Ver5.10(2023年10月)の追加建築","prefecture":"広島","contractor":"","structural_designer":"","landscape_designer":"","shinkenchiku_url":""},{"id":12641,"title":"THE HOTEL HIGASHIYAMA by Kyoto Tokyu Hotel","architect":"浅井謙","year":2022.0,"address":"京都府京都市東山区三条通白川橋東入夷町3-175-2","latitude":35.008934020996094,"longitude":135.7836151123047,"category":"ホテル","big_category":"宿泊","description":"","image_url":"","tags":"Ver5.10(2023年10月)の追加建築","prefecture":"京都","contractor":"","structural_designer":"","landscape_designer":"","shinkenchiku_url":""},{"id":12642,"title":"傀藝堂","architect":"神谷修平","year":2023.0,"address":"福岡県福岡市中央区桜坂1-10-46","latitude":33.578407287597656,"longitude":130.38888549804688,"category":"ギャラリー","big_category":"ミュージアム","description":"中村人形のギャラリー","image_url":"","tags":"Ver5.10(2023年10月)の追加建築","prefecture":"福岡","contractor":"","structural_designer":"","landscape_designer":"","shinkenchiku_url":""},{"id":12643,"title":"おざわ歯科","architect":"長坂大","year":2008.0,"address":"神奈川県平塚市片岡1292","latitude":35.35861587524414,"longitude":139.29705810546875,"category":"個人医院","big_category":"医療施設","description":"","image_url":"","tags":"Ver5.10(2023年10月)の追加建築","prefecture":"神奈川","contractor":"","structural_designer":"","landscape_designer":"","shinkenchiku_url":""},{"id":12644,"title":"おざわ歯科 お口のサロン","architect":"長坂大","year":2022.0,"address":"神奈川県平塚市片岡1292","latitude":35.358829498291016,"longitude":139.29727172851562,"category":"個人医院","big_category":"医療施設","description":"","image_url":"","tags":"Ver5.10(2023年10月)の追加建築","prefecture":"神奈川","contractor":"","structural_designer":"","landscape_designer":"","shinkenchiku_url":""},{"id":12645,"title":"COZY岡崎柱","architect":"長坂大","year":2021.0,"address":"愛知県岡崎市柱町東荒子246","latitude":34.92402648925781,"longitude":137.1595001220703,"category":"集合住宅","big_category":"住宅","description":"","image_url":"","tags":"Ver5.10(2023年10月)の追加建築","prefecture":"愛知","contractor":"","structural_designer":"","landscape_designer":"","shinkenchiku_url":""},{"id":12646,"title":"うね乃 工場","architect":"長坂大","year":2018.0,"address":"京都府京都市南区唐橋門脇町4-3","latitude":34.98179244995117,"longitude":135.73634338378906,"category":"店舗/工場","big_category":"商業施設,企業施設","description":"","image_url":"","tags":"Ver5.10(2023年10月)の追加建築","prefecture":"京都","contractor":"","structural_designer":"","landscape_designer":"","shinkenchiku_url":""},{"id":12647,"title":"南山城学園 地域福祉支援センター宇治小倉","architect":"長坂大","year":2018.0,"address":"京都府宇治市宇治蔭山9-11","latitude":34.89122772216797,"longitude":135.79214477539062,"category":"養護施設/福祉センター","big_category":"医療施設,医療施設","description":"","image_url":"","tags":"Ver5.10(2023年10月)の追加建築","prefecture":"京都","contractor":"","structural_designer":"","landscape_designer":"","shinkenchiku_url":""},{"id":12648,"title":"COZY宇治橋","architect":"長坂大","year":2016.0,"address":"京都府宇治市宇治乙方63","latitude":34.89443588256836,"longitude":135.8077392578125,"category":"店舗/集合住宅","big_category":"商業施設,住宅","description":"","image_url":"","tags":"Ver5.10(2023年10月)の追加建築","prefecture":"京都","contractor":"","structural_designer":"","landscape_designer":"","shinkenchiku_url":""},{"id":12649,"title":"月の鐘","architect":"永山祐子","year":2023.0,"address":"群馬県前橋市千代田町2-7-20","latitude":36.39168167114258,"longitude":139.0689239501953,"category":"レストラン","big_category":"商業施設","description":"","image_url":"","tags":"Ver5.10(2023年10月)の追加建築","prefecture":"群馬","contractor":"","structural_designer":"","landscape_designer":"","shinkenchiku_url":""},{"id":12650,"title":"樫尾俊雄発明記念館","architect":"滝沢健児","year":1972.0,"address":"東京都世田谷区成城4-19-10","latitude":35.64400100708008,"longitude":139.5902099609375,"category":"住宅/博物館","big_category":"住宅,ミュージアム","description":"完全予約制","image_url":"","tags":"Ver5.10(2023年10月)の追加建築","prefecture":"東京","contractor":"","structural_designer":"","landscape_designer":"","shinkenchiku_url":""}]}