{"page":110,"total_pages":290,"items_per_page":50,"total_items":14467,"items":[{"id":5451,"title":"松江市役所 美保関支所","architect":"山根秀明","year":2004.0,"address":"島根県松江市美保関町下宇部尾61-2","latitude":35.53289031982422,"longitude":133.1841583251953,"category":"庁舎","big_category":"公共施設","description":"","image_url":"","tags":"","prefecture":"島根","contractor":"","structural_designer":"","landscape_designer":"","shinkenchiku_url":""},{"id":5452,"title":"来待地区公民館","architect":"寺本和雄","year":1987.0,"address":"島根県松江市宍道町上来待212-1","latitude":35.4024543762207,"longitude":132.96163940429688,"category":"公民館・交流施設","big_category":"公共施設","description":"","image_url":"","tags":"","prefecture":"島根","contractor":"","structural_designer":"","landscape_designer":"","shinkenchiku_url":""},{"id":5453,"title":"平田市立図書館・学習館","architect":"寺本和雄","year":1990.0,"address":"島根県出雲市平田町2110-1","latitude":35.42888259887695,"longitude":132.82005310058594,"category":"図書館","big_category":"文化施設","description":"","image_url":"","tags":"","prefecture":"島根","contractor":"","structural_designer":"","landscape_designer":"","shinkenchiku_url":""},{"id":5454,"title":"安来商工会議所会館","architect":"安田臣","year":1970.0,"address":"島根県安来市安来町879","latitude":35.43075942993164,"longitude":133.25106811523438,"category":"組合施設","big_category":"公共施設","description":"","image_url":"","tags":"","prefecture":"島根","contractor":"","structural_designer":"","landscape_designer":"","shinkenchiku_url":""},{"id":5455,"title":"安来市営内代団地","architect":"田中正夫","year":2001.0,"address":"島根県安来市切川町1303","latitude":35.41160202026367,"longitude":133.23321533203125,"category":"集合住宅","big_category":"住宅","description":"","image_url":"","tags":"","prefecture":"島根","contractor":"","structural_designer":"","landscape_designer":"","shinkenchiku_url":""},{"id":5456,"title":"金屋子神話民俗館","architect":"寺本和雄","year":1995.0,"address":"島根県安来市広瀬町西比田213-2","latitude":35.24393844604492,"longitude":133.11199951171875,"category":"博物館","big_category":"ミュージアム","description":"","image_url":"","tags":"","prefecture":"島根","contractor":"","structural_designer":"","landscape_designer":"","shinkenchiku_url":""},{"id":5457,"title":"荒神谷博物館","architect":"寺本和雄","year":2005.0,"address":"島根県出雲市斐川町神庭873-8","latitude":35.37664031982422,"longitude":132.85031127929688,"category":"博物館","big_category":"ミュージアム","description":"","image_url":"","tags":"","prefecture":"島根","contractor":"","structural_designer":"","landscape_designer":"","shinkenchiku_url":""},{"id":5458,"title":"大田市立仁摩図書館","architect":"寺本和雄","year":2004.0,"address":"島根県大田市仁摩町仁万565-1","latitude":35.148292541503906,"longitude":132.4071044921875,"category":"図書館","big_category":"文化施設","description":"","image_url":"","tags":"","prefecture":"島根","contractor":"","structural_designer":"","landscape_designer":"","shinkenchiku_url":""},{"id":5459,"title":"隠岐の島町農村環境改善センター 旧五箇村農村環境改善センター","architect":"寺本和雄","year":1986.0,"address":"島根県隠岐郡隠岐の島町郡575-1","latitude":36.28328323364258,"longitude":133.24851989746094,"category":"公民館・交流施設/公共施設","big_category":"公共施設,公共施設","description":"","image_url":"","tags":"","prefecture":"島根","contractor":"渡辺工務店","structural_designer":"","landscape_designer":"","shinkenchiku_url":""},{"id":5460,"title":"隠岐シーサイドホテル鶴丸","architect":"寺本和雄","year":1993.0,"address":"島根県隠岐郡西ノ島町美田","latitude":36.09268569946289,"longitude":133.01052856445312,"category":"ホテル","big_category":"宿泊","description":"","image_url":"","tags":"","prefecture":"島根","contractor":"","structural_designer":"","landscape_designer":"","shinkenchiku_url":""},{"id":5461,"title":"隠岐の島町立五箇中学校","architect":"寺本和雄","year":1993.0,"address":"島根県隠岐郡隠岐の島町郡162","latitude":36.28519058227539,"longitude":133.24009704589844,"category":"学校","big_category":"教育","description":"","image_url":"","tags":"","prefecture":"島根","contractor":"","structural_designer":"","landscape_designer":"","shinkenchiku_url":""},{"id":5462,"title":"皆生の家 Ⅰ エミー","architect":"三原征夫","year":1990.0,"address":"鳥取県米子市皆生温泉4-16-8","latitude":35.45751953125,"longitude":133.3534393310547,"category":"バー・居酒屋/住宅","big_category":"商業施設,住宅","description":"","image_url":"","tags":"","prefecture":"鳥取","contractor":"","structural_designer":"","landscape_designer":"","shinkenchiku_url":""},{"id":5463,"title":"大山レークホテル","architect":"竹中工務店","year":1997.0,"address":"鳥取県西伯郡大山町鈑戸大野湖畔1521-154","latitude":35.4165153503418,"longitude":133.5177764892578,"category":"ホテル","big_category":"宿泊","description":"","image_url":"","tags":"","prefecture":"鳥取","contractor":"","structural_designer":"","landscape_designer":"","shinkenchiku_url":""},{"id":5464,"title":"羽須美中学校","architect":"龜谷清","year":1996.0,"address":"島根県邑智郡邑南町阿須那123","latitude":34.87353515625,"longitude":132.6177215576172,"category":"学校","big_category":"教育","description":"","image_url":"","tags":"","prefecture":"島根","contractor":"","structural_designer":"","landscape_designer":"","shinkenchiku_url":""},{"id":5465,"title":"54の屋根 岡山市建部保育園","architect":"石井和紘","year":1979.0,"address":"岡山県岡山市北区建部町市場330","latitude":34.85236740112305,"longitude":133.90171813964844,"category":"幼稚園","big_category":"教育","description":"解体","image_url":"","tags":"","prefecture":"岡山","contractor":"","structural_designer":"","landscape_designer":"","shinkenchiku_url":""},{"id":5466,"title":"トタンの家 丘の上APT","architect":"藤森照信","year":2014.0,"address":"東京都国分寺市泉町1-5-16","latitude":35.69775390625,"longitude":139.47520446777344,"category":"ギャラリー/住宅","big_category":"ミュージアム,住宅","description":"同敷地内にチョコレートハウス（2009年竣工、藤森照信設計）も存在","image_url":"","tags":"新建築2014年11月号","prefecture":"東京","contractor":"宮嶋工務店","structural_designer":"大嶋信道","landscape_designer":"","shinkenchiku_url":"https://data.shinkenchiku.online/articles/SK_2014_11_109-0"},{"id":5467,"title":"岡山森林管理署","architect":"新田正樹","year":1991.0,"address":"岡山県新見市高尾786-1","latitude":34.99382019042969,"longitude":133.4512939453125,"category":"公共施設","big_category":"公共施設","description":"","image_url":"","tags":"","prefecture":"岡山","contractor":"","structural_designer":"","landscape_designer":"","shinkenchiku_url":""},{"id":5468,"title":"岸和田市立臨海会館","architect":"新田正樹","year":1987.0,"address":"大阪府岸和田市地蔵浜町10","latitude":34.460262298583984,"longitude":135.36325073242188,"category":"公共施設","big_category":"公共施設","description":"","image_url":"","tags":"","prefecture":"大阪","contractor":"","structural_designer":"","landscape_designer":"","shinkenchiku_url":""},{"id":5469,"title":"広島森林管理署","architect":"新田正樹","year":1989.0,"address":"広島県広島市中区吉島東3-2-51","latitude":34.370365142822266,"longitude":132.4505157470703,"category":"公共施設","big_category":"公共施設","description":"","image_url":"","tags":"","prefecture":"広島","contractor":"","structural_designer":"","landscape_designer":"","shinkenchiku_url":""},{"id":5470,"title":"勝山町保健福祉センター","architect":"西宮善幸","year":1999.0,"address":"岡山県真庭市勝山68-2","latitude":35.087120056152344,"longitude":133.6920166015625,"category":"福祉センター","big_category":"医療施設","description":"","image_url":"","tags":"","prefecture":"岡山","contractor":"","structural_designer":"","landscape_designer":"","shinkenchiku_url":""},{"id":5471,"title":"和気町中央公民館","architect":"川崎清","year":1970.0,"address":"岡山県和気郡和気町尺所7-1","latitude":34.799686431884766,"longitude":134.15342712402344,"category":"公民館・交流施設","big_category":"公共施設","description":"","image_url":"","tags":"","prefecture":"岡山","contractor":"","structural_designer":"","landscape_designer":"","shinkenchiku_url":""},{"id":5472,"title":"和気町立藤野幼稚園","architect":"川崎清","year":1974.0,"address":"岡山県和気郡和気町藤野463","latitude":34.81000518798828,"longitude":134.1744384765625,"category":"幼稚園","big_category":"教育","description":"","image_url":"","tags":"","prefecture":"岡山","contractor":"","structural_designer":"","landscape_designer":"","shinkenchiku_url":""},{"id":5473,"title":"道の駅阿武町","architect":"堀設計事務所","year":2014.0,"address":"山口県阿武郡阿武町奈古2249","latitude":34.49703598022461,"longitude":131.46810913085938,"category":"PA・道の駅","big_category":"インフラ","description":"","image_url":"","tags":"","prefecture":"山口","contractor":"","structural_designer":"","landscape_designer":"","shinkenchiku_url":""},{"id":5474,"title":"阿武町立みどり保育園 旧奈古保育園","architect":"堀設計事務所","year":1998.0,"address":"山口県阿武郡阿武町大字奈古3066-2","latitude":34.50672912597656,"longitude":131.4744873046875,"category":"幼稚園","big_category":"教育","description":"","image_url":"","tags":"","prefecture":"山口","contractor":"","structural_designer":"","landscape_designer":"","shinkenchiku_url":""},{"id":5475,"title":"平わらび台活性化交流施設 福栄夢るーらる雲海","architect":"堀設計事務所","year":1998.0,"address":"山口県萩市福井上3439-9","latitude":34.39822769165039,"longitude":131.52655029296875,"category":"公民館・交流施設/体験施設","big_category":"公共施設,レジャー施設","description":"","image_url":"","tags":"","prefecture":"山口","contractor":"","structural_designer":"","landscape_designer":"","shinkenchiku_url":""},{"id":5476,"title":"東京大学宇宙線研究所附属 神岡宇宙素粒子研究施設 スーパーカミオカンデ","architect":"日建設計","year":1996.0,"address":"岐阜県飛騨市神岡町東茂住456-1","latitude":36.434730529785156,"longitude":137.2761993408203,"category":"研究施設","big_category":"教育","description":"原則的に見学不可。年二日、GSAの見学イベント他、いくつかのイベントで見学可能。","image_url":"","tags":"","prefecture":"岐阜","contractor":"","structural_designer":"","landscape_designer":"","shinkenchiku_url":""},{"id":5477,"title":"JR日原駅・プラサ枕瀬","architect":"清家清","year":1996.0,"address":"島根県鹿足郡津和野町枕瀬464-2","latitude":34.53257369995117,"longitude":131.83189392089844,"category":"駅/公民館・交流施設","big_category":"インフラ,公共施設","description":"","image_url":"","tags":"","prefecture":"島根","contractor":"","structural_designer":"","landscape_designer":"","shinkenchiku_url":""},{"id":5478,"title":"道の駅 シルクウェイにちはら","architect":"丹青社","year":1999.0,"address":"島根県鹿足郡津和野町池村1997-4","latitude":34.553497314453125,"longitude":131.8081817626953,"category":"PA・道の駅","big_category":"インフラ","description":"","image_url":"","tags":"","prefecture":"島根","contractor":"","structural_designer":"","landscape_designer":"","shinkenchiku_url":""},{"id":5479,"title":"ウッドワン美術館 新館 旧住建美術館","architect":"井口博幸","year":2001.0,"address":"広島県廿日市市吉和4278","latitude":34.498748779296875,"longitude":132.14366149902344,"category":"美術館","big_category":"ミュージアム","description":"","image_url":"","tags":"","prefecture":"広島","contractor":"","structural_designer":"","landscape_designer":"","shinkenchiku_url":""},{"id":5480,"title":"ウッドワン美術館 本館","architect":"戸田建設","year":1996.0,"address":"広島県廿日市市吉和4278","latitude":34.49892044067383,"longitude":132.14369201660156,"category":"美術館","big_category":"ミュージアム","description":"","image_url":"","tags":"","prefecture":"広島","contractor":"","structural_designer":"","landscape_designer":"","shinkenchiku_url":""},{"id":5481,"title":"板橋さざなみ幼稚園 ANNEX Ⅱ","architect":"遠藤吉生","year":2000.0,"address":"広島県東広島市西条町寺家261","latitude":34.42873001098633,"longitude":132.70535278320312,"category":"幼稚園","big_category":"教育","description":"","image_url":"","tags":"","prefecture":"広島","contractor":"","structural_designer":"","landscape_designer":"","shinkenchiku_url":""},{"id":5482,"title":"宮の町タウンハウス","architect":"宮森洋一郎","year":1994.0,"address":"広島県安芸郡府中町宮の町4-19","latitude":34.39174270629883,"longitude":132.51016235351562,"category":"集合住宅","big_category":"住宅","description":"","image_url":"","tags":"","prefecture":"広島","contractor":"","structural_designer":"","landscape_designer":"","shinkenchiku_url":""},{"id":5483,"title":"広島信用金庫川内支店中筋出張所","architect":"井口博幸","year":1995.0,"address":"広島県広島市安佐南区中筋3-26","latitude":34.453033447265625,"longitude":132.4777374267578,"category":"金融機関/店舗","big_category":"企業施設,商業施設","description":"","image_url":"","tags":"","prefecture":"広島","contractor":"","structural_designer":"","landscape_designer":"","shinkenchiku_url":""},{"id":5484,"title":"クルトピア岩谷","architect":"市浦ハウジング&プランニング","year":1995.0,"address":"広島県府中市目崎町377","latitude":34.572471618652344,"longitude":133.22177124023438,"category":"公民館・交流施設","big_category":"公共施設","description":"","image_url":"","tags":"","prefecture":"広島","contractor":"","structural_designer":"","landscape_designer":"","shinkenchiku_url":""},{"id":5485,"title":"向島プリズムパビリオン","architect":"岡河貢","year":1998.0,"address":"広島県尾道市向島町3090","latitude":34.37527847290039,"longitude":133.20672607421875,"category":"公民館・交流施設/図書館","big_category":"公共施設,文化施設","description":"","image_url":"","tags":"","prefecture":"広島","contractor":"","structural_designer":"","landscape_designer":"","shinkenchiku_url":""},{"id":5486,"title":"岡山市総合文化体育館","architect":"岡田新一","year":1983.0,"address":"岡山県岡山市南区浦安南町493-2","latitude":34.60009002685547,"longitude":133.91583251953125,"category":"体育館","big_category":"レジャー施設","description":"","image_url":"","tags":"","prefecture":"岡山","contractor":"","structural_designer":"","landscape_designer":"","shinkenchiku_url":""},{"id":5487,"title":"倉敷市少年自然の家","architect":"岡田新一","year":1976.0,"address":"岡山県倉敷市児島由加2708","latitude":34.50209426879883,"longitude":133.85293579101562,"category":"研修施設","big_category":"教育","description":"","image_url":"","tags":"","prefecture":"岡山","contractor":"","structural_designer":"","landscape_designer":"","shinkenchiku_url":""},{"id":5488,"title":"倉敷市立 玉島北中学校","architect":"いるか設計集団","year":1996.0,"address":"岡山県倉敷市玉島八島1529-1","latitude":34.5631217956543,"longitude":133.67076110839844,"category":"学校","big_category":"教育","description":"","image_url":"","tags":"","prefecture":"岡山","contractor":"","structural_designer":"","landscape_designer":"","shinkenchiku_url":""},{"id":5489,"title":"多田善昭建築設計事務所","architect":"多田善昭","year":1983.0,"address":"香川県丸亀市川西町北2049-1","latitude":34.265933990478516,"longitude":133.82272338867188,"category":"低層オフィス/住宅","big_category":"企業施設,住宅","description":"","image_url":"","tags":"","prefecture":"香川","contractor":"","structural_designer":"","landscape_designer":"","shinkenchiku_url":""},{"id":5490,"title":"倉敷公民館","architect":"浦辺鎮太郎","year":1969.0,"address":"岡山県倉敷市本町2-21","latitude":34.596923828125,"longitude":133.771728515625,"category":"公民館・交流施設","big_category":"公共施設","description":"","image_url":"","tags":"","prefecture":"岡山","contractor":"","structural_designer":"","landscape_designer":"","shinkenchiku_url":""},{"id":5491,"title":"児島の共同住宅","architect":"安藤忠雄","year":1981.0,"address":"岡山県倉敷市児島下の町2-2-12","latitude":34.472679138183594,"longitude":133.82138061523438,"category":"集合住宅","big_category":"住宅","description":"","image_url":"","tags":"","prefecture":"岡山","contractor":"","structural_designer":"","landscape_designer":"","shinkenchiku_url":""},{"id":5492,"title":"三十三メートル堂 瀬戸内市牛窓国際交流ヴィラ","architect":"石井和紘","year":1988.0,"address":"岡山県瀬戸内市牛窓町牛窓496","latitude":34.62482833862305,"longitude":134.1606903076172,"category":"ホテル","big_category":"宿泊","description":"公共の宿としてリニューアル","image_url":"","tags":"","prefecture":"岡山","contractor":"","structural_designer":"","landscape_designer":"","shinkenchiku_url":""},{"id":5493,"title":"馬指の診療所 和田内科医院","architect":"齊藤正","year":1997.0,"address":"香川県丸亀市綾歌町栗熊東506-1","latitude":34.23507308959961,"longitude":133.88217163085938,"category":"個人医院/住宅","big_category":"医療施設,住宅","description":"","image_url":"","tags":"","prefecture":"香川","contractor":"","structural_designer":"","landscape_designer":"","shinkenchiku_url":""},{"id":5494,"title":"長府博物館 旧長門尊攘堂","architect":"潮見長彦","year":1933.0,"address":"山口県下関市長府川端1-2-5","latitude":33.9954833984375,"longitude":130.98226928710938,"category":"博物館/洋館","big_category":"ミュージアム,近代建築/遺産","description":"","image_url":"","tags":"","prefecture":"山口","contractor":"","structural_designer":"","landscape_designer":"","shinkenchiku_url":""},{"id":5495,"title":"玖珂町東部コミュニティセンター","architect":"村重保則","year":1993.0,"address":"山口県岩国市玖珂町","latitude":34.10622024536133,"longitude":132.10293579101562,"category":"公民館・交流施設","big_category":"公共施設","description":"","image_url":"","tags":"","prefecture":"山口","contractor":"","structural_designer":"","landscape_designer":"","shinkenchiku_url":""},{"id":5496,"title":"白蛇資料館／白蛇神社","architect":"村重保則","year":1990.0,"address":"山口県岩国市今津町6-4-2","latitude":34.163761138916016,"longitude":132.21270751953125,"category":"寺院","big_category":"宗教","description":"","image_url":"","tags":"","prefecture":"山口","contractor":"","structural_designer":"","landscape_designer":"","shinkenchiku_url":""},{"id":5497,"title":"防府市青少年科学館ソラール","architect":"佐藤総合計画","year":1998.0,"address":"山口県防府市寿町6-41","latitude":34.04936981201172,"longitude":131.56158447265625,"category":"博物館","big_category":"ミュージアム","description":"","image_url":"","tags":"","prefecture":"山口","contractor":"","structural_designer":"","landscape_designer":"","shinkenchiku_url":""},{"id":5498,"title":"里山房","architect":"林魏建築設計","year":1997.0,"address":"愛媛県伊予郡砥部町宮内980","latitude":33.75520324707031,"longitude":132.79124450683594,"category":"ギャラリー/カフェ/住宅","big_category":"ミュージアム,商業施設,住宅","description":"","image_url":"","tags":"","prefecture":"愛媛","contractor":"","structural_designer":"","landscape_designer":"","shinkenchiku_url":""},{"id":5499,"title":"新居浜農業協同組合会館 JA新居浜市本館","architect":"大高正人","year":1967.0,"address":"愛媛県新居浜市田所町3-63","latitude":33.96228790283203,"longitude":133.28750610351562,"category":"組合施設","big_category":"公共施設","description":"","image_url":"","tags":"","prefecture":"愛媛","contractor":"","structural_designer":"","landscape_designer":"","shinkenchiku_url":""},{"id":5500,"title":"たからだの里 環の湯","architect":"佐藤昌平+浦山隆一","year":1998.0,"address":"香川県三豊市財田町財田上1110-8","latitude":34.109764099121094,"longitude":133.7960968017578,"category":"温泉","big_category":"宿泊","description":"","image_url":"","tags":"","prefecture":"香川","contractor":"","structural_designer":"","landscape_designer":"","shinkenchiku_url":""}]}