{"page":12,"total_pages":290,"items_per_page":50,"total_items":14467,"items":[{"id":551,"title":"アクアワールド大洗水族館","architect":"仙田満","year":2001.0,"address":"茨城県東茨城郡大洗町磯浜町8252-3","latitude":36.333499908447266,"longitude":140.5938262939453,"category":"水族館","big_category":"レジャー施設","description":"","image_url":"","tags":"","prefecture":"茨城","contractor":"","structural_designer":"","landscape_designer":"","shinkenchiku_url":""},{"id":552,"title":"しもだて地域交流センター アルテリオ ／ しもだて美術館","architect":"池原義郎","year":2003.0,"address":"茨城県筑西市丙372","latitude":36.309226989746094,"longitude":139.97906494140625,"category":"総合文化施設","big_category":"文化施設","description":"","image_url":"","tags":"","prefecture":"茨城","contractor":"","structural_designer":"","landscape_designer":"","shinkenchiku_url":""},{"id":553,"title":"筑西市立図書館","architect":"三上建築事務所","year":1998.0,"address":"茨城県筑西市下岡崎1-11-1","latitude":36.305545806884766,"longitude":139.984375,"category":"図書館","big_category":"文化施設","description":"","image_url":"","tags":"2023年JIA25年賞 登録作品","prefecture":"茨城","contractor":"戸田建設・ヨコタ特定建設工事共同企業体","structural_designer":"","landscape_designer":"","shinkenchiku_url":""},{"id":554,"title":"潮来市立図書館","architect":"三上建築事務所","year":2006.0,"address":"茨城県潮来市牛堀289","latitude":35.959129333496094,"longitude":140.5156707763672,"category":"図書館","big_category":"文化施設","description":"","image_url":"","tags":"","prefecture":"茨城","contractor":"","structural_designer":"","landscape_designer":"","shinkenchiku_url":""},{"id":555,"title":"土浦第一高校旧本館 ／ 講堂","architect":"駒杵勤治","year":1904.0,"address":"茨城県土浦市真鍋4-4-2","latitude":36.09817886352539,"longitude":140.20269775390625,"category":"洋館","big_category":"近代建築/遺産","description":"","image_url":"","tags":"","prefecture":"茨城","contractor":"","structural_designer":"","landscape_designer":"","shinkenchiku_url":""},{"id":556,"title":"日立シビックセンター","architect":"坂倉建築研究所","year":1991.0,"address":"茨城県日立市幸町1-21-1","latitude":36.59025192260742,"longitude":140.65953063964844,"category":"ホール・劇場/公民館・交流施設/総合文化施設","big_category":"文化施設,公共施設,文化施設","description":"","image_url":"","tags":"","prefecture":"茨城","contractor":"","structural_designer":"","landscape_designer":"","shinkenchiku_url":""},{"id":557,"title":"日立駅","architect":"妹島和世+ジェイアール東日本建築設計事務所","year":2011.0,"address":"茨城県日立市幸町1-1-1","latitude":36.58955764770508,"longitude":140.6616668701172,"category":"駅","big_category":"インフラ","description":"","image_url":"","tags":"","prefecture":"茨城","contractor":"","structural_designer":"","landscape_designer":"","shinkenchiku_url":""},{"id":558,"title":"金馬車本社ビル","architect":"妹島和世","year":1997.0,"address":"茨城県日立市幸町2-1-10","latitude":36.58915710449219,"longitude":140.65878295898438,"category":"企業施設","big_category":"企業施設","description":"","image_url":"","tags":"","prefecture":"茨城","contractor":"","structural_designer":"","landscape_designer":"","shinkenchiku_url":""},{"id":559,"title":"茨城キリスト教大学 サンタ・キアラ館 ／ サン・セバスチャン館","architect":"白井晟一","year":1974.0,"address":"茨城県日立市大みか町6-11-1","latitude":36.51298522949219,"longitude":140.61627197265625,"category":"教会","big_category":"宗教","description":"","image_url":"","tags":"","prefecture":"茨城","contractor":"","structural_designer":"","landscape_designer":"","shinkenchiku_url":""},{"id":560,"title":"吉田正音楽記念館","architect":"内井昭蔵","year":2004.0,"address":"茨城県日立市宮田町5-2-25","latitude":36.61042022705078,"longitude":140.65626525878906,"category":"ホール・劇場","big_category":"文化施設","description":"","image_url":"","tags":"","prefecture":"茨城","contractor":"","structural_designer":"","landscape_designer":"","shinkenchiku_url":""},{"id":561,"title":"八千代町役場庁舎","architect":"梓設計","year":2006.0,"address":"茨城県結城郡八千代町菅谷1170","latitude":36.18163299560547,"longitude":139.89114379882812,"category":"庁舎","big_category":"公共施設","description":"","image_url":"","tags":"","prefecture":"茨城","contractor":"","structural_designer":"","landscape_designer":"","shinkenchiku_url":""},{"id":562,"title":"茨城県天心記念五浦美術館","architect":"内藤廣","year":1997.0,"address":"茨城県北茨城市大津町2083","latitude":36.839473724365234,"longitude":140.79942321777344,"category":"美術館","big_category":"ミュージアム","description":"","image_url":"","tags":"","prefecture":"茨城","contractor":"","structural_designer":"","landscape_designer":"","shinkenchiku_url":""},{"id":563,"title":"五浦六角堂","architect":"岡倉天心","year":1905.0,"address":"茨城県北茨城市大津町 六角堂","latitude":36.833412170410156,"longitude":140.80332946777344,"category":"寺院","big_category":"宗教","description":"","image_url":"","tags":"","prefecture":"茨城","contractor":"","structural_designer":"","landscape_designer":"","shinkenchiku_url":""},{"id":564,"title":"石岡第一発電所施設","architect":"不明","year":1911.0,"address":"茨城県北茨城市中郷町石岡17-3","latitude":36.777565002441406,"longitude":140.67953491210938,"category":"産業遺産","big_category":"近代建築/遺産","description":"","image_url":"","tags":"","prefecture":"茨城","contractor":"","structural_designer":"","landscape_designer":"","shinkenchiku_url":""},{"id":565,"title":"岩宿博物館","architect":"田中俊行","year":1992.0,"address":"群馬県みどり市笠懸町阿左美1790-1","latitude":36.398956298828125,"longitude":139.2855224609375,"category":"美術館","big_category":"ミュージアム","description":"","image_url":"","tags":"","prefecture":"群馬","contractor":"","structural_designer":"","landscape_designer":"","shinkenchiku_url":""},{"id":566,"title":"コノドント館 みどり市大間々博物館","architect":"小林力雄","year":1921.0,"address":"群馬県みどり市大間々町大間々1030","latitude":36.43526840209961,"longitude":139.2745819091797,"category":"洋館","big_category":"近代建築/遺産","description":"","image_url":"","tags":"","prefecture":"群馬","contractor":"","structural_designer":"","landscape_designer":"","shinkenchiku_url":""},{"id":567,"title":"富弘美術館","architect":"ヨコミゾマコト","year":2005.0,"address":"群馬県みどり市東町草木86","latitude":36.552555084228516,"longitude":139.37283325195312,"category":"美術館","big_category":"ミュージアム","description":"","image_url":"https://lh3.googleusercontent.com/-26YkGfesxJ8/UCivMzdujCI/AAAAAAABGbg/a5aYCIhIc1M/s1440/lr-7024779.jpg","tags":"2006年日本建築学会 作品賞,2006年度日本建築家協会賞","prefecture":"群馬","contractor":"","structural_designer":"","landscape_designer":"","shinkenchiku_url":""},{"id":568,"title":"天一美術館","architect":"吉村順三","year":1997.0,"address":"群馬県利根郡みなかみ町谷川508-2","latitude":36.79022979736328,"longitude":138.95486450195312,"category":"美術館","big_category":"ミュージアム","description":"","image_url":"","tags":"","prefecture":"群馬","contractor":"","structural_designer":"","landscape_designer":"","shinkenchiku_url":""},{"id":569,"title":"松井田町文化財資料室展示コーナー 旧松井田町役場","architect":"白井晟一","year":1956.0,"address":"群馬県安中市松井田町新堀1415","latitude":36.316673278808594,"longitude":138.794921875,"category":"博物館/公共施設","big_category":"ミュージアム,公共施設","description":"休館とあるが内部見学は可能","image_url":"","tags":"DOCOMOMO","prefecture":"群馬","contractor":"","structural_designer":"","landscape_designer":"","shinkenchiku_url":""},{"id":570,"title":"群馬県農業技術センター","architect":"SALHAUS","year":2013.0,"address":"群馬県伊勢崎市西小保方町493","latitude":36.34632873535156,"longitude":139.2311248779297,"category":"公共施設","big_category":"公共施設","description":"","image_url":"","tags":"2015年日本建築学会 作品選奨","prefecture":"群馬","contractor":"","structural_designer":"","landscape_designer":"","shinkenchiku_url":""},{"id":571,"title":"製粉ミュージアム","architect":"清水建設","year":2012.0,"address":"群馬県館林市栄町6-1","latitude":36.24531173706055,"longitude":139.52671813964844,"category":"美術館","big_category":"ミュージアム","description":"","image_url":"","tags":"","prefecture":"群馬","contractor":"","structural_designer":"","landscape_designer":"","shinkenchiku_url":""},{"id":572,"title":"正田醤油正田記念館","architect":"不明","year":1853.0,"address":"群馬県館林市栄町3-1","latitude":36.2479362487793,"longitude":139.5260009765625,"category":"洋館","big_category":"近代建築/遺産","description":"正田醤油（株）","image_url":"","tags":"","prefecture":"群馬","contractor":"","structural_designer":"","landscape_designer":"","shinkenchiku_url":""},{"id":573,"title":"L'AUTRE MAISON 西ノ洞","architect":"丸山欣也","year":1985.0,"address":"群馬県館林市大手町6-41","latitude":36.24657440185547,"longitude":139.53924560546875,"category":"レストラン","big_category":"商業施設","description":"","image_url":"","tags":"","prefecture":"群馬","contractor":"","structural_designer":"","landscape_designer":"","shinkenchiku_url":""},{"id":574,"title":"館林市第二資料館 旧上毛モスリン事務所","architect":"不明","year":null,"address":"群馬県館林市城町2-3 ‎","latitude":36.24427032470703,"longitude":139.54566955566406,"category":"洋館","big_category":"近代建築/遺産","description":"","image_url":"","tags":"","prefecture":"群馬","contractor":"","structural_designer":"","landscape_designer":"","shinkenchiku_url":""},{"id":575,"title":"群馬県立館林美術館","architect":"高橋靗一","year":2001.0,"address":"群馬県館林市日向町2003","latitude":36.266212463378906,"longitude":139.5059051513672,"category":"美術館","big_category":"ミュージアム","description":"","image_url":"https://farm4.staticflickr.com/3700/8944675691_1bfc600f1b_h.jpg","tags":"2004年村野藤吾賞","prefecture":"群馬","contractor":"","structural_designer":"","landscape_designer":"","shinkenchiku_url":""},{"id":576,"title":"多胡碑記念館","architect":"木村優","year":1996.0,"address":"群馬県高崎市吉井町池1085","latitude":36.26530456542969,"longitude":138.99693298339844,"category":"博物館","big_category":"ミュージアム","description":"","image_url":"","tags":"","prefecture":"群馬","contractor":"","structural_designer":"","landscape_designer":"","shinkenchiku_url":""},{"id":577,"title":"道の駅 よしおか温泉","architect":"宮崎浩","year":2010.0,"address":"群馬県北群馬郡吉岡町漆原2004","latitude":36.441341400146484,"longitude":139.03517150878906,"category":"PA・道の駅","big_category":"インフラ","description":"","image_url":"","tags":"","prefecture":"群馬","contractor":"","structural_designer":"","landscape_designer":"","shinkenchiku_url":""},{"id":578,"title":"桐生市市民文化会館","architect":"坂倉建築研究所","year":1997.0,"address":"群馬県桐生市織姫町2-5","latitude":36.40464401245117,"longitude":139.3294677734375,"category":"ホール・劇場","big_category":"文化施設","description":"","image_url":"","tags":"","prefecture":"群馬","contractor":"","structural_designer":"","landscape_designer":"","shinkenchiku_url":""},{"id":579,"title":"県立ぐんま昆虫の森 昆虫観察館","architect":"安藤忠雄","year":2004.0,"address":"群馬県桐生市新里町鶴ヶ谷460-1","latitude":36.43596649169922,"longitude":139.2509002685547,"category":"博物館","big_category":"ミュージアム","description":"","image_url":"","tags":"","prefecture":"群馬","contractor":"","structural_designer":"","landscape_designer":"","shinkenchiku_url":""},{"id":580,"title":"大川美術館","architect":"松本莞","year":1988.0,"address":"群馬県桐生市小曾根町3-69","latitude":36.41683578491211,"longitude":139.3340301513672,"category":"美術館","big_category":"ミュージアム","description":"","image_url":"","tags":"","prefecture":"群馬","contractor":"","structural_designer":"","landscape_designer":"","shinkenchiku_url":""},{"id":581,"title":"桐生明治館","architect":"不明","year":1878.0,"address":"群馬県桐生市相生町2-414-6","latitude":36.41214370727539,"longitude":139.3095245361328,"category":"洋館","big_category":"近代建築/遺産","description":"","image_url":"","tags":"","prefecture":"群馬","contractor":"","structural_designer":"","landscape_designer":"","shinkenchiku_url":""},{"id":582,"title":"高崎哲学堂 旧井上房一郎邸","architect":"アントニン・レーモンド","year":1952.0,"address":"群馬県高崎市八島町82-1","latitude":36.32070541381836,"longitude":139.01010131835938,"category":"住宅","big_category":"住宅","description":"","image_url":"","tags":"","prefecture":"群馬","contractor":"","structural_designer":"","landscape_designer":"","shinkenchiku_url":""},{"id":583,"title":"高崎市立桜山小学校","architect":"古谷誠章","year":2009.0,"address":"群馬県高崎市棟高町2489-1","latitude":36.372535705566406,"longitude":139.00643920898438,"category":"学校","big_category":"教育","description":"","image_url":"","tags":"2011年日本建築学会 作品選奨","prefecture":"群馬","contractor":"","structural_designer":"","landscape_designer":"","shinkenchiku_url":""},{"id":584,"title":"森の教会","architect":"小川博央","year":2011.0,"address":"群馬県高崎市上大類町845","latitude":36.33713150024414,"longitude":139.0270233154297,"category":"教会","big_category":"宗教","description":"","image_url":"","tags":"","prefecture":"群馬","contractor":"","structural_designer":"","landscape_designer":"","shinkenchiku_url":""},{"id":585,"title":"高崎市総合保健センター・高崎市立中央図書館","architect":"佐藤総合計画","year":2011.0,"address":"群馬県高崎市高松町5-28","latitude":36.32537078857422,"longitude":139.00181579589844,"category":"図書館/福祉センター","big_category":"文化施設,医療施設","description":"","image_url":"","tags":"","prefecture":"群馬","contractor":"","structural_designer":"","landscape_designer":"","shinkenchiku_url":""},{"id":586,"title":"WESTPARK 1000","architect":"隈研吾","year":2001.0,"address":"群馬県高崎市旭町68-4","latitude":36.32528305053711,"longitude":139.01161193847656,"category":"駐車・駐輪場","big_category":"公共施設","description":"","image_url":"","tags":"","prefecture":"群馬","contractor":"","structural_designer":"","landscape_designer":"","shinkenchiku_url":""},{"id":587,"title":"国分寺跡ガイダンス施設 上野国分寺館","architect":"広瀬鎌二+文化財保存計画協会","year":1997.0,"address":"群馬県高崎市引間町250-1","latitude":36.39333724975586,"longitude":139.02159118652344,"category":"博物館","big_category":"ミュージアム","description":"","image_url":"","tags":"新建築1997年9月号","prefecture":"群馬","contractor":"","structural_designer":"","landscape_designer":"","shinkenchiku_url":""},{"id":588,"title":"山田文庫","architect":"不明","year":null,"address":"群馬県高崎市常盤町25","latitude":36.32954025268555,"longitude":138.99734497070312,"category":"図書館","big_category":"文化施設","description":"","image_url":"","tags":"","prefecture":"群馬","contractor":"","structural_designer":"","landscape_designer":"","shinkenchiku_url":""},{"id":589,"title":"群馬県立歴史博物館","architect":"大高正人","year":1979.0,"address":"群馬県高崎市綿貫町992-1","latitude":36.29854965209961,"longitude":139.07940673828125,"category":"博物館","big_category":"ミュージアム","description":"","image_url":"","tags":"2007年JIA25年賞","prefecture":"群馬","contractor":"","structural_designer":"","landscape_designer":"","shinkenchiku_url":""},{"id":590,"title":"群馬県立近代美術館","architect":"磯崎新","year":1974.0,"address":"群馬県高崎市綿貫町992-1","latitude":36.29873275756836,"longitude":139.07864379882812,"category":"美術館","big_category":"ミュージアム","description":"","image_url":"https://farm8.staticflickr.com/7445/8892257743_be8674ed02_h.jpg","tags":"1975年日本建築学会 作品賞,公共建築百選,DOCOMOMO","prefecture":"群馬","contractor":"","structural_designer":"","landscape_designer":"","shinkenchiku_url":""},{"id":591,"title":"群馬音楽センター ／ 群馬シンフォニーホール","architect":"アントニン・レーモンド","year":1961.0,"address":"群馬県高崎市高松町28-2","latitude":36.323524475097656,"longitude":139.00360107421875,"category":"ホール・劇場","big_category":"文化施設","description":"","image_url":"https://farm3.staticflickr.com/2832/9253907309_c38062dc97_h.jpg","tags":"公共建築百選,DOCOMOMO","prefecture":"群馬","contractor":"","structural_designer":"","landscape_designer":"","shinkenchiku_url":""},{"id":592,"title":"県立ぐんま天文台","architect":"磯崎新","year":1999.0,"address":"群馬県吾妻郡高山村中山6860-86","latitude":36.59714889526367,"longitude":138.973388671875,"category":"博物館","big_category":"ミュージアム","description":"","image_url":"https://farm9.staticflickr.com/8255/8897782972_e8954b5b4c_h.jpg","tags":"","prefecture":"群馬","contractor":"","structural_designer":"","landscape_designer":"","shinkenchiku_url":""},{"id":593,"title":"竹久夢二伊香保記念館","architect":"不明","year":null,"address":"群馬県渋川市伊香保町544-119","latitude":36.49968719482422,"longitude":138.92715454101562,"category":"洋館","big_category":"近代建築/遺産","description":"","image_url":"","tags":"","prefecture":"群馬","contractor":"","structural_designer":"","landscape_designer":"","shinkenchiku_url":""},{"id":594,"title":"渋川市北橘総合支所","architect":"内井昭蔵","year":2000.0,"address":"群馬県渋川市北橘町真壁2372-1","latitude":36.48115921020508,"longitude":139.046142578125,"category":"庁舎","big_category":"公共施設","description":"","image_url":"","tags":"","prefecture":"群馬","contractor":"","structural_designer":"","landscape_designer":"","shinkenchiku_url":""},{"id":595,"title":"ハラミュージアムアーク","architect":"磯崎新","year":1988.0,"address":"群馬県渋川市金井2844-1","latitude":36.49989700317383,"longitude":138.94540405273438,"category":"美術館","big_category":"ミュージアム","description":"","image_url":"https://farm3.staticflickr.com/2865/8942153879_fbbe78d09c_h.jpg","tags":"2010年日本建築学会 作品選奨","prefecture":"群馬","contractor":"","structural_designer":"","landscape_designer":"","shinkenchiku_url":""},{"id":596,"title":"伊香保グリーン牧場 森のカフェ \"Green Leaf\"","architect":"kw+hgアーキテクツ","year":2010.0,"address":"群馬県渋川市金井2844-1","latitude":36.5011100769043,"longitude":138.94688415527344,"category":"カフェ","big_category":"商業施設","description":"","image_url":"","tags":"","prefecture":"群馬","contractor":"","structural_designer":"","landscape_designer":"","shinkenchiku_url":""},{"id":597,"title":"郷土人物資料館 旧土岐邸洋館","architect":"不明","year":null,"address":"群馬県沼田市西倉内町594 ","latitude":36.648685455322266,"longitude":139.0402374267578,"category":"洋館","big_category":"近代建築/遺産","description":"東京から移築　沼田公園内","image_url":"","tags":"","prefecture":"群馬","contractor":"","structural_designer":"","landscape_designer":"","shinkenchiku_url":""},{"id":598,"title":"上野村ふれあい館","architect":"湯澤正信","year":2003.0,"address":"群馬県多野郡上野村楢原316-1","latitude":36.08774948120117,"longitude":138.72445678710938,"category":"PA・道の駅","big_category":"インフラ","description":"","image_url":"","tags":"","prefecture":"群馬","contractor":"","structural_designer":"","landscape_designer":"","shinkenchiku_url":""},{"id":599,"title":"神流町中里合同庁舎","architect":"古谷誠章","year":2003.0,"address":"群馬県多野郡神流町神ヶ原427-1","latitude":36.09124755859375,"longitude":138.82757568359375,"category":"庁舎","big_category":"公共施設","description":"","image_url":"","tags":"","prefecture":"群馬","contractor":"","structural_designer":"","landscape_designer":"","shinkenchiku_url":""},{"id":600,"title":"神流町立中里中学校体育館","architect":"古谷誠章","year":2004.0,"address":"群馬県多野郡神流町神ヶ原422","latitude":36.0921630859375,"longitude":138.8285675048828,"category":"学校/体育館","big_category":"教育,レジャー施設","description":"","image_url":"","tags":"","prefecture":"群馬","contractor":"","structural_designer":"","landscape_designer":"","shinkenchiku_url":""}]}