{"page":232,"total_pages":290,"items_per_page":50,"total_items":14467,"items":[{"id":11551,"title":"明治村 品川燈台","architect":"レオンス・ヴェルニー","year":1870.0,"address":"愛知県犬山市内山1","latitude":35.34163284301758,"longitude":136.99412536621094,"category":"公共施設/テーマパーク","big_category":"公共施設,レジャー施設","description":"","image_url":"","tags":"登録有形文化財,Ver4.50(2022年6月)の追加建築","prefecture":"愛知","contractor":"","structural_designer":"","landscape_designer":"","shinkenchiku_url":""},{"id":11552,"title":"明治村 日本赤十字社中央病院病棟","architect":"片山東熊","year":1890.0,"address":"愛知県犬山市内山1","latitude":35.343021392822266,"longitude":136.9910430908203,"category":"病院/テーマパーク","big_category":"医療施設,レジャー施設","description":"","image_url":"","tags":"登録有形文化財,Ver4.50(2022年6月)の追加建築","prefecture":"愛知","contractor":"","structural_designer":"","landscape_designer":"","shinkenchiku_url":""},{"id":11553,"title":"明治村 宇治山田郵便局舎","architect":"白石圓治","year":1909.0,"address":"愛知県犬山市内山1","latitude":35.34443283081055,"longitude":136.9906005859375,"category":"公共施設/テーマパーク","big_category":"公共施設,レジャー施設","description":"","image_url":"","tags":"重要文化財,Ver4.50(2022年6月)の追加建築","prefecture":"愛知","contractor":"","structural_designer":"","landscape_designer":"","shinkenchiku_url":""},{"id":11554,"title":"明治村 聖ザビエル天主堂","architect":"エドモンド・パピノ","year":1890.0,"address":"愛知県犬山市内山1","latitude":35.345481872558594,"longitude":136.98968505859375,"category":"教会/テーマパーク","big_category":"宗教,レジャー施設","description":"","image_url":"","tags":"登録有形文化財,Ver4.50(2022年6月)の追加建築","prefecture":"愛知","contractor":"","structural_designer":"","landscape_designer":"","shinkenchiku_url":""},{"id":11555,"title":"明治村 川崎銀行本店","architect":"矢部又吉","year":1927.0,"address":"愛知県犬山市内山1","latitude":35.34658432006836,"longitude":136.99049377441406,"category":"金融機関/テーマパーク","big_category":"企業施設,レジャー施設","description":"","image_url":"","tags":"登録有形文化財,Ver4.50(2022年6月)の追加建築","prefecture":"愛知","contractor":"","structural_designer":"","landscape_designer":"","shinkenchiku_url":""},{"id":11556,"title":"明治村 内閣文庫","architect":"大熊喜邦","year":1911.0,"address":"愛知県犬山市内山1","latitude":35.34703063964844,"longitude":136.99000549316406,"category":"図書館/テーマパーク","big_category":"文化施設,レジャー施設","description":"","image_url":"","tags":"登録有形文化財,Ver4.50(2022年6月)の追加建築","prefecture":"愛知","contractor":"","structural_designer":"","landscape_designer":"","shinkenchiku_url":""},{"id":11557,"title":"明治村 大明寺聖パウロ教会堂","architect":"オーギュスト・ブレル+大渡伊勢吉","year":1879.0,"address":"愛知県犬山市内山1","latitude":35.34626770019531,"longitude":136.99095153808594,"category":"教会/テーマパーク","big_category":"宗教,レジャー施設","description":"","image_url":"","tags":"登録有形文化財,Ver4.50(2022年6月)の追加建築","prefecture":"愛知","contractor":"","structural_designer":"","landscape_designer":"","shinkenchiku_url":""},{"id":11558,"title":"COMICO ART HOUSE YUFUIN 土棟・竹土棟","architect":"隈研吾","year":2021.0,"address":"大分県由布市湯布院町川上2995-1","latitude":33.26516342163086,"longitude":131.3614959716797,"category":"コテージ","big_category":"宿泊","description":"一棟貸しの宿が二棟","image_url":"","tags":"Ver4.50(2022年6月)の追加建築","prefecture":"大分","contractor":"","structural_designer":"","landscape_designer":"","shinkenchiku_url":""},{"id":11559,"title":"アルカディア市ヶ谷 私学会館 旧私学会館本館","architect":"高宮眞介","year":1985.0,"address":"東京都千代田区九段北4-2-25","latitude":35.69193649291992,"longitude":139.7376251220703,"category":"ホテル","big_category":"宿泊","description":"","image_url":"","tags":"Ver4.50(2022年6月)の追加建築","prefecture":"東京","contractor":"","structural_designer":"","landscape_designer":"","shinkenchiku_url":""},{"id":11560,"title":"日本大学 理工学部駿河台校舎1号館","architect":"高宮眞介","year":2002.0,"address":"東京都千代田区神田駿河台1-8-14","latitude":35.69758224487305,"longitude":139.7636260986328,"category":"大学","big_category":"教育","description":"","image_url":"","tags":"Ver4.50(2022年6月)の追加建築","prefecture":"東京","contractor":"","structural_designer":"","landscape_designer":"","shinkenchiku_url":""},{"id":11561,"title":"ホエールタウンおしか","architect":"佐藤総合計画","year":2019.0,"address":"宮城県石巻市鮎川浜南43-1","latitude":38.29491424560547,"longitude":141.51010131835938,"category":"店舗/博物館","big_category":"商業施設,ミュージアム","description":"","image_url":"","tags":"Ver4.50(2022年6月)の追加建築","prefecture":"宮城","contractor":"","structural_designer":"","landscape_designer":"","shinkenchiku_url":""},{"id":11562,"title":"東京都公文書館","architect":"佐藤総合計画","year":2020.0,"address":"東京都国分寺市泉町2-2-21","latitude":35.69757080078125,"longitude":139.46986389160156,"category":"公共施設/図書館","big_category":"公共施設,文化施設","description":"","image_url":"","tags":"Ver4.50(2022年6月)の追加建築","prefecture":"東京","contractor":"","structural_designer":"","landscape_designer":"","shinkenchiku_url":""},{"id":11563,"title":"品川区後地小学校","architect":"佐藤総合計画","year":2021.0,"address":"東京都品川区小山2-4-6","latitude":35.621551513671875,"longitude":139.70867919921875,"category":"学校","big_category":"教育","description":"","image_url":"","tags":"Ver4.50(2022年6月)の追加建築","prefecture":"東京","contractor":"","structural_designer":"","landscape_designer":"","shinkenchiku_url":""},{"id":11564,"title":"千葉大学 アカデミック・リンク松戸","architect":"佐藤総合計画","year":2019.0,"address":"千葉県松戸市松戸648","latitude":35.775657653808594,"longitude":139.90086364746094,"category":"大学/図書館","big_category":"教育,文化施設","description":"","image_url":"","tags":"Ver4.50(2022年6月)の追加建築","prefecture":"千葉","contractor":"","structural_designer":"","landscape_designer":"","shinkenchiku_url":""},{"id":11565,"title":"鳥飼八幡宮 祖霊殿","architect":"二宮設計","year":2021.0,"address":"福岡県福岡市中央区今川2-1-17","latitude":33.58735275268555,"longitude":130.3656463623047,"category":"霊園","big_category":"宗教","description":"","image_url":"","tags":"Ver4.50(2022年6月)の追加建築","prefecture":"福岡","contractor":"","structural_designer":"","landscape_designer":"","shinkenchiku_url":""},{"id":11566,"title":"トウ カフェ&ギャラリー","architect":"二宮設計","year":2017.0,"address":"沖縄県中頭郡読谷村伊良皆578","latitude":26.385332107543945,"longitude":127.752685546875,"category":"カフェ/ギャラリー","big_category":"商業施設,ミュージアム","description":"","image_url":"","tags":"Ver4.50(2022年6月)の追加建築","prefecture":"沖縄","contractor":"","structural_designer":"","landscape_designer":"","shinkenchiku_url":""},{"id":11567,"title":"オキナワ・デンタルオフィス","architect":"二宮設計","year":2014.0,"address":"沖縄県島尻郡島尻郡南風原町津嘉山1339-1","latitude":26.191497802734375,"longitude":127.71417236328125,"category":"個人医院","big_category":"医療施設","description":"","image_url":"","tags":"Ver4.50(2022年6月)の追加建築","prefecture":"沖縄","contractor":"","structural_designer":"","landscape_designer":"","shinkenchiku_url":""},{"id":11568,"title":"鹿児島世界文化遺産オリエンテーションセンター","architect":"西村浩+熊谷玄","year":2019.0,"address":"鹿児島県鹿児島市吉野町9700-1","latitude":31.61760711669922,"longitude":130.57691955566406,"category":"博物館","big_category":"ミュージアム","description":"","image_url":"","tags":"Ver4.50(2022年6月)の追加建築","prefecture":"鹿児島","contractor":"","structural_designer":"","landscape_designer":"","shinkenchiku_url":""},{"id":11569,"title":"としま緑の防災公園 イケ・サンパーク","architect":"北村大作+日総建+山路哲生","year":2020.0,"address":"東京都豊島区東池袋4-42","latitude":35.7271728515625,"longitude":139.7218475341797,"category":"公園","big_category":"レジャー施設","description":"","image_url":"","tags":"Ver4.50(2022年6月)の追加建築","prefecture":"東京","contractor":"","structural_designer":"","landscape_designer":"","shinkenchiku_url":""},{"id":11570,"title":"宇多津クリニック 大河原歯科・口腔外科","architect":"山路哲生","year":2021.0,"address":"香川県綾歌郡宇多津町浜五番丁51-2","latitude":34.308902740478516,"longitude":133.81268310546875,"category":"個人医院","big_category":"医療施設","description":"","image_url":"","tags":"Ver4.50(2022年6月)の追加建築","prefecture":"香川","contractor":"","structural_designer":"","landscape_designer":"","shinkenchiku_url":""},{"id":11571,"title":"栃木県総合運動公園陸上競技場 カンセキスタジアムとちぎ","architect":"久米設計+AIS総合設計+本澤建築設計事務所","year":2020.0,"address":"栃木県宇都宮市西川田2-4","latitude":36.514930725097656,"longitude":139.85755920410156,"category":"スタジアム","big_category":"レジャー施設","description":"","image_url":"","tags":"Ver4.50(2022年6月)の追加建築","prefecture":"栃木","contractor":"","structural_designer":"","landscape_designer":"","shinkenchiku_url":""},{"id":11572,"title":"Hi-NODE TOKYO HiNODE PiER","architect":"野村不動産","year":2019.0,"address":"東京都港区海岸2-7-103","latitude":35.65165328979492,"longitude":139.7607421875,"category":"港","big_category":"インフラ","description":"","image_url":"","tags":"Ver4.50(2022年6月)の追加建築","prefecture":"東京","contractor":"","structural_designer":"","landscape_designer":"","shinkenchiku_url":""},{"id":11573,"title":"ほにほに柳沢","architect":"大森典子","year":2019.0,"address":"岩手県滝沢市大石渡1522-6","latitude":39.8033447265625,"longitude":141.0931854248047,"category":"公民館・交流施設","big_category":"公共施設","description":"","image_url":"","tags":"Ver4.50(2022年6月)の追加建築","prefecture":"岩手","contractor":"","structural_designer":"","landscape_designer":"","shinkenchiku_url":""},{"id":11574,"title":"etto 宮島交流館","architect":"あい設計","year":2021.0,"address":"広島県廿日市市宮島町412","latitude":34.2968864440918,"longitude":132.32130432128906,"category":"公民館・交流施設/観光施設","big_category":"公共施設,レジャー施設","description":"","image_url":"","tags":"Ver4.50(2022年6月)の追加建築","prefecture":"広島","contractor":"","structural_designer":"","landscape_designer":"","shinkenchiku_url":""},{"id":11575,"title":"ラポルテ五泉","architect":"香山壽夫","year":2021.0,"address":"新潟県五泉市赤海863","latitude":37.74431228637695,"longitude":139.19293212890625,"category":"総合文化施設/ホール・劇場","big_category":"文化施設,文化施設","description":"","image_url":"","tags":"Ver4.50(2022年6月)の追加建築","prefecture":"新潟","contractor":"","structural_designer":"","landscape_designer":"","shinkenchiku_url":""},{"id":11576,"title":"いろどりの丘","architect":"本間充一","year":2021.0,"address":"宮城県東松島市野蒜ケ丘2-25-2","latitude":38.3775749206543,"longitude":141.14613342285156,"category":"医療施設/カフェ/温泉","big_category":"医療施設,商業施設,宿泊","description":"","image_url":"","tags":"Ver4.50(2022年6月)の追加建築","prefecture":"宮城","contractor":"","structural_designer":"","landscape_designer":"","shinkenchiku_url":""},{"id":11577,"title":"長崎鼻ビーチリゾート 海辺のパビリオン","architect":"大塚優+二宮設計+TOASt","year":2018.0,"address":"大分県豊後高田市見目4060","latitude":33.68186950683594,"longitude":131.52581787109375,"category":"公園","big_category":"レジャー施設","description":"二期に分かれて整備。一期2018年竣工、二期2019年竣工","image_url":"","tags":"Ver4.50(2022年6月)の追加建築","prefecture":"大分","contractor":"","structural_designer":"","landscape_designer":"","shinkenchiku_url":""},{"id":11578,"title":"北九州市立大学 メルディア高機能木材研究所","architect":"福田展淳","year":2020.0,"address":"福岡県北九州市若松区ひびきの1-1","latitude":33.889095306396484,"longitude":130.71469116210938,"category":"大学/研究施設","big_category":"教育,教育","description":"","image_url":"","tags":"Ver4.50(2022年6月)の追加建築","prefecture":"福岡","contractor":"","structural_designer":"","landscape_designer":"","shinkenchiku_url":""},{"id":11579,"title":"京都府警察本部","architect":"久米設計","year":2020.0,"address":"京都府京都市上京区下長者町通新町西入藪之内町85-3","latitude":35.02102279663086,"longitude":135.75624084472656,"category":"警察・消防署","big_category":"公共施設","description":"","image_url":"","tags":"Ver4.50(2022年6月)の追加建築","prefecture":"京都","contractor":"","structural_designer":"","landscape_designer":"","shinkenchiku_url":""},{"id":11580,"title":"湖里庵","architect":"左嵜晋吾+オークヴィレッジ木造建築研究所","year":2021.0,"address":"滋賀県高島市マキノ町海津2307","latitude":35.463905334472656,"longitude":136.07400512695312,"category":"旅館/料亭","big_category":"宿泊,商業施設","description":"","image_url":"","tags":"Ver4.50(2022年6月)の追加建築","prefecture":"滋賀","contractor":"","structural_designer":"","landscape_designer":"","shinkenchiku_url":""},{"id":11581,"title":"八ヶ岳高原ヒュッテ","architect":"渡辺仁","year":1934.0,"address":"長野県南佐久郡南牧村海ノ口2244-1","latitude":35.98940658569336,"longitude":138.43800354003906,"category":"洋館/レストラン/カフェ","big_category":"近代建築/遺産,商業施設,商業施設","description":"1968年東京目白より移築され、2019年7月にリニューアル。現在はレストラン、カフェ、結婚式場","image_url":"","tags":"登録有形文化財,Ver4.60(2022年8月)の追加建築","prefecture":"長野","contractor":"","structural_designer":"","landscape_designer":"","shinkenchiku_url":""},{"id":11582,"title":"The Naoshima Plan 「住」 / 直島の長屋 下津寮","architect":"三分一博志","year":2022.0,"address":"香川県香川郡直島町宮ノ浦2310-18","latitude":34.45954513549805,"longitude":133.9750518798828,"category":"ギャラリー/古民家/寮","big_category":"ミュージアム,近代建築/遺産,住宅","description":"","image_url":"","tags":"新建築2022年7月号,瀬戸内国際芸術祭,Ver4.60(2022年8月)の追加建築,新建築2023年10月号","prefecture":"香川","contractor":"","structural_designer":"","landscape_designer":"","shinkenchiku_url":""},{"id":11583,"title":"The Naoshima Plan 「水」","architect":"三分一博志","year":2019.0,"address":"香川県香川郡直島町本村707","latitude":34.46042251586914,"longitude":133.99624633789062,"category":"ギャラリー/古民家","big_category":"ミュージアム,近代建築/遺産","description":"","image_url":"","tags":"瀬戸内国際芸術祭,Ver4.60(2022年8月)の追加建築","prefecture":"香川","contractor":"","structural_designer":"","landscape_designer":"","shinkenchiku_url":""},{"id":11584,"title":"新建築社 小豆島ハウス","architect":"砂木","year":2022.0,"address":"香川県小豆郡小豆島町坂手","latitude":34.45575714111328,"longitude":134.32467651367188,"category":"ギャラリー/古民家","big_category":"ミュージアム,近代建築/遺産","description":"","image_url":"","tags":"新建築2022年7月号,瀬戸内国際芸術祭,Ver4.60(2022年8月)の追加建築,新建築2022年11月号","prefecture":"香川","contractor":"","structural_designer":"","landscape_designer":"","shinkenchiku_url":""},{"id":11585,"title":"INN THE PARK福岡","architect":"馬場正尊+米田真大","year":2022.0,"address":"福岡県東区西戸崎18-26","latitude":33.66743850708008,"longitude":130.3758087158203,"category":"公園/コテージ/温泉","big_category":"レジャー施設,宿泊,宿泊","description":"","image_url":"","tags":"新建築2022年7月号,Ver4.60(2022年8月)の追加建築","prefecture":"福岡","contractor":"","structural_designer":"","landscape_designer":"","shinkenchiku_url":""},{"id":11586,"title":"トライアルパーク蒲原","architect":"馬場正尊","year":2022.0,"address":"静岡県静岡市清水区蒲原5245-97","latitude":35.11748123168945,"longitude":138.6258544921875,"category":"公園/体験施設/カフェ","big_category":"レジャー施設,レジャー施設,商業施設","description":"","image_url":"","tags":"新建築2022年7月号,Ver4.60(2022年8月)の追加建築","prefecture":"静岡","contractor":"","structural_designer":"","landscape_designer":"","shinkenchiku_url":""},{"id":11587,"title":"石川県立図書館","architect":"仙田満","year":2022.0,"address":"石川県金沢市小立野2-43-1","latitude":36.54906463623047,"longitude":136.68002319335938,"category":"図書館","big_category":"文化施設","description":"","image_url":"","tags":"新建築2022年7月号,Ver4.60(2022年8月)の追加建築,2024年日本建築学会 作品選奨,第33回AACA賞","prefecture":"石川","contractor":"","structural_designer":"","landscape_designer":"","shinkenchiku_url":""},{"id":11588,"title":"Gallery / Salon H ヒースプール","architect":"Niimori Jamison","year":2022.0,"address":"三重県伊賀市緑ケ丘南町4018-1","latitude":34.75653076171875,"longitude":136.14437866210938,"category":"美容院","big_category":"商業施設","description":"","image_url":"","tags":"新建築2022年7月号,Ver4.60(2022年8月)の追加建築","prefecture":"三重","contractor":"","structural_designer":"","landscape_designer":"","shinkenchiku_url":""},{"id":11589,"title":"東京都市大学 新7号館","architect":"シーラカンスK&H+東急設計コンサルタント","year":2022.0,"address":"東京都世田谷区玉堤1-28-1","latitude":35.59846115112305,"longitude":139.65176391601562,"category":"大学","big_category":"教育","description":"","image_url":"","tags":"新建築2022年7月号,Ver4.60(2022年8月)の追加建築","prefecture":"東京","contractor":"","structural_designer":"","landscape_designer":"","shinkenchiku_url":""},{"id":11590,"title":"大阪国際中学校高等学校","architect":"安井建築設計","year":2021.0,"address":"大阪府守口市松下町1-28","latitude":34.728031158447266,"longitude":135.56639099121094,"category":"学校","big_category":"教育","description":"","image_url":"","tags":"新建築2022年7月号,Ver4.60(2022年8月)の追加建築","prefecture":"大阪","contractor":"","structural_designer":"","landscape_designer":"","shinkenchiku_url":""},{"id":11591,"title":"OMO7大阪 by 星野リゾート","architect":"日本設計+東利恵+岩田尚樹","year":2022.0,"address":"大阪府大阪市浪速区恵美須西3-16-30","latitude":34.65061569213867,"longitude":135.50213623046875,"category":"ホテル","big_category":"宿泊","description":"基本構想・設計監理:日本設計 基本構想・内装:東利恵 湯屋:岩田尚樹","image_url":"","tags":"新建築2022年7月号,Ver4.60(2022年8月)の追加建築","prefecture":"大阪","contractor":"竹中工務店・南海辰村建設共同企業体","structural_designer":"","landscape_designer":"","shinkenchiku_url":""},{"id":11592,"title":"大阪梅田ツインタワーズ・サウス","architect":"日本設計+竹中工務店","year":2022.0,"address":"大阪府大阪市北区梅田1-13-1","latitude":34.70092010498047,"longitude":135.49745178222656,"category":"オフィスビル","big_category":"企業施設","description":"","image_url":"","tags":"新建築2022年7月号,Ver4.60(2022年8月)の追加建築","prefecture":"大阪","contractor":"","structural_designer":"","landscape_designer":"","shinkenchiku_url":""},{"id":11593,"title":"ComRezi Akabane コムレジ赤羽","architect":"長谷工コーポレーション+高池葉子+西倉美祝","year":2022.0,"address":"東京都北区赤羽南2-2-9","latitude":35.77197265625,"longitude":139.72372436523438,"category":"集合住宅","big_category":"住宅","description":"カフェテリア棟、学生棟の4層木化リビングルームを高池葉子が担当","image_url":"","tags":"新建築2022年8月号,Ver4.60(2022年8月)の追加建築","prefecture":"東京","contractor":"","structural_designer":"","landscape_designer":"","shinkenchiku_url":""},{"id":11594,"title":"kurumi build. クルミビル","architect":"マウントフジアーキテクツスタジオ","year":2021.0,"address":"東京都渋谷区千駄ヶ谷3-20-7","latitude":35.67675018310547,"longitude":139.708984375,"category":"集合住宅","big_category":"住宅","description":"","image_url":"","tags":"新建築2022年8月号,Ver4.60(2022年8月)の追加建築","prefecture":"東京","contractor":"藤木工務店","structural_designer":"","landscape_designer":"","shinkenchiku_url":""},{"id":11595,"title":"PRISM INN Ogu プリズムイン尾久","architect":"伊藤博之","year":2022.0,"address":"東京都荒川区西尾久4-25-8","latitude":35.74503707885742,"longitude":139.7581787109375,"category":"ホテル","big_category":"宿泊","description":"","image_url":"","tags":"新建築2022年8月号,Ver4.60(2022年8月)の追加建築","prefecture":"東京","contractor":"","structural_designer":"","landscape_designer":"","shinkenchiku_url":""},{"id":11596,"title":"THE TWIST","architect":"横河健","year":2022.0,"address":"東京都渋谷区代々木5-7-12","latitude":35.670169830322266,"longitude":139.68850708007812,"category":"集合住宅/低層オフィス","big_category":"住宅,企業施設","description":"集合住宅+横河設計工房のアトリエ","image_url":"","tags":"新建築2022年8月号,Ver4.60(2022年8月)の追加建築","prefecture":"東京","contractor":"","structural_designer":"","landscape_designer":"","shinkenchiku_url":""},{"id":11597,"title":"あちてらす倉敷","architect":"アール・アイ・エー","year":2021.0,"address":"岡山県倉敷市阿知3-9-1","latitude":34.5993537902832,"longitude":133.76748657226562,"category":"集合住宅/ホテル/モール","big_category":"住宅,宿泊,商業施設","description":"","image_url":"","tags":"新建築2022年8月号,Ver4.60(2022年8月)の追加建築","prefecture":"岡山","contractor":"","structural_designer":"","landscape_designer":"","shinkenchiku_url":""},{"id":11598,"title":"OGU MAG+","architect":"浅見和宏+nmstudio+スタジオグロス","year":2021.0,"address":"東京都荒川区東尾久4-24-7","latitude":35.74186325073242,"longitude":139.76637268066406,"category":"ギャラリー","big_category":"ミュージアム","description":"","image_url":"","tags":"新建築2022年8月号,Ver4.60(2022年8月)の追加建築","prefecture":"東京","contractor":"","structural_designer":"","landscape_designer":"","shinkenchiku_url":""},{"id":11599,"title":"シャトレ信濃町","architect":"青木茂","year":2022.0,"address":"東京都新宿区信濃町3-1","latitude":35.684024810791016,"longitude":139.71881103515625,"category":"集合住宅","big_category":"住宅","description":"","image_url":"","tags":"新建築2022年8月号,Ver4.60(2022年8月)の追加建築","prefecture":"東京","contractor":"","structural_designer":"","landscape_designer":"","shinkenchiku_url":""},{"id":11600,"title":"A.I.Nihombashi East","architect":"青木茂","year":2022.0,"address":"東京都中央区日本橋箱崎町30-1","latitude":35.68019104003906,"longitude":139.78797912597656,"category":"オフィスビル","big_category":"企業施設","description":"1981年竣工の事務所ビルのリファイニング","image_url":"","tags":"Ver4.60(2022年8月)の追加建築","prefecture":"東京","contractor":"","structural_designer":"","landscape_designer":"","shinkenchiku_url":""}]}