{"page":281,"total_pages":290,"items_per_page":50,"total_items":14467,"items":[{"id":14001,"title":"宇陀市菟田野保健センター 子育て支援センター すくすく","architect":"中村勉","year":2000.0,"address":"奈良県宇陀市菟田野松井473-1","latitude":34.47257614135742,"longitude":135.97775268554688,"category":"福祉センター","big_category":"医療施設","description":"","image_url":"","tags":"Ver5.50(2024年11月)の追加建築","prefecture":"奈良","contractor":"","structural_designer":"","landscape_designer":"","shinkenchiku_url":""},{"id":14002,"title":"宇陀市菟田野地域事務所","architect":"中村勉","year":1999.0,"address":"奈良県宇陀市菟田野松井486-1","latitude":34.472923278808594,"longitude":135.97891235351562,"category":"公共施設/庁舎","big_category":"公共施設,公共施設","description":"","image_url":"","tags":"Ver5.50(2024年11月)の追加建築","prefecture":"奈良","contractor":"","structural_designer":"","landscape_designer":"","shinkenchiku_url":""},{"id":14003,"title":"港区みなと保健所","architect":"中村勉","year":2011.0,"address":"東京都港区三田1-4-10","latitude":35.65398025512695,"longitude":139.74302673339844,"category":"公共施設","big_category":"公共施設","description":"","image_url":"","tags":"新建築2012年5月号,Ver5.50(2024年11月)の追加建築","prefecture":"東京","contractor":"","structural_designer":"","landscape_designer":"","shinkenchiku_url":""},{"id":14004,"title":"アスクはなみずき保育園","architect":"中村勉","year":2013.0,"address":"愛知県長久手市仲田1609","latitude":35.18149185180664,"longitude":137.03428649902344,"category":"幼稚園","big_category":"教育","description":"","image_url":"","tags":"Ver5.50(2024年11月)の追加建築","prefecture":"愛知","contractor":"","structural_designer":"","landscape_designer":"","shinkenchiku_url":""},{"id":14005,"title":"里仁育舎","architect":"中村勉","year":2012.0,"address":"埼玉県和光市下新倉2-34-36","latitude":35.790550231933594,"longitude":139.62005615234375,"category":"幼稚園","big_category":"教育","description":"","image_url":"","tags":"Ver5.50(2024年11月)の追加建築","prefecture":"埼玉","contractor":"","structural_designer":"","landscape_designer":"","shinkenchiku_url":""},{"id":14006,"title":"アスクあじま保育園","architect":"中村勉","year":2009.0,"address":"愛知県名古屋市北区東味鋺3-101-1","latitude":35.217872619628906,"longitude":136.93467712402344,"category":"幼稚園","big_category":"教育","description":"","image_url":"","tags":"Ver5.50(2024年11月)の追加建築","prefecture":"愛知","contractor":"","structural_designer":"","landscape_designer":"","shinkenchiku_url":""},{"id":14007,"title":"アスク七光台保育園","architect":"中村勉","year":2009.0,"address":"千葉県野田市谷津367","latitude":35.96916198730469,"longitude":139.85159301757812,"category":"幼稚園","big_category":"教育","description":"","image_url":"","tags":"Ver5.50(2024年11月)の追加建築","prefecture":"千葉","contractor":"","structural_designer":"","landscape_designer":"","shinkenchiku_url":""},{"id":14008,"title":"埼玉大学 教育学部コモ1号館","architect":"中村勉","year":1994.0,"address":"埼玉県さいたま市桜区下大久保255","latitude":35.8624382019043,"longitude":139.60682678222656,"category":"大学","big_category":"教育","description":"","image_url":"","tags":"Ver5.50(2024年11月)の追加建築","prefecture":"埼玉","contractor":"","structural_designer":"","landscape_designer":"","shinkenchiku_url":""},{"id":14009,"title":"日本大学東北高等学校 アカシア館","architect":"中村勉","year":1998.0,"address":"福島県郡山市田村町徳定中河原1","latitude":37.35775375366211,"longitude":140.37881469726562,"category":"学校","big_category":"教育","description":"","image_url":"","tags":"Ver5.50(2024年11月)の追加建築","prefecture":"福島","contractor":"","structural_designer":"","landscape_designer":"","shinkenchiku_url":""},{"id":14010,"title":"宇陀市立菟田野小学校","architect":"中村勉","year":2005.0,"address":"奈良県宇陀市菟田野古市場672","latitude":34.46971893310547,"longitude":135.97415161132812,"category":"学校","big_category":"教育","description":"","image_url":"","tags":"Ver5.50(2024年11月)の追加建築","prefecture":"奈良","contractor":"","structural_designer":"","landscape_designer":"","shinkenchiku_url":""},{"id":14011,"title":"和光小学校・幼稚園","architect":"中村勉","year":2011.0,"address":"東京都都世田谷区桜2-18-18","latitude":35.643882751464844,"longitude":139.63539123535156,"category":"学校/幼稚園","big_category":"教育,教育","description":"","image_url":"","tags":"Ver5.50(2024年11月)の追加建築","prefecture":"東京","contractor":"","structural_designer":"","landscape_designer":"","shinkenchiku_url":""},{"id":14012,"title":"ステージ1表参道","architect":"中村勉","year":2007.0,"address":"東京都渋谷区神宮前4-11-11","latitude":35.667083740234375,"longitude":139.70965576171875,"category":"テナントビル","big_category":"商業施設","description":"","image_url":"","tags":"Ver5.50(2024年11月)の追加建築","prefecture":"東京","contractor":"","structural_designer":"","landscape_designer":"","shinkenchiku_url":""},{"id":14013,"title":"タキビル表参道","architect":"中村勉","year":1990.0,"address":"東京都渋谷区神宮前5-42-13","latitude":35.66421890258789,"longitude":139.7068634033203,"category":"テナントビル/オフィスビル","big_category":"商業施設,企業施設","description":"","image_url":"","tags":"Ver5.50(2024年11月)の追加建築","prefecture":"東京","contractor":"","structural_designer":"","landscape_designer":"","shinkenchiku_url":""},{"id":14014,"title":"狸穴アークビル","architect":"中村勉","year":1992.0,"address":"東京都港区東麻布3-2-1","latitude":35.65786361694336,"longitude":139.7388916015625,"category":"テナントビル/住宅","big_category":"商業施設,住宅","description":"","image_url":"","tags":"Ver5.50(2024年11月)の追加建築","prefecture":"東京","contractor":"","structural_designer":"","landscape_designer":"","shinkenchiku_url":""},{"id":14015,"title":"五反田さくらビル 旧岡田ビル","architect":"中村勉","year":1993.0,"address":"東京都品川区東五反田1-22-6","latitude":35.62582015991211,"longitude":139.72705078125,"category":"オフィスビル","big_category":"企業施設","description":"","image_url":"","tags":"Ver5.50(2024年11月)の追加建築","prefecture":"東京","contractor":"","structural_designer":"","landscape_designer":"","shinkenchiku_url":""},{"id":14016,"title":"野田みずきショッピングセンター","architect":"中村勉","year":1997.0,"address":"千葉県野田市みずき2-12","latitude":35.92340850830078,"longitude":139.88572692871094,"category":"モール","big_category":"商業施設","description":"","image_url":"","tags":"Ver5.50(2024年11月)の追加建築","prefecture":"千葉","contractor":"","structural_designer":"","landscape_designer":"","shinkenchiku_url":""},{"id":14017,"title":"宇陀市営菟田野上笠神団地","architect":"中村勉","year":2003.0,"address":"奈良県宇陀市菟田野松井 宇陀市営上笠神団地","latitude":34.46900939941406,"longitude":135.9838104248047,"category":"集合住宅","big_category":"住宅","description":"","image_url":"","tags":"Ver5.50(2024年11月)の追加建築","prefecture":"奈良","contractor":"","structural_designer":"","landscape_designer":"","shinkenchiku_url":""},{"id":14018,"title":"ゆずり葉の森","architect":"中村勉","year":2013.0,"address":"静岡県御殿場市上小林1527-431","latitude":35.34466552734375,"longitude":138.8969268798828,"category":"集合住宅/養護施設","big_category":"住宅,医療施設","description":"","image_url":"","tags":"Ver5.50(2024年11月)の追加建築","prefecture":"静岡","contractor":"","structural_designer":"","landscape_designer":"","shinkenchiku_url":""},{"id":14019,"title":"あさぎりの郷","architect":"中村勉","year":2002.0,"address":"長野県下伊那郡高森町吉田481-1","latitude":35.55166244506836,"longitude":137.88790893554688,"category":"養護施設/福祉センター","big_category":"医療施設,医療施設","description":"","image_url":"","tags":"Ver5.50(2024年11月)の追加建築","prefecture":"長野","contractor":"","structural_designer":"","landscape_designer":"","shinkenchiku_url":""},{"id":14020,"title":"越後ハーブ香園入広瀬","architect":"寒竹伸一","year":1997.0,"address":"新潟県魚沼市横根3118-1","latitude":37.375789642333984,"longitude":139.06475830078125,"category":"公園","big_category":"レジャー施設","description":"","image_url":"","tags":"Ver5.50(2024年11月)の追加建築","prefecture":"新潟","contractor":"","structural_designer":"","landscape_designer":"","shinkenchiku_url":""},{"id":14021,"title":"日本理化学薬品本社","architect":"寒竹伸一","year":1997.0,"address":"東京都中央区日本橋本町4-2-2","latitude":35.689579010009766,"longitude":139.77340698242188,"category":"オフィスビル","big_category":"企業施設","description":"","image_url":"","tags":"Ver5.50(2024年11月)の追加建築","prefecture":"東京","contractor":"","structural_designer":"","landscape_designer":"","shinkenchiku_url":""},{"id":14022,"title":"道の駅 もっくる新城","architect":"鵜飼哲矢","year":2015.0,"address":"愛知県新城市八束穂五反田329-7","latitude":34.91797637939453,"longitude":137.53392028808594,"category":"PA・道の駅","big_category":"インフラ","description":"","image_url":"","tags":"Ver5.50(2024年11月)の追加建築","prefecture":"愛知","contractor":"","structural_designer":"","landscape_designer":"","shinkenchiku_url":""},{"id":14023,"title":"刈谷ハイウェイオアシス","architect":"鵜飼哲矢","year":2004.0,"address":"愛知県刈谷市東境町吉野55","latitude":35.040672302246094,"longitude":137.0487518310547,"category":"PA・道の駅","big_category":"インフラ","description":"2007年岩ケ池公園公衆トイレ、2008年管理棟、2010年コンビニエンス棟、2014年厚生棟新築、セントラルプラザ改築、2015年付属施設棟、2017年授乳室などを増築している","image_url":"","tags":"Ver5.50(2024年11月)の追加建築","prefecture":"愛知","contractor":"","structural_designer":"","landscape_designer":"","shinkenchiku_url":""},{"id":14024,"title":"カガヤキスクエア","architect":"鵜飼哲矢","year":2015.0,"address":"愛知県安城市三河安城本町2-1-10","latitude":34.967918395996094,"longitude":137.05943298339844,"category":"オフィスビル/テナントビル/集合住宅","big_category":"企業施設,商業施設,住宅","description":"","image_url":"","tags":"Ver5.50(2024年11月)の追加建築","prefecture":"愛知","contractor":"","structural_designer":"","landscape_designer":"","shinkenchiku_url":""},{"id":14025,"title":"刈谷駅南口第2駐輪場","architect":"鵜飼哲矢","year":2008.0,"address":"愛知県刈谷市若松町1-1","latitude":34.9899787902832,"longitude":137.00888061523438,"category":"駐車・駐輪場","big_category":"公共施設","description":"","image_url":"","tags":"Ver5.50(2024年11月)の追加建築","prefecture":"愛知","contractor":"","structural_designer":"","landscape_designer":"","shinkenchiku_url":""},{"id":14026,"title":"刈谷市児童遊園管理棟","architect":"鵜飼哲矢","year":2007.0,"address":"愛知県刈谷市神田町3-47-1","latitude":34.98797607421875,"longitude":137.0143585205078,"category":"公共施設","big_category":"公共施設","description":"","image_url":"","tags":"Ver5.50(2024年11月)の追加建築","prefecture":"愛知","contractor":"","structural_designer":"","landscape_designer":"","shinkenchiku_url":""},{"id":14027,"title":"名駅南ランドビル","architect":"鵜飼哲矢","year":2014.0,"address":"愛知県名古屋市中村区名駅南3-11","latitude":35.15950012207031,"longitude":136.888916015625,"category":"低層オフィス","big_category":"企業施設","description":"","image_url":"","tags":"Ver5.50(2024年11月)の追加建築","prefecture":"愛知","contractor":"","structural_designer":"","landscape_designer":"","shinkenchiku_url":""},{"id":14028,"title":"刈谷市医師会館","architect":"鵜飼哲矢","year":2009.0,"address":"愛知県刈谷市一色町3-5-1","latitude":34.99711990356445,"longitude":137.0185089111328,"category":"組合施設","big_category":"公共施設","description":"","image_url":"","tags":"Ver5.50(2024年11月)の追加建築","prefecture":"愛知","contractor":"","structural_designer":"","landscape_designer":"","shinkenchiku_url":""},{"id":14029,"title":"美容室The POD","architect":"鵜飼哲矢","year":2004.0,"address":"愛知県知多郡東浦町大字緒川字旭14-4","latitude":34.980804443359375,"longitude":136.97512817382812,"category":"美容院","big_category":"商業施設","description":"","image_url":"","tags":"Ver5.50(2024年11月)の追加建築","prefecture":"愛知","contractor":"","structural_designer":"","landscape_designer":"","shinkenchiku_url":""},{"id":14030,"title":"若杉新聞店","architect":"鵜飼哲矢","year":2011.0,"address":"愛知県岡崎市中之郷町西島48-2","latitude":34.926239013671875,"longitude":137.1269073486328,"category":"低層オフィス","big_category":"企業施設","description":"","image_url":"","tags":"Ver5.50(2024年11月)の追加建築","prefecture":"愛知","contractor":"","structural_designer":"","landscape_designer":"","shinkenchiku_url":""},{"id":14031,"title":"みなとビルヂング","architect":"鵜飼哲矢","year":2005.0,"address":"東京都世田谷区若林4-21-15","latitude":35.64423751831055,"longitude":139.6553192138672,"category":"テナントビル","big_category":"商業施設","description":"","image_url":"","tags":"Ver5.50(2024年11月)の追加建築","prefecture":"東京","contractor":"","structural_designer":"","landscape_designer":"","shinkenchiku_url":""},{"id":14032,"title":"空のうさぎ保育園","architect":"鵜飼哲矢","year":2017.0,"address":"愛知県刈谷市築地町2-26-5","latitude":35.013858795166016,"longitude":137.01638793945312,"category":"幼稚園","big_category":"教育","description":"","image_url":"","tags":"Ver5.50(2024年11月)の追加建築","prefecture":"愛知","contractor":"","structural_designer":"","landscape_designer":"","shinkenchiku_url":""},{"id":14033,"title":"あおば保育園","architect":"鵜飼哲矢","year":2009.0,"address":"愛知県刈谷市神明町3-501","latitude":34.995262145996094,"longitude":137.0032501220703,"category":"幼稚園","big_category":"教育","description":"","image_url":"","tags":"Ver5.50(2024年11月)の追加建築","prefecture":"愛知","contractor":"","structural_designer":"","landscape_designer":"","shinkenchiku_url":""},{"id":14034,"title":"ビジネスプラザ オモテヤ","architect":"鵜飼哲矢","year":2001.0,"address":"愛知県刈谷市八軒町1-70-1","latitude":34.99778747558594,"longitude":137.01673889160156,"category":"低層オフィス","big_category":"企業施設","description":"","image_url":"","tags":"Ver5.50(2024年11月)の追加建築","prefecture":"愛知","contractor":"","structural_designer":"","landscape_designer":"","shinkenchiku_url":""},{"id":14035,"title":"東松山市総合会館","architect":"白江龍三","year":1992.0,"address":"埼玉県東松山市松葉町1-2-3","latitude":36.041385650634766,"longitude":139.4003143310547,"category":"ホール・劇場","big_category":"文化施設","description":"","image_url":"","tags":"Ver5.50(2024年11月)の追加建築","prefecture":"埼玉","contractor":"","structural_designer":"","landscape_designer":"","shinkenchiku_url":""},{"id":14036,"title":"カカシ米穀深谷工場オフィス棟","architect":"白江龍三","year":2001.0,"address":"埼玉県深谷市折之口2025","latitude":36.162513732910156,"longitude":139.2925262451172,"category":"低層オフィス","big_category":"企業施設","description":"GoogleMaps上ではロジテック埼玉北営業所となっている","image_url":"","tags":"Ver5.50(2024年11月)の追加建築","prefecture":"埼玉","contractor":"","structural_designer":"","landscape_designer":"","shinkenchiku_url":""},{"id":14037,"title":"NSW山梨ITセンター","architect":"白江龍三","year":1998.0,"address":"山梨県笛吹市一宮町市之蔵707","latitude":35.62324523925781,"longitude":138.69097900390625,"category":"研究施設","big_category":"教育","description":"","image_url":"","tags":"Ver5.50(2024年11月)の追加建築","prefecture":"山梨","contractor":"五洋建設","structural_designer":"","landscape_designer":"","shinkenchiku_url":""},{"id":14038,"title":"セントピアあわら","architect":"茂木計一郎","year":1996.0,"address":"福井県あわら市温泉4-305","latitude":36.22575378417969,"longitude":136.19412231445312,"category":"温泉/プール","big_category":"宿泊,レジャー施設","description":"","image_url":"","tags":"Ver5.50(2024年11月)の追加建築","prefecture":"福井","contractor":"","structural_designer":"","landscape_designer":"","shinkenchiku_url":""},{"id":14039,"title":"白山ゲートウェイとくみつTaanTo","architect":"宮下信顕","year":2022.0,"address":"石川県白山市徳光町2398","latitude":36.53351593017578,"longitude":136.52914428710938,"category":"店舗","big_category":"商業施設","description":"","image_url":"","tags":"Ver5.50(2024年11月)の追加建築","prefecture":"石川","contractor":"","structural_designer":"","landscape_designer":"","shinkenchiku_url":""},{"id":14040,"title":"ダイフク大阪新本社","architect":"宮下信顕","year":2021.0,"address":"大阪府大阪市西淀川区御幣島3-2-11","latitude":34.71575164794922,"longitude":135.4578094482422,"category":"オフィスビル","big_category":"企業施設","description":"","image_url":"","tags":"Ver5.50(2024年11月)の追加建築","prefecture":"大阪","contractor":"","structural_designer":"","landscape_designer":"","shinkenchiku_url":""},{"id":14041,"title":"青山学院横浜英和中学校・高等学校","architect":"湯澤正信","year":2013.0,"address":"神奈川県横浜市南区蒔田町原124","latitude":35.42698287963867,"longitude":139.6102294921875,"category":"学校","big_category":"教育","description":"本館・第2校舎新築。第1校舎改修","image_url":"","tags":"Ver5.50(2024年11月)の追加建築","prefecture":"神奈川","contractor":"","structural_designer":"","landscape_designer":"","shinkenchiku_url":""},{"id":14042,"title":"関東学院大学 環境共生技術フロンティアセンター","architect":"湯澤正信","year":2005.0,"address":"神奈川県横浜市金沢区六浦東1-50","latitude":35.32188034057617,"longitude":139.62294006347656,"category":"大学","big_category":"教育","description":"","image_url":"","tags":"Ver5.50(2024年11月)の追加建築","prefecture":"神奈川","contractor":"","structural_designer":"","landscape_designer":"","shinkenchiku_url":""},{"id":14043,"title":"関東学院大学 5号館","architect":"湯澤正信","year":2014.0,"address":"神奈川県横浜市金沢区六浦東1-50","latitude":35.322025299072266,"longitude":139.6226348876953,"category":"大学","big_category":"教育","description":"","image_url":"","tags":"Ver5.50(2024年11月)の追加建築","prefecture":"神奈川","contractor":"","structural_designer":"","landscape_designer":"","shinkenchiku_url":""},{"id":14044,"title":"西調布駅舎","architect":"湯澤正信","year":2009.0,"address":"東京都調布市上石原1","latitude":35.65705490112305,"longitude":139.53009033203125,"category":"駅","big_category":"インフラ","description":"","image_url":"","tags":"Ver5.50(2024年11月)の追加建築","prefecture":"東京","contractor":"","structural_designer":"","landscape_designer":"","shinkenchiku_url":""},{"id":14045,"title":"用賀なのはな保育園分園さくらの木","architect":"湯澤正信","year":2011.0,"address":"東京都世田谷区玉川台2-18-18","latitude":35.62489318847656,"longitude":139.63052368164062,"category":"幼稚園","big_category":"教育","description":"","image_url":"","tags":"Ver5.50(2024年11月)の追加建築","prefecture":"東京","contractor":"","structural_designer":"","landscape_designer":"","shinkenchiku_url":""},{"id":14046,"title":"ミナミ株式会社大阪事務所 旧川崎貯蓄銀行福島出張所","architect":"矢部又吉","year":1934.0,"address":"大阪府大阪市福島区福島5-17-7","latitude":34.69501495361328,"longitude":135.48487854003906,"category":"低層オフィス/金融機関/洋館","big_category":"企業施設,企業施設,近代建築/遺産","description":"","image_url":"","tags":"登録有形文化財,Ver5.50(2024年11月)の追加建築","prefecture":"大阪","contractor":"","structural_designer":"","landscape_designer":"","shinkenchiku_url":""},{"id":14047,"title":"堺筋倶楽部 アンブロシア 旧川崎貯蓄銀行大阪支店","architect":"矢部又吉","year":1931.0,"address":"大阪府大阪市中央区南船場1-15-12","latitude":34.677650451660156,"longitude":135.50662231445312,"category":"洋館/低層オフィス/金融機関","big_category":"近代建築/遺産,企業施設,企業施設","description":"","image_url":"","tags":"Ver5.50(2024年11月)の追加建築","prefecture":"大阪","contractor":"","structural_designer":"","landscape_designer":"","shinkenchiku_url":""},{"id":14048,"title":"D'グラフォート横浜クルージングタワー 旧第百銀行横浜支店","architect":"戸田建設+矢部又吉","year":2004.0,"address":"神奈川県横浜市中区本町4-41","latitude":35.44905090332031,"longitude":139.63792419433594,"category":"集合住宅/洋館","big_category":"住宅,近代建築/遺産","description":"1934年竣工、矢部又吉設計のファサード部分を保存","image_url":"","tags":"Ver5.50(2024年11月)の追加建築","prefecture":"神奈川","contractor":"戸田建設","structural_designer":"","landscape_designer":"","shinkenchiku_url":""},{"id":14049,"title":"もものうらビレッジ BBQ棟","architect":"西田司+アトリエ・ワン","year":2019.0,"address":"宮城県石巻市桃浦ウトキ","latitude":38.397891998291016,"longitude":141.4348602294922,"category":"コテージ/体験施設","big_category":"宿泊,レジャー施設","description":"","image_url":"","tags":"Ver5.50(2024年11月)の追加建築","prefecture":"宮城","contractor":"セオリーホーム","structural_designer":"ASD","landscape_designer":"stgk","shinkenchiku_url":""},{"id":14050,"title":"DOCK OF BAYSTARS YOKOSUKA","architect":"西田司","year":2019.0,"address":"神奈川県横須賀市夏島町2-2","latitude":35.32109451293945,"longitude":139.6344451904297,"category":"体育館/スポーツ施設","big_category":"レジャー施設,レジャー施設","description":"野球の総合練習場","image_url":"","tags":"Ver5.50(2024年11月)の追加建築","prefecture":"神奈川","contractor":"","structural_designer":"","landscape_designer":"","shinkenchiku_url":""}]}