{"page":174,"total_pages":290,"items_per_page":50,"total_items":14467,"items":[{"id":8651,"title":"北陸銀行本店","architect":"日建設計","year":1961.0,"address":"富山県富山市堤町通り1-2-26","latitude":36.68903350830078,"longitude":137.21774291992188,"category":"金融機関","big_category":"企業施設","description":"","image_url":"","tags":"Ver3.00(2019年8月)の追加建築,第04回BCS賞 (1963),登録有形文化財","prefecture":"富山","contractor":"大林組","structural_designer":"","landscape_designer":"","shinkenchiku_url":""},{"id":8652,"title":"ワークショップギャラリー koti","architect":"堀部直子","year":2015.0,"address":"兵庫県たつの市揖保川町新在家15-47","latitude":34.83494186401367,"longitude":134.53054809570312,"category":"モール/カフェ/ギャラリー","big_category":"商業施設,商業施設,ミュージアム","description":"","image_url":"","tags":"Ver3.10(2019年10月)の追加建築","prefecture":"兵庫","contractor":"","structural_designer":"","landscape_designer":"","shinkenchiku_url":""},{"id":8653,"title":"colissimo","architect":"堤庸策","year":2012.0,"address":"兵庫県丹波篠山市今田町下小野原3-7","latitude":35.0067253112793,"longitude":135.11395263671875,"category":"カフェ/ギャラリー","big_category":"商業施設,ミュージアム","description":"","image_url":"","tags":"Ver3.10(2019年10月)の追加建築","prefecture":"兵庫","contractor":"","structural_designer":"","landscape_designer":"","shinkenchiku_url":""},{"id":8654,"title":"空蓮房","architect":"ヨコミゾマコト","year":2006.0,"address":"東京都台東区蔵前4-17-14","latitude":35.703857421875,"longitude":139.7888641357422,"category":"ギャラリー","big_category":"ミュージアム","description":"","image_url":"","tags":"Ver3.10(2019年10月)の追加建築","prefecture":"東京","contractor":"","structural_designer":"","landscape_designer":"","shinkenchiku_url":""},{"id":8655,"title":"ギャラリー宇","architect":"1100 Architect","year":2003.0,"address":"沖縄県那覇市天久1-27-2","latitude":26.233509063720703,"longitude":127.69235229492188,"category":"ギャラリー/店舗/集合住宅","big_category":"ミュージアム,商業施設,住宅","description":"","image_url":"","tags":"Ver3.10(2019年10月)の追加建築","prefecture":"沖縄","contractor":"","structural_designer":"","landscape_designer":"","shinkenchiku_url":""},{"id":8656,"title":"雄久会ひかりケアホーム","architect":"シーラカンスK&H","year":2018.0,"address":"福井県福井市板垣5-201","latitude":36.04417037963867,"longitude":136.2283477783203,"category":"養護施設","big_category":"医療施設","description":"","image_url":"","tags":"Ver3.10(2019年10月)の追加建築","prefecture":"福井","contractor":"","structural_designer":"","landscape_designer":"","shinkenchiku_url":""},{"id":8657,"title":"湖のホテル 改修","architect":"IKDS","year":2017.0,"address":"山梨県南都留郡富士河口湖町浅川187","latitude":35.51382827758789,"longitude":138.77352905273438,"category":"ホテル","big_category":"宿泊","description":"","image_url":"","tags":"Ver3.10(2019年10月)の追加建築","prefecture":"山梨","contractor":"","structural_designer":"","landscape_designer":"","shinkenchiku_url":""},{"id":8658,"title":"開花亭 kuri-ya","architect":"隈研吾","year":2016.0,"address":"福井県福井市中央3-5-9","latitude":36.06294631958008,"longitude":136.21383666992188,"category":"店舗","big_category":"商業施設","description":"","image_url":"","tags":"Ver3.10(2019年10月)の追加建築","prefecture":"福井","contractor":"","structural_designer":"","landscape_designer":"","shinkenchiku_url":""},{"id":8659,"title":"京都芸術大学 望天館","architect":"岸和郎","year":2019.0,"address":"京都府京都市左京区北白川瓜生山2-116","latitude":35.037113189697266,"longitude":135.79278564453125,"category":"大学","big_category":"教育","description":"","image_url":"","tags":"Ver3.10(2019年10月)の追加建築","prefecture":"京都","contractor":"","structural_designer":"","landscape_designer":"","shinkenchiku_url":""},{"id":8660,"title":"真庭シティホテルサンライズ CLT棟","architect":"谷岡龍哉","year":2016.0,"address":"岡山県真庭市惣258-6","latitude":35.07001495361328,"longitude":133.7505340576172,"category":"ホテル","big_category":"宿泊","description":"","image_url":"","tags":"Ver3.10(2019年10月)の追加建築","prefecture":"岡山","contractor":"","structural_designer":"","landscape_designer":"","shinkenchiku_url":""},{"id":8661,"title":"真庭森林組合事務所 CLT造の事務所","architect":"谷岡龍哉+真庭設計連合協同組合","year":2019.0,"address":"岡山県真庭市勝山1884-10","latitude":35.084205627441406,"longitude":133.7005615234375,"category":"低層オフィス","big_category":"企業施設","description":"","image_url":"","tags":"Ver3.10(2019年10月)の追加建築","prefecture":"岡山","contractor":"","structural_designer":"","landscape_designer":"","shinkenchiku_url":""},{"id":8662,"title":"新国立競技場","architect":"隈研吾+梓設計+大成建設","year":2019.0,"address":"東京都新宿区霞ヶ丘町10","latitude":35.67805480957031,"longitude":139.71499633789062,"category":"スタジアム","big_category":"レジャー施設","description":"2019年12月竣工予定","image_url":"","tags":"新建築2019年9月号,Ver3.10(2019年10月)の追加建築,東京2020オリンピック競技会場","prefecture":"東京","contractor":"大成建設","structural_designer":"","landscape_designer":"","shinkenchiku_url":""},{"id":8663,"title":"La・La・Grande GINZA","architect":"大成建設","year":2017.0,"address":"東京都中央区銀座6-3-18","latitude":35.67177200317383,"longitude":139.76126098632812,"category":"テナントビル","big_category":"商業施設","description":"","image_url":"","tags":"新建築2019年9月号,Ver3.10(2019年10月)の追加建築,第29回AACA 奨励賞,2020年日本建築学会 作品選奨","prefecture":"東京","contractor":"大成建設","structural_designer":"","landscape_designer":"","shinkenchiku_url":""},{"id":8664,"title":"東京アクアティクスセンター","architect":"山下設計+丹下憲孝+東京都財務局建築保全部オリンピック・パラリンピック施設整備課","year":2020.0,"address":"東京都江東区辰巳2-2","latitude":35.651371002197266,"longitude":139.8151092529297,"category":"プール","big_category":"レジャー施設","description":"2020年2月竣工予定","image_url":"","tags":"新建築2019年9月号,Ver3.10(2019年10月)の追加建築,東京2020オリンピック競技会場","prefecture":"東京","contractor":"大林・東光・エルゴ・東熱異業種特定建設共同企業体","structural_designer":"","landscape_designer":"","shinkenchiku_url":""},{"id":8665,"title":"有明アリーナ","architect":"久米設計+東京都財務局建築保全部オリンピック・パラリンピック施設整備課","year":2019.0,"address":"東京都江東区有明1-11","latitude":35.64340591430664,"longitude":139.79421997070312,"category":"体育館","big_category":"レジャー施設","description":"2019年12月竣工予定","image_url":"","tags":"新建築2019年9月号,Ver3.10(2019年10月)の追加建築,東京2020オリンピック競技会場","prefecture":"東京","contractor":"竹中・東光・朝日・高砂異業種特定建設共同企業体","structural_designer":"","landscape_designer":"","shinkenchiku_url":""},{"id":8666,"title":"有明体操競技場","architect":"日建設計","year":2019.0,"address":"東京都江東区有明1-7-4","latitude":35.641422271728516,"longitude":139.79197692871094,"category":"体育館","big_category":"レジャー施設","description":"2019年10月竣工予定","image_url":"","tags":"新建築2019年9月号,Ver3.10(2019年10月)の追加建築,東京2020オリンピック競技会場,新建築2021年11月号,第31回AACA 特別賞","prefecture":"東京","contractor":"清水建設","structural_designer":"","landscape_designer":"","shinkenchiku_url":""},{"id":8667,"title":"馬事公苑整備工事","architect":"山下設計","year":2019.0,"address":"東京都世田谷区上用賀2-3-4","latitude":35.63693618774414,"longitude":139.63438415527344,"category":"公園","big_category":"レジャー施設","description":"第一期工事2019年12月竣工予定。メインオフィス、オペレーションセンター、インドアアリーナ、厩舎、審判棟、南オフィス、野外トイレを新設。その後仮設～第二期工事に入る","image_url":"","tags":"新建築2019年9月号,Ver3.10(2019年10月)の追加建築,東京2020オリンピック競技会場","prefecture":"東京","contractor":"山下設計","structural_designer":"","landscape_designer":"","shinkenchiku_url":""},{"id":8668,"title":"HARUMI FLAG SUN VILLAGE A・E・F棟","architect":"三菱地所+前田建設工業+光井純 他","year":2022.0,"address":"東京都中央区晴海5-9","latitude":35.64954376220703,"longitude":139.7725372314453,"category":"集合住宅","big_category":"住宅","description":"マスターアーキテクトを光井純が担当。全体の竣工は2022年予定。一部先に竣工したものをオリンピック選手村として利用。デザインアーキテクトとして光井純が担当","image_url":"","tags":"新建築2019年9月号,Ver3.10(2019年10月)の追加建築,東京2020オリンピック競技会場","prefecture":"東京","contractor":"前田建設工業","structural_designer":"","landscape_designer":"","shinkenchiku_url":""},{"id":8669,"title":"HARUMI FLAG SUN VILLAGE B・C棟","architect":"三菱地所+前田建設工業+谷尻誠+中村拓志","year":2022.0,"address":"東京都中央区晴海5-9","latitude":35.65029525756836,"longitude":139.77218627929688,"category":"集合住宅","big_category":"住宅","description":"マスターアーキテクトを光井純が担当。全体の竣工は2022年予定。一部先に竣工したものをオリンピック選手村として利用。デザインアーキテクトとして谷尻誠、中村拓志が担当","image_url":"","tags":"新建築2019年9月号,Ver3.10(2019年10月)の追加建築,東京2020オリンピック競技会場","prefecture":"東京","contractor":"前田建設工業","structural_designer":"","landscape_designer":"","shinkenchiku_url":""},{"id":8670,"title":"HARUMI FLAG SUN VILLAGE T棟","architect":"三菱地所+前田建設工業+光井純","year":2024.0,"address":"東京都中央区晴海5-9","latitude":35.65105438232422,"longitude":139.77322387695312,"category":"集合住宅","big_category":"住宅","description":"マスターアーキテクトを光井純が担当。全体の竣工は2024年予定。一部先に竣工したものをオリンピック選手村として利用。デザインアーキテクトとして光井純が担当","image_url":"","tags":"新建築2019年9月号,Ver3.10(2019年10月)の追加建築","prefecture":"東京","contractor":"前田建設工業","structural_designer":"","landscape_designer":"","shinkenchiku_url":""},{"id":8671,"title":"HARUMI FLAG PARK VILLAGE A・B・C棟","architect":"日建ハウジングシステム+三井住友建設+光井純","year":2022.0,"address":"東京都中央区晴海5-9","latitude":35.64899444580078,"longitude":139.77322387695312,"category":"集合住宅","big_category":"住宅","description":"マスターアーキテクトを光井純が担当。全体の竣工は2022年予定。一部先に竣工したものをオリンピック選手村として利用。デザインアーキテクトとして光井純が担当","image_url":"","tags":"新建築2019年9月号,Ver3.10(2019年10月)の追加建築,東京2020オリンピック競技会場","prefecture":"東京","contractor":"三井住友建設","structural_designer":"","landscape_designer":"","shinkenchiku_url":""},{"id":8672,"title":"HARUMI FLAG PARK VILLAGE D棟","architect":"日建ハウジングシステム+三井住友建設+中村拓志","year":2022.0,"address":"東京都中央区晴海5-9","latitude":35.649253845214844,"longitude":139.7749786376953,"category":"集合住宅","big_category":"住宅","description":"マスターアーキテクトを光井純が担当。全体の竣工は2022年予定。一部先に竣工したものをオリンピック選手村として利用。デザインアーキテクトとして中村拓志が担当","image_url":"","tags":"新建築2019年9月号,Ver3.10(2019年10月)の追加建築,東京2020オリンピック競技会場","prefecture":"東京","contractor":"三井住友建設","structural_designer":"","landscape_designer":"","shinkenchiku_url":""},{"id":8673,"title":"HARUMI FLAG PARK VILLAGE E・F棟","architect":"日建ハウジングシステム+三井住友建設+安田幸一","year":2022.0,"address":"東京都中央区晴海5-9","latitude":35.648529052734375,"longitude":139.77383422851562,"category":"集合住宅","big_category":"住宅","description":"マスターアーキテクトを光井純が担当。全体の竣工は2022年予定。一部先に竣工したものをオリンピック選手村として利用。デザインアーキテクトとして安田幸一が担当","image_url":"","tags":"新建築2019年9月号,Ver3.10(2019年10月)の追加建築,東京2020オリンピック競技会場","prefecture":"東京","contractor":"三井住友建設","structural_designer":"","landscape_designer":"","shinkenchiku_url":""},{"id":8674,"title":"HARUMI FLAG PARK VILLAGE T棟","architect":"日建ハウジングシステム+三井住友建設+光井純","year":2024.0,"address":"東京都中央区晴海5-9","latitude":35.64987564086914,"longitude":139.7745361328125,"category":"集合住宅","big_category":"住宅","description":"マスターアーキテクトを光井純が担当。全体の竣工は2024年予定。一部先に竣工したものをオリンピック選手村として利用。デザインアーキテクトとして光井純が担当","image_url":"","tags":"新建築2019年9月号,Ver3.10(2019年10月)の追加建築","prefecture":"東京","contractor":"三井住友建設","structural_designer":"","landscape_designer":"","shinkenchiku_url":""},{"id":8675,"title":"HARUMI FLAG SEA VILLAGE A・B・C棟","architect":"日本設計+長谷工コーポレーション+光井純","year":2022.0,"address":"東京都中央区晴海5-9","latitude":35.64925003051758,"longitude":139.7762908935547,"category":"集合住宅","big_category":"住宅","description":"マスターアーキテクトを光井純が担当。全体の竣工は2022年予定。一部先に竣工したものをオリンピック選手村として利用。デザインアーキテクトとして光井純が担当","image_url":"","tags":"新建築2019年9月号,Ver3.10(2019年10月)の追加建築,東京2020オリンピック競技会場","prefecture":"東京","contractor":"長谷工コーポレーション","structural_designer":"","landscape_designer":"","shinkenchiku_url":""},{"id":8676,"title":"HARUMI FLAG SEA VILLAGE D・E棟","architect":"日本設計+長谷工コーポレーション+奥村俊慈","year":2022.0,"address":"東京都中央区晴海5-9","latitude":35.65043258666992,"longitude":139.77801513671875,"category":"集合住宅","big_category":"住宅","description":"マスターアーキテクトを光井純が担当。全体の竣工は2022年予定。一部先に竣工したものをオリンピック選手村として利用。デザインアーキテクトとして奥村俊慈が担当","image_url":"","tags":"新建築2019年9月号,Ver3.10(2019年10月)の追加建築,東京2020オリンピック競技会場","prefecture":"東京","contractor":"長谷工コーポレーション","structural_designer":"","landscape_designer":"","shinkenchiku_url":""},{"id":8677,"title":"HARUMI FLAG PORT VILLAGE","architect":"日建ハウジングシステム+東急建設","year":2022.0,"address":"東京都中央区晴海5-9","latitude":35.651241302490234,"longitude":139.7774200439453,"category":"集合住宅","big_category":"住宅","description":"マスターアーキテクトを光井純が担当。全体の竣工は2022年予定。一部先に竣工したものをオリンピック選手村として利用","image_url":"","tags":"新建築2019年9月号,Ver3.10(2019年10月)の追加建築","prefecture":"東京","contractor":"東急建設","structural_designer":"","landscape_designer":"","shinkenchiku_url":""},{"id":8678,"title":"HARUMI FLAG 商業施設","architect":"三井住友建設+長嶋祐巳","year":2022.0,"address":"東京都中央区晴海5-9","latitude":35.651336669921875,"longitude":139.77439880371094,"category":"モール","big_category":"商業施設","description":"マスターアーキテクトを光井純が担当。全体の竣工は2022年予定。デザインアーキテクトとして長嶋祐巳が担当","image_url":"","tags":"新建築2019年9月号,Ver3.10(2019年10月)の追加建築","prefecture":"東京","contractor":"三井住友建設","structural_designer":"","landscape_designer":"","shinkenchiku_url":""},{"id":8679,"title":"福田美術館","architect":"安田幸一","year":2019.0,"address":"京都府京都市右京区嵯峨天龍寺芒ノ馬場町3-16","latitude":35.013832092285156,"longitude":135.6763153076172,"category":"美術館","big_category":"ミュージアム","description":"","image_url":"","tags":"新建築2019年9月号,Ver3.10(2019年10月)の追加建築,2022年日本建築学会 作品選奨,2020年度JIA優秀建築賞","prefecture":"京都","contractor":"戸田建設","structural_designer":"","landscape_designer":"","shinkenchiku_url":""},{"id":8680,"title":"国家公務員共済組合連合会 虎の門病院","architect":"佐藤総合計画+戸田建設","year":2019.0,"address":"東京都港区虎ノ門2-2-2","latitude":35.66864013671875,"longitude":139.74508666992188,"category":"病院","big_category":"医療施設","description":"実施設計：戸田建設","image_url":"","tags":"新建築2019年9月号,Ver3.10(2019年10月)の追加建築","prefecture":"東京","contractor":"戸田建設","structural_designer":"","landscape_designer":"","shinkenchiku_url":""},{"id":8681,"title":"読売並木通りビル","architect":"石本建築事務所","year":2019.0,"address":"東京都中央区銀座3-3-18","latitude":35.673274993896484,"longitude":139.76548767089844,"category":"テナントビル/ホテル","big_category":"商業施設,宿泊","description":"","image_url":"","tags":"新建築2019年9月号,Ver3.10(2019年10月)の追加建築","prefecture":"東京","contractor":"竹中工務店","structural_designer":"","landscape_designer":"","shinkenchiku_url":""},{"id":8682,"title":"柳小路南角","architect":"三井嶺","year":2018.0,"address":"東京都世田谷区玉川3-13-8","latitude":35.6134147644043,"longitude":139.6250457763672,"category":"テナントビル","big_category":"商業施設","description":"","image_url":"","tags":"新建築2019年9月号,Ver3.10(2019年10月)の追加建築","prefecture":"東京","contractor":"渡辺富工務店","structural_designer":"","landscape_designer":"","shinkenchiku_url":""},{"id":8683,"title":"コーセー先端技術研究所","architect":"日建設計","year":2019.0,"address":"東京都北区栄町46-3","latitude":35.75114059448242,"longitude":139.74217224121094,"category":"研究施設","big_category":"教育","description":"","image_url":"","tags":"新建築2019年9月号,Ver3.10(2019年10月)の追加建築","prefecture":"東京","contractor":"大林組","structural_designer":"","landscape_designer":"","shinkenchiku_url":""},{"id":8684,"title":"大栄鉄工所施設建築群","architect":"塚田修大","year":2014.0,"address":"千葉県富津市湊1235-1","latitude":35.23369216918945,"longitude":139.88584899902344,"category":"工場/低層オフィス","big_category":"企業施設,企業施設","description":"オフィス棟2014年、倉庫棟2016年、工場棟2017年竣工。オフィス棟増築2016年竣工。他独身寮や工場棟の増築などを計画中","image_url":"","tags":"新建築2019年9月号,Ver3.10(2019年10月)の追加建築","prefecture":"千葉","contractor":"大栄鉄工所・大島建設","structural_designer":"","landscape_designer":"","shinkenchiku_url":""},{"id":8685,"title":"秋葉原アイマークビル","architect":"清水建設","year":2018.0,"address":"東京都台東区台東1-30-7","latitude":35.70219421386719,"longitude":139.77615356445312,"category":"テナントビル","big_category":"商業施設","description":"","image_url":"","tags":"新建築2019年9月号,Ver3.10(2019年10月)の追加建築","prefecture":"東京","contractor":"清水建設","structural_designer":"","landscape_designer":"","shinkenchiku_url":""},{"id":8686,"title":"久光製薬ミュージアム","architect":"チェッコ・ボナノッテ+安井建築設計事務所","year":2019.0,"address":"佐賀県鳥栖市田代大官町427","latitude":33.389122009277344,"longitude":130.51873779296875,"category":"博物館","big_category":"ミュージアム","description":"","image_url":"","tags":"新建築2019年9月号,Ver3.10(2019年10月)の追加建築","prefecture":"佐賀","contractor":"五洋・伸晃特定建設工事共同企業体","structural_designer":"","landscape_designer":"","shinkenchiku_url":""},{"id":8687,"title":"京の温所 西陣別邸","architect":"中村好文+皆川明","year":2019.0,"address":"京都府京都市上京区浄福寺通今出川下る堅亀屋町265-1","latitude":35.02907180786133,"longitude":135.7454833984375,"category":"ホテル","big_category":"宿泊","description":"築約95年の邸宅を改修","image_url":"","tags":"Ver3.10(2019年10月)の追加建築","prefecture":"京都","contractor":"","structural_designer":"","landscape_designer":"","shinkenchiku_url":""},{"id":8688,"title":"長崎大学 医学部ゲストハウス","architect":"佐々木信明","year":2018.0,"address":"長崎県長崎市坂本1-12-4","latitude":32.77222442626953,"longitude":129.86756896972656,"category":"大学/寮","big_category":"教育,住宅","description":"","image_url":"","tags":"Ver3.10(2019年10月)の追加建築","prefecture":"長崎","contractor":"","structural_designer":"","landscape_designer":"","shinkenchiku_url":""},{"id":8689,"title":"ナインアワーズ水道橋","architect":"平田晃久","year":2019.0,"address":"東京都千代田区神田三崎町3-10-1","latitude":35.70170593261719,"longitude":139.7509765625,"category":"ホテル","big_category":"宿泊","description":"","image_url":"","tags":"Ver3.10(2019年10月)の追加建築","prefecture":"東京","contractor":"","structural_designer":"","landscape_designer":"","shinkenchiku_url":""},{"id":8690,"title":"コンテナ町家 共創自治区SHIKIAMI CONCON","architect":"魚谷繁礼","year":2019.0,"address":"京都府京都市中京区油小路通御池下る式阿弥町130","latitude":35.010433197021484,"longitude":135.7532958984375,"category":"シェアオフィス/低層オフィス/レストラン","big_category":"商業施設,企業施設,商業施設","description":"","image_url":"","tags":"Ver3.10(2019年10月)の追加建築,新建築2020年7月号","prefecture":"京都","contractor":"","structural_designer":"","landscape_designer":"","shinkenchiku_url":""},{"id":8691,"title":"箸蔵とことん","architect":"y+M design Office+京智健","year":2019.0,"address":"徳島県三好市池田町州津乳ノ木1382-1","latitude":34.03471374511719,"longitude":133.83322143554688,"category":"店舗/レストラン/児童施設","big_category":"商業施設,商業施設,教育","description":"","image_url":"","tags":"Ver3.10(2019年10月)の追加建築","prefecture":"徳島","contractor":"","structural_designer":"","landscape_designer":"","shinkenchiku_url":""},{"id":8692,"title":"海陽町移住体験施設","architect":"京智健","year":2018.0,"address":"徳島県海部郡海陽町神野字柿谷136","latitude":33.662841796875,"longitude":134.3154754638672,"category":"住宅","big_category":"住宅","description":"移住体験施設","image_url":"","tags":"Ver3.10(2019年10月)の追加建築","prefecture":"徳島","contractor":"","structural_designer":"","landscape_designer":"","shinkenchiku_url":""},{"id":8693,"title":"川治温泉駅","architect":"中山繁信","year":1988.0,"address":"栃木県日光市藤原1105","latitude":36.88452911376953,"longitude":139.70375061035156,"category":"駅","big_category":"インフラ","description":"","image_url":"","tags":"Ver3.10(2019年10月)の追加建築","prefecture":"栃木","contractor":"","structural_designer":"","landscape_designer":"","shinkenchiku_url":""},{"id":8694,"title":"鴨水層","architect":"伊坂デザイン工房","year":1995.0,"address":"東京都世田谷区上用賀5-2-10","latitude":35.6276969909668,"longitude":139.62908935546875,"category":"テナントビル","big_category":"商業施設","description":"","image_url":"","tags":"Ver3.10(2019年10月)の追加建築","prefecture":"東京","contractor":"","structural_designer":"","landscape_designer":"","shinkenchiku_url":""},{"id":8695,"title":"山陰はわい温泉 望湖楼","architect":"青木茂","year":2019.0,"address":"鳥取県東伯郡湯梨浜町はわい温泉4-25","latitude":35.47724151611328,"longitude":133.88525390625,"category":"旅館","big_category":"宿泊","description":"リファイニング建築","image_url":"","tags":"Ver3.10(2019年10月)の追加建築","prefecture":"鳥取","contractor":"","structural_designer":"","landscape_designer":"","shinkenchiku_url":""},{"id":8696,"title":"ミクニ伊豆高原","architect":"隈研吾","year":2019.0,"address":"静岡県伊東市八幡野 ミクニ伊豆高原","latitude":34.87856674194336,"longitude":139.1079864501953,"category":"レストラン","big_category":"商業施設","description":"2019年10月5日開業","image_url":"","tags":"Ver3.10(2019年10月)の追加建築","prefecture":"静岡","contractor":"","structural_designer":"","landscape_designer":"","shinkenchiku_url":""},{"id":8697,"title":"住友林業筑波研究所 新研究棟","architect":"浅見和宏+住友林業","year":2019.0,"address":"茨城県つくば市緑ヶ原3-2","latitude":36.11346435546875,"longitude":140.02914428710938,"category":"研究施設","big_category":"教育","description":"","image_url":"","tags":"新建築2019年10月号,Ver3.10(2019年10月)の追加建築","prefecture":"茨城","contractor":"川田工業","structural_designer":"","landscape_designer":"","shinkenchiku_url":""},{"id":8698,"title":"シネジック 新社屋","architect":"ウエノアトリエ","year":2018.0,"address":"宮城県富谷市成田1-5-9","latitude":38.36273956298828,"longitude":140.8948974609375,"category":"低層オフィス","big_category":"企業施設","description":"","image_url":"","tags":"新建築2019年10月号,Ver3.10(2019年10月)の追加建築,第29回AACA 優秀賞,2022年日本建築学会 作品選集新人賞","prefecture":"宮城","contractor":"","structural_designer":"","landscape_designer":"","shinkenchiku_url":""},{"id":8699,"title":"屋久島町新庁舎","architect":"三井所清典","year":2019.0,"address":"鹿児島県熊毛郡屋久島町小瀬田849-20","latitude":30.39013671875,"longitude":130.65150451660156,"category":"庁舎","big_category":"公共施設","description":"","image_url":"","tags":"新建築2019年10月号,Ver3.10(2019年10月)の追加建築","prefecture":"鹿児島","contractor":"","structural_designer":"","landscape_designer":"","shinkenchiku_url":""},{"id":8700,"title":"浦和明の星女子中学・高等学校 カフェテリア棟","architect":"清水建設","year":2018.0,"address":"埼玉県さいたま市緑区東浦和6-4-19","latitude":35.870201110839844,"longitude":139.70799255371094,"category":"カフェ/学校","big_category":"商業施設,教育","description":"","image_url":"","tags":"新建築2019年10月号,Ver3.10(2019年10月)の追加建築","prefecture":"埼玉","contractor":"清水建設","structural_designer":"","landscape_designer":"","shinkenchiku_url":""}]}