{"page":107,"total_pages":290,"items_per_page":50,"total_items":14467,"items":[{"id":5301,"title":"新得町都市農村交流施設 カリンパニ","architect":"川人洋志","year":2015.0,"address":"北海道上川郡新得町字新得9-1","latitude":43.08552551269531,"longitude":142.81614685058594,"category":"体験施設/公共施設","big_category":"レジャー施設,公共施設","description":"","image_url":"","tags":"新建築2015年10月号","prefecture":"北海道","contractor":"","structural_designer":"","landscape_designer":"","shinkenchiku_url":""},{"id":5302,"title":"惣誉酒造","architect":"大野秀敏","year":2015.0,"address":"栃木県芳賀郡市貝町上根539","latitude":36.53325653076172,"longitude":140.0820770263672,"category":"醸造所","big_category":"商業施設","description":"一般公開はしていない。","image_url":"","tags":"新建築2015年10月号","prefecture":"栃木","contractor":"","structural_designer":"","landscape_designer":"","shinkenchiku_url":""},{"id":5303,"title":"半田赤レンガ建物","architect":"妻木頼黄+安井建築設計","year":1898.0,"address":"愛知県半田市榎下町8","latitude":34.9015998840332,"longitude":136.92840576171875,"category":"観光施設/産業遺産","big_category":"レジャー施設,近代建築/遺産","description":"妻木頼黄の設計で1898年竣工、その後2015年にリニューアル工事","image_url":"","tags":"新建築2015年10月号","prefecture":"愛知","contractor":"","structural_designer":"","landscape_designer":"","shinkenchiku_url":""},{"id":5304,"title":"安川電機みらい館・本社","architect":"三菱地所","year":2014.0,"address":"福岡県北九州市八幡西区黒崎城石2-1","latitude":33.867855072021484,"longitude":130.76856994628906,"category":"博物館/企業施設/低層オフィス","big_category":"ミュージアム,企業施設,企業施設","description":"みらい館の見学は要予約","image_url":"","tags":"新建築2015年10月号","prefecture":"福岡","contractor":"","structural_designer":"","landscape_designer":"","shinkenchiku_url":""},{"id":5305,"title":"サントリーワールド リサーチセンター","architect":"竹中工務店","year":2015.0,"address":"京都府相楽郡精華町精華台8-1-1","latitude":34.74381637573242,"longitude":135.7722930908203,"category":"研究施設/企業施設","big_category":"教育,企業施設","description":"","image_url":"","tags":"新建築2015年10月号","prefecture":"京都","contractor":"","structural_designer":"","landscape_designer":"","shinkenchiku_url":""},{"id":5306,"title":"ぐんま総合情報センター","architect":"伊藤麻理","year":2008.0,"address":"東京都中央区銀座5-13-19","latitude":35.66923904418945,"longitude":139.76707458496094,"category":"観光施設","big_category":"レジャー施設","description":"","image_url":"","tags":"","prefecture":"東京","contractor":"","structural_designer":"","landscape_designer":"","shinkenchiku_url":""},{"id":5307,"title":"あまねの杜保育園","architect":"相坂研介","year":2015.0,"address":"千葉県船橋市行田2-9-10","latitude":35.722782135009766,"longitude":139.97218322753906,"category":"幼稚園","big_category":"教育","description":"","image_url":"","tags":"新建築2016年5月号","prefecture":"千葉","contractor":"","structural_designer":"","landscape_designer":"","shinkenchiku_url":""},{"id":5308,"title":"新潟スタジアム ビッグスワン","architect":"日建設計","year":2001.0,"address":"新潟県新潟市中央区清五郎67-12","latitude":37.882476806640625,"longitude":139.05908203125,"category":"スタジアム","big_category":"レジャー施設","description":"","image_url":"","tags":"","prefecture":"新潟","contractor":"","structural_designer":"","landscape_designer":"","shinkenchiku_url":""},{"id":5309,"title":"小国町役場","architect":"本間利雄","year":1986.0,"address":"山形県西置賜郡小国町小国小坂町2-70","latitude":38.06160354614258,"longitude":139.74337768554688,"category":"庁舎","big_category":"公共施設","description":"","image_url":"","tags":"","prefecture":"山形","contractor":"","structural_designer":"","landscape_designer":"","shinkenchiku_url":""},{"id":5310,"title":"山形県緑町庭園文化学習施設 「洗心庵」","architect":"本間利雄","year":2013.0,"address":"山形県山形市緑町1-4-28","latitude":38.25485610961914,"longitude":140.34686279296875,"category":"観光施設/その他文化施設/庭園","big_category":"レジャー施設,文化施設,文化施設","description":"","image_url":"","tags":"","prefecture":"山形","contractor":"","structural_designer":"","landscape_designer":"","shinkenchiku_url":""},{"id":5311,"title":"新潟県立大学 1号館 旧県立新潟女子短期大学","architect":"内井昭蔵","year":1996.0,"address":"新潟県新潟市東区海老ケ瀬471","latitude":37.92325210571289,"longitude":139.12710571289062,"category":"大学","big_category":"教育","description":"","image_url":"","tags":"","prefecture":"新潟","contractor":"","structural_designer":"","landscape_designer":"","shinkenchiku_url":""},{"id":5312,"title":"南陽市交流プラザ 「蔵楽」","architect":"本間利雄","year":2004.0,"address":"山形県南陽市宮内1004-1","latitude":38.07072448730469,"longitude":140.13778686523438,"category":"公民館・交流施設","big_category":"公共施設","description":"","image_url":"","tags":"","prefecture":"山形","contractor":"","structural_designer":"","landscape_designer":"","shinkenchiku_url":""},{"id":5313,"title":"酒田市民会館 「希望ホール」","architect":"本間利雄","year":2004.0,"address":"山形県酒田市本町2-2-10","latitude":38.91394805908203,"longitude":139.836181640625,"category":"ホール・劇場","big_category":"文化施設","description":"","image_url":"","tags":"","prefecture":"山形","contractor":"","structural_designer":"","landscape_designer":"","shinkenchiku_url":""},{"id":5314,"title":"川西町フレンドリープラザ","architect":"本間利雄","year":1994.0,"address":"山形県東置賜郡川西町上小松1037-1","latitude":38.00617599487305,"longitude":140.0507049560547,"category":"図書館/ホール・劇場","big_category":"文化施設,文化施設","description":"","image_url":"","tags":"","prefecture":"山形","contractor":"","structural_designer":"","landscape_designer":"","shinkenchiku_url":""},{"id":5315,"title":"山形市総合スポーツセンター","architect":"本間利雄","year":1989.0,"address":"山形県山形市落合町1","latitude":38.282264709472656,"longitude":140.34768676757812,"category":"体育館","big_category":"レジャー施設","description":"","image_url":"","tags":"","prefecture":"山形","contractor":"","structural_designer":"","landscape_designer":"","shinkenchiku_url":""},{"id":5316,"title":"山形美術館","architect":"本間利雄","year":1985.0,"address":"山形県山形市大手町1-63","latitude":38.25586700439453,"longitude":140.33241271972656,"category":"美術館","big_category":"ミュージアム","description":"","image_url":"","tags":"","prefecture":"山形","contractor":"","structural_designer":"","landscape_designer":"","shinkenchiku_url":""},{"id":5317,"title":"新潟県立図書館","architect":"久米設計","year":1991.0,"address":"新潟県新潟市中央区女池南3-1-2","latitude":37.89009475708008,"longitude":139.05130004882812,"category":"図書館","big_category":"文化施設","description":"","image_url":"","tags":"","prefecture":"新潟","contractor":"","structural_designer":"","landscape_designer":"","shinkenchiku_url":""},{"id":5318,"title":"バンビル","architect":"山本理顕","year":2001.0,"address":"新潟県新潟市中央区医学町通2番町74-3","latitude":37.91783142089844,"longitude":139.03713989257812,"category":"集合住宅/テナントビル","big_category":"住宅,商業施設","description":"","image_url":"","tags":"","prefecture":"新潟","contractor":"","structural_designer":"","landscape_designer":"","shinkenchiku_url":""},{"id":5319,"title":"Kinco.","architect":"岡昇平","year":2015.0,"address":"香川県高松市花園町1-6-6","latitude":34.335391998291016,"longitude":134.0563507080078,"category":"カフェ/ホテル","big_category":"商業施設,宿泊","description":"リノベーション","image_url":"","tags":"","prefecture":"香川","contractor":"","structural_designer":"","landscape_designer":"","shinkenchiku_url":""},{"id":5320,"title":"観音崎戦没船員の碑","architect":"吉村順三","year":1971.0,"address":"神奈川県横須賀市鴨居4-1120","latitude":35.25430679321289,"longitude":139.74075317382812,"category":"オブジェ/宗教施設","big_category":"ミュージアム,宗教","description":"","image_url":"","tags":"","prefecture":"神奈川","contractor":"","structural_designer":"","landscape_designer":"","shinkenchiku_url":""},{"id":5321,"title":"ホテルいんのしま","architect":"大旗連合建築設計","year":1971.0,"address":"広島県尾道市因島土生町平木区288","latitude":34.285362243652344,"longitude":133.18655395507812,"category":"ホテル","big_category":"宿泊","description":"","image_url":"","tags":"","prefecture":"広島","contractor":"","structural_designer":"","landscape_designer":"","shinkenchiku_url":""},{"id":5322,"title":"MIDビル","architect":"前川國男","year":1954.0,"address":"東京都新宿区四谷本塩町4-5","latitude":35.68872833251953,"longitude":139.7295379638672,"category":"オフィスビル","big_category":"企業施設","description":"","image_url":"","tags":"DOCOMOMO","prefecture":"東京","contractor":"","structural_designer":"","landscape_designer":"","shinkenchiku_url":""},{"id":5323,"title":"日産自動車追浜工場体育館","architect":"大高正人","year":1969.0,"address":"神奈川県横須賀市夏島町1","latitude":35.320335388183594,"longitude":139.63589477539062,"category":"体育館","big_category":"レジャー施設","description":"","image_url":"","tags":"","prefecture":"神奈川","contractor":"","structural_designer":"","landscape_designer":"","shinkenchiku_url":""},{"id":5324,"title":"Sugar","architect":"千葉学","year":2014.0,"address":"東京都世田谷区太子堂2-7-13","latitude":35.64607238769531,"longitude":139.673095703125,"category":"集合住宅","big_category":"住宅","description":"","image_url":"","tags":"新建築2005年2月号","prefecture":"東京","contractor":"","structural_designer":"","landscape_designer":"","shinkenchiku_url":""},{"id":5325,"title":"岡崎つる家","architect":"吉田五十八","year":1965.0,"address":"京都府京都市左京区岡崎東天王町30","latitude":35.0166015625,"longitude":135.79104614257812,"category":"料亭","big_category":"商業施設","description":"","image_url":"","tags":"","prefecture":"京都","contractor":"","structural_designer":"","landscape_designer":"","shinkenchiku_url":""},{"id":5326,"title":"湯豆腐 嵯峨野 旧富田屋","architect":"村野藤吾","year":1957.0,"address":"京都府京都市右京区嵯峨天龍寺芒ノ馬場町45","latitude":35.014522552490234,"longitude":135.6748504638672,"category":"料亭","big_category":"商業施設","description":"","image_url":"","tags":"","prefecture":"京都","contractor":"","structural_designer":"","landscape_designer":"","shinkenchiku_url":""},{"id":5327,"title":"茶寮 惠庵","architect":"村野藤吾","year":1985.0,"address":"東京都港区高輪3-13-1","latitude":35.63011169433594,"longitude":139.73345947265625,"category":"茶室","big_category":"住宅","description":"","image_url":"","tags":"","prefecture":"東京","contractor":"","structural_designer":"","landscape_designer":"","shinkenchiku_url":""},{"id":5328,"title":"なだ万本店 山茶花荘","architect":"村野藤吾","year":1976.0,"address":"東京都千代田区紀尾井町4-1","latitude":35.68010330200195,"longitude":139.7338409423828,"category":"料亭","big_category":"商業施設","description":"","image_url":"","tags":"","prefecture":"東京","contractor":"","structural_designer":"","landscape_designer":"","shinkenchiku_url":""},{"id":5329,"title":"東光庵","architect":"村野藤吾","year":1970.0,"address":"東京都千代田区内幸町1-1-1","latitude":35.67223358154297,"longitude":139.758544921875,"category":"茶室","big_category":"住宅","description":"","image_url":"","tags":"","prefecture":"東京","contractor":"","structural_designer":"","landscape_designer":"","shinkenchiku_url":""},{"id":5330,"title":"清恵庵","architect":"堀口捨己","year":1970.0,"address":"佐賀県佐賀市城内1-15","latitude":33.24412536621094,"longitude":130.30072021484375,"category":"茶室","big_category":"住宅","description":"","image_url":"","tags":"","prefecture":"佐賀","contractor":"","structural_designer":"","landscape_designer":"","shinkenchiku_url":""},{"id":5331,"title":"神田外語大学 7号館","architect":"松田平田設計","year":2008.0,"address":"千葉県千葉市美浜区若葉1-4-1","latitude":35.656700134277344,"longitude":140.04116821289062,"category":"大学","big_category":"教育","description":"","image_url":"","tags":"","prefecture":"千葉","contractor":"大成建設","structural_designer":"","landscape_designer":"","shinkenchiku_url":""},{"id":5332,"title":"堺市立栂文化会館","architect":"村野藤吾","year":1984.0,"address":"大阪府堺市南区桃山台2-1-2","latitude":34.48572540283203,"longitude":135.48931884765625,"category":"ホール・劇場","big_category":"文化施設","description":"","image_url":"","tags":"","prefecture":"大阪","contractor":"","structural_designer":"","landscape_designer":"","shinkenchiku_url":""},{"id":5333,"title":"なんばグランド花月 旧吉本会館","architect":"村野藤吾","year":1987.0,"address":"大阪府大阪市中央区難波千日前11-6","latitude":34.66497039794922,"longitude":135.50367736816406,"category":"ホール・劇場","big_category":"文化施設","description":"","image_url":"","tags":"","prefecture":"大阪","contractor":"","structural_designer":"","landscape_designer":"","shinkenchiku_url":""},{"id":5334,"title":"横浜市庁舎","architect":"村野藤吾","year":1959.0,"address":"神奈川県横浜市中区港町1-1","latitude":35.44409942626953,"longitude":139.63804626464844,"category":"庁舎","big_category":"公共施設","description":"","image_url":"","tags":"DOCOMOMO","prefecture":"神奈川","contractor":"戸田建設","structural_designer":"","landscape_designer":"","shinkenchiku_url":""},{"id":5335,"title":"高木産業ビル","architect":"村野藤吾","year":1959.0,"address":"大阪府大阪市中央区常盤町2-3-16","latitude":34.682273864746094,"longitude":135.51202392578125,"category":"オフィスビル","big_category":"企業施設","description":"","image_url":"","tags":"","prefecture":"大阪","contractor":"","structural_designer":"","landscape_designer":"","shinkenchiku_url":""},{"id":5336,"title":"宝塚ゴルフ倶楽部 クラブハウス","architect":"村野藤吾","year":1959.0,"address":"兵庫県宝塚市蔵人深谷1391-1","latitude":34.787479400634766,"longitude":135.34071350097656,"category":"クラブハウス","big_category":"レジャー施設","description":"","image_url":"","tags":"","prefecture":"兵庫","contractor":"","structural_designer":"","landscape_designer":"","shinkenchiku_url":""},{"id":5337,"title":"ガーデンミュージアム比叡 展望閣","architect":"村野藤吾","year":1959.0,"address":"京都府京都市左京区修学院尺羅ケ谷四明ケ嶽4","latitude":35.06473159790039,"longitude":135.8290252685547,"category":"展望台","big_category":"レジャー施設","description":"","image_url":"","tags":"","prefecture":"京都","contractor":"","structural_designer":"","landscape_designer":"","shinkenchiku_url":""},{"id":5338,"title":"TATSUMI梅ヶ枝ビル 旧第一住建梅ヶ枝町ビル","architect":"村野藤吾","year":1962.0,"address":"大阪府大阪市北区西天満6-2-11","latitude":34.698726654052734,"longitude":135.50555419921875,"category":"オフィスビル","big_category":"企業施設","description":"","image_url":"","tags":"","prefecture":"大阪","contractor":"","structural_designer":"","landscape_designer":"","shinkenchiku_url":""},{"id":5339,"title":"関西大学 千里山東体育館 旧総合体育館","architect":"村野藤吾","year":1963.0,"address":"大阪府吹田市千里山東3-6-13","latitude":34.77544403076172,"longitude":135.5126190185547,"category":"大学/体育館","big_category":"教育,レジャー施設","description":"","image_url":"","tags":"DOCOMOMO","prefecture":"大阪","contractor":"","structural_designer":"","landscape_designer":"","shinkenchiku_url":""},{"id":5340,"title":"横浜市立大学 金沢八景キャンパス","architect":"村野藤吾","year":1963.0,"address":"神奈川県横浜市金沢区瀬戸22-2","latitude":35.33418273925781,"longitude":139.61851501464844,"category":"大学","big_category":"教育","description":"","image_url":"","tags":"","prefecture":"神奈川","contractor":"","structural_designer":"","landscape_designer":"","shinkenchiku_url":""},{"id":5341,"title":"堺市立平尾小学校","architect":"村野藤吾","year":1966.0,"address":"大阪府堺市美原区平尾360","latitude":34.533233642578125,"longitude":135.56651306152344,"category":"学校","big_category":"教育","description":"","image_url":"","tags":"","prefecture":"大阪","contractor":"","structural_designer":"","landscape_designer":"","shinkenchiku_url":""},{"id":5342,"title":"甲南女子学園 甲南女子中高等学校","architect":"村野藤吾","year":1968.0,"address":"兵庫県神戸市東灘区森北町5-6-1","latitude":34.73493957519531,"longitude":135.2916717529297,"category":"学校","big_category":"教育","description":"","image_url":"","tags":"","prefecture":"兵庫","contractor":"","structural_designer":"","landscape_designer":"","shinkenchiku_url":""},{"id":5343,"title":"甲南女子学園 甲南女子中高等学校 新校舎","architect":"東畑建築事務所","year":2012.0,"address":"兵庫県神戸市東灘区森北町5-6-1","latitude":34.734275817871094,"longitude":135.2914581298828,"category":"学校","big_category":"教育","description":"","image_url":"","tags":"","prefecture":"兵庫","contractor":"","structural_designer":"","landscape_designer":"","shinkenchiku_url":""},{"id":5344,"title":"近鉄新本社ビル","architect":"村野藤吾","year":1969.0,"address":"大阪府大阪市天王寺区石ケ辻町16-28","latitude":34.664955139160156,"longitude":135.52130126953125,"category":"オフィスビル","big_category":"企業施設","description":"","image_url":"","tags":"","prefecture":"大阪","contractor":"","structural_designer":"","landscape_designer":"","shinkenchiku_url":""},{"id":5345,"title":"南森町イシカワビル","architect":"村野藤吾","year":1969.0,"address":"大阪府大阪市北区天神橋3-3-3","latitude":34.700096130371094,"longitude":135.5111541748047,"category":"オフィスビル","big_category":"企業施設","description":"","image_url":"","tags":"","prefecture":"大阪","contractor":"","structural_designer":"","landscape_designer":"","shinkenchiku_url":""},{"id":5346,"title":"信貴山大本山 成福院 客殿","architect":"村野藤吾","year":1970.0,"address":"奈良県生駒郡平群町信貴山2280","latitude":34.60979080200195,"longitude":135.67019653320312,"category":"寺院","big_category":"宗教","description":"","image_url":"","tags":"","prefecture":"奈良","contractor":"","structural_designer":"","landscape_designer":"","shinkenchiku_url":""},{"id":5347,"title":"アベノセンタービル","architect":"村野藤吾","year":1970.0,"address":"大阪府大阪市阿倍野区阿倍野筋1-5-36","latitude":34.646488189697266,"longitude":135.5122528076172,"category":"オフィスビル/テナントビル","big_category":"企業施設,商業施設","description":"","image_url":"","tags":"","prefecture":"大阪","contractor":"","structural_designer":"","landscape_designer":"","shinkenchiku_url":""},{"id":5348,"title":"西天満パークビル3号館","architect":"村野藤吾","year":1970.0,"address":"大阪府大阪市北区西天満3-14-16","latitude":34.69747543334961,"longitude":135.50665283203125,"category":"オフィスビル","big_category":"企業施設","description":"","image_url":"","tags":"","prefecture":"大阪","contractor":"","structural_designer":"","landscape_designer":"","shinkenchiku_url":""},{"id":5349,"title":"出光興産宮前給油所","architect":"村野藤吾","year":1971.0,"address":"福岡県宗像市深田67-7","latitude":33.832725524902344,"longitude":130.51283264160156,"category":"店舗","big_category":"商業施設","description":"","image_url":"","tags":"","prefecture":"福岡","contractor":"","structural_designer":"","landscape_designer":"","shinkenchiku_url":""},{"id":5350,"title":"きんえいアポロビル","architect":"村野藤吾","year":1972.0,"address":"大阪府大阪市阿倍野区阿倍野筋1-5-1","latitude":34.646446228027344,"longitude":135.51173400878906,"category":"テナントビル","big_category":"商業施設","description":"","image_url":"","tags":"","prefecture":"大阪","contractor":"","structural_designer":"","landscape_designer":"","shinkenchiku_url":""}]}