{"page":239,"total_pages":290,"items_per_page":50,"total_items":14467,"items":[{"id":11901,"title":"追分公民館","architect":"武基雄","year":1995.0,"address":"長野県北佐久郡軽井沢町追分523","latitude":36.338260650634766,"longitude":138.54144287109375,"category":"公民館・交流施設","big_category":"公共施設","description":"","image_url":"","tags":"Ver4.70(2022年10月)の追加建築","prefecture":"長野","contractor":"","structural_designer":"","landscape_designer":"","shinkenchiku_url":""},{"id":11902,"title":"市村記念館 旧近衛文麿別荘","architect":"あめりか屋","year":1918.0,"address":"長野県北佐久郡軽井沢町長倉2112-21","latitude":36.345115661621094,"longitude":138.60455322265625,"category":"洋館","big_category":"近代建築/遺産","description":"1997年移築復元","image_url":"","tags":"Ver4.70(2022年10月)の追加建築","prefecture":"長野","contractor":"","structural_designer":"","landscape_designer":"","shinkenchiku_url":""},{"id":11903,"title":"軽井沢町立離山図書館","architect":"三輪正弘","year":1976.0,"address":"長野県北佐久郡軽井沢町長倉2112-118","latitude":36.3456916809082,"longitude":138.6071014404297,"category":"図書館","big_category":"文化施設","description":"","image_url":"","tags":"Ver4.70(2022年10月)の追加建築","prefecture":"長野","contractor":"","structural_designer":"","landscape_designer":"","shinkenchiku_url":""},{"id":11904,"title":"堀辰雄文学記念館","architect":"トータルメディア開発研究所","year":1993.0,"address":"長野県北佐久郡軽井沢町追分662","latitude":36.338844299316406,"longitude":138.54400634765625,"category":"博物館","big_category":"ミュージアム","description":"","image_url":"","tags":"Ver4.70(2022年10月)の追加建築","prefecture":"長野","contractor":"","structural_designer":"","landscape_designer":"","shinkenchiku_url":""},{"id":11905,"title":"隠れ家プロジェクト 小さな家","architect":"広瀬毅","year":2018.0,"address":"長野県北佐久郡軽井沢町追分607","latitude":36.33995819091797,"longitude":138.54306030273438,"category":"ギャラリー/住宅","big_category":"ミュージアム,住宅","description":"信濃追分文化磁場油や裏庭に所在","image_url":"","tags":"Ver4.70(2022年10月)の追加建築","prefecture":"長野","contractor":"","structural_designer":"","landscape_designer":"","shinkenchiku_url":""},{"id":11906,"title":"三春町立岩江小学校","architect":"山下和正","year":1964.0,"address":"福島県田村郡三春町上舞木大谷ツ24","latitude":37.42292022705078,"longitude":140.43931579589844,"category":"学校","big_category":"教育","description":"1985年改修","image_url":"","tags":"Ver4.70(2022年10月)の追加建築","prefecture":"福島","contractor":"","structural_designer":"","landscape_designer":"","shinkenchiku_url":""},{"id":11907,"title":"三春の里 田園生活館","architect":"Team Zoo鰐+一級建築士事務所熊+阿部節子+齊藤祐子 他","year":1994.0,"address":"福島県田村郡三春町西方石畑487-1","latitude":37.41075134277344,"longitude":140.47227478027344,"category":"ホテル/レストラン","big_category":"宿泊,商業施設","description":"ぼう建築計画も設計者としてクレジットされている（表記欄が足りないためここに別記）","image_url":"","tags":"Ver4.70(2022年10月)の追加建築","prefecture":"福島","contractor":"","structural_designer":"","landscape_designer":"","shinkenchiku_url":""},{"id":11908,"title":"新しい村 森の市場 結","architect":"Team Zoo鰐","year":2001.0,"address":"埼玉県南埼玉郡宮代町山崎777-1","latitude":36.01749038696289,"longitude":139.71986389160156,"category":"店舗","big_category":"商業施設","description":"","image_url":"","tags":"Ver4.70(2022年10月)の追加建築","prefecture":"埼玉","contractor":"","structural_designer":"","landscape_designer":"","shinkenchiku_url":""},{"id":11909,"title":"奥津温泉 花美人の里","architect":"杉本洋文+鶴田伸介","year":1999.0,"address":"岡山県苫田郡鏡野町奥津川西261","latitude":35.22180938720703,"longitude":133.91995239257812,"category":"温泉/店舗","big_category":"宿泊,商業施設","description":"","image_url":"","tags":"Ver4.70(2022年10月)の追加建築","prefecture":"岡山","contractor":"","structural_designer":"","landscape_designer":"","shinkenchiku_url":""},{"id":11910,"title":"金沢市末浄水場","architect":"石井一夫","year":1932.0,"address":"石川県金沢市末町1-1","latitude":36.51248550415039,"longitude":136.69927978515625,"category":"工場/公共施設","big_category":"企業施設,公共施設","description":"","image_url":"","tags":"登録有形文化財,Ver4.70(2022年10月)の追加建築","prefecture":"石川","contractor":"","structural_designer":"","landscape_designer":"","shinkenchiku_url":""},{"id":11911,"title":"北陸学院ウィン館 旧ウィン館","architect":"トーマス・ウィン","year":1888.0,"address":"石川県金沢市飛梅町1","latitude":36.559471130371094,"longitude":136.66656494140625,"category":"洋館","big_category":"近代建築/遺産","description":"2010年改修","image_url":"","tags":"Ver4.70(2022年10月)の追加建築","prefecture":"石川","contractor":"","structural_designer":"","landscape_designer":"","shinkenchiku_url":""},{"id":11912,"title":"安藤芳園堂ビルヂング","architect":"小津誠一+みづほ工業","year":2017.0,"address":"石川県金沢市野町1-2-43","latitude":36.556644439697266,"longitude":136.6490020751953,"category":"テナントビル","big_category":"商業施設","description":"","image_url":"","tags":"Ver4.70(2022年10月)の追加建築","prefecture":"石川","contractor":"","structural_designer":"","landscape_designer":"","shinkenchiku_url":""},{"id":11913,"title":"エピキュリアン","architect":"小津誠一","year":2019.0,"address":"石川県金沢市稚日野町北77","latitude":36.57795333862305,"longitude":136.5972900390625,"category":"レストラン","big_category":"商業施設","description":"2022年8月末で閉店","image_url":"","tags":"Ver4.70(2022年10月)の追加建築","prefecture":"石川","contractor":"","structural_designer":"","landscape_designer":"","shinkenchiku_url":""},{"id":11914,"title":"旧南湖院第一病舎","architect":"小島伊勢松","year":1899.0,"address":"神奈川県茅ヶ崎市南湖7-12869","latitude":35.31964874267578,"longitude":139.38894653320312,"category":"洋館","big_category":"近代建築/遺産","description":"","image_url":"","tags":"登録有形文化財,Ver4.70(2022年10月)の追加建築","prefecture":"神奈川","contractor":"","structural_designer":"","landscape_designer":"","shinkenchiku_url":""},{"id":11915,"title":"大磯迎賓舘 旧木下家別邸","architect":"小笹三郎","year":1912.0,"address":"神奈川県中郡大磯町大磯1007","latitude":35.31105422973633,"longitude":139.3144989013672,"category":"洋館/レストラン","big_category":"近代建築/遺産,商業施設","description":"","image_url":"","tags":"登録有形文化財,Ver4.70(2022年10月)の追加建築","prefecture":"神奈川","contractor":"","structural_designer":"","landscape_designer":"","shinkenchiku_url":""},{"id":11916,"title":"熊澤酒造","architect":"和田義之","year":1996.0,"address":"神奈川県茅ヶ崎市香川7-10-7","latitude":35.36079406738281,"longitude":139.40228271484375,"category":"レストラン/醸造所","big_category":"商業施設,商業施設","description":"改修","image_url":"","tags":"Ver4.70(2022年10月)の追加建築","prefecture":"神奈川","contractor":"","structural_designer":"","landscape_designer":"","shinkenchiku_url":""},{"id":11917,"title":"旧大隈重信別邸・旧古河別邸","architect":"不明","year":null,"address":"神奈川県中郡大磯町285","latitude":35.306976318359375,"longitude":139.30563354492188,"category":"和風住宅","big_category":"住宅","description":"内部非公開。外観・庭園のみ公開","image_url":"","tags":"Ver4.70(2022年10月)の追加建築","prefecture":"神奈川","contractor":"","structural_designer":"","landscape_designer":"","shinkenchiku_url":""},{"id":11918,"title":"陸奥宗光別邸跡・旧古河別邸","architect":"葛西萬司+田中実","year":1930.0,"address":"神奈川県中郡大磯町285","latitude":35.30718994140625,"longitude":139.30662536621094,"category":"和風住宅","big_category":"住宅","description":"内部非公開。外観・庭園のみ公開","image_url":"","tags":"Ver4.70(2022年10月)の追加建築","prefecture":"神奈川","contractor":"","structural_designer":"","landscape_designer":"","shinkenchiku_url":""},{"id":11919,"title":"対馬博物館","architect":"石本建築事務所","year":2022.0,"address":"長崎県対馬市厳原町今屋敷668-2","latitude":34.2036247253418,"longitude":129.28794860839844,"category":"博物館","big_category":"ミュージアム","description":"","image_url":"","tags":"新建築2022年11月号,Ver4.80(2023年1月)の追加建築","prefecture":"長崎","contractor":"","structural_designer":"","landscape_designer":"","shinkenchiku_url":""},{"id":11920,"title":"九段会館テラス","architect":"鹿島建設+梓設計+川元良一","year":2022.0,"address":"東京都千代田区九段南1-6-5","latitude":35.69443130493164,"longitude":139.75155639648438,"category":"オフィスビル/結婚式場","big_category":"企業施設,宗教","description":"九段会館を一部残した形で建替。九段会館の元設計者は川元良一","image_url":"","tags":"新建築2022年11月号,Ver4.80(2023年1月)の追加建築","prefecture":"東京","contractor":"鹿島建設","structural_designer":"","landscape_designer":"","shinkenchiku_url":""},{"id":11921,"title":"石巻市震災遺構門脇小学校","architect":"鈴木弘人+佐藤光彦","year":2022.0,"address":"宮城県石巻市門脇町4-3-15","latitude":38.42131423950195,"longitude":141.3046875,"category":"博物館","big_category":"ミュージアム","description":"","image_url":"","tags":"新建築2022年11月号,Ver4.80(2023年1月)の追加建築","prefecture":"宮城","contractor":"","structural_designer":"","landscape_designer":"","shinkenchiku_url":""},{"id":11922,"title":"SLIT PARK YURAKUCHO","architect":"三菱地所+馬場正尊","year":2022.0,"address":"東京都千代田区丸の内3-4-1","latitude":35.67647933959961,"longitude":139.76234436035156,"category":"公園/広場","big_category":"レジャー施設,文化施設","description":"","image_url":"","tags":"新建築2022年11月号,Ver4.80(2023年1月)の追加建築","prefecture":"東京","contractor":"","structural_designer":"","landscape_designer":"","shinkenchiku_url":""},{"id":11923,"title":"酒蔵の建築群 仁井田本家米倉庫","architect":"宮城島崇人","year":2022.0,"address":"福島県郡山市田村町金沢高屋敷139","latitude":37.34297561645508,"longitude":140.4393768310547,"category":"醸造所/古民家","big_category":"商業施設,近代建築/遺産","description":"","image_url":"","tags":"新建築2022年11月号,Ver4.80(2023年1月)の追加建築","prefecture":"福島","contractor":"","structural_designer":"","landscape_designer":"","shinkenchiku_url":""},{"id":11924,"title":"昭和女子大学 正門・守衛所","architect":"永山祐子","year":2022.0,"address":"東京都世田谷区太子堂1-12","latitude":35.64543151855469,"longitude":139.67520141601562,"category":"大学","big_category":"教育","description":"","image_url":"","tags":"新建築2022年11月号,Ver4.80(2023年1月)の追加建築","prefecture":"東京","contractor":"戸田建設","structural_designer":"","landscape_designer":"","shinkenchiku_url":""},{"id":11925,"title":"昭和女子大学 学生ホール改修","architect":"永山祐子","year":2019.0,"address":"東京都世田谷区太子堂1-12","latitude":35.64360046386719,"longitude":139.67556762695312,"category":"大学","big_category":"教育","description":"8号館1階の学生ホール改修","image_url":"","tags":"新建築2022年11月号,Ver4.80(2023年1月)の追加建築","prefecture":"東京","contractor":"ジーク","structural_designer":"","landscape_designer":"","shinkenchiku_url":""},{"id":11926,"title":"しののめ信用金庫 前橋営業部ビル改修","architect":"宮崎晃吉+twism design studio","year":2022.0,"address":"群馬県前橋市千代田町2-3-12","latitude":36.393646240234375,"longitude":139.06785583496094,"category":"オフィスビル","big_category":"企業施設","description":"1964年竣工のビル改修","image_url":"","tags":"新建築2022年11月号,Ver4.80(2023年1月)の追加建築","prefecture":"群馬","contractor":"","structural_designer":"","landscape_designer":"","shinkenchiku_url":""},{"id":11927,"title":"東郷の杜 東郷記念館","architect":"藤原徹平+神本豊秋","year":2022.0,"address":"東京都渋谷区神宮前1-5-3","latitude":35.67167663574219,"longitude":139.70639038085938,"category":"結婚式場/レストラン","big_category":"宗教,商業施設","description":"","image_url":"","tags":"新建築2022年11月号,Ver4.80(2023年1月)の追加建築","prefecture":"東京","contractor":"清水建設","structural_designer":"","landscape_designer":"","shinkenchiku_url":""},{"id":11928,"title":"聖林寺 観音堂","architect":"栗生明+北川・上田総合計画","year":2022.0,"address":"奈良県桜井市下692","latitude":34.491695404052734,"longitude":135.8515625,"category":"寺院","big_category":"宗教","description":"","image_url":"","tags":"新建築2022年11月号,Ver4.80(2023年1月)の追加建築,第33回AACA 奨励賞","prefecture":"奈良","contractor":"中尾組","structural_designer":"","landscape_designer":"","shinkenchiku_url":""},{"id":11929,"title":"千葉大学 亥鼻キャンパス新正門","architect":"栗生明+北川・上田総合計画","year":2022.0,"address":"千葉県千葉市中央区亥鼻1-8-1 千葉大学亥鼻キャンパス","latitude":35.60279846191406,"longitude":140.1330108642578,"category":"大学","big_category":"教育","description":"","image_url":"","tags":"Ver4.80(2023年1月)の追加建築","prefecture":"千葉","contractor":"","structural_designer":"","landscape_designer":"","shinkenchiku_url":""},{"id":11930,"title":"静岡理工科大学 土木工学科棟・土木工学実験棟","architect":"栗生明+北川・上田総合計画","year":2022.0,"address":"静岡県袋井市豊沢2200-2","latitude":34.7393684387207,"longitude":137.961181640625,"category":"大学","big_category":"教育","description":"","image_url":"","tags":"新建築2023年1月号,Ver4.80(2023年1月)の追加建築","prefecture":"静岡","contractor":"","structural_designer":"","landscape_designer":"","shinkenchiku_url":""},{"id":11931,"title":"CAFE iNUUK","architect":"栗生明","year":2021.0,"address":"兵庫県豊岡市日高町伊府785","latitude":35.46147918701172,"longitude":134.73255920410156,"category":"カフェ","big_category":"商業施設","description":"","image_url":"","tags":"Ver4.80(2023年1月)の追加建築","prefecture":"兵庫","contractor":"中川工務店","structural_designer":"","landscape_designer":"","shinkenchiku_url":""},{"id":11932,"title":"アサヒロジスティクス 滑川福田センター","architect":"栗生明","year":2018.0,"address":"埼玉県比企郡滑川町福田391-3","latitude":36.07316207885742,"longitude":139.35009765625,"category":"工場","big_category":"企業施設","description":"","image_url":"","tags":"Ver4.80(2023年1月)の追加建築","prefecture":"埼玉","contractor":"","structural_designer":"","landscape_designer":"","shinkenchiku_url":""},{"id":11933,"title":"おりがみ公園","architect":"栗生明","year":2018.0,"address":"埼玉県比企郡嵐山町菅谷226","latitude":36.0397834777832,"longitude":139.33016967773438,"category":"公園","big_category":"レジャー施設","description":"","image_url":"","tags":"Ver4.80(2023年1月)の追加建築","prefecture":"埼玉","contractor":"","structural_designer":"","landscape_designer":"","shinkenchiku_url":""},{"id":11934,"title":"氷見駅前広場","architect":"栗生明","year":2017.0,"address":"富山県氷見市伊勢大町1-12","latitude":36.84955978393555,"longitude":136.9902801513672,"category":"駅/広場","big_category":"インフラ,文化施設","description":"","image_url":"","tags":"Ver4.80(2023年1月)の追加建築","prefecture":"富山","contractor":"","structural_designer":"","landscape_designer":"","shinkenchiku_url":""},{"id":11935,"title":"東京大学 理学部附属植物園分園 日光植物園フィールドステーション","architect":"栗生明","year":2019.0,"address":"栃木県日光市花石町1842","latitude":36.74999237060547,"longitude":139.58615112304688,"category":"研究施設","big_category":"教育","description":"","image_url":"","tags":"Ver4.80(2023年1月)の追加建築","prefecture":"栃木","contractor":"","structural_designer":"","landscape_designer":"","shinkenchiku_url":""},{"id":11936,"title":"群馬県相生第一県営住宅","architect":"栗生明","year":1995.0,"address":"群馬県桐生市相生町5-452","latitude":36.41645050048828,"longitude":139.291748046875,"category":"集合住宅","big_category":"住宅","description":"","image_url":"","tags":"Ver4.80(2023年1月)の追加建築","prefecture":"群馬","contractor":"","structural_designer":"","landscape_designer":"","shinkenchiku_url":""},{"id":11937,"title":"鳩山ニュータウン・タウンセンター","architect":"栗生明","year":1994.0,"address":"埼玉県比企郡鳩山町松ヶ丘1-2-4","latitude":35.98788070678711,"longitude":139.3544158935547,"category":"公共施設","big_category":"公共施設","description":"塔を中心とした建築は1994年竣工、同設計者の情報センター/カーニバル・タワー","image_url":"","tags":"Ver4.80(2023年1月)の追加建築,新建築 1994年9月号","prefecture":"埼玉","contractor":"","structural_designer":"","landscape_designer":"","shinkenchiku_url":""},{"id":11938,"title":"井上誠昌堂 富山オフィス","architect":"栗生明","year":1990.0,"address":"富山県富山市針原中町943-1","latitude":36.73288345336914,"longitude":137.27589416503906,"category":"低層オフィス","big_category":"企業施設","description":"おそらく閉鎖されている。建物は現存している模様","image_url":"","tags":"Ver4.80(2023年1月)の追加建築","prefecture":"富山","contractor":"","structural_designer":"","landscape_designer":"","shinkenchiku_url":""},{"id":11939,"title":"神慈秀明会 黄島道場","architect":"栗生明","year":1991.0,"address":"岡山県瀬戸内市牛窓町牛窓6388","latitude":34.600006103515625,"longitude":134.1958465576172,"category":"宗教施設","big_category":"宗教","description":"信者の宿泊研修道場","image_url":"","tags":"Ver4.80(2023年1月)の追加建築","prefecture":"岡山","contractor":"","structural_designer":"","landscape_designer":"","shinkenchiku_url":""},{"id":11940,"title":"神慈秀明会 黄島神殿","architect":"栗生明","year":1989.0,"address":"岡山県瀬戸内市牛窓町牛窓黄島","latitude":34.599918365478516,"longitude":134.19918823242188,"category":"宗教施設","big_category":"宗教","description":"","image_url":"","tags":"Ver4.80(2023年1月)の追加建築","prefecture":"岡山","contractor":"","structural_designer":"","landscape_designer":"","shinkenchiku_url":""},{"id":11941,"title":"医学部専門予備校YMS・YMS Annex","architect":"栗生明","year":1997.0,"address":"東京都渋谷区代々木1-37-14","latitude":35.68341064453125,"longitude":139.70040893554688,"category":"専門学校","big_category":"教育","description":"1997年に本校舎、2013年に新校舎","image_url":"","tags":"Ver4.80(2023年1月)の追加建築","prefecture":"東京","contractor":"","structural_designer":"","landscape_designer":"","shinkenchiku_url":""},{"id":11942,"title":"静岡理工科大学 学生ホール改修","architect":"403architecture [dajiba]","year":2019.0,"address":"静岡県袋井市豊沢2200-2","latitude":34.73824691772461,"longitude":137.9604949951172,"category":"大学/カフェ","big_category":"教育,商業施設","description":"","image_url":"","tags":"新建築2022年11月号,Ver4.80(2023年1月)の追加建築","prefecture":"静岡","contractor":"石川建設","structural_designer":"","landscape_designer":"","shinkenchiku_url":""},{"id":11943,"title":"静岡理工科大学 学生ホール東屋","architect":"403architecture [dajiba]","year":2021.0,"address":"静岡県袋井市豊沢2200-2","latitude":34.73839569091797,"longitude":137.9602508544922,"category":"大学/カフェ","big_category":"教育,商業施設","description":"","image_url":"","tags":"新建築2022年11月号,Ver4.80(2023年1月)の追加建築","prefecture":"静岡","contractor":"石川建設","structural_designer":"","landscape_designer":"","shinkenchiku_url":""},{"id":11944,"title":"前田建設工業 東京建築支店改修計画","architect":"前田建設工業","year":2022.0,"address":"東京都千代田区九段北4-3-1","latitude":35.693668365478516,"longitude":139.74012756347656,"category":"オフィスビル","big_category":"企業施設","description":"","image_url":"","tags":"新建築2022年11月号,Ver4.80(2023年1月)の追加建築","prefecture":"東京","contractor":"","structural_designer":"","landscape_designer":"","shinkenchiku_url":""},{"id":11945,"title":"ジブリパーク1期 ジブリの大倉庫","architect":"日本設計+スタジオジブリ","year":2022.0,"address":"愛知県長久手市茨ケ廻間乙1533-1","latitude":35.17384338378906,"longitude":137.0890350341797,"category":"テーマパーク","big_category":"レジャー施設","description":"","image_url":"","tags":"新建築2022年11月号,Ver4.80(2023年1月)の追加建築","prefecture":"愛知","contractor":"鹿島建設","structural_designer":"","landscape_designer":"","shinkenchiku_url":""},{"id":11946,"title":"姫路市文化コンベンションセンター アクリエひめじ","architect":"日建設計","year":2021.0,"address":"兵庫県姫路市神屋町143-2","latitude":34.82644271850586,"longitude":134.70001220703125,"category":"ホール・劇場","big_category":"文化施設","description":"","image_url":"","tags":"新建築2022年12月号,Ver4.80(2023年1月)の追加建築","prefecture":"兵庫","contractor":"","structural_designer":"","landscape_designer":"","shinkenchiku_url":""},{"id":11947,"title":"岸和田市立浪切ホール","architect":"日建設計","year":2002.0,"address":"大阪府岸和田市港緑町1-1","latitude":34.46611022949219,"longitude":135.36981201171875,"category":"ホール・劇場","big_category":"文化施設","description":"","image_url":"","tags":"Ver4.80(2023年1月)の追加建築","prefecture":"大阪","contractor":"","structural_designer":"","landscape_designer":"","shinkenchiku_url":""},{"id":11948,"title":"神戸国際会館","architect":"日建設計","year":1999.0,"address":"兵庫県神戸市中央区御幸通8-1-6","latitude":34.692138671875,"longitude":135.19590759277344,"category":"ホール・劇場","big_category":"文化施設","description":"","image_url":"","tags":"Ver4.80(2023年1月)の追加建築","prefecture":"兵庫","contractor":"","structural_designer":"","landscape_designer":"","shinkenchiku_url":""},{"id":11949,"title":"大淀町文化会館","architect":"日建設計","year":1997.0,"address":"奈良県吉野郡大淀町桧垣本2090","latitude":34.389854431152344,"longitude":135.78897094726562,"category":"ホール・劇場","big_category":"文化施設","description":"","image_url":"","tags":"Ver4.80(2023年1月)の追加建築,新建築1998年6月号","prefecture":"奈良","contractor":"","structural_designer":"","landscape_designer":"","shinkenchiku_url":""},{"id":11950,"title":"高槻城公園芸術文化劇場","architect":"日建設計","year":2023.0,"address":"大阪府高槻市野見町6","latitude":34.84424591064453,"longitude":135.62103271484375,"category":"ホール・劇場","big_category":"文化施設","description":"","image_url":"","tags":"Ver4.80(2023年1月)の追加建築,2023年度JIA優秀建築賞","prefecture":"大阪","contractor":"大林組","structural_designer":"","landscape_designer":"","shinkenchiku_url":""}]}