{"page":287,"total_pages":290,"items_per_page":50,"total_items":14467,"items":[{"id":14301,"title":"然10","architect":"安斎好太郎","year":2023.0,"address":"長崎県北松浦郡佐々町栗林免243-1","latitude":33.24590301513672,"longitude":129.66000366210938,"category":"コテージ","big_category":"宿泊","description":"1日1組限定の貸切ヴィラ","image_url":"","tags":"Ver5.60(2025年2月)の追加建築","prefecture":"長崎","contractor":"","structural_designer":"","landscape_designer":"","shinkenchiku_url":""},{"id":14302,"title":"ADX Fukushima Head Office","architect":"安斎好太郎","year":2014.0,"address":"福島県二本松市油井松葉山6","latitude":37.6092529296875,"longitude":140.46861267089844,"category":"低層オフィス","big_category":"企業施設","description":"","image_url":"","tags":"Ver5.60(2025年2月)の追加建築","prefecture":"福島","contractor":"","structural_designer":"","landscape_designer":"","shinkenchiku_url":""},{"id":14303,"title":"根岸なつかし公園 旧柳下邸","architect":"不明","year":null,"address":"神奈川県横浜市磯子区下町10","latitude":35.418800354003906,"longitude":139.6314239501953,"category":"古民家/洋館","big_category":"近代建築/遺産,近代建築/遺産","description":"大正中頃に建てられた和洋折衷の住宅","image_url":"","tags":"Ver5.60(2025年2月)の追加建築","prefecture":"神奈川","contractor":"","structural_designer":"","landscape_designer":"","shinkenchiku_url":""},{"id":14304,"title":"葛城山麓醸造所","architect":"吉村理","year":2024.0,"address":"奈良県御所市伏見481-1","latitude":34.41450881958008,"longitude":135.7010955810547,"category":"醸造所","big_category":"商業施設","description":"","image_url":"","tags":"Ver5.60(2025年2月)の追加建築","prefecture":"奈良","contractor":"","structural_designer":"","landscape_designer":"","shinkenchiku_url":""},{"id":14305,"title":"旧小寺家厩舎","architect":"河合浩蔵","year":1910.0,"address":"兵庫県神戸市中央区中山手通5-3-1 相楽園内","latitude":34.693214416503906,"longitude":135.1819305419922,"category":"洋館","big_category":"近代建築/遺産","description":"","image_url":"","tags":"Ver5.60(2025年2月)の追加建築","prefecture":"兵庫","contractor":"","structural_designer":"","landscape_designer":"","shinkenchiku_url":""},{"id":14306,"title":"日本基督教団 神戸栄光教会","architect":"曽禰達蔵+中條精一郎+日建設計","year":1922.0,"address":"兵庫県神戸市中央区下山手通4-16-1","latitude":34.69158935546875,"longitude":135.18484497070312,"category":"教会","big_category":"宗教","description":"1922年初代竣工、阪神淡路大震災により消失。2004年日建設計により外観復元され竣工","image_url":"","tags":"Ver5.60(2025年2月)の追加建築","prefecture":"兵庫","contractor":"","structural_designer":"","landscape_designer":"","shinkenchiku_url":""},{"id":14307,"title":"いやしのいえzen","architect":"伊礼智","year":2022.0,"address":"香川県三豊市高瀬町上高瀬4-1","latitude":34.19588088989258,"longitude":133.71925354003906,"category":"住宅/コテージ","big_category":"住宅,宿泊","description":"壺谷建設公式サイトにて民泊を受け付けている他、定期的に見学会も開催されている","image_url":"","tags":"Ver5.60(2025年2月)の追加建築","prefecture":"香川","contractor":"","structural_designer":"","landscape_designer":"","shinkenchiku_url":""},{"id":14308,"title":"聖心女子学院 正門","architect":"ヤン・レツル","year":1909.0,"address":"東京都港区白金4-11-1","latitude":35.64146041870117,"longitude":139.72669982910156,"category":"大学","big_category":"教育","description":"","image_url":"","tags":"Ver5.60(2025年2月)の追加建築","prefecture":"東京","contractor":"","structural_designer":"","landscape_designer":"","shinkenchiku_url":""},{"id":14309,"title":"大雪葬斎場","architect":"藤本壮介","year":2024.0,"address":"北海道上川郡東神楽町東1線12-6","latitude":43.677242279052734,"longitude":142.43014526367188,"category":"斎場","big_category":"公共施設","description":"","image_url":"","tags":"Ver5.60(2025年2月)の追加建築","prefecture":"北海道","contractor":"","structural_designer":"","landscape_designer":"","shinkenchiku_url":""},{"id":14310,"title":"イエズス孝女会修道院旧館 旧東伏見宮葉山別邸","architect":"木子幸三郎","year":1914.0,"address":"神奈川県三浦郡葉山町堀内1968","latitude":35.27325439453125,"longitude":139.58128356933594,"category":"洋館","big_category":"近代建築/遺産","description":"2025年春宿泊・レンタルスペースとして開業予定","image_url":"","tags":"登録有形文化財,Ver5.60(2025年2月)の追加建築","prefecture":"神奈川","contractor":"","structural_designer":"","landscape_designer":"","shinkenchiku_url":""},{"id":14311,"title":"マリア園旧本館/清心修道院教会 ホテルインディゴ長崎グラバーストリート","architect":"センネツ+安井建築設計","year":1898.0,"address":"長崎県長崎市南山手町12-17","latitude":32.73188400268555,"longitude":129.86703491210938,"category":"ホテル/洋館","big_category":"宿泊,近代建築/遺産","description":"赤煉瓦の修道院を2024年改修しホテルに","image_url":"","tags":"Ver5.60(2025年2月)の追加建築","prefecture":"長崎","contractor":"大成建設","structural_designer":"","landscape_designer":"","shinkenchiku_url":""},{"id":14312,"title":"カトリック手取教会","architect":"鉄川与助","year":1928.0,"address":"熊本県熊本市中央区上通町3-34","latitude":32.803218841552734,"longitude":130.71189880371094,"category":"教会","big_category":"宗教","description":"","image_url":"","tags":"Ver5.60(2025年2月)の追加建築","prefecture":"熊本","contractor":"","structural_designer":"","landscape_designer":"","shinkenchiku_url":""},{"id":14313,"title":"熊本市庁舎","architect":"山下寿郎","year":1981.0,"address":"熊本県熊本市中央区手取本町1-1","latitude":32.803123474121094,"longitude":130.70779418945312,"category":"庁舎","big_category":"公共施設","description":"","image_url":"","tags":"Ver5.60(2025年2月)の追加建築","prefecture":"熊本","contractor":"","structural_designer":"","landscape_designer":"","shinkenchiku_url":""},{"id":14314,"title":"鶴屋百貨店本館","architect":"日建設計","year":1952.0,"address":"熊本県熊本市中央区手取本町6-1","latitude":32.80236053466797,"longitude":617749184.0,"category":"モール","big_category":"商業施設","description":"","image_url":"","tags":"Ver5.60(2025年2月)の追加建築","prefecture":"熊本","contractor":"","structural_designer":"","landscape_designer":"","shinkenchiku_url":""},{"id":14315,"title":"早野ビル","architect":"矢上信次","year":1924.0,"address":"熊本県熊本市中央区練兵町45","latitude":32.79788589477539,"longitude":130.70277404785156,"category":"オフィスビル","big_category":"企業施設","description":"","image_url":"","tags":"登録有形文化財,Ver5.60(2025年2月)の追加建築","prefecture":"熊本","contractor":"","structural_designer":"","landscape_designer":"","shinkenchiku_url":""},{"id":14316,"title":"カリーノMSビル 旧住友銀行熊本支店","architect":"長谷部鋭吉+竹腰健造","year":1934.0,"address":"熊本県熊本市中央区魚屋町2-1","latitude":32.79555892944336,"longitude":130.69805908203125,"category":"金融機関/洋館","big_category":"企業施設,近代建築/遺産","description":"現在はイベントスペース","image_url":"","tags":"Ver5.60(2025年2月)の追加建築","prefecture":"熊本","contractor":"","structural_designer":"","landscape_designer":"","shinkenchiku_url":""},{"id":14317,"title":"根岸森林公園トイレ 丘の小道","architect":"甘粕敦彦","year":2024.0,"address":"神奈川県横浜市中区根岸台1 根岸森林公園","latitude":35.423583984375,"longitude":139.63902282714844,"category":"トイレ","big_category":"公共施設","description":"","image_url":"","tags":"登録有形文化財,Ver5.60(2025年2月)の追加建築","prefecture":"神奈川","contractor":"","structural_designer":"","landscape_designer":"","shinkenchiku_url":""},{"id":14318,"title":"旧田中家住宅","architect":"櫻井忍夫","year":1923.0,"address":"埼玉県川口市末広1-7-2","latitude":35.80448532104492,"longitude":139.73318481445312,"category":"洋館","big_category":"近代建築/遺産","description":"耐震改修工事のため2025年1月より当面休館","image_url":"","tags":"重要文化財,登録有形文化財,Ver5.60(2025年2月)の追加建築","prefecture":"埼玉","contractor":"","structural_designer":"","landscape_designer":"","shinkenchiku_url":""},{"id":14319,"title":"仙台市戦災復興記念館","architect":"佐藤総合計画","year":1981.0,"address":"宮城県仙台市青葉区大町2-12-1","latitude":38.260780334472656,"longitude":140.86708068847656,"category":"博物館/ホール・劇場","big_category":"ミュージアム,文化施設","description":"","image_url":"","tags":"Ver5.60(2025年2月)の追加建築","prefecture":"宮城","contractor":"","structural_designer":"","landscape_designer":"","shinkenchiku_url":""},{"id":14320,"title":"香川県立アリーナ あなぶきアリーナ香川","architect":"SANAA","year":2025.0,"address":"香川県高松市サンポート7","latitude":34.354129791259766,"longitude":134.04664611816406,"category":"体育館","big_category":"レジャー施設","description":"","image_url":"","tags":"Ver5.60(2025年2月)の追加建築","prefecture":"香川","contractor":"","structural_designer":"","landscape_designer":"","shinkenchiku_url":""},{"id":14321,"title":"霞会館記念 学習院ミュージアム 旧学習院大学 図書館","architect":"前川國男","year":1963.0,"address":"東京都豊島区目白1-5-5-1","latitude":35.71895217895508,"longitude":139.70980834960938,"category":"博物館/大学","big_category":"ミュージアム,教育","description":"旧図書館を転用し、2025年3月に博物館としてオープン予定","image_url":"","tags":"Ver5.60(2025年2月)の追加建築","prefecture":"東京","contractor":"","structural_designer":"","landscape_designer":"","shinkenchiku_url":""},{"id":14322,"title":"直島新美術館","architect":"安藤忠雄","year":2025.0,"address":"香川県香川郡直島町3299-73","latitude":34.457969665527344,"longitude":133.9987030029297,"category":"美術館","big_category":"ミュージアム","description":"2025年春オープン予定","image_url":"","tags":"瀬戸内国際芸術祭,Ver5.60(2025年2月)の追加建築","prefecture":"香川","contractor":"","structural_designer":"","landscape_designer":"","shinkenchiku_url":""},{"id":14323,"title":"Toyota Woven City フェーズ1","architect":"ビャルケ・インゲルス","year":2024.0,"address":"静岡県裾野市御宿1200","latitude":35.2188835144043,"longitude":138.91421508789062,"category":"都市計画","big_category":"公共施設","description":"2024年10月末にフェーズ1が完成。2025年秋より関係者が居住開始し、2026年度より一般にも公開予定","image_url":"","tags":"Ver5.60(2025年2月)の追加建築","prefecture":"静岡","contractor":"","structural_designer":"","landscape_designer":"","shinkenchiku_url":""},{"id":14324,"title":"i-works3.0 モデルハウス","architect":"伊礼智","year":2015.0,"address":"東京都東村山市久米川町4-34-6","latitude":35.76741409301758,"longitude":139.47122192382812,"category":"住宅","big_category":"住宅","description":"相羽建設が運営するモデルハウス","image_url":"","tags":"Ver5.60(2025年2月)の追加建築","prefecture":"東京","contractor":"相羽建設","structural_designer":"","landscape_designer":"","shinkenchiku_url":""},{"id":14325,"title":"i-works4.0 マキタモデル","architect":"伊礼智","year":2017.0,"address":"栃木県栃木市薗部町1-4-3-2","latitude":36.377471923828125,"longitude":139.72030639648438,"category":"住宅","big_category":"住宅","description":"牧田工務店が運営するモデルハウス。要予約。住宅建設を検討している人は宿泊体験も可能。岐阜県白川町、熊本県芦北町にも同様のモデルハウス有","image_url":"","tags":"Ver5.60(2025年2月)の追加建築","prefecture":"栃木","contractor":"牧田工務店","structural_designer":"","landscape_designer":"","shinkenchiku_url":""},{"id":14326,"title":"ヴァンガードハウス 里山の平屋暮らしの家 モデルハウス","architect":"伊礼智","year":2019.0,"address":"茨城県つくば市春風台36-30","latitude":36.11717224121094,"longitude":140.12379455566406,"category":"住宅","big_category":"住宅","description":"里山住宅博inつくばの柴木材モデルハウス","image_url":"","tags":"Ver5.60(2025年2月)の追加建築","prefecture":"茨城","contractor":"柴木材店","structural_designer":"","landscape_designer":"","shinkenchiku_url":""},{"id":14327,"title":"真駒内屋外競技場 真駒内セキスイハイムスタジアム","architect":"前川國男","year":1972.0,"address":"北海道札幌市南区真駒内公園3-1","latitude":42.99626159667969,"longitude":141.3429412841797,"category":"スタジアム","big_category":"レジャー施設","description":"札幌オリンピックの会場","image_url":"","tags":"Ver5.60(2025年2月)の追加建築","prefecture":"北海道","contractor":"","structural_designer":"","landscape_designer":"","shinkenchiku_url":""},{"id":14328,"title":"北海道青少年会館Compass 旧札幌オリンピックプレスセンター","architect":"黒川紀章","year":1972.0,"address":"北海道札幌市南区真駒内柏丘7-8-1","latitude":42.986595153808594,"longitude":141.34121704101562,"category":"ホテル","big_category":"宿泊","description":"現在は宿泊施設","image_url":"","tags":"Ver5.60(2025年2月)の追加建築","prefecture":"北海道","contractor":"","structural_designer":"","landscape_designer":"","shinkenchiku_url":""},{"id":14329,"title":"柏丘団地A棟 B棟 旧柏丘プレスハウス","architect":"太田實","year":1972.0,"address":"北海道札幌市南区真駒内柏丘6-4-5","latitude":42.98939514160156,"longitude":141.34324645996094,"category":"集合住宅/都市計画","big_category":"住宅,公共施設","description":"設計クレジット：太田実+札幌オリンピック村設計共同企業体","image_url":"","tags":"Ver5.60(2025年2月)の追加建築","prefecture":"北海道","contractor":"","structural_designer":"","landscape_designer":"","shinkenchiku_url":""},{"id":14330,"title":"五輪団地H棟 旧札幌オリンピック選手村女子棟","architect":"太田實","year":1972.0,"address":"北海道札幌市南区真駒内緑町4-1-3","latitude":42.99113464355469,"longitude":141.35403442382812,"category":"集合住宅/都市計画","big_category":"住宅,公共施設","description":"設計クレジット：太田実+札幌オリンピック村設計共同企業体","image_url":"","tags":"Ver5.60(2025年2月)の追加建築","prefecture":"北海道","contractor":"","structural_designer":"","landscape_designer":"","shinkenchiku_url":""},{"id":14331,"title":"旧磯野家住宅 銅御殿","architect":"不明","year":1912.0,"address":"東京都文京区小石川5-19-4","latitude":35.71902847290039,"longitude":139.73828125,"category":"和風住宅","big_category":"住宅","description":"大谷美術館主催の見学ツアーが3～12月の指定日に1日2回行われている","image_url":"","tags":"重要文化財,Ver5.60(2025年2月)の追加建築","prefecture":"東京","contractor":"","structural_designer":"","landscape_designer":"","shinkenchiku_url":""},{"id":14332,"title":"ICHION CONTEMPORARY","architect":"安藤忠雄","year":2024.0,"address":"大阪府大阪市北区野崎町9-7","latitude":34.70182800292969,"longitude":135.50599670410156,"category":"ギャラリー","big_category":"ミュージアム","description":"","image_url":"","tags":"Ver5.60(2025年2月)の追加建築","prefecture":"大阪","contractor":"まこと建設","structural_designer":"","landscape_designer":"","shinkenchiku_url":""},{"id":14333,"title":"東京聖三一教会","architect":"石本建築事務所","year":1961.0,"address":"東京都世田谷区代沢2-10-11","latitude":35.65688705444336,"longitude":139.67213439941406,"category":"教会","big_category":"宗教","description":"","image_url":"","tags":"Ver5.60(2025年2月)の追加建築","prefecture":"東京","contractor":"","structural_designer":"","landscape_designer":"","shinkenchiku_url":""},{"id":14334,"title":"Hotel宇多野京都別墅 旧鳴滝寮","architect":"上野工務店+重森三玲","year":1939.0,"address":"京都府京都市右京区宇多野御屋敷町14","latitude":35.02504348754883,"longitude":135.709228515625,"category":"ホテル/和風住宅","big_category":"宿泊,住宅","description":"昭和初期の邸宅を大規模改修し2024年11月にホテルとしてオープン。敷地内に重森三玲作庭の庭園もある","image_url":"","tags":"Ver5.60(2025年2月)の追加建築","prefecture":"京都","contractor":"","structural_designer":"","landscape_designer":"","shinkenchiku_url":""},{"id":14335,"title":"豊田市美術館 童子苑","architect":"谷口吉生","year":1995.0,"address":"愛知県豊田市小坂本町8-5-1","latitude":35.08078384399414,"longitude":137.1508026123047,"category":"茶室","big_category":"住宅","description":"","image_url":"","tags":"Ver5.60(2025年2月)の追加建築","prefecture":"愛知","contractor":"","structural_designer":"","landscape_designer":"","shinkenchiku_url":""},{"id":14336,"title":"YKKAP技術館","architect":"大野秀敏","year":2024.0,"address":"富山県黒部市吉田200","latitude":36.90211486816406,"longitude":137.42758178710938,"category":"博物館","big_category":"ミュージアム","description":"1959年に竣工したアルミ溶解押出工場をリノベーション。2024年11月より一般公開","image_url":"","tags":"Ver5.60(2025年2月)の追加建築","prefecture":"富山","contractor":"","structural_designer":"","landscape_designer":"","shinkenchiku_url":""},{"id":14337,"title":"第二なでしここども園","architect":"川久保智康","year":2024.0,"address":"埼玉県熊谷市今井 第二なでしここども園","latitude":36.17189025878906,"longitude":139.39862060546875,"category":"幼稚園","big_category":"教育","description":"","image_url":"","tags":"Ver5.60(2025年2月)の追加建築","prefecture":"埼玉","contractor":"石川建設","structural_designer":"久米弘記建築構造研究所","landscape_designer":"","shinkenchiku_url":""},{"id":14338,"title":"わかばかぐ","architect":"小泉誠","year":2023.0,"address":"広島県府中市高木町1201-1","latitude":34.558197021484375,"longitude":133.24728393554688,"category":"低層オフィス/博物館/店舗","big_category":"企業施設,ミュージアム,商業施設","description":"","image_url":"","tags":"Ver5.60(2025年2月)の追加建築","prefecture":"広島","contractor":"コアハウス","structural_designer":"","landscape_designer":"小林賢二アトリエ","shinkenchiku_url":""},{"id":14339,"title":"ウシマルレストラン","architect":"アクセル・ヴァンスティンキステ+サイドバイサイド","year":2023.0,"address":"千葉県山武市松尾町木刀1307-2","latitude":35.61867141723633,"longitude":140.4751739501953,"category":"レストラン","big_category":"商業施設","description":"","image_url":"","tags":"Ver5.60(2025年2月)の追加建築","prefecture":"千葉","contractor":"秋葉建設","structural_designer":"たにおか設計社","landscape_designer":"","shinkenchiku_url":""},{"id":14340,"title":"ヒラカワ本社ビル","architect":"杤尾直也+ピークスタジオ","year":2024.0,"address":"福岡県柳川市大和町塩塚1327","latitude":33.13764953613281,"longitude":130.430419921875,"category":"低層オフィス","big_category":"企業施設","description":"","image_url":"","tags":"Ver5.60(2025年2月)の追加建築","prefecture":"福岡","contractor":"大藪組","structural_designer":"コウゾウケイカクロナンナン","landscape_designer":"","shinkenchiku_url":""},{"id":14341,"title":"ONUKI COFFEE ROASTERY","architect":"遠藤謙一良","year":2015.0,"address":"北海道標津郡中標津町東5条北2-3","latitude":43.55247497558594,"longitude":144.97691345214844,"category":"カフェ","big_category":"商業施設","description":"","image_url":"","tags":"Ver5.60(2025年2月)の追加建築","prefecture":"北海道","contractor":"","structural_designer":"","landscape_designer":"","shinkenchiku_url":""},{"id":14342,"title":"ASH HAIR 屯田店","architect":"遠藤謙一良","year":2016.0,"address":"北海道札幌市北区屯田9条9-5-1","latitude":43.14326477050781,"longitude":141.32431030273438,"category":"美容院","big_category":"商業施設","description":"","image_url":"","tags":"Ver5.60(2025年2月)の追加建築","prefecture":"北海道","contractor":"","structural_designer":"","landscape_designer":"","shinkenchiku_url":""},{"id":14343,"title":"佐藤造花生花店","architect":"遠藤謙一良","year":2024.0,"address":"北海道虻田郡倶知安町北1条西2-8","latitude":42.901771545410156,"longitude":140.74832153320312,"category":"店舗","big_category":"商業施設","description":"","image_url":"","tags":"Ver5.60(2025年2月)の追加建築","prefecture":"北海道","contractor":"","structural_designer":"","landscape_designer":"","shinkenchiku_url":""},{"id":14344,"title":"ASARI TERRACE おたると果実","architect":"遠藤謙一良","year":2023.0,"address":"北海道小樽市新光2-20-33","latitude":43.17086410522461,"longitude":141.05393981933594,"category":"カフェ/店舗","big_category":"商業施設,商業施設","description":"","image_url":"","tags":"Ver5.60(2025年2月)の追加建築","prefecture":"北海道","contractor":"","structural_designer":"","landscape_designer":"","shinkenchiku_url":""},{"id":14345,"title":"白馬岩岳マウンテンリゾート HAKUBA MOUNTAIN HARBOR","architect":"遠藤謙一良","year":2018.0,"address":"長野県北安曇郡白馬村北城12056","latitude":36.72948455810547,"longitude":137.83816528320312,"category":"観光施設/展望台","big_category":"レジャー施設,レジャー施設","description":"","image_url":"","tags":"Ver5.60(2025年2月)の追加建築","prefecture":"長野","contractor":"","structural_designer":"","landscape_designer":"","shinkenchiku_url":""},{"id":14346,"title":"洞爺湖 鶴雅リゾート 洸の謌 増改築","architect":"遠藤謙一良","year":2023.0,"address":"北海道有珠郡壮瞥町壮瞥温泉88-26","latitude":42.55337142944336,"longitude":140.86041259765625,"category":"ホテル","big_category":"宿泊","description":"","image_url":"","tags":"Ver5.60(2025年2月)の追加建築","prefecture":"北海道","contractor":"岩田地崎建設","structural_designer":"山脇克彦建築構造設計","landscape_designer":"","shinkenchiku_url":""},{"id":14347,"title":"SL 源光 ニセコ","architect":"遠藤謙一良","year":2020.0,"address":"北海道虻田郡ニセコ町曽我782-5","latitude":42.827823638916016,"longitude":140.676025390625,"category":"コテージ","big_category":"宿泊","description":"","image_url":"","tags":"Ver5.60(2025年2月)の追加建築","prefecture":"北海道","contractor":"","structural_designer":"","landscape_designer":"","shinkenchiku_url":""},{"id":14348,"title":"小平町役場鬼鹿支所","architect":"遠藤謙一良","year":2021.0,"address":"北海道留萌郡小平町鬼鹿港町 小平町役場鬼鹿支所","latitude":44.15381622314453,"longitude":141.65704345703125,"category":"庁舎","big_category":"公共施設","description":"","image_url":"","tags":"Ver5.60(2025年2月)の追加建築","prefecture":"北海道","contractor":"","structural_designer":"","landscape_designer":"","shinkenchiku_url":""},{"id":14349,"title":"ASH HAIR 西野店","architect":"小西彦仁","year":2018.0,"address":"札幌市西区西野3条1丁目3-1","latitude":43.07177734375,"longitude":141.28330993652344,"category":"美容院","big_category":"商業施設","description":"","image_url":"","tags":"Ver5.60(2025年2月)の追加建築","prefecture":"札幌","contractor":"","structural_designer":"","landscape_designer":"","shinkenchiku_url":""},{"id":14350,"title":"十勝川モール温泉 清寂房","architect":"小西彦仁","year":2022.0,"address":"北海道河東郡音更町十勝川温泉南16-1-19","latitude":42.93136978149414,"longitude":143.30471801757812,"category":"ホテル","big_category":"宿泊","description":"","image_url":"","tags":"Ver5.60(2025年2月)の追加建築","prefecture":"北海道","contractor":"","structural_designer":"","landscape_designer":"","shinkenchiku_url":""}]}