{"page":162,"total_pages":290,"items_per_page":50,"total_items":14467,"items":[{"id":8051,"title":"懸魚のある製図工場","architect":"出江寛","year":1984.0,"address":"大阪府大阪市北区南森町1-2-22","latitude":34.69608688354492,"longitude":135.51019287109375,"category":"低層オフィス","big_category":"企業施設","description":"解体済み","image_url":"","tags":"Ver2.70(2019年2月)の追加建築","prefecture":"大阪","contractor":"","structural_designer":"","landscape_designer":"","shinkenchiku_url":""},{"id":8052,"title":"慈興院大徳寺 特賜殿","architect":"本瀬齋田建築設計事務所","year":2018.0,"address":"富山県魚津市持光寺 大徳寺","latitude":36.84358215332031,"longitude":137.42184448242188,"category":"寺院","big_category":"宗教","description":"","image_url":"","tags":"Ver2.70(2019年2月)の追加建築","prefecture":"富山","contractor":"","structural_designer":"","landscape_designer":"","shinkenchiku_url":""},{"id":8053,"title":"川口市水上少年自然の家","architect":"飯塚章","year":1991.0,"address":"群馬県利根郡みなかみ町大穴15","latitude":36.79158401489258,"longitude":138.98207092285156,"category":"研修施設/児童施設","big_category":"教育,教育","description":"","image_url":"","tags":"Ver2.70(2019年2月)の追加建築","prefecture":"群馬","contractor":"","structural_designer":"","landscape_designer":"","shinkenchiku_url":""},{"id":8054,"title":"川口市立戸塚西保育所","architect":"飯塚章","year":1995.0,"address":"埼玉県川口市北原台3-18-10","latitude":35.869300842285156,"longitude":139.7307586669922,"category":"幼稚園","big_category":"教育","description":"","image_url":"","tags":"Ver2.70(2019年2月)の追加建築","prefecture":"埼玉","contractor":"","structural_designer":"","landscape_designer":"","shinkenchiku_url":""},{"id":8055,"title":"川口市立芝福祉センター","architect":"飯塚章","year":1998.0,"address":"埼玉県川口市伊刈20","latitude":35.8468017578125,"longitude":139.70423889160156,"category":"福祉センター","big_category":"医療施設","description":"","image_url":"","tags":"Ver2.70(2019年2月)の追加建築","prefecture":"埼玉","contractor":"","structural_designer":"","landscape_designer":"","shinkenchiku_url":""},{"id":8056,"title":"埼玉県朝霞県土整備事務所","architect":"飯塚章","year":1998.0,"address":"埼玉県朝霞市浜崎678","latitude":35.81277084350586,"longitude":139.59097290039062,"category":"公共施設/低層オフィス","big_category":"公共施設,企業施設","description":"","image_url":"","tags":"Ver2.70(2019年2月)の追加建築","prefecture":"埼玉","contractor":"","structural_designer":"","landscape_designer":"","shinkenchiku_url":""},{"id":8057,"title":"川口市立戸塚南小学校","architect":"飯塚章","year":2003.0,"address":"埼玉県川口市戸塚南4-10-1","latitude":35.86455535888672,"longitude":139.74478149414062,"category":"学校","big_category":"教育","description":"","image_url":"","tags":"Ver2.70(2019年2月)の追加建築","prefecture":"埼玉","contractor":"","structural_designer":"","landscape_designer":"","shinkenchiku_url":""},{"id":8058,"title":"京の温所 釜座二条","architect":"中村好文+皆川明","year":2018.0,"address":"京都府京都市中京区上松屋町690-2","latitude":35.01313781738281,"longitude":135.75595092773438,"category":"ホテル/古民家","big_category":"宿泊,近代建築/遺産","description":"築150年の京町家を改修","image_url":"","tags":"Ver2.70(2019年2月)の追加建築","prefecture":"京都","contractor":"","structural_designer":"","landscape_designer":"","shinkenchiku_url":""},{"id":8059,"title":"弥富町立弥富北中学校","architect":"青島設計","year":1979.0,"address":"愛知県弥富市鎌倉町62","latitude":35.11954116821289,"longitude":136.7354278564453,"category":"学校","big_category":"教育","description":"","image_url":"","tags":"Ver2.70(2019年2月)の追加建築","prefecture":"愛知","contractor":"","structural_designer":"","landscape_designer":"","shinkenchiku_url":""},{"id":8060,"title":"聖マリアの無原罪修道院","architect":"青島設計","year":1976.0,"address":"愛知県名古屋市千種区園山町1-56","latitude":35.15867233276367,"longitude":136.96640014648438,"category":"教会","big_category":"宗教","description":"","image_url":"","tags":"Ver2.70(2019年2月)の追加建築","prefecture":"愛知","contractor":"","structural_designer":"","landscape_designer":"","shinkenchiku_url":""},{"id":8061,"title":"理化学研究所 生命システム研究センター 旧大阪バイオサイエンス研究所","architect":"丹下健三","year":1987.0,"address":"大阪府吹田市古江台6-2-4","latitude":34.809879302978516,"longitude":135.51547241210938,"category":"研究施設","big_category":"教育","description":"","image_url":"","tags":"Ver2.70(2019年2月)の追加建築","prefecture":"大阪","contractor":"","structural_designer":"","landscape_designer":"","shinkenchiku_url":""},{"id":8062,"title":"エフィッシュ","architect":"西堀晋","year":1999.0,"address":"京都府京都市下京区木屋町通り五条下ル西橋詰町798-1","latitude":34.9952507019043,"longitude":135.7673797607422,"category":"カフェ","big_category":"商業施設","description":"","image_url":"","tags":"Ver2.70(2019年2月)の追加建築","prefecture":"京都","contractor":"","structural_designer":"","landscape_designer":"","shinkenchiku_url":""},{"id":8063,"title":"名古屋大学 野依記念物質科学研究館","architect":"飯田善彦","year":2004.0,"address":"愛知県名古屋市千種区仁座町不老町 名古屋大学","latitude":35.15481948852539,"longitude":136.96994018554688,"category":"大学","big_category":"教育","description":"","image_url":"","tags":"Ver2.70(2019年2月)の追加建築","prefecture":"愛知","contractor":"","structural_designer":"","landscape_designer":"","shinkenchiku_url":""},{"id":8064,"title":"名古屋大学 理農館","architect":"飯田善彦","year":2011.0,"address":"愛知県名古屋市千種区仁座町不老町 名古屋大学","latitude":35.15526580810547,"longitude":136.96939086914062,"category":"大学","big_category":"教育","description":"","image_url":"","tags":"Ver2.70(2019年2月)の追加建築","prefecture":"愛知","contractor":"","structural_designer":"","landscape_designer":"","shinkenchiku_url":""},{"id":8065,"title":"龍谷大学 深草キャンパス 専精館","architect":"飯田善彦","year":2016.0,"address":"京都府京都市伏見区深草平田町","latitude":34.96649932861328,"longitude":135.76431274414062,"category":"大学","big_category":"教育","description":"","image_url":"","tags":"Ver2.70(2019年2月)の追加建築","prefecture":"京都","contractor":"","structural_designer":"","landscape_designer":"","shinkenchiku_url":""},{"id":8066,"title":"ピア赤レンガ","architect":"飯田善彦","year":2004.0,"address":"神奈川県横浜市中区新港1-1-1 赤レンガ倉庫1号館海側","latitude":35.45226287841797,"longitude":139.64492797851562,"category":"港","big_category":"インフラ","description":"","image_url":"","tags":"Ver2.70(2019年2月)の追加建築","prefecture":"神奈川","contractor":"","structural_designer":"","landscape_designer":"","shinkenchiku_url":""},{"id":8067,"title":"渋谷ストリーム","architect":"東急設計コンサルタント+シーラカンスアンドアソシエイツ","year":2018.0,"address":"東京都渋谷区渋谷3-21-3","latitude":35.65718460083008,"longitude":139.703125,"category":"複合施設/ホール・劇場/オフィスビル","big_category":"商業施設,文化施設,企業施設","description":"","image_url":"","tags":"新建築2018年11月号,Ver2.70(2019年2月)の追加建築,2020年日本建築学会 作品選奨","prefecture":"東京","contractor":"","structural_designer":"","landscape_designer":"","shinkenchiku_url":""},{"id":8068,"title":"渋谷ブリッジ","architect":"東急設計コンサルタント","year":2018.0,"address":"東京都渋谷区東1-29-1","latitude":35.653167724609375,"longitude":139.70706176757812,"category":"複合施設/ホテル/カフェ","big_category":"商業施設,宿泊,商業施設","description":"","image_url":"","tags":"新建築2018年11月号,Ver2.70(2019年2月)の追加建築","prefecture":"東京","contractor":"","structural_designer":"","landscape_designer":"","shinkenchiku_url":""},{"id":8069,"title":"豊洲市場","architect":"日建設計","year":2016.0,"address":"東京都江東区豊洲6-3","latitude":35.6452522277832,"longitude":139.78814697265625,"category":"モール/公共施設","big_category":"商業施設,公共施設","description":"","image_url":"","tags":"新建築2018年11月号,Ver2.70(2019年2月)の追加建築","prefecture":"東京","contractor":"","structural_designer":"","landscape_designer":"","shinkenchiku_url":""},{"id":8070,"title":"大手町プレイス","architect":"日本設計+NTTファシリティーズ+大林組","year":2018.0,"address":"東京都千代田区大手町2-3-1","latitude":35.68681335449219,"longitude":139.76687622070312,"category":"オフィスビル","big_category":"企業施設","description":"","image_url":"","tags":"新建築2018年11月号,Ver2.70(2019年2月)の追加建築","prefecture":"東京","contractor":"","structural_designer":"","landscape_designer":"","shinkenchiku_url":""},{"id":8071,"title":"トヨタカローラ 新大阪名神茨木店","architect":"竹中工務店","year":2018.0,"address":"大阪府茨木市三咲町5-17","latitude":34.83162307739258,"longitude":135.570556640625,"category":"店舗","big_category":"商業施設","description":"","image_url":"","tags":"新建築2018年11月号,Ver2.70(2019年2月)の追加建築","prefecture":"大阪","contractor":"竹中工務店","structural_designer":"","landscape_designer":"","shinkenchiku_url":""},{"id":8072,"title":"日本圧着端子製造 東京技術センターA","architect":"岡部憲明","year":2018.0,"address":"神奈川県横浜市港北区樽町4-8-24","latitude":35.52840042114258,"longitude":139.6405487060547,"category":"研究施設","big_category":"教育","description":"","image_url":"","tags":"新建築2018年11月号,Ver2.70(2019年2月)の追加建築","prefecture":"神奈川","contractor":"","structural_designer":"","landscape_designer":"","shinkenchiku_url":""},{"id":8073,"title":"Petali 日本圧着端子製造 名古屋技術センター別館","architect":"Atelier KISHISHITA","year":2018.0,"address":"愛知県みよし市黒笹町丸根1099-25","latitude":35.13633346557617,"longitude":137.09982299804688,"category":"研究施設","big_category":"教育","description":"","image_url":"","tags":"新建築2018年11月号,Ver2.70(2019年2月)の追加建築","prefecture":"愛知","contractor":"","structural_designer":"","landscape_designer":"","shinkenchiku_url":""},{"id":8074,"title":"ミツフジ福島工場","architect":"MAパートナーズ","year":2018.0,"address":"福島県伊達郡川俣町大字鶴沢字雁ヶ作91","latitude":37.667667388916016,"longitude":140.5631561279297,"category":"工場","big_category":"企業施設","description":"","image_url":"","tags":"新建築2018年11月号,Ver2.70(2019年2月)の追加建築","prefecture":"福島","contractor":"","structural_designer":"","landscape_designer":"","shinkenchiku_url":""},{"id":8075,"title":"NTTデータ三鷹ビルEAST","architect":"NTTファシリティーズ+アラップ","year":2018.0,"address":"東京都三鷹市下連雀5-1-1","latitude":35.68754959106445,"longitude":139.5714874267578,"category":"企業施設","big_category":"企業施設","description":"","image_url":"","tags":"新建築2018年11月号,Ver2.70(2019年2月)の追加建築","prefecture":"東京","contractor":"","structural_designer":"","landscape_designer":"","shinkenchiku_url":""},{"id":8076,"title":"九州大学 伊都新キャンパス","architect":"石本建築事務所","year":2018.0,"address":"福岡県福岡市西区元岡744","latitude":33.59748840332031,"longitude":130.22352600097656,"category":"大学","big_category":"教育","description":"中央図書館、イースト1・2号館、総合教育研究棟、ウエスト5号館。中央図書館など一部施設は2017年竣工。","image_url":"","tags":"新建築2018年12月号,Ver2.70(2019年2月)の追加建築","prefecture":"福岡","contractor":"","structural_designer":"","landscape_designer":"","shinkenchiku_url":""},{"id":8077,"title":"豊昭学園1号館 東京交通短期大学","architect":"北川原温","year":2018.0,"address":"東京都豊島区池袋本町2-5-15","latitude":35.73991012573242,"longitude":139.7093048095703,"category":"大学","big_category":"教育","description":"","image_url":"","tags":"新建築2018年12月号,Ver2.70(2019年2月)の追加建築","prefecture":"東京","contractor":"北野建設","structural_designer":"","landscape_designer":"","shinkenchiku_url":""},{"id":8078,"title":"流通経済大学 龍ケ崎キャンパス2号館","architect":"清水建設","year":2017.0,"address":"茨城県龍ケ崎市平畑120","latitude":35.91694641113281,"longitude":140.1910400390625,"category":"大学","big_category":"教育","description":"","image_url":"","tags":"新建築2018年12月号,Ver2.70(2019年2月)の追加建築","prefecture":"茨城","contractor":"","structural_designer":"","landscape_designer":"","shinkenchiku_url":""},{"id":8079,"title":"横浜市立子安小学校","architect":"山本理顕","year":2018.0,"address":"神奈川県横浜市神奈川区新子安1-36-1","latitude":35.490440368652344,"longitude":139.65480041503906,"category":"学校","big_category":"教育","description":"","image_url":"","tags":"新建築2018年12月号,Ver2.70(2019年2月)の追加建築","prefecture":"神奈川","contractor":"","structural_designer":"","landscape_designer":"","shinkenchiku_url":""},{"id":8080,"title":"江東区立有明西学園","architect":"久米設計+竹中工務店","year":2018.0,"address":"東京都江東区有明1-7-13","latitude":35.63712692260742,"longitude":139.78436279296875,"category":"学校","big_category":"教育","description":"","image_url":"","tags":"新建築2018年12月号,Ver2.70(2019年2月)の追加建築","prefecture":"東京","contractor":"","structural_designer":"","landscape_designer":"","shinkenchiku_url":""},{"id":8081,"title":"須賀川市立第二小学校","architect":"渡部和生","year":2016.0,"address":"福島県須賀川市弘法坦151","latitude":37.29275131225586,"longitude":140.37234497070312,"category":"学校","big_category":"教育","description":"","image_url":"","tags":"新建築2018年12月号,Ver2.70(2019年2月)の追加建築","prefecture":"福島","contractor":"","structural_designer":"","landscape_designer":"","shinkenchiku_url":""},{"id":8082,"title":"自由学園みらいかん","architect":"松井亮","year":2017.0,"address":"東京都東久留米市学園町1-9-16","latitude":35.75282287597656,"longitude":139.5392608642578,"category":"学校","big_category":"教育","description":"","image_url":"","tags":"新建築2018年12月号,Ver2.70(2019年2月)の追加建築","prefecture":"東京","contractor":"","structural_designer":"","landscape_designer":"","shinkenchiku_url":""},{"id":8083,"title":"広田遺跡ミュージアム","architect":"石本建築事務所","year":2014.0,"address":"鹿児島県熊毛郡南種子町","latitude":30.42447280883789,"longitude":130.96583557128906,"category":"博物館","big_category":"ミュージアム","description":"","image_url":"","tags":"Ver2.70(2019年2月)の追加建築","prefecture":"鹿児島","contractor":"","structural_designer":"","landscape_designer":"","shinkenchiku_url":""},{"id":8084,"title":"城里町庁舎","architect":"石本建築事務所","year":2016.0,"address":"茨城県東茨城郡城里町大字石塚1428-25","latitude":36.47935104370117,"longitude":140.37623596191406,"category":"庁舎","big_category":"公共施設","description":"","image_url":"","tags":"Ver2.70(2019年2月)の追加建築","prefecture":"茨城","contractor":"","structural_designer":"","landscape_designer":"","shinkenchiku_url":""},{"id":8085,"title":"サンマリーンながの・リサイクルプラザ","architect":"石本建築事務所","year":2017.0,"address":"長野県長野市松岡2-26-7","latitude":36.623199462890625,"longitude":138.21946716308594,"category":"プール","big_category":"レジャー施設","description":"","image_url":"","tags":"Ver2.70(2019年2月)の追加建築","prefecture":"長野","contractor":"","structural_designer":"","landscape_designer":"","shinkenchiku_url":""},{"id":8086,"title":"目黒区立東山小学校・目黒区立東山住区センター・目黒区発達障害支援拠点 ぽると","architect":"石本建築事務所","year":2018.0,"address":"東京都目黒区東山2-24-30","latitude":35.6471061706543,"longitude":139.68609619140625,"category":"学校/公民館・交流施設/福祉センター","big_category":"教育,公共施設,医療施設","description":"","image_url":"","tags":"Ver2.70(2019年2月)の追加建築","prefecture":"東京","contractor":"","structural_designer":"","landscape_designer":"","shinkenchiku_url":""},{"id":8087,"title":"四ツ木斎場 お花茶屋会館","architect":"石本建築事務所","year":2016.0,"address":"東京都葛飾区白鳥2-9-9-1","latitude":35.74848937988281,"longitude":139.8431396484375,"category":"斎場","big_category":"公共施設","description":"","image_url":"","tags":"Ver2.70(2019年2月)の追加建築","prefecture":"東京","contractor":"","structural_designer":"","landscape_designer":"","shinkenchiku_url":""},{"id":8088,"title":"日立池の川さくらアリーナ","architect":"石本建築事務所","year":2016.0,"address":"茨城県日立市東成沢町2-15-1","latitude":36.57668685913086,"longitude":140.6473388671875,"category":"体育館","big_category":"レジャー施設","description":"","image_url":"","tags":"Ver2.70(2019年2月)の追加建築","prefecture":"茨城","contractor":"","structural_designer":"","landscape_designer":"","shinkenchiku_url":""},{"id":8089,"title":"近江八幡市立桐原小学校 桐原コミュニティセンター","architect":"石本建築事務所","year":2016.0,"address":"滋賀県近江八幡市森尻町44","latitude":35.1120491027832,"longitude":136.07754516601562,"category":"学校/公民館・交流施設","big_category":"教育,公共施設","description":"","image_url":"","tags":"Ver2.70(2019年2月)の追加建築","prefecture":"滋賀","contractor":"","structural_designer":"","landscape_designer":"","shinkenchiku_url":""},{"id":8090,"title":"印西市立牧の原小学校・印西市牧の原地域交流センター・印西市立牧の原学童クラブ","architect":"石本建築事務所","year":2015.0,"address":"千葉県印西市牧の原3-1-1","latitude":35.81223678588867,"longitude":140.16067504882812,"category":"学校/公民館・交流施設/児童施設","big_category":"教育,公共施設,教育","description":"","image_url":"","tags":"Ver2.70(2019年2月)の追加建築","prefecture":"千葉","contractor":"","structural_designer":"","landscape_designer":"","shinkenchiku_url":""},{"id":8091,"title":"江戸川区立船堀小学校","architect":"石本建築事務所","year":2015.0,"address":"東京都江戸川区船堀2-22-22","latitude":35.68275833129883,"longitude":139.86233520507812,"category":"学校","big_category":"教育","description":"","image_url":"","tags":"Ver2.70(2019年2月)の追加建築","prefecture":"東京","contractor":"","structural_designer":"","landscape_designer":"","shinkenchiku_url":""},{"id":8092,"title":"長野市第一庁舎 ／ 長野市芸術館","architect":"槇文彦","year":2016.0,"address":"長野県長野市大字鶴賀緑町1613","latitude":36.648590087890625,"longitude":138.19509887695312,"category":"庁舎/ホール・劇場","big_category":"公共施設,文化施設","description":"","image_url":"","tags":"新建築2019年1月号,Ver2.70(2019年2月)の追加建築","prefecture":"長野","contractor":"","structural_designer":"","landscape_designer":"","shinkenchiku_url":""},{"id":8093,"title":"大阪芸術大学 アートサイエンス学科棟","architect":"妹島和世","year":2018.0,"address":"大阪府南河内郡河南町東山469","latitude":34.513179779052734,"longitude":135.62962341308594,"category":"大学","big_category":"教育","description":"","image_url":"","tags":"新建築2019年1月号,Ver2.70(2019年2月)の追加建築","prefecture":"大阪","contractor":"大成建設","structural_designer":"","landscape_designer":"","shinkenchiku_url":""},{"id":8094,"title":"早稲田大学 37号館 早稲田アリーナ","architect":"山下設計","year":2018.0,"address":"東京都新宿区戸山1-24-1","latitude":35.70594024658203,"longitude":139.7174835205078,"category":"大学","big_category":"教育","description":"","image_url":"","tags":"新建築2019年1月号,Ver2.70(2019年2月)の追加建築,第29回AACA 優秀賞","prefecture":"東京","contractor":"清水建設","structural_designer":"","landscape_designer":"","shinkenchiku_url":""},{"id":8095,"title":"札幌市円山動物園 ホッキョクグマ館","architect":"株式会社大建設計","year":2017.0,"address":"北海道札幌市中央区宮ケ丘3-1","latitude":43.04656982421875,"longitude":141.30593872070312,"category":"動植物園","big_category":"レジャー施設","description":"","image_url":"","tags":"新建築2019年1月号,Ver2.70(2019年2月)の追加建築","prefecture":"北海道","contractor":"","structural_designer":"","landscape_designer":"","shinkenchiku_url":""},{"id":8096,"title":"袋田病院","architect":"梶原良成+中山大輔 ","year":2011.0,"address":"茨城県久慈郡大子町北田気76","latitude":36.76508331298828,"longitude":140.37374877929688,"category":"病院","big_category":"医療施設","description":"","image_url":"","tags":"Ver2.70(2019年2月)の追加建築","prefecture":"茨城","contractor":"","structural_designer":"","landscape_designer":"","shinkenchiku_url":""},{"id":8097,"title":"札幌市円山動物園 ゾウ舎","architect":"株式会社大建設計","year":2018.0,"address":"北海道札幌市中央区宮ケ丘3-1","latitude":43.04943084716797,"longitude":141.3072509765625,"category":"動植物園","big_category":"レジャー施設","description":"","image_url":"","tags":"新建築2019年1月号,Ver2.70(2019年2月)の追加建築","prefecture":"北海道","contractor":"","structural_designer":"","landscape_designer":"","shinkenchiku_url":""},{"id":8098,"title":"デサントイノヴェーションスタジオコンプレックス","architect":"竹中工務店","year":2018.0,"address":"大阪府茨木市彩都やまぶき2-3-2","latitude":34.85912322998047,"longitude":135.5251922607422,"category":"研究施設","big_category":"教育","description":"","image_url":"","tags":"新建築2019年1月号,Ver2.70(2019年2月)の追加建築","prefecture":"大阪","contractor":"竹中工務店","structural_designer":"","landscape_designer":"","shinkenchiku_url":""},{"id":8099,"title":"シェアグリーン南青山","architect":"リアルゲイト+トランジットジェネラルオフィス","year":2018.0,"address":"東京都港区南青山1-12-32","latitude":35.668643951416016,"longitude":139.72482299804688,"category":"複合施設/カフェ/モール","big_category":"商業施設,商業施設,商業施設","description":"","image_url":"","tags":"新建築2019年1月号,Ver2.70(2019年2月)の追加建築","prefecture":"東京","contractor":"","structural_designer":"","landscape_designer":"","shinkenchiku_url":""},{"id":8100,"title":"丸の内二重橋ビル","architect":"三菱地所+日建設計","year":2018.0,"address":"東京都千代田区丸の内3-2-3","latitude":35.678035736083984,"longitude":139.76133728027344,"category":"複合ビル","big_category":"企業施設","description":"","image_url":"","tags":"新建築2019年1月号,Ver2.70(2019年2月)の追加建築","prefecture":"東京","contractor":"","structural_designer":"","landscape_designer":"","shinkenchiku_url":""}]}