{"page":139,"total_pages":290,"items_per_page":50,"total_items":14467,"items":[{"id":6901,"title":"横瀬町（仮称）花咲山プロジェクト","architect":"菊地宏+三家大地","year":2017.0,"address":"埼玉県秩父郡横瀬町横瀬6310","latitude":35.99560546875,"longitude":139.1083526611328,"category":"展望台/公園","big_category":"レジャー施設,レジャー施設","description":"小高い山に植林・整備し、展望台などの3つの施設を整備。","image_url":"","tags":"新建築2017年9月号,Ver2.00(2017年9月)の追加建築","prefecture":"埼玉","contractor":"","structural_designer":"","landscape_designer":"","shinkenchiku_url":""},{"id":6902,"title":"新草間ビル 草間彌生美術館","architect":"久米設計","year":2014.0,"address":"東京都新宿区弁天町107","latitude":35.703189849853516,"longitude":139.7264862060547,"category":"美術館","big_category":"ミュージアム","description":"2017年10月1日にオープン予定","image_url":"","tags":"Ver2.00(2017年9月)の追加建築","prefecture":"東京","contractor":"","structural_designer":"","landscape_designer":"","shinkenchiku_url":""},{"id":6903,"title":"浅川商店平群駅前計画","architect":"伊藤立平","year":2016.0,"address":"奈良県生駒郡平群町吉新4-2","latitude":34.62950897216797,"longitude":135.7035369873047,"category":"店舗","big_category":"商業施設","description":"","image_url":"","tags":"Ver2.00(2017年9月)の追加建築","prefecture":"奈良","contractor":"","structural_designer":"","landscape_designer":"","shinkenchiku_url":""},{"id":6904,"title":"君岡鉄工宇都宮工場","architect":"SPACESPACE","year":2016.0,"address":"栃木県宇都宮市ゆいの杜8-1-21","latitude":36.56893539428711,"longitude":140.00155639648438,"category":"工場","big_category":"企業施設","description":"","image_url":"","tags":"Ver2.00(2017年9月)の追加建築","prefecture":"栃木","contractor":"","structural_designer":"","landscape_designer":"","shinkenchiku_url":""},{"id":6905,"title":"green hospital 成城木下病院","architect":"隈研吾","year":2017.0,"address":"東京都世田谷区成城6-13-20","latitude":35.641475677490234,"longitude":139.59982299804688,"category":"病院","big_category":"医療施設","description":"","image_url":"","tags":"Ver2.00(2017年9月)の追加建築","prefecture":"東京","contractor":"","structural_designer":"","landscape_designer":"","shinkenchiku_url":""},{"id":6906,"title":"京都市勧業館 みやこめっせ","architect":"川崎清","year":1996.0,"address":"京都府京都市左京区岡崎成勝寺町9-1","latitude":35.01286697387695,"longitude":135.78097534179688,"category":"展示・会議場","big_category":"公共施設","description":"","image_url":"","tags":"Ver2.00(2017年9月)の追加建築","prefecture":"京都","contractor":"","structural_designer":"","landscape_designer":"","shinkenchiku_url":""},{"id":6907,"title":"新潟県立三条高等学校","architect":"川崎清","year":2005.0,"address":"新潟県三条市月岡1-2-1","latitude":37.615394592285156,"longitude":138.9636688232422,"category":"学校","big_category":"教育","description":"","image_url":"","tags":"Ver2.00(2017年9月)の追加建築","prefecture":"新潟","contractor":"","structural_designer":"","landscape_designer":"","shinkenchiku_url":""},{"id":6908,"title":"真脇遺跡縄文館","architect":"川崎清","year":1997.0,"address":"石川県鳳珠郡能登町真脇48-100","latitude":37.30501937866211,"longitude":137.20932006835938,"category":"博物館","big_category":"ミュージアム","description":"","image_url":"","tags":"Ver2.00(2017年9月)の追加建築","prefecture":"石川","contractor":"","structural_designer":"","landscape_designer":"","shinkenchiku_url":""},{"id":6909,"title":"日本の鬼の交流博物館","architect":"川崎清","year":1993.0,"address":"京都府福知山市大江町佛性寺909","latitude":35.45903778076172,"longitude":135.1444549560547,"category":"博物館","big_category":"ミュージアム","description":"","image_url":"","tags":"Ver2.00(2017年9月)の追加建築","prefecture":"京都","contractor":"","structural_designer":"","landscape_designer":"","shinkenchiku_url":""},{"id":6910,"title":"石川県立水産総合センター","architect":"川崎清","year":1994.0,"address":"石川県鳳珠郡能登町宇出津新港3-7","latitude":37.29717254638672,"longitude":137.1489715576172,"category":"研究施設/公共施設","big_category":"教育,公共施設","description":"","image_url":"","tags":"Ver2.00(2017年9月)の追加建築","prefecture":"石川","contractor":"","structural_designer":"","landscape_designer":"","shinkenchiku_url":""},{"id":6911,"title":"京都大学 医学部図書館","architect":"川崎清","year":1965.0,"address":"京都府京都市左京区吉田近衛町","latitude":35.02202606201172,"longitude":135.7777557373047,"category":"大学/図書館","big_category":"教育,文化施設","description":"","image_url":"","tags":"Ver2.00(2017年9月)の追加建築","prefecture":"京都","contractor":"","structural_designer":"","landscape_designer":"","shinkenchiku_url":""},{"id":6912,"title":"京都府立山城郷土資料館","architect":"川崎清","year":1980.0,"address":"京都府木津川市山城町上狛千両岩","latitude":34.75223159790039,"longitude":135.83395385742188,"category":"博物館","big_category":"ミュージアム","description":"","image_url":"","tags":"Ver2.00(2017年9月)の追加建築","prefecture":"京都","contractor":"","structural_designer":"","landscape_designer":"","shinkenchiku_url":""},{"id":6913,"title":"枚方市立香里団地図書館","architect":"川崎清","year":1973.0,"address":"大阪府枚方市香里ケ丘4-2-1","latitude":34.790626525878906,"longitude":135.6514129638672,"category":"図書館","big_category":"文化施設","description":"","image_url":"","tags":"Ver2.00(2017年9月)の追加建築","prefecture":"大阪","contractor":"","structural_designer":"","landscape_designer":"","shinkenchiku_url":""},{"id":6914,"title":"大谷大学 博綜館・尋源館","architect":"川崎清","year":1982.0,"address":"京都府京都市北区小山上総町 大谷大学","latitude":35.04172134399414,"longitude":135.7589111328125,"category":"大学","big_category":"教育","description":"","image_url":"","tags":"Ver2.00(2017年9月)の追加建築","prefecture":"京都","contractor":"","structural_designer":"","landscape_designer":"","shinkenchiku_url":""},{"id":6915,"title":"大谷大学 講堂棟","architect":"川崎清","year":1986.0,"address":"京都府京都市北区小山上総町 大谷大学","latitude":35.04233169555664,"longitude":135.75892639160156,"category":"大学/ホール・劇場","big_category":"教育,文化施設","description":"","image_url":"","tags":"Ver2.00(2017年9月)の追加建築","prefecture":"京都","contractor":"","structural_designer":"","landscape_designer":"","shinkenchiku_url":""},{"id":6916,"title":"大谷大学 1号館","architect":"川崎清","year":1990.0,"address":"京都府京都市北区小山上総町 大谷大学","latitude":35.0430908203125,"longitude":135.75802612304688,"category":"大学","big_category":"教育","description":"","image_url":"","tags":"Ver2.00(2017年9月)の追加建築","prefecture":"京都","contractor":"","structural_designer":"","landscape_designer":"","shinkenchiku_url":""},{"id":6917,"title":"奈良教育大学 講堂","architect":"川崎清","year":1987.0,"address":"奈良県奈良市高畑町 奈良教育大学","latitude":34.674068450927734,"longitude":135.84228515625,"category":"大学/ホール・劇場","big_category":"教育,文化施設","description":"","image_url":"","tags":"Ver2.00(2017年9月)の追加建築","prefecture":"奈良","contractor":"","structural_designer":"","landscape_designer":"","shinkenchiku_url":""},{"id":6918,"title":"兵庫教育大学 講堂","architect":"川崎清","year":1988.0,"address":"兵庫県加東市下久米942-1","latitude":34.91004943847656,"longitude":135.01646423339844,"category":"大学/ホール・劇場","big_category":"教育,文化施設","description":"","image_url":"","tags":"Ver2.00(2017年9月)の追加建築","prefecture":"兵庫","contractor":"","structural_designer":"","landscape_designer":"","shinkenchiku_url":""},{"id":6919,"title":"福井県立大学 小浜キャンパス","architect":"川崎清","year":1990.0,"address":"福井県小浜市学園町1-1","latitude":35.51102828979492,"longitude":135.75904846191406,"category":"大学","big_category":"教育","description":"","image_url":"","tags":"Ver2.00(2017年9月)の追加建築","prefecture":"福井","contractor":"","structural_designer":"","landscape_designer":"","shinkenchiku_url":""},{"id":6920,"title":"鳥取環境大学 情報メディアセンター","architect":"川崎清","year":2001.0,"address":"鳥取県鳥取市若葉台北1-1-1-1","latitude":35.45173263549805,"longitude":134.256103515625,"category":"大学/図書館","big_category":"教育,文化施設","description":"","image_url":"","tags":"Ver2.00(2017年9月)の追加建築","prefecture":"鳥取","contractor":"","structural_designer":"","landscape_designer":"","shinkenchiku_url":""},{"id":6921,"title":"立命館大学 BKC エポック21","architect":"川崎清","year":2001.0,"address":"滋賀県草津市野路東1-1","latitude":34.98176956176758,"longitude":135.9606170654297,"category":"大学","big_category":"教育","description":"","image_url":"","tags":"Ver2.00(2017年9月)の追加建築","prefecture":"滋賀","contractor":"","structural_designer":"","landscape_designer":"","shinkenchiku_url":""},{"id":6922,"title":"同志社女子大学 純正館デントンホール","architect":"川崎清","year":2008.0,"address":"京都府上京区今出川通寺町西入","latitude":35.029701232910156,"longitude":135.76324462890625,"category":"大学/ホール・劇場","big_category":"教育,文化施設","description":"","image_url":"","tags":"Ver2.00(2017年9月)の追加建築","prefecture":"京都","contractor":"","structural_designer":"","landscape_designer":"","shinkenchiku_url":""},{"id":6923,"title":"石川県立金沢商業高等学校","architect":"川崎清","year":2013.0,"address":"石川県金沢市小立野5-4-1","latitude":36.5533332824707,"longitude":136.6785888671875,"category":"学校","big_category":"教育","description":"","image_url":"","tags":"Ver2.00(2017年9月)の追加建築","prefecture":"石川","contractor":"","structural_designer":"","landscape_designer":"","shinkenchiku_url":""},{"id":6924,"title":"加茂市市民福祉交流センター 加茂 美人の湯","architect":"川崎清","year":2002.0,"address":"新潟県加茂市宮寄上13-1","latitude":37.60045623779297,"longitude":139.11013793945312,"category":"温泉","big_category":"宿泊","description":"","image_url":"","tags":"Ver2.00(2017年9月)の追加建築","prefecture":"新潟","contractor":"","structural_designer":"","landscape_designer":"","shinkenchiku_url":""},{"id":6925,"title":"JR奈良駅","architect":"川崎清","year":2010.0,"address":"奈良県奈良市三条本町三条本町1","latitude":34.68117141723633,"longitude":135.81948852539062,"category":"駅","big_category":"インフラ","description":"","image_url":"","tags":"Ver2.00(2017年9月)の追加建築","prefecture":"奈良","contractor":"","structural_designer":"","landscape_designer":"","shinkenchiku_url":""},{"id":6926,"title":"大津柳が崎浄水場","architect":"川崎清","year":1965.0,"address":"滋賀県大津市柳が崎6-1","latitude":35.02831268310547,"longitude":135.86764526367188,"category":"公共施設","big_category":"公共施設","description":"","image_url":"","tags":"Ver2.00(2017年9月)の追加建築","prefecture":"滋賀","contractor":"","structural_designer":"","landscape_designer":"","shinkenchiku_url":""},{"id":6927,"title":"阪神水道企業団","architect":"川崎清","year":1963.0,"address":"兵庫県神戸市東灘区西岡本3-20-1","latitude":34.72451400756836,"longitude":135.263671875,"category":"公共施設","big_category":"公共施設","description":"","image_url":"","tags":"Ver2.00(2017年9月)の追加建築","prefecture":"兵庫","contractor":"","structural_designer":"","landscape_designer":"","shinkenchiku_url":""},{"id":6928,"title":"西武大津店","architect":"菊竹清訓","year":1976.0,"address":"滋賀県大津市におの浜2-3-1","latitude":35.00431442260742,"longitude":135.8819122314453,"category":"テナントビル/モール","big_category":"商業施設,商業施設","description":"2021年解体","image_url":"","tags":"Ver2.00(2017年9月)の追加建築","prefecture":"滋賀","contractor":"","structural_designer":"","landscape_designer":"","shinkenchiku_url":""},{"id":6929,"title":"京都信用金庫 大津支店","architect":"菊竹清訓","year":1983.0,"address":"滋賀県大津市中央1-9-20","latitude":35.00911331176758,"longitude":135.86488342285156,"category":"金融機関","big_category":"企業施設","description":"2020年解体","image_url":"","tags":"Ver2.00(2017年9月)の追加建築","prefecture":"滋賀","contractor":"","structural_designer":"","landscape_designer":"","shinkenchiku_url":""},{"id":6930,"title":"ヒノキ新薬 びわこ湖北寮","architect":"白井晟一","year":1984.0,"address":"滋賀県長浜市西浅井町大浦2192-4","latitude":35.459983825683594,"longitude":136.1051025390625,"category":"研修施設","big_category":"教育","description":"","image_url":"","tags":"Ver2.00(2017年9月)の追加建築","prefecture":"滋賀","contractor":"","structural_designer":"","landscape_designer":"","shinkenchiku_url":""},{"id":6931,"title":"リンクスビル","architect":"高松伸","year":1990.0,"address":"滋賀県大津市西の庄19-10","latitude":35.00197982788086,"longitude":135.8883056640625,"category":"オフィスビル","big_category":"企業施設","description":"","image_url":"","tags":"Ver2.00(2017年9月)の追加建築","prefecture":"滋賀","contractor":"","structural_designer":"","landscape_designer":"","shinkenchiku_url":""},{"id":6932,"title":"ザ・サイプレス別邸","architect":"大江匡","year":2015.0,"address":"兵庫県丹波市氷上町三原60-1","latitude":35.17131423950195,"longitude":134.96763610839844,"category":"ホテル","big_category":"宿泊","description":"","image_url":"","tags":"Ver2.00(2017年9月)の追加建築","prefecture":"兵庫","contractor":"","structural_designer":"","landscape_designer":"","shinkenchiku_url":""},{"id":6933,"title":"上用賀サウスウイング","architect":"大江匡","year":2009.0,"address":"東京都世田谷区上用賀3-9-7","latitude":35.631690979003906,"longitude":139.63055419921875,"category":"集合住宅","big_category":"住宅","description":"","image_url":"","tags":"Ver2.00(2017年9月)の追加建築","prefecture":"東京","contractor":"","structural_designer":"","landscape_designer":"","shinkenchiku_url":""},{"id":6934,"title":"横浜の茶室 馬場花木園 茶室","architect":"大江匡","year":1997.0,"address":"神奈川県横浜市鶴見区馬場2-20-1","latitude":35.50870895385742,"longitude":139.6490478515625,"category":"茶室","big_category":"住宅","description":"","image_url":"","tags":"Ver2.00(2017年9月)の追加建築","prefecture":"神奈川","contractor":"","structural_designer":"","landscape_designer":"","shinkenchiku_url":""},{"id":6935,"title":"磐梯町役場庁舎","architect":"清水公夫","year":1980.0,"address":"福島県耶麻郡磐梯町磐梯中ノ橋1855","latitude":37.56208801269531,"longitude":139.9887237548828,"category":"庁舎","big_category":"公共施設","description":"","image_url":"","tags":"Ver2.00(2017年9月)の追加建築","prefecture":"福島","contractor":"","structural_designer":"","landscape_designer":"","shinkenchiku_url":""},{"id":6936,"title":"都路村役場庁舎","architect":"清水公夫","year":1993.0,"address":"福島県田村市都路町古道本町33-4","latitude":37.435951232910156,"longitude":140.7946319580078,"category":"庁舎","big_category":"公共施設","description":"","image_url":"","tags":"Ver2.00(2017年9月)の追加建築","prefecture":"福島","contractor":"","structural_designer":"","landscape_designer":"","shinkenchiku_url":""},{"id":6937,"title":"下郷町役場庁舎 下郷町ふれあいセンター","architect":"清水公夫","year":1995.0,"address":"福島県南会津郡下郷町塩生大石1000","latitude":37.25563430786133,"longitude":139.87222290039062,"category":"庁舎","big_category":"公共施設","description":"","image_url":"","tags":"Ver2.00(2017年9月)の追加建築,2022年JIA25年賞 登録作品","prefecture":"福島","contractor":"","structural_designer":"","landscape_designer":"","shinkenchiku_url":""},{"id":6938,"title":"磐梯山慧日寺資料館","architect":"清水公夫","year":1986.0,"address":"福島県耶麻郡磐梯町磐梯寺西38","latitude":37.567283630371094,"longitude":139.98536682128906,"category":"博物館","big_category":"ミュージアム","description":"","image_url":"","tags":"Ver2.00(2017年9月)の追加建築","prefecture":"福島","contractor":"","structural_designer":"","landscape_designer":"","shinkenchiku_url":""},{"id":6939,"title":"会津只見考古館","architect":"清水公夫","year":1990.0,"address":"福島県南会津郡只見町大倉窪田33","latitude":37.31022644042969,"longitude":139.44473266601562,"category":"博物館","big_category":"ミュージアム","description":"","image_url":"","tags":"Ver2.00(2017年9月)の追加建築","prefecture":"福島","contractor":"","structural_designer":"","landscape_designer":"","shinkenchiku_url":""},{"id":6940,"title":"小野町ふるさと文化の館","architect":"清水公夫","year":1993.0,"address":"福島県田村郡小野町小野新町字中通2","latitude":37.27946472167969,"longitude":140.6333465576172,"category":"博物館","big_category":"ミュージアム","description":"","image_url":"","tags":"Ver2.00(2017年9月)の追加建築,2023年JIA25年賞 登録作品","prefecture":"福島","contractor":"八光建設","structural_designer":"","landscape_designer":"","shinkenchiku_url":""},{"id":6941,"title":"二本松市役所 岩代支所岩代図書館","architect":"清水公夫","year":1992.0,"address":"福島県二本松市小浜藤町242","latitude":37.55888748168945,"longitude":140.5143280029297,"category":"庁舎/図書館","big_category":"公共施設,文化施設","description":"","image_url":"","tags":"Ver2.00(2017年9月)の追加建築","prefecture":"福島","contractor":"","structural_designer":"","landscape_designer":"","shinkenchiku_url":""},{"id":6942,"title":"河井継之助記念館","architect":"清水公夫","year":1992.0,"address":"福島県南会津郡只見町塩沢上ノ台850-5","latitude":37.397735595703125,"longitude":139.35926818847656,"category":"博物館","big_category":"ミュージアム","description":"","image_url":"","tags":"Ver2.00(2017年9月)の追加建築","prefecture":"福島","contractor":"","structural_designer":"","landscape_designer":"","shinkenchiku_url":""},{"id":6943,"title":"北秋田市民ふれあいプラザ コムコム","architect":"青島裕之","year":2016.0,"address":"秋田県北秋田市花園町10-5","latitude":40.22801971435547,"longitude":140.3705596923828,"category":"公民館・交流施設","big_category":"公共施設","description":"","image_url":"","tags":"Ver2.00(2017年9月)の追加建築","prefecture":"秋田","contractor":"","structural_designer":"","landscape_designer":"","shinkenchiku_url":""},{"id":6944,"title":"二本松市民交流センター 大山忠作美術館","architect":"青島裕之","year":2009.0,"address":"福島県二本松市本町2-3-1","latitude":37.58980178833008,"longitude":140.43382263183594,"category":"公民館・交流施設/美術館","big_category":"公共施設,ミュージアム","description":"","image_url":"","tags":"Ver2.00(2017年9月)の追加建築","prefecture":"福島","contractor":"","structural_designer":"","landscape_designer":"","shinkenchiku_url":""},{"id":6945,"title":"名水市場 湧太郎","architect":"青島裕之","year":2002.0,"address":"秋田県仙北郡美郷町六郷馬町83","latitude":39.42308044433594,"longitude":140.5485382080078,"category":"温泉","big_category":"宿泊","description":"","image_url":"","tags":"Ver2.00(2017年9月)の追加建築","prefecture":"秋田","contractor":"","structural_designer":"","landscape_designer":"","shinkenchiku_url":""},{"id":6946,"title":"一行院 千日谷浄苑・新本堂","architect":"隈研吾","year":2017.0,"address":"東京都新宿区南元町19-2","latitude":35.679481506347656,"longitude":139.72055053710938,"category":"霊園/寺院","big_category":"宗教,宗教","description":"2018年に新本堂も完成","image_url":"","tags":"Ver2.00(2017年9月)の追加建築","prefecture":"東京","contractor":"","structural_designer":"","landscape_designer":"","shinkenchiku_url":""},{"id":6947,"title":"強羅ブリュワリー","architect":"中村拓志","year":2017.0,"address":"神奈川県足柄下郡箱根町強羅1300-70","latitude":35.24761199951172,"longitude":139.04617309570312,"category":"レストラン/醸造所","big_category":"商業施設,商業施設","description":"","image_url":"","tags":"Ver2.00(2017年9月)の追加建築","prefecture":"神奈川","contractor":"","structural_designer":"","landscape_designer":"","shinkenchiku_url":""},{"id":6948,"title":"京都信用金庫 十条支店","architect":"菊竹清訓","year":1984.0,"address":"京都府京都市南区上鳥羽高畠町65","latitude":34.973114013671875,"longitude":135.74574279785156,"category":"金融機関","big_category":"企業施設","description":"","image_url":"","tags":"Ver2.00(2017年9月)の追加建築","prefecture":"京都","contractor":"","structural_designer":"","landscape_designer":"","shinkenchiku_url":""},{"id":6949,"title":"東京水辺ライン葛西臨海公園発着場","architect":"谷口吉生","year":1993.0,"address":"東京都江戸川区臨海町6-2","latitude":35.63898468017578,"longitude":139.86083984375,"category":"駅","big_category":"インフラ","description":"","image_url":"","tags":"Ver2.00(2017年9月)の追加建築","prefecture":"東京","contractor":"","structural_designer":"","landscape_designer":"","shinkenchiku_url":""},{"id":6950,"title":"QUICO神宮前","architect":"坂本一成","year":2005.0,"address":"東京都渋谷区神宮前5-16-15","latitude":35.666168212890625,"longitude":139.70631408691406,"category":"店舗","big_category":"商業施設","description":"","image_url":"","tags":"Ver2.00(2017年9月)の追加建築","prefecture":"東京","contractor":"","structural_designer":"","landscape_designer":"","shinkenchiku_url":""}]}