{"page":18,"total_pages":290,"items_per_page":50,"total_items":14467,"items":[{"id":851,"title":"渋谷区立松濤美術館","architect":"白井晟一","year":1980.0,"address":"東京都渋谷区松濤2-14-14","latitude":35.6586799621582,"longitude":139.69178771972656,"category":"美術館","big_category":"ミュージアム","description":"","image_url":"","tags":"","prefecture":"東京","contractor":"","structural_designer":"","landscape_designer":"","shinkenchiku_url":""},{"id":852,"title":"GO-SEES HIROO","architect":"青木淳","year":2008.0,"address":"東京都渋谷区東4-12-5","latitude":35.65458297729492,"longitude":139.71315002441406,"category":"オフィスビル","big_category":"企業施設","description":"","image_url":"","tags":"","prefecture":"東京","contractor":"","structural_designer":"","landscape_designer":"","shinkenchiku_url":""},{"id":853,"title":"青山製図専門学校","architect":"渡辺誠","year":1990.0,"address":"東京都渋谷区鶯谷町7-9","latitude":35.65394592285156,"longitude":139.7017364501953,"category":"専門学校","big_category":"教育","description":"","image_url":"","tags":"","prefecture":"東京","contractor":"","structural_designer":"","landscape_designer":"","shinkenchiku_url":""},{"id":854,"title":"広尾コンプレックス","architect":"横河健","year":2003.0,"address":"東京都渋谷区広尾5-7-35","latitude":35.649261474609375,"longitude":139.72280883789062,"category":"オフィスビル","big_category":"企業施設","description":"","image_url":"","tags":"","prefecture":"東京","contractor":"","structural_designer":"","landscape_designer":"","shinkenchiku_url":""},{"id":855,"title":"sarugaku","architect":"平田晃久+吉原美比古","year":2008.0,"address":"東京都渋谷区猿楽町26-2","latitude":35.64855194091797,"longitude":139.7012481689453,"category":"モール","big_category":"商業施設","description":"","image_url":"","tags":"","prefecture":"東京","contractor":"","structural_designer":"","landscape_designer":"","shinkenchiku_url":""},{"id":856,"title":"ギャラリーTOM","architect":"内藤廣","year":1984.0,"address":"東京都渋谷区松涛2-11-1","latitude":35.659732818603516,"longitude":139.69041442871094,"category":"ギャラリー","big_category":"ミュージアム","description":"","image_url":"","tags":"","prefecture":"東京","contractor":"","structural_designer":"","landscape_designer":"","shinkenchiku_url":""},{"id":857,"title":"旧朝倉家住宅","architect":"不明","year":null,"address":"東京都渋谷区猿楽町29-20","latitude":35.64752960205078,"longitude":139.70089721679688,"category":"古民家","big_category":"近代建築/遺産","description":"","image_url":"","tags":"","prefecture":"東京","contractor":"","structural_designer":"","landscape_designer":"","shinkenchiku_url":""},{"id":858,"title":"MA2 Gallery","architect":"千葉学","year":2007.0,"address":"東京都渋谷区恵比寿3-3-8","latitude":35.645103454589844,"longitude":139.7189178466797,"category":"ギャラリー","big_category":"ミュージアム","description":"","image_url":"","tags":"","prefecture":"東京","contractor":"","structural_designer":"","landscape_designer":"","shinkenchiku_url":""},{"id":859,"title":"神宮前ビルディング","architect":"中央アーキ","year":2012.0,"address":"東京都渋谷区神宮前6-12-9","latitude":35.66655349731445,"longitude":139.70449829101562,"category":"オフィスビル","big_category":"企業施設","description":"","image_url":"","tags":"","prefecture":"東京","contractor":"","structural_designer":"","landscape_designer":"","shinkenchiku_url":""},{"id":860,"title":"津田ホール","architect":"槇文彦","year":1988.0,"address":"東京都渋谷区千駄ヶ谷1-18-24","latitude":35.680423736572266,"longitude":139.7111358642578,"category":"ホール・劇場","big_category":"文化施設","description":"解体","image_url":"","tags":"","prefecture":"東京","contractor":"","structural_designer":"","landscape_designer":"","shinkenchiku_url":""},{"id":861,"title":"アートプラザ1000 千駄ヶ谷タンジェント","architect":"リシャール・ブリア","year":1989.0,"address":"東京都渋谷区千駄ヶ谷2-9-9","latitude":35.676151275634766,"longitude":139.70938110351562,"category":"オフィスビル","big_category":"企業施設","description":"","image_url":"","tags":"","prefecture":"東京","contractor":"","structural_designer":"","landscape_designer":"","shinkenchiku_url":""},{"id":862,"title":"サンウェルミューズ北参道","architect":"玉上貴人","year":2008.0,"address":"東京都渋谷区千駄ヶ谷3-55-18","latitude":35.675376892089844,"longitude":139.70587158203125,"category":"店舗","big_category":"商業施設","description":"","image_url":"","tags":"","prefecture":"東京","contractor":"","structural_designer":"","landscape_designer":"","shinkenchiku_url":""},{"id":863,"title":"吉村順三記念ギャラリー","architect":"吉村順三","year":1976.0,"address":"東京都豊島区目白3-8-6","latitude":35.72335433959961,"longitude":139.70301818847656,"category":"住宅","big_category":"住宅","description":"土・日のみ開館","image_url":"","tags":"","prefecture":"東京","contractor":"","structural_designer":"","landscape_designer":"","shinkenchiku_url":""},{"id":864,"title":"東京キリストの教会","architect":"槇文彦","year":1995.0,"address":"東京都渋谷区富ヶ谷1-30-17","latitude":35.66508483886719,"longitude":139.68829345703125,"category":"教会","big_category":"宗教","description":"","image_url":"","tags":"","prefecture":"東京","contractor":"","structural_designer":"","landscape_designer":"","shinkenchiku_url":""},{"id":865,"title":"HOLON L/Rビル","architect":"團紀彦","year":2004.0,"address":"東京都港区北青山3-12-13","latitude":35.66342544555664,"longitude":139.71002197265625,"category":"オフィスビル","big_category":"企業施設","description":"","image_url":"","tags":"","prefecture":"東京","contractor":"","structural_designer":"","landscape_designer":"","shinkenchiku_url":""},{"id":866,"title":"東京都児童会館","architect":"大谷幸夫","year":1963.0,"address":"東京都渋谷区渋谷1-18-24","latitude":35.6616325378418,"longitude":139.70355224609375,"category":"児童施設","big_category":"教育","description":"2012年閉館解体済","image_url":"","tags":"","prefecture":"東京","contractor":"","structural_designer":"","landscape_designer":"","shinkenchiku_url":""},{"id":867,"title":"Bunkamura ザ・ミュージアム","architect":"石本建築事務所+東急設計コンサルタント+三上祐三+ジャン・ミシェル・ヴィルモット","year":1989.0,"address":"東京都渋谷区道玄坂2-24-1 ","latitude":35.66093826293945,"longitude":139.69569396972656,"category":"美術館","big_category":"ミュージアム","description":"","image_url":"","tags":"","prefecture":"東京","contractor":"","structural_designer":"","landscape_designer":"","shinkenchiku_url":""},{"id":868,"title":"東急東横線 渋谷駅","architect":"安藤忠雄","year":2009.0,"address":"東京都渋谷区渋谷21-13","latitude":35.659080505371094,"longitude":139.701171875,"category":"駅","big_category":"インフラ","description":"","image_url":"","tags":"","prefecture":"東京","contractor":"","structural_designer":"","landscape_designer":"","shinkenchiku_url":""},{"id":869,"title":"山種美術館","architect":"日本設計","year":2009.0,"address":"東京都渋谷区広尾3-12-36","latitude":35.653324127197266,"longitude":139.71383666992188,"category":"美術館","big_category":"ミュージアム","description":"","image_url":"","tags":"","prefecture":"東京","contractor":"","structural_designer":"","landscape_designer":"","shinkenchiku_url":""},{"id":870,"title":"A.P.Cビル","architect":"ポール・シュウメトフ","year":1998.0,"address":"東京都渋谷区猿楽町11-9","latitude":35.649105072021484,"longitude":139.7019805908203,"category":"店舗/オフィスビル","big_category":"商業施設,企業施設","description":"","image_url":"","tags":"","prefecture":"東京","contractor":"","structural_designer":"","landscape_designer":"","shinkenchiku_url":""},{"id":871,"title":"FLEG代官山","architect":"下吹越武人","year":2004.0,"address":"東京都渋谷区恵比寿西1-31-11","latitude":35.647727966308594,"longitude":139.70486450195312,"category":"オフィスビル","big_category":"企業施設","description":"","image_url":"","tags":"","prefecture":"東京","contractor":"","structural_designer":"","landscape_designer":"","shinkenchiku_url":""},{"id":872,"title":"日本基督教団 原宿教会","architect":"シィエル・ルージュ・クレアシオン","year":2005.0,"address":"東京都渋谷区神宮前3-42-1","latitude":35.67079544067383,"longitude":139.7139434814453,"category":"教会","big_category":"宗教","description":"","image_url":"https://lh3.googleusercontent.com/-q-GPpamTM04/T3anH4fmZ3I/AAAAAAAAKEI/xa5ga0bnM5U/s1024/P3307377.JPG","tags":"","prefecture":"東京","contractor":"","structural_designer":"","landscape_designer":"","shinkenchiku_url":""},{"id":873,"title":"GYRE","architect":"MVRDV","year":2007.0,"address":"東京都渋谷区神宮前5-10-1","latitude":35.667381286621094,"longitude":139.7069091796875,"category":"テナントビル","big_category":"商業施設","description":"2019年10月に田根剛内装設計のGYRE FOOD（レストランフロア）がオープン","image_url":"","tags":"","prefecture":"東京","contractor":"","structural_designer":"","landscape_designer":"","shinkenchiku_url":""},{"id":874,"title":"国立代々木競技場","architect":"丹下健三","year":1964.0,"address":"東京都渋谷区神南2-1-1","latitude":35.66762924194336,"longitude":139.70001220703125,"category":"スポーツ施設/体育館/スタジアム","big_category":"レジャー施設,レジャー施設,レジャー施設","description":"2019年に丹下・久米設計共同体により耐震改修","image_url":"https://farm8.staticflickr.com/7322/8908403616_87c356309b_h.jpg","tags":"公共建築百選,DOCOMOMO,新建築2020年3月号,重要文化財,東京2020オリンピック競技会場","prefecture":"東京","contractor":"","structural_designer":"","landscape_designer":"","shinkenchiku_url":""},{"id":875,"title":"代官山T-SITE","architect":"クライン・ダイサム・アーキテクツ+アール・アイ・エー","year":2011.0,"address":"東京都渋谷区 猿楽町17-5","latitude":35.648868560791016,"longitude":139.6997528076172,"category":"店舗","big_category":"商業施設","description":"","image_url":"https://lh3.googleusercontent.com/-rt9VM7Q7SUY/T45g4lp_cpI/AAAAAAAAKcU/jzBazBvTsi8/s1024/P4177911.JPG","tags":"","prefecture":"東京","contractor":"","structural_designer":"","landscape_designer":"","shinkenchiku_url":""},{"id":876,"title":"ワタリウム美術館","architect":"マリオ・ボッタ","year":1990.0,"address":"東京都渋谷区神宮前3-7-6","latitude":35.67066955566406,"longitude":139.71337890625,"category":"美術館","big_category":"ミュージアム","description":"","image_url":"https://lh3.googleusercontent.com/-4fxmoiQbuvQ/T3ab0eDU1NI/AAAAAAAAJ9A/QkVV0v2f2aI/s800/P3307395.JPG","tags":"","prefecture":"東京","contractor":"","structural_designer":"","landscape_designer":"","shinkenchiku_url":""},{"id":877,"title":"表参道ヒルズ","architect":"安藤忠雄","year":2006.0,"address":"東京都渋谷区神宮前4-12-10","latitude":35.667259216308594,"longitude":139.7089385986328,"category":"モール","big_category":"商業施設","description":"","image_url":"https://lh3.googleusercontent.com/-XRC6mPvVsJU/T22pvK2zzZI/AAAAAAAAJdE/jJY8di-fFas/s800/P3176379.JPG","tags":"","prefecture":"東京","contractor":"","structural_designer":"","landscape_designer":"","shinkenchiku_url":""},{"id":878,"title":"渋谷ヒカリエ","architect":"日建設計","year":2012.0,"address":"東京都渋谷区渋谷2-21-1","latitude":35.65876007080078,"longitude":139.7030487060547,"category":"複合ビル","big_category":"企業施設","description":"","image_url":"","tags":"","prefecture":"東京","contractor":"","structural_designer":"","landscape_designer":"","shinkenchiku_url":""},{"id":879,"title":"JA東京むさし本店","architect":"久米設計","year":2012.0,"address":"東京都小金井市貫井北町1-10-1","latitude":35.70180130004883,"longitude":139.4987335205078,"category":"組合施設","big_category":"公共施設","description":"","image_url":"","tags":"","prefecture":"東京","contractor":"","structural_designer":"","landscape_designer":"","shinkenchiku_url":""},{"id":880,"title":"東京サレジオ学園","architect":"坂倉建築研究所","year":1990.0,"address":"東京都小平市上水南町4-7-1","latitude":35.70899200439453,"longitude":139.49049377441406,"category":"学校","big_category":"教育","description":"","image_url":"","tags":"1989年村野藤吾賞,1989年吉田五十八賞,2014年JIA25年賞","prefecture":"東京","contractor":"","structural_designer":"","landscape_designer":"","shinkenchiku_url":""},{"id":881,"title":"九十八叟院 平櫛田中彫刻美術館 記念館","architect":"大江宏","year":1969.0,"address":"東京都小平市学園西町1-7-5","latitude":35.71796798706055,"longitude":139.4755096435547,"category":"美術館","big_category":"ミュージアム","description":"","image_url":"","tags":"","prefecture":"東京","contractor":"","structural_designer":"","landscape_designer":"","shinkenchiku_url":""},{"id":882,"title":"平櫛田中彫刻美術館 展示館","architect":"大江新","year":1984.0,"address":"東京都小平市学園西町1-7-5","latitude":35.71810531616211,"longitude":139.4757843017578,"category":"美術館","big_category":"ミュージアム","description":"","image_url":"","tags":"","prefecture":"東京","contractor":"","structural_designer":"","landscape_designer":"","shinkenchiku_url":""},{"id":883,"title":"がす資料館","architect":"不明","year":1909.0,"address":"東京都小平市大沼町4-31","latitude":35.741966247558594,"longitude":139.500732421875,"category":"洋館","big_category":"近代建築/遺産","description":"","image_url":"","tags":"","prefecture":"東京","contractor":"","structural_designer":"","landscape_designer":"","shinkenchiku_url":""},{"id":884,"title":"武蔵野美術大学 図書館","architect":"藤本壮介","year":2010.0,"address":"東京都小平市小川町1-736","latitude":35.72629165649414,"longitude":139.44644165039062,"category":"大学/図書館","big_category":"教育,文化施設","description":"美術館も藤本壮介による改修","image_url":"https://farm8.staticflickr.com/7390/9071343415_b3d6244171_h.jpg","tags":"","prefecture":"東京","contractor":"","structural_designer":"","landscape_designer":"","shinkenchiku_url":""},{"id":885,"title":"武蔵野美術大学 美術館","architect":"芦原義信","year":1967.0,"address":"東京都小平市小川町1-736","latitude":35.726295471191406,"longitude":139.4468994140625,"category":"大学/美術館","big_category":"教育,ミュージアム","description":"","image_url":"https://farm4.staticflickr.com/3686/9454567721_9b9b5504f7_h.jpg","tags":"DOCOMOMO","prefecture":"東京","contractor":"","structural_designer":"","landscape_designer":"","shinkenchiku_url":""},{"id":886,"title":"真言宗豊山派 観音寺","architect":"石山修武","year":1996.0,"address":"東京都新宿区西早稲田1-7-1","latitude":35.70985412597656,"longitude":139.72021484375,"category":"寺院","big_category":"宗教","description":"","image_url":"","tags":"","prefecture":"東京","contractor":"","structural_designer":"","landscape_designer":"","shinkenchiku_url":""},{"id":887,"title":"カフェアリエ 新宿ホワイトハウス","architect":"磯崎新","year":1957.0,"address":"東京都新宿区百人町1-1-8","latitude":35.698753356933594,"longitude":139.70156860351562,"category":"カフェ/住宅","big_category":"商業施設,住宅","description":"カフェとしては2019年3月末で閉鎖","image_url":"","tags":"","prefecture":"東京","contractor":"","structural_designer":"","landscape_designer":"","shinkenchiku_url":""},{"id":888,"title":"GUNKAN 東新宿 旧第3スカイビル","architect":"渡邊洋治","year":1970.0,"address":"東京都新宿区大久保1-1-10","latitude":35.698463439941406,"longitude":139.7057647705078,"category":"オフィスビル","big_category":"企業施設","description":"","image_url":"","tags":"DOCOMOMO","prefecture":"東京","contractor":"","structural_designer":"","landscape_designer":"","shinkenchiku_url":""},{"id":889,"title":"東京都庁舎","architect":"丹下健三","year":1991.0,"address":"東京都新宿区西新宿2-8-1","latitude":35.689186096191406,"longitude":139.691650390625,"category":"庁舎","big_category":"公共施設","description":"","image_url":"","tags":"公共建築百選","prefecture":"東京","contractor":"","structural_designer":"","landscape_designer":"","shinkenchiku_url":""},{"id":890,"title":"日本バプテストキリスト教 目白ケ丘教会","architect":"遠藤新","year":1950.0,"address":"東京都新宿区下落合2-15-11","latitude":35.719181060791016,"longitude":139.70404052734375,"category":"教会","big_category":"宗教","description":"","image_url":"","tags":"登録有形文化財","prefecture":"東京","contractor":"","structural_designer":"","landscape_designer":"","shinkenchiku_url":""},{"id":891,"title":"林芙美子記念館 旧林芙美子邸","architect":"山口文象","year":1941.0,"address":"東京都新宿区中井2-20-1","latitude":35.71586608886719,"longitude":139.68426513671875,"category":"和風住宅","big_category":"住宅","description":"","image_url":"","tags":"","prefecture":"東京","contractor":"","structural_designer":"","landscape_designer":"","shinkenchiku_url":""},{"id":892,"title":"早稲田大学 坪内博士記念演劇博物館","architect":"今井兼次","year":1928.0,"address":"東京都新宿区西早稲田1-6-1","latitude":35.7099494934082,"longitude":139.71954345703125,"category":"博物館","big_category":"ミュージアム","description":"","image_url":"","tags":"","prefecture":"東京","contractor":"","structural_designer":"","landscape_designer":"","shinkenchiku_url":""},{"id":893,"title":"東京グローブ座","architect":"磯崎新","year":1988.0,"address":"東京都新宿区百人町3-1-2","latitude":35.70500183105469,"longitude":139.70040893554688,"category":"ホール・劇場","big_category":"文化施設","description":"","image_url":"","tags":"","prefecture":"東京","contractor":"","structural_designer":"","landscape_designer":"","shinkenchiku_url":""},{"id":894,"title":"アンスティチュ・フランセ東京 旧東京日仏学院","architect":"坂倉準三","year":1951.0,"address":"東京都新宿区市谷船河原町15","latitude":35.69835662841797,"longitude":139.7397918701172,"category":"学校","big_category":"教育","description":"","image_url":"","tags":"DOCOMOMO","prefecture":"東京","contractor":"","structural_designer":"","landscape_designer":"","shinkenchiku_url":""},{"id":895,"title":"淀橋教会","architect":"稲冨昭","year":1999.0,"address":"東京都新宿区百人町1-17-8","latitude":35.70109939575195,"longitude":139.6976776123047,"category":"教会","big_category":"宗教","description":"","image_url":"","tags":"","prefecture":"東京","contractor":"","structural_designer":"","landscape_designer":"","shinkenchiku_url":""},{"id":896,"title":"新宿御苑大温室","architect":"日本設計","year":2012.0,"address":"東京都新宿区内藤町11","latitude":35.68670654296875,"longitude":139.7081756591797,"category":"博物館","big_category":"ミュージアム","description":"","image_url":"","tags":"","prefecture":"東京","contractor":"","structural_designer":"","landscape_designer":"","shinkenchiku_url":""},{"id":897,"title":"東京オペラシティ","architect":"柳澤孝彦+NTTファシリティーズ","year":1996.0,"address":"東京都新宿区西新宿3-20-2","latitude":35.682952880859375,"longitude":139.68685913085938,"category":"美術館","big_category":"ミュージアム","description":"","image_url":"","tags":"","prefecture":"東京","contractor":"","structural_designer":"","landscape_designer":"","shinkenchiku_url":""},{"id":898,"title":"早稲田大学演劇博物館","architect":"不明","year":null,"address":"東京都新宿区西早稲田1-6-1","latitude":35.709007263183594,"longitude":139.7187957763672,"category":"洋館","big_category":"近代建築/遺産","description":"","image_url":"","tags":"","prefecture":"東京","contractor":"","structural_designer":"","landscape_designer":"","shinkenchiku_url":""},{"id":899,"title":"早稲田大学 會津八一記念博物館","architect":"今井兼次+古谷誠章","year":1925.0,"address":"東京都新宿区西早稲田1-6-1","latitude":35.70867156982422,"longitude":139.7203369140625,"category":"博物館","big_category":"ミュージアム","description":"古谷誠章が1998年に博物館に改修","image_url":"","tags":"2002年日本建築学会 作品選奨","prefecture":"東京","contractor":"","structural_designer":"","landscape_designer":"","shinkenchiku_url":""},{"id":900,"title":"旧旺文社ビル南館・北館","architect":"ノーマン・フォスター","year":1993.0,"address":"東京都新宿区矢来町77-1","latitude":35.70206069946289,"longitude":139.73297119140625,"category":"オフィスビル","big_category":"企業施設","description":"2013年頃に取り壊された","image_url":"","tags":"","prefecture":"東京","contractor":"","structural_designer":"","landscape_designer":"","shinkenchiku_url":""}]}