{"page":282,"total_pages":290,"items_per_page":50,"total_items":14467,"items":[{"id":14051,"title":"ホンゴウハイツ ザ・シティ本郷-STハウス","architect":"西田司","year":2022.0,"address":"東京都文京区本郷4-19-1","latitude":35.70907974243164,"longitude":139.75457763671875,"category":"集合住宅","big_category":"住宅","description":"","image_url":"","tags":"Ver5.50(2024年11月)の追加建築","prefecture":"東京","contractor":"","structural_designer":"","landscape_designer":"","shinkenchiku_url":""},{"id":14052,"title":"仏向原ふれあい公園 トイレ・倉庫棟","architect":"小泉雅生","year":2018.0,"address":"神奈川県横浜市保土ケ谷区仏向町","latitude":35.45687484741211,"longitude":139.57540893554688,"category":"トイレ","big_category":"公共施設","description":"","image_url":"","tags":"Ver5.50(2024年11月)の追加建築","prefecture":"神奈川","contractor":"","structural_designer":"","landscape_designer":"","shinkenchiku_url":""},{"id":14053,"title":"JR関内駅北口就労支援施設 cafeツムギstation at Yokohama Kannai","architect":"小泉雅生","year":2020.0,"address":"神奈川県横浜市中区港町2-9-5","latitude":35.44401931762695,"longitude":139.63623046875,"category":"カフェ","big_category":"商業施設","description":"","image_url":"","tags":"Ver5.50(2024年11月)の追加建築","prefecture":"神奈川","contractor":"","structural_designer":"","landscape_designer":"","shinkenchiku_url":""},{"id":14054,"title":"赤井製作所","architect":"小泉雅生","year":2013.0,"address":"埼玉県飯能市茜台2-3-6","latitude":35.8488883972168,"longitude":139.29310607910156,"category":"低層オフィス","big_category":"企業施設","description":"","image_url":"","tags":"Ver5.50(2024年11月)の追加建築","prefecture":"埼玉","contractor":"","structural_designer":"","landscape_designer":"","shinkenchiku_url":""},{"id":14055,"title":"妙蓮寺集合住宅 B-FLAT","architect":"小泉雅生","year":2010.0,"address":"神奈川県横浜市神奈川区松見町3-979","latitude":35.50285339355469,"longitude":139.64065551757812,"category":"集合住宅","big_category":"住宅","description":"","image_url":"","tags":"Ver5.50(2024年11月)の追加建築","prefecture":"神奈川","contractor":"","structural_designer":"","landscape_designer":"","shinkenchiku_url":""},{"id":14056,"title":"SLC銀座ビル","architect":"小泉雅生","year":2005.0,"address":"東京都中央区銀座2-11-14","latitude":35.672096252441406,"longitude":139.76864624023438,"category":"オフィスビル","big_category":"企業施設","description":"","image_url":"","tags":"Ver5.50(2024年11月)の追加建築","prefecture":"東京","contractor":"","structural_designer":"","landscape_designer":"","shinkenchiku_url":""},{"id":14057,"title":"ジャパンエキスプレスビル","architect":"川崎鉄三","year":1930.0,"address":"神奈川県横浜市中区海岸通1-1","latitude":35.448055267333984,"longitude":139.64453125,"category":"テナントビル","big_category":"商業施設","description":"","image_url":"","tags":"Ver5.50(2024年11月)の追加建築","prefecture":"神奈川","contractor":"三木組","structural_designer":"","landscape_designer":"","shinkenchiku_url":""},{"id":14058,"title":"昭和ビル","architect":"川崎鉄三","year":1931.0,"address":"神奈川県横浜市中区海岸通1","latitude":35.448280334472656,"longitude":139.6433868408203,"category":"オフィスビル","big_category":"企業施設","description":"","image_url":"","tags":"Ver5.50(2024年11月)の追加建築","prefecture":"神奈川","contractor":"戸田組","structural_designer":"","landscape_designer":"","shinkenchiku_url":""},{"id":14059,"title":"ジオ千里中央","architect":"遠藤剛生","year":2016.0,"address":"大阪府豊中市新千里北町2-40","latitude":34.818721771240234,"longitude":135.49900817871094,"category":"集合住宅","big_category":"住宅","description":"","image_url":"","tags":"Ver5.50(2024年11月)の追加建築","prefecture":"大阪","contractor":"","structural_designer":"","landscape_designer":"","shinkenchiku_url":""},{"id":14060,"title":"シャレール東豊中","architect":"遠藤剛生","year":2004.0,"address":"大阪府豊中市東豊中町6-5-1","latitude":34.795745849609375,"longitude":135.4803466796875,"category":"集合住宅","big_category":"住宅","description":"","image_url":"","tags":"Ver5.50(2024年11月)の追加建築","prefecture":"大阪","contractor":"","structural_designer":"","landscape_designer":"","shinkenchiku_url":""},{"id":14061,"title":"ザ・レジデンス豊中","architect":"遠藤剛生","year":2010.0,"address":"大阪府豊中市東豊中町6-6-2","latitude":34.7954216003418,"longitude":135.48049926757812,"category":"集合住宅","big_category":"住宅","description":"","image_url":"","tags":"Ver5.50(2024年11月)の追加建築","prefecture":"大阪","contractor":"","structural_designer":"","landscape_designer":"","shinkenchiku_url":""},{"id":14062,"title":"東豊中クラスヒルズ","architect":"遠藤剛生","year":2012.0,"address":"大阪府豊中市東豊中町6-13","latitude":34.796878814697266,"longitude":135.48358154296875,"category":"集合住宅","big_category":"住宅","description":"","image_url":"","tags":"Ver5.50(2024年11月)の追加建築","prefecture":"大阪","contractor":"","structural_designer":"","landscape_designer":"","shinkenchiku_url":""},{"id":14063,"title":"ビッグカーサしらさぎ駅前","architect":"遠藤剛生","year":2012.0,"address":"大阪府堺市北区金岡町1423-4","latitude":34.55154037475586,"longitude":135.5135498046875,"category":"集合住宅","big_category":"住宅","description":"","image_url":"","tags":"Ver5.50(2024年11月)の追加建築","prefecture":"大阪","contractor":"","structural_designer":"","landscape_designer":"","shinkenchiku_url":""},{"id":14064,"title":"奈良学園前鶴舞第二期","architect":"遠藤剛生","year":2014.0,"address":"奈良県奈良市鶴舞西町1-3","latitude":34.70195770263672,"longitude":135.75076293945312,"category":"集合住宅","big_category":"住宅","description":"","image_url":"","tags":"Ver5.50(2024年11月)の追加建築","prefecture":"奈良","contractor":"","structural_designer":"","landscape_designer":"","shinkenchiku_url":""},{"id":14065,"title":"グリーンヒルズ仁川第二期","architect":"遠藤剛生","year":2016.0,"address":"兵庫県宝塚市仁川団地1-1","latitude":34.78076171875,"longitude":135.34947204589844,"category":"集合住宅","big_category":"住宅","description":"","image_url":"","tags":"Ver5.50(2024年11月)の追加建築","prefecture":"兵庫","contractor":"","structural_designer":"","landscape_designer":"","shinkenchiku_url":""},{"id":14066,"title":"東京大学 工学部列品館","architect":"内田祥三","year":1925.0,"address":"東京都文京区本郷7-3-1","latitude":35.71324157714844,"longitude":139.76007080078125,"category":"大学","big_category":"教育","description":"","image_url":"","tags":"登録有形文化財,Ver5.50(2024年11月)の追加建築","prefecture":"東京","contractor":"","structural_designer":"","landscape_designer":"","shinkenchiku_url":""},{"id":14067,"title":"東京大学 南研究棟","architect":"内田祥三","year":1925.0,"address":"東京都文京区本郷7-3-1","latitude":35.71025466918945,"longitude":139.76425170898438,"category":"大学/病院","big_category":"教育,医療施設","description":"","image_url":"","tags":"Ver5.50(2024年11月)の追加建築","prefecture":"東京","contractor":"","structural_designer":"","landscape_designer":"","shinkenchiku_url":""},{"id":14068,"title":"東京大学 工学部4号館","architect":"内田祥三","year":1927.0,"address":"東京都文京区本郷7-3-1","latitude":35.715087890625,"longitude":139.76161193847656,"category":"大学","big_category":"教育","description":"","image_url":"","tags":"Ver5.50(2024年11月)の追加建築","prefecture":"東京","contractor":"","structural_designer":"","landscape_designer":"","shinkenchiku_url":""},{"id":14069,"title":"東京大学 法学部3号館","architect":"内田祥三","year":1927.0,"address":"東京都文京区本郷7-3-1","latitude":35.71257781982422,"longitude":139.76025390625,"category":"大学","big_category":"教育","description":"","image_url":"","tags":"登録有形文化財,Ver5.50(2024年11月)の追加建築","prefecture":"東京","contractor":"","structural_designer":"","landscape_designer":"","shinkenchiku_url":""},{"id":14070,"title":"東京大学 医学部附属病院東研究棟","architect":"内田祥三","year":1928.0,"address":"東京都文京区本郷7-3-1","latitude":35.712711334228516,"longitude":139.76641845703125,"category":"大学/病院","big_category":"教育,医療施設","description":"","image_url":"","tags":"Ver5.50(2024年11月)の追加建築","prefecture":"東京","contractor":"","structural_designer":"","landscape_designer":"","shinkenchiku_url":""},{"id":14071,"title":"東京大学 先端科学技術研究センター1号館","architect":"内田祥三","year":1928.0,"address":"東京都目黒区駒場4-6-1","latitude":35.663238525390625,"longitude":139.6781005859375,"category":"大学","big_category":"教育","description":"","image_url":"","tags":"Ver5.50(2024年11月)の追加建築","prefecture":"東京","contractor":"","structural_designer":"","landscape_designer":"","shinkenchiku_url":""},{"id":14072,"title":"東京大学 先端科学技術研究センター13号館","architect":"内田祥三","year":1929.0,"address":"東京都目黒区駒場4-6-1","latitude":35.66285705566406,"longitude":139.67738342285156,"category":"大学","big_category":"教育","description":"","image_url":"","tags":"Ver5.50(2024年11月)の追加建築","prefecture":"東京","contractor":"","structural_designer":"","landscape_designer":"","shinkenchiku_url":""},{"id":14073,"title":"東京大学 農学部1号館","architect":"内田祥三","year":1930.0,"address":"東京都文京区弥生1-1","latitude":35.715965270996094,"longitude":139.75958251953125,"category":"大学","big_category":"教育","description":"","image_url":"","tags":"Ver5.50(2024年11月)の追加建築","prefecture":"東京","contractor":"","structural_designer":"","landscape_designer":"","shinkenchiku_url":""},{"id":14074,"title":"東京大学 医学部1号館","architect":"内田祥三","year":1931.0,"address":"東京都文京区本郷7-3-1","latitude":35.70970916748047,"longitude":139.76177978515625,"category":"大学","big_category":"教育","description":"","image_url":"","tags":"Ver5.50(2024年11月)の追加建築","prefecture":"東京","contractor":"","structural_designer":"","landscape_designer":"","shinkenchiku_url":""},{"id":14075,"title":"東京大学 教養学部1号館","architect":"内田祥三","year":1933.0,"address":"東京都目黒区駒場3-8-1","latitude":35.659820556640625,"longitude":139.68484497070312,"category":"大学","big_category":"教育","description":"","image_url":"","tags":"Ver5.50(2024年11月)の追加建築","prefecture":"東京","contractor":"","structural_designer":"","landscape_designer":"","shinkenchiku_url":""},{"id":14076,"title":"東京大学 医学部附属病院管理研究棟","architect":"内田祥三","year":1934.0,"address":"東京都文京区本郷7-3-1","latitude":35.711917877197266,"longitude":139.76443481445312,"category":"大学/病院","big_category":"教育,医療施設","description":"","image_url":"","tags":"Ver5.50(2024年11月)の追加建築","prefecture":"東京","contractor":"","structural_designer":"","landscape_designer":"","shinkenchiku_url":""},{"id":14077,"title":"東京大学 第二食堂","architect":"内田祥三","year":1934.0,"address":"東京都文京区本郷7-3-1","latitude":35.71358871459961,"longitude":139.7646484375,"category":"大学","big_category":"教育","description":"","image_url":"","tags":"Ver5.50(2024年11月)の追加建築","prefecture":"東京","contractor":"","structural_designer":"","landscape_designer":"","shinkenchiku_url":""},{"id":14078,"title":"東京大学 駒場博物館","architect":"内田祥三","year":1935.0,"address":"東京都目黒区駒場3-8-1","latitude":35.65933609008789,"longitude":139.6857452392578,"category":"大学/博物館","big_category":"教育,ミュージアム","description":"","image_url":"","tags":"Ver5.50(2024年11月)の追加建築","prefecture":"東京","contractor":"","structural_designer":"","landscape_designer":"","shinkenchiku_url":""},{"id":14079,"title":"東京大学 教養学部101号館","architect":"内田祥三","year":1935.0,"address":"東京都目黒区駒場3-8-1","latitude":35.659912109375,"longitude":139.68588256835938,"category":"大学","big_category":"教育","description":"","image_url":"","tags":"Ver5.50(2024年11月)の追加建築","prefecture":"東京","contractor":"","structural_designer":"","landscape_designer":"","shinkenchiku_url":""},{"id":14080,"title":"東京大学 法文1号館","architect":"内田祥三","year":1935.0,"address":"東京都文京区本郷7-3-1","latitude":35.71345901489258,"longitude":139.76092529296875,"category":"大学","big_category":"教育","description":"","image_url":"","tags":"Ver5.50(2024年11月)の追加建築","prefecture":"東京","contractor":"","structural_designer":"","landscape_designer":"","shinkenchiku_url":""},{"id":14081,"title":"東京大学 弓道場","architect":"内田祥三","year":1935.0,"address":"東京都文京区本郷7-3-1","latitude":35.711570739746094,"longitude":139.7616729736328,"category":"大学/体育館","big_category":"教育,レジャー施設","description":"","image_url":"","tags":"Ver5.50(2024年11月)の追加建築","prefecture":"東京","contractor":"","structural_designer":"","landscape_designer":"","shinkenchiku_url":""},{"id":14082,"title":"東京大学 農学部2号館","architect":"内田祥三","year":1936.0,"address":"東京都文京区弥生1-1","latitude":35.71662521362305,"longitude":139.7594451904297,"category":"大学","big_category":"教育","description":"","image_url":"","tags":"Ver5.50(2024年11月)の追加建築","prefecture":"東京","contractor":"","structural_designer":"","landscape_designer":"","shinkenchiku_url":""},{"id":14083,"title":"東京大学 農学部正門","architect":"内田祥三","year":1937.0,"address":"東京都文京区弥生1-1","latitude":35.716217041015625,"longitude":139.7587890625,"category":"大学","big_category":"教育","description":"","image_url":"","tags":"Ver5.50(2024年11月)の追加建築","prefecture":"東京","contractor":"","structural_designer":"","landscape_designer":"","shinkenchiku_url":""},{"id":14084,"title":"東京大学 医科学研究所1号館","architect":"内田祥三","year":1937.0,"address":"東京都港区白金台4-6-1","latitude":35.639827728271484,"longitude":139.72486877441406,"category":"大学","big_category":"教育","description":"","image_url":"","tags":"Ver5.50(2024年11月)の追加建築","prefecture":"東京","contractor":"","structural_designer":"","landscape_designer":"","shinkenchiku_url":""},{"id":14085,"title":"東京大学 900番講堂","architect":"内田祥三","year":1938.0,"address":"東京都目黒区駒場3-8-1","latitude":35.6598014831543,"longitude":139.68385314941406,"category":"大学/ホール・劇場","big_category":"教育,文化施設","description":"","image_url":"","tags":"Ver5.50(2024年11月)の追加建築","prefecture":"東京","contractor":"","structural_designer":"","landscape_designer":"","shinkenchiku_url":""},{"id":14086,"title":"東京大学 法文2号館","architect":"内田祥三","year":1938.0,"address":"東京都文京区本郷7-3-1","latitude":35.712894439697266,"longitude":139.76109313964844,"category":"大学","big_category":"教育","description":"","image_url":"","tags":"Ver5.50(2024年11月)の追加建築","prefecture":"東京","contractor":"","structural_designer":"","landscape_designer":"","shinkenchiku_url":""},{"id":14087,"title":"東京大学 七徳堂","architect":"内田祥三","year":1938.0,"address":"東京都文京区本郷7-3-1","latitude":35.71121597290039,"longitude":139.76315307617188,"category":"大学/体育館","big_category":"教育,レジャー施設","description":"","image_url":"","tags":"Ver5.50(2024年11月)の追加建築","prefecture":"東京","contractor":"","structural_designer":"","landscape_designer":"","shinkenchiku_url":""},{"id":14088,"title":"東京大学 医学部2号館","architect":"内田祥三","year":1938.0,"address":"東京都文京区本郷7-3-1","latitude":35.71087646484375,"longitude":139.76222229003906,"category":"大学","big_category":"教育","description":"","image_url":"","tags":"Ver5.50(2024年11月)の追加建築","prefecture":"東京","contractor":"","structural_designer":"","landscape_designer":"","shinkenchiku_url":""},{"id":14089,"title":"東京大学 工学部6号館","architect":"内田祥三","year":1940.0,"address":"東京都文京区本郷7-3-1","latitude":35.714073181152344,"longitude":139.76097106933594,"category":"大学","big_category":"教育","description":"","image_url":"","tags":"Ver5.50(2024年11月)の追加建築","prefecture":"東京","contractor":"","structural_designer":"","landscape_designer":"","shinkenchiku_url":""},{"id":14090,"title":"東京大学 農学部3号館","architect":"内田祥三","year":1941.0,"address":"東京都文京区弥生1-1","latitude":35.71647644042969,"longitude":139.76043701171875,"category":"大学","big_category":"教育","description":"","image_url":"","tags":"Ver5.50(2024年11月)の追加建築","prefecture":"東京","contractor":"","structural_designer":"","landscape_designer":"","shinkenchiku_url":""},{"id":14091,"title":"拓殖大学 国際教育会館","architect":"内田祥三","year":1933.0,"address":"東京都文京区大塚1-7-1","latitude":35.716453552246094,"longitude":139.7337188720703,"category":"大学","big_category":"教育","description":"","image_url":"","tags":"Ver5.50(2024年11月)の追加建築","prefecture":"東京","contractor":"","structural_designer":"","landscape_designer":"","shinkenchiku_url":""},{"id":14092,"title":"東京農工大学 農学部本館","architect":"内田祥三","year":1934.0,"address":"東京都府中市幸町3-5-8","latitude":35.684207916259766,"longitude":139.48130798339844,"category":"大学","big_category":"教育","description":"","image_url":"","tags":"Ver5.50(2024年11月)の追加建築","prefecture":"東京","contractor":"","structural_designer":"","landscape_designer":"","shinkenchiku_url":""},{"id":14093,"title":"東京大学 理学部2号館","architect":"内田祥三","year":1934.0,"address":"東京都文京区本郷7-3-1","latitude":35.709598541259766,"longitude":139.76116943359375,"category":"大学","big_category":"教育","description":"","image_url":"","tags":"Ver5.50(2024年11月)の追加建築","prefecture":"東京","contractor":"","structural_designer":"","landscape_designer":"","shinkenchiku_url":""},{"id":14094,"title":"損保ジャパン 本社ビル","architect":"内田祥三+大成建設 他","year":1976.0,"address":"東京都新宿区西新宿1-26-1","latitude":35.69270324707031,"longitude":139.69610595703125,"category":"オフィスビル","big_category":"企業施設","description":"設計クレジット：星野昌一、松下清夫、高山英華、柘植芳男、勝田高司、斉藤平蔵","image_url":"","tags":"Ver5.50(2024年11月)の追加建築","prefecture":"東京","contractor":"大成建設+清水建設+鴻池組","structural_designer":"","landscape_designer":"","shinkenchiku_url":""},{"id":14095,"title":"STR HOTEL HIGASHIAZABU Ⅰ","architect":"常川貴扶","year":2021.0,"address":"東京都港区東麻布2-9-8","latitude":35.65835189819336,"longitude":139.7397918701172,"category":"ホテル","big_category":"宿泊","description":"","image_url":"","tags":"Ver5.50(2024年11月)の追加建築","prefecture":"東京","contractor":"","structural_designer":"","landscape_designer":"","shinkenchiku_url":""},{"id":14096,"title":"相模原アートハウジング","architect":"常川貴扶","year":2019.0,"address":"神奈川県相模原市中央区星が丘2-15-3","latitude":35.562767028808594,"longitude":139.3736114501953,"category":"低層オフィス","big_category":"企業施設","description":"","image_url":"","tags":"Ver5.50(2024年11月)の追加建築","prefecture":"神奈川","contractor":"","structural_designer":"","landscape_designer":"","shinkenchiku_url":""},{"id":14097,"title":"稲毛駅前ビル","architect":"常川貴扶","year":2015.0,"address":"千葉県千葉市稲毛区小仲台6-1-1","latitude":35.638404846191406,"longitude":140.09323120117188,"category":"テナントビル","big_category":"商業施設","description":"","image_url":"","tags":"Ver5.50(2024年11月)の追加建築","prefecture":"千葉","contractor":"","structural_designer":"","landscape_designer":"","shinkenchiku_url":""},{"id":14098,"title":"仏壇屋 滝田商店","architect":"常川貴扶","year":2015.0,"address":"東京都台東区寿2-8-11","latitude":35.709842681884766,"longitude":139.78939819335938,"category":"オフィスビル/店舗","big_category":"企業施設,商業施設","description":"","image_url":"","tags":"Ver5.50(2024年11月)の追加建築","prefecture":"東京","contractor":"","structural_designer":"","landscape_designer":"","shinkenchiku_url":""},{"id":14099,"title":"グリーンテラス表参道","architect":"土屋毅​","year":2024.0,"address":"東京都港区北青山3-8-15","latitude":35.665287017822266,"longitude":139.70994567871094,"category":"モール","big_category":"商業施設","description":"","image_url":"","tags":"Ver5.50(2024年11月)の追加建築","prefecture":"東京","contractor":"","structural_designer":"","landscape_designer":"","shinkenchiku_url":""},{"id":14100,"title":"渋谷エメラルドビル","architect":"土屋毅​","year":2023.0,"address":"東京都渋谷区宇田川町12-7","latitude":35.66156005859375,"longitude":139.6980438232422,"category":"テナントビル","big_category":"商業施設","description":"","image_url":"","tags":"Ver5.50(2024年11月)の追加建築","prefecture":"東京","contractor":"","structural_designer":"","landscape_designer":"","shinkenchiku_url":""}]}