{"page":56,"total_pages":290,"items_per_page":50,"total_items":14467,"items":[{"id":2751,"title":"ミューズ本社 旧シュウウエムラ室戸工場ミューゼアム","architect":"シィエル・ルージュ・クレアシオン","year":1999.0,"address":"高知県室戸市室戸岬町字1828-3","latitude":33.29813766479492,"longitude":134.18589782714844,"category":"企業施設","big_category":"企業施設","description":"","image_url":"","tags":"","prefecture":"高知","contractor":"","structural_designer":"","landscape_designer":"","shinkenchiku_url":""},{"id":2752,"title":"ウトコリミテッド室戸工場","architect":"團紀彦","year":2003.0,"address":"高知県室戸市室戸岬町3496-1","latitude":33.27046585083008,"longitude":134.18397521972656,"category":"工場","big_category":"企業施設","description":"","image_url":"","tags":"","prefecture":"高知","contractor":"","structural_designer":"","landscape_designer":"","shinkenchiku_url":""},{"id":2753,"title":"星野リゾート Utoco 旧ウトコディープシーテラピーセンター","architect":"シィエル・ルージュ・クレアシオン","year":2006.0,"address":"高知県室戸市室戸岬町6969-1","latitude":33.257408142089844,"longitude":134.1822509765625,"category":"ホテル","big_category":"宿泊","description":"","image_url":"","tags":"","prefecture":"高知","contractor":"","structural_designer":"","landscape_designer":"","shinkenchiku_url":""},{"id":2754,"title":"シレストむろと 旧バーデハウス室戸","architect":"シィエル・ルージュ・クレアシオン","year":2006.0,"address":"高知県室戸市室戸岬町3795-1","latitude":33.25869369506836,"longitude":134.18238830566406,"category":"プール/レストラン","big_category":"レジャー施設,商業施設","description":"","image_url":"","tags":"","prefecture":"高知","contractor":"","structural_designer":"","landscape_designer":"","shinkenchiku_url":""},{"id":2755,"title":"竜串貝類展示館 海のギャラリー","architect":"林雅子","year":1965.0,"address":"高知県土佐清水市竜串23-8","latitude":32.78856658935547,"longitude":132.8656768798828,"category":"博物館","big_category":"ミュージアム","description":"","image_url":"","tags":"DOCOMOMO","prefecture":"高知","contractor":"","structural_designer":"","landscape_designer":"","shinkenchiku_url":""},{"id":2756,"title":"アシズリテルメ 旧足摺テルメ","architect":"團紀彦","year":1998.0,"address":"高知県土佐清水市足摺岬字東畑1433-3","latitude":32.72721481323242,"longitude":133.00653076171875,"category":"ホテル","big_category":"宿泊","description":"2024年3月末で閉館も営業継続の道を探る","image_url":"","tags":"","prefecture":"高知","contractor":"","structural_designer":"","landscape_designer":"","shinkenchiku_url":""},{"id":2757,"title":"足摺海底館","architect":"不明","year":1972.0,"address":"高知県土佐清水市爪白 足摺海底館海中展望塔","latitude":32.785972595214844,"longitude":132.86013793945312,"category":"博物館","big_category":"ミュージアム","description":"","image_url":"","tags":"","prefecture":"高知","contractor":"","structural_designer":"","landscape_designer":"","shinkenchiku_url":""},{"id":2758,"title":"梼原町雲の上のプール","architect":"細木茂","year":1998.0,"address":"高知県高岡郡梼原町太郎川 雲の上のプール","latitude":33.3878173828125,"longitude":132.94296264648438,"category":"プール","big_category":"レジャー施設","description":"","image_url":"","tags":"","prefecture":"高知","contractor":"","structural_designer":"","landscape_designer":"","shinkenchiku_url":""},{"id":2759,"title":"梼原町役場","architect":"隈研吾","year":2006.0,"address":"高知県高岡郡梼原町梼原1444-1","latitude":33.392208099365234,"longitude":132.92694091796875,"category":"庁舎","big_category":"公共施設","description":"","image_url":"","tags":"2014年公共建築賞","prefecture":"高知","contractor":"","structural_designer":"","landscape_designer":"","shinkenchiku_url":""},{"id":2760,"title":"梼原・木橋ミュージアム 雲の上のギャラリー","architect":"隈研吾","year":2010.0,"address":"高知県高岡郡梼原町太郎川3799-3","latitude":33.38736343383789,"longitude":132.94378662109375,"category":"ギャラリー","big_category":"ミュージアム","description":"","image_url":"","tags":"","prefecture":"高知","contractor":"","structural_designer":"","landscape_designer":"","shinkenchiku_url":""},{"id":2761,"title":"まちの駅「ゆすはら」　マルシェ・ユスハラ","architect":"隈研吾","year":2010.0,"address":"高知県高岡郡梼原町梼原1196-1","latitude":33.393760681152344,"longitude":132.92669677734375,"category":"ホテル/PA・道の駅","big_category":"宿泊,インフラ","description":"","image_url":"","tags":"","prefecture":"高知","contractor":"","structural_designer":"","landscape_designer":"","shinkenchiku_url":""},{"id":2762,"title":"雲の上のホテル","architect":"隈研吾","year":1994.0,"address":"高知県高岡郡梼原町太郎川3799-3","latitude":33.3880729675293,"longitude":132.9443817138672,"category":"ホテル","big_category":"宿泊","description":"","image_url":"","tags":"新建築1994年7月号","prefecture":"高知","contractor":"","structural_designer":"","landscape_designer":"","shinkenchiku_url":""},{"id":2763,"title":"馬路村庁舎","architect":"細木茂","year":2010.0,"address":"高知県安芸郡馬路村大字馬路443","latitude":33.55546188354492,"longitude":134.04849243164062,"category":"庁舎","big_category":"公共施設","description":"","image_url":"","tags":"","prefecture":"高知","contractor":"","structural_designer":"","landscape_designer":"","shinkenchiku_url":""},{"id":2764,"title":"大原富枝文学館 旧本山簡易裁判所","architect":"不明","year":1952.0,"address":"高知県長岡郡本山町本山568-2","latitude":33.758487701416016,"longitude":133.58937072753906,"category":"洋館","big_category":"近代建築/遺産","description":"","image_url":"","tags":"","prefecture":"高知","contractor":"","structural_designer":"","landscape_designer":"","shinkenchiku_url":""},{"id":2765,"title":"みやま市立図書館・みやま市歴史資料館","architect":"香山壽夫","year":1998.0,"address":"福岡県みやま市瀬高町下庄800-1","latitude":33.15376281738281,"longitude":130.47610473632812,"category":"博物館","big_category":"ミュージアム","description":"","image_url":"","tags":"","prefecture":"福岡","contractor":"","structural_designer":"","landscape_designer":"","shinkenchiku_url":""},{"id":2766,"title":"久留米市民会館","architect":"菊竹清訓","year":1969.0,"address":"福岡県久留米市城南町16-1","latitude":33.31984329223633,"longitude":130.50869750976562,"category":"ホール・劇場","big_category":"文化施設","description":"解体済","image_url":"","tags":"","prefecture":"福岡","contractor":"","structural_designer":"","landscape_designer":"","shinkenchiku_url":""},{"id":2767,"title":"徳雲寺 納骨堂","architect":"菊竹清訓","year":1965.0,"address":"福岡県久留米市寺町66","latitude":33.319480895996094,"longitude":130.52166748046875,"category":"寺院","big_category":"宗教","description":"本堂は1977年","image_url":"","tags":"","prefecture":"福岡","contractor":"","structural_designer":"","landscape_designer":"","shinkenchiku_url":""},{"id":2768,"title":"久留米市立草野歴史資料館 旧草野銀行本店","architect":"不明","year":1911.0,"address":"福岡県久留米市草野町草野411-1","latitude":33.31929397583008,"longitude":130.6354522705078,"category":"洋館/金融機関","big_category":"近代建築/遺産,企業施設","description":"","image_url":"","tags":"","prefecture":"福岡","contractor":"","structural_designer":"","landscape_designer":"","shinkenchiku_url":""},{"id":2769,"title":"久留米市庁舎","architect":"菊竹清訓","year":1994.0,"address":"福岡県久留米市城南町15-3","latitude":33.31928634643555,"longitude":130.5083770751953,"category":"庁舎","big_category":"公共施設","description":"","image_url":"","tags":"","prefecture":"福岡","contractor":"","structural_designer":"","landscape_designer":"","shinkenchiku_url":""},{"id":2770,"title":"山辺道文化館","architect":"不明","year":null,"address":"福岡県久留米市草野町草野487-1","latitude":33.318172454833984,"longitude":130.63331604003906,"category":"洋館","big_category":"近代建築/遺産","description":"","image_url":"","tags":"","prefecture":"福岡","contractor":"","structural_designer":"","landscape_designer":"","shinkenchiku_url":""},{"id":2771,"title":"サンダイヤル","architect":"葉祥栄","year":1996.0,"address":"福岡県久留米市西町636","latitude":33.3037109375,"longitude":130.51698303222656,"category":"養護施設","big_category":"医療施設","description":"","image_url":"","tags":"","prefecture":"福岡","contractor":"","structural_designer":"","landscape_designer":"","shinkenchiku_url":""},{"id":2772,"title":"城島町総合文化センター インガットホール","architect":"仙田満","year":1998.0,"address":"福岡県久留米市城島町楢津1-1","latitude":33.25297927856445,"longitude":130.42764282226562,"category":"総合文化施設","big_category":"文化施設","description":"","image_url":"","tags":"","prefecture":"福岡","contractor":"","structural_designer":"","landscape_designer":"","shinkenchiku_url":""},{"id":2773,"title":"九州歴史資料館","architect":"久米設計","year":2009.0,"address":"福岡県小郡市三沢5208-3","latitude":33.439056396484375,"longitude":130.55799865722656,"category":"博物館","big_category":"ミュージアム","description":"","image_url":"","tags":"","prefecture":"福岡","contractor":"","structural_designer":"","landscape_designer":"","shinkenchiku_url":""},{"id":2774,"title":"旧志免鉱業所竪坑櫓","architect":"不明","year":null,"address":"福岡県糟屋郡志免町大字志免495-3","latitude":33.59035873413086,"longitude":130.48626708984375,"category":"産業遺産","big_category":"近代建築/遺産","description":"","image_url":"","tags":"","prefecture":"福岡","contractor":"","structural_designer":"","landscape_designer":"","shinkenchiku_url":""},{"id":2775,"title":"ギャラリーMA","architect":"有馬裕之","year":1998.0,"address":"福岡県糸島市志摩岐志1513","latitude":33.57284927368164,"longitude":130.116943359375,"category":"ギャラリー","big_category":"ミュージアム","description":"開館状況が不明","image_url":"","tags":"","prefecture":"福岡","contractor":"","structural_designer":"","landscape_designer":"","shinkenchiku_url":""},{"id":2776,"title":"美咲が丘駅","architect":"青木茂","year":1995.0,"address":"福岡県糸島市荻浦482-10","latitude":33.5499153137207,"longitude":130.18540954589844,"category":"駅","big_category":"インフラ","description":"","image_url":"","tags":"","prefecture":"福岡","contractor":"","structural_designer":"","landscape_designer":"","shinkenchiku_url":""},{"id":2777,"title":"春日市奴国の丘歴史資料館","architect":"東畑建築事務所","year":1998.0,"address":"福岡県春日市岡本3-57","latitude":33.53805160522461,"longitude":130.4516143798828,"category":"博物館","big_category":"ミュージアム","description":"","image_url":"","tags":"","prefecture":"福岡","contractor":"","structural_designer":"","landscape_designer":"","shinkenchiku_url":""},{"id":2778,"title":"太宰府天満宮竈門神社","architect":"種村強+片山正通+ジャスパー・モリソン","year":2012.0,"address":"福岡県太宰府市内山883","latitude":33.52891540527344,"longitude":130.55239868164062,"category":"寺院","big_category":"宗教","description":"","image_url":"","tags":"","prefecture":"福岡","contractor":"","structural_designer":"","landscape_designer":"","shinkenchiku_url":""},{"id":2779,"title":"光明禅寺 庭園","architect":"重森三玲","year":1957.0,"address":"福岡県太宰府市宰府2-16-1","latitude":33.51838302612305,"longitude":130.5341796875,"category":"庭園","big_category":"文化施設","description":"","image_url":"","tags":"","prefecture":"福岡","contractor":"","structural_designer":"","landscape_designer":"","shinkenchiku_url":""},{"id":2780,"title":"スターバックス太宰府天満宮表参道店","architect":"隈研吾","year":2011.0,"address":"福岡県太宰府市宰府3-2-43","latitude":33.51987838745117,"longitude":130.53317260742188,"category":"カフェ","big_category":"商業施設","description":"","image_url":"","tags":"","prefecture":"福岡","contractor":"","structural_designer":"","landscape_designer":"","shinkenchiku_url":""},{"id":2781,"title":"九州国立博物館","architect":"菊竹清訓","year":2005.0,"address":"福岡県太宰府市石坂4-7-2","latitude":33.518245697021484,"longitude":130.53831481933594,"category":"博物館","big_category":"ミュージアム","description":"","image_url":"","tags":"","prefecture":"福岡","contractor":"","structural_designer":"","landscape_designer":"","shinkenchiku_url":""},{"id":2782,"title":"不知火病院 海の病棟","architect":"長谷川逸子","year":1989.0,"address":"福岡県大牟田市手鎌1800","latitude":33.05003356933594,"longitude":130.44261169433594,"category":"養護施設","big_category":"医療施設","description":"","image_url":"","tags":"","prefecture":"福岡","contractor":"","structural_designer":"","landscape_designer":"","shinkenchiku_url":""},{"id":2783,"title":"九州芸文館 アネックス2","architect":"SUEP.","year":2013.0,"address":"福岡県筑後市大字津島1131","latitude":33.177833557128906,"longitude":130.4935760498047,"category":"総合文化施設","big_category":"文化施設","description":"","image_url":"","tags":"","prefecture":"福岡","contractor":"","structural_designer":"","landscape_designer":"","shinkenchiku_url":""},{"id":2784,"title":"九州芸文館 本館 ／ アネックス1","architect":"隈研吾","year":2013.0,"address":"福岡県筑後市大字津島1131","latitude":33.17852020263672,"longitude":130.49365234375,"category":"総合文化施設","big_category":"文化施設","description":"","image_url":"","tags":"","prefecture":"福岡","contractor":"","structural_designer":"","landscape_designer":"","shinkenchiku_url":""},{"id":2785,"title":"直方市石炭記念館","architect":"不明","year":1910.0,"address":"福岡県直方市大字直方692-4","latitude":33.74304962158203,"longitude":130.7258758544922,"category":"洋館","big_category":"近代建築/遺産","description":"","image_url":"","tags":"","prefecture":"福岡","contractor":"","structural_designer":"","landscape_designer":"","shinkenchiku_url":""},{"id":2786,"title":"八女市多世代交流館 「共生の杜」","architect":"青木茂","year":2001.0,"address":"福岡県八女市高塚191","latitude":33.20308303833008,"longitude":130.55413818359375,"category":"福祉センター/公民館・交流施設","big_category":"医療施設,公共施設","description":"","image_url":"","tags":"","prefecture":"福岡","contractor":"","structural_designer":"","landscape_designer":"","shinkenchiku_url":""},{"id":2787,"title":"八女市立福島中学校屋内運動場","architect":"青木茂","year":2004.0,"address":"福岡県八女市大字本村430","latitude":33.21644592285156,"longitude":130.55892944335938,"category":"体育館","big_category":"レジャー施設","description":"","image_url":"","tags":"","prefecture":"福岡","contractor":"","structural_designer":"","landscape_designer":"","shinkenchiku_url":""},{"id":2788,"title":"筑穂町高齢者生活福祉センター 内野児童館","architect":"葉祥栄","year":1995.0,"address":"福岡県飯塚市内野3540-1","latitude":33.54030990600586,"longitude":130.63917541503906,"category":"福祉センター/児童施設","big_category":"医療施設,教育","description":"","image_url":"","tags":"","prefecture":"福岡","contractor":"","structural_designer":"","landscape_designer":"","shinkenchiku_url":""},{"id":2789,"title":"木下クリニック","architect":"葉祥栄","year":1979.0,"address":"福岡県福岡市西区大字小田51-1","latitude":33.63123321533203,"longitude":130.2242889404297,"category":"個人医院","big_category":"医療施設","description":"","image_url":"","tags":"","prefecture":"福岡","contractor":"","structural_designer":"","landscape_designer":"","shinkenchiku_url":""},{"id":2790,"title":"福岡市立博多小学校・奈良屋公民館","architect":"シーラカンスK&H","year":2001.0,"address":"福岡県福岡市博多区奈良屋町1-38","latitude":33.599388122558594,"longitude":130.40646362304688,"category":"学校/公民館・交流施設","big_category":"教育,公共施設","description":"","image_url":"","tags":"","prefecture":"福岡","contractor":"","structural_designer":"","landscape_designer":"","shinkenchiku_url":""},{"id":2791,"title":"ハイアット・リージェンシー福岡・スフィンクスセンター","architect":"マイケル・グレイヴス","year":1993.0,"address":"福岡県福岡市博多区博多駅東2-14-1","latitude":33.58913803100586,"longitude":130.4269256591797,"category":"ホテル","big_category":"宿泊","description":"","image_url":"","tags":"","prefecture":"福岡","contractor":"","structural_designer":"","landscape_designer":"","shinkenchiku_url":""},{"id":2792,"title":"西日本シティ銀行本店 旧福岡相互銀行本店","architect":"磯崎新","year":1971.0,"address":"福岡県福岡市博多区博多駅前3-1-1","latitude":33.58913040161133,"longitude":130.41815185546875,"category":"金融機関","big_category":"企業施設","description":"2020年解体","image_url":"","tags":"","prefecture":"福岡","contractor":"","structural_designer":"","landscape_designer":"","shinkenchiku_url":""},{"id":2793,"title":"シーサイドももち マイケルグレイヴス棟 旧ネクサス百道 マイケルグレイヴス棟","architect":"マイケル・グレイヴス","year":1989.0,"address":"福岡県福岡市早良区百道浜4-1-1","latitude":33.58804702758789,"longitude":130.3477325439453,"category":"集合住宅","big_category":"住宅","description":"","image_url":"","tags":"","prefecture":"福岡","contractor":"","structural_designer":"","landscape_designer":"","shinkenchiku_url":""},{"id":2794,"title":"西南学院大学 ドージャー記念館","architect":"ウィリアム・メレル・ヴォーリズ+宇賀亮介","year":2005.0,"address":"福岡県福岡市早良区西新6-2-92","latitude":33.58487319946289,"longitude":130.35580444335938,"category":"博物館","big_category":"ミュージアム","description":"大正10年にヴォーリズ設計で竣工、2005年に改修","image_url":"","tags":"","prefecture":"福岡","contractor":"","structural_designer":"","landscape_designer":"","shinkenchiku_url":""},{"id":2795,"title":"福岡市美術館","architect":"前川國男","year":1979.0,"address":"福岡県福岡市中央区大濠公園1-6","latitude":33.58404541015625,"longitude":130.37974548339844,"category":"美術館","big_category":"ミュージアム","description":"2019年3月リニューアルオープン","image_url":"","tags":"","prefecture":"福岡","contractor":"","structural_designer":"","landscape_designer":"","shinkenchiku_url":""},{"id":2796,"title":"福岡市公民館 博多区東月隈公民館","architect":"NKS2アーキテクツ","year":2005.0,"address":"福岡県福岡市博多区東月隈4-3-1","latitude":33.57881164550781,"longitude":130.4733123779297,"category":"公民館・交流施設","big_category":"公共施設","description":"","image_url":"","tags":"","prefecture":"福岡","contractor":"","structural_designer":"","landscape_designer":"","shinkenchiku_url":""},{"id":2797,"title":"西陵公民館 老人いこいの家","architect":"青木茂","year":2003.0,"address":"福岡県福岡市西区上山門3-5-1","latitude":33.5749626159668,"longitude":130.3009796142578,"category":"公民館・交流施設","big_category":"公共施設","description":"","image_url":"","tags":"","prefecture":"福岡","contractor":"","structural_designer":"","landscape_designer":"","shinkenchiku_url":""},{"id":2798,"title":"MAN-JU 万十屋","architect":"隈研吾","year":1994.0,"address":"福岡県福岡市早良区田村1-12-10","latitude":33.54289627075195,"longitude":130.3246612548828,"category":"レストラン","big_category":"商業施設","description":"","image_url":"","tags":"","prefecture":"福岡","contractor":"","structural_designer":"","landscape_designer":"","shinkenchiku_url":""},{"id":2799,"title":"呉服町ビジネスセンタービル","architect":"マイケル・グレイヴス","year":2003.0,"address":"福岡県福岡市博多区上呉服町10-10","latitude":33.59796905517578,"longitude":130.41026306152344,"category":"オフィスビル","big_category":"企業施設","description":"","image_url":"","tags":"","prefecture":"福岡","contractor":"","structural_designer":"","landscape_designer":"","shinkenchiku_url":""},{"id":2800,"title":"福岡県立美術館","architect":"佐藤武夫","year":1964.0,"address":"福岡県福岡市中央区天神5-2-1","latitude":33.59731674194336,"longitude":130.3986053466797,"category":"美術館","big_category":"ミュージアム","description":"","image_url":"","tags":"","prefecture":"福岡","contractor":"","structural_designer":"","landscape_designer":"","shinkenchiku_url":""}]}