{"page":40,"total_pages":290,"items_per_page":50,"total_items":14467,"items":[{"id":1951,"title":"豊積の里総合センター さざなみホール・中主ふれあいセンター","architect":"黒川紀章","year":1992.0,"address":"滋賀県野洲市多比留田3313-3","latitude":35.10917663574219,"longitude":136.01754760742188,"category":"ホール・劇場/福祉センター","big_category":"文化施設,医療施設","description":"","image_url":"","tags":"","prefecture":"滋賀","contractor":"","structural_designer":"","landscape_designer":"","shinkenchiku_url":""},{"id":1952,"title":"滋賀県希望が丘文化公園 青年の城","architect":"中嶋龍彦","year":1972.0,"address":"滋賀県蒲生郡竜王町薬師1178","latitude":35.04645538330078,"longitude":136.08270263671875,"category":"公園","big_category":"レジャー施設","description":"大阪万博に出てくるような、円柱のカプセルタワーは撤去済み。それでも内部は面白いです。","image_url":"","tags":"","prefecture":"滋賀","contractor":"","structural_designer":"","landscape_designer":"","shinkenchiku_url":""},{"id":1953,"title":"伊根町庁舎・コミュニティセンター","architect":"浦辺設計","year":2004.0,"address":"京都府与謝郡伊根町字日出651","latitude":35.6751594543457,"longitude":135.27264404296875,"category":"庁舎","big_category":"公共施設","description":"","image_url":"","tags":"","prefecture":"京都","contractor":"","structural_designer":"","landscape_designer":"","shinkenchiku_url":""},{"id":1954,"title":"京阪宇治駅","architect":"若林広幸","year":1995.0,"address":"京都府宇治市宇治乙方18-5","latitude":34.89453125,"longitude":135.80636596679688,"category":"駅","big_category":"インフラ","description":"","image_url":"","tags":"","prefecture":"京都","contractor":"","structural_designer":"","landscape_designer":"","shinkenchiku_url":""},{"id":1955,"title":"平等院ミュージアム 鳳翔館","architect":"栗生明","year":2001.0,"address":"京都府宇治市宇治蓮華116","latitude":34.88929748535156,"longitude":135.8076934814453,"category":"美術館","big_category":"ミュージアム","description":"","image_url":"","tags":"2002年日本建築学会 作品選奨","prefecture":"京都","contractor":"","structural_designer":"","landscape_designer":"","shinkenchiku_url":""},{"id":1956,"title":"みずのき美術館","architect":"乾久美子","year":2012.0,"address":"京都府亀岡市北町18","latitude":35.014801025390625,"longitude":135.57754516601562,"category":"美術館","big_category":"ミュージアム","description":"","image_url":"","tags":"","prefecture":"京都","contractor":"","structural_designer":"","landscape_designer":"","shinkenchiku_url":""},{"id":1957,"title":"ガレリアかめおか","architect":"池原義郎","year":1998.0,"address":"京都府亀岡市余部町宝久保1-1","latitude":35.01454544067383,"longitude":135.56668090820312,"category":"総合文化施設","big_category":"文化施設","description":"","image_url":"","tags":"","prefecture":"京都","contractor":"","structural_designer":"","landscape_designer":"","shinkenchiku_url":""},{"id":1958,"title":"丹後震災記念館","architect":"一井九平","year":1929.0,"address":"京都府京丹後市峰山町室1198","latitude":35.625858306884766,"longitude":135.05612182617188,"category":"博物館","big_category":"ミュージアム","description":"","image_url":"","tags":"","prefecture":"京都","contractor":"","structural_designer":"","landscape_designer":"","shinkenchiku_url":""},{"id":1959,"title":"小町公園　小町の舎","architect":"田中俊彰","year":1995.0,"address":"京都府京丹後市大宮町五十河302","latitude":35.6075439453125,"longitude":135.14678955078125,"category":"公園","big_category":"レジャー施設","description":"","image_url":"","tags":"","prefecture":"京都","contractor":"","structural_designer":"","landscape_designer":"","shinkenchiku_url":""},{"id":1960,"title":"桂離宮","architect":"不明","year":1663.0,"address":"京都府京都市西京区桂御園","latitude":34.98465347290039,"longitude":135.708984375,"category":"寺院","big_category":"宗教","description":"参観希望日の4日前午前中までに要予約","image_url":"","tags":"","prefecture":"京都","contractor":"","structural_designer":"","landscape_designer":"","shinkenchiku_url":""},{"id":1961,"title":"Glass Temple 霊源皇寺 透静庵","architect":"山口隆","year":1998.0,"address":"京都府京都市北区西賀茂北今原町41","latitude":35.06557083129883,"longitude":135.73941040039062,"category":"寺院","big_category":"宗教","description":"","image_url":"","tags":"新建築1998年6月号","prefecture":"京都","contractor":"","structural_designer":"","landscape_designer":"","shinkenchiku_url":""},{"id":1962,"title":"駒井家住宅","architect":"ウィリアム・メレル・ヴォーリズ","year":1927.0,"address":"京都府京都市左京区北白川伊織町64","latitude":35.03557586669922,"longitude":135.78884887695312,"category":"洋館","big_category":"近代建築/遺産","description":"毎週金・土曜日のみ","image_url":"","tags":"","prefecture":"京都","contractor":"","structural_designer":"","landscape_designer":"","shinkenchiku_url":""},{"id":1963,"title":"京都迎賓館","architect":"日建設計","year":2005.0,"address":"京都府京都市上京区京都御苑23","latitude":35.024993896484375,"longitude":135.7659149169922,"category":"公共施設","big_category":"公共施設","description":"利用されている日や定休日などを除いて事前予約、または現地当日予約にて見学可能になった。日本建築大賞受賞者名：中村光男、佐藤義信","image_url":"","tags":"2010年公共建築賞・特別賞,2006年度日本建築大賞","prefecture":"京都","contractor":"","structural_designer":"","landscape_designer":"","shinkenchiku_url":""},{"id":1964,"title":"細見美術館","architect":"大江匡","year":1997.0,"address":"京都府京都市左京区岡崎最勝寺町6-3","latitude":35.01392364501953,"longitude":135.77964782714844,"category":"美術館","big_category":"ミュージアム","description":"","image_url":"","tags":"","prefecture":"京都","contractor":"","structural_designer":"","landscape_designer":"","shinkenchiku_url":""},{"id":1965,"title":"東華菜館 旧矢尾政レストラン","architect":"ウィリアム・メレル・ヴォーリズ","year":1926.0,"address":"京都府京都市下京区斎藤町140-2","latitude":35.003578186035156,"longitude":135.77102661132812,"category":"レストラン","big_category":"商業施設","description":"","image_url":"","tags":"","prefecture":"京都","contractor":"","structural_designer":"","landscape_designer":"","shinkenchiku_url":""},{"id":1966,"title":"栗原邸 旧鶴巻邸","architect":"本野精吾","year":1929.0,"address":"京都府京都市山科区御陵大岩17-2","latitude":34.999900817871094,"longitude":135.80291748046875,"category":"住宅","big_category":"住宅","description":"2013年に一度公開。2017年5月現在売り出し中。","image_url":"","tags":"DOCOMOMO","prefecture":"京都","contractor":"","structural_designer":"","landscape_designer":"","shinkenchiku_url":""},{"id":1967,"title":"京都精華大学 本館","architect":"鈴木隆之","year":2009.0,"address":"京都府京都市左京区岩倉木野町137","latitude":35.073097229003906,"longitude":135.77113342285156,"category":"大学","big_category":"教育","description":"","image_url":"","tags":"","prefecture":"京都","contractor":"","structural_designer":"","landscape_designer":"","shinkenchiku_url":""},{"id":1968,"title":"蓮華寺","architect":"不明","year":1662.0,"address":"京都府京都市左京区上高野八幡町1","latitude":35.063899993896484,"longitude":135.7991943359375,"category":"寺院","big_category":"宗教","description":"","image_url":"","tags":"","prefecture":"京都","contractor":"","structural_designer":"","landscape_designer":"","shinkenchiku_url":""},{"id":1969,"title":"高山寺石水院","architect":"不明","year":null,"address":"京都府京都市右京区梅ヶ畑栂尾町8","latitude":35.060550689697266,"longitude":135.67845153808594,"category":"寺院","big_category":"宗教","description":"","image_url":"","tags":"","prefecture":"京都","contractor":"","structural_designer":"","landscape_designer":"","shinkenchiku_url":""},{"id":1970,"title":"北山モノリス","architect":"安井秀夫","year":2007.0,"address":"京都府京都市左京区山端川岸町14-1","latitude":35.0532341003418,"longitude":135.79054260253906,"category":"結婚式場","big_category":"宗教","description":"","image_url":"","tags":"","prefecture":"京都","contractor":"","structural_designer":"","landscape_designer":"","shinkenchiku_url":""},{"id":1971,"title":"京都工芸繊維大学 同窓会パビリオン","architect":"角田暁治","year":2010.0,"address":"京都府京都市左京区松ヶ崎橋上町1","latitude":35.05055618286133,"longitude":135.78207397460938,"category":"大学","big_category":"教育","description":"","image_url":"","tags":"","prefecture":"京都","contractor":"","structural_designer":"","landscape_designer":"","shinkenchiku_url":""},{"id":1972,"title":"京都工芸繊維大学 60周年記念館","architect":"木村博昭+石本建築事務所","year":2010.0,"address":"京都府京都市左京区松ヶ崎橋上町1","latitude":35.049476623535156,"longitude":135.78262329101562,"category":"大学","big_category":"教育","description":"","image_url":"","tags":"","prefecture":"京都","contractor":"","structural_designer":"","landscape_designer":"","shinkenchiku_url":""},{"id":1973,"title":"京都工芸繊維大学3号館 旧京都高等工芸学校本館","architect":"本野精吾","year":1930.0,"address":"京都府京都市左京区松ヶ崎橋上町1","latitude":35.04887390136719,"longitude":135.78187561035156,"category":"大学","big_category":"教育","description":"","image_url":"","tags":"","prefecture":"京都","contractor":"","structural_designer":"","landscape_designer":"","shinkenchiku_url":""},{"id":1974,"title":"詩仙堂","architect":"石川丈山","year":1641.0,"address":"京都府京都市左京区一乗寺門口町27","latitude":35.043724060058594,"longitude":135.79612731933594,"category":"寺院","big_category":"宗教","description":"","image_url":"","tags":"","prefecture":"京都","contractor":"","structural_designer":"","landscape_designer":"","shinkenchiku_url":""},{"id":1975,"title":"京都芸術大学 至誠館","architect":"隈研吾","year":2008.0,"address":"京都府京都市左京区北白川瓜生山2-116","latitude":35.03677749633789,"longitude":135.79263305664062,"category":"大学","big_category":"教育","description":"","image_url":"","tags":"","prefecture":"京都","contractor":"","structural_designer":"","landscape_designer":"","shinkenchiku_url":""},{"id":1976,"title":"北村美術館 四君子苑","architect":"吉田五十八","year":1963.0,"address":"京都府京都市上京区河原町今出川南一筋目東入梶井町448","latitude":35.02810287475586,"longitude":135.77041625976562,"category":"美術館","big_category":"ミュージアム","description":"","image_url":"","tags":"","prefecture":"京都","contractor":"","structural_designer":"","landscape_designer":"","shinkenchiku_url":""},{"id":1977,"title":"西都教会","architect":"魚谷繁礼","year":2011.0,"address":"京都府京都市北区平野八丁柳町71 ","latitude":35.03109359741211,"longitude":135.7311553955078,"category":"教会","big_category":"宗教","description":"","image_url":"","tags":"","prefecture":"京都","contractor":"","structural_designer":"","landscape_designer":"","shinkenchiku_url":""},{"id":1978,"title":"京都市考古資料館","architect":"本野精吾","year":1915.0,"address":"京都府京都市上京区元伊佐町265-1","latitude":35.02995300292969,"longitude":135.7496337890625,"category":"博物館","big_category":"ミュージアム","description":"","image_url":"","tags":"","prefecture":"京都","contractor":"","structural_designer":"","landscape_designer":"","shinkenchiku_url":""},{"id":1979,"title":"バザールカフェ 旧シャイブリー邸","architect":"ウィリアム・メレル・ヴォーリズ","year":1919.0,"address":"京都府京都市上京区岡松町258","latitude":35.02970504760742,"longitude":135.75840759277344,"category":"カフェ","big_category":"商業施設","description":"","image_url":"","tags":"","prefecture":"京都","contractor":"","structural_designer":"","landscape_designer":"","shinkenchiku_url":""},{"id":1980,"title":"ひなや本社社屋 織陣Ⅰ・Ⅱ・Ⅲ","architect":"高松伸","year":1981.0,"address":"京都府京都市上京区新町通上立売上ル安楽小路町418-1","latitude":35.029632568359375,"longitude":135.75672912597656,"category":"低層オフィス","big_category":"企業施設","description":"解体済み","image_url":"","tags":"","prefecture":"京都","contractor":"","structural_designer":"","landscape_designer":"","shinkenchiku_url":""},{"id":1981,"title":"金剛能楽堂","architect":"大江新","year":2003.0,"address":"京都府京都市上京区烏丸通一条下る龍前町590","latitude":35.02583312988281,"longitude":135.75897216796875,"category":"ホール・劇場","big_category":"文化施設","description":"","image_url":"","tags":"","prefecture":"京都","contractor":"","structural_designer":"","landscape_designer":"","shinkenchiku_url":""},{"id":1982,"title":"法然院山門","architect":"不明","year":null,"address":"京都府京都市左京区鹿ヶ谷御所ノ段町30","latitude":35.02398681640625,"longitude":135.7974090576172,"category":"寺院","big_category":"宗教","description":"","image_url":"","tags":"","prefecture":"京都","contractor":"","structural_designer":"","landscape_designer":"","shinkenchiku_url":""},{"id":1983,"title":"真如堂 随縁の庭","architect":"重森千靑","year":2010.0,"address":"京都府京都市左京区浄土寺真如町82","latitude":35.02219772338867,"longitude":135.78890991210938,"category":"庭園","big_category":"文化施設","description":"","image_url":"","tags":"","prefecture":"京都","contractor":"","structural_designer":"","landscape_designer":"","shinkenchiku_url":""},{"id":1984,"title":"象彦漆美術館","architect":"岸和郎","year":2011.0,"address":"京都府京都市左京区岡崎最勝寺町10","latitude":35.01478576660156,"longitude":135.77940368652344,"category":"美術館","big_category":"ミュージアム","description":"","image_url":"","tags":"","prefecture":"京都","contractor":"","structural_designer":"","landscape_designer":"","shinkenchiku_url":""},{"id":1985,"title":"小倉百人一首殿堂 時雨殿","architect":"竹中工務店","year":2006.0,"address":"京都府京都市右京区嵯峨天龍寺芒ノ馬場町11","latitude":35.013675689697266,"longitude":135.6737060546875,"category":"博物館","big_category":"ミュージアム","description":"","image_url":"","tags":"","prefecture":"京都","contractor":"","structural_designer":"","landscape_designer":"","shinkenchiku_url":""},{"id":1986,"title":"島津製作所創業記念資料館","architect":"宗本晋作","year":1888.0,"address":"京都府京都市中京区西生洲町478-1","latitude":35.012908935546875,"longitude":135.77024841308594,"category":"博物館","big_category":"ミュージアム","description":"","image_url":"","tags":"","prefecture":"京都","contractor":"","structural_designer":"","landscape_designer":"","shinkenchiku_url":""},{"id":1987,"title":"京都国際マンガミュージアム","architect":"類設計室","year":2006.0,"address":"京都府京都市中京区烏丸通御池上ル","latitude":35.011634826660156,"longitude":135.7592315673828,"category":"博物館","big_category":"ミュージアム","description":"","image_url":"","tags":"","prefecture":"京都","contractor":"","structural_designer":"","landscape_designer":"","shinkenchiku_url":""},{"id":1988,"title":"TIME'S I II","architect":"安藤忠雄","year":1984.0,"address":"京都府京都市中京区中島町92","latitude":35.00874710083008,"longitude":135.77023315429688,"category":"モール/テナントビル","big_category":"商業施設,商業施設","description":"第二期工事が1991年","image_url":"","tags":"","prefecture":"京都","contractor":"","structural_designer":"","landscape_designer":"","shinkenchiku_url":""},{"id":1989,"title":"何必館・京都現代美術館","architect":"梶川芳友","year":1981.0,"address":"京都府京都市東山区祇園町北側271","latitude":35.004093170166016,"longitude":135.7754364013672,"category":"美術館","big_category":"ミュージアム","description":"","image_url":"","tags":"","prefecture":"京都","contractor":"","structural_designer":"","landscape_designer":"","shinkenchiku_url":""},{"id":1990,"title":"COCON KARASUMA 古今烏丸","architect":"隈研吾","year":2004.0,"address":"京都府京都市下京区水銀屋町620","latitude":35.003116607666016,"longitude":135.75914001464844,"category":"オフィスビル","big_category":"企業施設","description":"2021年に隈研吾設計によりリノベーション。新エリアがオープン予定","image_url":"","tags":"","prefecture":"京都","contractor":"","structural_designer":"","landscape_designer":"","shinkenchiku_url":""},{"id":1991,"title":"建仁寺","architect":"不明","year":null,"address":"京都府京都市東山区小松町584","latitude":35.00108337402344,"longitude":135.773681640625,"category":"寺院","big_category":"宗教","description":"","image_url":"","tags":"","prefecture":"京都","contractor":"","structural_designer":"","landscape_designer":"","shinkenchiku_url":""},{"id":1992,"title":"河井寛次郎記念館","architect":"河井寛次郎","year":1937.0,"address":"京都府京都市東山区鐘鋳町569","latitude":34.993560791015625,"longitude":135.7743682861328,"category":"博物館/古民家","big_category":"ミュージアム,近代建築/遺産","description":"","image_url":"","tags":"","prefecture":"京都","contractor":"","structural_designer":"","landscape_designer":"","shinkenchiku_url":""},{"id":1993,"title":"渉成園","architect":"不明","year":1892.0,"address":"京都府京都市下京区下珠数屋町通間之町東入東玉水町","latitude":34.99140930175781,"longitude":135.76324462890625,"category":"庭園","big_category":"文化施設","description":"","image_url":"","tags":"","prefecture":"京都","contractor":"","structural_designer":"","landscape_designer":"","shinkenchiku_url":""},{"id":1994,"title":"西本願寺 飛雲閣","architect":"不明","year":1628.0,"address":"京都府京都市下京区本願寺門前町堀川通花屋町下る","latitude":34.99140548706055,"longitude":135.75167846679688,"category":"寺院","big_category":"宗教","description":"","image_url":"","tags":"","prefecture":"京都","contractor":"","structural_designer":"","landscape_designer":"","shinkenchiku_url":""},{"id":1995,"title":"龍谷大学 龍谷ミュージアム","architect":"日建設計","year":2011.0,"address":"京都府京都市下京区丸屋町(北小路通)117 龍谷ミュージアム","latitude":34.99111557006836,"longitude":135.75338745117188,"category":"美術館","big_category":"ミュージアム","description":"","image_url":"","tags":"2016年公共建築賞","prefecture":"京都","contractor":"","structural_designer":"","landscape_designer":"","shinkenchiku_url":""},{"id":1996,"title":"京都アクアリーナ","architect":"仙田満+團紀彦","year":2002.0,"address":"京都府京都市右京区西京極徳大寺団子田町44-3","latitude":34.98988342285156,"longitude":135.71536254882812,"category":"プール","big_category":"レジャー施設","description":"","image_url":"","tags":"","prefecture":"京都","contractor":"","structural_designer":"","landscape_designer":"","shinkenchiku_url":""},{"id":1997,"title":"国際日本文化研究センター","architect":"内井昭蔵","year":1994.0,"address":"京都府京都市西京区御陵大枝山町3-2","latitude":34.98817825317383,"longitude":135.6660614013672,"category":"研究施設","big_category":"教育","description":"","image_url":"","tags":"","prefecture":"京都","contractor":"","structural_designer":"","landscape_designer":"","shinkenchiku_url":""},{"id":1998,"title":"矩庵","architect":"藤森照信","year":2003.0,"address":"京都府京都市下京区徳正寺町39","latitude":35.0030632019043,"longitude":135.7646484375,"category":"寺院","big_category":"宗教","description":"徳正寺茶室。非公開。","image_url":"","tags":"","prefecture":"京都","contractor":"","structural_designer":"","landscape_designer":"","shinkenchiku_url":""},{"id":1999,"title":"ライフイン京都","architect":"若林広幸","year":1986.0,"address":"京都府京都市西京区山田平尾町46-2","latitude":34.98233413696289,"longitude":135.68374633789062,"category":"養護施設","big_category":"医療施設","description":"","image_url":"","tags":"","prefecture":"京都","contractor":"","structural_designer":"","landscape_designer":"","shinkenchiku_url":""},{"id":2000,"title":"泉涌寺 善能寺 仙遊苑","architect":"重森三玲","year":1972.0,"address":"京都府京都市東山区泉涌寺山内町27","latitude":34.97813034057617,"longitude":135.78135681152344,"category":"庭園","big_category":"文化施設","description":"","image_url":"","tags":"","prefecture":"京都","contractor":"","structural_designer":"","landscape_designer":"","shinkenchiku_url":""}]}