{"page":127,"total_pages":290,"items_per_page":50,"total_items":14467,"items":[{"id":6301,"title":"東海大学付属第二高等学校","architect":"大成建設","year":2003.0,"address":"熊本県熊本市東区渡鹿9-1-1","latitude":32.81227111816406,"longitude":130.7452850341797,"category":"学校","big_category":"教育","description":"","image_url":"","tags":"Ver1.90(2016年9月)の追加建築","prefecture":"熊本","contractor":"","structural_designer":"","landscape_designer":"","shinkenchiku_url":""},{"id":6302,"title":"特別養護老人ホーム 桜の里","architect":"桂英昭","year":2003.0,"address":"熊本県球磨郡水上村岩野2658","latitude":32.29362869262695,"longitude":130.9855194091797,"category":"養護施設","big_category":"医療施設","description":"","image_url":"","tags":"Ver1.90(2016年9月)の追加建築","prefecture":"熊本","contractor":"","structural_designer":"","landscape_designer":"","shinkenchiku_url":""},{"id":6303,"title":"熊本市総合屋内プール アクアドームくまもと","architect":"山下設計","year":1998.0,"address":"熊本県熊本市南区荒尾2-1-1","latitude":32.76336669921875,"longitude":130.66778564453125,"category":"プール","big_category":"レジャー施設","description":"震災のため臨時休館中","image_url":"","tags":"Ver1.90(2016年9月)の追加建築","prefecture":"熊本","contractor":"","structural_designer":"","landscape_designer":"","shinkenchiku_url":""},{"id":6304,"title":"熊本県民総合運動公園陸上競技場 KKWING","architect":"日建設計","year":1998.0,"address":"熊本県熊本市東区平山町2776","latitude":32.83692169189453,"longitude":130.8001251220703,"category":"スタジアム","big_category":"レジャー施設","description":"","image_url":"","tags":"Ver1.90(2016年9月)の追加建築","prefecture":"熊本","contractor":"","structural_designer":"","landscape_designer":"","shinkenchiku_url":""},{"id":6305,"title":"中部大学 不言実行館 ACTIVE PLAZA","architect":"高橋靗一","year":2015.0,"address":"愛知県春日井市松本町1200","latitude":35.274330139160156,"longitude":137.0144805908203,"category":"大学","big_category":"教育","description":"","image_url":"","tags":"Ver1.90(2016年9月)の追加建築","prefecture":"愛知","contractor":"","structural_designer":"","landscape_designer":"","shinkenchiku_url":""},{"id":6306,"title":"特別擁護老人ホーム まちだ正吉苑","architect":"高橋靗一","year":2012.0,"address":"東京都町田市成瀬2105","latitude":35.54296112060547,"longitude":139.4698028564453,"category":"養護施設","big_category":"医療施設","description":"","image_url":"","tags":"Ver1.90(2016年9月)の追加建築","prefecture":"東京","contractor":"","structural_designer":"","landscape_designer":"","shinkenchiku_url":""},{"id":6307,"title":"尚玄山荘","architect":"竹中工務店","year":null,"address":"熊本県玉名市河崎1-1","latitude":32.939876556396484,"longitude":130.56021118164062,"category":"旅館","big_category":"宿泊","description":"","image_url":"","tags":"Ver1.92(2016年11月)の追加建築","prefecture":"熊本","contractor":"","structural_designer":"","landscape_designer":"","shinkenchiku_url":""},{"id":6308,"title":"湯の宿 入船","architect":"大森創太郎","year":null,"address":"熊本県阿蘇市小里834−2","latitude":32.977882385253906,"longitude":131.0428924560547,"category":"旅館","big_category":"宿泊","description":"","image_url":"","tags":"Ver1.92(2016年11月)の追加建築","prefecture":"熊本","contractor":"","structural_designer":"","landscape_designer":"","shinkenchiku_url":""},{"id":6309,"title":"大江天主堂","architect":"鉄川与助","year":1933.0,"address":"熊本県天草市天草町大江1782","latitude":32.33685302734375,"longitude":129.99293518066406,"category":"教会","big_category":"宗教","description":"","image_url":"","tags":"Ver1.92(2016年11月)の追加建築","prefecture":"熊本","contractor":"","structural_designer":"","landscape_designer":"","shinkenchiku_url":""},{"id":6310,"title":"崎津天主堂","architect":"鉄川与助","year":1934.0,"address":"熊本県天草市河浦町崎津539","latitude":32.3123893737793,"longitude":130.02577209472656,"category":"教会","big_category":"宗教","description":"","image_url":"","tags":"Ver1.92(2016年11月)の追加建築","prefecture":"熊本","contractor":"","structural_designer":"","landscape_designer":"","shinkenchiku_url":""},{"id":6311,"title":"霧島酒造創業記念館 吉助","architect":"鮎川透","year":2000.0,"address":"宮崎県都城市志比田町5480","latitude":31.74228286743164,"longitude":131.06021118164062,"category":"博物館/醸造所","big_category":"ミュージアム,商業施設","description":"","image_url":"","tags":"Ver1.92(2016年11月)の追加建築","prefecture":"宮崎","contractor":"","structural_designer":"","landscape_designer":"","shinkenchiku_url":""},{"id":6312,"title":"霧島ファクトリーガーデン 霧島三番蔵","architect":"鮎川透","year":2007.0,"address":"宮崎県都城市志比田町5480","latitude":31.74340057373047,"longitude":131.06068420410156,"category":"工場/醸造所","big_category":"企業施設,商業施設","description":"","image_url":"","tags":"Ver1.92(2016年11月)の追加建築","prefecture":"宮崎","contractor":"","structural_designer":"","landscape_designer":"","shinkenchiku_url":""},{"id":6313,"title":"霧島ファクトリーガーデン 霧島四番蔵","architect":"鮎川透","year":2011.0,"address":"宮崎県都城市志比田町5480","latitude":31.74286651611328,"longitude":131.0605010986328,"category":"工場/醸造所","big_category":"企業施設,商業施設","description":"","image_url":"","tags":"Ver1.92(2016年11月)の追加建築","prefecture":"宮崎","contractor":"","structural_designer":"","landscape_designer":"","shinkenchiku_url":""},{"id":6314,"title":"霧島ファクトリーガーデン トイレ","architect":"鮎川透","year":2010.0,"address":"宮崎県都城市志比田町5480","latitude":31.741640090942383,"longitude":131.06141662597656,"category":"トイレ","big_category":"公共施設","description":"","image_url":"","tags":"Ver1.92(2016年11月)の追加建築","prefecture":"宮崎","contractor":"","structural_designer":"","landscape_designer":"","shinkenchiku_url":""},{"id":6315,"title":"日南海岸 南郷プリンスホテル","architect":"清家清","year":1994.0,"address":"宮崎県日南市南郷町中村乙4409","latitude":31.525325775146484,"longitude":131.38095092773438,"category":"ホテル","big_category":"宿泊","description":"","image_url":"","tags":"Ver1.92(2016年11月)の追加建築","prefecture":"宮崎","contractor":"","structural_designer":"","landscape_designer":"","shinkenchiku_url":""},{"id":6316,"title":"鵜戸神宮","architect":"不明","year":null,"address":"宮崎県日南市大字宮浦3232","latitude":31.65033531188965,"longitude":131.466552734375,"category":"寺院","big_category":"宗教","description":"","image_url":"","tags":"Ver1.92(2016年11月)の追加建築","prefecture":"宮崎","contractor":"","structural_designer":"","landscape_designer":"","shinkenchiku_url":""},{"id":6317,"title":"嘉島町民会館","architect":"山下設計","year":2014.0,"address":"熊本県上益城郡嘉島町上島545","latitude":32.74009704589844,"longitude":130.75852966308594,"category":"ホール・劇場","big_category":"文化施設","description":"","image_url":"","tags":"Ver1.92(2016年11月)の追加建築","prefecture":"熊本","contractor":"","structural_designer":"","landscape_designer":"","shinkenchiku_url":""},{"id":6318,"title":"東京ガーデンテラス紀尾井町","architect":"日建設計+コーン・ペダーセン・フォックス","year":2016.0,"address":"東京都千代田区紀尾井町1-2","latitude":35.67962646484375,"longitude":139.73692321777344,"category":"オフィスビル/集合住宅/ホテル","big_category":"企業施設,住宅,宿泊","description":"","image_url":"","tags":"新建築2016年10月号,Ver1.92(2016年11月)の追加建築","prefecture":"東京","contractor":"","structural_designer":"","landscape_designer":"","shinkenchiku_url":""},{"id":6319,"title":"JPタワー名古屋","architect":"日本設計","year":2015.0,"address":"愛知県名古屋市中村区名駅1-1-1","latitude":35.17301559448242,"longitude":136.88250732421875,"category":"オフィスビル","big_category":"企業施設","description":"","image_url":"","tags":"新建築2016年10月号,Ver1.92(2016年11月)の追加建築","prefecture":"愛知","contractor":"","structural_designer":"","landscape_designer":"","shinkenchiku_url":""},{"id":6320,"title":"札幌三井JPビルディング","architect":"日本設計+鹿島建設+松岡拓公雄+鈴木理","year":2014.0,"address":"北海道札幌市中央区北2条西4-","latitude":43.06385040283203,"longitude":141.35044860839844,"category":"オフィスビル","big_category":"企業施設","description":"","image_url":"","tags":"新建築2016年10月号,Ver1.92(2016年11月)の追加建築","prefecture":"北海道","contractor":"","structural_designer":"","landscape_designer":"","shinkenchiku_url":""},{"id":6321,"title":"マテリアル京都","architect":"佐野文彦","year":2015.0,"address":"京都府京都市下京区本塩竈町612","latitude":34.99517822265625,"longitude":135.764404296875,"category":"低層オフィス","big_category":"企業施設","description":"","image_url":"","tags":"新建築2016年10月号,Ver1.92(2016年11月)の追加建築","prefecture":"京都","contractor":"","structural_designer":"","landscape_designer":"","shinkenchiku_url":""},{"id":6322,"title":"日本無線先端技術センター","architect":"日建設計","year":2014.0,"address":"長野県長野市稲里町1163-1","latitude":36.60896682739258,"longitude":138.1803741455078,"category":"研究施設","big_category":"教育","description":"","image_url":"","tags":"新建築2016年10月号,Ver1.92(2016年11月)の追加建築","prefecture":"長野","contractor":"","structural_designer":"","landscape_designer":"","shinkenchiku_url":""},{"id":6323,"title":"渋谷董友ビル キユーピー本社","architect":"三菱地所","year":2015.0,"address":"東京都渋谷区渋谷1-4-13","latitude":35.66130447387695,"longitude":139.7047882080078,"category":"オフィスビル","big_category":"企業施設","description":"","image_url":"","tags":"新建築2016年10月号,Ver1.92(2016年11月)の追加建築","prefecture":"東京","contractor":"","structural_designer":"","landscape_designer":"","shinkenchiku_url":""},{"id":6324,"title":"日本コカ・コーラ新社屋","architect":"光井純+大成建設","year":2016.0,"address":"東京都渋谷区渋谷4-6-3","latitude":35.65827941894531,"longitude":139.7123565673828,"category":"オフィスビル","big_category":"企業施設","description":"","image_url":"","tags":"新建築2016年10月号,Ver1.92(2016年11月)の追加建築","prefecture":"東京","contractor":"","structural_designer":"","landscape_designer":"","shinkenchiku_url":""},{"id":6325,"title":"YKK AP R&Dセンター","architect":"日本設計","year":2016.0,"address":"富山県黒部市荻生1","latitude":36.890235900878906,"longitude":137.4862823486328,"category":"研究施設","big_category":"教育","description":"","image_url":"","tags":"新建築2016年10月号,Ver1.92(2016年11月)の追加建築","prefecture":"富山","contractor":"","structural_designer":"","landscape_designer":"","shinkenchiku_url":""},{"id":6326,"title":"アステラス製薬つくば研究センター10号館","architect":"鹿島建設","year":2016.0,"address":"茨城県つくば市御幸が丘22","latitude":36.066810607910156,"longitude":140.0755157470703,"category":"研究施設","big_category":"教育","description":"","image_url":"","tags":"新建築2016年10月号,Ver1.92(2016年11月)の追加建築","prefecture":"茨城","contractor":"","structural_designer":"","landscape_designer":"","shinkenchiku_url":""},{"id":6327,"title":"アステラス製薬つくば研究センター 居室・厚生棟","architect":"竹中工務店","year":2008.0,"address":"茨城県つくば市御幸が丘22","latitude":36.068458557128906,"longitude":140.0745391845703,"category":"研究施設","big_category":"教育","description":"","image_url":"","tags":"Ver1.92(2016年11月)の追加建築","prefecture":"茨城","contractor":"","structural_designer":"","landscape_designer":"","shinkenchiku_url":""},{"id":6328,"title":"アステラス製薬つくば研究センター 6・7・8号館","architect":"大成建設","year":2008.0,"address":"茨城県つくば市御幸が丘22","latitude":36.06935119628906,"longitude":140.07418823242188,"category":"研究施設","big_category":"教育","description":"","image_url":"","tags":"Ver1.92(2016年11月)の追加建築","prefecture":"茨城","contractor":"","structural_designer":"","landscape_designer":"","shinkenchiku_url":""},{"id":6329,"title":"君岡鉄工 宇都宮工場","architect":"SPACESPACE","year":2015.0,"address":"栃木県宇都宮市ゆいの杜8-1-21","latitude":36.56892776489258,"longitude":140.00131225585938,"category":"工場","big_category":"企業施設","description":"","image_url":"","tags":"新建築2016年10月号,Ver1.92(2016年11月)の追加建築","prefecture":"栃木","contractor":"","structural_designer":"","landscape_designer":"","shinkenchiku_url":""},{"id":6330,"title":"春日大社宝物殿","architect":"谷口吉郎+弥田俊男+城田建築設計事務所","year":1973.0,"address":"奈良県奈良市春日野町160","latitude":34.6815299987793,"longitude":135.8465118408203,"category":"寺院/博物館","big_category":"宗教,ミュージアム","description":"弥田俊男、城田建築設計により2016年リニューアル","image_url":"","tags":"Ver1.92(2016年11月)の追加建築,新建築2017年1月号","prefecture":"奈良","contractor":"","structural_designer":"","landscape_designer":"","shinkenchiku_url":""},{"id":6331,"title":"Good Job! Center KASHIBA","architect":"o+h","year":2016.0,"address":"奈良県香芝市下田西2-8-33","latitude":34.545196533203125,"longitude":135.7033233642578,"category":"公共施設","big_category":"公共施設","description":"","image_url":"","tags":"Ver1.92(2016年11月)の追加建築,2019年日本建築学会 作品選奨,2019年日本建築学会 作品選集新人賞","prefecture":"奈良","contractor":"","structural_designer":"","landscape_designer":"","shinkenchiku_url":""},{"id":6332,"title":"女神の森セントラルガーデン","architect":"永山祐子","year":2016.0,"address":"山梨県北杜市小淵沢町1578","latitude":35.876094818115234,"longitude":138.31869506835938,"category":"ホール・劇場/レストラン","big_category":"文化施設,商業施設","description":"アルソア関連の施設。レストラン有り。","image_url":"","tags":"Ver1.92(2016年11月)の追加建築,2019年日本建築学会 作品選集新人賞","prefecture":"山梨","contractor":"","structural_designer":"","landscape_designer":"","shinkenchiku_url":""},{"id":6333,"title":"宮城学院女子大学附属 森のこども園","architect":"伊東豊雄","year":2016.0,"address":"宮城県仙台市青葉区桜ケ丘9-1-1","latitude":38.3047981262207,"longitude":140.85340881347656,"category":"幼稚園","big_category":"教育","description":"","image_url":"","tags":"新建築2016年12月号,Ver1.92(2016年11月)の追加建築,新建築2017年7月号","prefecture":"宮城","contractor":"","structural_designer":"","landscape_designer":"","shinkenchiku_url":""},{"id":6334,"title":"日本橋の家","architect":"安藤忠雄","year":1994.0,"address":"大阪府大阪市中央区日本橋2-5-15","latitude":34.66505813598633,"longitude":135.50563049316406,"category":"住宅/ギャラリー","big_category":"住宅,ミュージアム","description":"2016年に改修。住居からギャラリー、店舗スペースも併設。","image_url":"","tags":"Ver1.92(2016年11月)の追加建築","prefecture":"大阪","contractor":"","structural_designer":"","landscape_designer":"","shinkenchiku_url":""},{"id":6335,"title":"マギーズ東京","architect":"コスモスモア+阿部勤+日建設計","year":2016.0,"address":"東京都江東区豊洲6-4-18","latitude":35.64799880981445,"longitude":139.78536987304688,"category":"福祉センター","big_category":"医療施設","description":"本棟の設計をコスモスモア、アネックス棟の設計を日建設計が担当","image_url":"","tags":"Ver1.92(2016年11月)の追加建築,新建築2017年12月号","prefecture":"東京","contractor":"","structural_designer":"","landscape_designer":"","shinkenchiku_url":""},{"id":6336,"title":"山口市民会館","architect":"日建設計","year":1971.0,"address":"山口県山口市中央2-5-1","latitude":34.17720413208008,"longitude":131.4740753173828,"category":"ホール・劇場","big_category":"文化施設","description":"","image_url":"","tags":"Ver1.92(2016年11月)の追加建築","prefecture":"山口","contractor":"","structural_designer":"","landscape_designer":"","shinkenchiku_url":""},{"id":6337,"title":"埼玉県立民俗文化センター","architect":"川島甲士","year":1980.0,"address":"埼玉県さいたま市岩槻区加倉5-12-1","latitude":35.9389762878418,"longitude":139.69091796875,"category":"博物館","big_category":"ミュージアム","description":"閉館中もさいたまトリエンナーレ等で活用","image_url":"","tags":"Ver1.92(2016年11月)の追加建築","prefecture":"埼玉","contractor":"","structural_designer":"","landscape_designer":"","shinkenchiku_url":""},{"id":6338,"title":"道の駅ましこ","architect":"マウントフジアーキテクツスタジオ","year":2016.0,"address":"栃木県芳賀郡益子町堤2271","latitude":36.43118667602539,"longitude":140.072021484375,"category":"PA・道の駅","big_category":"インフラ","description":"","image_url":"","tags":"新建築2016年11月号,Ver1.92(2016年11月)の追加建築,2017年度JIA日本建築大賞,2020年日本建築学会 作品賞","prefecture":"栃木","contractor":"","structural_designer":"","landscape_designer":"","shinkenchiku_url":""},{"id":6339,"title":"知立の寺子屋 thirty nine cafe / テラコヤTHANK","architect":"マウントフジアーキテクツスタジオ","year":2016.0,"address":"愛知県知立市西町西4","latitude":35.009456634521484,"longitude":137.04037475585938,"category":"カフェ/児童施設","big_category":"商業施設,教育","description":"カフェの他、アフタースクールも運営。","image_url":"","tags":"新建築2016年11月号,Ver1.92(2016年11月)の追加建築","prefecture":"愛知","contractor":"","structural_designer":"","landscape_designer":"","shinkenchiku_url":""},{"id":6340,"title":"山元町立山下第二小学校","architect":"SUEP.+佐藤総合計画","year":2016.0,"address":"宮城県つばめの杜1-3","latitude":37.965660095214844,"longitude":140.8883819580078,"category":"学校","big_category":"教育","description":"","image_url":"","tags":"新建築2016年11月号,Ver1.92(2016年11月)の追加建築","prefecture":"宮城","contractor":"","structural_designer":"","landscape_designer":"","shinkenchiku_url":""},{"id":6341,"title":"落合総合センター","architect":"東畑建築事務所","year":2016.0,"address":"岡山県真庭市落合垂水618","latitude":35.01456832885742,"longitude":133.74794006347656,"category":"公民館・交流施設/公共施設/図書館","big_category":"公共施設,公共施設,文化施設","description":"","image_url":"","tags":"新建築2016年11月号,Ver1.92(2016年11月)の追加建築,2021年公共建築賞","prefecture":"岡山","contractor":"","structural_designer":"","landscape_designer":"","shinkenchiku_url":""},{"id":6342,"title":"広島県立大崎海星高等学校 管理棟","architect":"仲子盛進+ナフ・アーキテクト&デザイン","year":2016.0,"address":"広島県豊田郡大崎上島町中野3989-1","latitude":34.24165725708008,"longitude":132.8877410888672,"category":"学校","big_category":"教育","description":"","image_url":"","tags":"新建築2016年11月号,Ver1.92(2016年11月)の追加建築","prefecture":"広島","contractor":"","structural_designer":"","landscape_designer":"","shinkenchiku_url":""},{"id":6343,"title":"ウッドエナジー協同組合","architect":"網野禎昭+河野泰治","year":2016.0,"address":"宮崎県日南市南郷町榎原甲2091","latitude":31.539220809936523,"longitude":131.28160095214844,"category":"低層オフィス/組合施設","big_category":"企業施設,公共施設","description":"","image_url":"","tags":"新建築2016年11月号,Ver1.92(2016年11月)の追加建築","prefecture":"宮崎","contractor":"","structural_designer":"","landscape_designer":"","shinkenchiku_url":""},{"id":6344,"title":"新柏クリニック","architect":"竹中工務店","year":2016.0,"address":"千葉県柏市新柏1-7","latitude":35.83759689331055,"longitude":139.96853637695312,"category":"病院","big_category":"医療施設","description":"","image_url":"","tags":"新建築2016年11月号,Ver1.92(2016年11月)の追加建築","prefecture":"千葉","contractor":"","structural_designer":"","landscape_designer":"","shinkenchiku_url":""},{"id":6345,"title":"アキュラホーム埼玉北支店","architect":"河野泰治","year":2016.0,"address":"埼玉県熊谷市原島1183-1","latitude":36.16138458251953,"longitude":139.37112426757812,"category":"店舗/低層オフィス","big_category":"商業施設,企業施設","description":"","image_url":"","tags":"新建築2016年11月号,Ver1.92(2016年11月)の追加建築","prefecture":"埼玉","contractor":"","structural_designer":"","landscape_designer":"","shinkenchiku_url":""},{"id":6346,"title":"埼玉工業大学 ものづくり研究センター","architect":"松田平田設計","year":2016.0,"address":"埼玉県深谷市普済寺1690","latitude":36.19641876220703,"longitude":139.23983764648438,"category":"大学","big_category":"教育","description":"","image_url":"","tags":"新建築2016年11月号,Ver1.92(2016年11月)の追加建築","prefecture":"埼玉","contractor":"","structural_designer":"","landscape_designer":"","shinkenchiku_url":""},{"id":6347,"title":"MYG CASE GALLERY","architect":"新関謙一郎","year":2016.0,"address":"東京都渋谷区元代々木町55-6","latitude":35.67340087890625,"longitude":139.6875,"category":"ギャラリー","big_category":"ミュージアム","description":"","image_url":"","tags":"新建築2016年11月号,Ver1.92(2016年11月)の追加建築","prefecture":"東京","contractor":"","structural_designer":"","landscape_designer":"","shinkenchiku_url":""},{"id":6348,"title":"花畑あすか苑","architect":"メドックス","year":2016.0,"address":"東京都足立区花畑4-20-1","latitude":35.80328369140625,"longitude":139.8074188232422,"category":"養護施設","big_category":"医療施設","description":"","image_url":"","tags":"新建築2016年11月号,Ver1.92(2016年11月)の追加建築","prefecture":"東京","contractor":"","structural_designer":"","landscape_designer":"","shinkenchiku_url":""},{"id":6349,"title":"ポラス建築技術訓練校","architect":"ポラテック","year":2016.0,"address":"埼玉県越谷市越谷レイクタウン6-17-1","latitude":35.873531341552734,"longitude":139.8270263671875,"category":"企業施設/研究施設","big_category":"企業施設,教育","description":"","image_url":"","tags":"新建築2016年11月号,Ver1.92(2016年11月)の追加建築","prefecture":"埼玉","contractor":"","structural_designer":"","landscape_designer":"","shinkenchiku_url":""},{"id":6350,"title":"神勝寺 洸庭","architect":"名和晃平","year":2016.0,"address":"広島県福山市沼隈町大字上山南91","latitude":34.4225959777832,"longitude":133.30908203125,"category":"オブジェ","big_category":"ミュージアム","description":"現代アートのインスタレーション施設","image_url":"","tags":"新建築2016年12月号,Ver1.93(2016年12月)の追加建築","prefecture":"広島","contractor":"","structural_designer":"","landscape_designer":"","shinkenchiku_url":""}]}