{"page":87,"total_pages":290,"items_per_page":50,"total_items":14467,"items":[{"id":4301,"title":"プラウド代々木初台","architect":"新居千秋","year":2006.0,"address":"東京都渋谷区初台1-26-14","latitude":35.678253173828125,"longitude":139.68287658691406,"category":"集合住宅","big_category":"住宅","description":"","image_url":"","tags":"","prefecture":"東京","contractor":"","structural_designer":"","landscape_designer":"","shinkenchiku_url":""},{"id":4302,"title":"いずみ中央地域ケアプラザ","architect":"新居千秋","year":2001.0,"address":"神奈川県横浜市泉区和泉町4732-1","latitude":35.417396545410156,"longitude":139.48583984375,"category":"福祉センター/養護施設","big_category":"医療施設,医療施設","description":"","image_url":"","tags":"","prefecture":"神奈川","contractor":"","structural_designer":"","landscape_designer":"","shinkenchiku_url":""},{"id":4303,"title":"パサージュガーデン渋谷","architect":"新居千秋","year":1999.0,"address":"東京都渋谷区渋谷3-29-22","latitude":35.655174255371094,"longitude":139.7044219970703,"category":"オフィスビル","big_category":"企業施設","description":"","image_url":"","tags":"","prefecture":"東京","contractor":"","structural_designer":"","landscape_designer":"","shinkenchiku_url":""},{"id":4304,"title":"四季倶楽部 伊豆エルミタージュアネックス 旧エースプラザ春宵館","architect":"新居千秋","year":1990.0,"address":"静岡県伊東市吉田901-112","latitude":34.92131042480469,"longitude":139.1128387451172,"category":"ホテル","big_category":"宿泊","description":"","image_url":"","tags":"2015年JIA25年賞 登録作品","prefecture":"静岡","contractor":"","structural_designer":"","landscape_designer":"","shinkenchiku_url":""},{"id":4305,"title":"ケアハウス泉崎","architect":"新居千秋","year":1986.0,"address":"福島県西白河郡泉崎村太田川金山34","latitude":37.17912292480469,"longitude":140.26577758789062,"category":"養護施設","big_category":"医療施設","description":"","image_url":"","tags":"","prefecture":"福島","contractor":"","structural_designer":"","landscape_designer":"","shinkenchiku_url":""},{"id":4306,"title":"アローエースゴルフクラブ クラブハウス","architect":"新居千秋","year":1986.0,"address":"栃木県矢板市成田1625-1","latitude":36.793087005615234,"longitude":139.96827697753906,"category":"クラブハウス/レストラン","big_category":"レジャー施設,商業施設","description":"","image_url":"","tags":"","prefecture":"栃木","contractor":"","structural_designer":"","landscape_designer":"","shinkenchiku_url":""},{"id":4307,"title":"世田谷区立 桜上水南地区会館","architect":"新居千秋","year":1988.0,"address":"東京都世田谷区桜上水3-4-11 区立桜上水南地区会館","latitude":35.659481048583984,"longitude":139.63345336914062,"category":"公民館・交流施設","big_category":"公共施設","description":"","image_url":"","tags":"","prefecture":"東京","contractor":"","structural_designer":"","landscape_designer":"","shinkenchiku_url":""},{"id":4308,"title":"神慈秀明会ホール","architect":"ミノル・ヤマサキ","year":1983.0,"address":"滋賀県甲賀市信楽町田代353","latitude":34.91189956665039,"longitude":136.00527954101562,"category":"宗教施設","big_category":"宗教","description":"信者以外には非公開","image_url":"","tags":"","prefecture":"滋賀","contractor":"","structural_designer":"","landscape_designer":"","shinkenchiku_url":""},{"id":4309,"title":"カリヨン塔 神慈秀明会ベルタワー ジョイ・オブ・エンジェルス","architect":"イオ・ミン・ペイ","year":1990.0,"address":"滋賀県甲賀市信楽町田代353","latitude":34.91033172607422,"longitude":136.0059051513672,"category":"宗教施設","big_category":"宗教","description":"信者以外には非公開","image_url":"","tags":"","prefecture":"滋賀","contractor":"","structural_designer":"","landscape_designer":"","shinkenchiku_url":""},{"id":4310,"title":"万葉公園 万葉亭","architect":"堀口捨己","year":1955.0,"address":"神奈川県足柄下郡湯河原町宮上704","latitude":35.145469665527344,"longitude":139.07254028320312,"category":"茶室","big_category":"住宅","description":"","image_url":"","tags":"","prefecture":"神奈川","contractor":"","structural_designer":"","landscape_designer":"","shinkenchiku_url":""},{"id":4311,"title":"八勝館 御幸の間・残月の間・桜の間・菊の間","architect":"堀口捨己","year":1950.0,"address":"愛知県名古屋市昭和区広路町石坂29","latitude":35.13788986206055,"longitude":136.96168518066406,"category":"料亭/旅館","big_category":"商業施設,宿泊","description":"御幸の間・残月の間：1950年竣工。桜の間・菊の間：1958年竣工。建造物9棟及び土地が2020年国の重要文化財に指定された","image_url":"","tags":"1950年日本建築学会 作品賞,DOCOMOMO,重要文化財","prefecture":"愛知","contractor":"","structural_designer":"","landscape_designer":"","shinkenchiku_url":""},{"id":4312,"title":"三朝温泉旅館 後楽","architect":"堀口捨己","year":1955.0,"address":"鳥取県東伯郡三朝町三朝972-1","latitude":35.40999221801758,"longitude":133.89254760742188,"category":"旅館","big_category":"宿泊","description":"","image_url":"","tags":"","prefecture":"鳥取","contractor":"","structural_designer":"","landscape_designer":"","shinkenchiku_url":""},{"id":4313,"title":"水戸地方気象台 旧水戸測候所","architect":"堀口捨己","year":1935.0,"address":"茨城県水戸市金町1-4-6 ‎","latitude":36.38151931762695,"longitude":140.46829223632812,"category":"公共施設","big_category":"公共施設","description":"","image_url":"","tags":"DOCOMOMO","prefecture":"茨城","contractor":"","structural_designer":"","landscape_designer":"","shinkenchiku_url":""},{"id":4314,"title":"止観亭 旧一条恵観山荘","architect":"堀口捨己","year":1959.0,"address":"神奈川県鎌倉市浄明寺3-8-31","latitude":35.322776794433594,"longitude":139.57135009765625,"category":"茶室","big_category":"住宅","description":"移築監修。非公開。","image_url":"","tags":"","prefecture":"神奈川","contractor":"","structural_designer":"","landscape_designer":"","shinkenchiku_url":""},{"id":4315,"title":"とこなめ陶の森陶芸研究所 旧常滑市陶芸研究所","architect":"堀口捨己","year":1961.0,"address":"愛知県常滑市奥条7-22","latitude":34.887203216552734,"longitude":136.85055541992188,"category":"博物館","big_category":"ミュージアム","description":"","image_url":"","tags":"DOCOMOMO","prefecture":"愛知","contractor":"","structural_designer":"","landscape_designer":"","shinkenchiku_url":""},{"id":4316,"title":"静岡雙葉学園 普通教室棟","architect":"堀口捨己","year":1964.0,"address":"静岡県静岡市 葵区追手町10-71","latitude":34.98047637939453,"longitude":138.38058471679688,"category":"学校","big_category":"教育","description":"","image_url":"","tags":"","prefecture":"静岡","contractor":"","structural_designer":"","landscape_designer":"","shinkenchiku_url":""},{"id":4317,"title":"福岡雙葉学園 講堂・体育館／小学校舎","architect":"堀口捨己","year":1966.0,"address":"福岡県福岡市中央区御所ヶ谷7-1","latitude":33.574798583984375,"longitude":130.3919219970703,"category":"学校","big_category":"教育","description":"","image_url":"","tags":"","prefecture":"福岡","contractor":"","structural_designer":"","landscape_designer":"","shinkenchiku_url":""},{"id":4318,"title":"千歳幼稚園","architect":"アントニン・レーモンド","year":1921.0,"address":"山形県山形市緑町1-4-20","latitude":38.255340576171875,"longitude":140.34695434570312,"category":"幼稚園","big_category":"教育","description":"","image_url":"","tags":"","prefecture":"山形","contractor":"","structural_designer":"","landscape_designer":"","shinkenchiku_url":""},{"id":4319,"title":"小林聖心女子学院 本館","architect":"アントニン・レーモンド","year":1927.0,"address":"兵庫県宝塚市塔の町3-113","latitude":34.78700637817383,"longitude":135.34996032714844,"category":"学校","big_category":"教育","description":"","image_url":"","tags":"登録有形文化財","prefecture":"兵庫","contractor":"","structural_designer":"","landscape_designer":"","shinkenchiku_url":""},{"id":4320,"title":"聖路加国際病院旧館 ／ 聖ルカ礼拝堂","architect":"アントニン・レーモンド+ジョン・ヴァン・ウィ・バーガミニー+ベドジフ・フォイエルシュタイン+ヤン・ヨセフ・スワガー","year":1933.0,"address":"東京都中央区明石町9-1","latitude":35.66741180419922,"longitude":139.77716064453125,"category":"病院/教会","big_category":"医療施設,宗教","description":"基本設計をレーモンド。その後バーガミニが引き継ぐ。1936年礼拝堂竣工。1997年改築","image_url":"","tags":"","prefecture":"東京","contractor":"","structural_designer":"","landscape_designer":"","shinkenchiku_url":""},{"id":4321,"title":"香里ヌヴェール学院 旧聖母女学院","architect":"アントニン・レーモンド","year":1932.0,"address":"大阪府寝屋川市美井町18-10","latitude":34.780670166015625,"longitude":135.63682556152344,"category":"学校","big_category":"教育","description":"","image_url":"","tags":"DOCOMOMO","prefecture":"大阪","contractor":"","structural_designer":"","landscape_designer":"","shinkenchiku_url":""},{"id":4322,"title":"カニングハム・メモリアル・ハウス 旧カニングハム邸","architect":"アントニン・レーモンド","year":1954.0,"address":"東京都港区西麻布2-21-2","latitude":35.661827087402344,"longitude":139.71888732910156,"category":"住宅/博物館","big_category":"住宅,ミュージアム","description":"現在は社団法人青少年音楽協会の事務所","image_url":"","tags":"","prefecture":"東京","contractor":"","structural_designer":"","landscape_designer":"","shinkenchiku_url":""},{"id":4323,"title":"国際基督教大学 図書館本館","architect":"アントニン・レーモンド","year":1960.0,"address":"東京都三鷹市大沢3-10-2","latitude":35.68655014038086,"longitude":139.53082275390625,"category":"図書館","big_category":"文化施設","description":"","image_url":"","tags":"DOCOMOMO","prefecture":"東京","contractor":"","structural_designer":"","landscape_designer":"","shinkenchiku_url":""},{"id":4324,"title":"立教小学校 講堂礼拝堂","architect":"アントニン・レーモンド","year":1966.0,"address":"東京都豊島区西池袋3-36-26","latitude":35.730079650878906,"longitude":139.70050048828125,"category":"教会/学校","big_category":"宗教,教育","description":"","image_url":"","tags":"","prefecture":"東京","contractor":"","structural_designer":"","landscape_designer":"","shinkenchiku_url":""},{"id":4325,"title":"聖母マリア幼稚園 修道会","architect":"アントニン・レーモンド","year":1967.0,"address":"千葉県千葉市緑区辺田町552","latitude":35.56283950805664,"longitude":140.18467712402344,"category":"幼稚園/教会","big_category":"教育,宗教","description":"","image_url":"","tags":"","prefecture":"千葉","contractor":"","structural_designer":"","landscape_designer":"","shinkenchiku_url":""},{"id":4326,"title":"KRCビルディング 旧マースクビル","architect":"アントニン・レーモンド","year":1968.0,"address":"神奈川県横浜市中区日本大通18","latitude":35.44552230834961,"longitude":139.64279174804688,"category":"オフィスビル","big_category":"企業施設","description":"","image_url":"","tags":"","prefecture":"神奈川","contractor":"","structural_designer":"","landscape_designer":"","shinkenchiku_url":""},{"id":4327,"title":"上智大学7号館","architect":"アントニン・レーモンド","year":1968.0,"address":"東京都千代田区紀尾井町7-1","latitude":35.68344497680664,"longitude":139.73243713378906,"category":"大学","big_category":"教育","description":"","image_url":"","tags":"","prefecture":"東京","contractor":"","structural_designer":"","landscape_designer":"","shinkenchiku_url":""},{"id":4328,"title":"岡田美術館","architect":"三浦慎","year":2013.0,"address":"神奈川県足柄下郡箱根町小涌谷493-1","latitude":35.238121032714844,"longitude":139.04600524902344,"category":"美術館","big_category":"ミュージアム","description":"","image_url":"","tags":"","prefecture":"神奈川","contractor":"","structural_designer":"","landscape_designer":"","shinkenchiku_url":""},{"id":4329,"title":"石川県立七尾高校","architect":"大谷幸夫","year":2007.0,"address":"石川県七尾市西藤橋町エ-1-1","latitude":37.04328918457031,"longitude":136.95960998535156,"category":"学校","big_category":"教育","description":"","image_url":"","tags":"","prefecture":"石川","contractor":"","structural_designer":"","landscape_designer":"","shinkenchiku_url":""},{"id":4330,"title":"シンフォニア岩国／山口県岩国総合庁舎","architect":"大谷幸夫","year":1996.0,"address":"山口県岩国市三笠町1-1-1","latitude":34.167823791503906,"longitude":132.22506713867188,"category":"ホール・劇場/庁舎","big_category":"文化施設,公共施設","description":"","image_url":"","tags":"","prefecture":"山口","contractor":"","structural_designer":"","landscape_designer":"","shinkenchiku_url":""},{"id":4331,"title":"天照皇大神宮教本部","architect":"大谷幸夫+沖種郎","year":1964.0,"address":"山口県熊毛郡田布施町波野123","latitude":33.96126174926758,"longitude":132.03781127929688,"category":"宗教施設","big_category":"宗教","description":"本部道場（大道場・小道場・事務室・会議室等）のみ沖種郎と共同設計、1964年竣工。恩額山整備事業1992年竣工。中道場2004年に竣工。建築の区別がつかないため一括して登録","image_url":"","tags":"","prefecture":"山口","contractor":"清水建設","structural_designer":"","landscape_designer":"","shinkenchiku_url":""},{"id":4332,"title":"国立環境研究所","architect":"大谷幸夫","year":2001.0,"address":"茨城県つくば市小野川16-2","latitude":36.04978942871094,"longitude":140.1174774169922,"category":"研究施設","big_category":"教育","description":"","image_url":"","tags":"","prefecture":"茨城","contractor":"","structural_designer":"","landscape_designer":"","shinkenchiku_url":""},{"id":4333,"title":"星野リゾート 裏磐梯ホテル 旧裏磐梯猫魔ホテル","architect":"大高正人","year":1994.0,"address":"福島県耶麻郡北塩原村檜原湯平山1171-1","latitude":37.650733947753906,"longitude":140.06503295898438,"category":"ホテル","big_category":"宿泊","description":"","image_url":"","tags":"","prefecture":"福島","contractor":"","structural_designer":"","landscape_designer":"","shinkenchiku_url":""},{"id":4334,"title":"ブランチ神戸学園都市／神戸学園CAFE PICNIC","architect":"窪田茂","year":2013.0,"address":"兵庫県神戸市垂水区小束山手2-2-1 ブランチ神戸学園都市","latitude":34.672706604003906,"longitude":135.06080627441406,"category":"モール/カフェ","big_category":"商業施設,商業施設","description":"","image_url":"","tags":"","prefecture":"兵庫","contractor":"","structural_designer":"","landscape_designer":"","shinkenchiku_url":""},{"id":4335,"title":"45CAFE 金沢","architect":"窪田茂","year":2013.0,"address":"石川県金沢市南町5-9","latitude":36.56660079956055,"longitude":136.6541290283203,"category":"カフェ","big_category":"商業施設","description":"","image_url":"","tags":"","prefecture":"石川","contractor":"","structural_designer":"","landscape_designer":"","shinkenchiku_url":""},{"id":4336,"title":"フォルクローロいわて東和","architect":"窪田茂","year":2009.0,"address":"岩手県花巻市東和町安俵6区134","latitude":39.383705139160156,"longitude":141.2218475341797,"category":"ホテル","big_category":"宿泊","description":"","image_url":"","tags":"","prefecture":"岩手","contractor":"","structural_designer":"","landscape_designer":"","shinkenchiku_url":""},{"id":4337,"title":"アレーナ・チッタ","architect":"窪田茂","year":2011.0,"address":"神奈川県川崎市川崎区小川町1-26","latitude":35.52848815917969,"longitude":139.69717407226562,"category":"レストラン/スポーツ施設","big_category":"商業施設,レジャー施設","description":"","image_url":"","tags":"","prefecture":"神奈川","contractor":"","structural_designer":"","landscape_designer":"","shinkenchiku_url":""},{"id":4338,"title":"茅乃舎 日本橋店","architect":"隈研吾","year":2014.0,"address":"東京都中央区日本橋室町1-5-5 コレド室町31階","latitude":35.68585968017578,"longitude":139.77439880371094,"category":"店舗","big_category":"商業施設","description":"","image_url":"","tags":"","prefecture":"東京","contractor":"","structural_designer":"","landscape_designer":"","shinkenchiku_url":""},{"id":4339,"title":"佐野美術館","architect":"大熊喜英+長谷川逸子","year":1966.0,"address":"静岡県三島市中田町1-43","latitude":35.11492919921875,"longitude":138.9158935546875,"category":"美術館","big_category":"ミュージアム","description":"2013年長谷川逸子により改修","image_url":"","tags":"","prefecture":"静岡","contractor":"","structural_designer":"","landscape_designer":"","shinkenchiku_url":""},{"id":4340,"title":"静岡富士山空港展望デッキ","architect":"長谷川逸子","year":2013.0,"address":"静岡県牧之原市坂口3336-4","latitude":34.795372009277344,"longitude":138.1831817626953,"category":"空港","big_category":"インフラ","description":"","image_url":"","tags":"","prefecture":"静岡","contractor":"","structural_designer":"","landscape_designer":"","shinkenchiku_url":""},{"id":4341,"title":"静岡福祉大学","architect":"長谷川逸子","year":2006.0,"address":"静岡県焼津市本中根549-1","latitude":34.830413818359375,"longitude":138.29734802246094,"category":"大学","big_category":"教育","description":"","image_url":"","tags":"","prefecture":"静岡","contractor":"","structural_designer":"","landscape_designer":"","shinkenchiku_url":""},{"id":4342,"title":"氷見市立仏生寺小学校","architect":"長谷川逸子","year":1994.0,"address":"富山県氷見市惣領1927","latitude":36.79726028442383,"longitude":136.94334411621094,"category":"学校","big_category":"教育","description":"","image_url":"","tags":"","prefecture":"富山","contractor":"","structural_designer":"","landscape_designer":"","shinkenchiku_url":""},{"id":4343,"title":"菅井内科","architect":"長谷川逸子","year":1986.0,"address":"愛媛県松山市一番町3-3-3","latitude":33.84143829345703,"longitude":132.76937866210938,"category":"個人医院","big_category":"医療施設","description":"","image_url":"","tags":"","prefecture":"愛媛","contractor":"","structural_designer":"","landscape_designer":"","shinkenchiku_url":""},{"id":4344,"title":"西馬込テラスコート","architect":"長谷川逸子","year":2013.0,"address":"東京都大田区西馬込2-5-5","latitude":35.58772659301758,"longitude":139.70474243164062,"category":"集合住宅","big_category":"住宅","description":"","image_url":"","tags":"","prefecture":"東京","contractor":"","structural_designer":"","landscape_designer":"","shinkenchiku_url":""},{"id":4345,"title":"静岡大成中学校","architect":"長谷川逸子","year":2013.0,"address":"静岡県静岡市葵区鷹匠2-4-18","latitude":34.97832107543945,"longitude":138.38880920410156,"category":"学校","big_category":"教育","description":"2004年竣工の大成中学・高校とは別の新しい棟？","image_url":"","tags":"","prefecture":"静岡","contractor":"","structural_designer":"","landscape_designer":"","shinkenchiku_url":""},{"id":4346,"title":"境浄水場事務所","architect":"長谷川逸子","year":2000.0,"address":"東京都武蔵野市関前1-8-37","latitude":35.71103286743164,"longitude":139.5444793701172,"category":"オフィスビル/公共施設","big_category":"企業施設,公共施設","description":"","image_url":"","tags":"","prefecture":"東京","contractor":"","structural_designer":"","landscape_designer":"","shinkenchiku_url":""},{"id":4347,"title":"ヨシダ印刷東京本社","architect":"妹島和世","year":2014.0,"address":"東京都墨田区亀沢3-20-14","latitude":35.697532653808594,"longitude":139.80320739746094,"category":"オフィスビル","big_category":"企業施設","description":"","image_url":"","tags":"","prefecture":"東京","contractor":"鹿島建設","structural_designer":"佐々木睦朗構造計画研究所","landscape_designer":"","shinkenchiku_url":"https://data.shinkenchiku.online/articles/SK_2014_07_170-0"},{"id":4348,"title":"新宿瑠璃光院白蓮華堂","architect":"竹山聖","year":2014.0,"address":"東京都渋谷区代々木2-4-6","latitude":35.687408447265625,"longitude":139.6986083984375,"category":"寺院/霊園","big_category":"宗教,宗教","description":"","image_url":"","tags":"新建築2014年9月号","prefecture":"東京","contractor":"竹中工務店","structural_designer":"TIS&PARTNERS","landscape_designer":"","shinkenchiku_url":"https://data.shinkenchiku.online/articles/SK_2014_09_110-0"},{"id":4349,"title":"桐朋学園大学 調布キャンパス","architect":"日建設計","year":2014.0,"address":"東京都調布市調布ヶ丘1-10-1","latitude":35.65789794921875,"longitude":139.54541015625,"category":"大学","big_category":"教育","description":"日本建築学会 作品賞受賞者名：山梨知彦、向野聡彦","image_url":"","tags":"2016年日本建築学会 作品選奨,第27回AACA 優秀賞,2019年日本建築学会 作品賞,新建築2014年7月号","prefecture":"東京","contractor":"清水建設","structural_designer":"日建設計","landscape_designer":"","shinkenchiku_url":"https://data.shinkenchiku.online/articles/SK_2014_07_092-0"},{"id":4350,"title":"久我山宣教会","architect":"松永安光","year":2009.0,"address":"東京都杉並区久我山3-23","latitude":35.68694305419922,"longitude":139.59933471679688,"category":"教会","big_category":"宗教","description":"","image_url":"","tags":"","prefecture":"東京","contractor":"","structural_designer":"","landscape_designer":"","shinkenchiku_url":""}]}