{"page":213,"total_pages":290,"items_per_page":50,"total_items":14467,"items":[{"id":10601,"title":"広島女学院中学高等学校 高校校舎","architect":"レーモンド設計事務所","year":2009.0,"address":"広島県広島市中区上織町11-32","latitude":34.39802932739258,"longitude":132.4668731689453,"category":"学校","big_category":"教育","description":"","image_url":"","tags":"Ver4.00(2021年9月)の追加建築","prefecture":"広島","contractor":"","structural_designer":"","landscape_designer":"","shinkenchiku_url":""},{"id":10602,"title":"wink","architect":"ナフ・アーキテクト&デザイン","year":2007.0,"address":"広島県広島市安佐南区祇園3-22-30","latitude":34.44065856933594,"longitude":132.4589385986328,"category":"店舗","big_category":"商業施設","description":"パチンコ店","image_url":"","tags":"Ver4.00(2021年9月)の追加建築","prefecture":"広島","contractor":"","structural_designer":"","landscape_designer":"","shinkenchiku_url":""},{"id":10603,"title":"久米設計本社ビル","architect":"久米設計","year":1993.0,"address":"東京都江東区潮見2-1-22","latitude":35.659141540527344,"longitude":139.81434631347656,"category":"オフィスビル","big_category":"企業施設","description":"","image_url":"","tags":"Ver4.00(2021年9月)の追加建築","prefecture":"東京","contractor":"","structural_designer":"","landscape_designer":"","shinkenchiku_url":""},{"id":10604,"title":"太歳神社 公衆トイレ","architect":"谷尻誠","year":2020.0,"address":"広島県三次市三次町1112-2","latitude":34.818851470947266,"longitude":132.84519958496094,"category":"トイレ","big_category":"公共施設","description":"","image_url":"","tags":"Ver4.00(2021年9月)の追加建築","prefecture":"広島","contractor":"","structural_designer":"","landscape_designer":"","shinkenchiku_url":""},{"id":10605,"title":"ザ ベジ シァコ","architect":"谷尻誠","year":2020.0,"address":"京都狛江市和泉本町3-4-11","latitude":35.639591217041016,"longitude":139.57492065429688,"category":"店舗","big_category":"商業施設","description":"","image_url":"","tags":"Ver4.00(2021年9月)の追加建築","prefecture":"京都","contractor":"セットアップ","structural_designer":"","landscape_designer":"","shinkenchiku_url":""},{"id":10606,"title":"八代市民俗伝統芸能伝承館 お祭りでんでん館","architect":"平田晃久","year":2021.0,"address":"熊本県八代市西松江城町1-47","latitude":32.50801467895508,"longitude":130.59767150878906,"category":"博物館","big_category":"ミュージアム","description":"","image_url":"","tags":"新建築2021年9月号,Ver4.00(2021年9月)の追加建築","prefecture":"熊本","contractor":"藤永組・豊岡組建設工事共同体","structural_designer":"","landscape_designer":"","shinkenchiku_url":""},{"id":10607,"title":"風突のケアハウス バケーションハウス 青と碧と白と沖縄","architect":"中村拓志","year":2020.0,"address":"沖縄県国頭郡恩納村真栄田3537-2","latitude":26.42026710510254,"longitude":127.742919921875,"category":"ホテル/コテージ","big_category":"宿泊,宿泊","description":"","image_url":"","tags":"新建築2021年9月号,Ver4.00(2021年9月)の追加建築","prefecture":"沖縄","contractor":"旭建設","structural_designer":"","landscape_designer":"","shinkenchiku_url":""},{"id":10608,"title":"toberu2号館","architect":"o+h","year":2021.0,"address":"京都府京都市左京区吉田橘町33-16","latitude":35.023250579833984,"longitude":135.7749481201172,"category":"シェアオフィス","big_category":"商業施設","description":"","image_url":"","tags":"新建築2021年9月号,Ver4.00(2021年9月)の追加建築","prefecture":"京都","contractor":"要建設","structural_designer":"","landscape_designer":"","shinkenchiku_url":""},{"id":10609,"title":"熊本駅 白川口駅前広場","architect":"西沢立衛","year":2019.0,"address":"熊本県熊本市西区春日3-15","latitude":32.78960037231445,"longitude":130.68955993652344,"category":"広場","big_category":"文化施設","description":"","image_url":"","tags":"新建築2021年9月号,Ver4.00(2021年9月)の追加建築","prefecture":"熊本","contractor":"大林組","structural_designer":"","landscape_designer":"","shinkenchiku_url":""},{"id":10610,"title":"JR 熊本駅ビル","architect":"日建設計","year":2021.0,"address":"熊本県熊本市西区春日3-15-26","latitude":32.788848876953125,"longitude":130.6884002685547,"category":"テナントビル","big_category":"商業施設","description":"","image_url":"","tags":"新建築2021年9月号,Ver4.00(2021年9月)の追加建築","prefecture":"熊本","contractor":"大林組","structural_designer":"","landscape_designer":"","shinkenchiku_url":""},{"id":10611,"title":"小田原三の丸ホール","architect":"仙田満","year":2021.0,"address":"神奈川県小田原市本町1-7-50","latitude":35.24953842163086,"longitude":139.15802001953125,"category":"ホール・劇場","big_category":"文化施設","description":"","image_url":"","tags":"新建築2021年9月号,Ver4.00(2021年9月)の追加建築","prefecture":"神奈川","contractor":"鹿島建設","structural_designer":"","landscape_designer":"","shinkenchiku_url":""},{"id":10612,"title":"HOSOO FLAGSHIP STORE","architect":"細尾直久+高吉輝樹","year":2019.0,"address":"京都府京都市中京区柿本町412 両替町通姉小路下ル","latitude":35.00968933105469,"longitude":135.7589874267578,"category":"店舗/低層オフィス/ギャラリー","big_category":"商業施設,企業施設,ミュージアム","description":"","image_url":"","tags":"新建築2021年9月号,Ver4.00(2021年9月)の追加建築","prefecture":"京都","contractor":"分離発注","structural_designer":"","landscape_designer":"","shinkenchiku_url":""},{"id":10613,"title":"戸田建設 筑波技術研究所 グリーンオフィス棟","architect":"戸田建設","year":2021.0,"address":"茨城県つくば市要315","latitude":36.109676361083984,"longitude":140.07684326171875,"category":"研究施設","big_category":"教育","description":"環境技術実証棟のリニューアル","image_url":"","tags":"新建築2021年9月号,Ver4.00(2021年9月)の追加建築","prefecture":"茨城","contractor":"戸田建設","structural_designer":"","landscape_designer":"","shinkenchiku_url":""},{"id":10614,"title":"RE-USE OFFICE テツシンデザイン","architect":"yHa architects","year":2021.0,"address":"福岡県福岡市東区箱崎1-45-25","latitude":33.615081787109375,"longitude":130.42117309570312,"category":"低層オフィス/住宅","big_category":"企業施設,住宅","description":"1928年竣工の洋館建築、旧・松浜厚生施設の部材や建具を再利用して新築された","image_url":"","tags":"新建築2021年9月号,Ver4.00(2021年9月)の追加建築","prefecture":"福岡","contractor":"イクスワークス","structural_designer":"","landscape_designer":"","shinkenchiku_url":""},{"id":10615,"title":"シネマネコ","architect":"池上建築設計+武藤一級建築士設計事務所","year":2021.0,"address":"東京都青梅市西分町3","latitude":35.78821563720703,"longitude":139.26602172851562,"category":"ホール・劇場","big_category":"文化施設","description":"旧都立繊維試験場を映画館に改修","image_url":"","tags":"新建築2021年9月号,登録有形文化財,Ver4.00(2021年9月)の追加建築","prefecture":"東京","contractor":"中島工務店","structural_designer":"","landscape_designer":"","shinkenchiku_url":""},{"id":10616,"title":"ブックカフェ ディダブルカフェ","architect":"菊地宏","year":2021.0,"address":"東京都青梅市本町160-18","latitude":35.78962707519531,"longitude":139.25942993164062,"category":"カフェ","big_category":"商業施設","description":"1Fをブックカフェに改修","image_url":"","tags":"新建築2021年9月号,Ver4.00(2021年9月)の追加建築","prefecture":"東京","contractor":"中島工務店","structural_designer":"","landscape_designer":"","shinkenchiku_url":""},{"id":10617,"title":"福岡市立平尾霊園合葬式墓所","architect":"木下昌大","year":2021.0,"address":"福岡県福岡市南区平和4-1-1","latitude":33.5653190612793,"longitude":130.3983917236328,"category":"霊園","big_category":"宗教","description":"","image_url":"","tags":"新建築2021年9月号,Ver4.00(2021年9月)の追加建築","prefecture":"福岡","contractor":"ユーライフホーム","structural_designer":"","landscape_designer":"","shinkenchiku_url":""},{"id":10618,"title":"みんなの診療所","architect":"松山将勝","year":2020.0,"address":"鹿児島県大島郡龍郷町中勝字松下476-1","latitude":28.38123893737793,"longitude":129.57931518554688,"category":"個人医院","big_category":"医療施設","description":"","image_url":"","tags":"新建築2021年9月号,Ver4.00(2021年9月)の追加建築","prefecture":"鹿児島","contractor":"政建設","structural_designer":"","landscape_designer":"","shinkenchiku_url":""},{"id":10619,"title":"ひたちの整形外科ANNEX","architect":"松山将勝","year":2020.0,"address":"茨城県牛久市ひたち野東3-2-1","latitude":36.003639221191406,"longitude":140.17189025878906,"category":"個人医院","big_category":"医療施設","description":"","image_url":"","tags":"Ver4.00(2021年9月)の追加建築","prefecture":"茨城","contractor":"","structural_designer":"","landscape_designer":"","shinkenchiku_url":""},{"id":10620,"title":"伊東眼科","architect":"松山将勝","year":2020.0,"address":"栃木県宇都宮市北一の沢町8-6","latitude":36.569698333740234,"longitude":139.86288452148438,"category":"個人医院","big_category":"医療施設","description":"","image_url":"","tags":"Ver4.00(2021年9月)の追加建築","prefecture":"栃木","contractor":"","structural_designer":"","landscape_designer":"","shinkenchiku_url":""},{"id":10621,"title":"あいら中央眼科","architect":"松山将勝","year":2019.0,"address":"鹿児島県姶良市西餅田85-7","latitude":31.734634399414062,"longitude":130.62533569335938,"category":"個人医院","big_category":"医療施設","description":"","image_url":"","tags":"Ver4.00(2021年9月)の追加建築","prefecture":"鹿児島","contractor":"","structural_designer":"","landscape_designer":"","shinkenchiku_url":""},{"id":10622,"title":"横尾病院","architect":"松山将勝","year":2020.0,"address":"長崎県諫早市川床町395-2","latitude":32.830421447753906,"longitude":130.06887817382812,"category":"病院","big_category":"医療施設","description":"","image_url":"","tags":"Ver4.00(2021年9月)の追加建築","prefecture":"長崎","contractor":"","structural_designer":"","landscape_designer":"","shinkenchiku_url":""},{"id":10623,"title":"桑名眼科脳神経クリニック","architect":"松山将勝","year":2020.0,"address":"静岡県駿東郡清水町久米田27-1","latitude":35.098793029785156,"longitude":138.91184997558594,"category":"個人医院","big_category":"医療施設","description":"","image_url":"","tags":"Ver4.00(2021年9月)の追加建築","prefecture":"静岡","contractor":"","structural_designer":"","landscape_designer":"","shinkenchiku_url":""},{"id":10624,"title":"小池病院","architect":"松山将勝","year":2020.0,"address":"広島県福山市光南町1-5-23","latitude":34.48122787475586,"longitude":133.3671112060547,"category":"個人医院","big_category":"医療施設","description":"","image_url":"","tags":"Ver4.00(2021年9月)の追加建築","prefecture":"広島","contractor":"","structural_designer":"","landscape_designer":"","shinkenchiku_url":""},{"id":10625,"title":"兵庫徳誠会歯科衛生士学校","architect":"松山将勝","year":2021.0,"address":"兵庫県姫路市高尾町87","latitude":34.82908248901367,"longitude":134.68385314941406,"category":"専門学校","big_category":"教育","description":"","image_url":"","tags":"Ver4.00(2021年9月)の追加建築","prefecture":"兵庫","contractor":"","structural_designer":"","landscape_designer":"","shinkenchiku_url":""},{"id":10626,"title":"Vessel鎌倉1st","architect":"木下昌大","year":2020.0,"address":"神奈川県鎌倉市大船1-25-5","latitude":35.35401916503906,"longitude":139.53286743164062,"category":"テナントビル","big_category":"商業施設","description":"","image_url":"","tags":"Ver4.00(2021年9月)の追加建築","prefecture":"神奈川","contractor":"","structural_designer":"","landscape_designer":"","shinkenchiku_url":""},{"id":10627,"title":"天神中央公園 ハレノガーデン","architect":"yHa architects","year":2019.0,"address":"福岡県福岡市中央区西中洲6-36","latitude":33.59209060668945,"longitude":130.40431213378906,"category":"レストラン/カフェ/店舗","big_category":"商業施設,商業施設,商業施設","description":"","image_url":"","tags":"Ver4.00(2021年9月)の追加建築,新建築2022年3月号","prefecture":"福岡","contractor":"","structural_designer":"","landscape_designer":"","shinkenchiku_url":""},{"id":10628,"title":"里山カフェ 棚田屋","architect":"yHa architects","year":2020.0,"address":"福岡県朝倉郡東峰村宝珠山4171","latitude":33.437164306640625,"longitude":130.87506103515625,"category":"カフェ","big_category":"商業施設","description":"","image_url":"","tags":"Ver4.00(2021年9月)の追加建築","prefecture":"福岡","contractor":"","structural_designer":"","landscape_designer":"","shinkenchiku_url":""},{"id":10629,"title":"肥前浜駅前駐輪場","architect":"平瀬有人","year":2020.0,"address":"佐賀県鹿島市浜新町 肥前浜駅","latitude":33.09490203857422,"longitude":130.11705017089844,"category":"駐車・駐輪場","big_category":"公共施設","description":"","image_url":"","tags":"Ver4.00(2021年9月)の追加建築","prefecture":"佐賀","contractor":"","structural_designer":"","landscape_designer":"","shinkenchiku_url":""},{"id":10630,"title":"富久千代酒造 米倉庫","architect":"yHa architects","year":2013.0,"address":"佐賀県鹿島市浜町1254-1","latitude":33.093597412109375,"longitude":130.11488342285156,"category":"醸造所","big_category":"商業施設","description":"","image_url":"","tags":"Ver4.00(2021年9月)の追加建築","prefecture":"佐賀","contractor":"","structural_designer":"","landscape_designer":"","shinkenchiku_url":""},{"id":10631,"title":"HOSOO RESIDENCE","architect":"細尾直久","year":2017.0,"address":"京都府京都市中京区北小路町98-8","latitude":35.01421356201172,"longitude":135.7590789794922,"category":"古民家/コテージ","big_category":"近代建築/遺産,宿泊","description":"長屋町家を会員制宿泊施設に改修","image_url":"","tags":"Ver4.00(2021年9月)の追加建築","prefecture":"京都","contractor":"","structural_designer":"","landscape_designer":"","shinkenchiku_url":""},{"id":10632,"title":"九州産業大学 大楠アリーナ 2020","architect":"梓設計","year":2020.0,"address":"福岡県福岡市東区松香台2-3-2","latitude":33.66903305053711,"longitude":130.44699096679688,"category":"体育館","big_category":"レジャー施設","description":"","image_url":"","tags":"Ver4.00(2021年9月)の追加建築","prefecture":"福岡","contractor":"","structural_designer":"","landscape_designer":"","shinkenchiku_url":""},{"id":10633,"title":"みやこ下地島空港","architect":"日建設計","year":2019.0,"address":"沖縄県宮古島市伊良部佐和田1727","latitude":24.82669448852539,"longitude":125.1493148803711,"category":"空港","big_category":"インフラ","description":"","image_url":"","tags":"Ver4.00(2021年9月)の追加建築","prefecture":"沖縄","contractor":"","structural_designer":"","landscape_designer":"","shinkenchiku_url":""},{"id":10634,"title":"アトリエ SORA","architect":"設計機構ワークス","year":2020.0,"address":"福岡県飯塚市高田161-1","latitude":33.59580993652344,"longitude":130.63807678222656,"category":"低層オフィス/住宅","big_category":"企業施設,住宅","description":"","image_url":"","tags":"Ver4.00(2021年9月)の追加建築","prefecture":"福岡","contractor":"","structural_designer":"","landscape_designer":"","shinkenchiku_url":""},{"id":10635,"title":"道の駅おおぎみ やんばるの森 ビジターセンター","architect":"美音SpaceDesign","year":2020.0,"address":"沖縄県国頭郡大宜味村津波95","latitude":26.6606502532959,"longitude":128.1021728515625,"category":"PA・道の駅","big_category":"インフラ","description":"","image_url":"","tags":"Ver4.00(2021年9月)の追加建築","prefecture":"沖縄","contractor":"","structural_designer":"","landscape_designer":"","shinkenchiku_url":""},{"id":10636,"title":"永林寺保育園","architect":"設計機構ワークス","year":2019.0,"address":"佐賀県杵島郡江北町上小田2378","latitude":33.22889709472656,"longitude":130.14369201660156,"category":"幼稚園","big_category":"教育","description":"","image_url":"","tags":"Ver4.00(2021年9月)の追加建築","prefecture":"佐賀","contractor":"","structural_designer":"","landscape_designer":"","shinkenchiku_url":""},{"id":10637,"title":"武雄市こども図書館","architect":"佐藤総合計画","year":2017.0,"address":"佐賀県武雄市武雄町大字武雄5304-1","latitude":33.18889236450195,"longitude":130.02284240722656,"category":"図書館","big_category":"文化施設","description":"","image_url":"","tags":"Ver4.00(2021年9月)の追加建築","prefecture":"佐賀","contractor":"","structural_designer":"","landscape_designer":"","shinkenchiku_url":""},{"id":10638,"title":"TOTO 山と星空の湯布院","architect":"竹中工務店","year":2018.0,"address":"大分県由布市湯布院町川北字高原894-74","latitude":33.26912307739258,"longitude":131.32017517089844,"category":"その他宿泊施設","big_category":"宿泊","description":"TOTOの保養施設","image_url":"","tags":"Ver4.00(2021年9月)の追加建築","prefecture":"大分","contractor":"","structural_designer":"","landscape_designer":"","shinkenchiku_url":""},{"id":10639,"title":"パスカル大分 事務棟","architect":"大成建設","year":2016.0,"address":"大分県国東市安岐町下原200","latitude":33.4753532409668,"longitude":131.71963500976562,"category":"低層オフィス","big_category":"企業施設","description":"","image_url":"","tags":"Ver4.00(2021年9月)の追加建築","prefecture":"大分","contractor":"","structural_designer":"","landscape_designer":"","shinkenchiku_url":""},{"id":10640,"title":"八戸市美術館","architect":"西澤徹夫+浅子佳英","year":2021.0,"address":"青森県八戸市大字番町10-4","latitude":40.51169204711914,"longitude":141.4914093017578,"category":"美術館","big_category":"ミュージアム","description":"2021年11月3日オープン予定","image_url":"","tags":"Ver4.00(2021年9月)の追加建築,新建築2022年1月号,第33回AACA 優秀賞,2022年度JIA日本建築大賞","prefecture":"青森","contractor":"","structural_designer":"","landscape_designer":"","shinkenchiku_url":""},{"id":10641,"title":"PAS","architect":"中村勝己","year":2001.0,"address":"広島県広島市西区大芝1-4-10","latitude":34.41944885253906,"longitude":132.4588623046875,"category":"低層オフィス/住宅","big_category":"企業施設,住宅","description":"","image_url":"","tags":"Ver4.00(2021年9月)の追加建築","prefecture":"広島","contractor":"","structural_designer":"","landscape_designer":"","shinkenchiku_url":""},{"id":10642,"title":"FLAT FORM","architect":"ナフ・アーキテクト&デザイン","year":2005.0,"address":"広島県東広島市西条栄町1-4","latitude":34.429325103759766,"longitude":132.7432403564453,"category":"テナントビル/住宅","big_category":"商業施設,住宅","description":"","image_url":"","tags":"Ver4.00(2021年9月)の追加建築","prefecture":"広島","contractor":"","structural_designer":"","landscape_designer":"","shinkenchiku_url":""},{"id":10643,"title":"hiroshima whole house","architect":"加藤詞史","year":2011.0,"address":"広島県広島市中区宝町10-5","latitude":34.38466262817383,"longitude":132.46096801757812,"category":"集合住宅","big_category":"住宅","description":"","image_url":"","tags":"Ver4.00(2021年9月)の追加建築","prefecture":"広島","contractor":"","structural_designer":"","landscape_designer":"","shinkenchiku_url":""},{"id":10644,"title":"サンポービル","architect":"満野有","year":2017.0,"address":"広島県広島市中区袋町6-51","latitude":34.39199447631836,"longitude":132.4591522216797,"category":"テナントビル","big_category":"商業施設","description":"","image_url":"","tags":"Ver4.00(2021年9月)の追加建築","prefecture":"広島","contractor":"","structural_designer":"","landscape_designer":"","shinkenchiku_url":""},{"id":10645,"title":"プライムホスピタル 玉島","architect":"満野有","year":2017.0,"address":"岡山県倉敷市玉島750-1","latitude":34.549644470214844,"longitude":133.68597412109375,"category":"病院","big_category":"医療施設","description":"","image_url":"","tags":"Ver4.00(2021年9月)の追加建築","prefecture":"岡山","contractor":"","structural_designer":"","landscape_designer":"","shinkenchiku_url":""},{"id":10646,"title":"ヒロボーライブファクトリー","architect":"GKデザイン総研広島+清水建設","year":2006.0,"address":"広島県府中市桜が丘3-3-1","latitude":34.58097457885742,"longitude":133.24632263183594,"category":"博物館/工場/低層オフィス","big_category":"ミュージアム,企業施設,企業施設","description":"模型飛行機の博物館を併設","image_url":"","tags":"Ver4.00(2021年9月)の追加建築","prefecture":"広島","contractor":"清水建設","structural_designer":"","landscape_designer":"","shinkenchiku_url":""},{"id":10647,"title":"本逕寺","architect":"錦織亮雄","year":1978.0,"address":"広島県広島市中区大手町3-13-11","latitude":34.386512756347656,"longitude":132.45364379882812,"category":"寺院","big_category":"宗教","description":"","image_url":"","tags":"Ver4.00(2021年9月)の追加建築","prefecture":"広島","contractor":"","structural_designer":"","landscape_designer":"","shinkenchiku_url":""},{"id":10648,"title":"PENCILビル","architect":"住宅デザイン研究所","year":1998.0,"address":"広島県広島市中区袋町7-21","latitude":34.3918342590332,"longitude":132.4598388671875,"category":"テナントビル","big_category":"商業施設","description":"","image_url":"","tags":"Ver4.00(2021年9月)の追加建築","prefecture":"広島","contractor":"","structural_designer":"","landscape_designer":"","shinkenchiku_url":""},{"id":10649,"title":"放射線影響研究所","architect":"ヨーク・アンド・ソーヤー","year":1951.0,"address":"広島県広島市南区比治山公園5-2","latitude":34.382591247558594,"longitude":132.4722900390625,"category":"研究施設","big_category":"教育","description":"","image_url":"","tags":"Ver4.00(2021年9月)の追加建築,DOCOMOMO","prefecture":"広島","contractor":"","structural_designer":"","landscape_designer":"","shinkenchiku_url":""},{"id":10650,"title":"MILKBREW COFFEE","architect":"二俣公一","year":2021.0,"address":"佐賀県嬉野市塩田町大字馬場下甲727","latitude":33.12991714477539,"longitude":130.05975341796875,"category":"カフェ","big_category":"商業施設","description":"登録有形文化財の蔵を改修","image_url":"","tags":"登録有形文化財,Ver4.00(2021年9月)の追加建築","prefecture":"佐賀","contractor":"時空建築工房","structural_designer":"","landscape_designer":"","shinkenchiku_url":""}]}