{"page":185,"total_pages":290,"items_per_page":50,"total_items":14467,"items":[{"id":9201,"title":"嘉島町北甘木のみんなの家","architect":"千葉学","year":2019.0,"address":"熊本県上益城郡嘉島町大字北甘木字剣原1944-1","latitude":32.748348236083984,"longitude":130.77430725097656,"category":"公民館・交流施設","big_category":"公共施設","description":"場所は推定。公式サイト上にある住所がGoogle maps等では発見出来ず。恐らくこの場所だとは思いますが・・・","image_url":"","tags":"新建築2020年2月号,Ver3.30(2020年2月)の追加建築","prefecture":"熊本","contractor":"","structural_designer":"","landscape_designer":"","shinkenchiku_url":""},{"id":9202,"title":"大津町新小屋のみんなの家","architect":"千葉学","year":2019.0,"address":"熊本県菊池郡大津町大字高尾野字東高尾野780","latitude":32.893768310546875,"longitude":130.92079162597656,"category":"公民館・交流施設","big_category":"公共施設","description":"場所は推定。公式サイト上にある住所がGoogle maps等では発見出来ず。恐らくこの場所だとは思いますが・・・","image_url":"","tags":"Ver3.30(2020年2月)の追加建築","prefecture":"熊本","contractor":"","structural_designer":"","landscape_designer":"","shinkenchiku_url":""},{"id":9203,"title":"城西自動車学校","architect":"松村正恒","year":1976.0,"address":"愛媛県松山市中央1-1-41","latitude":33.85309600830078,"longitude":132.754150390625,"category":"専門学校","big_category":"教育","description":"","image_url":"","tags":"Ver3.30(2020年2月)の追加建築","prefecture":"愛媛","contractor":"","structural_designer":"","landscape_designer":"","shinkenchiku_url":""},{"id":9204,"title":"日産プリンス愛媛販売","architect":"松村正恒","year":1963.0,"address":"愛媛県松山市福音寺町261","latitude":33.82182693481445,"longitude":132.79383850097656,"category":"店舗","big_category":"商業施設","description":"","image_url":"","tags":"Ver3.30(2020年2月)の追加建築","prefecture":"愛媛","contractor":"","structural_designer":"","landscape_designer":"","shinkenchiku_url":""},{"id":9205,"title":"豊島学園 持田幼稚園","architect":"松村正恒","year":1967.0,"address":"愛媛県松山市持田町3-2-8","latitude":33.844120025634766,"longitude":132.78054809570312,"category":"幼稚園","big_category":"教育","description":"","image_url":"","tags":"Ver3.30(2020年2月)の追加建築","prefecture":"愛媛","contractor":"","structural_designer":"","landscape_designer":"","shinkenchiku_url":""},{"id":9206,"title":"星野リゾート 界 阿蘇","architect":"佐藤一郎","year":2005.0,"address":"大分県玖珠郡九重町大字湯坪瀬の本628-6","latitude":33.080562591552734,"longitude":131.19363403320312,"category":"ホテル","big_category":"宿泊","description":"","image_url":"","tags":"Ver3.30(2020年2月)の追加建築","prefecture":"大分","contractor":"","structural_designer":"","landscape_designer":"","shinkenchiku_url":""},{"id":9207,"title":"キッカ","architect":"谷尻誠","year":2018.0,"address":"東京都千代田区東神田1-3-3","latitude":35.69343185424805,"longitude":139.7800750732422,"category":"ホテル","big_category":"宿泊","description":"","image_url":"","tags":"Ver3.30(2020年2月)の追加建築","prefecture":"東京","contractor":"","structural_designer":"","landscape_designer":"","shinkenchiku_url":""},{"id":9208,"title":"三輪 湯河原","architect":"内田繁","year":2019.0,"address":"神奈川県足柄下郡湯河原町宮上206","latitude":35.14435577392578,"longitude":139.08335876464844,"category":"ホテル","big_category":"宿泊","description":"","image_url":"","tags":"Ver3.30(2020年2月)の追加建築","prefecture":"神奈川","contractor":"","structural_designer":"","landscape_designer":"","shinkenchiku_url":""},{"id":9209,"title":"ナインアワーズ新大阪","architect":"平田晃久","year":2018.0,"address":"大阪府大阪市東淀川区東中島1-19-9","latitude":34.73374557495117,"longitude":135.50274658203125,"category":"ホテル","big_category":"宿泊","description":"","image_url":"","tags":"Ver3.30(2020年2月)の追加建築","prefecture":"大阪","contractor":"","structural_designer":"","landscape_designer":"","shinkenchiku_url":""},{"id":9210,"title":"田中仏光堂 今治本店","architect":"内田繁","year":2016.0,"address":"愛媛県今治市旭町4-3-10","latitude":34.05878829956055,"longitude":133.0041961669922,"category":"店舗","big_category":"商業施設","description":"","image_url":"","tags":"Ver3.30(2020年2月)の追加建築","prefecture":"愛媛","contractor":"","structural_designer":"","landscape_designer":"","shinkenchiku_url":""},{"id":9211,"title":"伝泊+まーぐん広場・赤木名","architect":"山下保博","year":2018.0,"address":"鹿児島県奄美市笠利町大字里 まーぐん広場","latitude":28.452329635620117,"longitude":129.67709350585938,"category":"ホテル/店舗/福祉センター","big_category":"宿泊,商業施設,医療施設","description":"","image_url":"","tags":"Ver3.30(2020年2月)の追加建築","prefecture":"鹿児島","contractor":"","structural_designer":"","landscape_designer":"","shinkenchiku_url":""},{"id":9212,"title":"特別養護老人ホーム山水園","architect":"水上健二","year":2010.0,"address":"東京都八王子市西寺方町303","latitude":35.67289733886719,"longitude":139.2670135498047,"category":"養護施設","big_category":"医療施設","description":"","image_url":"","tags":"Ver3.30(2020年2月)の追加建築","prefecture":"東京","contractor":"","structural_designer":"","landscape_designer":"","shinkenchiku_url":""},{"id":9213,"title":"釜石市小白浜地区復興公営住宅","architect":"山下保博+水上健二+松野勉","year":2015.0,"address":"岩手県釜石市唐丹町小白浜50","latitude":39.207088470458984,"longitude":141.865478515625,"category":"集合住宅","big_category":"住宅","description":"","image_url":"","tags":"Ver3.30(2020年2月)の追加建築","prefecture":"岩手","contractor":"","structural_designer":"","landscape_designer":"","shinkenchiku_url":""},{"id":9214,"title":"てぞーろ保育園","architect":"相坂研介","year":2020.0,"address":"福島県福島市御山字検田93-1","latitude":37.777076721191406,"longitude":140.46788024902344,"category":"幼稚園","big_category":"教育","description":"","image_url":"","tags":"Ver3.30(2020年2月)の追加建築","prefecture":"福島","contractor":"","structural_designer":"","landscape_designer":"","shinkenchiku_url":""},{"id":9215,"title":"松原市民松原図書館","architect":"MARU。architecture","year":2020.0,"address":"大阪府松原市田井城3-1-46","latitude":34.57719039916992,"longitude":135.54830932617188,"category":"図書館","big_category":"文化施設","description":"","image_url":"","tags":"Ver3.30(2020年2月)の追加建築,新建築2020年5月号,2022年日本建築学会 作品選奨,第30回AACA 奨励賞","prefecture":"大阪","contractor":"","structural_designer":"","landscape_designer":"","shinkenchiku_url":""},{"id":9216,"title":"弘前れんが倉庫美術館 旧吉井酒造煉瓦倉庫","architect":"田根剛","year":2020.0,"address":"青森県弘前市大字吉野町2-1","latitude":40.5980224609375,"longitude":140.4729766845703,"category":"美術館","big_category":"ミュージアム","description":"2020年4月11日オープン予定","image_url":"","tags":"Ver3.30(2020年2月)の追加建築,新建築2020年5月号","prefecture":"青森","contractor":"","structural_designer":"","landscape_designer":"","shinkenchiku_url":""},{"id":9217,"title":"ハウジング・ライトケーヴ","architect":"ウシダ・フィンドレイ・パートナーシップ","year":2001.0,"address":"東京都府中市寿町3-8-3","latitude":35.67551040649414,"longitude":139.47381591796875,"category":"集合住宅","big_category":"住宅","description":"","image_url":"","tags":"Ver3.30(2020年2月)の追加建築","prefecture":"東京","contractor":"","structural_designer":"","landscape_designer":"","shinkenchiku_url":""},{"id":9218,"title":"東京大学 工学部11号館 HASEKO-KUMA HALL","architect":"吉武泰水+隈研吾+長谷工コーポレーション","year":1968.0,"address":"東京都文京区本郷7-3-1","latitude":35.71373748779297,"longitude":139.75946044921875,"category":"大学","big_category":"教育","description":"元設計は吉武泰水。2019年12月にHASEKO-KUMA HALLとして講堂・ラウンジのリノベーションが行われた","image_url":"","tags":"Ver3.30(2020年2月)の追加建築,新建築2020年5月号","prefecture":"東京","contractor":"","structural_designer":"","landscape_designer":"","shinkenchiku_url":""},{"id":9219,"title":"キリスト兄弟団 成増教会","architect":"磯崎新","year":1989.0,"address":"東京都練馬区旭町3-32-18","latitude":35.77763366699219,"longitude":139.6261749267578,"category":"教会","big_category":"宗教","description":"","image_url":"","tags":"Ver3.30(2020年2月)の追加建築","prefecture":"東京","contractor":"","structural_designer":"","landscape_designer":"","shinkenchiku_url":""},{"id":9220,"title":"ウィズ原宿","architect":"伊東豊雄+竹中工務店","year":2020.0,"address":"東京都渋谷区神宮前1-14-30","latitude":35.67076110839844,"longitude":139.70339965820312,"category":"テナントビル/ホール・劇場/集合住宅","big_category":"商業施設,文化施設,住宅","description":"2020年5月28日開業予定","image_url":"","tags":"Ver3.30(2020年2月)の追加建築,新建築2020年7月号","prefecture":"東京","contractor":"","structural_designer":"","landscape_designer":"","shinkenchiku_url":""},{"id":9221,"title":"クルックフィールズ ダイニング・ベーカリー／シフォン／シャルキュトリー","architect":"藤原徹平","year":2019.0,"address":"千葉県木更津市矢那2503","latitude":35.32376480102539,"longitude":139.98216247558594,"category":"観光施設/公園","big_category":"レジャー施設,レジャー施設","description":"牧場や農場といった農業施設、レストラン、アートなどが点在する施設","image_url":"","tags":"Ver3.30(2020年2月)の追加建築,新建築2020年5月号","prefecture":"千葉","contractor":"","structural_designer":"","landscape_designer":"","shinkenchiku_url":""},{"id":9222,"title":"北条SANCI","architect":"長坂常","year":2018.0,"address":"神奈川県鎌倉市小町3-8-7","latitude":35.322486877441406,"longitude":139.55914306640625,"category":"シェアオフィス","big_category":"商業施設","description":"紹介制のシェアオフィス","image_url":"","tags":"Ver3.30(2020年2月)の追加建築","prefecture":"神奈川","contractor":"","structural_designer":"","landscape_designer":"","shinkenchiku_url":""},{"id":9223,"title":"こども本の森 中之島","architect":"安藤忠雄","year":2020.0,"address":"大阪府大阪市北区中之島1-1-28","latitude":34.69301986694336,"longitude":135.50648498535156,"category":"図書館","big_category":"文化施設","description":"2020年3月1日オープン予定。安藤忠雄が設計、建設し大阪府に寄贈。5月までの土日祝日・春休み期間は要予約。平日は整理券配布","image_url":"","tags":"Ver3.30(2020年2月)の追加建築,新建築2020年9月号","prefecture":"大阪","contractor":"","structural_designer":"","landscape_designer":"","shinkenchiku_url":""},{"id":9224,"title":"ナインアワーズなんば駅","architect":"成瀬・猪熊建築設計事務所","year":2019.0,"address":"大阪府大阪市浪速区難波中2-10-70 パークスタワー3F","latitude":34.6617546081543,"longitude":135.50143432617188,"category":"ホテル","big_category":"宿泊","description":"","image_url":"","tags":"Ver3.30(2020年2月)の追加建築","prefecture":"大阪","contractor":"","structural_designer":"","landscape_designer":"","shinkenchiku_url":""},{"id":9225,"title":"小豆島のバス停 小豆島大観音前バス停","architect":"島田陽","year":2015.0,"address":"香川県小豆郡土庄町小馬越","latitude":34.51106643676758,"longitude":134.21664428710938,"category":"駅","big_category":"インフラ","description":"","image_url":"","tags":"Ver3.30(2020年2月)の追加建築","prefecture":"香川","contractor":"","structural_designer":"","landscape_designer":"","shinkenchiku_url":""},{"id":9226,"title":"東海大学自然史博物館 恐竜のはくぶつかん","architect":"山田守","year":1970.0,"address":"静岡県静岡市清水区三保2407","latitude":35.01858901977539,"longitude":138.51881408691406,"category":"博物館","big_category":"ミュージアム","description":"","image_url":"","tags":"Ver3.30(2020年2月)の追加建築","prefecture":"静岡","contractor":"","structural_designer":"","landscape_designer":"","shinkenchiku_url":""},{"id":9227,"title":"陸前高田アムウェイハウス まちの縁側","architect":"隈研吾","year":2020.0,"address":"岩手県陸前高田市高田町館の沖111","latitude":39.01449966430664,"longitude":141.62831115722656,"category":"児童施設/カフェ","big_category":"教育,商業施設","description":"","image_url":"","tags":"Ver3.30(2020年2月)の追加建築","prefecture":"岩手","contractor":"","structural_designer":"","landscape_designer":"","shinkenchiku_url":""},{"id":9228,"title":"福島県庁舎","architect":"山下寿郎","year":1954.0,"address":"福島県福島市杉妻町2-16","latitude":37.75014114379883,"longitude":140.46669006347656,"category":"庁舎","big_category":"公共施設","description":"","image_url":"","tags":"Ver3.30(2020年2月)の追加建築","prefecture":"福島","contractor":"","structural_designer":"","landscape_designer":"","shinkenchiku_url":""},{"id":9229,"title":"増上寺塔頭 宝珠院","architect":"小川真樹","year":2019.0,"address":"東京都港区芝公園4-8-55","latitude":35.65652847290039,"longitude":139.74661254882812,"category":"寺院","big_category":"宗教","description":"","image_url":"","tags":"Ver3.30(2020年2月)の追加建築","prefecture":"東京","contractor":"","structural_designer":"","landscape_designer":"","shinkenchiku_url":""},{"id":9230,"title":"龍澤寺","architect":"小川真樹","year":2017.0,"address":"東京都港区元麻布3-10-4","latitude":35.65683364868164,"longitude":139.73196411132812,"category":"寺院","big_category":"宗教","description":"","image_url":"","tags":"Ver3.30(2020年2月)の追加建築","prefecture":"東京","contractor":"","structural_designer":"","landscape_designer":"","shinkenchiku_url":""},{"id":9231,"title":"大島記念音楽堂","architect":"小川真樹","year":2014.0,"address":"神奈川県海老名市中新田1-11-13","latitude":35.44123458862305,"longitude":139.385009765625,"category":"住宅/ホール・劇場","big_category":"住宅,文化施設","description":"音楽教室","image_url":"","tags":"Ver3.30(2020年2月)の追加建築","prefecture":"神奈川","contractor":"","structural_designer":"","landscape_designer":"","shinkenchiku_url":""},{"id":9232,"title":"道往寺","architect":"小川真樹","year":2013.0,"address":"東京都港区高輪2-16-13","latitude":35.639686584472656,"longitude":139.73907470703125,"category":"寺院","big_category":"宗教","description":"","image_url":"","tags":"Ver3.30(2020年2月)の追加建築","prefecture":"東京","contractor":"","structural_designer":"","landscape_designer":"","shinkenchiku_url":""},{"id":9233,"title":"数寄屋橋交番","architect":"山下和正","year":1982.0,"address":"東京都中央区銀座4-1-2","latitude":35.672847747802734,"longitude":139.7633056640625,"category":"警察・消防署","big_category":"公共施設","description":"建て替えが決まっているとのことだが。","image_url":"","tags":"Ver3.30(2020年2月)の追加建築","prefecture":"東京","contractor":"","structural_designer":"","landscape_designer":"","shinkenchiku_url":""},{"id":9234,"title":"日本民芸館 新館","architect":"山下和正","year":1982.0,"address":"東京都目黒区駒場4-3-33","latitude":35.66082000732422,"longitude":139.67941284179688,"category":"博物館","big_category":"ミュージアム","description":"旧大広間のあった位置","image_url":"","tags":"Ver3.30(2020年2月)の追加建築","prefecture":"東京","contractor":"","structural_designer":"","landscape_designer":"","shinkenchiku_url":""},{"id":9235,"title":"日本民芸館 旧館","architect":"柳宗悦","year":1936.0,"address":"東京都目黒区駒場4-3-33","latitude":35.66081619262695,"longitude":139.67918395996094,"category":"博物館","big_category":"ミュージアム","description":"","image_url":"","tags":"Ver3.30(2020年2月)の追加建築","prefecture":"東京","contractor":"","structural_designer":"","landscape_designer":"","shinkenchiku_url":""},{"id":9236,"title":"六本木ピラミデ","architect":"山下和正","year":1991.0,"address":"東京都港区六本木6-6-9","latitude":35.66188430786133,"longitude":139.7313690185547,"category":"テナントビル","big_category":"商業施設","description":"","image_url":"","tags":"Ver3.30(2020年2月)の追加建築","prefecture":"東京","contractor":"","structural_designer":"","landscape_designer":"","shinkenchiku_url":""},{"id":9237,"title":"関東マツダ板橋本社","architect":"谷尻誠","year":2019.0,"address":"東京都板橋区大山西町3-12","latitude":35.747589111328125,"longitude":139.69825744628906,"category":"オフィスビル/店舗","big_category":"企業施設,商業施設","description":"","image_url":"","tags":"Ver3.30(2020年2月)の追加建築","prefecture":"東京","contractor":"","structural_designer":"","landscape_designer":"","shinkenchiku_url":""},{"id":9238,"title":"ラ･ストーリア馬事公苑地域交流スペース","architect":"谷尻誠","year":2019.0,"address":"東京都世田谷区上用賀4-15","latitude":35.635528564453125,"longitude":139.6313018798828,"category":"寺院","big_category":"宗教","description":"","image_url":"","tags":"Ver3.30(2020年2月)の追加建築","prefecture":"東京","contractor":"","structural_designer":"","landscape_designer":"","shinkenchiku_url":""},{"id":9239,"title":"一心寺 信徒会館 日想殿","architect":"高口恭行","year":1977.0,"address":"大阪府大阪市天王寺区逢阪2-8-69","latitude":34.65336227416992,"longitude":135.51077270507812,"category":"寺院","big_category":"宗教","description":"","image_url":"","tags":"Ver3.30(2020年2月)の追加建築","prefecture":"大阪","contractor":"","structural_designer":"","landscape_designer":"","shinkenchiku_url":""},{"id":9240,"title":"一心寺 仁王門","architect":"高口恭行","year":1997.0,"address":"大阪府大阪市天王寺区逢阪2-8-69","latitude":34.65324020385742,"longitude":135.5115203857422,"category":"寺院","big_category":"宗教","description":"","image_url":"","tags":"Ver3.30(2020年2月)の追加建築","prefecture":"大阪","contractor":"","structural_designer":"","landscape_designer":"","shinkenchiku_url":""},{"id":9241,"title":"一心寺 念彿堂","architect":"高口恭行","year":1993.0,"address":"大阪府大阪市天王寺区逢阪2-8-69","latitude":34.65333938598633,"longitude":135.51123046875,"category":"寺院","big_category":"宗教","description":"","image_url":"","tags":"Ver3.30(2020年2月)の追加建築","prefecture":"大阪","contractor":"","structural_designer":"","landscape_designer":"","shinkenchiku_url":""},{"id":9242,"title":"一心寺 三千仏堂","architect":"高口恭行","year":2002.0,"address":"大阪府大阪市天王寺区逢阪2-8-69","latitude":34.65269088745117,"longitude":135.51185607910156,"category":"寺院","big_category":"宗教","description":"","image_url":"","tags":"Ver3.30(2020年2月)の追加建築","prefecture":"大阪","contractor":"","structural_designer":"","landscape_designer":"","shinkenchiku_url":""},{"id":9243,"title":"一心寺 単信庵","architect":"高口恭行","year":1984.0,"address":"大阪府大阪市天王寺区逢阪2-8-69","latitude":34.653202056884766,"longitude":135.51181030273438,"category":"寺院","big_category":"宗教","description":"","image_url":"","tags":"Ver3.30(2020年2月)の追加建築","prefecture":"大阪","contractor":"","structural_designer":"","landscape_designer":"","shinkenchiku_url":""},{"id":9244,"title":"一心寺 庫裏 望無亭","architect":"高口恭行","year":1977.0,"address":"大阪府大阪市天王寺区逢阪2-8-69","latitude":34.65309143066406,"longitude":135.5106201171875,"category":"寺院","big_category":"宗教","description":"","image_url":"","tags":"Ver3.30(2020年2月)の追加建築","prefecture":"大阪","contractor":"","structural_designer":"","landscape_designer":"","shinkenchiku_url":""},{"id":9245,"title":"妙香院","architect":"高口恭行","year":1985.0,"address":"大阪府大阪市北区兎我野町7-6","latitude":34.69993209838867,"longitude":135.50445556640625,"category":"寺院","big_category":"宗教","description":"","image_url":"","tags":"Ver3.30(2020年2月)の追加建築","prefecture":"大阪","contractor":"","structural_designer":"","landscape_designer":"","shinkenchiku_url":""},{"id":9246,"title":"小栗栖西方寺","architect":"高口恭行","year":1990.0,"address":"京都府京都市伏見区小栗栖牛ケ淵町7","latitude":34.94963836669922,"longitude":135.8052215576172,"category":"寺院","big_category":"宗教","description":"","image_url":"","tags":"Ver3.30(2020年2月)の追加建築","prefecture":"京都","contractor":"","structural_designer":"","landscape_designer":"","shinkenchiku_url":""},{"id":9247,"title":"應典院","architect":"高口恭行","year":1997.0,"address":"大阪府大阪市天王寺区下寺町1-1-27","latitude":34.66542053222656,"longitude":135.5114288330078,"category":"寺院","big_category":"宗教","description":"","image_url":"","tags":"Ver3.30(2020年2月)の追加建築","prefecture":"大阪","contractor":"","structural_designer":"","landscape_designer":"","shinkenchiku_url":""},{"id":9248,"title":"プレステージ・インターナショナル 秋田BPO横手キャンパス","architect":"光井純+フジタ","year":2019.0,"address":"秋田県横手市柳田4-3","latitude":39.26974868774414,"longitude":140.54678344726562,"category":"低層オフィス/カフェ","big_category":"企業施設,商業施設","description":"","image_url":"","tags":"Ver3.30(2020年2月)の追加建築","prefecture":"秋田","contractor":"","structural_designer":"","landscape_designer":"","shinkenchiku_url":""},{"id":9249,"title":"ホテルカナタキョウト","architect":"光井純","year":2019.0,"address":"京都府京都市中京区土橋町14-1","latitude":35.012718200683594,"longitude":135.75225830078125,"category":"ホテル","big_category":"宿泊","description":"","image_url":"","tags":"Ver3.30(2020年2月)の追加建築","prefecture":"京都","contractor":"","structural_designer":"","landscape_designer":"","shinkenchiku_url":""},{"id":9250,"title":"温泉舎","architect":"光井純","year":2010.0,"address":"山口県山口市湯田温泉4-4-41","latitude":34.16482925415039,"longitude":131.455322265625,"category":"観光施設","big_category":"レジャー施設","description":"温泉ポンプを展示施設としている","image_url":"","tags":"Ver3.30(2020年2月)の追加建築","prefecture":"山口","contractor":"","structural_designer":"","landscape_designer":"","shinkenchiku_url":""}]}