{"page":48,"total_pages":290,"items_per_page":50,"total_items":14467,"items":[{"id":2351,"title":"兵庫県立考古博物館","architect":"昭和設計","year":2007.0,"address":"兵庫県加古郡播磨町大中1-1-1","latitude":34.725608825683594,"longitude":134.87733459472656,"category":"博物館","big_category":"ミュージアム","description":"","image_url":"","tags":"","prefecture":"兵庫","contractor":"","structural_designer":"","landscape_designer":"","shinkenchiku_url":""},{"id":2352,"title":"姫路文学館","architect":"安藤忠雄","year":1991.0,"address":"兵庫県姫路市山野井町84","latitude":34.84162902832031,"longitude":134.6882781982422,"category":"博物館","big_category":"ミュージアム","description":"","image_url":"","tags":"","prefecture":"兵庫","contractor":"","structural_designer":"","landscape_designer":"","shinkenchiku_url":""},{"id":2353,"title":"Arktecture M 兵庫県立ものづくり大学校 ものづくり体験館","architect":"遠藤秀平","year":2013.0,"address":"兵庫県姫路市市之郷1001-1","latitude":34.825008392333984,"longitude":134.70730590820312,"category":"博物館","big_category":"ミュージアム","description":"","image_url":"","tags":"","prefecture":"兵庫","contractor":"","structural_designer":"","landscape_designer":"","shinkenchiku_url":""},{"id":2354,"title":"京見会館","architect":"遠藤新","year":1941.0,"address":"兵庫県姫路市広畑区京見町3","latitude":34.812984466552734,"longitude":134.6138153076172,"category":"住宅","big_category":"住宅","description":"","image_url":"","tags":"","prefecture":"兵庫","contractor":"","structural_designer":"","landscape_designer":"","shinkenchiku_url":""},{"id":2355,"title":"姫路市水道資料館 水の館","architect":"横内敏人","year":1996.0,"address":"兵庫県姫路市豊富町豊富1863","latitude":34.898433685302734,"longitude":134.74078369140625,"category":"博物館","big_category":"ミュージアム","description":"","image_url":"","tags":"","prefecture":"兵庫","contractor":"","structural_designer":"","landscape_designer":"","shinkenchiku_url":""},{"id":2356,"title":"姫路市書写の里・美術工芸館","architect":"宮脇檀","year":1994.0,"address":"兵庫県姫路市書写1223","latitude":34.88056182861328,"longitude":134.6663360595703,"category":"博物館","big_category":"ミュージアム","description":"","image_url":"","tags":"","prefecture":"兵庫","contractor":"","structural_designer":"","landscape_designer":"","shinkenchiku_url":""},{"id":2357,"title":"兵庫県立大学工学部 書写紀念会館","architect":"東孝光","year":1995.0,"address":"兵庫県姫路市書写2167","latitude":34.877899169921875,"longitude":134.64927673339844,"category":"大学","big_category":"教育","description":"","image_url":"","tags":"","prefecture":"兵庫","contractor":"","structural_designer":"","landscape_designer":"","shinkenchiku_url":""},{"id":2358,"title":"兵庫県立歴史博物館","architect":"丹下健三","year":1982.0,"address":"兵庫県姫路市本町68","latitude":34.84125900268555,"longitude":134.69691467285156,"category":"博物館","big_category":"ミュージアム","description":"","image_url":"","tags":"","prefecture":"兵庫","contractor":"","structural_designer":"","landscape_designer":"","shinkenchiku_url":""},{"id":2359,"title":"姫路市中央保健センター","architect":"黒川紀章","year":1994.0,"address":"兵庫県姫路市坂田町3","latitude":34.83235549926758,"longitude":134.69967651367188,"category":"医療施設","big_category":"医療施設","description":"","image_url":"","tags":"","prefecture":"兵庫","contractor":"","structural_designer":"","landscape_designer":"","shinkenchiku_url":""},{"id":2360,"title":"ANGLE","architect":"早川邦彦","year":1998.0,"address":"兵庫県姫路市御国野国分寺391","latitude":34.82176208496094,"longitude":134.73336791992188,"category":"企業施設","big_category":"企業施設","description":"","image_url":"","tags":"","prefecture":"兵庫","contractor":"","structural_designer":"","landscape_designer":"","shinkenchiku_url":""},{"id":2361,"title":"シロトピア記念公園休憩所 扇観亭","architect":"黒川紀章","year":1993.0,"address":"兵庫県姫路市本町121","latitude":34.84135437011719,"longitude":134.69302368164062,"category":"公園","big_category":"レジャー施設","description":"","image_url":"","tags":"","prefecture":"兵庫","contractor":"","structural_designer":"","landscape_designer":"","shinkenchiku_url":""},{"id":2362,"title":"姫路市立美術館 旧陸軍兵器庫","architect":"不明","year":1913.0,"address":"兵庫県姫路市本町68-25","latitude":34.839473724365234,"longitude":134.69650268554688,"category":"美術館/産業遺産","big_category":"ミュージアム,近代建築/遺産","description":"","image_url":"","tags":"","prefecture":"兵庫","contractor":"","structural_designer":"","landscape_designer":"","shinkenchiku_url":""},{"id":2363,"title":"ヤマトヤシキ姫路店","architect":"村野藤吾","year":1951.0,"address":"兵庫県姫路市二階町55","latitude":34.831546783447266,"longitude":134.6920623779297,"category":"店舗","big_category":"商業施設","description":"2018年閉店、その後解体","image_url":"","tags":"","prefecture":"兵庫","contractor":"","structural_designer":"","landscape_designer":"","shinkenchiku_url":""},{"id":2364,"title":"兵庫県立こどもの館～星の子館～","architect":"安藤忠雄","year":1989.0,"address":"兵庫県姫路市青山1470-24","latitude":34.85273742675781,"longitude":134.62869262695312,"category":"児童施設","big_category":"教育","description":"","image_url":"","tags":"","prefecture":"兵庫","contractor":"","structural_designer":"","landscape_designer":"","shinkenchiku_url":""},{"id":2365,"title":"福崎町立神崎郡歴史民俗資料館","architect":"不明","year":1886.0,"address":"兵庫県神崎郡福崎町西田原1038-12","latitude":34.95802688598633,"longitude":134.7647247314453,"category":"洋館","big_category":"近代建築/遺産","description":"","image_url":"","tags":"","prefecture":"兵庫","contractor":"","structural_designer":"","landscape_designer":"","shinkenchiku_url":""},{"id":2366,"title":"曹洞宗 佛光山 喜音寺","architect":"岸和郎","year":2012.0,"address":"兵庫県宝塚市山本中2-10-16","latitude":34.81975555419922,"longitude":135.3826904296875,"category":"寺院","big_category":"宗教","description":"","image_url":"","tags":"","prefecture":"兵庫","contractor":"","structural_designer":"","landscape_designer":"","shinkenchiku_url":""},{"id":2367,"title":"宝塚温泉","architect":"安藤忠雄","year":2002.0,"address":"兵庫県宝塚市梅野町1-46","latitude":34.80474853515625,"longitude":135.34490966796875,"category":"温泉","big_category":"宿泊","description":"","image_url":"","tags":"","prefecture":"兵庫","contractor":"","structural_designer":"","landscape_designer":"","shinkenchiku_url":""},{"id":2368,"title":"ピピア庵","architect":"出江寛","year":1999.0,"address":"兵庫県宝塚市売布2-5-1","latitude":34.81557083129883,"longitude":135.36167907714844,"category":"茶室","big_category":"住宅","description":"ピピアめふ内","image_url":"","tags":"","prefecture":"兵庫","contractor":"","structural_designer":"","landscape_designer":"","shinkenchiku_url":""},{"id":2369,"title":"宝塚カトリック教会","architect":"村野藤吾","year":1966.0,"address":"兵庫県宝塚市南口1-7-7","latitude":34.80217361450195,"longitude":135.34622192382812,"category":"教会","big_category":"宗教","description":"","image_url":"","tags":"","prefecture":"兵庫","contractor":"","structural_designer":"","landscape_designer":"","shinkenchiku_url":""},{"id":2370,"title":"宝塚市庁舎","architect":"村野藤吾","year":1980.0,"address":"兵庫県宝塚市東洋町1-1","latitude":34.7998161315918,"longitude":135.36009216308594,"category":"庁舎","big_category":"公共施設","description":"","image_url":"","tags":"","prefecture":"兵庫","contractor":"","structural_designer":"","landscape_designer":"","shinkenchiku_url":""},{"id":2371,"title":"西村屋 ホテル招月庭","architect":"天藤久雄+竹山聖","year":2002.0,"address":"兵庫県豊岡市城崎町湯島1016-2","latitude":35.628456115722656,"longitude":134.79949951171875,"category":"ホテル","big_category":"宿泊","description":"2011年竹山聖により改修","image_url":"","tags":"","prefecture":"兵庫","contractor":"","structural_designer":"","landscape_designer":"","shinkenchiku_url":""},{"id":2372,"title":"城崎マリンワールド","architect":"田岡陽一","year":2000.0,"address":"兵庫県豊岡市瀬戸1090","latitude":35.65587615966797,"longitude":134.82408142089844,"category":"水族館","big_category":"レジャー施設","description":"","image_url":"","tags":"","prefecture":"兵庫","contractor":"","structural_designer":"","landscape_designer":"","shinkenchiku_url":""},{"id":2373,"title":"豊岡市役所竹野総合支所","architect":"昭和設計","year":null,"address":"兵庫県豊岡市竹野町竹野1585-1","latitude":35.649959564208984,"longitude":134.7577362060547,"category":"庁舎","big_category":"公共施設","description":"","image_url":"","tags":"","prefecture":"兵庫","contractor":"","structural_designer":"","landscape_designer":"","shinkenchiku_url":""},{"id":2374,"title":"出石明治館 旧出石気多郡役所","architect":"不明","year":1887.0,"address":"兵庫県豊岡市出石町魚屋50","latitude":35.4621696472168,"longitude":134.876953125,"category":"洋館","big_category":"近代建築/遺産","description":"","image_url":"","tags":"","prefecture":"兵庫","contractor":"","structural_designer":"","landscape_designer":"","shinkenchiku_url":""},{"id":2375,"title":"斉藤隆夫記念館 静思堂","architect":"宮脇檀","year":1983.0,"address":"兵庫県豊岡市出石町中村","latitude":35.44551467895508,"longitude":134.8526153564453,"category":"博物館","big_category":"ミュージアム","description":"","image_url":"","tags":"","prefecture":"兵庫","contractor":"","structural_designer":"","landscape_designer":"","shinkenchiku_url":""},{"id":2376,"title":"植村直己冒険館","architect":"栗生明","year":1994.0,"address":"兵庫県豊岡市日高町伊府785","latitude":35.46131134033203,"longitude":134.7320556640625,"category":"博物館","big_category":"ミュージアム","description":"","image_url":"","tags":"1996年日本建築学会 作品賞,公共建築百選,2023年JIA25年賞 登録作品","prefecture":"兵庫","contractor":"大林組","structural_designer":"","landscape_designer":"","shinkenchiku_url":""},{"id":2377,"title":"但馬国府・国分寺館","architect":"栗生明","year":2004.0,"address":"兵庫県豊岡市日高町祢布808","latitude":35.46973419189453,"longitude":134.76748657226562,"category":"博物館","big_category":"ミュージアム","description":"","image_url":"","tags":"","prefecture":"兵庫","contractor":"","structural_designer":"","landscape_designer":"","shinkenchiku_url":""},{"id":2378,"title":"豊岡市出石支所 旧出石町役場","architect":"宮脇檀","year":1993.0,"address":"兵庫県豊岡市出石町内町1","latitude":35.461788177490234,"longitude":134.87469482421875,"category":"庁舎","big_category":"公共施設","description":"","image_url":"","tags":"","prefecture":"兵庫","contractor":"","structural_designer":"","landscape_designer":"","shinkenchiku_url":""},{"id":2379,"title":"兵庫県立但馬ドーム","architect":"仙田満","year":1998.0,"address":"兵庫県豊岡市日高町名色88-50","latitude":35.49113464355469,"longitude":134.68446350097656,"category":"スタジアム","big_category":"レジャー施設","description":"","image_url":"","tags":"","prefecture":"兵庫","contractor":"","structural_designer":"","landscape_designer":"","shinkenchiku_url":""},{"id":2380,"title":"出石文化会館 ひぼこホール","architect":"いるか設計集団","year":1992.0,"address":"兵庫県豊岡市出石町水上318","latitude":35.47349548339844,"longitude":134.869140625,"category":"ホール・劇場","big_category":"文化施設","description":"取壊済み","image_url":"","tags":"","prefecture":"兵庫","contractor":"","structural_designer":"","landscape_designer":"","shinkenchiku_url":""},{"id":2381,"title":"伊藤清永美術館","architect":"宮脇檀","year":1993.0,"address":"兵庫県豊岡市出石町内町98","latitude":35.46165084838867,"longitude":134.87290954589844,"category":"美術館","big_category":"ミュージアム","description":"","image_url":"","tags":"","prefecture":"兵庫","contractor":"","structural_designer":"","landscape_designer":"","shinkenchiku_url":""},{"id":2382,"title":"辰鼓楼","architect":"不明","year":1871.0,"address":"兵庫県豊岡市出石町下谷6","latitude":35.4621696472168,"longitude":134.87428283691406,"category":"公共施設/遺跡","big_category":"公共施設,近代建築/遺産","description":"","image_url":"","tags":"","prefecture":"兵庫","contractor":"","structural_designer":"","landscape_designer":"","shinkenchiku_url":""},{"id":2383,"title":"かんなべ湯の森 ゆとろぎ","architect":"象設計集団","year":1994.0,"address":"兵庫県豊岡市日高町栗栖野60-1","latitude":35.50032043457031,"longitude":134.6744842529297,"category":"温泉","big_category":"宿泊","description":"2013年8月閉鎖。取り壊されたかどうかは不明","image_url":"","tags":"","prefecture":"兵庫","contractor":"","structural_designer":"","landscape_designer":"","shinkenchiku_url":""},{"id":2384,"title":"兵庫県立大学看護学部","architect":"安藤忠雄","year":1993.0,"address":"兵庫県明石市北王子町13-71","latitude":34.6596565246582,"longitude":134.98036193847656,"category":"学校","big_category":"教育","description":"","image_url":"","tags":"","prefecture":"兵庫","contractor":"","structural_designer":"","landscape_designer":"","shinkenchiku_url":""},{"id":2385,"title":"子午線ライン明石船客ターミナル","architect":"岸和郎","year":2003.0,"address":"兵庫県明石市本町2-10-1","latitude":34.645328521728516,"longitude":134.990234375,"category":"港","big_category":"インフラ","description":"","image_url":"","tags":"","prefecture":"兵庫","contractor":"","structural_designer":"","landscape_designer":"","shinkenchiku_url":""},{"id":2386,"title":"養父市大屋市民センター・大屋地域局","architect":"日本設計","year":2005.0,"address":"兵庫県養父市大屋町大屋市場20-1","latitude":35.33335876464844,"longitude":134.66525268554688,"category":"公民館・交流施設","big_category":"公共施設","description":"","image_url":"","tags":"","prefecture":"兵庫","contractor":"","structural_designer":"","landscape_designer":"","shinkenchiku_url":""},{"id":2387,"title":"うすくち龍野醤油資料館","architect":"不明","year":null,"address":"兵庫県たつの市龍野町大手54-1","latitude":34.86654281616211,"longitude":134.54574584960938,"category":"洋館","big_category":"近代建築/遺産","description":"","image_url":"","tags":"","prefecture":"兵庫","contractor":"","structural_designer":"","landscape_designer":"","shinkenchiku_url":""},{"id":2388,"title":"Junko Fukutake Hall 岡山大学 Jホール","architect":"SANAA","year":2013.0,"address":"岡山県岡山市北区鹿田町二-5-1","latitude":34.65199279785156,"longitude":133.91929626464844,"category":"ホール・劇場","big_category":"文化施設","description":"","image_url":"","tags":"新建築2014年1月号","prefecture":"岡山","contractor":"鹿島建設","structural_designer":"佐々木睦朗構造計画研究所","landscape_designer":"","shinkenchiku_url":"https://data.shinkenchiku.online/articles/SK_2014_01_104-0"},{"id":2389,"title":"建部国際交流ヴィラ","architect":"石山修武","year":1990.0,"address":"岡山県岡山市北区建部町建部上586","latitude":34.861572265625,"longitude":133.90667724609375,"category":"ホテル","big_category":"宿泊","description":"閉館中。建築は取り壊された様子","image_url":"","tags":"","prefecture":"岡山","contractor":"","structural_designer":"","landscape_designer":"","shinkenchiku_url":""},{"id":2390,"title":"岡山県生涯学習センター ぱるネット岡山","architect":"芦原義信+芦原太郎","year":1996.0,"address":"岡山県岡山市北区伊島町3-1-1","latitude":34.6763916015625,"longitude":133.90765380859375,"category":"総合文化施設/図書館","big_category":"文化施設,文化施設","description":"","image_url":"","tags":"","prefecture":"岡山","contractor":"","structural_designer":"","landscape_designer":"","shinkenchiku_url":""},{"id":2391,"title":"アートガーデン","architect":"竹中工務店","year":2002.0,"address":"岡山県岡山市北区富町1-8-6","latitude":34.66703414916992,"longitude":133.90870666503906,"category":"美術館/ギャラリー","big_category":"ミュージアム,ミュージアム","description":"「本年中（2016年？）で休業する」との記載あり","image_url":"","tags":"第1回芦原義信賞","prefecture":"岡山","contractor":"","structural_designer":"","landscape_designer":"","shinkenchiku_url":""},{"id":2392,"title":"林原美術館","architect":"前川國男","year":1964.0,"address":"岡山県岡山市北区丸の内2-7-15","latitude":34.663509368896484,"longitude":133.93331909179688,"category":"美術館","big_category":"ミュージアム","description":"","image_url":"","tags":"","prefecture":"岡山","contractor":"","structural_designer":"","landscape_designer":"","shinkenchiku_url":""},{"id":2393,"title":"ノートルダム清心女子大学 中央棟","architect":"村上徹","year":1996.0,"address":"岡山県岡山市北区伊福町2-16-9","latitude":34.67274856567383,"longitude":133.91627502441406,"category":"大学","big_category":"教育","description":"","image_url":"","tags":"","prefecture":"岡山","contractor":"","structural_designer":"","landscape_designer":"","shinkenchiku_url":""},{"id":2394,"title":"ノートルダム清心女子大学 附属幼稚園絵本の部屋","architect":"村上徹","year":1996.0,"address":"岡山県岡山市北区伊福町2-16-9","latitude":34.67250061035156,"longitude":133.9158477783203,"category":"幼稚園","big_category":"教育","description":"","image_url":"","tags":"","prefecture":"岡山","contractor":"","structural_designer":"","landscape_designer":"","shinkenchiku_url":""},{"id":2395,"title":"岡山市水道記念館","architect":"不明","year":1905.0,"address":"岡山県岡山市三野1-2-1","latitude":34.68972396850586,"longitude":133.9351043701172,"category":"洋館","big_category":"近代建築/遺産","description":"","image_url":"","tags":"","prefecture":"岡山","contractor":"","structural_designer":"","landscape_designer":"","shinkenchiku_url":""},{"id":2396,"title":"朝日新聞岡山支局","architect":"安藤忠雄","year":1999.0,"address":"岡山県岡山市北区野田屋町1-12-11","latitude":34.666954040527344,"longitude":133.92588806152344,"category":"企業施設","big_category":"企業施設","description":"","image_url":"","tags":"","prefecture":"岡山","contractor":"","structural_designer":"","landscape_designer":"","shinkenchiku_url":""},{"id":2397,"title":"岡山シンフォニーホール","architect":"芦原義信+アール・アイ・エー","year":1991.0,"address":"岡山県岡山市北区表町1-5-1","latitude":34.66514587402344,"longitude":133.92994689941406,"category":"ホール・劇場","big_category":"文化施設","description":"","image_url":"","tags":"2017年JIA25年賞 登録作品","prefecture":"岡山","contractor":"","structural_designer":"","landscape_designer":"","shinkenchiku_url":""},{"id":2398,"title":"朝日医療専門学校 岡山校 旧まつもとコーポレーション新本社屋","architect":"デイビッド・チッパーフィールド","year":1992.0,"address":"岡山県岡山市北区絵図町1-40","latitude":34.676246643066406,"longitude":133.9203338623047,"category":"専門学校","big_category":"教育","description":"","image_url":"","tags":"","prefecture":"岡山","contractor":"","structural_designer":"","landscape_designer":"","shinkenchiku_url":""},{"id":2399,"title":"ルネスホール 旧日本銀行岡山支店","architect":"長野宇平治","year":1922.0,"address":"岡山県岡山市北区内山下1-6-20","latitude":34.66153335571289,"longitude":133.9309539794922,"category":"博物館/金融機関","big_category":"ミュージアム,企業施設","description":"","image_url":"","tags":"","prefecture":"岡山","contractor":"","structural_designer":"","landscape_designer":"","shinkenchiku_url":""},{"id":2400,"title":"岡山県立美術館","architect":"岡田新一","year":1987.0,"address":"岡山県岡山市北区天神町8-48","latitude":34.66767120361328,"longitude":133.929931640625,"category":"美術館","big_category":"ミュージアム","description":"","image_url":"","tags":"2013年JIA25年賞","prefecture":"岡山","contractor":"大林・鹿島・まつもとJV","structural_designer":"","landscape_designer":"","shinkenchiku_url":""}]}