{"page":290,"total_pages":290,"items_per_page":50,"total_items":14467,"items":[{"id":14451,"title":"MARUWA 瀬戸工場","architect":"ゲンスラー+竹中工務店","year":2023.0,"address":"愛知県瀬戸市幡中町","latitude":35.19625473022461,"longitude":137.07652282714844,"category":"工場","big_category":"企業施設","description":"デザイン監修：ゲンスラー","image_url":"","tags":"Ver5.60(2025年2月)の追加建築","prefecture":"愛知","contractor":"竹中工務店","structural_designer":"アラップ","landscape_designer":"","shinkenchiku_url":""},{"id":14452,"title":"竹山団地研究所 竹山セントラル/竹山エアラボ","architect":"一色ヒロタカ+塩脇祥","year":2024.0,"address":"神奈川県横浜市緑区竹山3-1-7","latitude":35.4978141784668,"longitude":139.5623016357422,"category":"公民館・交流施設/スポーツ施設","big_category":"公共施設,レジャー施設","description":"竹山中央商店街の空き店舗を改修。クレジット：一色ヒロタカ＋塩脇祥＋irodori＋神奈川大学建築学部まち再生コース","image_url":"","tags":"新建築2025年2月号,Ver5.60(2025年2月)の追加建築","prefecture":"神奈川","contractor":"","structural_designer":"","landscape_designer":"","shinkenchiku_url":""},{"id":14453,"title":"坂道のアパートメント SWiTCH","architect":"徳田慎一+色景一級建築士事務所","year":2022.0,"address":"東京都目黒区目黒1-3-23","latitude":35.635555267333984,"longitude":139.712890625,"category":"集合住宅","big_category":"住宅","description":"","image_url":"","tags":"新建築2025年2月号,Ver5.60(2025年2月)の追加建築","prefecture":"東京","contractor":"","structural_designer":"","landscape_designer":"","shinkenchiku_url":""},{"id":14454,"title":"風の道テラス","architect":"成瀬・猪熊建築設計事務所","year":2024.0,"address":"東京都新宿区中井2-19-10","latitude":35.716163635253906,"longitude":139.68435668945312,"category":"集合住宅","big_category":"住宅","description":"","image_url":"","tags":"新建築2025年2月号,Ver5.60(2025年2月)の追加建築","prefecture":"東京","contractor":"","structural_designer":"","landscape_designer":"","shinkenchiku_url":""},{"id":14455,"title":"蓮沼町のアパートメント リュエル","architect":"MMAAA","year":2024.0,"address":"東京都板橋区蓮沼町18-1","latitude":35.76848220825195,"longitude":139.7042694091797,"category":"集合住宅","big_category":"住宅","description":"","image_url":"","tags":"新建築2025年2月号,Ver5.60(2025年2月)の追加建築","prefecture":"東京","contractor":"白石建設","structural_designer":"オーノJAPAN","landscape_designer":"","shinkenchiku_url":""},{"id":14456,"title":"県営引野住宅101号館","architect":"前田圭介+村田相互設計","year":2024.0,"address":"広島県福山市引野町南1-32-4","latitude":34.488983154296875,"longitude":133.4153289794922,"category":"集合住宅","big_category":"住宅","description":"","image_url":"","tags":"新建築2025年2月号,Ver5.60(2025年2月)の追加建築","prefecture":"広島","contractor":"","structural_designer":"","landscape_designer":"","shinkenchiku_url":""},{"id":14457,"title":"emCAMPUS WEST棟","architect":"北山孝二郎+アール・アイ・エー","year":2024.0,"address":"愛知県豊橋市駅前大通2-82","latitude":34.76272201538086,"longitude":137.38629150390625,"category":"集合住宅/モール","big_category":"住宅,商業施設","description":"","image_url":"","tags":"新建築2025年2月号,Ver5.60(2025年2月)の追加建築","prefecture":"愛知","contractor":"鹿島建設","structural_designer":"","landscape_designer":"","shinkenchiku_url":""},{"id":14458,"title":"サラブレッド牧場の建築群 レースホース牧場 パドックの家/ガレージ棟/牧場のスタッフ住居/牧場のロッジア/丘の家","architect":"宮城島崇人","year":2017.0,"address":"北海道日高郡新ひだか町三石歌笛382","latitude":42.30093765258789,"longitude":142.67803955078125,"category":"集合住宅","big_category":"住宅","description":"2017-2025にかけて牧場の施設","image_url":"","tags":"新建築2025年2月号,Ver5.60(2025年2月)の追加建築","prefecture":"北海道","contractor":"","structural_designer":"","landscape_designer":"","shinkenchiku_url":""},{"id":14459,"title":"dots n 野田尾交流施設 皆来","architect":"阿曽芙実","year":2024.0,"address":"兵庫県淡路市野田尾648-3","latitude":34.467769622802734,"longitude":134.91329956054688,"category":"公民館・交流施設/店舗","big_category":"公共施設,商業施設","description":"","image_url":"","tags":"新建築2025年2月号,Ver5.60(2025年2月)の追加建築","prefecture":"兵庫","contractor":"","structural_designer":"","landscape_designer":"","shinkenchiku_url":""},{"id":14460,"title":"日貫一日 MARIE","architect":"湯浅良介","year":2024.0,"address":"島根県邑智郡邑南町日貫3080-1","latitude":34.88436508178711,"longitude":132.3579864501953,"category":"コテージ","big_category":"宿泊","description":"","image_url":"","tags":"新建築2025年2月号,Ver5.60(2025年2月)の追加建築","prefecture":"島根","contractor":"","structural_designer":"","landscape_designer":"","shinkenchiku_url":""},{"id":14461,"title":"パークタウンホーム","architect":"五十嵐淳","year":2024.0,"address":"北海道札幌市東区北40条東14-4-21","latitude":43.11024856567383,"longitude":141.36526489257812,"category":"福祉センター/養護施設","big_category":"医療施設,医療施設","description":"","image_url":"","tags":"新建築2025年2月号,Ver5.60(2025年2月)の追加建築","prefecture":"北海道","contractor":"","structural_designer":"","landscape_designer":"","shinkenchiku_url":""},{"id":14462,"title":"ルフォミ江ケ崎","architect":"チームネット","year":2024.0,"address":"神奈川県横浜市鶴見区江ケ崎町230","latitude":35.53215408325195,"longitude":139.6761932373047,"category":"寮","big_category":"住宅","description":"","image_url":"","tags":"新建築2025年2月号,Ver5.60(2025年2月)の追加建築","prefecture":"神奈川","contractor":"鹿島建設","structural_designer":"K&K構造設計","landscape_designer":"","shinkenchiku_url":""},{"id":14463,"title":"AOI CELESTIE COFFEE ROASTERY","architect":"永山祐子","year":2025.0,"address":"愛知県名古屋市東区東桜2-17-22","latitude":35.170902252197266,"longitude":136.9190216064453,"category":"カフェ","big_category":"商業施設","description":"","image_url":"","tags":"Ver5.60(2025年2月)の追加建築","prefecture":"愛知","contractor":"","structural_designer":"","landscape_designer":"","shinkenchiku_url":""},{"id":14464,"title":"日本近代文学館","architect":"竹中工務店","year":1966.0,"address":"東京都目黒区駒場4-3-55","latitude":35.66279983520508,"longitude":139.68092346191406,"category":"博物館","big_category":"ミュージアム","description":"","image_url":"","tags":"Ver5.60(2025年2月)の追加建築","prefecture":"東京","contractor":"","structural_designer":"","landscape_designer":"","shinkenchiku_url":""},{"id":14465,"title":"スカイステップスビルディング","architect":"椎名英三","year":1988.0,"address":"東京都渋谷区上原2-30-1","latitude":35.66392517089844,"longitude":139.6807403564453,"category":"オフィスビル","big_category":"企業施設","description":"","image_url":"","tags":"Ver5.60(2025年2月)の追加建築","prefecture":"東京","contractor":"","structural_designer":"","landscape_designer":"","shinkenchiku_url":""},{"id":14466,"title":"富ヶ谷2丁目計画2 MIYAKE DESIGN STUDIO","architect":"安藤忠雄","year":2024.0,"address":"東京都渋谷区富ケ谷2-17","latitude":35.6636962890625,"longitude":139.6846923828125,"category":"低層オフィス","big_category":"企業施設","description":"","image_url":"","tags":"Ver5.60(2025年2月)の追加建築","prefecture":"東京","contractor":"","structural_designer":"","landscape_designer":"","shinkenchiku_url":""},{"id":14467,"title":"東海大学 渋谷キャンパス 4号館","architect":"山田守","year":1960.0,"address":"東京都渋谷区富ケ谷2-28-4","latitude":35.66465759277344,"longitude":139.6840057373047,"category":"大学","big_category":"教育","description":"","image_url":"","tags":"Ver5.60(2025年2月)の追加建築","prefecture":"東京","contractor":"","structural_designer":"","landscape_designer":"","shinkenchiku_url":""}]}