{"page":15,"total_pages":290,"items_per_page":50,"total_items":14467,"items":[{"id":701,"title":"佐倉市役所庁舎","architect":"黒川紀章","year":1971.0,"address":"千葉県佐倉市海隣寺町97","latitude":35.722618103027344,"longitude":140.22427368164062,"category":"庁舎","big_category":"公共施設","description":"","image_url":"","tags":"DOCOMOMO","prefecture":"千葉","contractor":"","structural_designer":"","landscape_designer":"","shinkenchiku_url":""},{"id":702,"title":"佐倉市立美術館 旧川崎銀行佐倉支店","architect":"坂倉建築研究所+矢部又吉","year":1918.0,"address":"千葉県佐倉市新町210","latitude":35.71915054321289,"longitude":140.2296142578125,"category":"洋館/金融機関","big_category":"近代建築/遺産,企業施設","description":"旧川崎銀行佐倉支店の奥に美術館を新築。ファサード部は1918年竣工、矢部又吉設計。","image_url":"","tags":"","prefecture":"千葉","contractor":"","structural_designer":"","landscape_designer":"","shinkenchiku_url":""},{"id":703,"title":"佐倉市立下志津小学校","architect":"原広司","year":1967.0,"address":"千葉県佐倉市中志津4-26-10","latitude":35.7091178894043,"longitude":140.15821838378906,"category":"学校","big_category":"教育","description":"解体済み?","image_url":"","tags":"","prefecture":"千葉","contractor":"","structural_designer":"","landscape_designer":"","shinkenchiku_url":""},{"id":704,"title":"DIC川村記念美術館","architect":"海老原一郎","year":1990.0,"address":"千葉県佐倉市坂戸631","latitude":35.655181884765625,"longitude":140.22279357910156,"category":"美術館","big_category":"ミュージアム","description":"","image_url":"https://lh3.googleusercontent.com/-oNiwIYzHSW4/T4kCmYDx4jI/AAAAAAAAKMg/MFnxHttZWeE/s1024/P4127548.jpg","tags":"","prefecture":"千葉","contractor":"","structural_designer":"","landscape_designer":"","shinkenchiku_url":""},{"id":705,"title":"ユーカリが丘教会+光の子児童センター","architect":"設計組織ADH","year":2000.0,"address":"千葉県佐倉市ユーカリが丘1-34-5","latitude":35.7337760925293,"longitude":140.1602020263672,"category":"教会/児童施設","big_category":"宗教,教育","description":"","image_url":"https://lh3.googleusercontent.com/-FFvl5_lKlic/T4kFA_vPZMI/AAAAAAAAKSE/fOBrq0vRZAI/s1024/P4127751.jpg","tags":"新建築2001年2月号","prefecture":"千葉","contractor":"","structural_designer":"","landscape_designer":"","shinkenchiku_url":""},{"id":706,"title":"四街道市南部総合福祉センター わろうべの里","architect":"佐藤総合計画","year":2003.0,"address":"千葉県四街道市和良比635-4","latitude":35.652286529541016,"longitude":140.16839599609375,"category":"福祉センター","big_category":"医療施設","description":"","image_url":"","tags":"","prefecture":"千葉","contractor":"","structural_designer":"","landscape_designer":"","shinkenchiku_url":""},{"id":707,"title":"市川市木内ギャラリー 旧木内重四郎邸","architect":"不明","year":null,"address":"千葉県市川市真間4-11-4","latitude":35.73997497558594,"longitude":139.90545654296875,"category":"洋館","big_category":"近代建築/遺産","description":"","image_url":"","tags":"","prefecture":"千葉","contractor":"","structural_designer":"","landscape_designer":"","shinkenchiku_url":""},{"id":708,"title":"市原湖畔美術館 旧市原市水と彫刻の丘","architect":"カワグチテイ建築計画","year":2013.0,"address":"千葉県市原市不入75-1","latitude":35.34930419921875,"longitude":140.16064453125,"category":"美術館","big_category":"ミュージアム","description":"2013年にリニューアルオープン","image_url":"","tags":"","prefecture":"千葉","contractor":"","structural_designer":"","landscape_designer":"","shinkenchiku_url":""},{"id":709,"title":"アートハウスあそうばらの谷","architect":"不明","year":null,"address":"千葉県市原市朝生原1083-1","latitude":35.26286315917969,"longitude":140.15771484375,"category":"美術館","big_category":"ミュージアム","description":"","image_url":"","tags":"","prefecture":"千葉","contractor":"","structural_designer":"","landscape_designer":"","shinkenchiku_url":""},{"id":710,"title":"鐵の家ギャラリー ナチュラルシーム","architect":"遠藤政樹","year":2004.0,"address":"千葉県市川市中山3-14-14","latitude":35.719390869140625,"longitude":139.9508056640625,"category":"ギャラリー/住宅","big_category":"ミュージアム,住宅","description":"催しがある場合にのみ公開","image_url":"","tags":"","prefecture":"千葉","contractor":"","structural_designer":"","landscape_designer":"","shinkenchiku_url":""},{"id":711,"title":"回向院 市川別院","architect":"河原泰","year":2009.0,"address":"千葉県市川市国府台5-26-12","latitude":35.75333786010742,"longitude":139.90179443359375,"category":"寺院","big_category":"宗教","description":"","image_url":"","tags":"","prefecture":"千葉","contractor":"","structural_designer":"","landscape_designer":"","shinkenchiku_url":""},{"id":712,"title":"旧徳川家住宅松戸戸定邸","architect":"不明","year":1884.0,"address":"千葉県松戸市松戸642-1","latitude":35.77764892578125,"longitude":139.89892578125,"category":"和風住宅","big_category":"住宅","description":"","image_url":"","tags":"","prefecture":"千葉","contractor":"","structural_designer":"","landscape_designer":"","shinkenchiku_url":""},{"id":713,"title":"後藤美術館","architect":"デイビッド・チッパーフィールド","year":1990.0,"address":"千葉県松戸市新松戸7-21","latitude":35.82808303833008,"longitude":139.9043731689453,"category":"住宅","big_category":"住宅","description":"売りに出されていた模様","image_url":"","tags":"","prefecture":"千葉","contractor":"","structural_designer":"","landscape_designer":"","shinkenchiku_url":""},{"id":714,"title":"旧学習院初等科正堂","architect":"新家孝正","year":1899.0,"address":"千葉県成田市大竹 旧学習院初等科正堂","latitude":35.81953048706055,"longitude":140.27549743652344,"category":"洋館","big_category":"近代建築/遺産","description":"","image_url":"","tags":"","prefecture":"千葉","contractor":"","structural_designer":"","landscape_designer":"","shinkenchiku_url":""},{"id":715,"title":"三里塚教会","architect":"吉村順三","year":1954.0,"address":"千葉県成田市三里塚47-2","latitude":35.7473258972168,"longitude":140.37594604492188,"category":"教会","big_category":"宗教","description":"","image_url":"","tags":"","prefecture":"千葉","contractor":"","structural_designer":"","landscape_designer":"","shinkenchiku_url":""},{"id":716,"title":"千葉市立打瀬小学校","architect":"シーラカンスアンドアソシエイツ","year":1995.0,"address":"千葉県千葉市美浜区打瀬1-3-1","latitude":35.6420783996582,"longitude":140.0473175048828,"category":"学校","big_category":"教育","description":"日本建築学会 作品賞受賞者名：小嶋一浩、工藤和美、小泉雅生、堀場弘","image_url":"https://farm6.staticflickr.com/5195/14019390297_74a4f3d335_h.jpg","tags":"1997年日本建築学会 作品賞","prefecture":"千葉","contractor":"","structural_designer":"","landscape_designer":"","shinkenchiku_url":""},{"id":717,"title":"幕張ベイタウン・パティオス11番街","architect":"スティーヴン・ホール+曽根幸一+鹿島建設","year":1994.0,"address":"千葉県千葉市美浜区打瀬2-","latitude":35.640113830566406,"longitude":140.04588317871094,"category":"集合住宅","big_category":"住宅","description":"","image_url":"https://lh3.googleusercontent.com/-q8XL4yrJIUI/U55jw36PXJI/AAAAAAABOJ4/shEwmTigxhc/s1024/lr-2265288.jpg","tags":"","prefecture":"千葉","contractor":"","structural_designer":"","landscape_designer":"","shinkenchiku_url":""},{"id":718,"title":"千葉市立美浜打瀬小学校","architect":"シーラカンスアンドアソシエイツ","year":2006.0,"address":"千葉県千葉市美浜区打瀬2-18-1","latitude":35.63799285888672,"longitude":140.04470825195312,"category":"学校","big_category":"教育","description":"","image_url":"https://farm3.staticflickr.com/2909/14205863714_21df48c985_h.jpg","tags":"2009年日本建築学会 作品選奨","prefecture":"千葉","contractor":"","structural_designer":"","landscape_designer":"","shinkenchiku_url":""},{"id":719,"title":"日本IBM幕張テクニカルセンター","architect":"谷口吉生","year":1991.0,"address":"千葉県千葉市美浜区中瀬1-1","latitude":35.65305709838867,"longitude":140.043212890625,"category":"企業施設","big_category":"企業施設","description":"","image_url":"","tags":"2017年JIA25年賞 登録作品","prefecture":"千葉","contractor":"","structural_designer":"","landscape_designer":"","shinkenchiku_url":""},{"id":720,"title":"ジェトロ・アジア経済研究所","architect":"日建設計","year":1999.0,"address":"千葉県千葉市美浜区若葉3-2-2","latitude":35.64929962158203,"longitude":140.04800415039062,"category":"研究施設","big_category":"教育","description":"","image_url":"","tags":"","prefecture":"千葉","contractor":"","structural_designer":"","landscape_designer":"","shinkenchiku_url":""},{"id":721,"title":"幕張インターナショナルスクール","architect":"シーラカンスアンドアソシエイツ","year":2009.0,"address":"千葉県千葉市美浜区若葉3-2-9","latitude":35.64809036254883,"longitude":140.04928588867188,"category":"学校","big_category":"教育","description":"2016年シーラカンスアンドアソシエイツ設計により体育館棟、学習支援教室棟、予備教室棟を増築","image_url":"","tags":"2011年日本建築学会 作品選奨","prefecture":"千葉","contractor":"","structural_designer":"","landscape_designer":"","shinkenchiku_url":""},{"id":722,"title":"幕張メッセ","architect":"槇文彦","year":1989.0,"address":"千葉県千葉市美浜区中瀬2-1","latitude":35.64748764038086,"longitude":140.03512573242188,"category":"展示・会議場","big_category":"公共施設","description":"","image_url":"https://lh3.googleusercontent.com/--LNZTxkD5pw/U55tbJ9NPhI/AAAAAAABO90/e6q99WiD0k4/s1024/lr-2265247.jpg","tags":"公共建築百選,東京2020オリンピック競技会場","prefecture":"千葉","contractor":"","structural_designer":"","landscape_designer":"","shinkenchiku_url":""},{"id":723,"title":"幕張ベイタウン・パティオス4番街","architect":"坂本一成+松永安光","year":1995.0,"address":"千葉県千葉市美浜区打瀬2-6","latitude":35.64162826538086,"longitude":140.044921875,"category":"集合住宅","big_category":"住宅","description":"","image_url":"","tags":"","prefecture":"千葉","contractor":"","structural_designer":"","landscape_designer":"","shinkenchiku_url":""},{"id":724,"title":"千葉市美浜文化ホール・美浜保健福祉センター","architect":"小泉雅生","year":2007.0,"address":"千葉県千葉市美浜区真砂5-15-2","latitude":35.641075134277344,"longitude":140.0625457763672,"category":"総合文化施設","big_category":"文化施設","description":"","image_url":"","tags":"","prefecture":"千葉","contractor":"","structural_designer":"","landscape_designer":"","shinkenchiku_url":""},{"id":725,"title":"幕張ベイタウン・コア","architect":"高谷時彦","year":2002.0,"address":"千葉県千葉市美浜区打瀬2-13","latitude":35.64008331298828,"longitude":140.0470733642578,"category":"ホール・劇場","big_category":"文化施設","description":"","image_url":"https://farm3.staticflickr.com/2896/14211323867_dfd7e8a959_h.jpg","tags":"","prefecture":"千葉","contractor":"","structural_designer":"","landscape_designer":"","shinkenchiku_url":""},{"id":726,"title":"千葉市美術館・中央区役所 旧川崎銀行千葉支店","architect":"大谷幸夫+矢部又吉","year":1994.0,"address":"千葉県千葉市中央区中央3-10-8","latitude":35.60900115966797,"longitude":140.1245880126953,"category":"美術館/庁舎","big_category":"ミュージアム,公共施設","description":"ファサード部分は1927年竣工、矢部又吉設計を保存","image_url":"","tags":"公共建築百選","prefecture":"千葉","contractor":"","structural_designer":"","landscape_designer":"","shinkenchiku_url":""},{"id":727,"title":"千葉大学 ゐのはな記念講堂","architect":"槇文彦+竹中工務店","year":1962.0,"address":"千葉県千葉市中央区亥鼻1-8","latitude":35.605743408203125,"longitude":140.12966918945312,"category":"大学","big_category":"教育","description":"2014年に改修","image_url":"","tags":"新建築2014年10月号","prefecture":"千葉","contractor":"","structural_designer":"","landscape_designer":"","shinkenchiku_url":"https://data.shinkenchiku.online/articles/SK_2014_10_092-0"},{"id":728,"title":"千葉県文化会館","architect":"大高正人","year":1968.0,"address":"千葉県千葉市中央区市場町11-2","latitude":35.60380172729492,"longitude":140.12783813476562,"category":"ホール・劇場","big_category":"文化施設","description":"","image_url":"","tags":"1967年日本建築学会 作品賞,公共建築百選","prefecture":"千葉","contractor":"","structural_designer":"","landscape_designer":"","shinkenchiku_url":""},{"id":729,"title":"千葉県立中央図書館","architect":"大高正人","year":1968.0,"address":"千葉県千葉市中央区市場町11-1","latitude":35.60328674316406,"longitude":140.12576293945312,"category":"図書館","big_category":"文化施設","description":"","image_url":"","tags":"DOCOMOMO","prefecture":"千葉","contractor":"","structural_designer":"","landscape_designer":"","shinkenchiku_url":""},{"id":730,"title":"千葉県立美術館","architect":"大高正人","year":1974.0,"address":"千葉県千葉市中央区中央港1-10-1","latitude":35.60044479370117,"longitude":140.09783935546875,"category":"美術館","big_category":"ミュージアム","description":"","image_url":"","tags":"","prefecture":"千葉","contractor":"","structural_designer":"","landscape_designer":"","shinkenchiku_url":""},{"id":731,"title":"千葉市民ギャラリー いなげ 旧神谷伝兵衛稲毛別荘","architect":"不明","year":1918.0,"address":"千葉県千葉市稲毛区稲毛1-8-35","latitude":35.63424301147461,"longitude":140.08323669433594,"category":"洋館","big_category":"近代建築/遺産","description":"","image_url":"","tags":"","prefecture":"千葉","contractor":"","structural_designer":"","landscape_designer":"","shinkenchiku_url":""},{"id":732,"title":"三陽メディアフラワーミュージアム 旧花の美術館","architect":"A&T建築研究所","year":1995.0,"address":"千葉県千葉市美浜区高浜7-2-4","latitude":35.61817169189453,"longitude":140.0648193359375,"category":"美術館","big_category":"ミュージアム","description":"","image_url":"","tags":"","prefecture":"千葉","contractor":"","structural_designer":"","landscape_designer":"","shinkenchiku_url":""},{"id":733,"title":"ルミナスコート壱番館","architect":"青木茂","year":2009.0,"address":"千葉県千葉市中央区村田町893-24","latitude":35.5515022277832,"longitude":140.1285400390625,"category":"集合住宅","big_category":"住宅","description":"","image_url":"","tags":"","prefecture":"千葉","contractor":"","structural_designer":"","landscape_designer":"","shinkenchiku_url":""},{"id":734,"title":"ホキ美術館","architect":"日建設計","year":2010.0,"address":"千葉県千葉市 緑区あすみが丘東3-15","latitude":35.52218246459961,"longitude":140.28042602539062,"category":"美術館","big_category":"ミュージアム","description":"JIA日本建築大賞受賞者名：山梨知彦、中本太郎、鈴木隆、矢野雅規、向野聡彦","image_url":"https://lh3.googleusercontent.com/-icsEkBpBCAM/T4jsT2Z4QDI/AAAAAAAAKJY/NHvvBYiuS-Q/s1024/P4127454.jpg","tags":"2011年度日本建築大賞,2013年日本建築学会 作品選奨","prefecture":"千葉","contractor":"","structural_designer":"","landscape_designer":"","shinkenchiku_url":""},{"id":735,"title":"船橋アパートメント","architect":"西沢立衛","year":2004.0,"address":"千葉県船橋市東船橋4-30-9","latitude":35.698692321777344,"longitude":140.00453186035156,"category":"集合住宅","big_category":"住宅","description":"","image_url":"","tags":"","prefecture":"千葉","contractor":"","structural_designer":"","landscape_designer":"","shinkenchiku_url":""},{"id":736,"title":"ふなばしアンデルセン公園 子ども美術館","architect":"龍設計+アトリエ鯨","year":1996.0,"address":"千葉県船橋市金堀町525","latitude":35.75851821899414,"longitude":140.05979919433594,"category":"児童施設","big_category":"教育","description":"","image_url":"","tags":"","prefecture":"千葉","contractor":"","structural_designer":"","landscape_designer":"","shinkenchiku_url":""},{"id":737,"title":"日本大学理工学部船橋キャンパス新サークル棟","architect":"今村雅樹","year":2010.0,"address":"千葉県船橋市習志野台7-24-1","latitude":35.723388671875,"longitude":140.0601806640625,"category":"大学","big_category":"教育","description":"","image_url":"","tags":"","prefecture":"千葉","contractor":"","structural_designer":"","landscape_designer":"","shinkenchiku_url":""},{"id":738,"title":"大多喜町役場","architect":"今井兼次+千葉学","year":1958.0,"address":"千葉県夷隅郡大多喜町大多喜93","latitude":35.28483200073242,"longitude":140.24542236328125,"category":"庁舎","big_category":"公共施設","description":"千葉学による改修","image_url":"","tags":"1959年日本建築学会 作品賞,DOCOMOMO,2016年日本建築学会 作品選奨,登録有形文化財","prefecture":"千葉","contractor":"","structural_designer":"","landscape_designer":"","shinkenchiku_url":""},{"id":739,"title":"銚子市公正市民館","architect":"不明","year":1926.0,"address":"千葉県銚子市新生町2-1-5","latitude":35.73213577270508,"longitude":140.83316040039062,"category":"洋館","big_category":"近代建築/遺産","description":"","image_url":"","tags":"","prefecture":"千葉","contractor":"","structural_designer":"","landscape_designer":"","shinkenchiku_url":""},{"id":740,"title":"museum as it is","architect":"中村好文","year":1994.0,"address":"千葉県長生郡長南町岩撫41","latitude":35.36972427368164,"longitude":140.2211456298828,"category":"美術館","big_category":"ミュージアム","description":"","image_url":"","tags":"","prefecture":"千葉","contractor":"","structural_designer":"","landscape_designer":"","shinkenchiku_url":""},{"id":741,"title":"城西大学 水田美術館","architect":"studio SUMO+大林組","year":2011.0,"address":"千葉県東金市求名1","latitude":35.58351135253906,"longitude":140.39337158203125,"category":"美術館","big_category":"ミュージアム","description":"","image_url":"","tags":"","prefecture":"千葉","contractor":"","structural_designer":"","landscape_designer":"","shinkenchiku_url":""},{"id":742,"title":"海岸美術館","architect":"石井和紘","year":1990.0,"address":"千葉県南房総市千倉町川戸548","latitude":34.97005081176758,"longitude":139.9420623779297,"category":"美術館","big_category":"ミュージアム","description":"","image_url":"","tags":"","prefecture":"千葉","contractor":"","structural_designer":"","landscape_designer":"","shinkenchiku_url":""},{"id":743,"title":"とみうら元気倶楽部","architect":"榎本雅夫","year":2006.0,"address":"千葉県南房総市富浦町原岡88-2","latitude":35.03879928588867,"longitude":139.83714294433594,"category":"総合文化施設/公民館・交流施設/温泉","big_category":"文化施設,公共施設,宿泊","description":"","image_url":"","tags":"","prefecture":"千葉","contractor":"","structural_designer":"","landscape_designer":"","shinkenchiku_url":""},{"id":744,"title":"ららぽーと柏の葉","architect":"三井住友建設","year":2006.0,"address":"千葉県柏市若柴175","latitude":35.89366912841797,"longitude":139.9510498046875,"category":"集合住宅","big_category":"住宅","description":"","image_url":"","tags":"","prefecture":"千葉","contractor":"","structural_designer":"","landscape_designer":"","shinkenchiku_url":""},{"id":745,"title":"東京大学 柏キャンパス 物性研究所","architect":"伊東豊雄+日本設計","year":1997.0,"address":"千葉県柏市柏の葉5-1-5","latitude":35.9018440246582,"longitude":139.93710327148438,"category":"大学","big_category":"教育","description":"","image_url":"","tags":"","prefecture":"千葉","contractor":"","structural_designer":"","landscape_designer":"","shinkenchiku_url":""},{"id":746,"title":"千葉県生涯学習センター さわやかちば県民プラザ","architect":"関・空間設計","year":1996.0,"address":"千葉県柏市柏の葉4-3-1","latitude":35.896629333496094,"longitude":139.93423461914062,"category":"総合文化施設/公民館・交流施設","big_category":"文化施設,公共施設","description":"岡設計（旧名称）","image_url":"","tags":"","prefecture":"千葉","contractor":"","structural_designer":"","landscape_designer":"","shinkenchiku_url":""},{"id":747,"title":"柏の葉147コモン","architect":"竹山聖","year":2011.0,"address":"千葉県柏市若柴227-6","latitude":35.89655303955078,"longitude":139.950439453125,"category":"公民館・交流施設/幼稚園","big_category":"公共施設,教育","description":"","image_url":"","tags":"","prefecture":"千葉","contractor":"","structural_designer":"","landscape_designer":"","shinkenchiku_url":""},{"id":748,"title":"柏の葉フューチャービレッジ","architect":"飯田都之麿","year":2008.0,"address":"千葉県柏市若柴226-44","latitude":35.896331787109375,"longitude":139.9529571533203,"category":"企業施設","big_category":"企業施設","description":"","image_url":"","tags":"","prefecture":"千葉","contractor":"","structural_designer":"","landscape_designer":"","shinkenchiku_url":""},{"id":749,"title":"柏たなか駅","architect":"渡辺誠","year":2004.0,"address":"千葉県柏市小青田字大松274-1","latitude":35.910926818847656,"longitude":139.95748901367188,"category":"駅","big_category":"インフラ","description":"","image_url":"","tags":"","prefecture":"千葉","contractor":"","structural_designer":"","landscape_designer":"","shinkenchiku_url":""},{"id":750,"title":"柏の葉キャンパス駅","architect":"渡辺誠","year":2004.0,"address":"千葉県柏市若柴174","latitude":35.893592834472656,"longitude":139.9524383544922,"category":"駅","big_category":"インフラ","description":"","image_url":"","tags":"","prefecture":"千葉","contractor":"","structural_designer":"","landscape_designer":"","shinkenchiku_url":""}]}