{"page":21,"total_pages":290,"items_per_page":50,"total_items":14467,"items":[{"id":1001,"title":"東急病院","architect":"安田幸一","year":2008.0,"address":"東京都大田区北千束3-27-2","latitude":35.60759735107422,"longitude":139.68609619140625,"category":"病院","big_category":"医療施設","description":"","image_url":"","tags":"","prefecture":"東京","contractor":"","structural_designer":"","landscape_designer":"","shinkenchiku_url":""},{"id":1002,"title":"Airspace Tokyo studio07","architect":"増渕大","year":2007.0,"address":"東京都大田区北馬込1-23-1","latitude":35.60112762451172,"longitude":139.70591735839844,"category":"集合住宅","big_category":"住宅","description":"","image_url":"","tags":"","prefecture":"東京","contractor":"","structural_designer":"","landscape_designer":"","shinkenchiku_url":""},{"id":1003,"title":"田園調布TT","architect":"横河健","year":2008.0,"address":"東京都大田区田園調布2-2-18","latitude":35.5935173034668,"longitude":139.6728057861328,"category":"集合住宅","big_category":"住宅","description":"","image_url":"","tags":"","prefecture":"東京","contractor":"","structural_designer":"","landscape_designer":"","shinkenchiku_url":""},{"id":1004,"title":"大田区産業プラザ PiO","architect":"類設計室","year":1995.0,"address":"東京都大田区南蒲田1-20-20","latitude":35.558876037597656,"longitude":139.72409057617188,"category":"展示・会議場","big_category":"公共施設","description":"","image_url":"","tags":"","prefecture":"東京","contractor":"","structural_designer":"","landscape_designer":"","shinkenchiku_url":""},{"id":1005,"title":"ヤマトインターナショナル 東京支店","architect":"原広司","year":1986.0,"address":"東京都大田区平和島5-1-1‎","latitude":35.579200744628906,"longitude":139.7418212890625,"category":"企業施設","big_category":"企業施設","description":"","image_url":"https://lh3.googleusercontent.com/-8CbFAhjwyEY/UOUkI9Fj6yI/AAAAAAAAx2A/7qprMdkraRI/s1024/lr-123236.jpg","tags":"1988年村野藤吾賞,DOCOMOMO","prefecture":"東京","contractor":"大林組・清水建設・野村建設工業共同企業体","structural_designer":"","landscape_designer":"","shinkenchiku_url":""},{"id":1006,"title":"ツバキ城","architect":"藤森照信+大嶋信道","year":2000.0,"address":"東京都大島大島町野増ワダ167","latitude":34.729164123535156,"longitude":139.35482788085938,"category":"店舗","big_category":"商業施設","description":"","image_url":"","tags":"","prefecture":"東京","contractor":"","structural_designer":"","landscape_designer":"","shinkenchiku_url":""},{"id":1007,"title":"日本銀行本店","architect":"辰野金吾","year":1896.0,"address":"東京都中央区日本橋本石町2-1-1","latitude":35.6868782043457,"longitude":139.77134704589844,"category":"洋館/金融機関","big_category":"近代建築/遺産,企業施設","description":"1週間前までに電話予約。平日のみ。","image_url":"","tags":"","prefecture":"東京","contractor":"","structural_designer":"","landscape_designer":"","shinkenchiku_url":""},{"id":1008,"title":"GINZA KABUKIZA","architect":"隈研吾","year":2013.0,"address":"東京都中央区銀座4-12-15","latitude":35.669673919677734,"longitude":139.76791381835938,"category":"ホール・劇場","big_category":"文化施設","description":"","image_url":"","tags":"","prefecture":"東京","contractor":"","structural_designer":"","landscape_designer":"","shinkenchiku_url":""},{"id":1009,"title":"静岡新聞・静岡放送東京支社","architect":"丹下健三","year":1967.0,"address":"東京都中央区銀座8-3-7","latitude":35.66874313354492,"longitude":139.7589111328125,"category":"オフィスビル","big_category":"企業施設","description":"","image_url":"","tags":"","prefecture":"東京","contractor":"","structural_designer":"","landscape_designer":"","shinkenchiku_url":""},{"id":1010,"title":"AGC studio","architect":"ヌーブ","year":2010.0,"address":"東京都中央区京橋2-5-18","latitude":35.676231384277344,"longitude":139.77023315429688,"category":"博物館","big_category":"ミュージアム","description":"","image_url":"","tags":"","prefecture":"東京","contractor":"","structural_designer":"","landscape_designer":"","shinkenchiku_url":""},{"id":1011,"title":"デビアス銀座ビルディング","architect":"光井純","year":2007.0,"address":"東京都中央区銀座2-5-11","latitude":35.67347717285156,"longitude":139.76644897460938,"category":"オフィスビル","big_category":"企業施設","description":"","image_url":"","tags":"","prefecture":"東京","contractor":"","structural_designer":"","landscape_designer":"","shinkenchiku_url":""},{"id":1012,"title":"ディオール銀座","architect":"乾久美子","year":2004.0,"address":"東京都中央区銀座5-6-1","latitude":35.671512603759766,"longitude":139.76419067382812,"category":"店舗","big_category":"商業施設","description":"","image_url":"","tags":"","prefecture":"東京","contractor":"","structural_designer":"","landscape_designer":"","shinkenchiku_url":""},{"id":1013,"title":"永井画廊","architect":"西沢立衛","year":2008.0,"address":"東京都中央区銀座4-10-6","latitude":35.67018508911133,"longitude":139.76722717285156,"category":"ギャラリー","big_category":"ミュージアム","description":"","image_url":"","tags":"","prefecture":"東京","contractor":"","structural_designer":"","landscape_designer":"","shinkenchiku_url":""},{"id":1014,"title":"ルイ・ヴィトン 銀座並木通り店（旧）","architect":"青木淳","year":2004.0,"address":"東京都中央区銀座7-6-1","latitude":35.66999053955078,"longitude":139.76199340820312,"category":"店舗","big_category":"商業施設","description":"2021年青木淳設計により建て替え","image_url":"","tags":"","prefecture":"東京","contractor":"","structural_designer":"","landscape_designer":"","shinkenchiku_url":""},{"id":1015,"title":"築地本願寺","architect":"伊東忠太","year":1934.0,"address":"東京都中央区築地3-15-1","latitude":35.666507720947266,"longitude":139.77206420898438,"category":"寺院","big_category":"宗教","description":"","image_url":"","tags":"重要文化財","prefecture":"東京","contractor":"","structural_designer":"","landscape_designer":"","shinkenchiku_url":""},{"id":1016,"title":"親和銀行東京支店","architect":"白井晟一","year":1963.0,"address":"東京都中央区八重洲2-8-7","latitude":35.67658996582031,"longitude":139.76800537109375,"category":"金融機関","big_category":"企業施設","description":"","image_url":"","tags":"","prefecture":"東京","contractor":"","structural_designer":"","landscape_designer":"","shinkenchiku_url":""},{"id":1017,"title":"VERTU GINZA","architect":"クライン・ダイサム・アーキテクツ","year":2009.0,"address":"東京都中央区銀座5-8-2","latitude":35.6705436706543,"longitude":139.7647705078125,"category":"店舗","big_category":"商業施設","description":"閉店","image_url":"","tags":"","prefecture":"東京","contractor":"","structural_designer":"","landscape_designer":"","shinkenchiku_url":""},{"id":1018,"title":"風の卵","architect":"伊東豊雄","year":1991.0,"address":"東京都中央区佃2-2","latitude":35.66793441772461,"longitude":139.785888671875,"category":"オブジェ","big_category":"ミュージアム","description":"","image_url":"","tags":"","prefecture":"東京","contractor":"","structural_designer":"","landscape_designer":"","shinkenchiku_url":""},{"id":1019,"title":"ランバン ブティック銀座店","architect":"中村拓志","year":2003.0,"address":"東京都中央区銀座7-9-17","latitude":35.668846130371094,"longitude":139.762939453125,"category":"店舗","big_category":"商業施設","description":"移転？","image_url":"","tags":"","prefecture":"東京","contractor":"","structural_designer":"","landscape_designer":"","shinkenchiku_url":""},{"id":1020,"title":"銀座対鶴館ビル","architect":"内井昭蔵","year":1975.0,"address":"東京都中央区銀座5-4-3","latitude":35.67192459106445,"longitude":139.7635955810547,"category":"オフィスビル","big_category":"企業施設","description":"","image_url":"","tags":"","prefecture":"東京","contractor":"","structural_designer":"","landscape_designer":"","shinkenchiku_url":""},{"id":1021,"title":"MIKIMOTO Ginza2","architect":"伊東豊雄","year":2005.0,"address":"東京都中央区銀座2-4-12","latitude":35.673789978027344,"longitude":139.76596069335938,"category":"店舗","big_category":"商業施設","description":"","image_url":"","tags":"","prefecture":"東京","contractor":"","structural_designer":"","landscape_designer":"","shinkenchiku_url":""},{"id":1022,"title":"メゾンエルメスフォーラム（銀座）","architect":"レンゾ・ピアノ","year":2001.0,"address":"東京都中央区銀座5-4-1","latitude":35.67200469970703,"longitude":139.763427734375,"category":"店舗/ギャラリー","big_category":"商業施設,ミュージアム","description":"","image_url":"https://lh3.googleusercontent.com/-qWJRULioszw/T96KsQ_IkzI/AAAAAAAA2bE/iG2OVRMEnjg/s800/lr-6131889.jpg","tags":"","prefecture":"東京","contractor":"","structural_designer":"","landscape_designer":"","shinkenchiku_url":""},{"id":1023,"title":"中銀カプセルタワービル","architect":"黒川紀章","year":1972.0,"address":"東京都中央区銀座8-16-10","latitude":35.66572952270508,"longitude":139.76344299316406,"category":"集合住宅","big_category":"住宅","description":"2022年に解体された。一部カプセルは保存されている","image_url":"https://lh3.googleusercontent.com/--4wZK7-7xSw/UOUjyKe2FLI/AAAAAAAAxzM/d00bjhD0q5A/s800/lr-123218.jpg","tags":"DOCOMOMO","prefecture":"東京","contractor":"","structural_designer":"","landscape_designer":"","shinkenchiku_url":""},{"id":1024,"title":"実践学園中学・高等学校 自由学習館","architect":"古谷誠章","year":2011.0,"address":"東京都中野区中央2-34-2","latitude":35.69994354248047,"longitude":139.67990112304688,"category":"学校","big_category":"教育","description":"JIA日本建築大賞受賞者名：古谷誠章、八木佐千子","image_url":"","tags":"2013年度日本建築大賞","prefecture":"東京","contractor":"","structural_designer":"","landscape_designer":"","shinkenchiku_url":""},{"id":1025,"title":"武相荘 旧白洲邸","architect":"不明","year":null,"address":"東京都町田市能ヶ谷7-3-2","latitude":35.589576721191406,"longitude":139.47750854492188,"category":"和風住宅","big_category":"住宅","description":"","image_url":"","tags":"","prefecture":"東京","contractor":"","structural_designer":"","landscape_designer":"","shinkenchiku_url":""},{"id":1026,"title":"町田市鶴川緑の交流館 和光大学ポプリホール鶴川","architect":"仙田満","year":2012.0,"address":"東京都町田市能ヶ谷1-2-1","latitude":35.582889556884766,"longitude":139.47891235351562,"category":"総合文化施設","big_category":"文化施設","description":"","image_url":"","tags":"","prefecture":"東京","contractor":"","structural_designer":"","landscape_designer":"","shinkenchiku_url":""},{"id":1027,"title":"和光大学 新総合棟（E棟）","architect":"内藤廣","year":2010.0,"address":"東京都町田市金井町2160","latitude":35.57500457763672,"longitude":139.47360229492188,"category":"大学","big_category":"教育","description":"","image_url":"","tags":"","prefecture":"東京","contractor":"","structural_designer":"","landscape_designer":"","shinkenchiku_url":""},{"id":1028,"title":"町田市立博物館","architect":"山口文象","year":1975.0,"address":"東京都町田市本町田3562","latitude":35.567352294921875,"longitude":139.4511260986328,"category":"博物館","big_category":"ミュージアム","description":"","image_url":"","tags":"","prefecture":"東京","contractor":"","structural_designer":"","landscape_designer":"","shinkenchiku_url":""},{"id":1029,"title":"町田市立国際版画美術館","architect":"大宇根弘司","year":1986.0,"address":"東京都町田市原町田4-28-1","latitude":35.54397201538086,"longitude":139.4552459716797,"category":"美術館","big_category":"ミュージアム","description":"","image_url":"","tags":"2014年JIA25年賞","prefecture":"東京","contractor":"","structural_designer":"","landscape_designer":"","shinkenchiku_url":""},{"id":1030,"title":"町田青少年施設「ひなた村」","architect":"大宇根弘司","year":1993.0,"address":"東京都町田市本町田2863","latitude":35.56775665283203,"longitude":139.44552612304688,"category":"体験施設","big_category":"レジャー施設","description":"","image_url":"","tags":"","prefecture":"東京","contractor":"","structural_designer":"","landscape_designer":"","shinkenchiku_url":""},{"id":1031,"title":"カトリック町田教会","architect":"香山壽夫","year":2001.0,"address":"東京都町田市中町3-2-1","latitude":35.5491828918457,"longitude":139.44882202148438,"category":"教会","big_category":"宗教","description":"","image_url":"","tags":"","prefecture":"東京","contractor":"","structural_designer":"","landscape_designer":"","shinkenchiku_url":""},{"id":1032,"title":"町田市新庁舎","architect":"槇文彦","year":2012.0,"address":"東京都町田市森野2-2-22","latitude":35.54616928100586,"longitude":139.4391632080078,"category":"庁舎","big_category":"公共施設","description":"","image_url":"","tags":"","prefecture":"東京","contractor":"","structural_designer":"","landscape_designer":"","shinkenchiku_url":""},{"id":1033,"title":"町田市民文学館ことばらんど","architect":"大宇根弘司","year":2006.0,"address":"東京都町田市原町田4-16-17","latitude":35.54259490966797,"longitude":139.45140075683594,"category":"博物館","big_category":"ミュージアム","description":"","image_url":"","tags":"","prefecture":"東京","contractor":"","structural_designer":"","landscape_designer":"","shinkenchiku_url":""},{"id":1034,"title":"調布市せんがわ劇場・仙川保育園・仙川ふれあいの家","architect":"安藤忠雄","year":2007.0,"address":"東京都調布市仙川町1-21-5","latitude":35.66144943237305,"longitude":139.58688354492188,"category":"ホール・劇場/幼稚園","big_category":"文化施設,教育","description":"","image_url":"","tags":"","prefecture":"東京","contractor":"","structural_designer":"","landscape_designer":"","shinkenchiku_url":""},{"id":1035,"title":"東京アートミュージアム","architect":"安藤忠雄","year":2004.0,"address":"東京都調布市仙川町1-25-1","latitude":35.660728454589844,"longitude":139.5872344970703,"category":"美術館/ギャラリー","big_category":"ミュージアム,ミュージアム","description":"木～日のみ","image_url":"","tags":"","prefecture":"東京","contractor":"","structural_designer":"","landscape_designer":"","shinkenchiku_url":""},{"id":1036,"title":"仙川デルタスタジオ","architect":"安藤忠雄","year":2007.0,"address":"東京都調布市仙川町1-27-25","latitude":35.662540435791016,"longitude":139.58656311035156,"category":"ホール・劇場","big_category":"文化施設","description":"","image_url":"","tags":"","prefecture":"東京","contractor":"","structural_designer":"","landscape_designer":"","shinkenchiku_url":""},{"id":1037,"title":"F-SPACE","architect":"石黒由紀","year":2009.0,"address":"東京都調布市国領町1-3-25","latitude":35.65032196044922,"longitude":139.55113220214844,"category":"オフィスビル","big_category":"企業施設","description":"","image_url":"","tags":"","prefecture":"東京","contractor":"","structural_designer":"","landscape_designer":"","shinkenchiku_url":""},{"id":1038,"title":"自由学園 南沢キャンパス","architect":"遠藤新","year":1930.0,"address":"東京都東久留米市学園町1-8-15","latitude":35.754783630371094,"longitude":139.5377960205078,"category":"学校","big_category":"教育","description":"土曜日13時～。要問い合わせ。","image_url":"","tags":"DOCOMOMO","prefecture":"東京","contractor":"","structural_designer":"","landscape_designer":"","shinkenchiku_url":""},{"id":1039,"title":"狭山公園休憩所 「水精森精」","architect":"黒川哲郎","year":1994.0,"address":"東京都東村山市多摩湖町3-17-19","latitude":35.7631721496582,"longitude":139.442626953125,"category":"公園","big_category":"レジャー施設","description":"","image_url":"","tags":"","prefecture":"東京","contractor":"","structural_designer":"","landscape_designer":"","shinkenchiku_url":""},{"id":1040,"title":"国立ハンセン病資料館","architect":"柳澤孝彦","year":2006.0,"address":"東京都東村山市青葉町4-1-13","latitude":35.76757049560547,"longitude":139.50022888183594,"category":"博物館","big_category":"ミュージアム","description":"","image_url":"","tags":"","prefecture":"東京","contractor":"","structural_designer":"","landscape_designer":"","shinkenchiku_url":""},{"id":1041,"title":"東京都多摩動物公園 昆虫生態館","architect":"日本設計+白江龍三","year":1987.0,"address":"東京都日野市程久保7-1-1","latitude":35.6495361328125,"longitude":139.40220642089844,"category":"動植物園","big_category":"レジャー施設","description":"日本建築学会 作品賞受賞者名：淺石優、白江龍三、瀬谷渉","image_url":"","tags":"1989年日本建築学会 作品賞","prefecture":"東京","contractor":"","structural_designer":"","landscape_designer":"","shinkenchiku_url":""},{"id":1042,"title":"万願寺交流センター 新選組記念館","architect":"徳岡設計","year":2001.0,"address":"東京都日野市万願寺4-20-12","latitude":35.67100524902344,"longitude":139.41543579101562,"category":"博物館","big_category":"ミュージアム","description":"","image_url":"","tags":"","prefecture":"東京","contractor":"","structural_designer":"","landscape_designer":"","shinkenchiku_url":""},{"id":1043,"title":"工学院大学 八王子キャンパス 125周年記念総合教育棟","architect":"千葉学","year":2012.0,"address":"東京都八王子市中野町2665-1","latitude":35.683528900146484,"longitude":139.31881713867188,"category":"大学","big_category":"教育","description":"","image_url":"","tags":"2014年村野藤吾賞,2017年日本建築学会 作品選奨","prefecture":"東京","contractor":"","structural_designer":"","landscape_designer":"","shinkenchiku_url":""},{"id":1044,"title":"村内美術館","architect":"不明","year":null,"address":"東京都八王子市左入町787 村内ファニチャーアクセス内","latitude":35.67926788330078,"longitude":139.3363800048828,"category":"美術館","big_category":"ミュージアム","description":"","image_url":"","tags":"","prefecture":"東京","contractor":"","structural_designer":"","landscape_designer":"","shinkenchiku_url":""},{"id":1045,"title":"星槎国際高等学校八王子学習センター 旧新制作座文化センター","architect":"山口文象","year":1963.0,"address":"東京都八王子市元八王子町1-240","latitude":35.66581726074219,"longitude":139.28224182128906,"category":"ホール・劇場/学校","big_category":"文化施設,教育","description":"","image_url":"","tags":"","prefecture":"東京","contractor":"","structural_designer":"","landscape_designer":"","shinkenchiku_url":""},{"id":1046,"title":"八王子みなみ野シティ タウンセンター","architect":"横河健","year":1998.0,"address":"東京都八王子市みなみ野1-3-1","latitude":35.63142395019531,"longitude":139.33026123046875,"category":"店舗","big_category":"商業施設","description":"","image_url":"","tags":"","prefecture":"東京","contractor":"","structural_designer":"","landscape_designer":"","shinkenchiku_url":""},{"id":1047,"title":"大学セミナー・ハウス","architect":"吉阪隆正","year":1965.0,"address":"東京都八王子市下柚木1987-1","latitude":35.63028335571289,"longitude":139.36566162109375,"category":"大学","big_category":"教育","description":"","image_url":"","tags":"DOCOMOMO","prefecture":"東京","contractor":"","structural_designer":"","landscape_designer":"","shinkenchiku_url":""},{"id":1048,"title":"東京都立大学 南大沢キャンパス 旧首都大学東京","architect":"高橋靗一","year":1991.0,"address":"東京都八王子市南大沢1-1","latitude":35.616546630859375,"longitude":139.377197265625,"category":"大学","big_category":"教育","description":"","image_url":"","tags":"","prefecture":"東京","contractor":"","structural_designer":"","landscape_designer":"","shinkenchiku_url":""},{"id":1049,"title":"東京造形大学","architect":"磯崎新","year":1992.0,"address":"東京都八王子市宇津貫町1556","latitude":35.6153564453125,"longitude":139.33486938476562,"category":"大学","big_category":"教育","description":"","image_url":"","tags":"","prefecture":"東京","contractor":"","structural_designer":"","landscape_designer":"","shinkenchiku_url":""},{"id":1050,"title":"MESH サザンウインズ南大沢","architect":"西森陸雄","year":2007.0,"address":"東京都八王子市南大沢2-30","latitude":35.613956451416016,"longitude":139.38116455078125,"category":"モール","big_category":"商業施設","description":"","image_url":"","tags":"","prefecture":"東京","contractor":"","structural_designer":"","landscape_designer":"","shinkenchiku_url":""}]}