{"page":112,"total_pages":290,"items_per_page":50,"total_items":14467,"items":[{"id":5551,"title":"高知工科大学","architect":"日建設計","year":1997.0,"address":"高知県香美市土佐山田町宮ノ口185","latitude":33.62074279785156,"longitude":133.71981811523438,"category":"大学","big_category":"教育","description":"","image_url":"","tags":"2002年公共建築賞・特別賞","prefecture":"高知","contractor":"","structural_designer":"","landscape_designer":"","shinkenchiku_url":""},{"id":5552,"title":"南国市立スポーツセンター","architect":"日本設計","year":1999.0,"address":"高知県南国市前浜1344-3","latitude":33.540348052978516,"longitude":133.65476989746094,"category":"体育館","big_category":"レジャー施設","description":"","image_url":"","tags":"","prefecture":"高知","contractor":"","structural_designer":"","landscape_designer":"","shinkenchiku_url":""},{"id":5553,"title":"高知県立歴史民俗資料館","architect":"佐藤総合計画","year":1993.0,"address":"高知県南国市岡豊町八幡1099-1","latitude":33.5960807800293,"longitude":133.62347412109375,"category":"博物館","big_category":"ミュージアム","description":"","image_url":"","tags":"","prefecture":"高知","contractor":"","structural_designer":"","landscape_designer":"","shinkenchiku_url":""},{"id":5554,"title":"室戸市役所","architect":"MA設計事務所","year":1983.0,"address":"高知県室戸市浮津25-1","latitude":33.289981842041016,"longitude":134.15208435058594,"category":"庁舎","big_category":"公共施設","description":"","image_url":"","tags":"","prefecture":"高知","contractor":"","structural_designer":"","landscape_designer":"","shinkenchiku_url":""},{"id":5555,"title":"国立室戸少年自然の家","architect":"畑利一","year":1976.0,"address":"高知県室戸市元乙1721","latitude":33.317169189453125,"longitude":134.12347412109375,"category":"研修施設/児童施設","big_category":"教育,教育","description":"","image_url":"","tags":"1977年日本建築学会 作品賞","prefecture":"高知","contractor":"","structural_designer":"","landscape_designer":"","shinkenchiku_url":""},{"id":5556,"title":"貝の資料館 モラスコむぎ","architect":"剛建築事務所","year":1988.0,"address":"徳島県海部郡牟岐町灘下浜辺198-1","latitude":33.66706085205078,"longitude":134.44361877441406,"category":"博物館","big_category":"ミュージアム","description":"","image_url":"","tags":"","prefecture":"徳島","contractor":"","structural_designer":"","landscape_designer":"","shinkenchiku_url":""},{"id":5557,"title":"道の駅すくも サニーサイドパーク","architect":"山本長水","year":1991.0,"address":"高知県宿毛市坂ノ下1023-44","latitude":32.916236877441406,"longitude":132.7124481201172,"category":"PA・道の駅","big_category":"インフラ","description":"","image_url":"","tags":"","prefecture":"高知","contractor":"","structural_designer":"","landscape_designer":"","shinkenchiku_url":""},{"id":5558,"title":"トンボ自然公園 トンボ自然館","architect":"佐藤八尋","year":1990.0,"address":"高知県四万十市具同8055-5","latitude":32.98946762084961,"longitude":132.9153289794922,"category":"公園/博物館","big_category":"レジャー施設,ミュージアム","description":"","image_url":"","tags":"","prefecture":"高知","contractor":"","structural_designer":"","landscape_designer":"","shinkenchiku_url":""},{"id":5559,"title":"ホテル 星羅四万十","architect":"西森啓史","year":1995.0,"address":"高知県四万十市西土佐用井1100","latitude":33.17326736450195,"longitude":132.79225158691406,"category":"ホテル","big_category":"宿泊","description":"","image_url":"","tags":"","prefecture":"高知","contractor":"","structural_designer":"","landscape_designer":"","shinkenchiku_url":""},{"id":5560,"title":"幡多青少年の家","architect":"MA設計事務所","year":1975.0,"address":"高知県幡多郡黒潮町上川口1166","latitude":33.04063415527344,"longitude":133.04928588867188,"category":"研修施設/児童施設","big_category":"教育,教育","description":"","image_url":"","tags":"","prefecture":"高知","contractor":"","structural_designer":"","landscape_designer":"","shinkenchiku_url":""},{"id":5561,"title":"三条北西コミュニティセンター","architect":"塚田保成","year":2015.0,"address":"香川県高松市三条町517-4","latitude":34.31785583496094,"longitude":134.04544067382812,"category":"公民館・交流施設","big_category":"公共施設","description":"","image_url":"","tags":"","prefecture":"香川","contractor":"","structural_designer":"","landscape_designer":"","shinkenchiku_url":""},{"id":5562,"title":"RIDGE","architect":"千葉学","year":2008.0,"address":"東京都目黒区南3-10-10","latitude":35.61189270019531,"longitude":139.68576049804688,"category":"集合住宅/店舗","big_category":"住宅,商業施設","description":"","image_url":"","tags":"","prefecture":"東京","contractor":"","structural_designer":"","landscape_designer":"","shinkenchiku_url":""},{"id":5563,"title":"託児室 わたぐも","architect":"石上純也","year":2014.0,"address":"神奈川県厚木市中町2-12-15 アミューあつぎ8F","latitude":35.44246292114258,"longitude":139.36573791503906,"category":"児童施設","big_category":"教育","description":"","image_url":"","tags":"新建築2014年6月号","prefecture":"神奈川","contractor":"前田共同企業体+アトリエ海","structural_designer":"佐藤淳構造設計事務所+前田建設工業一級建築士事務所","landscape_designer":"","shinkenchiku_url":"https://data.shinkenchiku.online/articles/SK_2014_06_116-0"},{"id":5564,"title":"Art cafe Linden","architect":"岩瀬行泰","year":2014.0,"address":"埼玉県さいたま市大宮区堀の内町3-359-17","latitude":35.91775131225586,"longitude":139.63665771484375,"category":"カフェ/住宅","big_category":"商業施設,住宅","description":"","image_url":"","tags":"","prefecture":"埼玉","contractor":"","structural_designer":"","landscape_designer":"","shinkenchiku_url":""},{"id":5565,"title":"Be Tech館","architect":"岩瀬行泰","year":2006.0,"address":"茨城県古河市北利根2","latitude":36.15001678466797,"longitude":139.77627563476562,"category":"企業施設","big_category":"企業施設","description":"完全予約制","image_url":"","tags":"","prefecture":"茨城","contractor":"","structural_designer":"","landscape_designer":"","shinkenchiku_url":""},{"id":5566,"title":"M's Cafe","architect":"岩瀬行泰","year":2006.0,"address":"埼玉県さいたま市緑区東浦和1-21-1","latitude":35.86248016357422,"longitude":139.703857421875,"category":"カフェ","big_category":"商業施設","description":"","image_url":"","tags":"","prefecture":"埼玉","contractor":"","structural_designer":"","landscape_designer":"","shinkenchiku_url":""},{"id":5567,"title":"籤","architect":"中山眞琴","year":2014.0,"address":"北海道札幌市中央区円山西町1-5-1","latitude":43.04884719848633,"longitude":141.30389404296875,"category":"低層オフィス","big_category":"企業施設","description":"","image_url":"","tags":"","prefecture":"北海道","contractor":"","structural_designer":"","landscape_designer":"","shinkenchiku_url":""},{"id":5568,"title":"うつわ 菜の花","architect":"中村好文","year":1998.0,"address":"神奈川県小田原市南町1-3-12","latitude":35.24741744995117,"longitude":139.15419006347656,"category":"ギャラリー","big_category":"ミュージアム","description":"","image_url":"","tags":"","prefecture":"神奈川","contractor":"","structural_designer":"","landscape_designer":"","shinkenchiku_url":""},{"id":5569,"title":"民宿かいとく丸","architect":"中村好文","year":null,"address":"静岡県賀茂郡松崎町岩地363-3","latitude":34.73757553100586,"longitude":138.76153564453125,"category":"旅館","big_category":"宿泊","description":"設計が中村好文なわけではないが、中村好文がデザインした家具が配置されている","image_url":"","tags":"","prefecture":"静岡","contractor":"","structural_designer":"","landscape_designer":"","shinkenchiku_url":""},{"id":5570,"title":"ホテル キーフォレスト 北杜","architect":"北川原温","year":2015.0,"address":"山梨県北杜市小淵沢町10287-4","latitude":35.88681411743164,"longitude":138.31996154785156,"category":"ホテル","big_category":"宿泊","description":"カフェのみの利用も可能","image_url":"","tags":"新建築2015年12月号","prefecture":"山梨","contractor":"","structural_designer":"","landscape_designer":"","shinkenchiku_url":""},{"id":5571,"title":"ヴィラ キーフォレスト","architect":"北川原温","year":2014.0,"address":"山梨県北杜市小淵沢町10060-844","latitude":35.88805389404297,"longitude":138.31817626953125,"category":"住宅/結婚式場","big_category":"住宅,宗教","description":"","image_url":"","tags":"新建築2015年12月号","prefecture":"山梨","contractor":"","structural_designer":"","landscape_designer":"","shinkenchiku_url":""},{"id":5572,"title":"東京造形大学 CS PLAZA","architect":"安田幸一","year":2010.0,"address":"東京都八王子市宇津貫町1556","latitude":35.616703033447266,"longitude":139.33331298828125,"category":"大学","big_category":"教育","description":"","image_url":"","tags":"","prefecture":"東京","contractor":"","structural_designer":"","landscape_designer":"","shinkenchiku_url":""},{"id":5573,"title":"南アルプス国立公園指定50周年記念モニュメント","architect":"北川原温","year":2014.0,"address":"山梨県北杜市白州町白須1308","latitude":35.81003189086914,"longitude":138.3306121826172,"category":"オブジェ","big_category":"ミュージアム","description":"道の駅はくしゅう内","image_url":"","tags":"","prefecture":"山梨","contractor":"","structural_designer":"","landscape_designer":"","shinkenchiku_url":""},{"id":5574,"title":"東急大井町線 緑が丘駅","architect":"安田幸一+株式会社大建設計","year":2012.0,"address":"東京都目黒区緑が丘3-1-12","latitude":35.606502532958984,"longitude":139.6791534423828,"category":"駅","big_category":"インフラ","description":"","image_url":"","tags":"","prefecture":"東京","contractor":"","structural_designer":"","landscape_designer":"","shinkenchiku_url":""},{"id":5575,"title":"東京工業大学 緑が丘3号館 レトロフィット","architect":"安田幸一","year":2007.0,"address":"東京都目黒区緑が丘1-9","latitude":35.60807800292969,"longitude":139.6793975830078,"category":"大学","big_category":"教育","description":"","image_url":"","tags":"","prefecture":"東京","contractor":"","structural_designer":"","landscape_designer":"","shinkenchiku_url":""},{"id":5576,"title":"川崎駅東口駅前広場","architect":"安田幸一+日建設計","year":2011.0,"address":"神奈川県川崎市川崎区駅前本町26","latitude":35.530723571777344,"longitude":139.697998046875,"category":"広場","big_category":"文化施設","description":"","image_url":"","tags":"","prefecture":"神奈川","contractor":"","structural_designer":"","landscape_designer":"","shinkenchiku_url":""},{"id":5577,"title":"ポーラ銀座ビル","architect":"安田幸一+日建設計","year":2009.0,"address":"東京都中央区銀座1-7","latitude":35.674312591552734,"longitude":139.7678680419922,"category":"オフィスビル","big_category":"企業施設","description":"","image_url":"","tags":"","prefecture":"東京","contractor":"","structural_designer":"","landscape_designer":"","shinkenchiku_url":""},{"id":5578,"title":"洗足の連結住棟 G Flat","architect":"北山恒","year":2006.0,"address":"東京都大田区北千束1-4-20","latitude":35.60982894897461,"longitude":139.69287109375,"category":"集合住宅","big_category":"住宅","description":"日本建築学会 作品賞受賞者名：北山恒、金田勝徳","image_url":"","tags":"2010年日本建築学会 作品賞,2009年度日本建築家協会賞","prefecture":"東京","contractor":"","structural_designer":"","landscape_designer":"","shinkenchiku_url":""},{"id":5579,"title":"用賀Aフラット","architect":"早川邦彦","year":1993.0,"address":"東京都世田谷区上用賀3-1-17","latitude":35.63175964355469,"longitude":139.6325225830078,"category":"集合住宅","big_category":"住宅","description":"","image_url":"","tags":"1994年日本建築学会 作品賞","prefecture":"東京","contractor":"","structural_designer":"","landscape_designer":"","shinkenchiku_url":""},{"id":5580,"title":"浜松ホトニクス 産業開発研究所 旧NTSシステム総合研究所","architect":"水谷硯之+竹中工務店","year":1991.0,"address":"静岡県浜松市西区呉松町1820","latitude":34.77783966064453,"longitude":137.62814331054688,"category":"研究施設/低層オフィス","big_category":"教育,企業施設","description":"日本建築学会 作品賞受賞者名：水谷硯之、梅崎正彦、澤柳伸","image_url":"","tags":"1993年日本建築学会 作品賞","prefecture":"静岡","contractor":"竹中工務店","structural_designer":"","landscape_designer":"","shinkenchiku_url":""},{"id":5581,"title":"シルバーハット","architect":"伊東豊雄","year":1984.0,"address":"愛媛県今治市 大三島町浦戸2418","latitude":34.21348190307617,"longitude":132.95037841796875,"category":"住宅","big_category":"住宅","description":"今治市伊東豊雄建築ミュージアムに移築","image_url":"","tags":"1985年日本建築学会 作品賞","prefecture":"愛媛","contractor":"","structural_designer":"","landscape_designer":"","shinkenchiku_url":""},{"id":5582,"title":"佐野市郷土博物館","architect":"建築研究所アーキヴィジョン","year":1983.0,"address":"栃木県佐野市大橋町2047","latitude":36.31288528442383,"longitude":139.5649871826172,"category":"博物館","big_category":"ミュージアム","description":"","image_url":"","tags":"1984年日本建築学会 作品賞,公共建築百選","prefecture":"栃木","contractor":"","structural_designer":"","landscape_designer":"","shinkenchiku_url":""},{"id":5583,"title":"神戸市立医療センター中央市民病院","architect":"伊藤喜三郎+日建設計","year":1981.0,"address":"兵庫県神戸市中央区港島南町2-1-1","latitude":34.659873962402344,"longitude":135.21446228027344,"category":"病院","big_category":"医療施設","description":"日本建築学会 作品賞受賞者名：末岡利雄、伊藤喜三郎、青柳司","image_url":"","tags":"1981年日本建築学会 作品賞","prefecture":"兵庫","contractor":"","structural_designer":"","landscape_designer":"","shinkenchiku_url":""},{"id":5584,"title":"成城学園","architect":"増沢洵","year":1957.0,"address":"東京都世田谷区成城6-1-20","latitude":35.6419677734375,"longitude":139.6004638671875,"category":"大学","big_category":"教育","description":"大学書庫、大学1号館、2号館、3号館、5号館、幼稚園、初等学校、中学校、高等学校、第一体育館、第二体育館、50周年記念講堂、大学記念図書館等が増沢洵の設計。後を継いだ増沢幸尋も7号館、大学スポーツセンター、中学校音楽ホール、中学校アトリエ、高等学校中央棟、杉の森館、伊勢原自動車部車庫等の設計をしている。","image_url":"","tags":"1977年日本建築学会 作品賞","prefecture":"東京","contractor":"","structural_designer":"","landscape_designer":"","shinkenchiku_url":""},{"id":5585,"title":"フロム・ファーストビル","architect":"山下和正","year":1976.0,"address":"東京都港区南青山5-3-10","latitude":35.66276931762695,"longitude":139.7158966064453,"category":"テナントビル","big_category":"商業施設","description":"","image_url":"","tags":"1976年日本建築学会 作品賞,DOCOMOMO","prefecture":"東京","contractor":"","structural_designer":"","landscape_designer":"","shinkenchiku_url":""},{"id":5586,"title":"文教大学 湘南キャンパス","architect":"山下和正","year":1985.0,"address":"神奈川県茅ヶ崎市行谷1100","latitude":35.37012481689453,"longitude":139.4160614013672,"category":"大学","big_category":"教育","description":"","image_url":"","tags":"","prefecture":"神奈川","contractor":"","structural_designer":"","landscape_designer":"","shinkenchiku_url":""},{"id":5587,"title":"新宿三井ビル","architect":"日本設計","year":1974.0,"address":"東京都新宿区西新宿2-1-1","latitude":35.692108154296875,"longitude":139.69384765625,"category":"オフィスビル","big_category":"企業施設","description":"","image_url":"","tags":"1975年日本建築学会 作品賞,2015年JIA25年賞 受賞作品,新建築2014年4月号","prefecture":"東京","contractor":"","structural_designer":"","landscape_designer":"","shinkenchiku_url":"https://data.shinkenchiku.online/articles/SK_2014_04_098-0"},{"id":5588,"title":"ポーラ五反田ビル","architect":"日建設計","year":1971.0,"address":"東京都品川区西五反田2-2-3","latitude":35.62765121459961,"longitude":139.72122192382812,"category":"オフィスビル","big_category":"企業施設","description":"1Fエントランスホール等を2016年レトロフィット。日本建築学会 作品賞受賞者名：林昌二、矢野克己","image_url":"","tags":"1971年日本建築学会 作品賞,DOCOMOMO,新建築2019年3月号,2017年JIA25年賞 受賞作品","prefecture":"東京","contractor":"","structural_designer":"","landscape_designer":"","shinkenchiku_url":""},{"id":5589,"title":"早稲田大学 理工学部51号館","architect":"安東勝男","year":1967.0,"address":"東京都新宿区大久保3-4-1","latitude":35.706031799316406,"longitude":139.70681762695312,"category":"大学","big_category":"教育","description":"","image_url":"","tags":"1967年日本建築学会 作品賞","prefecture":"東京","contractor":"","structural_designer":"","landscape_designer":"","shinkenchiku_url":""},{"id":5590,"title":"冒険の森inのせ 旧大阪府立青少年野外活動センター","architect":"坂倉準三","year":1967.0,"address":"大阪府豊能郡能勢町宿野437","latitude":35.00320816040039,"longitude":135.4102783203125,"category":"児童施設/研修施設","big_category":"教育,教育","description":"冒険の森inのせとして再オープン。日本建築学会 作品賞受賞者名：西澤文隆、太田隆信、山西嘉雄、吉田好伸","image_url":"","tags":"1966年日本建築学会 作品賞,DOCOMOMO","prefecture":"大阪","contractor":"","structural_designer":"","landscape_designer":"","shinkenchiku_url":""},{"id":5591,"title":"神戸ポートタワー","architect":"日建設計","year":1963.0,"address":"兵庫県神戸市中央区波止場町5-5","latitude":34.6826286315918,"longitude":135.18673706054688,"category":"展望台","big_category":"レジャー施設","description":"日本建築学会 作品賞受賞者名：伊藤紘一、仲威雄","image_url":"","tags":"1963年日本建築学会 作品賞,DOCOMOMO,登録有形文化財","prefecture":"兵庫","contractor":"","structural_designer":"","landscape_designer":"","shinkenchiku_url":""},{"id":5592,"title":"Daiwa銀座ビル 旧リッカー会館","architect":"鹿島建設","year":1963.0,"address":"東京都中央区銀座6-2-1","latitude":35.6717414855957,"longitude":139.76071166992188,"category":"テナントビル","big_category":"商業施設","description":"日本建築学会 作品賞受賞者名：鹿島昭一、高瀬隼彦","image_url":"","tags":"1963年日本建築学会 作品賞","prefecture":"東京","contractor":"","structural_designer":"","landscape_designer":"","shinkenchiku_url":""},{"id":5593,"title":"大分県庁舎 本館","architect":"安田臣","year":1962.0,"address":"大分県大分市大手町3-1-1","latitude":33.23815155029297,"longitude":131.61265563964844,"category":"庁舎","big_category":"公共施設","description":"","image_url":"","tags":"1962年日本建築学会 作品賞,公共建築百選,DOCOMOMO","prefecture":"大分","contractor":"梅林建設","structural_designer":"","landscape_designer":"","shinkenchiku_url":""},{"id":5594,"title":"NTT日比谷ビル","architect":"NTTファシリティーズ+國方秀男","year":1961.0,"address":"東京都千代田区内幸町1-1-6","latitude":35.67124938964844,"longitude":139.7574005126953,"category":"オフィスビル","big_category":"企業施設","description":"設計は電電施設局建築部時代の国方秀男が担当した。（設計欄は便宜上併記した）","image_url":"","tags":"1961年日本建築学会 作品賞,公共建築百選,DOCOMOMO,第03回BCS賞 (1962)","prefecture":"東京","contractor":"","structural_designer":"","landscape_designer":"","shinkenchiku_url":""},{"id":5595,"title":"サントリー山崎蒸留所","architect":"安井建築設計","year":1959.0,"address":"大阪府三島郡島本町山崎5-2-1","latitude":34.89237594604492,"longitude":135.67425537109375,"category":"工場","big_category":"企業施設","description":"","image_url":"","tags":"1959年日本建築学会 作品賞","prefecture":"大阪","contractor":"","structural_designer":"","landscape_designer":"","shinkenchiku_url":""},{"id":5596,"title":"丸栄百貨店","architect":"村野藤吾","year":1953.0,"address":"愛知県名古屋市中区栄3-3-1","latitude":35.16838836669922,"longitude":136.9051513671875,"category":"モール/テナントビル","big_category":"商業施設,商業施設","description":"2018年解体","image_url":"","tags":"1953年日本建築学会 作品賞","prefecture":"愛知","contractor":"","structural_designer":"","landscape_designer":"","shinkenchiku_url":""},{"id":5597,"title":"江差追分会館","architect":"アトリエブンク","year":1982.0,"address":"北海道檜山郡江差町中歌町193-3","latitude":41.868682861328125,"longitude":140.1266632080078,"category":"ホール・劇場/博物館","big_category":"文化施設,ミュージアム","description":"","image_url":"","tags":"公共建築百選","prefecture":"北海道","contractor":"","structural_designer":"","landscape_designer":"","shinkenchiku_url":""},{"id":5598,"title":"ふれあいランド岩手","architect":"株式会社大建設計","year":1994.0,"address":"岩手県盛岡市三本柳8地割1-3","latitude":39.65651321411133,"longitude":141.16709899902344,"category":"体育館/プール","big_category":"レジャー施設,レジャー施設","description":"","image_url":"","tags":"公共建築百選","prefecture":"岩手","contractor":"","structural_designer":"","landscape_designer":"","shinkenchiku_url":""},{"id":5599,"title":"栗原市立一迫小学校","architect":"関・空間設計","year":1996.0,"address":"宮城県栗原市一迫真坂字新道満30","latitude":38.7421989440918,"longitude":140.9518280029297,"category":"学校","big_category":"教育","description":"","image_url":"","tags":"公共建築百選","prefecture":"宮城","contractor":"","structural_designer":"","landscape_designer":"","shinkenchiku_url":""},{"id":5600,"title":"仙台市科学館","architect":"久米設計","year":1990.0,"address":"宮城県仙台市青葉区台原森林公園4-1","latitude":38.298553466796875,"longitude":140.88323974609375,"category":"博物館","big_category":"ミュージアム","description":"","image_url":"","tags":"公共建築百選,2021年JIA25年賞 登録作品","prefecture":"宮城","contractor":"","structural_designer":"","landscape_designer":"","shinkenchiku_url":""}]}