{"page":246,"total_pages":290,"items_per_page":50,"total_items":14467,"items":[{"id":12251,"title":"寄居駅南口駅前拠点 Yotteco","architect":"川辺直哉","year":2023.0,"address":"埼玉県大里郡寄居町寄居1231-13","latitude":36.117122650146484,"longitude":139.19505310058594,"category":"公民館・交流施設/観光施設","big_category":"公共施設,レジャー施設","description":"","image_url":"","tags":"Ver4.90(2023年4月)の追加建築,新建築2024年7月号","prefecture":"埼玉","contractor":"","structural_designer":"","landscape_designer":"","shinkenchiku_url":""},{"id":12252,"title":"狛江湯 改装","architect":"長坂常","year":2023.0,"address":"東京都狛江市東和泉1-12-6","latitude":35.63259506225586,"longitude":139.57957458496094,"category":"温泉","big_category":"宿泊","description":"2023年4月28日リニューアルオープン","image_url":"","tags":"Ver4.90(2023年4月)の追加建築,新建築2023年6月号","prefecture":"東京","contractor":"","structural_designer":"","landscape_designer":"","shinkenchiku_url":""},{"id":12253,"title":"紫翠 ラグジュアリーコレクションホテル奈良","architect":"隈研吾","year":2023.0,"address":"奈良県奈良市登大路町55","latitude":34.6846809387207,"longitude":135.83580017089844,"category":"ホテル","big_category":"宿泊","description":"2023年夏オープン予定","image_url":"","tags":"Ver4.90(2023年4月)の追加建築","prefecture":"奈良","contractor":"","structural_designer":"","landscape_designer":"","shinkenchiku_url":""},{"id":12254,"title":"沖縄アリーナ","architect":"梓設計+創建設計事務所+比嘉弘ニ","year":2021.0,"address":"沖縄県沖縄市山内1-16-1","latitude":26.33275032043457,"longitude":127.78328704833984,"category":"体育館/スタジアム","big_category":"レジャー施設,レジャー施設","description":"","image_url":"","tags":"Ver4.90(2023年4月)の追加建築,新建築2024年9月号","prefecture":"沖縄","contractor":"","structural_designer":"","landscape_designer":"","shinkenchiku_url":""},{"id":12255,"title":"THE TOKYO TOILET 02 幡ヶ谷公衆トイレ","architect":"マイルス・ペニントン+東京大学DLXデザインラボ","year":2023.0,"address":"東京都渋谷区幡ケ谷3-37-8","latitude":35.67771911621094,"longitude":139.6705322265625,"category":"トイレ","big_category":"公共施設","description":"","image_url":"","tags":"Ver4.90(2023年4月)の追加建築","prefecture":"東京","contractor":"","structural_designer":"","landscape_designer":"","shinkenchiku_url":""},{"id":12256,"title":"THE TOKYO TOILET 09 裏参道公衆トイレ","architect":"マーク・ニューソン","year":2022.0,"address":"東京都渋谷区千駄ケ谷4-28-1","latitude":35.6805534362793,"longitude":139.7039337158203,"category":"トイレ","big_category":"公共施設","description":"","image_url":"","tags":"Ver4.90(2023年4月)の追加建築","prefecture":"東京","contractor":"","structural_designer":"","landscape_designer":"","shinkenchiku_url":""},{"id":12257,"title":"THE TOKYO TOILET 05 西参道公衆トイレ","architect":"藤本壮介","year":2023.0,"address":"東京都渋谷区代々木3-27-1","latitude":35.683807373046875,"longitude":139.6914825439453,"category":"トイレ","big_category":"公共施設","description":"","image_url":"","tags":"Ver4.90(2023年4月)の追加建築","prefecture":"東京","contractor":"","structural_designer":"","landscape_designer":"","shinkenchiku_url":""},{"id":12258,"title":"THE TOKYO TOILET 01 笹塚緑道公衆トイレ","architect":"小林純子","year":2023.0,"address":"東京都渋谷区笹塚1-29","latitude":35.67374038696289,"longitude":139.66769409179688,"category":"トイレ","big_category":"公共施設","description":"","image_url":"","tags":"Ver4.90(2023年4月)の追加建築","prefecture":"東京","contractor":"","structural_designer":"","landscape_designer":"","shinkenchiku_url":""},{"id":12259,"title":"有田市立有和中学校","architect":"隈研吾","year":2023.0,"address":"和歌山県有田市箕島79","latitude":34.084136962890625,"longitude":135.12606811523438,"category":"学校","big_category":"教育","description":"2024年度開校予定","image_url":"","tags":"Ver4.90(2023年4月)の追加建築","prefecture":"和歌山","contractor":"","structural_designer":"","landscape_designer":"","shinkenchiku_url":""},{"id":12260,"title":"Metalab Park Showroom","architect":"奥和田健","year":2022.0,"address":"和歌山県伊都郡かつらぎ町大字寺尾405-6","latitude":34.287296295166016,"longitude":135.49595642089844,"category":"低層オフィス/企業施設","big_category":"企業施設,企業施設","description":"","image_url":"","tags":"Ver4.90(2023年4月)の追加建築","prefecture":"和歌山","contractor":"","structural_designer":"","landscape_designer":"","shinkenchiku_url":""},{"id":12261,"title":"カイマナファーム キッチンスタジオと住居","architect":"奥和田健","year":2023.0,"address":"兵庫県多可郡多可町中区牧野817","latitude":35.08340835571289,"longitude":134.93775939941406,"category":"企業施設","big_category":"企業施設","description":"","image_url":"","tags":"Ver4.90(2023年4月)の追加建築","prefecture":"兵庫","contractor":"","structural_designer":"","landscape_designer":"","shinkenchiku_url":""},{"id":12262,"title":"立命館アジア太平洋大学 グリーンコモンズ","architect":"竹中工務店","year":2023.0,"address":"大分県別府市十文字原1-1","latitude":33.33683776855469,"longitude":131.46710205078125,"category":"大学","big_category":"教育","description":"","image_url":"","tags":"Ver4.90(2023年4月)の追加建築,新建築2023年6月号","prefecture":"大分","contractor":"竹中工務店","structural_designer":"","landscape_designer":"","shinkenchiku_url":""},{"id":12263,"title":"立命館アジア太平洋大学 研究棟Ⅱ","architect":"山下設計","year":2007.0,"address":"大分県別府市十文字原1-1","latitude":33.33478546142578,"longitude":131.466064453125,"category":"大学","big_category":"教育","description":"","image_url":"","tags":"Ver4.90(2023年4月)の追加建築","prefecture":"大分","contractor":"熊谷組","structural_designer":"","landscape_designer":"","shinkenchiku_url":""},{"id":12264,"title":"立命館アジア太平洋大学 国際教育寮APハウス","architect":"竹中工務店","year":2023.0,"address":"大分県別府市十文字原1-1","latitude":33.33665466308594,"longitude":131.47134399414062,"category":"大学/寮","big_category":"教育,住宅","description":"","image_url":"","tags":"Ver4.90(2023年4月)の追加建築","prefecture":"大分","contractor":"竹中工務店","structural_designer":"","landscape_designer":"","shinkenchiku_url":""},{"id":12265,"title":"立命館アジア太平洋大学 APハウス2","architect":"山下設計","year":2007.0,"address":"大分県別府市十文字原1-1","latitude":33.33824920654297,"longitude":131.47352600097656,"category":"大学/寮","big_category":"教育,住宅","description":"","image_url":"","tags":"Ver4.90(2023年4月)の追加建築","prefecture":"大分","contractor":"熊谷組","structural_designer":"","landscape_designer":"","shinkenchiku_url":""},{"id":12266,"title":"立命館アジア太平洋大学","architect":"山下設計","year":1999.0,"address":"大分県別府市十文字原1-1","latitude":33.33711242675781,"longitude":131.46804809570312,"category":"大学","big_category":"教育","description":"","image_url":"","tags":"Ver4.90(2023年4月)の追加建築","prefecture":"大分","contractor":"","structural_designer":"","landscape_designer":"","shinkenchiku_url":""},{"id":12267,"title":"SHAREtsuboya","architect":"クマタイチ","year":2021.0,"address":"沖縄県那覇市壺屋1-1-21","latitude":26.211816787719727,"longitude":127.68955993652344,"category":"シェアオフィス/店舗","big_category":"商業施設,商業施設","description":"1968年築のビルを改修","image_url":"","tags":"Ver4.90(2023年4月)の追加建築","prefecture":"沖縄","contractor":"","structural_designer":"","landscape_designer":"","shinkenchiku_url":""},{"id":12268,"title":"新水戸市民会館","architect":"伊東豊雄+横須賀満夫","year":2023.0,"address":"茨城県水戸市泉町1-7-1","latitude":36.379024505615234,"longitude":140.46493530273438,"category":"ホール・劇場","big_category":"文化施設","description":"2023年7月2日オープン予定","image_url":"","tags":"Ver4.90(2023年4月)の追加建築,新建築2023年9月号","prefecture":"茨城","contractor":"","structural_designer":"","landscape_designer":"","shinkenchiku_url":""},{"id":12269,"title":"ユニクロ前橋南インター店","architect":"竹中工務店+佐藤可士和","year":2023.0,"address":"群馬県前橋市亀里町2008","latitude":36.33200454711914,"longitude":139.0904541015625,"category":"店舗","big_category":"商業施設","description":"佐藤可士和によるデザイン監修","image_url":"","tags":"Ver4.90(2023年4月)の追加建築","prefecture":"群馬","contractor":"","structural_designer":"","landscape_designer":"","shinkenchiku_url":""},{"id":12270,"title":"フォレストゲート代官山 MAIN棟","architect":"隈研吾+竹中工務店+東急設計コンサルタント","year":2023.0,"address":"東京都渋谷区代官山町119","latitude":35.6485595703125,"longitude":139.70217895507812,"category":"集合住宅/シェアオフィス","big_category":"住宅,商業施設","description":"2023年10月下旬オープン予定。基本設計：隈研吾 実施設計：竹中工務店+東急設計コンサルタント","image_url":"","tags":"Ver4.90(2023年4月)の追加建築","prefecture":"東京","contractor":"","structural_designer":"","landscape_designer":"","shinkenchiku_url":""},{"id":12271,"title":"フォレストゲート代官山 TENOHA棟","architect":"SUEP.","year":2023.0,"address":"東京都渋谷区代官山町344-1","latitude":35.648189544677734,"longitude":139.7026824951172,"category":"カフェ/テナントビル","big_category":"商業施設,商業施設","description":"2023年10月下旬オープン予定","image_url":"","tags":"Ver4.90(2023年4月)の追加建築,新建築2024年10月号","prefecture":"東京","contractor":"","structural_designer":"","landscape_designer":"","shinkenchiku_url":""},{"id":12272,"title":"めぐりめぐらす","architect":"中村好文","year":2023.0,"address":"長崎県五島市戸岐町1180","latitude":32.77587890625,"longitude":128.80282592773438,"category":"ホテル/ホステル","big_category":"宿泊,宿泊","description":"廃校の改修","image_url":"","tags":"Ver4.90(2023年4月)の追加建築","prefecture":"長崎","contractor":"","structural_designer":"","landscape_designer":"","shinkenchiku_url":""},{"id":12273,"title":"SSH No.03 ししいわハウス No.3","architect":"西沢立衛","year":2022.0,"address":"長野県北佐久郡軽井沢町長倉2147-40","latitude":36.36989212036133,"longitude":138.58799743652344,"category":"ホテル/レストラン","big_category":"宿泊,商業施設","description":"","image_url":"","tags":"Ver4.90(2023年4月)の追加建築,新建築2023年7月号","prefecture":"長野","contractor":"","structural_designer":"","landscape_designer":"","shinkenchiku_url":""},{"id":12274,"title":"SSH No.02 ししいわハウス No.2","architect":"坂茂","year":2023.0,"address":"長野県北佐久郡軽井沢町長倉2147-768","latitude":36.368167877197266,"longitude":138.58773803710938,"category":"ホテル","big_category":"宿泊","description":"二階にレストラン、バーなど","image_url":"","tags":"Ver4.90(2023年4月)の追加建築","prefecture":"長野","contractor":"","structural_designer":"","landscape_designer":"","shinkenchiku_url":""},{"id":12275,"title":"まえばしガレリア","architect":"平田晃久","year":2023.0,"address":"群馬県前橋市千代田町5-9","latitude":36.391578674316406,"longitude":139.0723114013672,"category":"ギャラリー/集合住宅/レストラン","big_category":"ミュージアム,住宅,商業施設","description":"","image_url":"","tags":"Ver4.90(2023年4月)の追加建築,新建築2023年11月号","prefecture":"群馬","contractor":"宮下工業","structural_designer":"石井設計","landscape_designer":"","shinkenchiku_url":""},{"id":12276,"title":"高野山真言宗 歓成院 庫裡・客殿","architect":"隈研吾","year":2022.0,"address":"神奈川県横浜市港北区大倉山2-8-7","latitude":35.5242805480957,"longitude":139.62567138671875,"category":"寺院","big_category":"宗教","description":"","image_url":"","tags":"Ver4.90(2023年4月)の追加建築","prefecture":"神奈川","contractor":"中島工務店","structural_designer":"","landscape_designer":"","shinkenchiku_url":""},{"id":12277,"title":"十全化学本社","architect":"小山光","year":2023.0,"address":"富山県富山市木場町1-10","latitude":36.71337890625,"longitude":137.2103729248047,"category":"低層オフィス","big_category":"企業施設","description":"","image_url":"","tags":"Ver4.90(2023年4月)の追加建築","prefecture":"富山","contractor":"","structural_designer":"","landscape_designer":"","shinkenchiku_url":""},{"id":12278,"title":"東池袋テラスビル THE CITY 池袋","architect":"小山光","year":2022.0,"address":"東京都豊島区東池袋1-14-14","latitude":35.7303352355957,"longitude":139.7151641845703,"category":"テナントビル","big_category":"商業施設","description":"","image_url":"","tags":"Ver4.90(2023年4月)の追加建築","prefecture":"東京","contractor":"","structural_designer":"","landscape_designer":"","shinkenchiku_url":""},{"id":12279,"title":"ワンヘルス・カーボン・ゲート","architect":"隈研吾","year":2022.0,"address":"福岡県筑後市津島831-1","latitude":33.18313217163086,"longitude":130.50149536132812,"category":"オブジェ","big_category":"ミュージアム","description":"","image_url":"","tags":"Ver4.90(2023年4月)の追加建築","prefecture":"福岡","contractor":"","structural_designer":"","landscape_designer":"","shinkenchiku_url":""},{"id":12280,"title":"カーボン・ハット","architect":"隈研吾","year":2022.0,"address":"福岡県筑後市津島831-1","latitude":33.17570495605469,"longitude":130.49366760253906,"category":"オブジェ","big_category":"ミュージアム","description":"","image_url":"","tags":"Ver4.90(2023年4月)の追加建築","prefecture":"福岡","contractor":"","structural_designer":"","landscape_designer":"","shinkenchiku_url":""},{"id":12281,"title":"KANEKA Wellness Center","architect":"隈研吾+大成建設","year":2022.0,"address":"兵庫県高砂市高砂町沖浜町1-21","latitude":34.742767333984375,"longitude":134.79718017578125,"category":"低層オフィス","big_category":"企業施設","description":"デザイン監修：隈研吾","image_url":"","tags":"Ver4.90(2023年4月)の追加建築","prefecture":"兵庫","contractor":"","structural_designer":"","landscape_designer":"","shinkenchiku_url":""},{"id":12282,"title":"横浜インターナショナルスクール 新校舎","architect":"隈研吾","year":2021.0,"address":"神奈川県横浜市中区小港町2-100-1","latitude":35.4296875,"longitude":139.6657257080078,"category":"学校","big_category":"教育","description":"","image_url":"","tags":"Ver4.90(2023年4月)の追加建築","prefecture":"神奈川","contractor":"大成建設","structural_designer":"","landscape_designer":"","shinkenchiku_url":""},{"id":12283,"title":"ユゥーアップ 四ツ谷","architect":"隈研吾","year":2021.0,"address":"東京都新宿区四谷2-11-9","latitude":35.687416076660156,"longitude":139.72389221191406,"category":"集合住宅","big_category":"住宅","description":"","image_url":"","tags":"Ver4.90(2023年4月)の追加建築","prefecture":"東京","contractor":"藤木工務店","structural_designer":"","landscape_designer":"","shinkenchiku_url":""},{"id":12284,"title":"キッズアカデミー太陽丘こども園","architect":"隈研吾","year":2013.0,"address":"石川県金沢市太陽が丘3-247-1","latitude":36.532108306884766,"longitude":136.70968627929688,"category":"幼稚園","big_category":"教育","description":"","image_url":"","tags":"Ver4.90(2023年4月)の追加建築","prefecture":"石川","contractor":"ニューハウス工業","structural_designer":"","landscape_designer":"","shinkenchiku_url":""},{"id":12285,"title":"Comico Art Museum Yufuin Annex","architect":"隈研吾","year":2022.0,"address":"大分県由布市湯布院町川上2995-1","latitude":33.265560150146484,"longitude":131.36184692382812,"category":"美術館","big_category":"ミュージアム","description":"","image_url":"","tags":"Ver4.90(2023年4月)の追加建築","prefecture":"大分","contractor":"森田建設","structural_designer":"","landscape_designer":"","shinkenchiku_url":""},{"id":12286,"title":"弘栄不動産","architect":"伊礼智","year":2023.0,"address":"山形県天童市糠塚2-2-1","latitude":38.36568832397461,"longitude":140.38186645507812,"category":"低層オフィス","big_category":"企業施設","description":"","image_url":"","tags":"Ver4.90(2023年4月)の追加建築","prefecture":"山形","contractor":"","structural_designer":"","landscape_designer":"","shinkenchiku_url":""},{"id":12287,"title":"空飛ぶ泥舟","architect":"藤森照信","year":2010.0,"address":"長野県茅野市宮川389-1","latitude":35.99465560913086,"longitude":138.1268310546875,"category":"茶室","big_category":"住宅","description":"","image_url":"","tags":"Ver4.90(2023年4月)の追加建築","prefecture":"長野","contractor":"","structural_designer":"","landscape_designer":"","shinkenchiku_url":""},{"id":12288,"title":"高過庵","architect":"藤森照信","year":2004.0,"address":"長野県茅野市宮川389-1","latitude":35.99435043334961,"longitude":138.1270294189453,"category":"茶室","big_category":"住宅","description":"","image_url":"","tags":"Ver4.90(2023年4月)の追加建築","prefecture":"長野","contractor":"","structural_designer":"","landscape_designer":"","shinkenchiku_url":""},{"id":12289,"title":"八ヶ岳清里megane","architect":"福山博之","year":2023.0,"address":"山梨県北杜市高根町清里3545-6970","latitude":35.90959930419922,"longitude":138.44747924804688,"category":"レストラン/店舗","big_category":"商業施設,商業施設","description":"","image_url":"","tags":"Ver4.90(2023年4月)の追加建築","prefecture":"山梨","contractor":"","structural_designer":"","landscape_designer":"","shinkenchiku_url":""},{"id":12290,"title":"えーるピア久留米","architect":"佐藤総合計画","year":2000.0,"address":"福岡県久留米市諏訪野町1830-6","latitude":33.306053161621094,"longitude":130.52346801757812,"category":"ホール・劇場/公民館・交流施設","big_category":"文化施設,公共施設","description":"","image_url":"","tags":"Ver4.90(2023年4月)の追加建築","prefecture":"福岡","contractor":"","structural_designer":"","landscape_designer":"","shinkenchiku_url":""},{"id":12291,"title":"松原児童青少年交流センター ミラトン","architect":"御手洗龍","year":2022.0,"address":"埼玉県草加市松原4-4-3","latitude":35.84326934814453,"longitude":139.79087829589844,"category":"児童施設/公民館・交流施設","big_category":"教育,公共施設","description":"","image_url":"","tags":"Ver4.90(2023年4月)の追加建築,新建築2023年5月号","prefecture":"埼玉","contractor":"","structural_designer":"","landscape_designer":"","shinkenchiku_url":""},{"id":12292,"title":"Grove","architect":"御手洗龍","year":2023.0,"address":"埼玉県所沢市寿町25","latitude":35.791542053222656,"longitude":139.4664306640625,"category":"テナントビル/集合住宅","big_category":"商業施設,住宅","description":"","image_url":"","tags":"Ver4.90(2023年4月)の追加建築,新建築2023年8月号","prefecture":"埼玉","contractor":"","structural_designer":"","landscape_designer":"","shinkenchiku_url":""},{"id":12293,"title":"バイオフィリア プレイス","architect":"新居千秋","year":2023.0,"address":"東京都港区南⻘⼭2-5-7","latitude":35.67185592651367,"longitude":139.72283935546875,"category":"オフィスビル","big_category":"企業施設","description":"","image_url":"","tags":"Ver4.90(2023年4月)の追加建築","prefecture":"東京","contractor":"","structural_designer":"","landscape_designer":"","shinkenchiku_url":""},{"id":12294,"title":"SOLEA","architect":"新居千秋","year":2022.0,"address":"東京都港区芝浦1-14-7","latitude":35.64693069458008,"longitude":139.75282287597656,"category":"集合住宅","big_category":"住宅","description":"","image_url":"","tags":"Ver4.90(2023年4月)の追加建築","prefecture":"東京","contractor":"","structural_designer":"","landscape_designer":"","shinkenchiku_url":""},{"id":12295,"title":"HIBIKINADA CAMP BASE","architect":"SUEP.","year":2023.0,"address":"福岡県北九州市若松区竹並1058-11","latitude":33.918678283691406,"longitude":130.72479248046875,"category":"観光施設/公園/体験施設","big_category":"レジャー施設,レジャー施設,レジャー施設","description":"","image_url":"","tags":"Ver4.90(2023年4月)の追加建築","prefecture":"福岡","contractor":"","structural_designer":"","landscape_designer":"","shinkenchiku_url":""},{"id":12296,"title":"テレコムセンタービル","architect":"日総建+HOK","year":1996.0,"address":"東京都江東区青海2-5-10","latitude":35.617088317871094,"longitude":139.78005981445312,"category":"オフィスビル/展示・会議場","big_category":"企業施設,公共施設","description":"","image_url":"","tags":"Ver4.90(2023年4月)の追加建築","prefecture":"東京","contractor":"","structural_designer":"","landscape_designer":"","shinkenchiku_url":""},{"id":12297,"title":"軽井沢コモングラウンズ 書店棟","architect":"クライン・ダイサム・アーキテクツ","year":2023.0,"address":"長野県北佐久郡軽井沢町長倉1690-1","latitude":36.339813232421875,"longitude":138.58856201171875,"category":"店舗/シェアオフィス/カフェ","big_category":"商業施設,商業施設,商業施設","description":"築58年合宿施設の改修","image_url":"","tags":"Ver4.90(2023年4月)の追加建築,新建築2023年12月号","prefecture":"長野","contractor":"","structural_designer":"","landscape_designer":"","shinkenchiku_url":""},{"id":12298,"title":"鶴岡邸 / 武田清明建築設計事務所","architect":"武田清明","year":2021.0,"address":"東京都練馬区石神井町3-10-12","latitude":35.74043655395508,"longitude":139.6044921875,"category":"低層オフィス/住宅","big_category":"企業施設,住宅","description":"","image_url":"","tags":"Ver4.90(2023年4月)の追加建築","prefecture":"東京","contractor":"","structural_designer":"","landscape_designer":"","shinkenchiku_url":""},{"id":12299,"title":"伊丹市役所新庁舎","architect":"隈研吾","year":2022.0,"address":"兵庫県伊丹市千僧1-1","latitude":34.78447723388672,"longitude":135.40040588378906,"category":"庁舎","big_category":"公共施設","description":"","image_url":"","tags":"Ver4.90(2023年4月)の追加建築","prefecture":"兵庫","contractor":"","structural_designer":"","landscape_designer":"","shinkenchiku_url":""},{"id":12300,"title":"千葉市役所新庁舎","architect":"隈研吾+久米設計","year":2023.0,"address":"千葉県千葉市中央区千葉港1","latitude":35.60704040527344,"longitude":140.10665893554688,"category":"庁舎","big_category":"公共施設","description":"","image_url":"","tags":"Ver4.90(2023年4月)の追加建築","prefecture":"千葉","contractor":"","structural_designer":"","landscape_designer":"","shinkenchiku_url":""}]}