{"page":177,"total_pages":290,"items_per_page":50,"total_items":14467,"items":[{"id":8801,"title":"関西大学 第4学舎2号館","architect":"村野藤吾","year":1964.0,"address":"大阪府吹田市千里山東3-3-35","latitude":34.774322509765625,"longitude":135.5125732421875,"category":"大学","big_category":"教育","description":"三期にわけて建設。1964～1969年竣工","image_url":"","tags":"Ver3.10(2019年10月)の追加建築,DOCOMOMO","prefecture":"大阪","contractor":"","structural_designer":"","landscape_designer":"","shinkenchiku_url":""},{"id":8802,"title":"関西大学 誠之館","architect":"村野藤吾","year":1962.0,"address":"大阪府吹田市千里山東3-3-35","latitude":34.77513885498047,"longitude":135.51165771484375,"category":"大学","big_category":"教育","description":"1962～1968年竣工","image_url":"","tags":"Ver3.10(2019年10月)の追加建築,DOCOMOMO","prefecture":"大阪","contractor":"","structural_designer":"","landscape_designer":"","shinkenchiku_url":""},{"id":8803,"title":"関西大学第一高等学校 高校校舎1号館","architect":"村野藤吾","year":1980.0,"address":"大阪府吹田市山手町3-3-24","latitude":34.76943588256836,"longitude":135.50914001464844,"category":"学校","big_category":"教育","description":"","image_url":"","tags":"Ver3.10(2019年10月)の追加建築,DOCOMOMO","prefecture":"大阪","contractor":"","structural_designer":"","landscape_designer":"","shinkenchiku_url":""},{"id":8804,"title":"関西大学第一高等学校 高校校舎2号館","architect":"村野藤吾","year":1953.0,"address":"大阪府吹田市山手町3-3-24","latitude":34.76897048950195,"longitude":135.5094451904297,"category":"学校","big_category":"教育","description":"","image_url":"","tags":"Ver3.10(2019年10月)の追加建築,DOCOMOMO","prefecture":"大阪","contractor":"","structural_designer":"","landscape_designer":"","shinkenchiku_url":""},{"id":8805,"title":"関西大学第一高等学校 高校校舎3号館","architect":"村野藤吾","year":1966.0,"address":"大阪府吹田市山手町3-3-24","latitude":34.76860046386719,"longitude":135.50942993164062,"category":"学校","big_category":"教育","description":"","image_url":"","tags":"Ver3.10(2019年10月)の追加建築,DOCOMOMO","prefecture":"大阪","contractor":"","structural_designer":"","landscape_designer":"","shinkenchiku_url":""},{"id":8806,"title":"関西大学第一高等学校 景風館","architect":"村野藤吾","year":1955.0,"address":"大阪府吹田市山手町3-3-24","latitude":34.769737243652344,"longitude":135.5093994140625,"category":"学校","big_category":"教育","description":"","image_url":"","tags":"Ver3.10(2019年10月)の追加建築,DOCOMOMO","prefecture":"大阪","contractor":"","structural_designer":"","landscape_designer":"","shinkenchiku_url":""},{"id":8807,"title":"関西大学第一中学校 中学校校舎1号館","architect":"村野藤吾","year":1957.0,"address":"大阪府吹田市山手町3-3-24","latitude":34.770198822021484,"longitude":135.50975036621094,"category":"学校","big_category":"教育","description":"","image_url":"","tags":"Ver3.10(2019年10月)の追加建築,DOCOMOMO","prefecture":"大阪","contractor":"","structural_designer":"","landscape_designer":"","shinkenchiku_url":""},{"id":8808,"title":"長野県立こころの医療センター駒ヶ根","architect":"共同建築設計事務所","year":2012.0,"address":"長野県駒ヶ根市下平2901","latitude":35.746910095214844,"longitude":137.9615478515625,"category":"医療施設","big_category":"医療施設","description":"","image_url":"","tags":"Ver3.10(2019年10月)の追加建築,2018年公共建築賞・特別賞","prefecture":"長野","contractor":"","structural_designer":"","landscape_designer":"","shinkenchiku_url":""},{"id":8809,"title":"サクラマチ熊本","architect":"日建設計+太宏設計事務所","year":2019.0,"address":"熊本県熊本市中央区桜町3-10","latitude":32.8001823425293,"longitude":130.7032012939453,"category":"複合施設/ホール・劇場/集合住宅","big_category":"商業施設,文化施設,住宅","description":"","image_url":"","tags":"Ver3.10(2019年10月)の追加建築,新建築2020年6月号","prefecture":"熊本","contractor":"大成建設・吉永産業・岩永組・三津野建設・新規建設共同企業体","structural_designer":"","landscape_designer":"","shinkenchiku_url":""},{"id":8810,"title":"唐重","architect":"高橋紀人+NPC福岡","year":2019.0,"address":"佐賀県唐津市京町1783","latitude":33.4472541809082,"longitude":129.96917724609375,"category":"複合施設/ホテル/シェアオフィス","big_category":"商業施設,宿泊,商業施設","description":"","image_url":"","tags":"Ver3.10(2019年10月)の追加建築","prefecture":"佐賀","contractor":"","structural_designer":"","landscape_designer":"","shinkenchiku_url":""},{"id":8811,"title":"木村松本建築設計事務所 旧本野精吾自邸","architect":"本野精吾","year":1924.0,"address":"京都府京都市北区等持院北町58-1","latitude":35.03168869018555,"longitude":135.72596740722656,"category":"住宅/洋館/低層オフィス","big_category":"住宅,近代建築/遺産,企業施設","description":"","image_url":"","tags":"Ver3.10(2019年10月)の追加建築","prefecture":"京都","contractor":"","structural_designer":"","landscape_designer":"","shinkenchiku_url":""},{"id":8812,"title":"ホテル ベニ 旧リバティ","architect":"出江寛","year":1985.0,"address":"大阪府大阪市淀川区東三国3-11-21","latitude":34.747283935546875,"longitude":135.49813842773438,"category":"ホテル","big_category":"宿泊","description":"内外装ともにオリジナルから大きく変更されている","image_url":"","tags":"Ver3.10(2019年10月)の追加建築","prefecture":"大阪","contractor":"","structural_designer":"","landscape_designer":"","shinkenchiku_url":""},{"id":8813,"title":"大阪府立茨木高等学校","architect":"出江寛","year":1997.0,"address":"大阪府茨木市新庄町12-1","latitude":34.81315994262695,"longitude":135.57113647460938,"category":"学校","big_category":"教育","description":"","image_url":"","tags":"Ver3.10(2019年10月)の追加建築","prefecture":"大阪","contractor":"","structural_designer":"","landscape_designer":"","shinkenchiku_url":""},{"id":8814,"title":"中之島801ビル 旧和歌山MIDビル","architect":"出江寛","year":1993.0,"address":"和歌山県和歌山市中之島1518","latitude":34.239013671875,"longitude":135.18495178222656,"category":"オフィスビル","big_category":"企業施設","description":"","image_url":"","tags":"Ver3.10(2019年10月)の追加建築","prefecture":"和歌山","contractor":"","structural_designer":"","landscape_designer":"","shinkenchiku_url":""},{"id":8815,"title":"六甲アイランドシティ イーストコート4番街","architect":"出江寛","year":1990.0,"address":"兵庫県神戸市東灘区向洋町中1-4","latitude":34.692344665527344,"longitude":135.27139282226562,"category":"集合住宅","big_category":"住宅","description":"","image_url":"","tags":"Ver3.10(2019年10月)の追加建築","prefecture":"兵庫","contractor":"","structural_designer":"","landscape_designer":"","shinkenchiku_url":""},{"id":8816,"title":"ポンテフィーコ","architect":"出江寛","year":1997.0,"address":"大阪府羽曳野市誉田3-16-15","latitude":34.558536529541016,"longitude":135.6074676513672,"category":"集合住宅","big_category":"住宅","description":"","image_url":"","tags":"Ver3.10(2019年10月)の追加建築","prefecture":"大阪","contractor":"","structural_designer":"","landscape_designer":"","shinkenchiku_url":""},{"id":8817,"title":"パークハウス覚王山向陽荘","architect":"出江寛","year":2006.0,"address":"愛知県名古屋市千種区向陽町2-16-8","latitude":35.1705207824707,"longitude":136.9499969482422,"category":"集合住宅","big_category":"住宅","description":"","image_url":"","tags":"Ver3.10(2019年10月)の追加建築","prefecture":"愛知","contractor":"","structural_designer":"","landscape_designer":"","shinkenchiku_url":""},{"id":8818,"title":"株式会社山水","architect":"出江寛","year":1976.0,"address":"大阪府堺市北区金岡町1377","latitude":34.553550720214844,"longitude":135.51321411132812,"category":"店舗","big_category":"商業施設","description":"","image_url":"","tags":"Ver3.10(2019年10月)の追加建築","prefecture":"大阪","contractor":"","structural_designer":"","landscape_designer":"","shinkenchiku_url":""},{"id":8819,"title":"鎌倉市庁舎","architect":"久米設計","year":1969.0,"address":"神奈川県鎌倉市御成町18-10","latitude":35.31922149658203,"longitude":139.5467987060547,"category":"庁舎","big_category":"公共施設","description":"2028年に庁舎移転予定","image_url":"","tags":"Ver3.10(2019年10月)の追加建築","prefecture":"神奈川","contractor":"","structural_designer":"","landscape_designer":"","shinkenchiku_url":""},{"id":8820,"title":"仙台国際センター","architect":"日建設計","year":1991.0,"address":"宮城県仙台市青葉区青葉山 仙台国際センター","latitude":38.25861358642578,"longitude":140.8579559326172,"category":"展示・会議場","big_category":"公共施設","description":"","image_url":"","tags":"Ver3.10(2019年10月)の追加建築","prefecture":"宮城","contractor":"","structural_designer":"","landscape_designer":"","shinkenchiku_url":""},{"id":8821,"title":"近江八幡教会牧師館","architect":"ウィリアム・メレル・ヴォーリズ","year":1940.0,"address":"滋賀県近江八幡市為心町上17","latitude":35.1376953125,"longitude":136.09225463867188,"category":"宗教施設/洋館","big_category":"宗教,近代建築/遺産","description":"","image_url":"","tags":"Ver3.10(2019年10月)の追加建築","prefecture":"滋賀","contractor":"","structural_designer":"","landscape_designer":"","shinkenchiku_url":""},{"id":8822,"title":"ヴォーリズ学園教育会館","architect":"ウィリアム・メレル・ヴォーリズ","year":1931.0,"address":"滋賀県近江八幡市市井町177","latitude":35.14030838012695,"longitude":136.09547424316406,"category":"学校/ホール・劇場","big_category":"教育,文化施設","description":"","image_url":"","tags":"Ver3.10(2019年10月)の追加建築","prefecture":"滋賀","contractor":"","structural_designer":"","landscape_designer":"","shinkenchiku_url":""},{"id":8823,"title":"ヴォーリズ記念病院礼拝堂","architect":"ウィリアム・メレル・ヴォーリズ","year":1937.0,"address":"滋賀県近江八幡市北之庄町492","latitude":35.152366638183594,"longitude":136.089111328125,"category":"教会","big_category":"宗教","description":"","image_url":"","tags":"Ver3.10(2019年10月)の追加建築","prefecture":"滋賀","contractor":"","structural_designer":"","landscape_designer":"","shinkenchiku_url":""},{"id":8824,"title":"きょうと和み館 旧村井銀行七条支店","architect":"吉武長一","year":1914.0,"address":"京都府京都市下京区東中筋通七条上る文覚町402","latitude":34.989402770996094,"longitude":135.7545928955078,"category":"レストラン/洋館/金融機関","big_category":"商業施設,近代建築/遺産,企業施設","description":"2020年末に閉館。現在テナント募集中","image_url":"","tags":"Ver3.10(2019年10月)の追加建築","prefecture":"京都","contractor":"","structural_designer":"","landscape_designer":"","shinkenchiku_url":""},{"id":8825,"title":"CANDY SHOW TIME 京都祇園店 旧村井銀行祇園支店","architect":"吉武長一","year":1924.0,"address":"京都府京都市東山区祇園町南側573-5","latitude":35.00365447998047,"longitude":135.77462768554688,"category":"カフェ/洋館/金融機関","big_category":"商業施設,近代建築/遺産,企業施設","description":"","image_url":"","tags":"Ver3.10(2019年10月)の追加建築","prefecture":"京都","contractor":"","structural_designer":"","landscape_designer":"","shinkenchiku_url":""},{"id":8826,"title":"京都大学 保険診療所","architect":"武田五一+永瀬狂三","year":1926.0,"address":"京都府京都市左京区吉田本町 京都大学 保険診療所","latitude":35.025421142578125,"longitude":135.78024291992188,"category":"医療施設/洋館","big_category":"医療施設,近代建築/遺産","description":"","image_url":"","tags":"Ver3.10(2019年10月)の追加建築","prefecture":"京都","contractor":"","structural_designer":"","landscape_designer":"","shinkenchiku_url":""},{"id":8827,"title":"京都大学 百周年時計台記念館","architect":"武田五一+川崎清","year":1925.0,"address":"京都府京都市左京区吉田本町36","latitude":35.02602767944336,"longitude":135.7808380126953,"category":"大学/ホール・劇場","big_category":"教育,文化施設","description":"2004年に川崎清により改修・増築","image_url":"","tags":"Ver3.10(2019年10月)の追加建築","prefecture":"京都","contractor":"","structural_designer":"","landscape_designer":"","shinkenchiku_url":""},{"id":8828,"title":"京都教育大学附属京都小中学校","architect":"十河安雄","year":1938.0,"address":"京都府京都市北区紫野東御所田町37","latitude":35.04062271118164,"longitude":135.75448608398438,"category":"学校","big_category":"教育","description":"","image_url":"","tags":"Ver3.10(2019年10月)の追加建築","prefecture":"京都","contractor":"","structural_designer":"","landscape_designer":"","shinkenchiku_url":""},{"id":8829,"title":"京都工芸繊維大学 KIT倶楽部 旧舟岡家住宅離れ","architect":"ウィリアム・メレル・ヴォーリズ","year":1929.0,"address":"京都府京都市左京区松ヶ崎鞍馬田町15-1","latitude":35.0508918762207,"longitude":135.78184509277344,"category":"住宅","big_category":"住宅","description":"","image_url":"","tags":"Ver3.10(2019年10月)の追加建築","prefecture":"京都","contractor":"","structural_designer":"","landscape_designer":"","shinkenchiku_url":""},{"id":8830,"title":"京都水族館","architect":"大成建設+東洋設計事務所","year":2012.0,"address":"京都府京都市下京区観喜寺町35-1","latitude":34.98760986328125,"longitude":135.74761962890625,"category":"水族館","big_category":"レジャー施設","description":"","image_url":"","tags":"Ver3.10(2019年10月)の追加建築","prefecture":"京都","contractor":"","structural_designer":"","landscape_designer":"","shinkenchiku_url":""},{"id":8831,"title":"京都中央信用金庫 丸太町支店","architect":"西村好時","year":1927.0,"address":"京都府京都市中京区東椹木町104","latitude":35.017330169677734,"longitude":135.7682342529297,"category":"金融機関/洋館","big_category":"企業施設,近代建築/遺産","description":"","image_url":"","tags":"Ver3.10(2019年10月)の追加建築","prefecture":"京都","contractor":"","structural_designer":"","landscape_designer":"","shinkenchiku_url":""},{"id":8832,"title":"祇園閣","architect":"伊東忠太","year":1927.0,"address":"京都府京都市東山区祇園町南側594-1","latitude":35.00213623046875,"longitude":135.77975463867188,"category":"寺院","big_category":"宗教","description":"基本的に非公開だが、春などに特別公開がある","image_url":"","tags":"Ver3.10(2019年10月)の追加建築,登録有形文化財","prefecture":"京都","contractor":"","structural_designer":"","landscape_designer":"","shinkenchiku_url":""},{"id":8833,"title":"祇園ハナトミビル","architect":"高松伸","year":1989.0,"address":"京都府京都市東山区富永町119-1","latitude":35.00448226928711,"longitude":135.7752685546875,"category":"テナントビル","big_category":"商業施設","description":"","image_url":"","tags":"Ver3.10(2019年10月)の追加建築","prefecture":"京都","contractor":"","structural_designer":"","landscape_designer":"","shinkenchiku_url":""},{"id":8834,"title":"江寿ビル","architect":"黒川紀章","year":1986.0,"address":"京都府京都市中京区丸太町通寺町西入毘沙門町557","latitude":35.017234802246094,"longitude":135.76678466796875,"category":"ギャラリー/オフィスビル","big_category":"ミュージアム,企業施設","description":"","image_url":"","tags":"Ver3.10(2019年10月)の追加建築","prefecture":"京都","contractor":"藤木工務店","structural_designer":"","landscape_designer":"","shinkenchiku_url":""},{"id":8835,"title":"同志社女子大学 栄光館","architect":"武田五一","year":1932.0,"address":"京都府京都市上京区今出川通寺町西入","latitude":35.029720306396484,"longitude":135.76426696777344,"category":"大学","big_category":"教育","description":"","image_url":"","tags":"Ver3.10(2019年10月)の追加建築","prefecture":"京都","contractor":"","structural_designer":"","landscape_designer":"","shinkenchiku_url":""},{"id":8836,"title":"同志社大学 アーモスト館","architect":"ウィリアム・メレル・ヴォーリズ","year":1932.0,"address":"京都府京都市上京区今出川通烏丸東入相国寺門前町632","latitude":35.03009033203125,"longitude":135.76255798339844,"category":"大学/寮","big_category":"教育,住宅","description":"","image_url":"","tags":"Ver3.10(2019年10月)の追加建築","prefecture":"京都","contractor":"","structural_designer":"","landscape_designer":"","shinkenchiku_url":""},{"id":8837,"title":"同志社大学 彰栄館","architect":"ダニエル・クロスビー・グリーン","year":1884.0,"address":"京都府京都市上京区相国寺門前町 同志社大学 彰栄館","latitude":35.03017044067383,"longitude":135.75975036621094,"category":"大学","big_category":"教育","description":"","image_url":"","tags":"Ver3.10(2019年10月)の追加建築","prefecture":"京都","contractor":"","structural_designer":"","landscape_designer":"","shinkenchiku_url":""},{"id":8838,"title":"同志社大学 有終館","architect":"ダニエル・クロスビー・グリーン","year":1887.0,"address":"京都府京都市上京区玄武町601","latitude":35.02933883666992,"longitude":135.7615203857422,"category":"大学","big_category":"教育","description":"","image_url":"","tags":"Ver3.10(2019年10月)の追加建築","prefecture":"京都","contractor":"","structural_designer":"","landscape_designer":"","shinkenchiku_url":""},{"id":8839,"title":"同志社大学 クラーク記念館","architect":"リヒャルト・ゼール","year":1894.0,"address":"京都府京都市上京区相国寺門前町 同志社大学 クラーク記念館","latitude":35.030181884765625,"longitude":135.76185607910156,"category":"大学/教会","big_category":"教育,宗教","description":"","image_url":"","tags":"Ver3.10(2019年10月)の追加建築","prefecture":"京都","contractor":"","structural_designer":"","landscape_designer":"","shinkenchiku_url":""},{"id":8840,"title":"同志社大学 明徳館","architect":"大倉三郎","year":1952.0,"address":"京都府京都市上京区新北小路町今出川通り烏丸東入 同志社大学 明徳館","latitude":35.02975082397461,"longitude":135.76075744628906,"category":"大学","big_category":"教育","description":"","image_url":"","tags":"Ver3.10(2019年10月)の追加建築","prefecture":"京都","contractor":"","structural_designer":"","landscape_designer":"","shinkenchiku_url":""},{"id":8841,"title":"同志社大学 礼拝堂","architect":"ダニエル・クロスビー・グリーン","year":1886.0,"address":"京都府京都市上京区相国寺門前町 同志社大学 礼拝堂","latitude":35.03032302856445,"longitude":135.76040649414062,"category":"大学/教会","big_category":"教育,宗教","description":"","image_url":"","tags":"Ver3.10(2019年10月)の追加建築","prefecture":"京都","contractor":"","structural_designer":"","landscape_designer":"","shinkenchiku_url":""},{"id":8842,"title":"二条駅","architect":"浦辺設計","year":1996.0,"address":"京都府京都市中京区西ノ京東栂尾町 二条駅","latitude":35.0109977722168,"longitude":135.74171447753906,"category":"駅","big_category":"インフラ","description":"","image_url":"","tags":"Ver3.10(2019年10月)の追加建築","prefecture":"京都","contractor":"","structural_designer":"","landscape_designer":"","shinkenchiku_url":""},{"id":8843,"title":"日本聖公会 京都復活教会","architect":"ウィリアム・メレル・ヴォーリズ","year":1935.0,"address":"京都府京都市北区紫野西御所田町63","latitude":35.04066848754883,"longitude":135.75253295898438,"category":"教会","big_category":"宗教","description":"","image_url":"","tags":"Ver3.10(2019年10月)の追加建築","prefecture":"京都","contractor":"","structural_designer":"","landscape_designer":"","shinkenchiku_url":""},{"id":8844,"title":"日本福音ルーテル賀茂川教会","architect":"ウィリアム・メレル・ヴォーリズ","year":1954.0,"address":"京都府京都市北区小山下内河原町14","latitude":35.04631805419922,"longitude":135.75906372070312,"category":"教会","big_category":"宗教","description":"","image_url":"","tags":"Ver3.10(2019年10月)の追加建築","prefecture":"京都","contractor":"","structural_designer":"","landscape_designer":"","shinkenchiku_url":""},{"id":8845,"title":"フランソア喫茶室","architect":"ベンチベニ","year":1941.0,"address":"京都府京都市下京区西木屋町通四条下ル船頭町184","latitude":35.00337219238281,"longitude":135.770263671875,"category":"カフェ","big_category":"商業施設","description":"","image_url":"","tags":"Ver3.10(2019年10月)の追加建築","prefecture":"京都","contractor":"","structural_designer":"","landscape_designer":"","shinkenchiku_url":""},{"id":8846,"title":"鮒鶴 京都鴨川リゾート","architect":"柴田四郎","year":1925.0,"address":"京都府京都市下京区木屋町通松原上ル美濃屋町180","latitude":34.99925994873047,"longitude":135.76873779296875,"category":"レストラン","big_category":"商業施設","description":"","image_url":"","tags":"Ver3.10(2019年10月)の追加建築","prefecture":"京都","contractor":"","structural_designer":"","landscape_designer":"","shinkenchiku_url":""},{"id":8847,"title":"日本基督教団 千葉教会","architect":"リヒャルト・ゼール","year":1895.0,"address":"千葉県千葉市中央区市場町9-20","latitude":35.60386276245117,"longitude":140.12466430664062,"category":"教会","big_category":"宗教","description":"","image_url":"","tags":"Ver3.10(2019年10月)の追加建築","prefecture":"千葉","contractor":"","structural_designer":"","landscape_designer":"","shinkenchiku_url":""},{"id":8848,"title":"明治学院大学 明治学院記念館 旧神学部校舎","architect":"H.M.ランディス+リヒャルト・ゼール","year":1890.0,"address":"東京都港区白金台1-2","latitude":35.636619567871094,"longitude":139.7311553955078,"category":"大学","big_category":"教育","description":"H.M.ランディス教授の設計といわれる。2階部分の改修はリヒャルト・ゼール","image_url":"","tags":"Ver3.10(2019年10月)の追加建築","prefecture":"東京","contractor":"","structural_designer":"","landscape_designer":"","shinkenchiku_url":""},{"id":8849,"title":"明治学院大学 明治学院チャペル","architect":"ウィリアム・メレル・ヴォーリズ","year":1916.0,"address":"東京都港区白金台1-2","latitude":35.636573791503906,"longitude":139.7307586669922,"category":"大学/教会","big_category":"教育,宗教","description":"","image_url":"","tags":"Ver3.10(2019年10月)の追加建築","prefecture":"東京","contractor":"","structural_designer":"","landscape_designer":"","shinkenchiku_url":""},{"id":8850,"title":"ホテル ザ・スクリーン","architect":"關聡志","year":2007.0,"address":"京都市中京区寺町丸太町下ル下御霊前町640-1","latitude":35.01701354980469,"longitude":135.76705932617188,"category":"ホテル","big_category":"宿泊","description":"","image_url":"","tags":"Ver3.10(2019年10月)の追加建築","prefecture":"京都","contractor":"","structural_designer":"","landscape_designer":"","shinkenchiku_url":""}]}