{"page":32,"total_pages":290,"items_per_page":50,"total_items":14467,"items":[{"id":1551,"title":"道の駅 池田温泉","architect":"大建met","year":2011.0,"address":"岐阜県揖斐郡池田町片山1953-1","latitude":35.41944122314453,"longitude":136.559814453125,"category":"PA・道の駅","big_category":"インフラ","description":"","image_url":"","tags":"","prefecture":"岐阜","contractor":"","structural_designer":"","landscape_designer":"","shinkenchiku_url":""},{"id":1552,"title":"加子母ふれあいコミュニティセンター","architect":"安藤忠雄","year":2004.0,"address":"岐阜県中津川市加子母3427-1","latitude":35.71683883666992,"longitude":137.36949157714844,"category":"公民館・交流施設","big_category":"公共施設","description":"","image_url":"","tags":"","prefecture":"岐阜","contractor":"","structural_designer":"","landscape_designer":"","shinkenchiku_url":""},{"id":1553,"title":"加子母村郷土館 旧加子母村役場　","architect":"不明","year":1894.0,"address":"岐阜県中津川市加子母上桑原4105-1","latitude":35.71210479736328,"longitude":137.37594604492188,"category":"洋館","big_category":"近代建築/遺産","description":"","image_url":"","tags":"","prefecture":"岐阜","contractor":"","structural_designer":"","landscape_designer":"","shinkenchiku_url":""},{"id":1554,"title":"藤村記念堂","architect":"谷口吉郎","year":1947.0,"address":"岐阜県中津川市馬籠4256-1","latitude":35.52688217163086,"longitude":137.5672607421875,"category":"博物館","big_category":"ミュージアム","description":"","image_url":"","tags":"1949年日本建築学会 作品賞,DOCOMOMO","prefecture":"岐阜","contractor":"","structural_designer":"","landscape_designer":"","shinkenchiku_url":""},{"id":1555,"title":"ストーンミュージアム博石館","architect":"小栗廣正","year":1986.0,"address":"岐阜県中津川市蛭川 博石館","latitude":35.496726989746094,"longitude":137.3993682861328,"category":"博物館/テーマパーク","big_category":"ミュージアム,レジャー施設","description":"","image_url":"","tags":"","prefecture":"岐阜","contractor":"","structural_designer":"","landscape_designer":"","shinkenchiku_url":""},{"id":1556,"title":"MIBOROダムサイドパーク 御母衣電力館・荘川桜記念館","architect":"清水泰博","year":2001.0,"address":"岐阜県大野郡白川村大字牧140-1","latitude":36.14521789550781,"longitude":136.90867614746094,"category":"博物館","big_category":"ミュージアム","description":"","image_url":"","tags":"","prefecture":"岐阜","contractor":"","structural_designer":"","landscape_designer":"","shinkenchiku_url":""},{"id":1557,"title":"白川北地区公民館","architect":"不明","year":1934.0,"address":"岐阜県加茂郡白川町白山1479","latitude":35.63125228881836,"longitude":137.1841583251953,"category":"洋館/公民館・交流施設","big_category":"近代建築/遺産,公共施設","description":"","image_url":"","tags":"","prefecture":"岐阜","contractor":"","structural_designer":"","landscape_designer":"","shinkenchiku_url":""},{"id":1558,"title":"旧八百津発電所資料館","architect":"不明","year":1911.0,"address":"岐阜県加茂郡八百津町八百津1770-1","latitude":35.47220993041992,"longitude":137.16152954101562,"category":"洋館","big_category":"近代建築/遺産","description":"","image_url":"","tags":"","prefecture":"岐阜","contractor":"","structural_designer":"","landscape_designer":"","shinkenchiku_url":""},{"id":1559,"title":"神岡振興事務所 旧神岡町役場","architect":"磯崎新","year":1978.0,"address":"岐阜県飛騨市神岡町東町378","latitude":36.33200454711914,"longitude":137.3013153076172,"category":"公共施設/図書館","big_category":"公共施設,文化施設","description":"","image_url":"","tags":"新建築1978年9月号","prefecture":"岐阜","contractor":"","structural_designer":"","landscape_designer":"","shinkenchiku_url":""},{"id":1560,"title":"岐阜県立森林文化アカデミー","architect":"北川原温","year":2001.0,"address":"岐阜県美濃市曽代88","latitude":35.555477142333984,"longitude":136.91815185546875,"category":"学校","big_category":"教育","description":"","image_url":"","tags":"2006年公共建築賞・特別賞","prefecture":"岐阜","contractor":"","structural_designer":"","landscape_designer":"","shinkenchiku_url":""},{"id":1561,"title":"北方町生涯学習センターきらり・岐阜県建築情報センター","architect":"磯崎新","year":2005.0,"address":"岐阜県本巣群北方町北方1857","latitude":35.435760498046875,"longitude":136.6826934814453,"category":"公民館・交流施設","big_category":"公共施設","description":"","image_url":"","tags":"","prefecture":"岐阜","contractor":"","structural_designer":"","landscape_designer":"","shinkenchiku_url":""},{"id":1562,"title":"ハイタウン北方 S1棟","architect":"ワークステーション","year":1998.0,"address":"岐阜県本巣群北方町北方1857","latitude":35.4339599609375,"longitude":136.68287658691406,"category":"集合住宅","big_category":"住宅","description":"高橋晶子名義","image_url":"https://lh3.googleusercontent.com/-yytvChuGXLY/T659rYlGWmI/AAAAAAAANLM/Z-zbHY7GZBY/s1024/P4290371.jpg","tags":"","prefecture":"岐阜","contractor":"","structural_designer":"","landscape_designer":"","shinkenchiku_url":""},{"id":1563,"title":"ハイタウン北方 S3棟","architect":"エリザベス・ディラー","year":1998.0,"address":"岐阜県本巣群北方町北方1857","latitude":35.43395233154297,"longitude":136.68516540527344,"category":"集合住宅","big_category":"住宅","description":"","image_url":"https://lh3.googleusercontent.com/-yytvChuGXLY/T659rYlGWmI/AAAAAAAANLM/Z-zbHY7GZBY/s1024/P4290371.jpg","tags":"","prefecture":"岐阜","contractor":"","structural_designer":"","landscape_designer":"","shinkenchiku_url":""},{"id":1564,"title":"ハイタウン北方 S4棟","architect":"妹島和世","year":1998.0,"address":"岐阜県本巣群北方町北方1857","latitude":35.433433532714844,"longitude":136.6846466064453,"category":"集合住宅","big_category":"住宅","description":"","image_url":"https://farm8.staticflickr.com/7283/8922819924_176b3352f4_h.jpg","tags":"","prefecture":"岐阜","contractor":"","structural_designer":"","landscape_designer":"","shinkenchiku_url":""},{"id":1565,"title":"ハイタウン北方 S2棟","architect":"クリスティン・ホーリィ","year":1998.0,"address":"岐阜県本巣群北方町北方1857","latitude":35.433387756347656,"longitude":136.6837158203125,"category":"集合住宅","big_category":"住宅","description":"","image_url":"https://lh3.googleusercontent.com/-yytvChuGXLY/T659rYlGWmI/AAAAAAAANLM/Z-zbHY7GZBY/s1024/P4290371.jpg","tags":"","prefecture":"岐阜","contractor":"","structural_designer":"","landscape_designer":"","shinkenchiku_url":""},{"id":1566,"title":"村のテラス 森呼吸","architect":"渡辺誠","year":1995.0,"address":"岐阜県揖斐郡揖斐川町坂内広瀬77","latitude":35.59999084472656,"longitude":136.43809509277344,"category":"観光施設/PA・道の駅","big_category":"レジャー施設,インフラ","description":"","image_url":"","tags":"","prefecture":"岐阜","contractor":"","structural_designer":"","landscape_designer":"","shinkenchiku_url":""},{"id":1567,"title":"谷汲サンサンホール","architect":"大建設計株式会社","year":1998.0,"address":"岐阜県揖斐郡揖斐川町谷汲名礼264-22","latitude":35.5265998840332,"longitude":136.60861206054688,"category":"ホール・劇場","big_category":"文化施設","description":"","image_url":"","tags":"","prefecture":"岐阜","contractor":"","structural_designer":"","landscape_designer":"","shinkenchiku_url":""},{"id":1568,"title":"養老天命反転地","architect":"荒川修作+マドリン・ギンズ","year":1995.0,"address":"岐阜県養老郡養老町高林1298-2","latitude":35.28202819824219,"longitude":136.5503692626953,"category":"公園","big_category":"レジャー施設","description":"","image_url":"https://lh3.googleusercontent.com/-7CpG07AWIhk/ToA5X0sMqsI/AAAAAAAAE8M/91zeUv4oXvo/s1024/P9244205.JPG","tags":"","prefecture":"岐阜","contractor":"","structural_designer":"","landscape_designer":"","shinkenchiku_url":""},{"id":1569,"title":"南飛騨健康学習センター 南ひだ健康道場","architect":"奥山信一","year":2003.0,"address":"岐阜下呂市萩原町四美1557-3","latitude":35.938087463378906,"longitude":137.2127685546875,"category":"体験施設","big_category":"レジャー施設","description":"","image_url":"","tags":"新建築2003年10月号","prefecture":"岐阜","contractor":"","structural_designer":"","landscape_designer":"","shinkenchiku_url":""},{"id":1570,"title":"伊賀市役所 中央公民館","architect":"坂倉準三","year":1960.0,"address":"三重県伊賀市上野丸之内116","latitude":34.76885223388672,"longitude":136.13034057617188,"category":"公民館・交流施設","big_category":"公共施設","description":"","image_url":"","tags":"","prefecture":"三重","contractor":"","structural_designer":"","landscape_designer":"","shinkenchiku_url":""},{"id":1571,"title":"ホテル 泊船 旧伊賀市庁舎","architect":"坂倉準三+MARU。architecture","year":1963.0,"address":"三重県伊賀市上野丸之内116","latitude":34.76868438720703,"longitude":136.12994384765625,"category":"庁舎/ホテル","big_category":"公共施設,宿泊","description":"2025年夏にブティックホテルとしてオープン予定。改修はMARU。architecture。","image_url":"","tags":"DOCOMOMO","prefecture":"三重","contractor":"","structural_designer":"","landscape_designer":"","shinkenchiku_url":""},{"id":1572,"title":"賓日館","architect":"大江新太郎+塩野庄四郎","year":1887.0,"address":"三重県伊勢市二見町茶屋566-2","latitude":34.50811004638672,"longitude":136.78440856933594,"category":"和風住宅","big_category":"住宅","description":"","image_url":"","tags":"","prefecture":"三重","contractor":"","structural_designer":"","landscape_designer":"","shinkenchiku_url":""},{"id":1573,"title":"伊勢神宮 神宮内宮参集殿","architect":"土屋辰之助","year":2011.0,"address":"三重県伊勢市宇治館町1","latitude":34.457191467285156,"longitude":136.72360229492188,"category":"博物館","big_category":"ミュージアム","description":"","image_url":"","tags":"","prefecture":"三重","contractor":"","structural_designer":"","landscape_designer":"","shinkenchiku_url":""},{"id":1574,"title":"式年遷宮記念神宮美術館","architect":"大江宏","year":1993.0,"address":"三重県伊勢市神田久志本町1754-1","latitude":34.486793518066406,"longitude":136.7233123779297,"category":"美術館","big_category":"ミュージアム","description":"","image_url":"https://lh3.googleusercontent.com/-ge2B5bCxKrI/UN7WnDiegXI/AAAAAAAAtxs/JqqyUOdTvgc/s1024/lr-061542.jpg","tags":"","prefecture":"三重","contractor":"","structural_designer":"","landscape_designer":"","shinkenchiku_url":""},{"id":1575,"title":"式年遷宮記念せんぐう館","architect":"栗生明","year":2012.0,"address":"三重県伊勢市豊川町126-1","latitude":34.486785888671875,"longitude":136.7068328857422,"category":"博物館","big_category":"ミュージアム","description":"","image_url":"https://farm8.staticflickr.com/7360/8892641161_757b28de22_h.jpg","tags":"","prefecture":"三重","contractor":"","structural_designer":"","landscape_designer":"","shinkenchiku_url":""},{"id":1576,"title":"六華苑 諸戸庭園 旧諸戸清六邸","architect":"ジョサイア・コンドル","year":1913.0,"address":"三重県桑名市太一丸18","latitude":35.069705963134766,"longitude":136.69229125976562,"category":"洋館","big_category":"近代建築/遺産","description":"","image_url":"","tags":"","prefecture":"三重","contractor":"","structural_designer":"","landscape_designer":"","shinkenchiku_url":""},{"id":1577,"title":"城東地区複合施設 はまぐりプラザ","architect":"内藤廣","year":2010.0,"address":"三重県桑名市赤須賀86-21","latitude":35.06002426147461,"longitude":136.70260620117188,"category":"公民館・交流施設/レストラン","big_category":"公共施設,商業施設","description":"","image_url":"","tags":"","prefecture":"三重","contractor":"","structural_designer":"","landscape_designer":"","shinkenchiku_url":""},{"id":1578,"title":"PARAMITA MUSEUM","architect":"東畑建築事務所","year":2000.0,"address":"三重県三重郡菰野町大羽根園松ヶ枝町21-6","latitude":35.01276397705078,"longitude":136.4898223876953,"category":"美術館","big_category":"ミュージアム","description":"","image_url":"","tags":"","prefecture":"三重","contractor":"","structural_designer":"","landscape_designer":"","shinkenchiku_url":""},{"id":1579,"title":"四郷郷土資料館","architect":"不明","year":1921.0,"address":"三重県四日市市西日野町3375","latitude":34.954200744628906,"longitude":136.5832977294922,"category":"洋館","big_category":"近代建築/遺産","description":"","image_url":"","tags":"","prefecture":"三重","contractor":"","structural_designer":"","landscape_designer":"","shinkenchiku_url":""},{"id":1580,"title":"旧小田小学校本館","architect":"不明","year":1881.0,"address":"三重県伊賀市小田町 旧小田小学校本館","latitude":34.77104949951172,"longitude":136.1246795654297,"category":"洋館","big_category":"近代建築/遺産","description":"","image_url":"","tags":"","prefecture":"三重","contractor":"","structural_designer":"","landscape_designer":"","shinkenchiku_url":""},{"id":1581,"title":"大内山村野鳥観察舎","architect":"ヌーブ","year":2000.0,"address":"三重県度会郡大紀町大内山875","latitude":34.275089263916016,"longitude":136.3586883544922,"category":"その他文化施設","big_category":"文化施設","description":"","image_url":"","tags":"","prefecture":"三重","contractor":"","structural_designer":"","landscape_designer":"","shinkenchiku_url":""},{"id":1582,"title":"朝日町資料館","architect":"不明","year":null,"address":"三重県三重郡朝日町小向873","latitude":35.03451919555664,"longitude":136.66546630859375,"category":"洋館","big_category":"近代建築/遺産","description":"","image_url":"","tags":"","prefecture":"三重","contractor":"","structural_designer":"","landscape_designer":"","shinkenchiku_url":""},{"id":1583,"title":"志摩ミュージアム","architect":"内藤廣","year":1993.0,"address":"三重県鳥羽市浦村町1772","latitude":34.45051956176758,"longitude":136.8994903564453,"category":"美術館","big_category":"ミュージアム","description":"売り出し中。2021年フルリノベーション。外部は見学可能","image_url":"https://lh3.googleusercontent.com/-PTK4-X-pycY/UN7nrc8Np1I/AAAAAAAAvwU/9OTuM4HwOuo/s1024/lr-061647.jpg","tags":"","prefecture":"三重","contractor":"","structural_designer":"","landscape_designer":"","shinkenchiku_url":""},{"id":1584,"title":"海の博物館","architect":"内藤廣","year":1992.0,"address":"三重県鳥羽市浦村町1731-68","latitude":34.448997497558594,"longitude":136.90011596679688,"category":"博物館","big_category":"ミュージアム","description":"","image_url":"https://farm3.staticflickr.com/2876/8904304273_367ec2ba30_h.jpg","tags":"1993年日本建築学会 作品賞,公共建築百選,1993年吉田五十八賞,2021年JIA25年賞 受賞作品","prefecture":"三重","contractor":"","structural_designer":"","landscape_designer":"","shinkenchiku_url":""},{"id":1585,"title":"三重大学レーモンドホール","architect":"アントニン・レーモンド","year":1951.0,"address":"三重県津市栗真町屋町1577","latitude":34.746456146240234,"longitude":136.52139282226562,"category":"博物館","big_category":"ミュージアム","description":"","image_url":"","tags":"登録有形文化財","prefecture":"三重","contractor":"","structural_designer":"","landscape_designer":"","shinkenchiku_url":""},{"id":1586,"title":"三重県立美術館","architect":"富家宏泰+坂倉建築研究所","year":1982.0,"address":"三重県津市大谷町11","latitude":34.73485565185547,"longitude":136.5019073486328,"category":"美術館","big_category":"ミュージアム","description":"2003年に坂倉建築研究所によりリニューアル","image_url":"","tags":"公共建築百選","prefecture":"三重","contractor":"","structural_designer":"","landscape_designer":"","shinkenchiku_url":""},{"id":1587,"title":"三重県総合文化センター","architect":"A&T建築研究所","year":1993.0,"address":"三重県津市一身田上津部田1234","latitude":34.7452392578125,"longitude":136.50120544433594,"category":"総合文化施設","big_category":"文化施設","description":"","image_url":"","tags":"","prefecture":"三重","contractor":"","structural_designer":"","landscape_designer":"","shinkenchiku_url":""},{"id":1588,"title":"伊勢現代美術館","architect":"不明","year":null,"address":"三重県度会郡南伊勢町五ヶ所浦102-8","latitude":34.34052276611328,"longitude":136.69302368164062,"category":"美術館","big_category":"ミュージアム","description":"","image_url":"","tags":"","prefecture":"三重","contractor":"","structural_designer":"","landscape_designer":"","shinkenchiku_url":""},{"id":1589,"title":"三重県立熊野古道センター","architect":"建築研究所アーキヴィジョン","year":2007.0,"address":"三重県尾鷲市大字向井12-4","latitude":34.061771392822266,"longitude":136.214599609375,"category":"博物館/観光施設","big_category":"ミュージアム,レジャー施設","description":"","image_url":"https://lh3.googleusercontent.com/-Ud4K0a1-_KA/UN7etNnob4I/AAAAAAAAuuU/nkmle3NLBX4/s1024/lr-071724.jpg","tags":"2012年公共建築賞,2009年日本建築学会 作品選奨","prefecture":"三重","contractor":"","structural_designer":"","landscape_designer":"","shinkenchiku_url":""},{"id":1590,"title":"いつきのみや歴史体験館","architect":"広瀬鎌二","year":2000.0,"address":"三重県多気郡明和町斎宮3046-25","latitude":34.53833770751953,"longitude":136.6160125732422,"category":"博物館","big_category":"ミュージアム","description":"","image_url":"","tags":"","prefecture":"三重","contractor":"","structural_designer":"","landscape_designer":"","shinkenchiku_url":""},{"id":1591,"title":"浪合フォーラム","architect":"中村勉","year":1997.0,"address":"長野県下伊那郡阿智村浪合1018","latitude":35.37424087524414,"longitude":137.69041442871094,"category":"公民館・交流施設/庁舎/福祉センター","big_category":"公共施設,公共施設,医療施設","description":"","image_url":"","tags":"","prefecture":"長野","contractor":"","structural_designer":"","landscape_designer":"","shinkenchiku_url":""},{"id":1592,"title":"安曇野高橋節郎記念美術館","architect":"宮崎浩","year":2003.0,"address":"長野県安曇野市穂高北穂高408-1","latitude":36.35462951660156,"longitude":137.89138793945312,"category":"美術館","big_category":"ミュージアム","description":"","image_url":"","tags":"第3回芦原義信賞,2005年日本建築学会 作品選奨","prefecture":"長野","contractor":"","structural_designer":"","landscape_designer":"","shinkenchiku_url":""},{"id":1593,"title":"TRIAD IIDA・KAN","architect":"槇文彦","year":2002.0,"address":"長野県安曇野市穂高牧1856-1","latitude":36.32766342163086,"longitude":137.8362274169922,"category":"美術館/企業施設","big_category":"ミュージアム,企業施設","description":"","image_url":"https://lh3.googleusercontent.com/-NKRh0MEFWQM/UdzZhvm3UYI/AAAAAAAA-S0/pO5mX9b7gWE/s1024/lr-6171669.jpg","tags":"","prefecture":"長野","contractor":"","structural_designer":"","landscape_designer":"","shinkenchiku_url":""},{"id":1594,"title":"碌山美術館","architect":"今井兼次","year":1957.0,"address":"長野県安曇野市穂高5095-1","latitude":36.34370040893555,"longitude":137.8813934326172,"category":"美術館","big_category":"ミュージアム","description":"","image_url":"https://lh3.googleusercontent.com/-mceylPHf57Q/UdzawEqnGbI/AAAAAAAA-ZA/oIIft4K5n08/s800/lr-6171677.jpg","tags":"公共建築百選,登録有形文化財","prefecture":"長野","contractor":"","structural_designer":"","landscape_designer":"","shinkenchiku_url":""},{"id":1595,"title":"伊那東小学校","architect":"みかんぐみ","year":2009.0,"address":"長野県伊那市境1248-1","latitude":35.83485412597656,"longitude":137.96624755859375,"category":"学校","big_category":"教育","description":"","image_url":"","tags":"","prefecture":"長野","contractor":"","structural_designer":"","landscape_designer":"","shinkenchiku_url":""},{"id":1596,"title":"信州高遠美術館","architect":"宮本忠長","year":1992.0,"address":"長野県伊那市高遠町東高遠400","latitude":35.83131790161133,"longitude":138.06272888183594,"category":"美術館","big_category":"ミュージアム","description":"","image_url":"","tags":"","prefecture":"長野","contractor":"","structural_designer":"","landscape_designer":"","shinkenchiku_url":""},{"id":1597,"title":"えんぱーく 塩尻市市民交流センター","architect":"柳澤潤","year":2010.0,"address":"長野県塩尻市大門一番町12-2","latitude":36.112117767333984,"longitude":137.9528045654297,"category":"公共施設/公民館・交流施設/図書館","big_category":"公共施設,公共施設,文化施設","description":"","image_url":"","tags":"2012年日本建築学会 作品選奨","prefecture":"長野","contractor":"","structural_designer":"","landscape_designer":"","shinkenchiku_url":""},{"id":1598,"title":"岡谷シルク館 市立岡谷蚕糸博物館 旧林家住宅","architect":"不明","year":null,"address":"長野県岡谷市本町4-1-39","latitude":36.06499099731445,"longitude":138.04727172851562,"category":"洋館","big_category":"近代建築/遺産","description":"","image_url":"","tags":"","prefecture":"長野","contractor":"","structural_designer":"","landscape_designer":"","shinkenchiku_url":""},{"id":1599,"title":"諏訪湖博物館・赤彦記念館","architect":"伊東豊雄","year":1993.0,"address":"長野県諏訪郡下諏訪町（その他）-10616-111","latitude":36.06717300415039,"longitude":138.1007843017578,"category":"博物館","big_category":"ミュージアム","description":"","image_url":"https://farm6.staticflickr.com/5342/8935122404_1f394252c2_h.jpg","tags":"","prefecture":"長野","contractor":"","structural_designer":"","landscape_designer":"","shinkenchiku_url":""},{"id":1600,"title":"いきいきらんど下條","architect":"中村勉","year":2003.0,"address":"長野県下伊那郡下條村陽皐1","latitude":35.38992691040039,"longitude":137.7893524169922,"category":"福祉センター","big_category":"医療施設","description":"","image_url":"","tags":"2003年日本建築学会 作品選奨","prefecture":"長野","contractor":"","structural_designer":"","landscape_designer":"","shinkenchiku_url":""}]}