{"page":164,"total_pages":290,"items_per_page":50,"total_items":14467,"items":[{"id":8151,"title":"米沢市市民文化会館","architect":"山下寿郎","year":1969.0,"address":"山形県米沢市中央1-10-2","latitude":37.91323471069336,"longitude":140.11050415039062,"category":"ホール・劇場","big_category":"文化施設","description":"","image_url":"","tags":"Ver2.70(2019年2月)の追加建築","prefecture":"山形","contractor":"","structural_designer":"","landscape_designer":"","shinkenchiku_url":""},{"id":8152,"title":"米沢市勤労福祉センター アクティー米沢","architect":"山下寿郎","year":1971.0,"address":"山形県米沢市西大通1-5-5","latitude":37.91804885864258,"longitude":140.10110473632812,"category":"福祉センター","big_category":"医療施設","description":"","image_url":"","tags":"Ver2.70(2019年2月)の追加建築","prefecture":"山形","contractor":"","structural_designer":"","landscape_designer":"","shinkenchiku_url":""},{"id":8153,"title":"市立米沢図書館 ナセBA","architect":"山下設計","year":2016.0,"address":"山形県米沢市中央1-10-6","latitude":37.91284942626953,"longitude":140.1104736328125,"category":"図書館/ギャラリー","big_category":"文化施設,ミュージアム","description":"","image_url":"","tags":"Ver2.70(2019年2月)の追加建築","prefecture":"山形","contractor":"","structural_designer":"","landscape_designer":"","shinkenchiku_url":""},{"id":8154,"title":"置賜総合文化センター","architect":"山下寿郎","year":1973.0,"address":"山形県米沢市金池3-1-14","latitude":37.92006301879883,"longitude":140.11679077148438,"category":"公民館・交流施設","big_category":"公共施設","description":"","image_url":"","tags":"Ver2.70(2019年2月)の追加建築","prefecture":"山形","contractor":"","structural_designer":"","landscape_designer":"","shinkenchiku_url":""},{"id":8155,"title":"米沢市庁舎","architect":"山下寿郎","year":1970.0,"address":"山形県米沢市金池5-2-25","latitude":37.92225646972656,"longitude":140.11671447753906,"category":"庁舎","big_category":"公共施設","description":"","image_url":"","tags":"Ver2.70(2019年2月)の追加建築","prefecture":"山形","contractor":"","structural_designer":"","landscape_designer":"","shinkenchiku_url":""},{"id":8156,"title":"米沢市消防庁舎","architect":"山下寿郎","year":1970.0,"address":"山形県米沢市金池5-2-41","latitude":37.922813415527344,"longitude":140.11605834960938,"category":"警察・消防署","big_category":"公共施設","description":"","image_url":"","tags":"Ver2.70(2019年2月)の追加建築","prefecture":"山形","contractor":"","structural_designer":"","landscape_designer":"","shinkenchiku_url":""},{"id":8157,"title":"宮坂考古館","architect":"山下設計","year":1991.0,"address":"山形県米沢市東1-2-24","latitude":37.90559768676758,"longitude":140.12705993652344,"category":"博物館","big_category":"ミュージアム","description":"","image_url":"","tags":"Ver2.70(2019年2月)の追加建築","prefecture":"山形","contractor":"","structural_designer":"","landscape_designer":"","shinkenchiku_url":""},{"id":8158,"title":"上杉神社 祭器庫","architect":"伊東忠太","year":1921.0,"address":"山形県米沢市丸の内1-4-13","latitude":37.90888214111328,"longitude":140.10427856445312,"category":"寺院","big_category":"宗教","description":"","image_url":"","tags":"Ver2.70(2019年2月)の追加建築","prefecture":"山形","contractor":"","structural_designer":"","landscape_designer":"","shinkenchiku_url":""},{"id":8159,"title":"上杉神社 社殿","architect":"伊東忠太","year":1923.0,"address":"山形県米沢市丸の内1-4-13","latitude":37.90925216674805,"longitude":140.10414123535156,"category":"寺院","big_category":"宗教","description":"","image_url":"","tags":"Ver2.70(2019年2月)の追加建築","prefecture":"山形","contractor":"","structural_designer":"","landscape_designer":"","shinkenchiku_url":""},{"id":8160,"title":"上杉神社 稽照殿","architect":"伊東忠太","year":1922.0,"address":"山形県米沢市丸の内1-4-13","latitude":37.909603118896484,"longitude":140.1044921875,"category":"寺院","big_category":"宗教","description":"","image_url":"","tags":"Ver2.70(2019年2月)の追加建築","prefecture":"山形","contractor":"","structural_designer":"","landscape_designer":"","shinkenchiku_url":""},{"id":8161,"title":"林源十郎商店","architect":"楢村徹","year":2012.0,"address":"岡山県倉敷市阿知2-23-10","latitude":34.597328186035156,"longitude":133.77052307128906,"category":"店舗","big_category":"商業施設","description":"","image_url":"","tags":"Ver2.70(2019年2月)の追加建築","prefecture":"岡山","contractor":"","structural_designer":"","landscape_designer":"","shinkenchiku_url":""},{"id":8162,"title":"倉敷市立自然史博物館","architect":"浦辺鎮太郎","year":1971.0,"address":"岡山県倉敷市中央2-6-1","latitude":34.59552001953125,"longitude":133.76864624023438,"category":"博物館","big_category":"ミュージアム","description":"1971年竣工の水道局庁舎を1983年博物館に改修","image_url":"","tags":"Ver2.70(2019年2月)の追加建築","prefecture":"岡山","contractor":"","structural_designer":"","landscape_designer":"","shinkenchiku_url":""},{"id":8163,"title":"倉敷市立中央図書館","architect":"浦辺鎮太郎","year":1983.0,"address":"岡山県倉敷市中央2-6-1","latitude":34.59510803222656,"longitude":133.76866149902344,"category":"図書館","big_category":"文化施設","description":"","image_url":"","tags":"Ver2.70(2019年2月)の追加建築","prefecture":"岡山","contractor":"","structural_designer":"","landscape_designer":"","shinkenchiku_url":""},{"id":8164,"title":"喫茶エル・グレコ 旧奨農株式会社本社事務所","architect":"薬師寺主計","year":1926.0,"address":"岡山県倉敷市中央1-1-11","latitude":34.59648513793945,"longitude":133.77053833007812,"category":"カフェ","big_category":"商業施設","description":"","image_url":"","tags":"Ver2.70(2019年2月)の追加建築","prefecture":"岡山","contractor":"","structural_designer":"","landscape_designer":"","shinkenchiku_url":""},{"id":8165,"title":"新渓園","architect":"浦辺設計","year":1991.0,"address":"岡山県倉敷市中央1-1-20","latitude":34.59588623046875,"longitude":133.77041625976562,"category":"和風住宅","big_category":"住宅","description":"修復設計を浦辺設計が担当","image_url":"","tags":"Ver2.70(2019年2月)の追加建築","prefecture":"岡山","contractor":"","structural_designer":"","landscape_designer":"","shinkenchiku_url":""},{"id":8166,"title":"倉敷館 旧倉敷町役場","architect":"浦辺鎮太郎","year":1917.0,"address":"岡山県倉敷市中央1-4-8","latitude":34.59564208984375,"longitude":133.77162170410156,"category":"観光施設","big_category":"レジャー施設","description":"1971年改修","image_url":"","tags":"Ver2.70(2019年2月)の追加建築","prefecture":"岡山","contractor":"","structural_designer":"","landscape_designer":"","shinkenchiku_url":""},{"id":8167,"title":"珈琲館","architect":"浦辺鎮太郎","year":1971.0,"address":"岡山県倉敷市本町4-1","latitude":34.59566116333008,"longitude":133.7720489501953,"category":"カフェ","big_category":"商業施設","description":"","image_url":"","tags":"Ver2.70(2019年2月)の追加建築","prefecture":"岡山","contractor":"","structural_designer":"","landscape_designer":"","shinkenchiku_url":""},{"id":8168,"title":"倉敷考古館 新館","architect":"浦辺鎮太郎","year":1957.0,"address":"岡山県倉敷市中央1-3-13","latitude":34.59612274169922,"longitude":133.77191162109375,"category":"博物館","big_category":"ミュージアム","description":"","image_url":"","tags":"Ver2.70(2019年2月)の追加建築","prefecture":"岡山","contractor":"","structural_designer":"","landscape_designer":"","shinkenchiku_url":""},{"id":8169,"title":"旧児島虎次郎記念館","architect":"浦辺鎮太郎","year":1906.0,"address":"岡山県倉敷市本町7-1","latitude":34.5954704284668,"longitude":133.77273559570312,"category":"美術館","big_category":"ミュージアム","description":"1972年～1981年改修。2017年末で閉館。建物は現存","image_url":"","tags":"Ver2.70(2019年2月)の追加建築","prefecture":"岡山","contractor":"","structural_designer":"","landscape_designer":"","shinkenchiku_url":""},{"id":8170,"title":"倉敷中央病院 美和保育園 旧倉紡中央病院外来棟","architect":"薬師寺主計+隅田京太郎+武内潔真","year":1923.0,"address":"岡山県倉敷市美和1-1-1","latitude":34.60125732421875,"longitude":133.77476501464844,"category":"幼稚園/病院","big_category":"教育,医療施設","description":"","image_url":"","tags":"Ver2.70(2019年2月)の追加建築","prefecture":"岡山","contractor":"","structural_designer":"","landscape_designer":"","shinkenchiku_url":""},{"id":8171,"title":"倉敷中央病院 リハビリ病棟 旧倉紡中央病院事務所棟","architect":"薬師寺主計+隅田京太郎+武内潔真","year":1923.0,"address":"岡山県倉敷市美和1-1-1","latitude":34.60126495361328,"longitude":133.7752227783203,"category":"病院","big_category":"医療施設","description":"","image_url":"","tags":"Ver2.70(2019年2月)の追加建築","prefecture":"岡山","contractor":"","structural_designer":"","landscape_designer":"","shinkenchiku_url":""},{"id":8172,"title":"倉敷中央看護専門学校 旧倉紡中央病院附属看護婦養成所","architect":"薬師寺主計+隅田京太郎+武内潔真","year":1923.0,"address":"岡山県倉敷市美和1-1-1","latitude":34.60131072998047,"longitude":133.77566528320312,"category":"専門学校/病院","big_category":"教育,医療施設","description":"","image_url":"","tags":"Ver2.70(2019年2月)の追加建築","prefecture":"岡山","contractor":"","structural_designer":"","landscape_designer":"","shinkenchiku_url":""},{"id":8173,"title":"品川バプテスト教会","architect":"天野吉原設計事務所","year":1963.0,"address":"東京都品川区西品川2-12-18","latitude":35.6134033203125,"longitude":139.72564697265625,"category":"教会","big_category":"宗教","description":"","image_url":"","tags":"Ver2.70(2019年2月)の追加建築","prefecture":"東京","contractor":"","structural_designer":"","landscape_designer":"","shinkenchiku_url":""},{"id":8174,"title":"kudan house 旧山口萬吉邸","architect":"内藤多仲+木子七郎+今井兼次+竹中工務店","year":1927.0,"address":"東京都千代田区九段北1-15-9","latitude":35.6961669921875,"longitude":139.74807739257812,"category":"住宅/シェアオフィス","big_category":"住宅,商業施設","description":"2018年7月より会員制のインキュベーション施設として運営。改修竹中工務店","image_url":"","tags":"Ver2.70(2019年2月)の追加建築,新建築2019年3月号,2020年日本建築学会 作品選集新人賞","prefecture":"東京","contractor":"","structural_designer":"","landscape_designer":"","shinkenchiku_url":""},{"id":8175,"title":"三田商会本社","architect":"圓堂政嘉","year":1968.0,"address":"岩手県盛岡市中央通1-1-23","latitude":39.70366668701172,"longitude":141.15016174316406,"category":"オフィスビル","big_category":"企業施設","description":"","image_url":"","tags":"Ver2.70(2019年2月)の追加建築","prefecture":"岩手","contractor":"","structural_designer":"","landscape_designer":"","shinkenchiku_url":""},{"id":8176,"title":"岩手県庁舎","architect":"山下寿郎","year":1965.0,"address":"岩手県盛岡市内丸10-1","latitude":39.70355987548828,"longitude":141.15272521972656,"category":"庁舎","big_category":"公共施設","description":"","image_url":"","tags":"Ver2.70(2019年2月)の追加建築","prefecture":"岩手","contractor":"","structural_designer":"","landscape_designer":"","shinkenchiku_url":""},{"id":8177,"title":"岩手県議会議事堂","architect":"山下寿郎","year":1965.0,"address":"岩手県盛岡市内丸17-8","latitude":39.7038688659668,"longitude":141.1519012451172,"category":"公共施設","big_category":"公共施設","description":"","image_url":"","tags":"Ver2.70(2019年2月)の追加建築","prefecture":"岩手","contractor":"","structural_designer":"","landscape_designer":"","shinkenchiku_url":""},{"id":8178,"title":"すや本店","architect":"白井晟一","year":1985.0,"address":"岐阜県中津川市新町2-40","latitude":35.49826431274414,"longitude":137.50579833984375,"category":"店舗","big_category":"商業施設","description":"","image_url":"","tags":"Ver2.70(2019年2月)の追加建築","prefecture":"岐阜","contractor":"","structural_designer":"","landscape_designer":"","shinkenchiku_url":""},{"id":8179,"title":"竹田市総合文化ホール グランツたけた","architect":"香山壽夫","year":2018.0,"address":"大分県竹田市大字玉来1-1","latitude":32.959815979003906,"longitude":131.3843536376953,"category":"ホール・劇場","big_category":"文化施設","description":"","image_url":"","tags":"Ver2.70(2019年2月)の追加建築","prefecture":"大分","contractor":"","structural_designer":"","landscape_designer":"","shinkenchiku_url":""},{"id":8180,"title":"星野リゾート OMO5 東京大塚","architect":"佐々木達郎+竹中工務店","year":2018.0,"address":"東京都豊島区北大塚2-26-1","latitude":35.73298263549805,"longitude":139.72921752929688,"category":"ホテル","big_category":"宿泊","description":"","image_url":"","tags":"Ver2.70(2019年2月)の追加建築","prefecture":"東京","contractor":"","structural_designer":"","landscape_designer":"","shinkenchiku_url":""},{"id":8181,"title":"三浦電機 新社屋","architect":"佐々木達郎","year":2016.0,"address":"北海道稚内市中央1-5-44","latitude":45.42051696777344,"longitude":141.6748809814453,"category":"低層オフィス","big_category":"企業施設","description":"","image_url":"","tags":"Ver2.70(2019年2月)の追加建築","prefecture":"北海道","contractor":"","structural_designer":"","landscape_designer":"","shinkenchiku_url":""},{"id":8182,"title":"小高パイオニアヴィレッジ","architect":"藤村龍至","year":2018.0,"address":"福島県南相馬市小高区本町1-87","latitude":37.562923431396484,"longitude":140.99172973632812,"category":"シェアオフィス/公民館・交流施設/ホテル","big_category":"商業施設,公共施設,宿泊","description":"宿泊も可能","image_url":"","tags":"Ver2.70(2019年2月)の追加建築,新建築2019年3月号","prefecture":"福島","contractor":"","structural_designer":"","landscape_designer":"","shinkenchiku_url":""},{"id":8183,"title":"公文式という建築 KUMON深草教室","architect":"米澤隆","year":2011.0,"address":"京都府京都市伏見区深草飯食町832-6","latitude":34.95465850830078,"longitude":135.7691192626953,"category":"児童施設","big_category":"教育","description":"","image_url":"","tags":"Ver2.70(2019年2月)の追加建築","prefecture":"京都","contractor":"","structural_designer":"","landscape_designer":"","shinkenchiku_url":""},{"id":8184,"title":"やまかわこどもクリニック","architect":"米澤隆","year":2017.0,"address":"愛知県名古屋市西区八筋町158-1","latitude":35.22249984741211,"longitude":136.88265991210938,"category":"個人医院/住宅","big_category":"医療施設,住宅","description":"","image_url":"","tags":"Ver2.70(2019年2月)の追加建築","prefecture":"愛知","contractor":"","structural_designer":"","landscape_designer":"","shinkenchiku_url":""},{"id":8185,"title":"横浜国立大学 中央広場","architect":"髙橋一平+野口直人+日立建設設計+北山恒","year":2016.0,"address":"神奈川県横浜市保土ケ谷区常盤台79-3","latitude":35.47378921508789,"longitude":139.59107971191406,"category":"大学/広場","big_category":"教育,文化施設","description":"","image_url":"","tags":"新建築2016年6月号,Ver2.70(2019年2月)の追加建築","prefecture":"神奈川","contractor":"","structural_designer":"","landscape_designer":"","shinkenchiku_url":""},{"id":8186,"title":"横浜国立大学 経済学部講義棟2号館","architect":"髙橋一平+野口直人+日立建設設計+北山恒","year":2016.0,"address":"神奈川県横浜市保土ケ谷区常盤台79-3","latitude":35.47346496582031,"longitude":139.5916748046875,"category":"大学","big_category":"教育","description":"","image_url":"","tags":"新建築2016年6月号,Ver2.70(2019年2月)の追加建築","prefecture":"神奈川","contractor":"","structural_designer":"","landscape_designer":"","shinkenchiku_url":""},{"id":8187,"title":"似島学園 高等養護部・学習館","architect":"宮森洋一郎","year":2010.0,"address":"広島県広島市南区似島町字長谷1487","latitude":34.317298889160156,"longitude":132.4456329345703,"category":"養護施設","big_category":"医療施設","description":"","image_url":"","tags":"Ver2.70(2019年2月)の追加建築","prefecture":"広島","contractor":"","structural_designer":"","landscape_designer":"","shinkenchiku_url":""},{"id":8188,"title":"熊本駅 新駅舎","architect":"安藤忠雄+九州旅客鉄道+安井建築設計","year":2019.0,"address":"熊本県熊本市西区春日3-15","latitude":32.79024887084961,"longitude":130.68862915039062,"category":"駅","big_category":"インフラ","description":"","image_url":"","tags":"Ver2.70(2019年2月)の追加建築,新建築2021年9月号","prefecture":"熊本","contractor":"鹿島建設・九鉄工業・光進建設 熊本駅Bℓ新設他工事共同事業体","structural_designer":"","landscape_designer":"","shinkenchiku_url":""},{"id":8189,"title":"サンレイクカントリークラブ・クラブハウス","architect":"丹下健三","year":1985.0,"address":"栃木県日光市長畑4337","latitude":36.669273376464844,"longitude":139.69058227539062,"category":"クラブハウス","big_category":"レジャー施設","description":"","image_url":"","tags":"Ver2.70(2019年2月)の追加建築","prefecture":"栃木","contractor":"","structural_designer":"","landscape_designer":"","shinkenchiku_url":""},{"id":8190,"title":"八女学院 体育館","architect":"丹下健三","year":1999.0,"address":"福岡県八女市本村杉町425","latitude":33.21368408203125,"longitude":130.55548095703125,"category":"体育館/学校","big_category":"レジャー施設,教育","description":"","image_url":"","tags":"Ver2.70(2019年2月)の追加建築","prefecture":"福岡","contractor":"","structural_designer":"","landscape_designer":"","shinkenchiku_url":""},{"id":8191,"title":"老人保健施設 博愛苑","architect":"丹下健三","year":1998.0,"address":"福岡県京都郡苅田町提2781","latitude":33.79177474975586,"longitude":130.9752960205078,"category":"養護施設","big_category":"医療施設","description":"","image_url":"","tags":"Ver2.70(2019年2月)の追加建築","prefecture":"福岡","contractor":"","structural_designer":"","landscape_designer":"","shinkenchiku_url":""},{"id":8192,"title":"アップリケア特別養護老人ホーム","architect":"丹下健三","year":1996.0,"address":"大阪府大阪市住吉区浅香1-8-38","latitude":34.59199142456055,"longitude":135.5108642578125,"category":"養護施設","big_category":"医療施設","description":"","image_url":"","tags":"Ver2.70(2019年2月)の追加建築","prefecture":"大阪","contractor":"","structural_designer":"","landscape_designer":"","shinkenchiku_url":""},{"id":8193,"title":"東京ファッションタウンビル","architect":"丹下健三","year":1996.0,"address":"東京都江東区有明3-6-11","latitude":35.63093185424805,"longitude":139.79063415527344,"category":"テナントビル","big_category":"商業施設","description":"","image_url":"","tags":"Ver2.70(2019年2月)の追加建築","prefecture":"東京","contractor":"","structural_designer":"","landscape_designer":"","shinkenchiku_url":""},{"id":8194,"title":"ベイ・スクエアよこすか","architect":"丹下健三","year":1993.0,"address":"神奈川県横須賀市本町3-27","latitude":35.28116226196289,"longitude":139.66258239746094,"category":"テナントビル/複合施設","big_category":"商業施設,商業施設","description":"","image_url":"","tags":"Ver2.70(2019年2月)の追加建築","prefecture":"神奈川","contractor":"","structural_designer":"","landscape_designer":"","shinkenchiku_url":""},{"id":8195,"title":"春日居町あぐり情報ステーション","architect":"丹下健三","year":2003.0,"address":"山梨県笛吹市春日居町寺本155-1","latitude":35.666866302490234,"longitude":138.65530395507812,"category":"公民館・交流施設/図書館","big_category":"公共施設,文化施設","description":"","image_url":"","tags":"Ver2.70(2019年2月)の追加建築","prefecture":"山梨","contractor":"","structural_designer":"","landscape_designer":"","shinkenchiku_url":""},{"id":8196,"title":"アップリカ中央研究所","architect":"丹下健三","year":2000.0,"address":"奈良県奈良市都祁吐山町 アップリカ中央研究所","latitude":34.5709342956543,"longitude":135.9711151123047,"category":"研究施設","big_category":"教育","description":"","image_url":"","tags":"Ver2.70(2019年2月)の追加建築","prefecture":"奈良","contractor":"","structural_designer":"","landscape_designer":"","shinkenchiku_url":""},{"id":8197,"title":"ベアズ・パウ・ジャパンカントリークラブ クラブハウス","architect":"丹下健三","year":2000.0,"address":"滋賀県甲賀市水口町春日146","latitude":35.01457977294922,"longitude":136.16822814941406,"category":"クラブハウス","big_category":"レジャー施設","description":"","image_url":"","tags":"Ver2.70(2019年2月)の追加建築","prefecture":"滋賀","contractor":"","structural_designer":"","landscape_designer":"","shinkenchiku_url":""},{"id":8198,"title":"財団法人癌研究会有明病院","architect":"丹下健三","year":2005.0,"address":"東京都江東区有明3-8-31","latitude":35.63417434692383,"longitude":139.79518127441406,"category":"病院","big_category":"医療施設","description":"","image_url":"","tags":"Ver2.70(2019年2月)の追加建築","prefecture":"東京","contractor":"","structural_designer":"","landscape_designer":"","shinkenchiku_url":""},{"id":8199,"title":"あいおいニッセイ同和損保本社別館","architect":"丹下健三","year":2000.0,"address":"東京都渋谷区恵比寿1-29","latitude":35.647926330566406,"longitude":139.71665954589844,"category":"オフィスビル","big_category":"企業施設","description":"","image_url":"","tags":"Ver2.70(2019年2月)の追加建築","prefecture":"東京","contractor":"","structural_designer":"","landscape_designer":"","shinkenchiku_url":""},{"id":8200,"title":"霞ヶ浦国際ゴルフコース クラブハウス","architect":"丹下憲孝","year":2010.0,"address":"茨城県つくば市下原368","latitude":36.04838180541992,"longitude":140.13278198242188,"category":"クラブハウス","big_category":"レジャー施設","description":"","image_url":"","tags":"Ver2.70(2019年2月)の追加建築","prefecture":"茨城","contractor":"","structural_designer":"","landscape_designer":"","shinkenchiku_url":""}]}