{"page":188,"total_pages":290,"items_per_page":50,"total_items":14467,"items":[{"id":9351,"title":"境町研究開発施設S-Lab","architect":"隈研吾","year":2020.0,"address":"茨城県猿島郡境町坂花町1466-2","latitude":36.105350494384766,"longitude":139.79214477539062,"category":"研究施設","big_category":"教育","description":"当初発表では2019年11月に竣工予定。2020年8月オープン","image_url":"","tags":"Ver3.30(2020年2月)の追加建築","prefecture":"茨城","contractor":"","structural_designer":"","landscape_designer":"","shinkenchiku_url":""},{"id":9352,"title":"境町S-gallery","architect":"隈研吾","year":2020.0,"address":"茨城県猿島郡境町坂花町1466-2","latitude":36.105342864990234,"longitude":139.79188537597656,"category":"美術館/ギャラリー","big_category":"ミュージアム,ミュージアム","description":"当初発表では2020年3月に竣工予定。2020年8月オープン","image_url":"","tags":"Ver3.30(2020年2月)の追加建築","prefecture":"茨城","contractor":"","structural_designer":"","landscape_designer":"","shinkenchiku_url":""},{"id":9353,"title":"高輪ゲートウェイ駅","architect":"隈研吾","year":2020.0,"address":"東京都港区港南2-10-145","latitude":35.63542556762695,"longitude":139.73980712890625,"category":"駅","big_category":"インフラ","description":"2020年3月14日オープン予定","image_url":"","tags":"Ver3.30(2020年2月)の追加建築,新建築2020年5月号","prefecture":"東京","contractor":"","structural_designer":"","landscape_designer":"","shinkenchiku_url":""},{"id":9354,"title":"看護小規模多機能あわらんち","architect":"常橋明浩","year":2018.0,"address":"石川県羽咋市粟原町イ110","latitude":36.87404251098633,"longitude":136.7850799560547,"category":"養護施設","big_category":"医療施設","description":"","image_url":"","tags":"Ver3.40(2020年5月)の追加建築","prefecture":"石川","contractor":"","structural_designer":"","landscape_designer":"","shinkenchiku_url":""},{"id":9355,"title":"うのすまい・トモス 釜石市民体育館","architect":"パシフィックコンサルタンツ+シーラカンスアンドアソシエイツ","year":2019.0,"address":"岩手県釜石市鵜住居町第16地割72-1","latitude":39.32832336425781,"longitude":141.88790893554688,"category":"体育館","big_category":"レジャー施設","description":"","image_url":"","tags":"Ver3.40(2020年5月)の追加建築,新建築2020年3月号","prefecture":"岩手","contractor":"","structural_designer":"","landscape_designer":"","shinkenchiku_url":""},{"id":9356,"title":"うのすまい・トモス いのちをつなぐ未来館 ／ 鵜の郷交流館","architect":"パシフィックコンサルタンツ+シーラカンスアンドアソシエイツ","year":2019.0,"address":"岩手県釜石市鵜住居町第16地割72-1","latitude":39.32732009887695,"longitude":141.88719177246094,"category":"公民館・交流施設/店舗","big_category":"公共施設,商業施設","description":"","image_url":"","tags":"Ver3.40(2020年5月)の追加建築,新建築2020年3月号","prefecture":"岩手","contractor":"","structural_designer":"","landscape_designer":"","shinkenchiku_url":""},{"id":9357,"title":"釜石鵜住居復興スタジアム","architect":"梓設計","year":2018.0,"address":"岩手県釜石市鵜住居町第18地割5-1","latitude":39.32664489746094,"longitude":141.8914337158203,"category":"スタジアム","big_category":"レジャー施設","description":"","image_url":"","tags":"Ver3.40(2020年5月)の追加建築,新建築2020年3月号","prefecture":"岩手","contractor":"大成建設・新光建設特定共同企業体","structural_designer":"","landscape_designer":"","shinkenchiku_url":""},{"id":9358,"title":"ハレザ池袋オフィス棟 ハレザタワー","architect":"鹿島建設","year":2020.0,"address":"東京都豊島区東池袋1-18-1","latitude":35.73237609863281,"longitude":139.71548461914062,"category":"オフィスビル","big_category":"企業施設","description":"","image_url":"","tags":"Ver3.40(2020年5月)の追加建築,新建築2020年3月号","prefecture":"東京","contractor":"鹿島建設","structural_designer":"","landscape_designer":"","shinkenchiku_url":""},{"id":9359,"title":"ハレザ池袋 としま区民センター","architect":"鹿島建設+伊藤喜三郎建築研究所","year":2019.0,"address":"東京都豊島区東池袋1-20-10","latitude":35.73149490356445,"longitude":139.715576171875,"category":"公民館・交流施設/公共施設","big_category":"公共施設,公共施設","description":"","image_url":"","tags":"Ver3.40(2020年5月)の追加建築,新建築2020年3月号","prefecture":"東京","contractor":"松尾工務店","structural_designer":"","landscape_designer":"","shinkenchiku_url":""},{"id":9360,"title":"ミュージアムタワー京橋 / アーティゾン美術館","architect":"日建設計","year":2019.0,"address":"東京都中央区京橋1-7-2","latitude":35.67880630493164,"longitude":139.77186584472656,"category":"オフィスビル/美術館","big_category":"企業施設,ミュージアム","description":"","image_url":"","tags":"Ver3.40(2020年5月)の追加建築,新建築2020年3月号,第32回AACA 奨励賞","prefecture":"東京","contractor":"戸田建設","structural_designer":"","landscape_designer":"","shinkenchiku_url":""},{"id":9361,"title":"横浜スタジアム","architect":"創和三幸設計","year":1978.0,"address":"神奈川県横浜市中区横浜公園","latitude":35.443477630615234,"longitude":139.6400604248047,"category":"スタジアム","big_category":"レジャー施設","description":"2020年2月、清水建設の設計により増築・改修","image_url":"","tags":"Ver3.40(2020年5月)の追加建築,新建築2020年3月号,東京2020オリンピック競技会場","prefecture":"神奈川","contractor":"","structural_designer":"","landscape_designer":"","shinkenchiku_url":""},{"id":9362,"title":"富士見台トンネル","architect":"能作淳平","year":2019.0,"address":"東京都国立市富士見台1-7-1-117","latitude":35.68404006958008,"longitude":139.4475860595703,"category":"シェアオフィス","big_category":"商業施設","description":"","image_url":"","tags":"Ver3.40(2020年5月)の追加建築,新建築2020年3月号","prefecture":"東京","contractor":"","structural_designer":"","landscape_designer":"","shinkenchiku_url":""},{"id":9363,"title":"昭島市教育福祉総合センター アキシマエンシス","architect":"佐藤総合計画","year":2020.0,"address":"東京都昭島市つつじが丘3-3-15","latitude":35.711585998535156,"longitude":139.3693389892578,"category":"総合文化施設/児童施設/体育館","big_category":"文化施設,教育,レジャー施設","description":"旧小学校の改修と図書館棟を増築し教育福祉総合センターとして整備","image_url":"","tags":"Ver3.40(2020年5月)の追加建築,新建築2020年3月号","prefecture":"東京","contractor":"","structural_designer":"","landscape_designer":"","shinkenchiku_url":""},{"id":9364,"title":"テラス沼田","architect":"宮崎浩","year":2019.0,"address":"群馬県沼田市下之町888","latitude":36.64388656616211,"longitude":139.042724609375,"category":"庁舎/公共施設/スポーツ施設","big_category":"公共施設,公共施設,レジャー施設","description":"1993年開業の商業施設を改修し役所やカフェ、博物館、スポーツ施設として改修","image_url":"","tags":"Ver3.40(2020年5月)の追加建築,新建築2020年3月号","prefecture":"群馬","contractor":"沼田・萬屋・角屋庁舎等複合施設整備改修建築工事共同企業体","structural_designer":"","landscape_designer":"","shinkenchiku_url":""},{"id":9365,"title":"南町田グランベリーパーク","architect":"東急設計コンサルタント+ラグアルダ・ロウ・アーキテクツ","year":2019.0,"address":"東京都町田市鶴間3-4-1","latitude":35.50941848754883,"longitude":139.4713897705078,"category":"モール","big_category":"商業施設","description":"","image_url":"","tags":"Ver3.40(2020年5月)の追加建築,新建築2020年3月号","prefecture":"東京","contractor":"","structural_designer":"","landscape_designer":"","shinkenchiku_url":""},{"id":9366,"title":"虎ノ門ヒルズ ビジネスタワー","architect":"森ビル+クリストフ・インゲンホーフェン","year":2020.0,"address":"東京都港区虎ノ門1-17-1","latitude":35.668212890625,"longitude":139.74957275390625,"category":"オフィスビル","big_category":"企業施設","description":"","image_url":"","tags":"Ver3.40(2020年5月)の追加建築,新建築2020年4月号","prefecture":"東京","contractor":"","structural_designer":"","landscape_designer":"","shinkenchiku_url":""},{"id":9367,"title":"東京メトロ銀座線渋谷駅","architect":"内藤廣+メトロ開発+東急設計コンサルタント","year":2020.0,"address":"東京都渋谷区 渋谷駅","latitude":35.65894317626953,"longitude":139.70223999023438,"category":"駅","big_category":"インフラ","description":"","image_url":"","tags":"Ver3.40(2020年5月)の追加建築,新建築2020年4月号","prefecture":"東京","contractor":"","structural_designer":"","landscape_designer":"","shinkenchiku_url":""},{"id":9368,"title":"ROOFLAG 賃貸住宅未来展示場","architect":"マウントフジアーキテクツスタジオ","year":2020.0,"address":"東京都江東区東雲1-4-1","latitude":35.64839172363281,"longitude":139.79995727539062,"category":"展示・会議場/企業施設","big_category":"公共施設,企業施設","description":"","image_url":"","tags":"Ver3.40(2020年5月)の追加建築,新建築2020年4月号","prefecture":"東京","contractor":"","structural_designer":"","landscape_designer":"","shinkenchiku_url":""},{"id":9369,"title":"銘建工業本社事務所","architect":"NKS2アーキテクツ+桃李舎","year":2020.0,"address":"岡山県真庭市勝山1209","latitude":35.08476638793945,"longitude":133.6992645263672,"category":"低層オフィス","big_category":"企業施設","description":"","image_url":"","tags":"Ver3.40(2020年5月)の追加建築,新建築2020年4月号,2022年日本建築学会 作品選奨","prefecture":"岡山","contractor":"大本組","structural_designer":"","landscape_designer":"","shinkenchiku_url":""},{"id":9370,"title":"FLATS WOODS 木場","architect":"竹中工務店","year":2020.0,"address":"東京都江東区東陽3-25-12","latitude":35.670326232910156,"longitude":139.81285095214844,"category":"集合住宅","big_category":"住宅","description":"","image_url":"","tags":"Ver3.40(2020年5月)の追加建築,新建築2020年4月号","prefecture":"東京","contractor":"竹中工務店","structural_designer":"","landscape_designer":"","shinkenchiku_url":""},{"id":9371,"title":"岩国のアトリエ","architect":"向山徹","year":2017.0,"address":"山口県岩国市黒磯町2-71-29","latitude":34.10271072387695,"longitude":132.19741821289062,"category":"住宅/ギャラリー","big_category":"住宅,ミュージアム","description":"","image_url":"","tags":"Ver3.40(2020年5月)の追加建築,新建築2020年4月号","prefecture":"山口","contractor":"","structural_designer":"","landscape_designer":"","shinkenchiku_url":""},{"id":9372,"title":"さわら町屋館","architect":"田熊利哉","year":2019.0,"address":"千葉県香取市佐原イ499-1","latitude":35.88960266113281,"longitude":140.4982452392578,"category":"観光施設","big_category":"レジャー施設","description":"","image_url":"","tags":"Ver3.40(2020年5月)の追加建築,新建築2020年4月号","prefecture":"千葉","contractor":"","structural_designer":"","landscape_designer":"","shinkenchiku_url":""},{"id":9373,"title":"生長の家 福島県教化部新会館","architect":"八光建設+本多豊+田村賢治+池田昌弘","year":2019.0,"address":"福島県郡山市西田町鬼生田大谷地398","latitude":37.47557067871094,"longitude":140.42662048339844,"category":"宗教施設","big_category":"宗教","description":"","image_url":"","tags":"Ver3.40(2020年5月)の追加建築,新建築2020年4月号","prefecture":"福島","contractor":"","structural_designer":"","landscape_designer":"","shinkenchiku_url":""},{"id":9374,"title":"清光社 埼玉支店","architect":"アリイイリエアーキテクツ","year":2019.0,"address":"埼玉県上尾市大字上198-1","latitude":35.99168014526367,"longitude":139.57838439941406,"category":"低層オフィス","big_category":"企業施設","description":"","image_url":"","tags":"Ver3.40(2020年5月)の追加建築,新建築2020年4月号","prefecture":"埼玉","contractor":"シグマ建設","structural_designer":"","landscape_designer":"","shinkenchiku_url":""},{"id":9375,"title":"ウッディパーツ第2工場オフィスリノベーション","architect":"池田暢一郎","year":2017.0,"address":"富山県高岡市能町750","latitude":36.7662239074707,"longitude":137.04750061035156,"category":"工場/低層オフィス","big_category":"企業施設,企業施設","description":"","image_url":"","tags":"Ver3.40(2020年5月)の追加建築,新建築2020年4月号","prefecture":"富山","contractor":"","structural_designer":"","landscape_designer":"","shinkenchiku_url":""},{"id":9376,"title":"亀有香取神社","architect":"浅井アーキテクツ","year":2018.0,"address":"東京都葛飾区亀有3-42-24","latitude":35.7657585144043,"longitude":139.85096740722656,"category":"寺院","big_category":"宗教","description":"","image_url":"","tags":"Ver3.40(2020年5月)の追加建築","prefecture":"東京","contractor":"","structural_designer":"","landscape_designer":"","shinkenchiku_url":""},{"id":9377,"title":"三浦工務店新社屋","architect":"浅井アーキテクツ","year":2018.0,"address":"東京都足立区東和3-14-25","latitude":35.77206039428711,"longitude":139.8387451171875,"category":"低層オフィス","big_category":"企業施設","description":"","image_url":"","tags":"Ver3.40(2020年5月)の追加建築","prefecture":"東京","contractor":"","structural_designer":"","landscape_designer":"","shinkenchiku_url":""},{"id":9378,"title":"K-FORT","architect":"浅井アーキテクツ","year":2017.0,"address":"東京都葛飾区高砂2-12-10","latitude":35.75000762939453,"longitude":139.86415100097656,"category":"集合住宅","big_category":"住宅","description":"","image_url":"","tags":"Ver3.40(2020年5月)の追加建築","prefecture":"東京","contractor":"","structural_designer":"","landscape_designer":"","shinkenchiku_url":""},{"id":9379,"title":"ユニクロパーク横浜ベイサイド店","architect":"藤本壮介+渡辺建築事務所+大本組+スペース","year":2020.0,"address":"神奈川県横浜市金沢区白帆6-5","latitude":35.38071060180664,"longitude":139.6472625732422,"category":"店舗","big_category":"商業施設","description":"","image_url":"","tags":"Ver3.40(2020年5月)の追加建築,新建築2020年7月号","prefecture":"神奈川","contractor":"","structural_designer":"","landscape_designer":"","shinkenchiku_url":""},{"id":9380,"title":"ARTS&SCIENCE 青山","architect":"田根剛","year":2019.0,"address":"東京都港区南青山4-23-11","latitude":35.66291809082031,"longitude":139.7176971435547,"category":"店舗","big_category":"商業施設","description":"","image_url":"","tags":"Ver3.40(2020年5月)の追加建築","prefecture":"東京","contractor":"","structural_designer":"","landscape_designer":"","shinkenchiku_url":""},{"id":9381,"title":"馬嶋屋菓子道具店","architect":"吉田昌弘","year":2019.0,"address":"東京都台東区西浅草2-5-4","latitude":35.7125358581543,"longitude":139.78871154785156,"category":"店舗","big_category":"商業施設","description":"","image_url":"","tags":"Ver3.40(2020年5月)の追加建築","prefecture":"東京","contractor":"","structural_designer":"","landscape_designer":"","shinkenchiku_url":""},{"id":9382,"title":"This Is Cafe 袋井店","architect":"町秋人","year":2019.0,"address":"静岡県袋井市久能1912-1","latitude":34.76210021972656,"longitude":137.91812133789062,"category":"カフェ","big_category":"商業施設","description":"","image_url":"","tags":"Ver3.40(2020年5月)の追加建築","prefecture":"静岡","contractor":"","structural_designer":"","landscape_designer":"","shinkenchiku_url":""},{"id":9383,"title":"ヨハク社","architect":"町秋人","year":2020.0,"address":"静岡県島田市稲荷2-8-8","latitude":34.83735275268555,"longitude":138.15313720703125,"category":"店舗","big_category":"商業施設","description":"","image_url":"","tags":"Ver3.40(2020年5月)の追加建築","prefecture":"静岡","contractor":"","structural_designer":"","landscape_designer":"","shinkenchiku_url":""},{"id":9384,"title":"Vegan Ramen UZU Kyoto","architect":"チームラボアーキテクツ","year":2020.0,"address":"京都府京都市中京区梅之木町146 豊夢","latitude":35.0146598815918,"longitude":135.76809692382812,"category":"レストラン","big_category":"商業施設","description":"","image_url":"","tags":"Ver3.40(2020年5月)の追加建築","prefecture":"京都","contractor":"","structural_designer":"","landscape_designer":"","shinkenchiku_url":""},{"id":9385,"title":"知性ビル","architect":"菊竹清訓","year":1971.0,"address":"東京都港区元赤坂1-4-2","latitude":35.67698669433594,"longitude":139.73269653320312,"category":"オフィスビル","big_category":"企業施設","description":"","image_url":"","tags":"Ver3.40(2020年5月)の追加建築","prefecture":"東京","contractor":"","structural_designer":"","landscape_designer":"","shinkenchiku_url":""},{"id":9386,"title":"泉屋博古館 分館","architect":"日建設計","year":2002.0,"address":"東京都港区六本木1-5-1","latitude":35.66505432128906,"longitude":139.7410125732422,"category":"博物館","big_category":"ミュージアム","description":"2020年1月より改修工事のため休館","image_url":"","tags":"Ver3.40(2020年5月)の追加建築","prefecture":"東京","contractor":"","structural_designer":"","landscape_designer":"","shinkenchiku_url":""},{"id":9387,"title":"K-Office 菊竹清訓建築設計事務所","architect":"菊竹清訓","year":1997.0,"address":"東京都文京区大塚1-10","latitude":35.71527862548828,"longitude":139.73028564453125,"category":"低層オフィス","big_category":"企業施設","description":"","image_url":"","tags":"Ver3.40(2020年5月)の追加建築","prefecture":"東京","contractor":"","structural_designer":"","landscape_designer":"","shinkenchiku_url":""},{"id":9388,"title":"サンシャイン三和ビル","architect":"菊竹清訓","year":1983.0,"address":"東京都豊島区東池袋3-2-1","latitude":35.73011779785156,"longitude":139.71763610839844,"category":"テナントビル","big_category":"商業施設","description":"","image_url":"","tags":"Ver3.40(2020年5月)の追加建築","prefecture":"東京","contractor":"","structural_designer":"","landscape_designer":"","shinkenchiku_url":""},{"id":9389,"title":"金蛇水神社外苑 SandoTerrace","architect":"齋藤和哉","year":2020.0,"address":"宮城県岩沼市三色吉水神11-1","latitude":38.119693756103516,"longitude":140.83924865722656,"category":"寺院/観光施設","big_category":"宗教,レジャー施設","description":"","image_url":"","tags":"Ver3.40(2020年5月)の追加建築,新建築2021年5月号","prefecture":"宮城","contractor":"","structural_designer":"","landscape_designer":"","shinkenchiku_url":""},{"id":9390,"title":"川っぺりの足湯","architect":"槻橋修","year":2016.0,"address":"新潟県十日町市芋川乙3263","latitude":37.030029296875,"longitude":138.6975860595703,"category":"温泉","big_category":"宿泊","description":"","image_url":"","tags":"Ver3.40(2020年5月)の追加建築","prefecture":"新潟","contractor":"","structural_designer":"","landscape_designer":"","shinkenchiku_url":""},{"id":9391,"title":"氷見朝日山公園 休憩施設","architect":"槻橋修","year":2017.0,"address":"富山県氷見市幸町18-45","latitude":36.85503387451172,"longitude":136.98048400878906,"category":"観光施設/公園","big_category":"レジャー施設,レジャー施設","description":"","image_url":"","tags":"Ver3.40(2020年5月)の追加建築","prefecture":"富山","contractor":"","structural_designer":"","landscape_designer":"","shinkenchiku_url":""},{"id":9392,"title":"YMCA東山荘斉藤記念館","architect":"村田政真","year":1965.0,"address":"静岡県御殿場市東山1052","latitude":35.288639068603516,"longitude":138.9563751220703,"category":"その他宿泊施設/レストラン/クラブハウス","big_category":"宿泊,商業施設,レジャー施設","description":"","image_url":"","tags":"Ver3.40(2020年5月)の追加建築","prefecture":"静岡","contractor":"","structural_designer":"","landscape_designer":"","shinkenchiku_url":""},{"id":9393,"title":"竹田市歴史文化館・由学館","architect":"隈研吾","year":2020.0,"address":"大分県竹田市大字竹田2083","latitude":32.96591567993164,"longitude":131.39283752441406,"category":"博物館","big_category":"ミュージアム","description":"","image_url":"","tags":"Ver3.40(2020年5月)の追加建築","prefecture":"大分","contractor":"","structural_designer":"","landscape_designer":"","shinkenchiku_url":""},{"id":9394,"title":"竹田市城下町交流プラザ","architect":"隈研吾","year":2020.0,"address":"大分県竹田市大字竹田町487-1","latitude":32.96736526489258,"longitude":131.39251708984375,"category":"公民館・交流施設/観光施設","big_category":"公共施設,レジャー施設","description":"","image_url":"","tags":"Ver3.40(2020年5月)の追加建築","prefecture":"大分","contractor":"","structural_designer":"","landscape_designer":"","shinkenchiku_url":""},{"id":9395,"title":"永生病院","architect":"黒川紀章","year":null,"address":"東京都八王子市椚田町583-15","latitude":35.6395263671875,"longitude":139.30508422851562,"category":"病院","big_category":"医療施設","description":"1995年以前の竣工は確実。病院の開設は1963年とのことなので竣工年はこのあたりと思われる","image_url":"","tags":"Ver3.40(2020年5月)の追加建築","prefecture":"東京","contractor":"","structural_designer":"","landscape_designer":"","shinkenchiku_url":""},{"id":9396,"title":"千種タワーヒルズ","architect":"黒川紀章","year":2007.0,"address":"愛知県名古屋市千種区千種2-24-2","latitude":35.16227340698242,"longitude":136.9262237548828,"category":"集合住宅","big_category":"住宅","description":"","image_url":"","tags":"Ver3.40(2020年5月)の追加建築","prefecture":"愛知","contractor":"","structural_designer":"","landscape_designer":"","shinkenchiku_url":""},{"id":9397,"title":"small pond 上町しぜんの国保育園","architect":"ナフ・アーキテクト&デザイン","year":2019.0,"address":"東京都世田谷区世田谷2-10-10","latitude":35.64323425292969,"longitude":139.643310546875,"category":"幼稚園","big_category":"教育","description":"","image_url":"","tags":"Ver3.40(2020年5月)の追加建築","prefecture":"東京","contractor":"","structural_designer":"","landscape_designer":"","shinkenchiku_url":""},{"id":9398,"title":"正和幼稚園","architect":"ナフ・アーキテクト&デザイン","year":2019.0,"address":"東京都町田市山崎町2261-1","latitude":35.568214416503906,"longitude":139.4318084716797,"category":"幼稚園","big_category":"教育","description":"","image_url":"","tags":"Ver3.40(2020年5月)の追加建築","prefecture":"東京","contractor":"","structural_designer":"","landscape_designer":"","shinkenchiku_url":""},{"id":9399,"title":"立木音楽堂","architect":"高田光春","year":2008.0,"address":"滋賀県大津市石山外畑町110-2","latitude":34.915340423583984,"longitude":135.8979034423828,"category":"カフェ/ホール・劇場","big_category":"商業施設,文化施設","description":"","image_url":"","tags":"Ver3.40(2020年5月)の追加建築","prefecture":"滋賀","contractor":"","structural_designer":"","landscape_designer":"","shinkenchiku_url":""},{"id":9400,"title":"春華堂 POP UP STORE KANDA","architect":"安斎好太郎","year":2017.0,"address":"静岡県浜松市中区神田町553","latitude":34.68935775756836,"longitude":137.71934509277344,"category":"店舗","big_category":"商業施設","description":"1年間だけの仮設店舗という記述があったが2020年4月現在でも営業中の模様","image_url":"","tags":"Ver3.40(2020年5月)の追加建築","prefecture":"静岡","contractor":"","structural_designer":"","landscape_designer":"","shinkenchiku_url":""}]}