{"page":91,"total_pages":290,"items_per_page":50,"total_items":14467,"items":[{"id":4501,"title":"カフェテラス フリーメン","architect":"石田敏明","year":1999.0,"address":"静岡県裾野市須山2255-5199","latitude":35.27029800415039,"longitude":138.79641723632812,"category":"カフェ","big_category":"商業施設","description":"","image_url":"","tags":"","prefecture":"静岡","contractor":"","structural_designer":"","landscape_designer":"","shinkenchiku_url":""},{"id":4502,"title":"河口湖オルゴールの森","architect":"森義純","year":1999.0,"address":"山梨県南都留郡富士河口湖町河口3077-20","latitude":35.52240753173828,"longitude":138.76866149902344,"category":"美術館","big_category":"ミュージアム","description":"","image_url":"","tags":"","prefecture":"山梨","contractor":"","structural_designer":"","landscape_designer":"","shinkenchiku_url":""},{"id":4503,"title":"世田谷自動車学校","architect":"宮崎浩","year":2000.0,"address":"東京都世田谷区粕谷1-14-14","latitude":35.66146469116211,"longitude":139.60769653320312,"category":"企業施設","big_category":"企業施設","description":"","image_url":"","tags":"","prefecture":"東京","contractor":"","structural_designer":"","landscape_designer":"","shinkenchiku_url":""},{"id":4504,"title":"尾道西消防署","architect":"久米設計","year":2005.0,"address":"広島県尾道市新浜1-5-3","latitude":34.400997161865234,"longitude":133.1866912841797,"category":"警察・消防署","big_category":"公共施設","description":"","image_url":"","tags":"","prefecture":"広島","contractor":"","structural_designer":"","landscape_designer":"","shinkenchiku_url":""},{"id":4505,"title":"竹中大工道具館","architect":"竹中工務店","year":2014.0,"address":"兵庫県神戸市中央区熊内町7-5-1","latitude":34.70698928833008,"longitude":135.19760131835938,"category":"博物館","big_category":"ミュージアム","description":"2014年10月オープン。従来の道具館は1984年開館。","image_url":"","tags":"新建築2014年11月号,2021年公共建築賞・特別賞","prefecture":"兵庫","contractor":"竹中工務店","structural_designer":"竹中工務店","landscape_designer":"","shinkenchiku_url":"https://data.shinkenchiku.online/articles/SK_2014_11_054-0"},{"id":4506,"title":"軽井沢集会堂","architect":"ウィリアム・メレル・ヴォーリズ","year":1922.0,"address":"長野県北佐久郡軽井沢町軽井沢（大字）-940-1 軽井沢集会堂","latitude":36.35810089111328,"longitude":138.6386260986328,"category":"ホール・劇場/公民館・交流施設","big_category":"文化施設,公共施設","description":"","image_url":"","tags":"","prefecture":"長野","contractor":"","structural_designer":"","landscape_designer":"","shinkenchiku_url":""},{"id":4507,"title":"軽井沢会テニスコート・クラブハウス","architect":"ウィリアム・メレル・ヴォーリズ","year":1930.0,"address":"長野県北佐久郡軽井沢町軽井沢（大字）-736-1","latitude":36.358482360839844,"longitude":138.63693237304688,"category":"クラブハウス/公共施設","big_category":"レジャー施設,公共施設","description":"","image_url":"","tags":"","prefecture":"長野","contractor":"","structural_designer":"","landscape_designer":"","shinkenchiku_url":""},{"id":4508,"title":"軽井沢ユニオンチャーチ","architect":"ウィリアム・メレル・ヴォーリズ","year":1906.0,"address":"長野県北佐久郡軽井沢町軽井沢（大字） 軽井沢ユニオン教会","latitude":36.357627868652344,"longitude":138.6371307373047,"category":"教会","big_category":"宗教","description":"","image_url":"","tags":"","prefecture":"長野","contractor":"","structural_designer":"","landscape_designer":"","shinkenchiku_url":""},{"id":4509,"title":"日本キリスト教団 軽井沢教会","architect":"ウィリアム・メレル・ヴォーリズ","year":1912.0,"address":"長野県北佐久郡軽井沢町軽井沢（大字）-786-1","latitude":36.357872009277344,"longitude":138.63522338867188,"category":"教会","big_category":"宗教","description":"","image_url":"","tags":"","prefecture":"長野","contractor":"","structural_designer":"","landscape_designer":"","shinkenchiku_url":""},{"id":4510,"title":"旧軽井沢Cafe 涼の音 旧サロモン別荘","architect":"不明","year":null,"address":"長野県北佐久郡軽井沢町軽井沢（大字）-972 涼の音","latitude":36.358924865722656,"longitude":138.63824462890625,"category":"カフェ/洋館","big_category":"商業施設,近代建築/遺産","description":"","image_url":"","tags":"","prefecture":"長野","contractor":"","structural_designer":"","landscape_designer":"","shinkenchiku_url":""},{"id":4511,"title":"室生犀星記念館 (長野) 旧室生犀星別荘","architect":"不明","year":1931.0,"address":"長野県北佐久郡軽井沢町軽井沢（大字）-979-3","latitude":36.359092712402344,"longitude":138.63839721679688,"category":"博物館/和風住宅","big_category":"ミュージアム,住宅","description":"","image_url":"","tags":"","prefecture":"長野","contractor":"","structural_designer":"","landscape_designer":"","shinkenchiku_url":""},{"id":4512,"title":"大分県運転免許センター","architect":"久米設計","year":2006.0,"address":"大分県大分市松岡6687","latitude":33.1881103515625,"longitude":131.64971923828125,"category":"公共施設","big_category":"公共施設","description":"","image_url":"","tags":"","prefecture":"大分","contractor":"","structural_designer":"","landscape_designer":"","shinkenchiku_url":""},{"id":4513,"title":"大南市民センター","architect":"山下設計","year":2011.0,"address":"大分県大分市中戸次5115-1","latitude":33.15175247192383,"longitude":131.65447998046875,"category":"公共施設","big_category":"公共施設","description":"","image_url":"","tags":"","prefecture":"大分","contractor":"","structural_designer":"","landscape_designer":"","shinkenchiku_url":""},{"id":4514,"title":"コトブキヤ文具駅南店","architect":"長野壽之","year":2008.0,"address":"大分県大分市要町5-24","latitude":33.23088073730469,"longitude":131.60794067382812,"category":"店舗","big_category":"商業施設","description":"","image_url":"","tags":"","prefecture":"大分","contractor":"","structural_designer":"","landscape_designer":"","shinkenchiku_url":""},{"id":4515,"title":"大分県漁業協同組合臼杵魚市場 「新鮮海市」","architect":"黒川哲郎","year":2007.0,"address":"大分県臼杵市板知屋1257-33 漁協臼杵魚市場","latitude":33.12176513671875,"longitude":131.80909729003906,"category":"組合施設/モール","big_category":"公共施設,商業施設","description":"","image_url":"","tags":"","prefecture":"大分","contractor":"","structural_designer":"","landscape_designer":"","shinkenchiku_url":""},{"id":4516,"title":"シティハウス仙川ステーションコート","architect":"安藤忠雄","year":2012.0,"address":"東京都調布市仙川町3-10-9 ‎","latitude":35.66352462768555,"longitude":139.5861053466797,"category":"集合住宅","big_category":"住宅","description":"","image_url":"","tags":"","prefecture":"東京","contractor":"","structural_designer":"","landscape_designer":"","shinkenchiku_url":""},{"id":4517,"title":"シティハウス仙川","architect":"安藤忠雄","year":2004.0,"address":"東京都調布市仙川町1-25-4 ‎","latitude":35.661434173583984,"longitude":139.58740234375,"category":"集合住宅/店舗","big_category":"住宅,商業施設","description":"","image_url":"","tags":"","prefecture":"東京","contractor":"","structural_designer":"","landscape_designer":"","shinkenchiku_url":""},{"id":4518,"title":"仙川アヴェニュー南パティオ","architect":"中地正隆","year":1988.0,"address":"東京都調布市仙川町1-24-1 ‎","latitude":35.66047668457031,"longitude":139.58770751953125,"category":"モール/ギャラリー","big_category":"商業施設,ミュージアム","description":"","image_url":"","tags":"","prefecture":"東京","contractor":"","structural_designer":"","landscape_designer":"","shinkenchiku_url":""},{"id":4519,"title":"仙川アヴェニュー北プラザ","architect":"中地正隆","year":1988.0,"address":"東京都調布市仙川町1-25-2 ‎","latitude":35.66086196899414,"longitude":139.58767700195312,"category":"モール","big_category":"商業施設","description":"","image_url":"","tags":"","prefecture":"東京","contractor":"","structural_designer":"","landscape_designer":"","shinkenchiku_url":""},{"id":4520,"title":"前川國男邸","architect":"前川國男","year":1942.0,"address":"東京都小金井市桜町3-7-1","latitude":35.71631622314453,"longitude":139.5118408203125,"category":"住宅","big_category":"住宅","description":"江戸東京たてもの園に移築","image_url":"","tags":"","prefecture":"東京","contractor":"","structural_designer":"","landscape_designer":"","shinkenchiku_url":""},{"id":4521,"title":"小出邸","architect":"堀口捨己","year":1925.0,"address":"東京都小金井市桜町3-7-1","latitude":35.71631622314453,"longitude":139.51161193847656,"category":"住宅","big_category":"住宅","description":"江戸東京たてもの園に移築","image_url":"","tags":"","prefecture":"東京","contractor":"","structural_designer":"","landscape_designer":"","shinkenchiku_url":""},{"id":4522,"title":"デ・ラランデ邸","architect":"ゲオルグ・デ・ラランデ","year":1910.0,"address":"東京都小金井市桜町3-7-1","latitude":35.71632385253906,"longitude":139.51124572753906,"category":"洋館","big_category":"近代建築/遺産","description":"江戸東京たてもの園に移築","image_url":"","tags":"","prefecture":"東京","contractor":"","structural_designer":"","landscape_designer":"","shinkenchiku_url":""},{"id":4523,"title":"神戸市風見鶏の館 旧トーマス邸","architect":"ゲオルグ・デ・ラランデ","year":1904.0,"address":"兵庫県神戸市中央区北野町3-13-3","latitude":34.70139694213867,"longitude":135.18946838378906,"category":"洋館","big_category":"近代建築/遺産","description":"","image_url":"","tags":"","prefecture":"兵庫","contractor":"","structural_designer":"","landscape_designer":"","shinkenchiku_url":""},{"id":4524,"title":"ロッソ・スクーデリア 六本木ショールーム","architect":"大江匡","year":2014.0,"address":"東京都港区六本木5-18-3","latitude":35.660865783691406,"longitude":139.7373504638672,"category":"店舗","big_category":"商業施設","description":"","image_url":"","tags":"","prefecture":"東京","contractor":"","structural_designer":"","landscape_designer":"","shinkenchiku_url":""},{"id":4525,"title":"田野畑村農村勤労福祉センター アズビィ体育館","architect":"穂積信夫","year":1985.0,"address":"岩手県下閉伊郡田野畑村和野278 ‎","latitude":39.92372512817383,"longitude":141.90347290039062,"category":"体育館","big_category":"レジャー施設","description":"設計者を古谷誠章から穂積信夫に変更。早稲田大学穂積信夫研究室。担当は古谷誠章。","image_url":"","tags":"","prefecture":"岩手","contractor":"","structural_designer":"","landscape_designer":"","shinkenchiku_url":""},{"id":4526,"title":"早稲田大学図書館本庄分館・考古学資料館","architect":"穂積信夫","year":1984.0,"address":"埼玉県本庄市栗崎214","latitude":36.21379852294922,"longitude":139.18093872070312,"category":"学校/図書館","big_category":"教育,文化施設","description":"設計者を古谷誠章から穂積信夫に変更。早稲田大学穂積信夫研究室。担当は古谷誠章。","image_url":"","tags":"","prefecture":"埼玉","contractor":"","structural_designer":"","landscape_designer":"","shinkenchiku_url":""},{"id":4527,"title":"早稲田大学本庄高等学院","architect":"穂積信夫","year":1983.0,"address":"埼玉県本庄市栗崎239-3","latitude":36.21213150024414,"longitude":139.1760711669922,"category":"学校","big_category":"教育","description":"設計者を古谷誠章から穂積信夫に変更。早稲田大学穂積信夫研究室。担当は古谷誠章。","image_url":"","tags":"新建築1984年1月号","prefecture":"埼玉","contractor":"","structural_designer":"","landscape_designer":"","shinkenchiku_url":""},{"id":4528,"title":"田野畑中学校特別教室棟","architect":"穂積信夫","year":1983.0,"address":"岩手県下閉伊郡田野畑村松前沢97","latitude":39.92006301879883,"longitude":141.90980529785156,"category":"体育館/学校","big_category":"レジャー施設,教育","description":"現存・詳細不明。古谷研究室のブログを読む限り2011年時点では現存していた模様も場所も含めてよくわからず。","image_url":"","tags":"","prefecture":"岩手","contractor":"","structural_designer":"","landscape_designer":"","shinkenchiku_url":""},{"id":4529,"title":"La villa LUPICIA","architect":"古谷誠章","year":2012.0,"address":"北海道虻田郡倶知安町字樺山58-5","latitude":42.849666595458984,"longitude":140.7035369873047,"category":"店舗/低層オフィス/工場","big_category":"商業施設,企業施設,企業施設","description":"","image_url":"","tags":"","prefecture":"北海道","contractor":"","structural_designer":"","landscape_designer":"","shinkenchiku_url":""},{"id":4530,"title":"浪江in福島ライブラリー きぼう","architect":"古谷誠章","year":2012.0,"address":"福島県福島市笹谷片目清水30-8 浪江ｉｎ福島ライブラリーきぼう","latitude":37.789974212646484,"longitude":140.44589233398438,"category":"図書館","big_category":"文化施設","description":"","image_url":"","tags":"","prefecture":"福島","contractor":"","structural_designer":"","landscape_designer":"","shinkenchiku_url":""},{"id":4531,"title":"旭ブレインズ新社屋","architect":"古谷誠章","year":2012.0,"address":"山形県山形市東原町2-1-27","latitude":38.24385452270508,"longitude":140.3424530029297,"category":"低層オフィス","big_category":"企業施設","description":"","image_url":"","tags":"","prefecture":"山形","contractor":"","structural_designer":"","landscape_designer":"","shinkenchiku_url":""},{"id":4532,"title":"西早稲田キャンパス Campus cafe","architect":"古谷誠章","year":2009.0,"address":"東京都新宿区大久保3-4-1","latitude":35.70606994628906,"longitude":139.70680236816406,"category":"大学/カフェ","big_category":"教育,商業施設","description":"","image_url":"","tags":"","prefecture":"東京","contractor":"","structural_designer":"","landscape_designer":"","shinkenchiku_url":""},{"id":4533,"title":"早稲田大学大久保キャンパス新研究棟 ハイテク・リサーチ・センター","architect":"古谷誠章+鈴木恂","year":1997.0,"address":"東京都新宿区大久保3-4-1","latitude":35.70649719238281,"longitude":139.7051239013672,"category":"大学","big_category":"教育","description":"","image_url":"","tags":"","prefecture":"東京","contractor":"","structural_designer":"","landscape_designer":"","shinkenchiku_url":""},{"id":4534,"title":"秋田日産コンプレックス 秋田日産自動車株式会社 ラ・カージュ店","architect":"早川邦彦","year":1990.0,"address":"秋田県秋田市八橋鯲沼町1-59","latitude":39.73147964477539,"longitude":140.10198974609375,"category":"店舗/複合施設","big_category":"商業施設,商業施設","description":"解体中","image_url":"","tags":"","prefecture":"秋田","contractor":"","structural_designer":"","landscape_designer":"","shinkenchiku_url":""},{"id":4535,"title":"沖縄科学技術大学院大学","architect":"日建設計+コーンバーグ・アソシエイツ+国建","year":2010.0,"address":"沖縄県国頭郡恩納村谷茶1919-1","latitude":26.4647159576416,"longitude":127.83000183105469,"category":"大学","big_category":"教育","description":"2010年から順次竣工。","image_url":"","tags":"新建築2014年9月号","prefecture":"沖縄","contractor":"竹中・仲本特定建設工事共同企業体","structural_designer":"","landscape_designer":"","shinkenchiku_url":"https://data.shinkenchiku.online/articles/SK_2014_09_080-0"},{"id":4536,"title":"Apple Store Omotesando","architect":"光井純+ボーリン・シウィンスキー・ジャクソン","year":2014.0,"address":"東京都渋谷区神宮前4-2-13","latitude":35.666229248046875,"longitude":139.7108917236328,"category":"店舗","big_category":"商業施設","description":"","image_url":"","tags":"新建築2014年9月号","prefecture":"東京","contractor":"竹中工務店","structural_designer":"Eckersley O'Callaghan+Arup","landscape_designer":"","shinkenchiku_url":"https://data.shinkenchiku.online/articles/SK_2014_09_092-0"},{"id":4537,"title":"湘南キリスト教会","architect":"保坂猛","year":2014.0,"address":"神奈川県藤沢市辻堂東海岸2-12-36","latitude":35.323665618896484,"longitude":139.45834350585938,"category":"教会","big_category":"宗教","description":"","image_url":"","tags":"新建築2014年9月号","prefecture":"神奈川","contractor":"栄港建設","structural_designer":"Arup","landscape_designer":"","shinkenchiku_url":"https://data.shinkenchiku.online/articles/SK_2014_09_118-0"},{"id":4538,"title":"キクカワグループ東京オフィスビル","architect":"室伏次郎","year":2014.0,"address":"東京都墨田区菊川2-18-12","latitude":35.68906021118164,"longitude":139.80564880371094,"category":"低層オフィス","big_category":"企業施設","description":"","image_url":"","tags":"新建築2014年9月号","prefecture":"東京","contractor":"醍醐建設","structural_designer":"TIS&PARTNERS","landscape_designer":"","shinkenchiku_url":"https://data.shinkenchiku.online/articles/SK_2014_09_126-0"},{"id":4539,"title":"浄土真宗本願寺派 光輪山 明善寺","architect":"入江正之","year":2013.0,"address":"埼玉県川口市赤井4-18-20","latitude":35.82723617553711,"longitude":139.74969482421875,"category":"寺院","big_category":"宗教","description":"","image_url":"","tags":"新建築2014年9月号","prefecture":"埼玉","contractor":"大成建設","structural_designer":"大成建設","landscape_designer":"","shinkenchiku_url":"https://data.shinkenchiku.online/articles/SK_2014_09_133-0"},{"id":4540,"title":"ゆりあげ港朝市","architect":"針生承一","year":2014.0,"address":"宮城県名取市閖上5-23-20","latitude":38.16960525512695,"longitude":140.95321655273438,"category":"港/モール","big_category":"インフラ,商業施設","description":"","image_url":"","tags":"新建築2014年9月号","prefecture":"宮城","contractor":"八重樫工務店","structural_designer":"NEO建築構造","landscape_designer":"","shinkenchiku_url":"https://data.shinkenchiku.online/articles/SK_2014_09_140-0"},{"id":4541,"title":"ミラノシカ","architect":"DesignBuildFUKUOKA","year":2014.0,"address":"福岡県築上郡上毛町東上1179","latitude":33.517948150634766,"longitude":131.15367126464844,"category":"古民家/住宅","big_category":"近代建築/遺産,住宅","description":"","image_url":"","tags":"新建築2014年9月号","prefecture":"福岡","contractor":"DesignBuildFUKUOKA","structural_designer":"DesignBuildFUKUOKA","landscape_designer":"","shinkenchiku_url":"https://data.shinkenchiku.online/articles/SK_2014_09_154-0"},{"id":4542,"title":"大成建設技術センター ZEB実証棟","architect":"大成建設","year":2014.0,"address":"神奈川県横浜市戸塚区名瀬町344-1","latitude":35.42411804199219,"longitude":139.5426025390625,"category":"研究施設/企業施設","big_category":"教育,企業施設","description":"","image_url":"","tags":"新建築2014年9月号","prefecture":"神奈川","contractor":"大成建設","structural_designer":"大成建設","landscape_designer":"","shinkenchiku_url":"https://data.shinkenchiku.online/articles/SK_2014_09_168-0"},{"id":4543,"title":"NTTファシリティーズ新大橋ビル","architect":"NTTファシリティーズ","year":2014.0,"address":"東京都江東区新大橋1-1-8","latitude":35.686859130859375,"longitude":139.79420471191406,"category":"低層オフィス","big_category":"企業施設","description":"","image_url":"","tags":"新建築2014年9月号","prefecture":"東京","contractor":"竹中工務店・共立建設共同企業体","structural_designer":"NTTファシリティーズ","landscape_designer":"","shinkenchiku_url":"https://data.shinkenchiku.online/articles/SK_2014_09_186-0"},{"id":4544,"title":"K-port＋磯屋水産港町一-店","architect":"伊東豊雄","year":2013.0,"address":"宮城県気仙沼市港町1-3","latitude":38.90511703491211,"longitude":141.5764923095703,"category":"港/店舗/カフェ","big_category":"インフラ,商業施設,商業施設","description":"","image_url":"","tags":"新建築2014年10月号","prefecture":"宮城","contractor":"みちのく建設工業","structural_designer":"佐々木睦朗構造計画研究","landscape_designer":"","shinkenchiku_url":"https://data.shinkenchiku.online/articles/SK_2014_10_176-0"},{"id":4545,"title":"宮戸島月浜のみんなの家","architect":"SANAA","year":2014.0,"address":"宮城県東松島市宮戸字村77","latitude":38.324954986572266,"longitude":141.15570068359375,"category":"公民館・交流施設","big_category":"公共施設","description":"","image_url":"","tags":"新建築2014年10月号","prefecture":"宮城","contractor":"シェルター","structural_designer":"佐々木睦朗構造計画研究","landscape_designer":"","shinkenchiku_url":"https://data.shinkenchiku.online/articles/SK_2014_10_142-0"},{"id":4546,"title":"總寧寺永代供養施設 \"無憂樹林\"","architect":"妹島和世","year":2014.0,"address":"千葉県市川市国府台3-10-1","latitude":35.74810028076172,"longitude":139.89996337890625,"category":"寺院/オブジェ","big_category":"宗教,ミュージアム","description":"","image_url":"","tags":"新建築2014年10月号","prefecture":"千葉","contractor":"栄港建設","structural_designer":"佐々木睦朗構造計画研究","landscape_designer":"","shinkenchiku_url":"https://data.shinkenchiku.online/articles/SK_2014_10_134-0"},{"id":4547,"title":"無量光 明圓寺納骨堂清淨殿","architect":"古森弘一","year":2014.0,"address":"福岡県飯塚市大分1236","latitude":33.58258056640625,"longitude":130.6294708251953,"category":"寺院","big_category":"宗教","description":"","image_url":"","tags":"新建築2014年10月号","prefecture":"福岡","contractor":"茜建設","structural_designer":"Arup","landscape_designer":"","shinkenchiku_url":"https://data.shinkenchiku.online/articles/SK_2014_10_126-0"},{"id":4548,"title":"八海山雪室","architect":"鹿島建設","year":2013.0,"address":"新潟県南魚沼市長森459","latitude":37.10641860961914,"longitude":138.93255615234375,"category":"カフェ/店舗/企業施設","big_category":"商業施設,商業施設,企業施設","description":"魚沼の里内に設置。カフェ等。見学可能。","image_url":"","tags":"2015年日本建築学会 作品選奨,新建築2014年10月号","prefecture":"新潟","contractor":"鹿島・高橋建設共同企業体","structural_designer":"鹿島建設","landscape_designer":"鹿島建設","shinkenchiku_url":"https://data.shinkenchiku.online/articles/SK_2014_10_118-0"},{"id":4549,"title":"千葉大学 ゐのはな同窓会館","architect":"鈴木弘樹","year":2014.0,"address":"千葉県千葉市中央区亥鼻1-8-1 千葉大学亥鼻キャンパス","latitude":35.60544967651367,"longitude":140.1327362060547,"category":"大学","big_category":"教育","description":"","image_url":"","tags":"新建築2014年10月号","prefecture":"千葉","contractor":"山内工業","structural_designer":"KAP","landscape_designer":"","shinkenchiku_url":"https://data.shinkenchiku.online/articles/SK_2014_10_074-0"},{"id":4550,"title":"東京農業大学 農大アカデミアセンター","architect":"久米設計","year":2013.0,"address":"東京都世田谷区桜丘1-1-1","latitude":35.64105987548828,"longitude":139.6314239501953,"category":"大学/図書館","big_category":"教育,文化施設","description":"","image_url":"","tags":"新建築2014年10月号","prefecture":"東京","contractor":"清水建設","structural_designer":"久米設計","landscape_designer":"","shinkenchiku_url":"https://data.shinkenchiku.online/articles/SK_2014_10_046-0"}]}