{"page":192,"total_pages":290,"items_per_page":50,"total_items":14467,"items":[{"id":9551,"title":"リックスプロカースクール","architect":"菅匡史","year":2007.0,"address":"兵庫県神戸市東灘区向洋町西6-20-3","latitude":34.684906005859375,"longitude":135.2579803466797,"category":"専門学校","big_category":"教育","description":"","image_url":"","tags":"Ver3.40(2020年5月)の追加建築","prefecture":"兵庫","contractor":"","structural_designer":"","landscape_designer":"","shinkenchiku_url":""},{"id":9552,"title":"Work Studio","architect":"菅匡史","year":2001.0,"address":"愛知県岡崎市東明大寺町15-7","latitude":34.94545364379883,"longitude":137.17599487304688,"category":"テナントビル/モール","big_category":"商業施設,商業施設","description":"","image_url":"","tags":"Ver3.40(2020年5月)の追加建築","prefecture":"愛知","contractor":"","structural_designer":"","landscape_designer":"","shinkenchiku_url":""},{"id":9553,"title":"CuRVA","architect":"菅匡史","year":2005.0,"address":"大阪府茨木市東宮町5-3","latitude":34.824737548828125,"longitude":135.57383728027344,"category":"集合住宅","big_category":"住宅","description":"","image_url":"","tags":"Ver3.40(2020年5月)の追加建築","prefecture":"大阪","contractor":"","structural_designer":"","landscape_designer":"","shinkenchiku_url":""},{"id":9554,"title":"天美保育園","architect":"菅匡史","year":2011.0,"address":"大阪府松原市天美東8-6-35","latitude":34.588035583496094,"longitude":135.5330352783203,"category":"幼稚園","big_category":"教育","description":"","image_url":"","tags":"Ver3.40(2020年5月)の追加建築","prefecture":"大阪","contractor":"","structural_designer":"","landscape_designer":"","shinkenchiku_url":""},{"id":9555,"title":"天美北保育園","architect":"菅匡史","year":2010.0,"address":"大阪府松原市天美北1-360-1","latitude":34.593658447265625,"longitude":135.53805541992188,"category":"幼稚園","big_category":"教育","description":"","image_url":"","tags":"Ver3.40(2020年5月)の追加建築","prefecture":"大阪","contractor":"","structural_designer":"","landscape_designer":"","shinkenchiku_url":""},{"id":9556,"title":"アドバンス梅田東","architect":"菅匡史","year":2009.0,"address":"大阪府大阪市北区中崎西1-9-8","latitude":34.708213806152344,"longitude":135.503662109375,"category":"集合住宅","big_category":"住宅","description":"","image_url":"","tags":"Ver3.40(2020年5月)の追加建築","prefecture":"大阪","contractor":"","structural_designer":"","landscape_designer":"","shinkenchiku_url":""},{"id":9557,"title":"Lark Spur 岡町","architect":"菅匡史","year":2008.0,"address":"大阪府豊中市岡町北1-1-6","latitude":34.7788200378418,"longitude":135.46463012695312,"category":"集合住宅","big_category":"住宅","description":"","image_url":"","tags":"Ver3.40(2020年5月)の追加建築","prefecture":"大阪","contractor":"","structural_designer":"","landscape_designer":"","shinkenchiku_url":""},{"id":9558,"title":"ザ・リスケープ","architect":"UDS","year":2019.0,"address":"沖縄県宮古島市城辺長間1901-1","latitude":24.78873062133789,"longitude":125.3761978149414,"category":"ホテル","big_category":"宿泊","description":"","image_url":"","tags":"Ver3.40(2020年5月)の追加建築","prefecture":"沖縄","contractor":"","structural_designer":"","landscape_designer":"","shinkenchiku_url":""},{"id":9559,"title":"香南市役所新庁舎","architect":"山下設計+みやび設計","year":2020.0,"address":"高知県香南市野市町西野2706","latitude":33.56446838378906,"longitude":133.70089721679688,"category":"庁舎","big_category":"公共施設","description":"","image_url":"","tags":"Ver3.40(2020年5月)の追加建築","prefecture":"高知","contractor":"","structural_designer":"","landscape_designer":"","shinkenchiku_url":""},{"id":9560,"title":"川口市役所新庁舎","architect":"山下設計","year":2020.0,"address":"埼玉県川口市幸町1-6","latitude":35.80671310424805,"longitude":139.7233123779297,"category":"庁舎","big_category":"公共施設","description":"","image_url":"","tags":"Ver3.40(2020年5月)の追加建築","prefecture":"埼玉","contractor":"","structural_designer":"","landscape_designer":"","shinkenchiku_url":""},{"id":9561,"title":"自転車の国サイクルスポーツセンター","architect":"日建設計","year":1971.0,"address":"静岡県伊豆市大野1826","latitude":35.00916290283203,"longitude":139.01315307617188,"category":"スポーツ施設/テーマパーク","big_category":"レジャー施設,レジャー施設","description":"","image_url":"","tags":"Ver3.40(2020年5月)の追加建築","prefecture":"静岡","contractor":"","structural_designer":"","landscape_designer":"","shinkenchiku_url":""},{"id":9562,"title":"四季倶楽部 プレーゴ葉山","architect":"芦原義信","year":1970.0,"address":"神奈川県三浦郡葉山町一色2233","latitude":35.266075134277344,"longitude":139.5762176513672,"category":"ホテル","big_category":"宿泊","description":"","image_url":"","tags":"Ver3.40(2020年5月)の追加建築","prefecture":"神奈川","contractor":"","structural_designer":"","landscape_designer":"","shinkenchiku_url":""},{"id":9563,"title":"NAMIKOI Cafe","architect":"堀尾浩","year":2018.0,"address":"北海道北斗市三ツ石1-1-24","latitude":41.73528289794922,"longitude":140.57936096191406,"category":"カフェ","big_category":"商業施設","description":"","image_url":"","tags":"Ver3.40(2020年5月)の追加建築","prefecture":"北海道","contractor":"","structural_designer":"","landscape_designer":"","shinkenchiku_url":""},{"id":9564,"title":"星野リゾート トマム ホタルストリート","architect":"児島理志+堀尾浩","year":2017.0,"address":"北海道勇払郡占冠村字中トマム2169-2","latitude":43.065330505371094,"longitude":142.6324005126953,"category":"モール/ホテル","big_category":"商業施設,宿泊","description":"","image_url":"","tags":"Ver3.40(2020年5月)の追加建築","prefecture":"北海道","contractor":"","structural_designer":"","landscape_designer":"","shinkenchiku_url":""},{"id":9565,"title":"山安 ターンパイク店","architect":"森屋隆洋","year":2020.0,"address":"神奈川県小田原市早川3-3-3","latitude":35.2431755065918,"longitude":139.1413116455078,"category":"店舗","big_category":"商業施設","description":"","image_url":"","tags":"Ver3.40(2020年5月)の追加建築","prefecture":"神奈川","contractor":"","structural_designer":"","landscape_designer":"","shinkenchiku_url":""},{"id":9566,"title":"森博士の家","architect":"清家清","year":1951.0,"address":"東京都文京区本駒込1-11-51","latitude":35.726409912109375,"longitude":139.74977111816406,"category":"住宅","big_category":"住宅","description":"","image_url":"","tags":"登録有形文化財,DOCOMOMO,Ver3.40(2020年5月)の追加建築","prefecture":"東京","contractor":"","structural_designer":"","landscape_designer":"","shinkenchiku_url":""},{"id":9567,"title":"私の家","architect":"清家清","year":1954.0,"address":"東京都大田区東雪谷3-519","latitude":35.59400177001953,"longitude":139.69149780273438,"category":"住宅","big_category":"住宅","description":"","image_url":"","tags":"登録有形文化財,Ver3.40(2020年5月)の追加建築","prefecture":"東京","contractor":"","structural_designer":"","landscape_designer":"","shinkenchiku_url":""},{"id":9568,"title":"東北学院大学 本館 旧専門部校舎","architect":"ジェイ・ヒル・モーガン","year":1926.0,"address":"宮城県仙台市青葉区土樋1-3-1","latitude":38.24964141845703,"longitude":140.8773193359375,"category":"大学","big_category":"教育","description":"","image_url":"","tags":"登録有形文化財,Ver3.40(2020年5月)の追加建築","prefecture":"宮城","contractor":"","structural_designer":"","landscape_designer":"","shinkenchiku_url":""},{"id":9569,"title":"東北学院大学 ラーハウザー記念東北学院礼拝堂","architect":"ジェイ・ヒル・モーガン","year":1932.0,"address":"宮城県仙台市青葉区土樋1-3-1","latitude":38.249881744384766,"longitude":140.87692260742188,"category":"大学/教会","big_category":"教育,宗教","description":"","image_url":"","tags":"登録有形文化財,Ver3.40(2020年5月)の追加建築","prefecture":"宮城","contractor":"","structural_designer":"","landscape_designer":"","shinkenchiku_url":""},{"id":9570,"title":"東北学院大学 大学院棟 旧シュネーダー記念東北学院図書館","architect":"山下寿郎","year":1953.0,"address":"宮城県仙台市青葉区土樋1-3-1","latitude":38.24999237060547,"longitude":140.87811279296875,"category":"大学/洋館","big_category":"教育,近代建築/遺産","description":"","image_url":"","tags":"登録有形文化財,Ver3.40(2020年5月)の追加建築","prefecture":"宮城","contractor":"","structural_designer":"","landscape_designer":"","shinkenchiku_url":""},{"id":9571,"title":"東北学院大学 デフォレスト館 旧シップル館","architect":"植田登","year":1887.0,"address":"宮城県仙台市青葉区土樋1-3-1","latitude":38.24985885620117,"longitude":140.8759002685547,"category":"大学","big_category":"教育","description":"","image_url":"","tags":"登録有形文化財,Ver3.40(2020年5月)の追加建築","prefecture":"宮城","contractor":"","structural_designer":"","landscape_designer":"","shinkenchiku_url":""},{"id":9572,"title":"能代市役所第一庁舎","architect":"武藤清","year":1949.0,"address":"秋田県能代市上町1-3","latitude":40.21213150024414,"longitude":140.02662658691406,"category":"庁舎","big_category":"公共施設","description":"","image_url":"","tags":"登録有形文化財,Ver3.40(2020年5月)の追加建築","prefecture":"秋田","contractor":"","structural_designer":"","landscape_designer":"","shinkenchiku_url":""},{"id":9573,"title":"能代市大会議室 旧議事堂","architect":"不明","year":1950.0,"address":"秋田県能代市上町1-3","latitude":40.211936950683594,"longitude":140.02642822265625,"category":"庁舎","big_category":"公共施設","description":"設計は能代市職員の菊地康夫 三村照之助、安井浩治の3名","image_url":"","tags":"登録有形文化財,Ver3.40(2020年5月)の追加建築","prefecture":"秋田","contractor":"","structural_designer":"","landscape_designer":"","shinkenchiku_url":""},{"id":9574,"title":"日本福音ルーテル市川教会","architect":"ウィリアム・メレル・ヴォーリズ","year":1955.0,"address":"千葉県市川市市川4-1-5","latitude":35.73825454711914,"longitude":139.90586853027344,"category":"教会","big_category":"宗教","description":"","image_url":"","tags":"登録有形文化財,Ver3.40(2020年5月)の追加建築","prefecture":"千葉","contractor":"","structural_designer":"","landscape_designer":"","shinkenchiku_url":""},{"id":9575,"title":"幻戯山房 すぎなみ詩歌館 旧角川家住宅主屋","architect":"加倉井昭夫","year":1955.0,"address":"東京都杉並区荻窪3-14-22","latitude":35.698829650878906,"longitude":139.62448120117188,"category":"和風住宅","big_category":"住宅","description":"","image_url":"","tags":"登録有形文化財,Ver3.40(2020年5月)の追加建築","prefecture":"東京","contractor":"","structural_designer":"","landscape_designer":"","shinkenchiku_url":""},{"id":9576,"title":"萬頂山 高岩寺本堂","architect":"横山秀哉","year":1957.0,"address":"東京都豊島区巣鴨3-35-2","latitude":35.735816955566406,"longitude":139.7355194091797,"category":"寺院","big_category":"宗教","description":"","image_url":"","tags":"登録有形文化財,Ver3.40(2020年5月)の追加建築","prefecture":"東京","contractor":"","structural_designer":"","landscape_designer":"","shinkenchiku_url":""},{"id":9577,"title":"繭山龍泉堂店舗","architect":"東畑謙三","year":1960.0,"address":"東京都中央区京橋2-5-9","latitude":35.67613983154297,"longitude":139.771240234375,"category":"店舗","big_category":"商業施設","description":"","image_url":"","tags":"登録有形文化財,Ver3.40(2020年5月)の追加建築","prefecture":"東京","contractor":"","structural_designer":"","landscape_designer":"","shinkenchiku_url":""},{"id":9578,"title":"荻窪の家 渡邊家住宅","architect":"吉村順三","year":1959.0,"address":"東京都杉並区荻窪4-23","latitude":35.701480865478516,"longitude":139.62353515625,"category":"住宅","big_category":"住宅","description":"1970年頃・1980年頃・2014年改修","image_url":"","tags":"登録有形文化財,Ver3.40(2020年5月)の追加建築","prefecture":"東京","contractor":"","structural_designer":"","landscape_designer":"","shinkenchiku_url":""},{"id":9579,"title":"旧柳澤邸","architect":"伊東安兵衛","year":1951.0,"address":"東京都世田谷区大原1-26-1","latitude":35.66842269897461,"longitude":139.6618194580078,"category":"和風住宅","big_category":"住宅","description":"","image_url":"","tags":"登録有形文化財,Ver3.40(2020年5月)の追加建築","prefecture":"東京","contractor":"","structural_designer":"","landscape_designer":"","shinkenchiku_url":""},{"id":9580,"title":"伊藤家住宅","architect":"アントニン・レーモンド","year":1963.0,"address":"東京都大田区東雪谷5-14","latitude":35.58982467651367,"longitude":139.69432067871094,"category":"住宅","big_category":"住宅","description":"","image_url":"","tags":"登録有形文化財,Ver3.40(2020年5月)の追加建築","prefecture":"東京","contractor":"","structural_designer":"","landscape_designer":"","shinkenchiku_url":""},{"id":9581,"title":"カトリック布池教会 名古屋カテドラル聖ペトロ聖パウロ大聖堂","architect":"山下寿郎","year":1961.0,"address":"愛知県名古屋市東区葵1-12-23","latitude":35.17277526855469,"longitude":136.9239044189453,"category":"教会","big_category":"宗教","description":"","image_url":"","tags":"登録有形文化財,Ver3.40(2020年5月)の追加建築","prefecture":"愛知","contractor":"","structural_designer":"","landscape_designer":"","shinkenchiku_url":""},{"id":9582,"title":"日本陶磁器センター新館","architect":"山下寿郎","year":1958.0,"address":"愛知県名古屋市東区代官町39-18","latitude":35.17448806762695,"longitude":136.9220733642578,"category":"オフィスビル","big_category":"企業施設","description":"","image_url":"","tags":"登録有形文化財,Ver3.40(2020年5月)の追加建築","prefecture":"愛知","contractor":"","structural_designer":"","landscape_designer":"","shinkenchiku_url":""},{"id":9583,"title":"日本福音ルーテル岡崎教会教会堂","architect":"ウィリアム・メレル・ヴォーリズ","year":1953.0,"address":"愛知県岡崎市伝馬通4-54","latitude":34.95741653442383,"longitude":137.17263793945312,"category":"教会","big_category":"宗教","description":"","image_url":"","tags":"登録有形文化財,Ver3.40(2020年5月)の追加建築","prefecture":"愛知","contractor":"","structural_designer":"","landscape_designer":"","shinkenchiku_url":""},{"id":9584,"title":"名古屋テレビ塔","architect":"内藤多仲","year":1954.0,"address":"愛知県名古屋市中区錦3-6-15","latitude":35.172325134277344,"longitude":136.9082794189453,"category":"展望台/公共施設","big_category":"レジャー施設,公共施設","description":"2020年に日建設計によりリニューアル、免震工事","image_url":"","tags":"登録有形文化財,Ver3.40(2020年5月)の追加建築,新建築2021年1月号","prefecture":"愛知","contractor":"","structural_designer":"","landscape_designer":"","shinkenchiku_url":""},{"id":9585,"title":"朝日小学校円形校舎","architect":"坂本鹿名夫","year":1962.0,"address":"三重県三重郡朝日町大字柿750","latitude":35.03390121459961,"longitude":136.66502380371094,"category":"学校","big_category":"教育","description":"","image_url":"","tags":"登録有形文化財,Ver3.40(2020年5月)の追加建築","prefecture":"三重","contractor":"","structural_designer":"","landscape_designer":"","shinkenchiku_url":""},{"id":9586,"title":"日本基督教団 近江金田教会","architect":"ウィリアム・メレル・ヴォーリズ","year":1950.0,"address":"滋賀県近江八幡市鷹飼町1575","latitude":35.12456130981445,"longitude":136.10206604003906,"category":"教会","big_category":"宗教","description":"","image_url":"","tags":"登録有形文化財,Ver3.40(2020年5月)の追加建築","prefecture":"滋賀","contractor":"","structural_designer":"","landscape_designer":"","shinkenchiku_url":""},{"id":9587,"title":"大阪女学院 ヘールチャペル","architect":"ウィリアム・メレル・ヴォーリズ","year":1951.0,"address":"大阪府大阪市中央区玉造2-26","latitude":34.67692565917969,"longitude":135.52728271484375,"category":"教会/大学","big_category":"宗教,教育","description":"","image_url":"","tags":"登録有形文化財,Ver3.40(2020年5月)の追加建築","prefecture":"大阪","contractor":"","structural_designer":"","landscape_designer":"","shinkenchiku_url":""},{"id":9588,"title":"大阪女学院 北校舎","architect":"ウィリアム・メレル・ヴォーリズ","year":1951.0,"address":"大阪府大阪市中央区玉造2-26","latitude":34.677371978759766,"longitude":135.52719116210938,"category":"学校","big_category":"教育","description":"","image_url":"","tags":"Ver3.40(2020年5月)の追加建築","prefecture":"大阪","contractor":"","structural_designer":"","landscape_designer":"","shinkenchiku_url":""},{"id":9589,"title":"通天閣","architect":"内藤多仲","year":1956.0,"address":"大阪府大阪市浪速区恵美須東1-18-6","latitude":34.652523040771484,"longitude":135.50634765625,"category":"展望台/公共施設","big_category":"レジャー施設,公共施設","description":"","image_url":"","tags":"登録有形文化財,Ver3.40(2020年5月)の追加建築","prefecture":"大阪","contractor":"","structural_designer":"","landscape_designer":"","shinkenchiku_url":""},{"id":9590,"title":"浦家住宅","architect":"吉阪隆正","year":1956.0,"address":"兵庫県西宮市南郷町8-14","latitude":34.74641418457031,"longitude":135.3313751220703,"category":"住宅","big_category":"住宅","description":"","image_url":"","tags":"登録有形文化財,Ver3.40(2020年5月)の追加建築","prefecture":"兵庫","contractor":"","structural_designer":"","landscape_designer":"","shinkenchiku_url":""},{"id":9591,"title":"診療室をもつ小住宅 旧建部歯科医院","architect":"増田友也","year":1953.0,"address":"京都府京都市左京区下鴨松ノ木町2-19","latitude":35.041316986083984,"longitude":135.770751953125,"category":"住宅","big_category":"住宅","description":"","image_url":"","tags":"登録有形文化財,Ver3.40(2020年5月)の追加建築","prefecture":"京都","contractor":"","structural_designer":"","landscape_designer":"","shinkenchiku_url":""},{"id":9592,"title":"別府タワー","architect":"内藤多仲","year":1957.0,"address":"大分県別府市北浜3-10-2","latitude":33.28172302246094,"longitude":131.5059356689453,"category":"展望台/公共施設","big_category":"レジャー施設,公共施設","description":"","image_url":"","tags":"登録有形文化財,Ver3.40(2020年5月)の追加建築","prefecture":"大分","contractor":"","structural_designer":"","landscape_designer":"","shinkenchiku_url":""},{"id":9593,"title":"鳴門東小学校","architect":"増田友也","year":1979.0,"address":"徳島県鳴門市鳴門町土佐泊浦高砂65-3","latitude":34.19570541381836,"longitude":134.62368774414062,"category":"学校","big_category":"教育","description":"","image_url":"","tags":"Ver3.40(2020年5月)の追加建築","prefecture":"徳島","contractor":"","structural_designer":"","landscape_designer":"","shinkenchiku_url":""},{"id":9594,"title":"鳴門東幼稚園","architect":"増田友也","year":1980.0,"address":"徳島県鳴門市鳴門町土佐泊浦高砂65-3","latitude":34.19562911987305,"longitude":134.62306213378906,"category":"幼稚園","big_category":"教育","description":"","image_url":"","tags":"Ver3.40(2020年5月)の追加建築","prefecture":"徳島","contractor":"","structural_designer":"","landscape_designer":"","shinkenchiku_url":""},{"id":9595,"title":"旧瀬戸小学校体育館","architect":"増田友也","year":1977.0,"address":"徳島県鳴門市瀬戸町堂浦地廻り参220-1","latitude":34.22524642944336,"longitude":134.5884552001953,"category":"学校/体育館","big_category":"教育,レジャー施設","description":"2018年3月末で休校","image_url":"","tags":"Ver3.40(2020年5月)の追加建築","prefecture":"徳島","contractor":"","structural_designer":"","landscape_designer":"","shinkenchiku_url":""},{"id":9596,"title":"桑島幼稚園","architect":"増田友也","year":1977.0,"address":"徳島県鳴門市撫養町大桑島与三左谷32","latitude":34.18387222290039,"longitude":134.60772705078125,"category":"幼稚園","big_category":"教育","description":"","image_url":"","tags":"Ver3.40(2020年5月)の追加建築","prefecture":"徳島","contractor":"","structural_designer":"","landscape_designer":"","shinkenchiku_url":""},{"id":9597,"title":"旧瀬戸幼稚園","architect":"増田友也","year":1975.0,"address":"徳島県鳴門市瀬戸町堂浦地廻り参220-1","latitude":34.2249870300293,"longitude":134.5880889892578,"category":"幼稚園","big_category":"教育","description":"休園","image_url":"","tags":"Ver3.40(2020年5月)の追加建築","prefecture":"徳島","contractor":"","structural_designer":"","landscape_designer":"","shinkenchiku_url":""},{"id":9598,"title":"北灘西幼稚園","architect":"増田友也","year":1974.0,"address":"徳島県鳴門市北灘町折野屋敷64","latitude":34.21370315551758,"longitude":134.48245239257812,"category":"幼稚園","big_category":"教育","description":"休園？","image_url":"","tags":"Ver3.40(2020年5月)の追加建築","prefecture":"徳島","contractor":"","structural_designer":"","landscape_designer":"","shinkenchiku_url":""},{"id":9599,"title":"鳴門中学校","architect":"増田友也","year":1972.0,"address":"徳島県鳴門市鳴門町三ツ石芙蓉山下251","latitude":34.20278549194336,"longitude":134.61038208007812,"category":"学校","big_category":"教育","description":"","image_url":"","tags":"Ver3.40(2020年5月)の追加建築","prefecture":"徳島","contractor":"","structural_designer":"","landscape_designer":"","shinkenchiku_url":""},{"id":9600,"title":"鳴門市職員共済会館","architect":"増田友也","year":1973.0,"address":"徳島県鳴門市撫養町南浜東浜170","latitude":34.17222595214844,"longitude":134.6094207763672,"category":"公共施設","big_category":"公共施設","description":"","image_url":"","tags":"Ver3.40(2020年5月)の追加建築","prefecture":"徳島","contractor":"","structural_designer":"","landscape_designer":"","shinkenchiku_url":""}]}