{"page":144,"total_pages":290,"items_per_page":50,"total_items":14467,"items":[{"id":7151,"title":"かんてんぱぱショップ小布施店","architect":"宮本忠長","year":2011.0,"address":"長野県高井郡小布施町小布施中町1117","latitude":36.69694900512695,"longitude":138.31617736816406,"category":"店舗","big_category":"商業施設","description":"","image_url":"","tags":"Ver2.30(2018年1月)の追加建築","prefecture":"長野","contractor":"","structural_designer":"","landscape_designer":"","shinkenchiku_url":""},{"id":7152,"title":"静岡市清水斎場","architect":"山下設計","year":2017.0,"address":"静岡県静岡市清水区北矢部1481","latitude":34.99279022216797,"longitude":138.4678192138672,"category":"斎場","big_category":"公共施設","description":"","image_url":"","tags":"Ver2.30(2018年1月)の追加建築","prefecture":"静岡","contractor":"","structural_designer":"","landscape_designer":"","shinkenchiku_url":""},{"id":7153,"title":"オムロン京都センタービル 啓真館","architect":"竹中工務店","year":2007.0,"address":"京都府京都市下京区下京区南不動堂町11","latitude":34.98688888549805,"longitude":135.75393676757812,"category":"オフィスビル","big_category":"企業施設","description":"","image_url":"","tags":"Ver2.30(2018年1月)の追加建築","prefecture":"京都","contractor":"","structural_designer":"","landscape_designer":"","shinkenchiku_url":""},{"id":7154,"title":"アルカス土浦","architect":"INA新建築研究所","year":2017.0,"address":"茨城県土浦市有明町 アルカス土浦","latitude":36.07887268066406,"longitude":140.2059326171875,"category":"テナントビル/図書館","big_category":"商業施設,文化施設","description":"","image_url":"","tags":"Ver2.30(2018年1月)の追加建築","prefecture":"茨城","contractor":"","structural_designer":"","landscape_designer":"","shinkenchiku_url":""},{"id":7155,"title":"苦楽園の家 堀江オルゴール博物館 旧堀江邸","architect":"大江宏","year":1976.0,"address":"兵庫県西宮市苦楽園四番町7-1","latitude":34.75678253173828,"longitude":135.30958557128906,"category":"住宅","big_category":"住宅","description":"春・秋の一般公開日のみ庭園から見学可能。要予約。","image_url":"","tags":"Ver2.30(2018年1月)の追加建築","prefecture":"兵庫","contractor":"","structural_designer":"","landscape_designer":"","shinkenchiku_url":""},{"id":7156,"title":"友安製作所 Cafe&Bar 阿倍野 旧村野・森建築事務所","architect":"村野藤吾","year":1966.0,"address":"大阪府大阪市阿倍野区阿倍野筋2-3-8","latitude":34.64313888549805,"longitude":135.51319885253906,"category":"カフェ","big_category":"商業施設","description":"旧村野・森建築事務所を友安製作所がリノベーション","image_url":"","tags":"Ver2.30(2018年1月)の追加建築","prefecture":"大阪","contractor":"","structural_designer":"","landscape_designer":"","shinkenchiku_url":""},{"id":7157,"title":"釜石市民ホール TETTO","architect":"ヨコミゾマコト","year":2017.0,"address":"岩手県釜石市大町1-1-9","latitude":39.272857666015625,"longitude":141.87973022460938,"category":"ホール・劇場","big_category":"文化施設","description":"","image_url":"","tags":"Ver2.30(2018年1月)の追加建築,新建築2018年3月号,2022年日本建築学会 作品選奨","prefecture":"岩手","contractor":"","structural_designer":"","landscape_designer":"","shinkenchiku_url":""},{"id":7158,"title":"紀北パーキングエリア・始神テラス","architect":"東畑建築事務所","year":2015.0,"address":"三重県北牟婁郡紀北町三浦600","latitude":34.16939926147461,"longitude":136.273681640625,"category":"PA・道の駅","big_category":"インフラ","description":"","image_url":"","tags":"Ver2.30(2018年1月)の追加建築","prefecture":"三重","contractor":"","structural_designer":"","landscape_designer":"","shinkenchiku_url":""},{"id":7159,"title":"東京芸術大学 国際藝術リソースセンター IRCA 書庫棟・接続棟","architect":"日建設計","year":2017.0,"address":"東京都台東区上野公園12-8","latitude":35.71852493286133,"longitude":139.77268981933594,"category":"大学","big_category":"教育","description":"図書館の改修。書庫棟・接続棟の設計を日建設計。既存図書館棟は山本・堀アーキテクツ、袴田喜夫、橋本久道、松本年史、吉松秀樹による改修。データベースの関係上、増築部分担当の日建設計のみを記載した","image_url":"","tags":"Ver2.30(2018年1月)の追加建築,新建築2018年12月号","prefecture":"東京","contractor":"","structural_designer":"","landscape_designer":"","shinkenchiku_url":""},{"id":7160,"title":"静岡県富士山世界遺産センター","architect":"坂茂","year":2017.0,"address":"静岡県富士宮市宮町5-12","latitude":35.223724365234375,"longitude":138.60882568359375,"category":"博物館","big_category":"ミュージアム","description":"","image_url":"","tags":"Ver2.30(2018年1月)の追加建築,新建築2018年1月号","prefecture":"静岡","contractor":"","structural_designer":"","landscape_designer":"","shinkenchiku_url":""},{"id":7161,"title":"JRゲートタワー","architect":"大成建設+日建設計+ジェイアール東海コンサルタンツ+KPF","year":2017.0,"address":"愛知県名古屋市中村区名駅1ｰ1ｰ3","latitude":35.172447204589844,"longitude":136.88253784179688,"category":"駅/複合施設/ホテル","big_category":"インフラ,商業施設,宿泊","description":"","image_url":"","tags":"Ver2.30(2018年1月)の追加建築,新建築2018年1月号","prefecture":"愛知","contractor":"","structural_designer":"","landscape_designer":"","shinkenchiku_url":""},{"id":7162,"title":"グローバルゲート","architect":"竹中工務店","year":2017.0,"address":"愛知県名古屋市中村区平池町4","latitude":35.16199493408203,"longitude":136.8829803466797,"category":"複合施設/オフィスビル/ホテル","big_category":"商業施設,企業施設,宿泊","description":"","image_url":"","tags":"Ver2.30(2018年1月)の追加建築,新建築2018年1月号","prefecture":"愛知","contractor":"","structural_designer":"","landscape_designer":"","shinkenchiku_url":""},{"id":7163,"title":"中之島フェスティバルタワー・ウエスト","architect":"日建設計","year":2017.0,"address":"大阪府大阪市北区中之島3-2-4","latitude":34.69337463378906,"longitude":135.49545288085938,"category":"複合施設/オフィスビル/ホテル","big_category":"商業施設,企業施設,宿泊","description":"","image_url":"","tags":"Ver2.30(2018年1月)の追加建築,新建築2018年1月号","prefecture":"大阪","contractor":"","structural_designer":"","landscape_designer":"","shinkenchiku_url":""},{"id":7164,"title":"伊達の郷りょうぜん","architect":"中山武徳","year":2018.0,"address":"福島県伊達市霊山町下小国字桜町3-1","latitude":37.76716995239258,"longitude":140.5881805419922,"category":"PA・道の駅","big_category":"インフラ","description":"2018年春オープン予定","image_url":"","tags":"Ver2.30(2018年1月)の追加建築","prefecture":"福島","contractor":"","structural_designer":"","landscape_designer":"","shinkenchiku_url":""},{"id":7165,"title":"smart center 京都, the garden","architect":"ノム建築設計室","year":2017.0,"address":"京都府京都市左京区岡崎南御所町20-1","latitude":35.013797760009766,"longitude":135.7848663330078,"category":"店舗/カフェ","big_category":"商業施設,商業施設","description":"","image_url":"","tags":"Ver2.30(2018年1月)の追加建築","prefecture":"京都","contractor":"","structural_designer":"","landscape_designer":"","shinkenchiku_url":""},{"id":7166,"title":"クサツココリバ","architect":"森下修","year":2017.0,"address":"滋賀県草津市大路1-19","latitude":35.01889419555664,"longitude":135.96026611328125,"category":"店舗/公園","big_category":"商業施設,レジャー施設","description":"","image_url":"","tags":"Ver2.30(2018年1月)の追加建築,新建築2018年3月号","prefecture":"滋賀","contractor":"","structural_designer":"","landscape_designer":"","shinkenchiku_url":""},{"id":7167,"title":"長崎県新庁舎","architect":"日建設計","year":2017.0,"address":"長崎県長崎市尾上町2","latitude":32.75000762939453,"longitude":129.8675537109375,"category":"庁舎","big_category":"公共施設","description":"","image_url":"","tags":"Ver2.30(2018年1月)の追加建築,新建築2018年5月号","prefecture":"長崎","contractor":"","structural_designer":"","landscape_designer":"","shinkenchiku_url":""},{"id":7168,"title":"臼杵市中央公民館・公会堂","architect":"日建設計","year":1979.0,"address":"大分県臼杵市大字臼杵浜2-107-562","latitude":33.1231575012207,"longitude":131.80743408203125,"category":"ホール・劇場/公民館・交流施設","big_category":"文化施設,公共施設","description":"","image_url":"","tags":"Ver2.30(2018年1月)の追加建築","prefecture":"大分","contractor":"","structural_designer":"","landscape_designer":"","shinkenchiku_url":""},{"id":7169,"title":"西日本カントリークラブ クラブハウス","architect":"増田友也","year":1975.0,"address":"福岡県直方市中泉1356-2","latitude":33.7088623046875,"longitude":130.7457733154297,"category":"クラブハウス","big_category":"レジャー施設","description":"","image_url":"","tags":"Ver2.30(2018年1月)の追加建築","prefecture":"福岡","contractor":"","structural_designer":"","landscape_designer":"","shinkenchiku_url":""},{"id":7170,"title":"TODA Berry Farm 旧北灘西小学校","architect":"増田友也","year":1977.0,"address":"徳島県鳴門市北灘町折野屋敷64-3","latitude":34.21403121948242,"longitude":134.48275756835938,"category":"学校/観光施設","big_category":"教育,レジャー施設","description":"閉校も2021年1月23日にいちご観光農園としてグラウンド部分を利用してオープン予定","image_url":"","tags":"Ver2.30(2018年1月)の追加建築","prefecture":"徳島","contractor":"","structural_designer":"","landscape_designer":"","shinkenchiku_url":""},{"id":7171,"title":"北灘東小学校・幼稚園","architect":"増田友也","year":1972.0,"address":"徳島県鳴門市北灘町粟田西傍示228-1","latitude":34.22435760498047,"longitude":134.54078674316406,"category":"学校/幼稚園","big_category":"教育,教育","description":"閉校。幼稚園は1973年竣工","image_url":"","tags":"Ver2.30(2018年1月)の追加建築","prefecture":"徳島","contractor":"","structural_designer":"","landscape_designer":"","shinkenchiku_url":""},{"id":7172,"title":"おかやまガーデン","architect":"浦辺鎮太郎","year":1969.0,"address":"岡山県岡山市東区寺山147","latitude":34.708221435546875,"longitude":134.07916259765625,"category":"レストラン","big_category":"商業施設","description":"","image_url":"","tags":"Ver2.30(2018年1月)の追加建築","prefecture":"岡山","contractor":"","structural_designer":"","landscape_designer":"","shinkenchiku_url":""},{"id":7173,"title":"ツインアーチ138","architect":"伊藤建築設計事務所","year":1995.0,"address":"愛知県一宮市光明寺浦崎21-3","latitude":35.357669830322266,"longitude":136.80906677246094,"category":"展望台","big_category":"レジャー施設","description":"","image_url":"","tags":"Ver2.30(2018年1月)の追加建築,2021年JIA25年賞 登録作品","prefecture":"愛知","contractor":"","structural_designer":"","landscape_designer":"","shinkenchiku_url":""},{"id":7174,"title":"細井ビル","architect":"設計事務所洋洋社","year":1970.0,"address":"京都府京都市北区紫竹東桃ノ本町8","latitude":35.047733306884766,"longitude":135.75137329101562,"category":"オフィスビル","big_category":"企業施設","description":"","image_url":"","tags":"Ver2.30(2018年1月)の追加建築","prefecture":"京都","contractor":"","structural_designer":"","landscape_designer":"","shinkenchiku_url":""},{"id":7175,"title":"あぶくま更生園","architect":"シーラカンスアンドアソシエイツ","year":2015.0,"address":"福島県田村市船引町船引字四斗蒔田69-1","latitude":37.45102310180664,"longitude":140.59017944335938,"category":"養護施設","big_category":"医療施設","description":"","image_url":"","tags":"Ver2.30(2018年1月)の追加建築,2018年日本建築学会 作品選奨","prefecture":"福島","contractor":"","structural_designer":"","landscape_designer":"","shinkenchiku_url":""},{"id":7176,"title":"市が洞学童保育所","architect":"シーラカンスアンドアソシエイツ","year":2015.0,"address":"愛知県長久手市卯塚1-101","latitude":35.1673469543457,"longitude":137.0272216796875,"category":"幼稚園","big_category":"教育","description":"","image_url":"","tags":"Ver2.30(2018年1月)の追加建築","prefecture":"愛知","contractor":"","structural_designer":"","landscape_designer":"","shinkenchiku_url":""},{"id":7177,"title":"高花平デンタルクリニック","architect":"シーラカンスアンドアソシエイツ","year":2015.0,"address":"三重県四日市市高花平3-1-3","latitude":34.9543571472168,"longitude":136.55184936523438,"category":"個人医院","big_category":"医療施設","description":"","image_url":"","tags":"Ver2.30(2018年1月)の追加建築","prefecture":"三重","contractor":"","structural_designer":"","landscape_designer":"","shinkenchiku_url":""},{"id":7178,"title":"HASE-BLDG.1","architect":"シーラカンスアンドアソシエイツ","year":2016.0,"address":"愛知県名古屋市中区大須3-5-13","latitude":35.16180419921875,"longitude":136.9052734375,"category":"オフィスビル","big_category":"企業施設","description":"","image_url":"","tags":"Ver2.30(2018年1月)の追加建築","prefecture":"愛知","contractor":"","structural_designer":"","landscape_designer":"","shinkenchiku_url":""},{"id":7179,"title":"真言宗光林寺 位牌堂","architect":"奥野崇","year":2017.0,"address":"愛媛県今治市玉川町畑寺甲530","latitude":34.006500244140625,"longitude":132.94985961914062,"category":"寺院","big_category":"宗教","description":"","image_url":"","tags":"Ver2.30(2018年1月)の追加建築","prefecture":"愛媛","contractor":"","structural_designer":"","landscape_designer":"","shinkenchiku_url":""},{"id":7180,"title":"持宝院 礼拝堂・墓地","architect":"浅利幸男","year":2017.0,"address":"埼玉県川口市安行805","latitude":35.851776123046875,"longitude":139.753662109375,"category":"寺院/霊園","big_category":"宗教,宗教","description":"","image_url":"","tags":"Ver2.30(2018年1月)の追加建築","prefecture":"埼玉","contractor":"","structural_designer":"","landscape_designer":"","shinkenchiku_url":""},{"id":7181,"title":"那珂川町役場","architect":"AIS総合設計","year":2017.0,"address":"栃木県那須郡那珂川町馬頭555","latitude":36.735958099365234,"longitude":140.17193603515625,"category":"庁舎","big_category":"公共施設","description":"","image_url":"","tags":"Ver2.30(2018年1月)の追加建築","prefecture":"栃木","contractor":"","structural_designer":"","landscape_designer":"","shinkenchiku_url":""},{"id":7182,"title":"日光市文化創造館 日光市歴史民俗資料館・二宮尊徳記念館","architect":"AIS総合設計","year":2017.0,"address":"栃木県日光市今市304-3","latitude":36.72508239746094,"longitude":139.6809539794922,"category":"博物館/公民館・交流施設","big_category":"ミュージアム,公共施設","description":"","image_url":"","tags":"Ver2.30(2018年1月)の追加建築","prefecture":"栃木","contractor":"","structural_designer":"","landscape_designer":"","shinkenchiku_url":""},{"id":7183,"title":"下野市薬師寺コミュニティセンター","architect":"AIS総合設計","year":2016.0,"address":"栃木県下野市薬師寺1387-25","latitude":36.39544677734375,"longitude":139.87405395507812,"category":"公民館・交流施設","big_category":"公共施設","description":"","image_url":"","tags":"Ver2.30(2018年1月)の追加建築","prefecture":"栃木","contractor":"","structural_designer":"","landscape_designer":"","shinkenchiku_url":""},{"id":7184,"title":"木曽町文化交流センター","architect":"第一設計","year":2017.0,"address":"長野県木曽郡木曽町福島5129","latitude":35.84967041015625,"longitude":137.69839477539062,"category":"公民館・交流施設/図書館","big_category":"公共施設,文化施設","description":"","image_url":"","tags":"Ver2.30(2018年1月)の追加建築","prefecture":"長野","contractor":"","structural_designer":"","landscape_designer":"","shinkenchiku_url":""},{"id":7185,"title":"千葉県香取合同庁舎","architect":"アール・アイ・エー","year":2017.0,"address":"千葉県香取市佐原イ","latitude":35.894508361816406,"longitude":140.49490356445312,"category":"庁舎","big_category":"公共施設","description":"","image_url":"","tags":"Ver2.30(2018年1月)の追加建築","prefecture":"千葉","contractor":"","structural_designer":"","landscape_designer":"","shinkenchiku_url":""},{"id":7186,"title":"市民交流施設高田公園オーレンプラザ","architect":"石本建築事務所","year":2017.0,"address":"新潟県上越市本城町8-1","latitude":37.10723876953125,"longitude":138.25341796875,"category":"ホール・劇場/公民館・交流施設/児童施設","big_category":"文化施設,公共施設,教育","description":"","image_url":"","tags":"Ver2.30(2018年1月)の追加建築","prefecture":"新潟","contractor":"","structural_designer":"","landscape_designer":"","shinkenchiku_url":""},{"id":7187,"title":"能作 新社屋・新工場","architect":"アーキヴィジョン広谷スタジオ","year":2017.0,"address":"富山県高岡市オフィスパーク8-1","latitude":36.66814422607422,"longitude":136.99732971191406,"category":"低層オフィス/工場/店舗","big_category":"企業施設,企業施設,商業施設","description":"店舗や観光施設なども見学可能。","image_url":"","tags":"Ver2.30(2018年1月)の追加建築,新建築2020年1月号,第31回AACA 美術工芸賞","prefecture":"富山","contractor":"","structural_designer":"","landscape_designer":"","shinkenchiku_url":""},{"id":7188,"title":"観音寺市民会館 ハイスタッフホール","architect":"日建設計","year":2016.0,"address":"香川県観音寺市観音寺町甲1186-2","latitude":34.12641525268555,"longitude":133.65359497070312,"category":"ホール・劇場","big_category":"文化施設","description":"","image_url":"","tags":"Ver2.30(2018年1月)の追加建築","prefecture":"香川","contractor":"","structural_designer":"","landscape_designer":"","shinkenchiku_url":""},{"id":7189,"title":"秩父市役所本庁舎・秩父宮記念市民会館","architect":"佐藤総合計画+丸岡設計","year":2017.0,"address":"埼玉県秩父市熊木町8-18","latitude":35.991676330566406,"longitude":139.08563232421875,"category":"庁舎/ホール・劇場","big_category":"公共施設,文化施設","description":"","image_url":"","tags":"Ver2.30(2018年1月)の追加建築","prefecture":"埼玉","contractor":"","structural_designer":"","landscape_designer":"","shinkenchiku_url":""},{"id":7190,"title":"北茨城市立図書館","architect":"岡田新一設計事務所+柴建築設計","year":2016.0,"address":"茨城県北茨城市磯原町本町2-5-16","latitude":36.788307189941406,"longitude":140.74661254882812,"category":"図書館","big_category":"文化施設","description":"","image_url":"","tags":"Ver2.30(2018年1月)の追加建築","prefecture":"茨城","contractor":"","structural_designer":"","landscape_designer":"","shinkenchiku_url":""},{"id":7191,"title":"大崎市図書館 来楽里ホール","architect":"佐藤総合計画","year":2017.0,"address":"宮城県大崎市古川駅前大通4-2-1","latitude":38.57490921020508,"longitude":140.96572875976562,"category":"図書館","big_category":"文化施設","description":"","image_url":"","tags":"Ver2.30(2018年1月)の追加建築","prefecture":"宮城","contractor":"","structural_designer":"","landscape_designer":"","shinkenchiku_url":""},{"id":7192,"title":"基山町立図書館","architect":"佐藤総合計画","year":2016.0,"address":"佐賀県三養基郡基山町宮浦60-1","latitude":33.4198112487793,"longitude":130.5269012451172,"category":"図書館","big_category":"文化施設","description":"","image_url":"","tags":"Ver2.30(2018年1月)の追加建築","prefecture":"佐賀","contractor":"","structural_designer":"","landscape_designer":"","shinkenchiku_url":""},{"id":7193,"title":"高梁市立図書館","architect":"ジェイアール西日本コンサルタンツ","year":2016.0,"address":"岡山県高梁市旭町1306","latitude":34.78908920288086,"longitude":133.61647033691406,"category":"図書館","big_category":"文化施設","description":"CCCの運営する図書館","image_url":"","tags":"Ver2.30(2018年1月)の追加建築","prefecture":"岡山","contractor":"","structural_designer":"","landscape_designer":"","shinkenchiku_url":""},{"id":7194,"title":"蓮田市総合文化会館 ハストピア","architect":"佐藤総合計画","year":2016.0,"address":"埼玉県蓮田市閏戸2343-2","latitude":36.01016616821289,"longitude":139.64808654785156,"category":"ホール・劇場","big_category":"文化施設","description":"","image_url":"","tags":"Ver2.30(2018年1月)の追加建築","prefecture":"埼玉","contractor":"","structural_designer":"","landscape_designer":"","shinkenchiku_url":""},{"id":7195,"title":"神戸ポートオアシス","architect":"安井建築設計","year":2017.0,"address":"兵庫県神戸市中央区新港町5-2","latitude":34.68378448486328,"longitude":135.19888305664062,"category":"ホール・劇場/レストラン","big_category":"文化施設,商業施設","description":"","image_url":"","tags":"Ver2.30(2018年1月)の追加建築","prefecture":"兵庫","contractor":"","structural_designer":"","landscape_designer":"","shinkenchiku_url":""},{"id":7196,"title":"ビッグルーフ滝沢","architect":"三菱地所","year":2016.0,"address":"岩手県滝沢市下鵜飼1-15","latitude":39.73357009887695,"longitude":141.0784454345703,"category":"ホール・劇場/総合文化施設","big_category":"文化施設,文化施設","description":"","image_url":"","tags":"Ver2.30(2018年1月)の追加建築","prefecture":"岩手","contractor":"","structural_designer":"","landscape_designer":"","shinkenchiku_url":""},{"id":7197,"title":"大和市文化創造拠点シリウス","architect":"佐藤総合計画+清水建設","year":2016.0,"address":"神奈川県大和市大和南1-8-1","latitude":35.469482421875,"longitude":139.46563720703125,"category":"ホール・劇場/総合文化施設/図書館","big_category":"文化施設,文化施設,文化施設","description":"","image_url":"","tags":"Ver2.30(2018年1月)の追加建築","prefecture":"神奈川","contractor":"","structural_designer":"","landscape_designer":"","shinkenchiku_url":""},{"id":7198,"title":"御園座","architect":"隈研吾+鹿島建設","year":2018.0,"address":"愛知県名古屋市中区栄1-10-5","latitude":35.16721725463867,"longitude":136.8970489501953,"category":"ホール・劇場/集合住宅/テナントビル","big_category":"文化施設,住宅,商業施設","description":"2018年4月オープン予定。1896年が初代で今回が5代目。","image_url":"","tags":"Ver2.30(2018年1月)の追加建築","prefecture":"愛知","contractor":"鹿島建設","structural_designer":"","landscape_designer":"","shinkenchiku_url":""},{"id":7199,"title":"藤沢市新庁舎","architect":"梓設計","year":2017.0,"address":"神奈川県藤沢市朝日町1-1","latitude":35.33888626098633,"longitude":139.49122619628906,"category":"庁舎","big_category":"公共施設","description":"","image_url":"","tags":"Ver2.30(2018年1月)の追加建築","prefecture":"神奈川","contractor":"","structural_designer":"","landscape_designer":"","shinkenchiku_url":""},{"id":7200,"title":"新座市新庁舎","architect":"石本建築事務所","year":2017.0,"address":"埼玉県新座市野火止1-1-1","latitude":35.79325485229492,"longitude":139.56570434570312,"category":"庁舎","big_category":"公共施設","description":"","image_url":"","tags":"Ver2.30(2018年1月)の追加建築","prefecture":"埼玉","contractor":"","structural_designer":"","landscape_designer":"","shinkenchiku_url":""}]}