{"page":63,"total_pages":290,"items_per_page":50,"total_items":14467,"items":[{"id":3101,"title":"かごしま県民交流センター","architect":"日建設計","year":2003.0,"address":"鹿児島県鹿児島市山下町14-50","latitude":31.59956932067871,"longitude":130.55780029296875,"category":"ホール・劇場","big_category":"文化施設","description":"","image_url":"","tags":"","prefecture":"鹿児島","contractor":"","structural_designer":"","landscape_designer":"","shinkenchiku_url":""},{"id":3102,"title":"鹿児島市立美術館","architect":"佐藤総合計画","year":1985.0,"address":"鹿児島県鹿児島市城山町4-36","latitude":31.595836639404297,"longitude":130.55340576171875,"category":"美術館","big_category":"ミュージアム","description":"","image_url":"","tags":"","prefecture":"鹿児島","contractor":"","structural_designer":"","landscape_designer":"","shinkenchiku_url":""},{"id":3103,"title":"鹿児島大学 稲盛会館","architect":"安藤忠雄","year":1994.0,"address":"鹿児島県鹿児島市郡元1-21-24","latitude":31.569198608398438,"longitude":130.5420684814453,"category":"大学/ホール・劇場","big_category":"教育,文化施設","description":"","image_url":"","tags":"2021年JIA25年賞 登録作品","prefecture":"鹿児島","contractor":"","structural_designer":"","landscape_designer":"","shinkenchiku_url":""},{"id":3104,"title":"鹿児島カテドラル ザビエル記念聖堂","architect":"坂倉建築研究所","year":1999.0,"address":"鹿児島県鹿児島市照国町13-42","latitude":31.591787338256836,"longitude":130.5509033203125,"category":"教会","big_category":"宗教","description":"","image_url":"","tags":"","prefecture":"鹿児島","contractor":"","structural_designer":"","landscape_designer":"","shinkenchiku_url":""},{"id":3105,"title":"仙巌園","architect":"不明","year":null,"address":"鹿児島県鹿児島市吉野町9700-1","latitude":31.61823844909668,"longitude":130.5789031982422,"category":"庭園","big_category":"文化施設","description":"","image_url":"","tags":"","prefecture":"鹿児島","contractor":"","structural_designer":"","landscape_designer":"","shinkenchiku_url":""},{"id":3106,"title":"異人館 旧鹿児島紡績所技師館","architect":"不明","year":1867.0,"address":"鹿児島県鹿児島市吉野町9685-15","latitude":31.61569595336914,"longitude":130.57418823242188,"category":"洋館/博物館","big_category":"近代建築/遺産,ミュージアム","description":"","image_url":"","tags":"","prefecture":"鹿児島","contractor":"","structural_designer":"","landscape_designer":"","shinkenchiku_url":""},{"id":3107,"title":"鹿児島県上野原縄文の森・鹿児島県立埋蔵文化財センター","architect":"佐藤総合計画","year":2001.0,"address":"鹿児島県霧島市国分上野原縄文の森2-1","latitude":31.710731506347656,"longitude":130.80169677734375,"category":"美術館","big_category":"ミュージアム","description":"","image_url":"","tags":"","prefecture":"鹿児島","contractor":"","structural_designer":"","landscape_designer":"","shinkenchiku_url":""},{"id":3108,"title":"ホテル京セラ","architect":"黒川紀章","year":1995.0,"address":"鹿児島県霧島市隼人町見次1409-1","latitude":31.74420738220215,"longitude":130.74684143066406,"category":"ホテル","big_category":"宿泊","description":"","image_url":"","tags":"","prefecture":"鹿児島","contractor":"","structural_designer":"","landscape_designer":"","shinkenchiku_url":""},{"id":3109,"title":"坂元醸造くろず情報館「壺畑」","architect":"アーキテクトファイブ","year":2006.0,"address":"鹿児島県霧島市福山町福山3075","latitude":31.679941177368164,"longitude":130.8192901611328,"category":"企業施設/店舗","big_category":"企業施設,商業施設","description":"","image_url":"","tags":"","prefecture":"鹿児島","contractor":"","structural_designer":"","landscape_designer":"","shinkenchiku_url":""},{"id":3110,"title":"霧島国際音楽ホール","architect":"槇文彦","year":1994.0,"address":"鹿児島県霧島市牧園町高千穂3311-29","latitude":31.880050659179688,"longitude":130.80557250976562,"category":"ホール・劇場","big_category":"文化施設","description":"","image_url":"","tags":"公共建築百選,2022年JIA25年賞 受賞作品","prefecture":"鹿児島","contractor":"","structural_designer":"","landscape_designer":"","shinkenchiku_url":""},{"id":3111,"title":"霧島アートホール","architect":"早川邦彦","year":1999.0,"address":"鹿児島県姶良郡湧水町木場6340-220","latitude":31.939706802368164,"longitude":130.77870178222656,"category":"美術館","big_category":"ミュージアム","description":"","image_url":"","tags":"","prefecture":"鹿児島","contractor":"","structural_designer":"","landscape_designer":"","shinkenchiku_url":""},{"id":3112,"title":"霧島アートの森 ","architect":"不明","year":1999.0,"address":"鹿児島県姶良郡湧水町木場6340-220","latitude":31.940309524536133,"longitude":130.7777099609375,"category":"芸術祭・芸術村","big_category":"ミュージアム","description":"","image_url":"","tags":"","prefecture":"鹿児島","contractor":"","structural_designer":"","landscape_designer":"","shinkenchiku_url":""},{"id":3113,"title":"うるま市旧庁舎 旧具志川市庁舎","architect":"国建","year":1987.0,"address":"沖縄県うるま市みどり町1-1-1 ‎","latitude":26.379150390625,"longitude":127.85748291015625,"category":"庁舎","big_category":"公共施設","description":"","image_url":"","tags":"","prefecture":"沖縄","contractor":"","structural_designer":"","landscape_designer":"","shinkenchiku_url":""},{"id":3114,"title":"勝連城跡","architect":"不明","year":null,"address":"沖縄県うるま市勝連南風原3908","latitude":26.330947875976562,"longitude":127.88118743896484,"category":"城郭","big_category":"近代建築/遺産","description":"","image_url":"","tags":"","prefecture":"沖縄","contractor":"","structural_designer":"","landscape_designer":"","shinkenchiku_url":""},{"id":3115,"title":"浦添市民体育館","architect":"高橋靗一+エー・アール・ジー","year":1987.0,"address":"沖縄県浦添市仲間1-13-1","latitude":26.251237869262695,"longitude":127.7234115600586,"category":"体育館","big_category":"レジャー施設","description":"","image_url":"","tags":"","prefecture":"沖縄","contractor":"","structural_designer":"","landscape_designer":"","shinkenchiku_url":""},{"id":3116,"title":"浦添市運動公園スタンド","architect":"洲鎌朝夫","year":1987.0,"address":"沖縄県浦添市仲間1-13","latitude":26.250898361206055,"longitude":127.72261047363281,"category":"スタジアム","big_category":"レジャー施設","description":"","image_url":"","tags":"","prefecture":"沖縄","contractor":"","structural_designer":"","landscape_designer":"","shinkenchiku_url":""},{"id":3117,"title":"浦添市産業振興センター 結の街","architect":"高松伸","year":2004.0,"address":"沖縄県浦添市勢理客4-13-1","latitude":26.246030807495117,"longitude":127.68983459472656,"category":"博物館/オフィスビル/公共施設","big_category":"ミュージアム,企業施設,公共施設","description":"","image_url":"","tags":"","prefecture":"沖縄","contractor":"","structural_designer":"","landscape_designer":"","shinkenchiku_url":""},{"id":3118,"title":"国立劇場おきなわ","architect":"高松伸","year":2003.0,"address":"沖縄県浦添市勢理客4-14-1","latitude":26.24641990661621,"longitude":127.68865203857422,"category":"ホール・劇場","big_category":"文化施設","description":"","image_url":"","tags":"","prefecture":"沖縄","contractor":"","structural_designer":"","landscape_designer":"","shinkenchiku_url":""},{"id":3119,"title":"浦添市美術館","architect":"内井昭蔵","year":1989.0,"address":"沖縄県浦添市仲間1-9-2","latitude":26.249927520751953,"longitude":127.71949768066406,"category":"美術館","big_category":"ミュージアム","description":"","image_url":"","tags":"","prefecture":"沖縄","contractor":"","structural_designer":"","landscape_designer":"","shinkenchiku_url":""},{"id":3120,"title":"浦添市立図書館","architect":"内井昭蔵+東設計工房","year":1985.0,"address":"沖縄県浦添市安波茶2-2-1","latitude":26.247840881347656,"longitude":127.72138977050781,"category":"図書館","big_category":"文化施設","description":"","image_url":"","tags":"2019年JIA25年賞 受賞作品","prefecture":"沖縄","contractor":"","structural_designer":"","landscape_designer":"","shinkenchiku_url":""},{"id":3121,"title":"沖縄イエス之御霊教会","architect":"福村俊治","year":1999.0,"address":"沖縄県沖縄市越来1-3-25","latitude":26.34076499938965,"longitude":127.81169891357422,"category":"教会","big_category":"宗教","description":"","image_url":"","tags":"","prefecture":"沖縄","contractor":"","structural_designer":"","landscape_designer":"","shinkenchiku_url":""},{"id":3122,"title":"恩納村なかどまイン","architect":"丸山欣也","year":2006.0,"address":"沖縄県国頭郡恩納村前兼久258","latitude":26.44573211669922,"longitude":127.80445098876953,"category":"ホテル","big_category":"宿泊","description":"","image_url":"","tags":"","prefecture":"沖縄","contractor":"","structural_designer":"","landscape_designer":"","shinkenchiku_url":""},{"id":3123,"title":"沖縄コンベンションセンター","architect":"大谷幸夫","year":1987.0,"address":"沖縄県宜野湾市真志喜4-3-1","latitude":26.280223846435547,"longitude":127.73294067382812,"category":"展示・会議場","big_category":"公共施設","description":"大展示棟・会議棟1987年、劇場棟1990年、会議棟増築2000年それぞれ竣工","image_url":"","tags":"公共建築百選,1998年公共建築賞・特別賞","prefecture":"沖縄","contractor":"","structural_designer":"","landscape_designer":"","shinkenchiku_url":""},{"id":3124,"title":"佐喜眞美術館","architect":"真喜志好一","year":1994.0,"address":"沖縄県宜野湾市上原（字）-358","latitude":26.278026580810547,"longitude":127.7748794555664,"category":"美術館","big_category":"ミュージアム","description":"","image_url":"","tags":"","prefecture":"沖縄","contractor":"","structural_designer":"","landscape_designer":"","shinkenchiku_url":""},{"id":3125,"title":"宮古島市総合博物館 旧平良市総合博物館","architect":"洲鎌朝夫","year":1989.0,"address":"沖縄県宮古島市平良東仲宗根添1166-287","latitude":24.79657745361328,"longitude":125.3176498413086,"category":"博物館","big_category":"ミュージアム","description":"","image_url":"","tags":"","prefecture":"沖縄","contractor":"","structural_designer":"","landscape_designer":"","shinkenchiku_url":""},{"id":3126,"title":"今帰仁城跡","architect":"不明","year":null,"address":"沖縄県国頭郡今帰仁村今泊5101","latitude":26.692554473876953,"longitude":127.92806243896484,"category":"城郭","big_category":"近代建築/遺産","description":"","image_url":"","tags":"","prefecture":"沖縄","contractor":"","structural_designer":"","landscape_designer":"","shinkenchiku_url":""},{"id":3127,"title":"今帰仁村中央公民館","architect":"象設計集団+丸山欣也","year":1975.0,"address":"沖縄県国頭郡今帰仁村仲宗根232","latitude":26.681520462036133,"longitude":127.97228240966797,"category":"公民館・交流施設","big_category":"公共施設","description":"","image_url":"","tags":"DOCOMOMO","prefecture":"沖縄","contractor":"","structural_designer":"","landscape_designer":"","shinkenchiku_url":""},{"id":3128,"title":"沖縄県平和祈念資料館","architect":"福村俊治","year":1999.0,"address":"沖縄県糸満市摩文仁614-1","latitude":26.09651756286621,"longitude":127.7254638671875,"category":"博物館","big_category":"ミュージアム","description":"","image_url":"","tags":"","prefecture":"沖縄","contractor":"","structural_designer":"","landscape_designer":"","shinkenchiku_url":""},{"id":3129,"title":"沖縄キリスト教短期大学","architect":"真喜志好一","year":1989.0,"address":"沖縄県中頭郡西原町翁長777","latitude":26.238248825073242,"longitude":127.7555923461914,"category":"大学","big_category":"教育","description":"","image_url":"","tags":"1991年日本建築学会 作品賞","prefecture":"沖縄","contractor":"","structural_designer":"","landscape_designer":"","shinkenchiku_url":""},{"id":3130,"title":"琉球大学資料館 風樹館","architect":"金城信吉","year":1985.0,"address":"沖縄県中頭郡西原町字千原1","latitude":26.247589111328125,"longitude":127.76528930664062,"category":"博物館","big_category":"ミュージアム","description":"","image_url":"","tags":"","prefecture":"沖縄","contractor":"","structural_designer":"","landscape_designer":"","shinkenchiku_url":""},{"id":3131,"title":"石垣市民会館","architect":"前川國男","year":1986.0,"address":"沖縄県石垣市浜崎町1-1-2","latitude":24.340038299560547,"longitude":124.15257263183594,"category":"ホール・劇場","big_category":"文化施設","description":"","image_url":"","tags":"","prefecture":"沖縄","contractor":"","structural_designer":"","landscape_designer":"","shinkenchiku_url":""},{"id":3132,"title":"座喜味城跡","architect":"不明","year":null,"address":"沖縄県中頭郡読谷村座喜味708-6","latitude":26.408557891845703,"longitude":127.74162292480469,"category":"城郭","big_category":"近代建築/遺産","description":"","image_url":"","tags":"","prefecture":"沖縄","contractor":"","structural_designer":"","landscape_designer":"","shinkenchiku_url":""},{"id":3133,"title":"読谷山焼窯","architect":"洲鎌朝夫","year":1980.0,"address":"沖縄県中頭郡読谷村座喜味 読谷山窯","latitude":26.408071517944336,"longitude":127.75409698486328,"category":"その他文化施設","big_category":"文化施設","description":"","image_url":"","tags":"2011年JIA25年賞","prefecture":"沖縄","contractor":"","structural_designer":"","landscape_designer":"","shinkenchiku_url":""},{"id":3134,"title":"那覇市小禄南公民館","architect":"設計同人GAN","year":1982.0,"address":"沖縄県那覇市高良2-7-1","latitude":26.18511199951172,"longitude":127.66271209716797,"category":"公民館・交流施設","big_category":"公共施設","description":"","image_url":"","tags":"","prefecture":"沖縄","contractor":"","structural_designer":"","landscape_designer":"","shinkenchiku_url":""},{"id":3135,"title":"沖縄県総合福祉センター","architect":"福村俊治","year":2003.0,"address":"沖縄県那覇市首里石嶺町4-373-1","latitude":26.23073387145996,"longitude":127.73360443115234,"category":"福祉センター","big_category":"医療施設","description":"","image_url":"","tags":"","prefecture":"沖縄","contractor":"","structural_designer":"","landscape_designer":"","shinkenchiku_url":""},{"id":3136,"title":"那覇市立城西小学校","architect":"原広司","year":1987.0,"address":"沖縄県那覇市首里真和志町1-5","latitude":26.218624114990234,"longitude":127.71634674072266,"category":"学校","big_category":"教育","description":"","image_url":"","tags":"","prefecture":"沖縄","contractor":"","structural_designer":"","landscape_designer":"","shinkenchiku_url":""},{"id":3137,"title":"R3 Ukishima","architect":"クライン・ダイサム・アーキテクツ","year":2007.0,"address":"沖縄県那覇市松尾2-1-13","latitude":26.214889526367188,"longitude":127.68485260009766,"category":"店舗","big_category":"商業施設","description":"","image_url":"","tags":"","prefecture":"沖縄","contractor":"","structural_designer":"","landscape_designer":"","shinkenchiku_url":""},{"id":3138,"title":"那覇市民会館","architect":"金城俊光+金城信吉","year":1970.0,"address":"沖縄県那覇市寄宮1-2-1","latitude":26.207683563232422,"longitude":127.6936264038086,"category":"ホール・劇場","big_category":"文化施設","description":"取壊済み","image_url":"","tags":"DOCOMOMO","prefecture":"沖縄","contractor":"","structural_designer":"","landscape_designer":"","shinkenchiku_url":""},{"id":3139,"title":"沖縄大学","architect":"真喜志好一","year":null,"address":"沖縄県那覇市国場555","latitude":26.20061492919922,"longitude":127.69966125488281,"category":"大学","big_category":"教育","description":"","image_url":"","tags":"","prefecture":"沖縄","contractor":"","structural_designer":"","landscape_designer":"","shinkenchiku_url":""},{"id":3140,"title":"フェスティバル 那覇OPA","architect":"安藤忠雄","year":1984.0,"address":"沖縄県那覇市松尾2-8-19","latitude":26.2158203125,"longitude":127.68782043457031,"category":"モール","big_category":"商業施設","description":"2013年に閉鎖","image_url":"","tags":"","prefecture":"沖縄","contractor":"","structural_designer":"","landscape_designer":"","shinkenchiku_url":""},{"id":3141,"title":"識名児童館","architect":"真喜志好一","year":1985.0,"address":"沖縄県那覇市識名2-5-5","latitude":26.207494735717773,"longitude":127.70992279052734,"category":"児童施設","big_category":"教育","description":"","image_url":"","tags":"","prefecture":"沖縄","contractor":"","structural_designer":"","landscape_designer":"","shinkenchiku_url":""},{"id":3142,"title":"沖縄県立博物館・美術館","architect":"石本建築事務所+二基設計","year":2007.0,"address":"沖縄県那覇市おもろまち3-1-1","latitude":26.227313995361328,"longitude":127.69384765625,"category":"美術館/博物館","big_category":"ミュージアム,ミュージアム","description":"日本建築家協会賞受賞者名：能勢修治、播繁","image_url":"","tags":"2008年度日本建築家協会賞,2009年日本建築学会 作品選奨","prefecture":"沖縄","contractor":"","structural_designer":"","landscape_designer":"","shinkenchiku_url":""},{"id":3143,"title":"識名園","architect":"不明","year":null,"address":"沖縄県那覇市真地421-7","latitude":26.2049503326416,"longitude":127.7148208618164,"category":"庭園","big_category":"文化施設","description":"","image_url":"","tags":"","prefecture":"沖縄","contractor":"","structural_designer":"","landscape_designer":"","shinkenchiku_url":""},{"id":3144,"title":"首里城","architect":"不明","year":1350.0,"address":"沖縄県那覇市首里金城町1-2","latitude":26.218379974365234,"longitude":127.71531677246094,"category":"城郭","big_category":"近代建築/遺産","description":"1992年復元","image_url":"","tags":"","prefecture":"沖縄","contractor":"","structural_designer":"","landscape_designer":"","shinkenchiku_url":""},{"id":3145,"title":"那覇市立壺屋焼物博物館","architect":"真喜志好一","year":1997.0,"address":"沖縄県那覇市壺屋1-9-32","latitude":26.213890075683594,"longitude":127.69088745117188,"category":"博物館","big_category":"ミュージアム","description":"","image_url":"","tags":"","prefecture":"沖縄","contractor":"","structural_designer":"","landscape_designer":"","shinkenchiku_url":""},{"id":3146,"title":"藤沢秀行記念館 蒼soucafe","architect":"ジョン・ポーソン","year":2012.0,"address":"沖縄県南城市知念字久手堅304-1","latitude":26.169971466064453,"longitude":127.82162475585938,"category":"カフェ/博物館","big_category":"商業施設,ミュージアム","description":"","image_url":"","tags":"","prefecture":"沖縄","contractor":"","structural_designer":"","landscape_designer":"","shinkenchiku_url":""},{"id":3147,"title":"南城市文化センター シュガーホール","architect":"真喜志好一","year":1994.0,"address":"沖縄県南城市佐敷佐敷307","latitude":26.170095443725586,"longitude":127.78744506835938,"category":"ホール・劇場","big_category":"文化施設","description":"","image_url":"","tags":"1996年日本建築学会 作品選奨","prefecture":"沖縄","contractor":"","structural_designer":"","landscape_designer":"","shinkenchiku_url":""},{"id":3148,"title":"南大東島ビジターセンター","architect":"アーキテクトファイブ","year":2001.0,"address":"沖縄県島尻郡南大東村南144-1","latitude":25.828617095947266,"longitude":131.23263549804688,"category":"観光施設","big_category":"レジャー施設","description":"","image_url":"","tags":"","prefecture":"沖縄","contractor":"","structural_designer":"","landscape_designer":"","shinkenchiku_url":""},{"id":3149,"title":"沖縄小児保健センター","architect":"船木幸子+細矢仁","year":2008.0,"address":"沖縄県島尻郡南風原町新川218-11","latitude":26.20578956604004,"longitude":127.72596740722656,"category":"福祉センター","big_category":"医療施設","description":"","image_url":"","tags":"","prefecture":"沖縄","contractor":"","structural_designer":"","landscape_designer":"","shinkenchiku_url":""},{"id":3150,"title":"沖縄県公文書館","architect":"国建+エー・アール・ジー","year":1995.0,"address":"沖縄県島尻郡南風原町新川148-3","latitude":26.20220947265625,"longitude":127.7269058227539,"category":"研究施設","big_category":"教育","description":"","image_url":"","tags":"公共建築百選,2020年JIA25年賞 受賞作品","prefecture":"沖縄","contractor":"","structural_designer":"","landscape_designer":"","shinkenchiku_url":""}]}