{"page":149,"total_pages":290,"items_per_page":50,"total_items":14467,"items":[{"id":7401,"title":"京都工芸繊維大学 創造連携センター","architect":"船越暉由","year":1993.0,"address":"京都府京都市左京区松ケ崎橋上町1","latitude":35.04998016357422,"longitude":135.77938842773438,"category":"大学","big_category":"教育","description":"","image_url":"","tags":"Ver2.50(2018年5月)の追加建築","prefecture":"京都","contractor":"","structural_designer":"","landscape_designer":"","shinkenchiku_url":""},{"id":7402,"title":"京都工芸繊維大学 ベンチャー・ラボラトリー","architect":"船越暉由","year":1995.0,"address":"京都府京都市左京区松ケ崎橋上町1","latitude":35.05040740966797,"longitude":135.78042602539062,"category":"大学","big_category":"教育","description":"","image_url":"","tags":"Ver2.50(2018年5月)の追加建築","prefecture":"京都","contractor":"","structural_designer":"","landscape_designer":"","shinkenchiku_url":""},{"id":7403,"title":"京都工芸繊維大学 KYOTO Design Lab デザインファクトリー","architect":"長坂大","year":2017.0,"address":"京都府京都市左京区松ケ崎橋上町1","latitude":35.04951477050781,"longitude":135.7833251953125,"category":"大学","big_category":"教育","description":"","image_url":"","tags":"Ver2.50(2018年5月)の追加建築,新建築2018年12月号","prefecture":"京都","contractor":"","structural_designer":"","landscape_designer":"","shinkenchiku_url":""},{"id":7404,"title":"湯の駅おおゆ","architect":"隈研吾","year":2018.0,"address":"秋田県鹿角市十和田大湯字中谷地19","latitude":40.2953987121582,"longitude":140.82568359375,"category":"PA・道の駅","big_category":"インフラ","description":"","image_url":"","tags":"Ver2.50(2018年5月)の追加建築","prefecture":"秋田","contractor":"","structural_designer":"","landscape_designer":"","shinkenchiku_url":""},{"id":7405,"title":"荒川ビル","architect":"日建設計","year":2018.0,"address":"東京都港区西新橋2-35-5","latitude":35.665279388427734,"longitude":139.75140380859375,"category":"オフィスビル","big_category":"企業施設","description":"","image_url":"","tags":"Ver2.50(2018年5月)の追加建築,2020年日本建築学会 作品選集新人賞","prefecture":"東京","contractor":"","structural_designer":"","landscape_designer":"","shinkenchiku_url":""},{"id":7406,"title":"横浜商科大学 開学50周年記念館","architect":"設計組織ADH","year":2018.0,"address":"神奈川県横浜市鶴見区東寺尾4-11-1","latitude":35.49839782714844,"longitude":139.66033935546875,"category":"大学","big_category":"教育","description":"","image_url":"","tags":"Ver2.50(2018年5月)の追加建築","prefecture":"神奈川","contractor":"","structural_designer":"","landscape_designer":"","shinkenchiku_url":""},{"id":7407,"title":"山中湖村平野交差点 バス待合所・観光案内所","architect":"菅原大輔","year":2018.0,"address":"山梨県南都留郡山中湖村平野字新井70-4","latitude":35.426239013671875,"longitude":138.9035186767578,"category":"観光施設/駅","big_category":"レジャー施設,インフラ","description":"","image_url":"","tags":"Ver2.50(2018年5月)の追加建築,新建築2018年9月号","prefecture":"山梨","contractor":"","structural_designer":"","landscape_designer":"","shinkenchiku_url":""},{"id":7408,"title":"ビラフォーレ山中湖","architect":"アントニン・レーモンド","year":1974.0,"address":"山梨県南都留郡山中湖村平野520-8","latitude":35.417572021484375,"longitude":138.90916442871094,"category":"集合住宅","big_category":"住宅","description":"","image_url":"","tags":"Ver2.50(2018年5月)の追加建築","prefecture":"山梨","contractor":"","structural_designer":"","landscape_designer":"","shinkenchiku_url":""},{"id":7409,"title":"里のMUJI みんなみの里","architect":"不明","year":2018.0,"address":"千葉県鴨川市宮山1696","latitude":35.12822341918945,"longitude":140.0155029296875,"category":"PA・道の駅","big_category":"インフラ","description":"元は1999年に交流施設としてオープン。2018年に無印良品によりリニューアル。設計者詳細不明。","image_url":"","tags":"Ver2.50(2018年5月)の追加建築","prefecture":"千葉","contractor":"","structural_designer":"","landscape_designer":"","shinkenchiku_url":""},{"id":7410,"title":"山梨近代人物館 旧山梨県庁舎","architect":"佐野利器","year":1930.0,"address":"山梨県甲府市丸の内1-6-1","latitude":35.664512634277344,"longitude":138.56893920898438,"category":"博物館/洋館","big_category":"ミュージアム,近代建築/遺産","description":"","image_url":"","tags":"Ver2.50(2018年5月)の追加建築","prefecture":"山梨","contractor":"","structural_designer":"","landscape_designer":"","shinkenchiku_url":""},{"id":7411,"title":"ゆすはら雲の上の図書館","architect":"隈研吾","year":2018.0,"address":"高知県高岡郡梼原町梼原1212-2","latitude":33.393856048583984,"longitude":132.92796325683594,"category":"図書館","big_category":"文化施設","description":"2018年5月28日オープン予定。細かい場所は間違っているかも","image_url":"","tags":"Ver2.50(2018年5月)の追加建築,新建築2018年10月号","prefecture":"高知","contractor":"戸田・四万川特定建設工事共同企業体","structural_designer":"","landscape_designer":"","shinkenchiku_url":""},{"id":7412,"title":"複合福祉施設 YURURIゆすはら","architect":"隈研吾","year":2018.0,"address":"高知県高岡郡梼原町梼原1212-2","latitude":33.394344329833984,"longitude":132.9281005859375,"category":"福祉センター","big_category":"医療施設","description":"細かい場所は間違っているかも。","image_url":"","tags":"Ver2.50(2018年5月)の追加建築,新建築2018年10月号","prefecture":"高知","contractor":"戸田・四万川特定建設工事共同企業体","structural_designer":"","landscape_designer":"","shinkenchiku_url":""},{"id":7413,"title":"太陽の鐘 周辺整備","architect":"藤本壮介+岡本太郎","year":2018.0,"address":"群馬県前橋市千代田町5-18","latitude":36.39293670654297,"longitude":139.07278442382812,"category":"オブジェ/公園","big_category":"ミュージアム,レジャー施設","description":"岡本太郎作の「太陽の鐘」を移設。その周辺整備を藤本壮介が設計。","image_url":"","tags":"Ver2.50(2018年5月)の追加建築","prefecture":"群馬","contractor":"","structural_designer":"","landscape_designer":"","shinkenchiku_url":""},{"id":7414,"title":"由布市ツーリストインフォメーションセンター YUFUiNFO","architect":"坂茂","year":2018.0,"address":"大分県由布市湯布院町川北8-5","latitude":33.26226043701172,"longitude":131.3553466796875,"category":"観光施設/図書館","big_category":"レジャー施設,文化施設","description":"","image_url":"","tags":"新建築2018年5月号,Ver2.50(2018年5月)の追加建築","prefecture":"大分","contractor":"","structural_designer":"","landscape_designer":"","shinkenchiku_url":""},{"id":7415,"title":"ミライエ レクストハウス ナゴヤ","architect":"隈研吾","year":2018.0,"address":"愛知県名古屋市中区富士見町10","latitude":35.15243911743164,"longitude":136.9051055908203,"category":"結婚式場/レストラン","big_category":"宗教,商業施設","description":"","image_url":"","tags":"Ver2.50(2018年5月)の追加建築","prefecture":"愛知","contractor":"","structural_designer":"","landscape_designer":"","shinkenchiku_url":""},{"id":7416,"title":"札幌市山口斎場","architect":"山下設計","year":2006.0,"address":"北海道札幌市手稲区手稲山口308","latitude":43.152923583984375,"longitude":141.2264862060547,"category":"斎場","big_category":"公共施設","description":"","image_url":"","tags":"Ver2.50(2018年5月)の追加建築","prefecture":"北海道","contractor":"","structural_designer":"","landscape_designer":"","shinkenchiku_url":""},{"id":7417,"title":"桜新町の集合住宅 SAKRAS","architect":"エイバンバ","year":2018.0,"address":"東京都世田谷区弦巻3-9-3","latitude":35.634437561035156,"longitude":139.64547729492188,"category":"集合住宅","big_category":"住宅","description":"","image_url":"","tags":"Ver2.50(2018年5月)の追加建築","prefecture":"東京","contractor":"","structural_designer":"","landscape_designer":"","shinkenchiku_url":""},{"id":7418,"title":"岐阜かかみがはら航空宇宙博物館","architect":"梓設計","year":1996.0,"address":"岐阜県各務原市下切町5-1","latitude":35.3878173828125,"longitude":136.8614959716797,"category":"博物館","big_category":"ミュージアム","description":"2018年に梓設計によりリニューアル。元の設計も梓設計。","image_url":"","tags":"Ver2.50(2018年5月)の追加建築","prefecture":"岐阜","contractor":"","structural_designer":"","landscape_designer":"","shinkenchiku_url":""},{"id":7419,"title":"ブルーボトルコーヒー 京都カフェ","architect":"長坂常","year":2018.0,"address":"京都府京都市左京区南禅寺草川町64","latitude":35.01142120361328,"longitude":135.7894744873047,"category":"カフェ","big_category":"商業施設","description":"","image_url":"","tags":"Ver2.50(2018年5月)の追加建築","prefecture":"京都","contractor":"","structural_designer":"","landscape_designer":"","shinkenchiku_url":""},{"id":7420,"title":"日本学園 一号館","architect":"今井兼次","year":1936.0,"address":"東京都世田谷区松原2-7-34","latitude":35.66510772705078,"longitude":139.64927673339844,"category":"学校","big_category":"教育","description":"","image_url":"","tags":"Ver2.50(2018年5月)の追加建築","prefecture":"東京","contractor":"","structural_designer":"","landscape_designer":"","shinkenchiku_url":""},{"id":7421,"title":"新山口駅 北口駅前広場 0番線","architect":"宮崎浩","year":2018.0,"address":"山口県山口市小郡下郷 新山口駅","latitude":34.09412384033203,"longitude":131.39593505859375,"category":"駅/観光施設/モール","big_category":"インフラ,レジャー施設,商業施設","description":"","image_url":"","tags":"Ver2.50(2018年5月)の追加建築,新建築2018年9月号","prefecture":"山口","contractor":"","structural_designer":"","landscape_designer":"","shinkenchiku_url":""},{"id":7422,"title":"温泉プラザ山鹿","architect":"菊竹清訓","year":1976.0,"address":"熊本県山鹿市山鹿1","latitude":33.01441955566406,"longitude":130.6898956298828,"category":"モール","big_category":"商業施設","description":"","image_url":"","tags":"Ver2.50(2018年5月)の追加建築","prefecture":"熊本","contractor":"","structural_designer":"","landscape_designer":"","shinkenchiku_url":""},{"id":7423,"title":"講談社新社屋","architect":"菊竹清訓","year":2000.0,"address":"東京都文京区音羽2-12-21","latitude":35.7183952331543,"longitude":139.72738647460938,"category":"オフィスビル","big_category":"企業施設","description":"","image_url":"","tags":"Ver2.50(2018年5月)の追加建築","prefecture":"東京","contractor":"","structural_designer":"","landscape_designer":"","shinkenchiku_url":""},{"id":7424,"title":"ピッコロチェドーロ","architect":"菊竹清訓","year":1997.0,"address":"東京都世田谷区大原2-18-2","latitude":35.670841217041016,"longitude":139.65956115722656,"category":"集合住宅","big_category":"住宅","description":"","image_url":"","tags":"Ver2.50(2018年5月)の追加建築","prefecture":"東京","contractor":"","structural_designer":"","landscape_designer":"","shinkenchiku_url":""},{"id":7425,"title":"佐渡高校 100周年記念会館 獅子ヶ城会館","architect":"菊竹清訓","year":1996.0,"address":"新潟県佐渡市石田567","latitude":38.00623321533203,"longitude":138.32273864746094,"category":"学校","big_category":"教育","description":"","image_url":"","tags":"Ver2.50(2018年5月)の追加建築","prefecture":"新潟","contractor":"","structural_designer":"","landscape_designer":"","shinkenchiku_url":""},{"id":7426,"title":"京都信用金庫 本店","architect":"菊竹清訓","year":1993.0,"address":"京都府京都市下京区四条通柳馬場東入立売東町7","latitude":35.003421783447266,"longitude":135.7642822265625,"category":"金融機関","big_category":"企業施設","description":"","image_url":"","tags":"Ver2.50(2018年5月)の追加建築","prefecture":"京都","contractor":"","structural_designer":"","landscape_designer":"","shinkenchiku_url":""},{"id":7427,"title":"京都信用金庫 御室支店","architect":"菊竹清訓","year":1993.0,"address":"京都府京都市右京区宇多野馬場町10-2","latitude":35.028404235839844,"longitude":135.71151733398438,"category":"金融機関","big_category":"企業施設","description":"","image_url":"","tags":"Ver2.50(2018年5月)の追加建築","prefecture":"京都","contractor":"","structural_designer":"","landscape_designer":"","shinkenchiku_url":""},{"id":7428,"title":"京都信用金庫 宇治支店","architect":"菊竹清訓","year":1992.0,"address":"京都府宇治市宇治壱番10-6","latitude":34.88908767700195,"longitude":135.80148315429688,"category":"金融機関","big_category":"企業施設","description":"","image_url":"","tags":"Ver2.50(2018年5月)の追加建築","prefecture":"京都","contractor":"","structural_designer":"","landscape_designer":"","shinkenchiku_url":""},{"id":7429,"title":"京都信用金庫 草津西支店","architect":"菊竹清訓","year":1992.0,"address":"滋賀県草津市野村2-1-20","latitude":35.02522659301758,"longitude":135.95639038085938,"category":"金融機関","big_category":"企業施設","description":"","image_url":"","tags":"Ver2.50(2018年5月)の追加建築","prefecture":"滋賀","contractor":"","structural_designer":"","landscape_designer":"","shinkenchiku_url":""},{"id":7430,"title":"京都信用金庫 寝屋川支店","architect":"菊竹清訓","year":1991.0,"address":"大阪府寝屋川市大利元町1-18","latitude":34.76485824584961,"longitude":135.61659240722656,"category":"金融機関","big_category":"企業施設","description":"","image_url":"","tags":"Ver2.50(2018年5月)の追加建築","prefecture":"大阪","contractor":"","structural_designer":"","landscape_designer":"","shinkenchiku_url":""},{"id":7431,"title":"京都信用金庫 百万遍支店","architect":"菊竹清訓","year":1991.0,"address":"京都府京都市左京区田中里ノ内町43","latitude":35.03376007080078,"longitude":135.7808074951172,"category":"金融機関","big_category":"企業施設","description":"","image_url":"","tags":"Ver2.50(2018年5月)の追加建築","prefecture":"京都","contractor":"","structural_designer":"","landscape_designer":"","shinkenchiku_url":""},{"id":7432,"title":"京都信用金庫 栗東支店","architect":"菊竹清訓","year":1990.0,"address":"滋賀県栗東市安養寺1-9-1","latitude":35.022216796875,"longitude":135.99916076660156,"category":"金融機関","big_category":"企業施設","description":"","image_url":"","tags":"Ver2.50(2018年5月)の追加建築","prefecture":"滋賀","contractor":"","structural_designer":"","landscape_designer":"","shinkenchiku_url":""},{"id":7433,"title":"京都信用金庫 上鳥羽支店","architect":"菊竹清訓","year":1990.0,"address":"京都府京都市南区吉祥院観音堂南町4-3","latitude":34.96572494506836,"longitude":135.733642578125,"category":"金融機関","big_category":"企業施設","description":"","image_url":"","tags":"Ver2.50(2018年5月)の追加建築","prefecture":"京都","contractor":"","structural_designer":"","landscape_designer":"","shinkenchiku_url":""},{"id":7434,"title":"京都信用金庫 東桂支店","architect":"菊竹清訓","year":1990.0,"address":"京都府京都市西京区川島東代町31-1","latitude":34.97593688964844,"longitude":135.7063446044922,"category":"金融機関","big_category":"企業施設","description":"","image_url":"","tags":"Ver2.50(2018年5月)の追加建築","prefecture":"京都","contractor":"","structural_designer":"","landscape_designer":"","shinkenchiku_url":""},{"id":7435,"title":"赤坂レジデンシャルオフィス アンフィニ","architect":"菊竹清訓","year":1990.0,"address":"東京都港区赤坂8-7-15","latitude":35.67072677612305,"longitude":139.72886657714844,"category":"集合住宅","big_category":"住宅","description":"","image_url":"","tags":"Ver2.50(2018年5月)の追加建築","prefecture":"東京","contractor":"","structural_designer":"","landscape_designer":"","shinkenchiku_url":""},{"id":7436,"title":"イリコ庵","architect":"みかんぐみ","year":2016.0,"address":"香川県観音寺市伊吹町 イリコ庵","latitude":34.12861251831055,"longitude":133.53494262695312,"category":"ギャラリー","big_category":"ミュージアム","description":"","image_url":"","tags":"Ver2.50(2018年5月)の追加建築","prefecture":"香川","contractor":"","structural_designer":"","landscape_designer":"","shinkenchiku_url":""},{"id":7437,"title":"横芝駅前情報交流館 ヨリドコロ","architect":"みかんぐみ","year":2018.0,"address":"千葉県山武郡横芝光町横芝1355-2","latitude":35.66157913208008,"longitude":140.49191284179688,"category":"公民館・交流施設","big_category":"公共施設","description":"","image_url":"","tags":"Ver2.50(2018年5月)の追加建築","prefecture":"千葉","contractor":"","structural_designer":"","landscape_designer":"","shinkenchiku_url":""},{"id":7438,"title":"横浜市立みなとみらい本町小学校","architect":"みかんぐみ","year":2018.0,"address":"神奈川県横浜市西区西区高島1-2","latitude":35.46183395385742,"longitude":139.62474060058594,"category":"学校","big_category":"教育","description":"","image_url":"","tags":"Ver2.50(2018年5月)の追加建築,新建築2018年12月号","prefecture":"神奈川","contractor":"","structural_designer":"","landscape_designer":"","shinkenchiku_url":""},{"id":7439,"title":"横浜市青葉区スポーツプラザ管理棟","architect":"みかんぐみ","year":2016.0,"address":"神奈川県横浜市青葉区荏田西2-16","latitude":35.554359436035156,"longitude":139.55288696289062,"category":"公共施設","big_category":"公共施設","description":"","image_url":"","tags":"Ver2.50(2018年5月)の追加建築","prefecture":"神奈川","contractor":"","structural_designer":"","landscape_designer":"","shinkenchiku_url":""},{"id":7440,"title":"横浜市日限山地域ケアプラザ","architect":"みかんぐみ","year":2016.0,"address":"神奈川県横浜市港南区日限山1-66−55","latitude":35.39847183227539,"longitude":139.5612030029297,"category":"福祉センター","big_category":"医療施設","description":"","image_url":"","tags":"Ver2.50(2018年5月)の追加建築","prefecture":"神奈川","contractor":"","structural_designer":"","landscape_designer":"","shinkenchiku_url":""},{"id":7441,"title":"魚津埋没林博物館 カフェ","architect":"NOSIGNER+浜田晶則","year":2018.0,"address":"富山県魚津市釈迦堂814","latitude":36.82249069213867,"longitude":137.39443969726562,"category":"博物館/カフェ","big_category":"ミュージアム,商業施設","description":"カフェのことだと思われる","image_url":"","tags":"Ver2.50(2018年5月)の追加建築","prefecture":"富山","contractor":"","structural_designer":"","landscape_designer":"","shinkenchiku_url":""},{"id":7442,"title":"西南学院大学 図書館","architect":"佐藤総合計画","year":2017.0,"address":"福岡県福岡市早良区西新6-2-92","latitude":33.58506774902344,"longitude":130.3565673828125,"category":"大学/図書館","big_category":"教育,文化施設","description":"","image_url":"","tags":"Ver2.50(2018年5月)の追加建築,新建築2018年12月号","prefecture":"福岡","contractor":"","structural_designer":"","landscape_designer":"","shinkenchiku_url":""},{"id":7443,"title":"福間病院 中央棟","architect":"竹中工務店","year":2017.0,"address":"福岡県福津市花見が浜1-5-1","latitude":33.761112213134766,"longitude":130.47479248046875,"category":"病院","big_category":"医療施設","description":"","image_url":"","tags":"Ver2.50(2018年5月)の追加建築","prefecture":"福岡","contractor":"","structural_designer":"","landscape_designer":"","shinkenchiku_url":""},{"id":7444,"title":"ピカフジヤマ レストラン棟 旧富士桜荘","architect":"黒川紀章","year":1977.0,"address":"山梨県南都留郡富士河口湖町船津6662-10","latitude":35.455814361572266,"longitude":138.7554168701172,"category":"レストラン/ホテル","big_category":"商業施設,宿泊","description":"元は黒川紀章設計・富士桜荘1977年竣工。リノベーションしてピカフジヤマ レストラン棟として2018年7月オープン予定","image_url":"","tags":"Ver2.50(2018年5月)の追加建築","prefecture":"山梨","contractor":"","structural_designer":"","landscape_designer":"","shinkenchiku_url":""},{"id":7445,"title":"山梨県総合農業技術センター","architect":"黒川紀章","year":1973.0,"address":"山梨県甲斐市下今井1100","latitude":35.68092346191406,"longitude":138.48873901367188,"category":"公共施設/研究施設","big_category":"公共施設,教育","description":"","image_url":"","tags":"Ver2.50(2018年5月)の追加建築","prefecture":"山梨","contractor":"","structural_designer":"","landscape_designer":"","shinkenchiku_url":""},{"id":7446,"title":"休暇村伊良湖","architect":"黒川紀章","year":1966.0,"address":"愛知県田原市中山町大松上1","latitude":34.60547637939453,"longitude":137.037109375,"category":"ホテル","big_category":"宿泊","description":"","image_url":"","tags":"Ver2.50(2018年5月)の追加建築","prefecture":"愛知","contractor":"","structural_designer":"","landscape_designer":"","shinkenchiku_url":""},{"id":7447,"title":"人と科学の未来館サイピア","architect":"芦原義信","year":1963.0,"address":"岡山県岡山市北区伊島町3-1-1","latitude":34.6771354675293,"longitude":133.90829467773438,"category":"博物館","big_category":"ミュージアム","description":"","image_url":"","tags":"Ver2.50(2018年5月)の追加建築","prefecture":"岡山","contractor":"","structural_designer":"","landscape_designer":"","shinkenchiku_url":""},{"id":7448,"title":"山梨県八ヶ岳少年自然の家","architect":"黒川紀章","year":null,"address":"山梨県北杜市高根町清里3545","latitude":35.913021087646484,"longitude":138.43495178222656,"category":"研修施設/児童施設","big_category":"教育,教育","description":"竣工年ご存知の方教えてください。1980年より前だと思われます","image_url":"","tags":"Ver2.50(2018年5月)の追加建築","prefecture":"山梨","contractor":"","structural_designer":"","landscape_designer":"","shinkenchiku_url":""},{"id":7449,"title":"パークコート赤坂檜町 ザ・タワー","architect":"隈研吾+日建設計+日建ハウジングシステム","year":2018.0,"address":"東京都港区赤坂9-3","latitude":35.66804885864258,"longitude":139.72987365722656,"category":"集合住宅","big_category":"住宅","description":"","image_url":"","tags":"Ver2.50(2018年5月)の追加建築,新建築2018年8月号","prefecture":"東京","contractor":"","structural_designer":"","landscape_designer":"","shinkenchiku_url":""},{"id":7450,"title":"慶松幼稚園","architect":"原広司","year":2017.0,"address":"東京都町田市鶴川1-5-2","latitude":35.586021423339844,"longitude":139.474609375,"category":"幼稚園","big_category":"教育","description":"原広司設計1967年竣工の建て替え","image_url":"","tags":"Ver2.50(2018年5月)の追加建築,新建築2018年6月号","prefecture":"東京","contractor":"","structural_designer":"","landscape_designer":"","shinkenchiku_url":""}]}