{"page":270,"total_pages":290,"items_per_page":50,"total_items":14467,"items":[{"id":13451,"title":"JR灘駅南側駅前広場","architect":"畑友洋+E-DESIGN+モビリティデザイン工房","year":2024.0,"address":"兵庫県神戸市灘区岩屋北町7-2","latitude":34.705360412597656,"longitude":135.2164306640625,"category":"駅/広場","big_category":"インフラ,文化施設","description":"","image_url":"","tags":"Ver5.30(2024年4月)の追加建築,新建築2024年7月号","prefecture":"兵庫","contractor":"","structural_designer":"","landscape_designer":"","shinkenchiku_url":""},{"id":13452,"title":"早稲田高等学校 3号館・興風館","architect":"佐藤総合計画","year":2023.0,"address":"東京都新宿区馬場下町62","latitude":35.70640182495117,"longitude":139.719970703125,"category":"学校","big_category":"教育","description":"","image_url":"","tags":"Ver5.30(2024年4月)の追加建築","prefecture":"東京","contractor":"","structural_designer":"","landscape_designer":"","shinkenchiku_url":""},{"id":13453,"title":"教文館・聖書館ビル","architect":"アントニン・レーモンド","year":1933.0,"address":"東京都中央区銀座4-5-1","latitude":35.67206954956055,"longitude":139.76560974121094,"category":"オフィスビル","big_category":"企業施設","description":"","image_url":"","tags":"Ver5.30(2024年4月)の追加建築","prefecture":"東京","contractor":"","structural_designer":"","landscape_designer":"","shinkenchiku_url":""},{"id":13454,"title":"三浦YMCAグローバルエコヴィレッジ 旧三浦臨海学園","architect":"坂倉建築研究所","year":1972.0,"address":"神奈川県三浦市初声町3136","latitude":35.19140625,"longitude":139.6207733154297,"category":"研修施設","big_category":"教育","description":"","image_url":"","tags":"Ver5.30(2024年4月)の追加建築","prefecture":"神奈川","contractor":"","structural_designer":"","landscape_designer":"","shinkenchiku_url":""},{"id":13455,"title":"門兆鴻邸 パンとエスプレッソと異人館 旧ディスレフセン邸","architect":"アレクサンダー・ネルソン・ハンセル","year":1895.0,"address":"兵庫県神戸市中央区山本通3-5-19","latitude":34.69797897338867,"longitude":135.18743896484375,"category":"洋館/カフェ","big_category":"近代建築/遺産,商業施設","description":"パンとエスプレッソと異人館として2024年6月オープン予定","image_url":"","tags":"Ver5.30(2024年4月)の追加建築","prefecture":"兵庫","contractor":"","structural_designer":"","landscape_designer":"","shinkenchiku_url":""},{"id":13456,"title":"シュウエケ邸 旧ハンセル自邸","architect":"アレクサンダー・ネルソン・ハンセル","year":1896.0,"address":"兵庫県神戸市中央区山本通3-5-17","latitude":34.69791793823242,"longitude":135.18722534179688,"category":"洋館","big_category":"近代建築/遺産","description":"","image_url":"","tags":"Ver5.30(2024年4月)の追加建築","prefecture":"兵庫","contractor":"","structural_designer":"","landscape_designer":"","shinkenchiku_url":""},{"id":13457,"title":"アンジェロ・タルラッチ・ハウス","architect":"八束はじめ","year":1987.0,"address":"東京都港区西麻布1-13-18","latitude":35.66109085083008,"longitude":139.72328186035156,"category":"テナントビル","big_category":"商業施設","description":"","image_url":"","tags":"Ver5.30(2024年4月)の追加建築","prefecture":"東京","contractor":"","structural_designer":"","landscape_designer":"","shinkenchiku_url":""},{"id":13458,"title":"巣鴨警察署巣鴨駅前交番","architect":"アーキベスタ","year":1995.0,"address":"東京都豊島区巣鴨2-1-1","latitude":35.73366165161133,"longitude":139.73883056640625,"category":"警察・消防署","big_category":"公共施設","description":"","image_url":"","tags":"Ver5.30(2024年4月)の追加建築","prefecture":"東京","contractor":"","structural_designer":"","landscape_designer":"","shinkenchiku_url":""},{"id":13459,"title":"小鮒ネーム刺繍店本店","architect":"石田敏明","year":1999.0,"address":"東京都豊島区巣鴨4-26-16","latitude":35.738067626953125,"longitude":139.7335968017578,"category":"店舗","big_category":"商業施設","description":"","image_url":"","tags":"Ver5.30(2024年4月)の追加建築","prefecture":"東京","contractor":"","structural_designer":"","landscape_designer":"","shinkenchiku_url":""},{"id":13460,"title":"豊島区立巣鴨北中学校","architect":"岡田新一設計事務所","year":2019.0,"address":"東京都豊島区西巣鴨3-17-1","latitude":35.7415657043457,"longitude":139.72943115234375,"category":"学校","big_category":"教育","description":"","image_url":"","tags":"Ver5.30(2024年4月)の追加建築","prefecture":"東京","contractor":"","structural_designer":"","landscape_designer":"","shinkenchiku_url":""},{"id":13461,"title":"大正大学 15号館","architect":"大林組","year":2016.0,"address":"東京都北区滝野川6-2-2","latitude":35.7437744140625,"longitude":139.72720336914062,"category":"大学","big_category":"教育","description":"","image_url":"","tags":"Ver5.30(2024年4月)の追加建築","prefecture":"東京","contractor":"","structural_designer":"","landscape_designer":"","shinkenchiku_url":""},{"id":13462,"title":"すがも鴨台観音堂","architect":"大林組","year":2013.0,"address":"東京都豊島区西巣鴨3-19-1","latitude":35.74191665649414,"longitude":139.7274169921875,"category":"寺院","big_category":"宗教","description":"","image_url":"","tags":"Ver5.30(2024年4月)の追加建築","prefecture":"東京","contractor":"","structural_designer":"","landscape_designer":"","shinkenchiku_url":""},{"id":13463,"title":"Pharmacy in Tosu 大正町薬局もこ","architect":"百枝優","year":2022.0,"address":"佐賀県鳥栖市大正町769-1","latitude":33.37589645385742,"longitude":130.51502990722656,"category":"店舗","big_category":"商業施設","description":"","image_url":"","tags":"Ver5.30(2024年4月)の追加建築","prefecture":"佐賀","contractor":"","structural_designer":"XYZ structure","landscape_designer":"","shinkenchiku_url":""},{"id":13464,"title":"Farewell Platform 相浦メモリードホール","architect":"百枝優","year":2021.0,"address":"長崎県佐世保市新田町74-2","latitude":33.195552825927734,"longitude":129.67037963867188,"category":"斎場","big_category":"公共施設","description":"","image_url":"","tags":"Ver5.30(2024年4月)の追加建築","prefecture":"長崎","contractor":"","structural_designer":"XYZ structure","landscape_designer":"","shinkenchiku_url":""},{"id":13465,"title":"ルミエール 遠賀店","architect":"百枝優","year":2021.0,"address":"福岡県遠賀郡遠賀町今古賀499-1","latitude":33.846683502197266,"longitude":130.66651916503906,"category":"店舗","big_category":"商業施設","description":"","image_url":"","tags":"Ver5.30(2024年4月)の追加建築","prefecture":"福岡","contractor":"","structural_designer":"荒木美香構造設計事務所","landscape_designer":"","shinkenchiku_url":""},{"id":13466,"title":"星野リゾート OMO5沖縄那覇","architect":"佐々木達郎","year":2019.0,"address":"沖縄県那覇市松山1-3-16","latitude":26.217437744140625,"longitude":127.6799087524414,"category":"ホテル","big_category":"宿泊","description":"","image_url":"","tags":"Ver5.30(2024年4月)の追加建築,第31回AACA 奨励賞","prefecture":"沖縄","contractor":"五洋建設","structural_designer":"","landscape_designer":"","shinkenchiku_url":""},{"id":13467,"title":"末富 青久 カフェスタンド","architect":"G architects studio","year":2023.0,"address":"京都府京都市下京区松原通室町東入玉津島町319","latitude":34.998905181884766,"longitude":135.7594757080078,"category":"カフェ","big_category":"商業施設","description":"","image_url":"","tags":"Ver5.30(2024年4月)の追加建築,第33回AACA 美術工芸賞,新建築2024年11月号","prefecture":"京都","contractor":"ヨシダインテリア","structural_designer":"","landscape_designer":"","shinkenchiku_url":""},{"id":13468,"title":"輝北うわば公園 木造建築群","architect":"高崎正治","year":1994.0,"address":"鹿児島県鹿屋市輝北町市成1660-3","latitude":31.594924926757812,"longitude":130.82693481445312,"category":"公園","big_category":"レジャー施設","description":"3棟ある。おそらく残りの1棟は輝北天球館からやや下った場所にあるトイレ脇にある建築だと思われる","image_url":"","tags":"Ver5.30(2024年4月)の追加建築,2020年JIA25年賞 受賞作品","prefecture":"鹿児島","contractor":"村岡工務店","structural_designer":"","landscape_designer":"","shinkenchiku_url":""},{"id":13469,"title":"カトリック安里教会・教区事務所","architect":"根路銘設計","year":1994.0,"address":"沖縄県那覇市安里3-7-2","latitude":26.221826553344727,"longitude":127.69766998291016,"category":"教会","big_category":"宗教","description":"","image_url":"","tags":"Ver5.30(2024年4月)の追加建築,2020年JIA25年賞 登録作品","prefecture":"沖縄","contractor":"丸元建設","structural_designer":"","landscape_designer":"","shinkenchiku_url":""},{"id":13470,"title":"平塚ガーデンホームズ","architect":"井出共治","year":1983.0,"address":"神奈川県平塚市唐ケ原123-2","latitude":35.3171272277832,"longitude":139.32882690429688,"category":"集合住宅","big_category":"住宅","description":"","image_url":"","tags":"Ver5.30(2024年4月)の追加建築,2020年JIA25年賞 登録作品","prefecture":"神奈川","contractor":"鹿島建設","structural_designer":"","landscape_designer":"","shinkenchiku_url":""},{"id":13471,"title":"砧保育園","architect":"小沢明","year":1995.0,"address":"東京都世田谷区祖師谷4-3-17","latitude":35.647220611572266,"longitude":139.6077880859375,"category":"幼稚園","big_category":"教育","description":"","image_url":"","tags":"Ver5.30(2024年4月)の追加建築,2020年JIA25年賞 登録作品","prefecture":"東京","contractor":"","structural_designer":"","landscape_designer":"","shinkenchiku_url":""},{"id":13472,"title":"東京都中央卸売市場 大田市場","architect":"日建設計","year":1989.0,"address":"東京都大田区東海3-2-1","latitude":35.58102798461914,"longitude":139.76100158691406,"category":"モール/公共施設","big_category":"商業施設,公共施設","description":"","image_url":"","tags":"Ver5.30(2024年4月)の追加建築,2020年JIA25年賞 登録作品","prefecture":"東京","contractor":"","structural_designer":"","landscape_designer":"","shinkenchiku_url":""},{"id":13473,"title":"横浜ランドマークタワー","architect":"三菱地所","year":1993.0,"address":"神奈川県横浜市西区みなとみらい2-2-1","latitude":35.45458221435547,"longitude":139.63148498535156,"category":"複合ビル","big_category":"企業施設","description":"","image_url":"","tags":"Ver5.30(2024年4月)の追加建築,2021年JIA25年賞 登録作品","prefecture":"神奈川","contractor":"横浜ランドタワー新築工事建築工事共同企業体","structural_designer":"","landscape_designer":"","shinkenchiku_url":""},{"id":13474,"title":"七尾市中島文化センター 能登演劇堂","architect":"浦建築研究所","year":1995.0,"address":"石川県七尾市中島町中島上9","latitude":37.12198257446289,"longitude":136.85398864746094,"category":"ホール・劇場","big_category":"文化施設","description":"","image_url":"","tags":"Ver5.30(2024年4月)の追加建築,2021年JIA25年賞 登録作品","prefecture":"石川","contractor":"佐藤工業","structural_designer":"","landscape_designer":"","shinkenchiku_url":""},{"id":13475,"title":"フェルケール博物館","architect":"藤江通昌","year":1991.0,"address":"静岡県静岡市清水区港町2-8-11","latitude":35.00762939453125,"longitude":138.49337768554688,"category":"博物館","big_category":"ミュージアム","description":"","image_url":"","tags":"Ver5.30(2024年4月)の追加建築,2021年JIA25年賞 登録作品","prefecture":"静岡","contractor":"鈴与建設","structural_designer":"","landscape_designer":"","shinkenchiku_url":""},{"id":13476,"title":"瑞巌寺 宝物館 青龍殿","architect":"勝部民男","year":1994.0,"address":"宮城県宮城郡松島町松島町内91","latitude":38.37190628051758,"longitude":141.06076049804688,"category":"寺院","big_category":"宗教","description":"","image_url":"","tags":"Ver5.30(2024年4月)の追加建築,2021年JIA25年賞 登録作品","prefecture":"宮城","contractor":"松井建設","structural_designer":"","landscape_designer":"","shinkenchiku_url":""},{"id":13477,"title":"アルファブランカST","architect":"池上俊郎","year":1993.0,"address":"福井県三方上中郡若狭町北前川 74号今古1−1","latitude":35.548465728759766,"longitude":135.90589904785156,"category":"工場","big_category":"企業施設","description":"","image_url":"","tags":"Ver5.30(2024年4月)の追加建築,2021年JIA25年賞 登録作品","prefecture":"福井","contractor":"前田産業","structural_designer":"","landscape_designer":"","shinkenchiku_url":""},{"id":13478,"title":"新砂プラザ","architect":"日本設計","year":1993.0,"address":"東京都江東区新砂1-6-27","latitude":35.667320251464844,"longitude":139.82266235351562,"category":"オフィスビル","big_category":"企業施設","description":"","image_url":"","tags":"Ver5.30(2024年4月)の追加建築,2021年JIA25年賞 登録作品","prefecture":"東京","contractor":"大林組+大豊建設","structural_designer":"","landscape_designer":"","shinkenchiku_url":""},{"id":13479,"title":"春日部市庄和総合支所・庄和図書館・児童センター 旧庄和町役場庁舎","architect":"石本建築事務所","year":1992.0,"address":"埼玉県春日部市金崎839-1","latitude":35.99197769165039,"longitude":139.80291748046875,"category":"庁舎/図書館/児童施設","big_category":"公共施設,文化施設,教育","description":"","image_url":"","tags":"Ver5.30(2024年4月)の追加建築,2021年JIA25年賞 登録作品","prefecture":"埼玉","contractor":"大成建設JV","structural_designer":"","landscape_designer":"","shinkenchiku_url":""},{"id":13480,"title":"NHK名古屋放送センタービル","architect":"日建設計+大成建設","year":1991.0,"address":"愛知県名古屋市東区東桜1-13-3","latitude":35.171634674072266,"longitude":136.91099548339844,"category":"オフィスビル","big_category":"企業施設","description":"","image_url":"","tags":"Ver5.30(2024年4月)の追加建築,2021年JIA25年賞 登録作品","prefecture":"愛知","contractor":"大成建設・鹿島建設・矢作建設工業","structural_designer":"","landscape_designer":"","shinkenchiku_url":""},{"id":13481,"title":"江東公会堂 ティアラこうとう","architect":"久米設計","year":1994.0,"address":"東京都江東区住吉2-28-36","latitude":35.688446044921875,"longitude":139.8195037841797,"category":"ホール・劇場","big_category":"文化施設","description":"","image_url":"","tags":"Ver5.30(2024年4月)の追加建築,2022年JIA25年賞 登録作品","prefecture":"東京","contractor":"鹿島・多田・土屋組・丸石共同企業体","structural_designer":"","landscape_designer":"","shinkenchiku_url":""},{"id":13482,"title":"恵比寿ガーデンプレイス","architect":"久米設計","year":1994.0,"address":"東京都渋谷区恵比寿4-20","latitude":35.64248275756836,"longitude":139.7137908935547,"category":"複合ビル/モール","big_category":"企業施設,商業施設","description":"","image_url":"","tags":"Ver5.30(2024年4月)の追加建築,2022年JIA25年賞 登録作品","prefecture":"東京","contractor":"","structural_designer":"","landscape_designer":"","shinkenchiku_url":""},{"id":13483,"title":"横浜雙葉学園","architect":"阿部勤","year":1993.0,"address":"神奈川県横浜市中区山手町88","latitude":35.43564987182617,"longitude":139.6516876220703,"category":"学校","big_category":"教育","description":"","image_url":"","tags":"Ver5.30(2024年4月)の追加建築,2022年JIA25年賞 登録作品","prefecture":"神奈川","contractor":"大林組","structural_designer":"","landscape_designer":"","shinkenchiku_url":""},{"id":13484,"title":"ニッセイ総合研修所","architect":"久米設計","year":1989.0,"address":"千葉県浦安市富岡2-4-1","latitude":35.64745330810547,"longitude":139.90585327148438,"category":"研修施設","big_category":"教育","description":"","image_url":"","tags":"Ver5.30(2024年4月)の追加建築,2022年JIA25年賞 登録作品","prefecture":"千葉","contractor":"大林組・東急建設・勝村建設共同企業体","structural_designer":"","landscape_designer":"","shinkenchiku_url":""},{"id":13485,"title":"太平洋クラブ御殿場コース クラブハウス","architect":"梓設計","year":1990.0,"address":"静岡県御殿場市板妻941-1","latitude":35.284461975097656,"longitude":138.875732421875,"category":"クラブハウス","big_category":"レジャー施設","description":"","image_url":"","tags":"Ver5.30(2024年4月)の追加建築,2022年JIA25年賞 登録作品","prefecture":"静岡","contractor":"新日本製鐵・熊谷組共同企業体","structural_designer":"","landscape_designer":"","shinkenchiku_url":""},{"id":13486,"title":"新相鉄ビル","architect":"松田平田設計+交建設計","year":1973.0,"address":"神奈川県横浜市西区南幸1-5-1","latitude":35.465396881103516,"longitude":139.62062072753906,"category":"テナントビル/モール","big_category":"商業施設,商業施設","description":"","image_url":"","tags":"Ver5.30(2024年4月)の追加建築,2022年JIA25年賞 登録作品","prefecture":"神奈川","contractor":"大林組・東急建設","structural_designer":"","landscape_designer":"","shinkenchiku_url":""},{"id":13487,"title":"横浜銀行本店","architect":"三菱地所","year":1993.0,"address":"神奈川県横浜市西区みなとみらい3-1-1","latitude":35.45452880859375,"longitude":139.62933349609375,"category":"金融機関/オフィスビル","big_category":"企業施設,企業施設","description":"","image_url":"","tags":"Ver5.30(2024年4月)の追加建築,2023年JIA25年賞 登録作品","prefecture":"神奈川","contractor":"横浜銀行本店新築工事建築工事共同企業体","structural_designer":"","landscape_designer":"","shinkenchiku_url":""},{"id":13488,"title":"東御市文化会館 サンテラスホール","architect":"梓設計","year":1990.0,"address":"長野県東御市常田505-1","latitude":36.3605842590332,"longitude":138.34027099609375,"category":"ホール・劇場","big_category":"文化施設","description":"","image_url":"","tags":"Ver5.30(2024年4月)の追加建築,2023年JIA25年賞 登録作品","prefecture":"長野","contractor":"熊谷組・東信建設共同企業体","structural_designer":"","landscape_designer":"","shinkenchiku_url":""},{"id":13489,"title":"コングレガシオン・ド・ノートルダム仙水町修道院","architect":"洋建築計画事務所","year":1995.0,"address":"福岡県北九州市戸畑区仙水町5-2","latitude":33.88801193237305,"longitude":130.84054565429688,"category":"教会","big_category":"宗教","description":"","image_url":"","tags":"Ver5.30(2024年4月)の追加建築,2023年JIA25年賞 登録作品","prefecture":"福岡","contractor":"大同建設","structural_designer":"","landscape_designer":"","shinkenchiku_url":""},{"id":13490,"title":"五島列島製麺所","architect":"石飛亮","year":2022.0,"address":"長崎県五島市富江町職人304-9","latitude":32.60997009277344,"longitude":128.77182006835938,"category":"レストラン","big_category":"商業施設","description":"","image_url":"","tags":"Ver5.30(2024年4月)の追加建築","prefecture":"長崎","contractor":"芳野建設","structural_designer":"","landscape_designer":"","shinkenchiku_url":""},{"id":13491,"title":"五島つばき蒸溜所","architect":"石飛亮","year":2023.0,"address":"長崎県五島市戸岐町1223-5","latitude":32.776084899902344,"longitude":128.80340576171875,"category":"醸造所","big_category":"商業施設","description":"","image_url":"","tags":"Ver5.30(2024年4月)の追加建築,新建築2024年7月号","prefecture":"長崎","contractor":"小田大工","structural_designer":"IN-STRUCT","landscape_designer":"","shinkenchiku_url":""},{"id":13492,"title":"椿茶屋","architect":"石飛亮","year":2019.0,"address":"長崎県五島市浜町1247","latitude":32.652915954589844,"longitude":128.79713439941406,"category":"カフェ","big_category":"商業施設","description":"","image_url":"","tags":"Ver5.30(2024年4月)の追加建築","prefecture":"長崎","contractor":"松岡建設","structural_designer":"","landscape_designer":"","shinkenchiku_url":""},{"id":13493,"title":"LIGHT UP COFFEE 三鷹","architect":"山本稜","year":2023.0,"address":"東京都三鷹市新川6-36-27","latitude":35.68356704711914,"longitude":139.5611114501953,"category":"カフェ","big_category":"商業施設","description":"","image_url":"","tags":"Ver5.30(2024年4月)の追加建築","prefecture":"東京","contractor":"Souta Yoriki","structural_designer":"","landscape_designer":"","shinkenchiku_url":""},{"id":13494,"title":"東陽町ぐりんたす 旧竹中工務店技術研究所","architect":"竹中工務店","year":1969.0,"address":"東京都江東区南砂2-5-14","latitude":35.670249938964844,"longitude":139.81993103027344,"category":"シェアオフィス","big_category":"商業施設","description":"","image_url":"","tags":"Ver5.30(2024年4月)の追加建築","prefecture":"東京","contractor":"","structural_designer":"","landscape_designer":"","shinkenchiku_url":""},{"id":13495,"title":"はとむぎの杜 東生駒店","architect":"藤岡大典","year":2023.0,"address":"奈良県生駒市東生駒1-522","latitude":34.686256408691406,"longitude":135.71630859375,"category":"店舗/カフェ","big_category":"商業施設,商業施設","description":"","image_url":"","tags":"Ver5.30(2024年4月)の追加建築","prefecture":"奈良","contractor":"","structural_designer":"","landscape_designer":"","shinkenchiku_url":""},{"id":13496,"title":"nottuo本社","architect":"藤岡大典","year":2020.0,"address":"岡山県英田郡西粟倉村知社197-1","latitude":35.15868377685547,"longitude":134.3166046142578,"category":"低層オフィス/古民家/店舗","big_category":"企業施設,近代建築/遺産,商業施設","description":"","image_url":"","tags":"Ver5.30(2024年4月)の追加建築","prefecture":"岡山","contractor":"","structural_designer":"","landscape_designer":"","shinkenchiku_url":""},{"id":13497,"title":"nottuo studio","architect":"藤岡大典","year":2023.0,"address":"岡山県英田郡西粟倉村知社197-1","latitude":35.158695220947266,"longitude":134.31643676757812,"category":"低層オフィス/古民家","big_category":"企業施設,近代建築/遺産","description":"","image_url":"","tags":"Ver5.30(2024年4月)の追加建築","prefecture":"岡山","contractor":"","structural_designer":"","landscape_designer":"","shinkenchiku_url":""},{"id":13498,"title":"小松組コンテナプロジェクト 安全第一 客室","architect":"藤岡大典","year":2023.0,"address":"岡山県英田郡西粟倉村長尾2114-1","latitude":35.17179489135742,"longitude":134.3502655029297,"category":"コテージ","big_category":"宿泊","description":"リサイクルコンテナをリノベーションしてホテル、公園、団地等。近隣に公園、団地がある","image_url":"","tags":"Ver5.30(2024年4月)の追加建築","prefecture":"岡山","contractor":"","structural_designer":"","landscape_designer":"","shinkenchiku_url":""},{"id":13499,"title":"福田山全久寺","architect":"梶田建築設計事務所","year":1973.0,"address":"愛知県名古屋市天白区植田1-407","latitude":35.1310920715332,"longitude":136.98509216308594,"category":"寺院","big_category":"宗教","description":"","image_url":"","tags":"Ver5.40(2024年7月)の追加建築","prefecture":"愛知","contractor":"","structural_designer":"","landscape_designer":"","shinkenchiku_url":""},{"id":13500,"title":"大阪大学 箕面キャンパス 外国学研究講義棟","architect":"日建設計","year":2020.0,"address":"大阪府箕面市船場東3-5-10","latitude":34.822879791259766,"longitude":135.49148559570312,"category":"大学","big_category":"教育","description":"","image_url":"","tags":"新建築2024年5月号,Ver5.40(2024年7月)の追加建築","prefecture":"大阪","contractor":"清水建設","structural_designer":"","landscape_designer":"","shinkenchiku_url":""}]}