{"page":26,"total_pages":290,"items_per_page":50,"total_items":14467,"items":[{"id":1251,"title":"相模原市立博物館","architect":"建築研究所アーキヴィジョン","year":1995.0,"address":"神奈川県相模原市中央区高根3-1-15","latitude":35.559326171875,"longitude":139.39306640625,"category":"博物館","big_category":"ミュージアム","description":"","image_url":"","tags":"","prefecture":"神奈川","contractor":"","structural_designer":"","landscape_designer":"","shinkenchiku_url":""},{"id":1252,"title":"相模川ふれあい科学館 アクアリウムさがみはら","architect":"仙田満","year":1987.0,"address":"神奈川県相模原市中央区水郷田名1-5-1","latitude":35.54734802246094,"longitude":139.32894897460938,"category":"博物館","big_category":"ミュージアム","description":"","image_url":"","tags":"2014年JIA25年賞","prefecture":"神奈川","contractor":"","structural_designer":"","landscape_designer":"","shinkenchiku_url":""},{"id":1253,"title":"北里大学 相模原キャンパス ／ 女子寮","architect":"大谷幸夫","year":1968.0,"address":"神奈川県相模原市南区北里1-15-1","latitude":35.5384407043457,"longitude":139.39491271972656,"category":"大学/寮","big_category":"教育,住宅","description":"","image_url":"","tags":"","prefecture":"神奈川","contractor":"","structural_designer":"","landscape_designer":"","shinkenchiku_url":""},{"id":1254,"title":"相模女子大学","architect":"香山壽夫","year":1965.0,"address":"神奈川県相模原市南区文京2-1-1","latitude":35.53313446044922,"longitude":139.42738342285156,"category":"大学","big_category":"教育","description":"","image_url":"","tags":"","prefecture":"神奈川","contractor":"","structural_designer":"","landscape_designer":"","shinkenchiku_url":""},{"id":1255,"title":"相模女子大学100周年記念館 マーガレットホール","architect":"日本設計","year":2002.0,"address":"神奈川県相模原市南区文京2-1-1","latitude":35.532588958740234,"longitude":139.42752075195312,"category":"大学","big_category":"教育","description":"","image_url":"","tags":"2004年日本建築学会 作品選奨,新建築2002年4月号","prefecture":"神奈川","contractor":"","structural_designer":"","landscape_designer":"","shinkenchiku_url":""},{"id":1256,"title":"人間国宝美術館","architect":"不明","year":null,"address":"神奈川県足柄下郡湯河原町中央3-16-1","latitude":35.153133392333984,"longitude":139.11068725585938,"category":"美術館","big_category":"ミュージアム","description":"","image_url":"","tags":"","prefecture":"神奈川","contractor":"","structural_designer":"","landscape_designer":"","shinkenchiku_url":""},{"id":1257,"title":"湯河原ギャラリーU ギャラリー上田","architect":"伊東豊雄","year":1991.0,"address":"神奈川県湯河原町宮上773-109","latitude":35.15252685546875,"longitude":139.07391357421875,"category":"ギャラリー","big_category":"ミュージアム","description":"閉鎖？売りに出されている模様","image_url":"","tags":"","prefecture":"神奈川","contractor":"","structural_designer":"","landscape_designer":"","shinkenchiku_url":""},{"id":1258,"title":"湘南台文化センター","architect":"長谷川逸子","year":1990.0,"address":"神奈川県藤沢市湘南台1-8","latitude":35.39806365966797,"longitude":139.46961975097656,"category":"博物館","big_category":"ミュージアム","description":"","image_url":"https://farm8.staticflickr.com/7352/14045581942_4071915939_h.jpg","tags":"","prefecture":"神奈川","contractor":"","structural_designer":"","landscape_designer":"","shinkenchiku_url":""},{"id":1259,"title":"グリーンハウス 旧藤澤カントリー倶楽部クラブハウス","architect":"アントニン・レーモンド","year":1932.0,"address":"神奈川県藤沢市善行7-1-2","latitude":35.35981369018555,"longitude":139.47560119628906,"category":"クラブハウス/洋館/レストラン","big_category":"レジャー施設,近代建築/遺産,商業施設","description":"","image_url":"https://lh3.googleusercontent.com/-HZ-rXx_hYf0/U1cmu1q7rFI/AAAAAAABM2g/HCb79PWjoF8/s1280/lr.jpg","tags":"","prefecture":"神奈川","contractor":"","structural_designer":"","landscape_designer":"","shinkenchiku_url":""},{"id":1260,"title":"旧近藤邸","architect":"遠藤新","year":1925.0,"address":"神奈川県藤沢市鵠沼東8-1 ","latitude":35.33330154418945,"longitude":139.49012756347656,"category":"住宅","big_category":"住宅","description":"","image_url":"https://farm4.staticflickr.com/3672/13724216635_0b9c99304f_h.jpg","tags":"DOCOMOMO","prefecture":"神奈川","contractor":"","structural_designer":"","landscape_designer":"","shinkenchiku_url":""},{"id":1261,"title":"藤沢市秋葉台文化体育館","architect":"槇文彦","year":1984.0,"address":"神奈川県藤沢市遠藤2000-1","latitude":35.38920593261719,"longitude":139.44422912597656,"category":"体育館","big_category":"レジャー施設","description":"","image_url":"https://farm3.staticflickr.com/2925/13948033781_9328bbb85a_h.jpg","tags":"1984年日本建築学会 作品賞","prefecture":"神奈川","contractor":"","structural_designer":"","landscape_designer":"","shinkenchiku_url":""},{"id":1262,"title":"慶應義塾大学 湘南藤沢キャンパス","architect":"槇文彦","year":1990.0,"address":"神奈川県藤沢市遠藤5322","latitude":35.388275146484375,"longitude":139.42735290527344,"category":"大学","big_category":"教育","description":"","image_url":"","tags":"2016年JIA25年賞 受賞作品,新建築1992年8月号","prefecture":"神奈川","contractor":"","structural_designer":"","landscape_designer":"","shinkenchiku_url":""},{"id":1263,"title":"多摩大学 グローバルスタディーズ学部新学舎","architect":"設計組織ADH","year":2007.0,"address":"神奈川県藤沢市円行802","latitude":35.38720703125,"longitude":139.46168518066406,"category":"大学","big_category":"教育","description":"","image_url":"","tags":"新建築2007年9月号","prefecture":"神奈川","contractor":"","structural_designer":"","landscape_designer":"","shinkenchiku_url":""},{"id":1264,"title":"慶應義塾 湘南藤沢中等部・高等部","architect":"谷口吉生","year":1992.0,"address":"神奈川県藤沢市遠藤5466","latitude":35.386322021484375,"longitude":139.42576599121094,"category":"学校","big_category":"教育","description":"","image_url":"","tags":"新建築1992年8月号","prefecture":"神奈川","contractor":"","structural_designer":"","landscape_designer":"","shinkenchiku_url":""},{"id":1265,"title":"旧モーガン邸","architect":"ジェイ・ヒル・モーガン","year":1931.0,"address":"神奈川県藤沢市大鋸1122","latitude":35.35675048828125,"longitude":139.49533081054688,"category":"洋館","big_category":"近代建築/遺産","description":"毎月8日のみ","image_url":"","tags":"","prefecture":"神奈川","contractor":"","structural_designer":"","landscape_designer":"","shinkenchiku_url":""},{"id":1266,"title":"まちの保育園 キディ湘南C/X","architect":"谷尻誠","year":2011.0,"address":"神奈川県藤沢市辻堂神台1-3-39","latitude":35.33977127075195,"longitude":139.44776916503906,"category":"幼稚園","big_category":"教育","description":"","image_url":"","tags":"","prefecture":"神奈川","contractor":"","structural_designer":"","landscape_designer":"","shinkenchiku_url":""},{"id":1267,"title":"アサヒビール神奈川工場","architect":"安藤忠雄","year":2002.0,"address":"神奈川県南足柄市怒田1223","latitude":35.33497619628906,"longitude":139.0920867919922,"category":"工場/醸造所","big_category":"企業施設,商業施設","description":"","image_url":"","tags":"","prefecture":"神奈川","contractor":"","structural_designer":"","landscape_designer":"","shinkenchiku_url":""},{"id":1268,"title":"箱根菜の花展示室","architect":"やまほん設計室","year":2011.0,"address":"神奈川県足柄下郡箱根町湯本351-2","latitude":35.23115539550781,"longitude":139.1083221435547,"category":"ギャラリー","big_category":"ミュージアム","description":"","image_url":"","tags":"","prefecture":"神奈川","contractor":"","structural_designer":"","landscape_designer":"","shinkenchiku_url":""},{"id":1269,"title":"ザ・プリンス箱根","architect":"村野藤吾","year":1978.0,"address":"神奈川県足柄下郡箱根町元箱根141","latitude":35.21317672729492,"longitude":139.01068115234375,"category":"ホテル","big_category":"宿泊","description":"","image_url":"","tags":"2010年JIA25年賞","prefecture":"神奈川","contractor":"","structural_designer":"","landscape_designer":"","shinkenchiku_url":""},{"id":1270,"title":"ザ・プリンス箱根 レイクサイドアネックス","architect":"清家清","year":1986.0,"address":"神奈川県足柄下郡箱根町元箱根139","latitude":35.209510803222656,"longitude":139.01315307617188,"category":"ホテル","big_category":"宿泊","description":"","image_url":"","tags":"","prefecture":"神奈川","contractor":"","structural_designer":"","landscape_designer":"","shinkenchiku_url":""},{"id":1271,"title":"成川美術館","architect":"今里隆","year":1988.0,"address":"神奈川県足柄下郡箱根町元箱根570","latitude":35.20004653930664,"longitude":139.03114318847656,"category":"美術館","big_category":"ミュージアム","description":"","image_url":"","tags":"","prefecture":"神奈川","contractor":"","structural_designer":"","landscape_designer":"","shinkenchiku_url":""},{"id":1272,"title":"フォーラム・ナヴァリス 箱根ホテル","architect":"堀池秀人","year":1992.0,"address":"神奈川県足柄下郡箱根町箱根65","latitude":35.190711975097656,"longitude":139.02601623535156,"category":"ホテル","big_category":"宿泊","description":"","image_url":"https://farm6.staticflickr.com/5576/14012841598_4d4afe92bd_h.jpg","tags":"","prefecture":"神奈川","contractor":"","structural_designer":"","landscape_designer":"","shinkenchiku_url":""},{"id":1273,"title":"箱根駅伝ミュージアム 旧シュミットハウス","architect":"堀池秀人","year":1986.0,"address":"神奈川県足柄下郡箱根町箱根167","latitude":35.189422607421875,"longitude":139.02481079101562,"category":"博物館","big_category":"ミュージアム","description":"","image_url":"https://farm3.staticflickr.com/2921/14012803949_f6c105d921_h.jpg","tags":"","prefecture":"神奈川","contractor":"","structural_designer":"","landscape_designer":"","shinkenchiku_url":""},{"id":1274,"title":"強羅花壇","architect":"竹山聖","year":1989.0,"address":"神奈川県足柄下郡箱根町強羅1300","latitude":35.247291564941406,"longitude":139.0444793701172,"category":"旅館","big_category":"宿泊","description":"","image_url":"","tags":"2015年JIA25年賞 登録作品","prefecture":"神奈川","contractor":"","structural_designer":"","landscape_designer":"","shinkenchiku_url":""},{"id":1275,"title":"NEST INN HAKONE 俵石閣別館","architect":"渡辺明","year":1996.0,"address":"神奈川県足柄下郡箱根町仙石原1290","latitude":35.266387939453125,"longitude":139.02548217773438,"category":"旅館","big_category":"宿泊","description":"2016年にNEST INN HAKONEとして改修","image_url":"","tags":"","prefecture":"神奈川","contractor":"","structural_designer":"","landscape_designer":"","shinkenchiku_url":""},{"id":1276,"title":"箱根ホテル小涌園","architect":"吉村順三","year":1959.0,"address":"神奈川県足柄下郡箱根町二ノ平1297","latitude":35.238887786865234,"longitude":139.04739379882812,"category":"ホテル","big_category":"宿泊","description":"2018年1月に営業終了の報道。建築がどうなるか等は不明。","image_url":"","tags":"","prefecture":"神奈川","contractor":"","structural_designer":"","landscape_designer":"","shinkenchiku_url":""},{"id":1277,"title":"旧箱根樹木園休息所","architect":"村野藤吾","year":1971.0,"address":"神奈川県足柄下郡箱根町元箱根139","latitude":35.222259521484375,"longitude":139.0001220703125,"category":"公園","big_category":"レジャー施設","description":"建築は現存も閉鎖中。外観は見学可能","image_url":"","tags":"","prefecture":"神奈川","contractor":"","structural_designer":"","landscape_designer":"","shinkenchiku_url":""},{"id":1278,"title":"ポーラ美術館","architect":"日建設計","year":2002.0,"address":"神奈川県足柄下郡箱根町仙石原 ポーラ美術館","latitude":35.256683349609375,"longitude":139.0211944580078,"category":"美術館","big_category":"ミュージアム","description":"","image_url":"","tags":"2004年日本建築学会 作品賞,2003年村野藤吾賞,2004年日本建築学会 作品選奨","prefecture":"神奈川","contractor":"","structural_designer":"","landscape_designer":"","shinkenchiku_url":""},{"id":1279,"title":"箱根彫刻の森美術館","architect":"井上武吉","year":1969.0,"address":"神奈川県足柄下郡箱根町二ノ平1121","latitude":35.24443054199219,"longitude":139.05039978027344,"category":"美術館","big_category":"ミュージアム","description":"","image_url":"https://lh3.googleusercontent.com/-3GsX0CraoFI/T135Jfx9E9I/AAAAAAAAJV4/Il3T4pqhDLI/s1024/P3116208.JPG","tags":"","prefecture":"神奈川","contractor":"","structural_designer":"","landscape_designer":"","shinkenchiku_url":""},{"id":1280,"title":"東海大学 湘南キャンパス","architect":"山田守","year":1962.0,"address":"神奈川県平塚市北金目4-1-1","latitude":35.360843658447266,"longitude":139.27252197265625,"category":"大学","big_category":"教育","description":"","image_url":"","tags":"DOCOMOMO","prefecture":"神奈川","contractor":"","structural_designer":"","landscape_designer":"","shinkenchiku_url":""},{"id":1281,"title":"花菜ガーデン 花と緑のふれあいセンター","architect":"栗生明","year":2010.0,"address":"神奈川県平塚市寺田縄496-1","latitude":35.35848617553711,"longitude":139.31219482421875,"category":"体験施設","big_category":"レジャー施設","description":"","image_url":"","tags":"","prefecture":"神奈川","contractor":"","structural_designer":"","landscape_designer":"","shinkenchiku_url":""},{"id":1282,"title":"平塚市美術館","architect":"日建設計","year":1991.0,"address":"神奈川県平塚市西八幡1-3-3","latitude":35.338375091552734,"longitude":139.3477325439453,"category":"美術館","big_category":"ミュージアム","description":"","image_url":"","tags":"","prefecture":"神奈川","contractor":"","structural_designer":"","landscape_designer":"","shinkenchiku_url":""},{"id":1283,"title":"神奈川県立近代美術館 葉山","architect":"佐藤総合計画","year":2003.0,"address":"神奈川県三浦郡葉山町一色2208-1","latitude":35.26496887207031,"longitude":139.57687377929688,"category":"美術館","big_category":"ミュージアム","description":"","image_url":"","tags":"","prefecture":"神奈川","contractor":"","structural_designer":"","landscape_designer":"","shinkenchiku_url":""},{"id":1284,"title":"山口蓬春記念館","architect":"吉田五十八+大江匡","year":1954.0,"address":"神奈川県三浦郡葉山町一色2320","latitude":35.26646041870117,"longitude":139.57586669921875,"category":"住宅/博物館","big_category":"住宅,ミュージアム","description":"吉田五十八改修、増築の住宅。その後大江匡が博物館に改修。","image_url":"","tags":"","prefecture":"神奈川","contractor":"","structural_designer":"","landscape_designer":"","shinkenchiku_url":""},{"id":1285,"title":"レクトーレ葉山 湘南国際村 旧IPC生産性国際交流センター","architect":"シーザー・ペリ","year":1996.0,"address":"神奈川県三浦郡葉山町上山口1560-38","latitude":35.25859832763672,"longitude":139.607666015625,"category":"ホテル/研修施設","big_category":"宿泊,教育","description":"","image_url":"","tags":"","prefecture":"神奈川","contractor":"","structural_designer":"","landscape_designer":"","shinkenchiku_url":""},{"id":1286,"title":"シャトー・メルシャン ワインミュージアムエリア","architect":"木下道郎","year":2010.0,"address":"山梨県甲州市勝沼町下岩崎1106-1","latitude":35.659202575683594,"longitude":138.72323608398438,"category":"企業施設/博物館/カフェ","big_category":"企業施設,ミュージアム,商業施設","description":"","image_url":"https://farm3.staticflickr.com/2859/13595554894_7e681fdcdc_h.jpg","tags":"","prefecture":"山梨","contractor":"","structural_designer":"","landscape_designer":"","shinkenchiku_url":""},{"id":1287,"title":"竜王駅","architect":"安藤忠雄","year":2008.0,"address":"山梨県甲斐市竜王新町419-4","latitude":35.668724060058594,"longitude":138.5197296142578,"category":"駅","big_category":"インフラ","description":"","image_url":"https://lh3.googleusercontent.com/-Gt1ZaKdgtPE/T8IAgv62tNI/AAAAAAAAOEI/ZBfFRAs4bTw/s1024/P5251289.jpg","tags":"","prefecture":"山梨","contractor":"","structural_designer":"","landscape_designer":"","shinkenchiku_url":""},{"id":1288,"title":"山梨県立科学館","architect":"仙田満","year":1998.0,"address":"山梨県甲府市愛宕町358-1","latitude":35.66953659057617,"longitude":138.5802001953125,"category":"博物館","big_category":"ミュージアム","description":"","image_url":"","tags":"","prefecture":"山梨","contractor":"","structural_designer":"","landscape_designer":"","shinkenchiku_url":""},{"id":1289,"title":"甲府市藤村記念館","architect":"藤村紫朗","year":1875.0,"address":"山梨県甲府市北口2-2-1","latitude":35.667877197265625,"longitude":138.57009887695312,"category":"博物館","big_category":"ミュージアム","description":"","image_url":"","tags":"","prefecture":"山梨","contractor":"","structural_designer":"","landscape_designer":"","shinkenchiku_url":""},{"id":1290,"title":"小瀬スポーツ公園 アイスアリーナ","architect":"松田平田設計","year":2000.0,"address":"山梨県甲府市小瀬町840","latitude":35.62127685546875,"longitude":138.5882568359375,"category":"スポーツ施設/体育館","big_category":"レジャー施設,レジャー施設","description":"","image_url":"","tags":"2002年日本建築学会 作品選奨","prefecture":"山梨","contractor":"","structural_designer":"","landscape_designer":"","shinkenchiku_url":""},{"id":1291,"title":"山梨県立産業展示交流館 アイメッセ山梨","architect":"大宇根弘司","year":1995.0,"address":"山梨県甲府市大津町2192-8","latitude":35.602294921875,"longitude":138.56529235839844,"category":"展示・会議場","big_category":"公共施設","description":"","image_url":"","tags":"","prefecture":"山梨","contractor":"","structural_designer":"","landscape_designer":"","shinkenchiku_url":""},{"id":1292,"title":"山梨県立図書館","architect":"三宅勝志","year":2012.0,"address":"山梨県甲府市北口2-8-1","latitude":35.668800354003906,"longitude":138.57025146484375,"category":"図書館","big_category":"文化施設","description":"","image_url":"https://lh3.googleusercontent.com/-IU3OwJ8E3pc/UabUBDWQuHI/AAAAAAAA9Qo/f8YDHvSLyv0/s1152/lr-5240571.jpg","tags":"","prefecture":"山梨","contractor":"","structural_designer":"","landscape_designer":"","shinkenchiku_url":""},{"id":1293,"title":"アリア・ディ・フィレンツェ","architect":"北川原温","year":1994.0,"address":"山梨県甲府市川田町アリア-205","latitude":35.64915466308594,"longitude":138.62461853027344,"category":"企業施設","big_category":"企業施設","description":"","image_url":"https://farm6.staticflickr.com/5346/8900462054_afb9eb6378_h.jpg","tags":"","prefecture":"山梨","contractor":"","structural_designer":"","landscape_designer":"","shinkenchiku_url":""},{"id":1294,"title":"山梨文化会館","architect":"丹下健三","year":1966.0,"address":"山梨県甲府市北口2-6-10","latitude":35.66835403442383,"longitude":138.57098388671875,"category":"オフィスビル/企業施設","big_category":"企業施設,企業施設","description":"","image_url":"https://farm4.staticflickr.com/3685/8946102571_d0b3c6e08e_h.jpg","tags":"DOCOMOMO","prefecture":"山梨","contractor":"","structural_designer":"","landscape_designer":"","shinkenchiku_url":""},{"id":1295,"title":"山梨県立美術館","architect":"前川國男","year":1978.0,"address":"山梨県甲府市貢川1-4-27","latitude":35.66057586669922,"longitude":138.53746032714844,"category":"美術館","big_category":"ミュージアム","description":"","image_url":"https://lh3.googleusercontent.com/-EHY4F6C-oU4/UabUHR2pXrI/AAAAAAAA9Ro/50oIXeDP0Kw/s1024/lr-5240631.jpg","tags":"公共建築百選","prefecture":"山梨","contractor":"","structural_designer":"","landscape_designer":"","shinkenchiku_url":""},{"id":1296,"title":"山梨県立文学館","architect":"大宇根弘司","year":1989.0,"address":"山梨県甲府市貢川1-5-35","latitude":35.66013717651367,"longitude":138.5393829345703,"category":"博物館","big_category":"ミュージアム","description":"","image_url":"https://lh3.googleusercontent.com/-Uc19jlm6sHc/UabUIOEYVVI/AAAAAAAA9Rw/qq-dHdmJ2dM/s1152/lr-5240632.jpg","tags":"","prefecture":"山梨","contractor":"","structural_designer":"","landscape_designer":"","shinkenchiku_url":""},{"id":1297,"title":"山中湖文学の森","architect":"大宇根弘司","year":1998.0,"address":"山梨県南都留郡山中湖村平野506-296","latitude":35.405513763427734,"longitude":138.8806610107422,"category":"美術館","big_category":"ミュージアム","description":"","image_url":"","tags":"","prefecture":"山梨","contractor":"","structural_designer":"","landscape_designer":"","shinkenchiku_url":""},{"id":1298,"title":"山梨市庁舎","architect":"梓設計","year":2008.0,"address":"山梨県山梨市小原西843","latitude":35.69334030151367,"longitude":138.68734741210938,"category":"庁舎","big_category":"公共施設","description":"","image_url":"","tags":"","prefecture":"山梨","contractor":"","structural_designer":"","landscape_designer":"","shinkenchiku_url":""},{"id":1299,"title":"保健農園ホテル フフ山梨 旧牧丘芸術の丘 オーチャードヴィレッジ・フフ","architect":"象設計集団","year":1992.0,"address":"山梨県山梨市牧丘町倉科7190","latitude":35.75836944580078,"longitude":138.6858673095703,"category":"ホテル","big_category":"宿泊","description":"2013年4月より再開","image_url":"https://farm8.staticflickr.com/7161/13581157603_1e70423efc_h.jpg","tags":"","prefecture":"山梨","contractor":"","structural_designer":"","landscape_designer":"","shinkenchiku_url":""},{"id":1300,"title":"山梨フルーツミュージアム","architect":"長谷川逸子","year":1997.0,"address":"山梨県山梨市江曽原1488","latitude":35.70207595825195,"longitude":138.66561889648438,"category":"博物館","big_category":"ミュージアム","description":"","image_url":"https://farm6.staticflickr.com/5008/13621446054_6032e43863_h.jpg","tags":"","prefecture":"山梨","contractor":"","structural_designer":"","landscape_designer":"","shinkenchiku_url":""}]}