{"page":24,"total_pages":290,"items_per_page":50,"total_items":14467,"items":[{"id":1151,"title":"大倉山の集合住宅","architect":"SANAA","year":2008.0,"address":"神奈川県横浜市港北区大倉山3-5-11","latitude":35.520992279052734,"longitude":139.6294708251953,"category":"集合住宅","big_category":"住宅","description":"","image_url":"","tags":"","prefecture":"神奈川","contractor":"","structural_designer":"","landscape_designer":"","shinkenchiku_url":""},{"id":1152,"title":"本郷台キリスト教会チャーチスクール・保育園","architect":"保坂猛","year":2010.0,"address":"神奈川県横浜市栄区飯島町2441-10","latitude":35.37198257446289,"longitude":139.54205322265625,"category":"幼稚園","big_category":"教育","description":"","image_url":"","tags":"","prefecture":"神奈川","contractor":"","structural_designer":"","landscape_designer":"","shinkenchiku_url":""},{"id":1153,"title":"横浜市立大学 交流プラザ いちょうの館","architect":"飯田善彦","year":2004.0,"address":"神奈川県横浜市金沢区瀬戸22-2","latitude":35.33381271362305,"longitude":139.61920166015625,"category":"大学","big_category":"教育","description":"","image_url":"","tags":"","prefecture":"神奈川","contractor":"","structural_designer":"","landscape_designer":"","shinkenchiku_url":""},{"id":1154,"title":"旧伊藤博文金沢別邸","architect":"不明","year":1889.0,"address":"神奈川県横浜市金沢区乙舳町17","latitude":35.32989501953125,"longitude":139.6343994140625,"category":"古民家","big_category":"近代建築/遺産","description":"","image_url":"","tags":"","prefecture":"神奈川","contractor":"","structural_designer":"","landscape_designer":"","shinkenchiku_url":""},{"id":1155,"title":"たまプラーザテラス","architect":"東急設計","year":2010.0,"address":"神奈川県横浜市青葉区美しが丘1-1-2","latitude":35.577537536621094,"longitude":139.55914306640625,"category":"モール","big_category":"商業施設","description":"","image_url":"","tags":"","prefecture":"神奈川","contractor":"","structural_designer":"","landscape_designer":"","shinkenchiku_url":""},{"id":1156,"title":"桐蔭学園女子部中学校・高等学校","architect":"丹下健三","year":1986.0,"address":"神奈川県横浜市青葉区鉄町1614","latitude":35.56681823730469,"longitude":139.52137756347656,"category":"学校","big_category":"教育","description":"","image_url":"","tags":"","prefecture":"神奈川","contractor":"","structural_designer":"","landscape_designer":"","shinkenchiku_url":""},{"id":1157,"title":"アートフォーラムあざみ野","architect":"梓設計","year":2005.0,"address":"神奈川県横浜市青葉区あざみ野南1-17-3","latitude":35.56494903564453,"longitude":139.553955078125,"category":"美術館","big_category":"ミュージアム","description":"","image_url":"","tags":"","prefecture":"神奈川","contractor":"","structural_designer":"","landscape_designer":"","shinkenchiku_url":""},{"id":1158,"title":"桐蔭学園 メモリアルアカデミウム","architect":"栗生明","year":2002.0,"address":"神奈川県横浜市青葉区鉄町1614","latitude":35.56490707397461,"longitude":139.5191192626953,"category":"学校","big_category":"教育","description":"毎週金土 10:00～17:00","image_url":"","tags":"","prefecture":"神奈川","contractor":"","structural_designer":"","landscape_designer":"","shinkenchiku_url":""},{"id":1159,"title":"有田陶芸倶楽部","architect":"シーラカンスK&H","year":2000.0,"address":"神奈川県横浜市青葉区荏田北3-1-19","latitude":0.0,"longitude":0.0,"category":"博物館","big_category":"ミュージアム","description":"2012年に閉店、フォルクスワーゲンあざみ野に建替","image_url":"","tags":"","prefecture":"神奈川","contractor":"","structural_designer":"","landscape_designer":"","shinkenchiku_url":""},{"id":1160,"title":"The Terrace FRESCO","architect":"横河健","year":2002.0,"address":"神奈川県横浜市都筑区仲町台1-33-31","latitude":35.53725051879883,"longitude":139.59014892578125,"category":"カフェ/店舗/低層オフィス","big_category":"商業施設,商業施設,企業施設","description":"横河健の事務所、インテリアショップ、イタリアンレストラン等","image_url":"","tags":"","prefecture":"神奈川","contractor":"","structural_designer":"","landscape_designer":"","shinkenchiku_url":""},{"id":1161,"title":"大倉山記念館","architect":"長野宇平治","year":1932.0,"address":"神奈川県横浜市港北区大倉山2-10-1","latitude":35.52457809448242,"longitude":139.62786865234375,"category":"博物館","big_category":"ミュージアム","description":"","image_url":"","tags":"","prefecture":"神奈川","contractor":"","structural_designer":"","landscape_designer":"","shinkenchiku_url":""},{"id":1162,"title":"MINA GARDEN 十日市場 Aエリア","architect":"飯田善彦","year":2012.0,"address":"神奈川県横浜市緑区十日市場町839-7","latitude":35.522972106933594,"longitude":139.51602172851562,"category":"集合住宅","big_category":"住宅","description":"","image_url":"","tags":"","prefecture":"神奈川","contractor":"","structural_designer":"","landscape_designer":"","shinkenchiku_url":""},{"id":1163,"title":"MINA GARDEN 十日市場 Bエリア","architect":"横河健","year":2012.0,"address":"神奈川県横浜市緑区十日市場町839-9","latitude":35.5228157043457,"longitude":139.51551818847656,"category":"集合住宅","big_category":"住宅","description":"","image_url":"","tags":"","prefecture":"神奈川","contractor":"","structural_designer":"","landscape_designer":"","shinkenchiku_url":""},{"id":1164,"title":"MINA GARDEN 十日市場 Cエリア","architect":"小澤勝美","year":2012.0,"address":"神奈川県横浜市緑区十日市場町839-17","latitude":35.522579193115234,"longitude":139.5158233642578,"category":"集合住宅","big_category":"住宅","description":"","image_url":"","tags":"","prefecture":"神奈川","contractor":"","structural_designer":"","landscape_designer":"","shinkenchiku_url":""},{"id":1165,"title":"高野山真言宗 歓成院 大倉山観音会館","architect":"手塚建築研究所","year":2007.0,"address":"神奈川県横浜市港北区大倉山2-8","latitude":35.52396774291992,"longitude":139.62550354003906,"category":"寺院","big_category":"宗教","description":"","image_url":"","tags":"","prefecture":"神奈川","contractor":"","structural_designer":"","landscape_designer":"","shinkenchiku_url":""},{"id":1166,"title":"上星川教会","architect":"田川尚吾","year":2011.0,"address":"神奈川県横浜市保土ヶ谷区上星川2-19-2","latitude":35.46934509277344,"longitude":139.57948303222656,"category":"教会","big_category":"宗教","description":"","image_url":"","tags":"","prefecture":"神奈川","contractor":"","structural_designer":"","landscape_designer":"","shinkenchiku_url":""},{"id":1167,"title":"神奈川県立図書館 前川國男館・音楽堂","architect":"前川國男","year":1954.0,"address":"神奈川県横浜市西区紅葉ヶ丘9-2","latitude":35.452579498291016,"longitude":139.6261444091797,"category":"ホール・劇場/図書館","big_category":"文化施設,文化施設","description":"","image_url":"","tags":"1954年日本建築学会 作品賞,公共建築百選,DOCOMOMO,重要文化財","prefecture":"神奈川","contractor":"","structural_designer":"","landscape_designer":"","shinkenchiku_url":""},{"id":1168,"title":"馬車道駅","architect":"内藤廣","year":2003.0,"address":"神奈川県横浜市中区本町5-49","latitude":35.45047378540039,"longitude":139.6360626220703,"category":"駅","big_category":"インフラ","description":"","image_url":"","tags":"","prefecture":"神奈川","contractor":"","structural_designer":"","landscape_designer":"","shinkenchiku_url":""},{"id":1169,"title":"神奈川県立歴史博物館","architect":"妻木頼黄","year":1904.0,"address":"神奈川県横浜市中区南仲通5-60","latitude":35.449119567871094,"longitude":139.63624572753906,"category":"博物館/洋館","big_category":"ミュージアム,近代建築/遺産","description":"","image_url":"","tags":"","prefecture":"神奈川","contractor":"","structural_designer":"","landscape_designer":"","shinkenchiku_url":""},{"id":1170,"title":"元町・中華街駅","architect":"伊東豊雄","year":2003.0,"address":"神奈川県横浜市中区山下町87-3","latitude":35.44279861450195,"longitude":139.65037536621094,"category":"駅","big_category":"インフラ","description":"","image_url":"","tags":"","prefecture":"神奈川","contractor":"","structural_designer":"","landscape_designer":"","shinkenchiku_url":""},{"id":1171,"title":"相鉄文化会館 相鉄ギャラリー","architect":"原広司","year":1990.0,"address":"神奈川県横浜市泉区緑園4-3-28","latitude":35.44049072265625,"longitude":139.52442932128906,"category":"ギャラリー/ホール・劇場/企業施設","big_category":"ミュージアム,文化施設,企業施設","description":"","image_url":"","tags":"","prefecture":"神奈川","contractor":"","structural_designer":"","landscape_designer":"","shinkenchiku_url":""},{"id":1172,"title":"横浜地方気象台","architect":"安藤忠雄","year":2007.0,"address":"神奈川県横浜市中区山手町99","latitude":35.439945220947266,"longitude":139.65338134765625,"category":"公共施設","big_category":"公共施設","description":"","image_url":"","tags":"","prefecture":"神奈川","contractor":"","structural_designer":"","landscape_designer":"","shinkenchiku_url":""},{"id":1173,"title":"緑園都市 XYSTUS","architect":"山本理顕","year":1992.0,"address":"神奈川県横浜市泉区緑園4-1-6","latitude":35.43940353393555,"longitude":139.52359008789062,"category":"テナントビル/集合住宅","big_category":"商業施設,住宅","description":"","image_url":"","tags":"","prefecture":"神奈川","contractor":"","structural_designer":"","landscape_designer":"","shinkenchiku_url":""},{"id":1174,"title":"横浜市イギリス館","architect":"英国工務省","year":1926.0,"address":"神奈川県横浜市中区山手町115-3","latitude":35.43937301635742,"longitude":139.65431213378906,"category":"洋館","big_category":"近代建築/遺産","description":"","image_url":"","tags":"","prefecture":"神奈川","contractor":"","structural_designer":"","landscape_designer":"","shinkenchiku_url":""},{"id":1175,"title":"山手234番館","architect":"朝香吉蔵","year":1927.0,"address":"神奈川県横浜市中区山手町234-1","latitude":35.437679290771484,"longitude":139.65211486816406,"category":"洋館","big_category":"近代建築/遺産","description":"","image_url":"","tags":"","prefecture":"神奈川","contractor":"","structural_designer":"","landscape_designer":"","shinkenchiku_url":""},{"id":1176,"title":"外交官の家","architect":"ジェームズ・ガーディナー","year":1910.0,"address":"神奈川県横浜市中区山手町16","latitude":35.43669891357422,"longitude":139.64385986328125,"category":"洋館","big_category":"近代建築/遺産","description":"","image_url":"","tags":"","prefecture":"神奈川","contractor":"","structural_designer":"","landscape_designer":"","shinkenchiku_url":""},{"id":1177,"title":"ブラフ18番館","architect":"不明","year":null,"address":"神奈川県横浜市中区山手町16","latitude":35.436649322509766,"longitude":139.6433563232422,"category":"洋館","big_category":"近代建築/遺産","description":"","image_url":"","tags":"","prefecture":"神奈川","contractor":"","structural_designer":"","landscape_designer":"","shinkenchiku_url":""},{"id":1178,"title":"ベイサイドマリーナホテル横浜","architect":"吉村靖孝","year":2009.0,"address":"神奈川県横浜市金沢区白帆6-1","latitude":35.38262176513672,"longitude":139.64859008789062,"category":"ホテル","big_category":"宿泊","description":"閉館・取壊済","image_url":"","tags":"","prefecture":"神奈川","contractor":"","structural_designer":"","landscape_designer":"","shinkenchiku_url":""},{"id":1179,"title":"神奈川県立地球市民かながわプラザ あーすぷらざ","architect":"松本陽一","year":1997.0,"address":"神奈川県横浜市栄区小菅ヶ谷1-2-1","latitude":35.367671966552734,"longitude":139.553466796875,"category":"博物館/児童施設","big_category":"ミュージアム,教育","description":"","image_url":"","tags":"","prefecture":"神奈川","contractor":"","structural_designer":"","landscape_designer":"","shinkenchiku_url":""},{"id":1180,"title":"横浜動物の森公園ズーラシア サバンナテラス","architect":"山本理顕","year":2013.0,"address":"神奈川県横浜市旭区上白根町1175-1","latitude":35.4997444152832,"longitude":139.52151489257812,"category":"レストラン/動植物園","big_category":"商業施設,レジャー施設","description":"","image_url":"","tags":"","prefecture":"神奈川","contractor":"","structural_designer":"","landscape_designer":"","shinkenchiku_url":""},{"id":1181,"title":"桜台コートビレジ","architect":"内井昭蔵","year":1970.0,"address":"神奈川県横浜市青葉区桜台33-7","latitude":35.55172348022461,"longitude":139.51116943359375,"category":"集合住宅","big_category":"住宅","description":"","image_url":"","tags":"1970年日本建築学会 作品賞,DOCOMOMO","prefecture":"神奈川","contractor":"","structural_designer":"","landscape_designer":"","shinkenchiku_url":""},{"id":1182,"title":"子供の国 花びら休憩舎","architect":"黒川紀章","year":1965.0,"address":"神奈川県横浜市青葉区奈良町700","latitude":35.56205749511719,"longitude":139.48316955566406,"category":"児童施設","big_category":"教育","description":"セントラル・ロッジは既に取り壊し。他、イサム・ノグチの遊具など","image_url":"","tags":"","prefecture":"神奈川","contractor":"","structural_designer":"","landscape_designer":"","shinkenchiku_url":""},{"id":1183,"title":"横浜市仲町台地区センター","architect":"ワークステーション","year":1995.0,"address":"神奈川県横浜市都筑区仲町台2-7-2","latitude":35.535118103027344,"longitude":139.59153747558594,"category":"公民館・交流施設","big_category":"公共施設","description":"","image_url":"","tags":"","prefecture":"神奈川","contractor":"","structural_designer":"","landscape_designer":"","shinkenchiku_url":""},{"id":1184,"title":"日本圧着端子製造 東京技術センターB","architect":"岡部憲明","year":2009.0,"address":"神奈川県横浜市港北区樽町4-8-24","latitude":35.52867889404297,"longitude":139.64059448242188,"category":"企業施設","big_category":"企業施設","description":"","image_url":"","tags":"","prefecture":"神奈川","contractor":"","structural_designer":"","landscape_designer":"","shinkenchiku_url":""},{"id":1185,"title":"横浜新技術創造館","architect":"小澤勝美","year":2003.0,"address":"神奈川県横浜市鶴見区末広町1-1-40","latitude":35.4942626953125,"longitude":139.68185424804688,"category":"公共施設/研究施設","big_category":"公共施設,教育","description":"","image_url":"","tags":"","prefecture":"神奈川","contractor":"","structural_designer":"","landscape_designer":"","shinkenchiku_url":""},{"id":1186,"title":"マツダR&Dセンター横浜","architect":"石山修武","year":1990.0,"address":"神奈川県横浜市神奈川区守屋町2-5","latitude":35.48225021362305,"longitude":139.64898681640625,"category":"企業施設","big_category":"企業施設","description":"","image_url":"","tags":"","prefecture":"神奈川","contractor":"","structural_designer":"","landscape_designer":"","shinkenchiku_url":""},{"id":1187,"title":"日産自動車横浜工場ゲストホール","architect":"不明","year":1933.0,"address":"神奈川県横浜市神奈川区宝町2","latitude":35.48167419433594,"longitude":139.6619873046875,"category":"洋館","big_category":"近代建築/遺産","description":"","image_url":"","tags":"","prefecture":"神奈川","contractor":"","structural_designer":"","landscape_designer":"","shinkenchiku_url":""},{"id":1188,"title":"横浜国立大学 Y-GSA Power Plant Studio","architect":"SUEP.","year":2011.0,"address":"神奈川県横浜市保土ヶ谷区常盤台79","latitude":35.47412109375,"longitude":139.59381103515625,"category":"大学","big_category":"教育","description":"","image_url":"","tags":"","prefecture":"神奈川","contractor":"","structural_designer":"","landscape_designer":"","shinkenchiku_url":""},{"id":1189,"title":"横浜市旭区 市沢地区センター","architect":"飯田善彦","year":2001.0,"address":"神奈川県横浜市旭区市沢町9","latitude":35.46421813964844,"longitude":139.55796813964844,"category":"公民館・交流施設","big_category":"公共施設","description":"","image_url":"","tags":"","prefecture":"神奈川","contractor":"","structural_designer":"","landscape_designer":"","shinkenchiku_url":""},{"id":1190,"title":"みなとみらい線 新高島駅","architect":"山下昌彦","year":2003.0,"address":"神奈川県横浜市西区みなとみらい5-1-2-2","latitude":35.46164321899414,"longitude":139.6268310546875,"category":"駅","big_category":"インフラ","description":"","image_url":"","tags":"","prefecture":"神奈川","contractor":"","structural_designer":"","landscape_designer":"","shinkenchiku_url":""},{"id":1191,"title":"みなとみらい線 みなとみらい駅","architect":"早川邦彦","year":2003.0,"address":"神奈川県横浜市西区みなとみらい3-6-1","latitude":35.45756530761719,"longitude":139.63328552246094,"category":"駅","big_category":"インフラ","description":"","image_url":"","tags":"","prefecture":"神奈川","contractor":"","structural_designer":"","landscape_designer":"","shinkenchiku_url":""},{"id":1192,"title":"Archiship Library&cafe","architect":"飯田善彦","year":2012.0,"address":"神奈川県横浜市中区吉田町4-9","latitude":35.44590377807617,"longitude":139.63290405273438,"category":"カフェ","big_category":"商業施設","description":"アート・建築のカフェ","image_url":"","tags":"","prefecture":"神奈川","contractor":"","structural_designer":"","landscape_designer":"","shinkenchiku_url":""},{"id":1193,"title":"神奈川芸術劇場","architect":"香山壽夫+大野秀敏","year":2010.0,"address":"神奈川県横浜市中区山下町281","latitude":35.445472717285156,"longitude":139.64598083496094,"category":"ホール・劇場","big_category":"文化施設","description":"","image_url":"","tags":"","prefecture":"神奈川","contractor":"","structural_designer":"","landscape_designer":"","shinkenchiku_url":""},{"id":1194,"title":"横浜人形の家","architect":"坂倉建築研究所","year":1986.0,"address":"神奈川県横浜市中区山下町18","latitude":35.4432373046875,"longitude":139.65216064453125,"category":"博物館","big_category":"ミュージアム","description":"","image_url":"","tags":"公共建築百選,2013年JIA25年賞","prefecture":"神奈川","contractor":"","structural_designer":"","landscape_designer":"","shinkenchiku_url":""},{"id":1195,"title":"横浜市六ツ川地域ケアプラザ","architect":"SANAA","year":2000.0,"address":"神奈川県横浜市南区六ﾂ川2-3-211","latitude":35.420692443847656,"longitude":139.58328247070312,"category":"養護施設","big_category":"医療施設","description":"","image_url":"","tags":"","prefecture":"神奈川","contractor":"","structural_designer":"","landscape_designer":"","shinkenchiku_url":""},{"id":1196,"title":"八聖殿郷土資料館","architect":"不明","year":1933.0,"address":"神奈川県横浜市中区本牧元町76-1","latitude":35.41516876220703,"longitude":139.6648406982422,"category":"洋館","big_category":"近代建築/遺産","description":"","image_url":"","tags":"","prefecture":"神奈川","contractor":"","structural_designer":"","landscape_designer":"","shinkenchiku_url":""},{"id":1197,"title":"横浜市東永谷地区センター・地域ケアプラザ","architect":"伊東豊雄","year":1997.0,"address":"神奈川県横浜市港南区東永谷1-1-12","latitude":35.40621566772461,"longitude":139.5824432373047,"category":"総合文化施設","big_category":"文化施設","description":"","image_url":"","tags":"","prefecture":"神奈川","contractor":"","structural_designer":"","landscape_designer":"","shinkenchiku_url":""},{"id":1198,"title":"はまぎんこども宇宙科学館","architect":"仙田満","year":1984.0,"address":"神奈川県横浜市磯子区洋光台5-2-1","latitude":35.37704086303711,"longitude":139.594970703125,"category":"児童施設","big_category":"教育","description":"","image_url":"","tags":"","prefecture":"神奈川","contractor":"","structural_designer":"","landscape_designer":"","shinkenchiku_url":""},{"id":1199,"title":"上郷市民ふれあいの里 上郷・森の家","architect":"内井昭蔵","year":1992.0,"address":"神奈川県横浜市栄区上郷町1499-1","latitude":35.343849182128906,"longitude":139.58370971679688,"category":"ホテル","big_category":"宿泊","description":"","image_url":"","tags":"","prefecture":"神奈川","contractor":"","structural_designer":"","landscape_designer":"","shinkenchiku_url":""},{"id":1200,"title":"横浜港大さん橋国際客船ターミナル","architect":"FOA","year":2002.0,"address":"神奈川県横浜市中区海岸通1-1-4","latitude":35.448516845703125,"longitude":139.6448211669922,"category":"港","big_category":"インフラ","description":"","image_url":"https://farm3.staticflickr.com/2837/10839004934_8f400a5a33_h.jpg","tags":"","prefecture":"神奈川","contractor":"","structural_designer":"","landscape_designer":"","shinkenchiku_url":""}]}