{"page":55,"total_pages":290,"items_per_page":50,"total_items":14467,"items":[{"id":2701,"title":"今治市伊東豊雄建築ミュージアム","architect":"伊東豊雄","year":2011.0,"address":"愛媛県今治市大三島町浦戸2418","latitude":34.21391296386719,"longitude":132.9503936767578,"category":"美術館","big_category":"ミュージアム","description":"","image_url":"","tags":"","prefecture":"愛媛","contractor":"","structural_designer":"","landscape_designer":"","shinkenchiku_url":""},{"id":2702,"title":"ところミュージアム大三島","architect":"山本英明","year":2003.0,"address":"愛媛県今治市大三島町浦戸2362-3","latitude":34.215084075927734,"longitude":132.95196533203125,"category":"美術館","big_category":"ミュージアム","description":"","image_url":"","tags":"","prefecture":"愛媛","contractor":"","structural_designer":"","landscape_designer":"","shinkenchiku_url":""},{"id":2703,"title":"今治市公会堂","architect":"丹下健三","year":1958.0,"address":"愛媛県今治市別宮町1","latitude":34.06671905517578,"longitude":132.99783325195312,"category":"ホール・劇場","big_category":"文化施設","description":"","image_url":"","tags":"DOCOMOMO","prefecture":"愛媛","contractor":"","structural_designer":"","landscape_designer":"","shinkenchiku_url":""},{"id":2704,"title":"今治市岩田健母と子のミュージアム","architect":"伊東豊雄","year":2011.0,"address":"愛媛県今治市大三島町宗方5208-2","latitude":34.19449234008789,"longitude":132.9541015625,"category":"美術館","big_category":"ミュージアム","description":"","image_url":"","tags":"","prefecture":"愛媛","contractor":"","structural_designer":"","landscape_designer":"","shinkenchiku_url":""},{"id":2705,"title":"愛媛県美術館","architect":"日建設計","year":1998.0,"address":"愛媛県松山市堀之内 愛媛県美術館","latitude":33.840145111083984,"longitude":132.7620391845703,"category":"美術館","big_category":"ミュージアム","description":"","image_url":"","tags":"","prefecture":"愛媛","contractor":"","structural_designer":"","landscape_designer":"","shinkenchiku_url":""},{"id":2706,"title":"松山市中島総合文化センター","architect":"日本設計","year":2000.0,"address":"愛媛県松山市中島大浦2962","latitude":33.97443389892578,"longitude":132.62548828125,"category":"総合文化施設","big_category":"文化施設","description":"","image_url":"","tags":"","prefecture":"愛媛","contractor":"","structural_designer":"","landscape_designer":"","shinkenchiku_url":""},{"id":2707,"title":"愛媛県県民文化会館","architect":"丹下健三","year":1986.0,"address":"愛媛県松山市道後町2-5-1","latitude":33.84846878051758,"longitude":132.77972412109375,"category":"ホール・劇場","big_category":"文化施設","description":"","image_url":"","tags":"","prefecture":"愛媛","contractor":"","structural_designer":"","landscape_designer":"","shinkenchiku_url":""},{"id":2708,"title":"松山ITMビル","architect":"伊東豊雄","year":1993.0,"address":"愛媛県松山市東石井1-7-13","latitude":33.818626403808594,"longitude":132.77865600585938,"category":"オフィスビル","big_category":"企業施設","description":"","image_url":"","tags":"","prefecture":"愛媛","contractor":"","structural_designer":"","landscape_designer":"","shinkenchiku_url":""},{"id":2709,"title":"瀬戸内リトリート青凪 旧エリエール美術館／エリエール松山ゲストハウス","architect":"安藤忠雄","year":1998.0,"address":"愛媛県松山市柳谷町794-1","latitude":33.92295837402344,"longitude":132.81678771972656,"category":"ホテル/美術館","big_category":"宿泊,ミュージアム","description":"エリエール美術館をホテルに改修。2015/12/20よりホテルオープン。","image_url":"","tags":"","prefecture":"愛媛","contractor":"","structural_designer":"","landscape_designer":"","shinkenchiku_url":""},{"id":2710,"title":"伊丹十三記念館","architect":"中村好文","year":2007.0,"address":"愛媛県松山市東石井1-6-10","latitude":33.81801223754883,"longitude":132.77810668945312,"category":"博物館","big_category":"ミュージアム","description":"","image_url":"","tags":"","prefecture":"愛媛","contractor":"","structural_designer":"","landscape_designer":"","shinkenchiku_url":""},{"id":2711,"title":"ミウラート・ヴィレッジ","architect":"長谷川逸子","year":1998.0,"address":"愛媛県松山市堀江町1165-1","latitude":33.8985595703125,"longitude":132.7535858154297,"category":"美術館","big_category":"ミュージアム","description":"","image_url":"","tags":"","prefecture":"愛媛","contractor":"","structural_designer":"","landscape_designer":"","shinkenchiku_url":""},{"id":2712,"title":"萬翠荘","architect":"木子七郎","year":1922.0,"address":"愛媛県松山市一番町3-3-7","latitude":33.84208297729492,"longitude":132.76785278320312,"category":"洋館","big_category":"近代建築/遺産","description":"","image_url":"","tags":"","prefecture":"愛媛","contractor":"","structural_designer":"","landscape_designer":"","shinkenchiku_url":""},{"id":2713,"title":"坂の上の雲ミュージアム","architect":"安藤忠雄","year":2006.0,"address":"愛媛県松山市一番町3-20","latitude":33.84177017211914,"longitude":132.7692108154297,"category":"美術館","big_category":"ミュージアム","description":"","image_url":"","tags":"","prefecture":"愛媛","contractor":"","structural_designer":"","landscape_designer":"","shinkenchiku_url":""},{"id":2714,"title":"旧別子銅山 マイントピア別子","architect":"不明","year":null,"address":"愛媛県新居浜市立川町707-3","latitude":33.901336669921875,"longitude":133.30947875976562,"category":"産業遺産","big_category":"近代建築/遺産","description":"","image_url":"","tags":"","prefecture":"愛媛","contractor":"","structural_designer":"","landscape_designer":"","shinkenchiku_url":""},{"id":2715,"title":"Cafe La Miell（カフェ・ラミール）","architect":"谷尻誠","year":2006.0,"address":"愛媛県新居浜市高木町4-10","latitude":33.952293395996094,"longitude":133.28541564941406,"category":"カフェ","big_category":"商業施設","description":"","image_url":"","tags":"","prefecture":"愛媛","contractor":"","structural_designer":"","landscape_designer":"","shinkenchiku_url":""},{"id":2716,"title":"別子銅山記念館","architect":"日建設計","year":1975.0,"address":"愛媛県新居浜市角野新田町3-13-13","latitude":33.921363830566406,"longitude":133.30938720703125,"category":"博物館","big_category":"ミュージアム","description":"","image_url":"","tags":"2002年JIA25年賞","prefecture":"愛媛","contractor":"","structural_designer":"","landscape_designer":"","shinkenchiku_url":""},{"id":2717,"title":"住友化学歴史資料館 旧住友銀行新居浜支店","architect":"不明","year":null,"address":"愛媛県新居浜市惣開町5-1","latitude":33.960487365722656,"longitude":133.2565460205078,"category":"洋館/金融機関","big_category":"近代建築/遺産,企業施設","description":"","image_url":"","tags":"","prefecture":"愛媛","contractor":"","structural_designer":"","landscape_designer":"","shinkenchiku_url":""},{"id":2718,"title":"別子銅山記念図書館","architect":"日建設計","year":1992.0,"address":"愛媛県新居浜市北新町10-1","latitude":33.959877014160156,"longitude":133.26931762695312,"category":"図書館","big_category":"文化施設","description":"","image_url":"","tags":"公共建築百選","prefecture":"愛媛","contractor":"","structural_designer":"","landscape_designer":"","shinkenchiku_url":""},{"id":2719,"title":"愛媛県総合科学博物館","architect":"黒川紀章","year":1994.0,"address":"愛媛県新居浜市大生院2133-2","latitude":33.91000747680664,"longitude":133.2448272705078,"category":"博物館","big_category":"ミュージアム","description":"","image_url":"","tags":"","prefecture":"愛媛","contractor":"","structural_designer":"","landscape_designer":"","shinkenchiku_url":""},{"id":2720,"title":"西条産業情報支援センター","architect":"安井秀夫","year":1999.0,"address":"愛媛県西条市神拝甲150-1","latitude":33.91203689575195,"longitude":133.18096923828125,"category":"公共施設","big_category":"公共施設","description":"","image_url":"","tags":"","prefecture":"愛媛","contractor":"","structural_designer":"","landscape_designer":"","shinkenchiku_url":""},{"id":2721,"title":"南岳山光明寺","architect":"安藤忠雄","year":2000.0,"address":"愛媛県西条市大町550","latitude":33.91856384277344,"longitude":133.1907501220703,"category":"寺院","big_category":"宗教","description":"","image_url":"","tags":"","prefecture":"愛媛","contractor":"","structural_designer":"","landscape_designer":"","shinkenchiku_url":""},{"id":2722,"title":"西条市総合福祉センター","architect":"石本建築事務所","year":2004.0,"address":"愛媛県西条市神拝甲324-2","latitude":33.91495132446289,"longitude":133.18197631835938,"category":"福祉センター","big_category":"医療施設","description":"","image_url":"","tags":"","prefecture":"愛媛","contractor":"","structural_designer":"","landscape_designer":"","shinkenchiku_url":""},{"id":2723,"title":"西条市立西条図書館","architect":"石本建築事務所","year":2009.0,"address":"愛媛県西条市大町1590","latitude":33.91265106201172,"longitude":133.18276977539062,"category":"図書館","big_category":"文化施設","description":"","image_url":"","tags":"","prefecture":"愛媛","contractor":"","structural_designer":"","landscape_designer":"","shinkenchiku_url":""},{"id":2724,"title":"旧開明学校","architect":"都築熊吉","year":1882.0,"address":"愛媛県西予市宇和町卯之町3-110","latitude":33.3642578125,"longitude":132.51361083984375,"category":"洋館","big_category":"近代建築/遺産","description":"","image_url":"","tags":"","prefecture":"愛媛","contractor":"","structural_designer":"","landscape_designer":"","shinkenchiku_url":""},{"id":2725,"title":"愛媛県歴史文化博物館","architect":"日建設計","year":1994.0,"address":"愛媛県西予市宇和町卯之町4-11-2","latitude":33.363834381103516,"longitude":132.5182342529297,"category":"博物館","big_category":"ミュージアム","description":"","image_url":"","tags":"","prefecture":"愛媛","contractor":"","structural_designer":"","landscape_designer":"","shinkenchiku_url":""},{"id":2726,"title":"臥龍山荘","architect":"中野虎雄","year":1907.0,"address":"愛媛県大洲市大洲411-2","latitude":33.506317138671875,"longitude":132.55010986328125,"category":"古民家","big_category":"近代建築/遺産","description":"","image_url":"","tags":"","prefecture":"愛媛","contractor":"","structural_designer":"","landscape_designer":"","shinkenchiku_url":""},{"id":2727,"title":"おおず赤煉瓦館 旧大洲商業銀行","architect":"不明","year":1901.0,"address":"愛媛県大洲市大洲60","latitude":33.507816314697266,"longitude":132.54693603515625,"category":"洋館/金融機関","big_category":"近代建築/遺産,企業施設","description":"","image_url":"","tags":"","prefecture":"愛媛","contractor":"","structural_designer":"","landscape_designer":"","shinkenchiku_url":""},{"id":2728,"title":"内子町立大瀬中学校","architect":"原広司","year":1992.0,"address":"愛媛県喜多郡内子町大瀬中央5880","latitude":33.57260513305664,"longitude":132.7133026123047,"category":"学校","big_category":"教育","description":"","image_url":"","tags":"公共建築百選,1995年日本建築学会 作品選奨","prefecture":"愛媛","contractor":"","structural_designer":"","landscape_designer":"","shinkenchiku_url":""},{"id":2729,"title":"日土小学校","architect":"松村正恒","year":1958.0,"address":"愛媛県八幡浜市日土町2-851","latitude":33.50053787231445,"longitude":132.42784118652344,"category":"学校","big_category":"教育","description":"","image_url":"","tags":"DOCOMOMO,2016年公共建築賞・特別賞,重要文化財","prefecture":"愛媛","contractor":"","structural_designer":"","landscape_designer":"","shinkenchiku_url":""},{"id":2730,"title":"いの町紙の博物館","architect":"上田堯世","year":1985.0,"address":"高知県吾川郡いの町幸町110-1","latitude":33.54787063598633,"longitude":133.4233856201172,"category":"博物館","big_category":"ミュージアム","description":"","image_url":"","tags":"公共建築百選,1988年公共建築賞・特別賞,2011年JIA25年賞","prefecture":"高知","contractor":"","structural_designer":"","landscape_designer":"","shinkenchiku_url":""},{"id":2731,"title":"横倉山自然の森博物館","architect":"安藤忠雄","year":1997.0,"address":"高知県高岡郡越知町越知丙737-12","latitude":33.53537368774414,"longitude":133.241943359375,"category":"博物館","big_category":"ミュージアム","description":"","image_url":"","tags":"","prefecture":"高知","contractor":"","structural_designer":"","landscape_designer":"","shinkenchiku_url":""},{"id":2732,"title":"絵金蔵","architect":"佐藤八尋","year":2005.0,"address":"高知県香南市赤岡町本町538","latitude":33.542518615722656,"longitude":133.72164916992188,"category":"博物館","big_category":"ミュージアム","description":"","image_url":"","tags":"","prefecture":"高知","contractor":"","structural_designer":"","landscape_designer":"","shinkenchiku_url":""},{"id":2733,"title":"香美市立やなせたかし記念館 アンパンマンミュージアム","architect":"古谷誠章","year":1996.0,"address":"高知県香美市香北町美良布1224-2","latitude":33.64765930175781,"longitude":133.78378295898438,"category":"美術館","big_category":"ミュージアム","description":"","image_url":"","tags":"2023年JIA25年賞 受賞作品","prefecture":"高知","contractor":"","structural_designer":"","landscape_designer":"","shinkenchiku_url":""},{"id":2734,"title":"香美市立やなせたかし記念館 詩とメルヘン絵本館","architect":"古谷誠章","year":1998.0,"address":"高知県香美市香北町韮生野379","latitude":33.647369384765625,"longitude":133.7846221923828,"category":"美術館","big_category":"ミュージアム","description":"","image_url":"","tags":"2023年JIA25年賞 受賞作品","prefecture":"高知","contractor":"","structural_designer":"","landscape_designer":"","shinkenchiku_url":""},{"id":2735,"title":"cocageショールーム","architect":"谷尻誠","year":2009.0,"address":"高知県高知市北御座7-3","latitude":33.5689811706543,"longitude":133.56240844726562,"category":"店舗","big_category":"商業施設","description":"おそらく取り壊し済み","image_url":"","tags":"","prefecture":"高知","contractor":"ホームテック","structural_designer":"","landscape_designer":"","shinkenchiku_url":""},{"id":2736,"title":"高知県立美術館","architect":"日本設計+山本長水","year":1993.0,"address":"高知県高知市高須353-2","latitude":33.56111145019531,"longitude":133.57347106933594,"category":"美術館","big_category":"ミュージアム","description":"","image_url":"","tags":"","prefecture":"高知","contractor":"","structural_designer":"","landscape_designer":"","shinkenchiku_url":""},{"id":2737,"title":"新京橋交流施設 新京橋プラザ","architect":"荒木正彦","year":1995.0,"address":"高知県高知市帯屋町1-11-40","latitude":33.56007766723633,"longitude":133.541259765625,"category":"公民館・交流施設","big_category":"公共施設","description":"","image_url":"","tags":"","prefecture":"高知","contractor":"","structural_designer":"","landscape_designer":"","shinkenchiku_url":""},{"id":2738,"title":"エルレーブ","architect":"安井秀夫","year":2007.0,"address":"高知県高知市九反田9-15","latitude":33.55744171142578,"longitude":133.54933166503906,"category":"結婚式場","big_category":"宗教","description":"","image_url":"","tags":"","prefecture":"高知","contractor":"","structural_designer":"","landscape_designer":"","shinkenchiku_url":""},{"id":2739,"title":"竹林寺 納骨堂","architect":"堀部安嗣","year":2013.0,"address":"高知県高知市五台山3578","latitude":33.54636764526367,"longitude":133.5757598876953,"category":"寺院","big_category":"宗教","description":"","image_url":"","tags":"2016年日本建築学会 作品賞","prefecture":"高知","contractor":"","structural_designer":"","landscape_designer":"","shinkenchiku_url":""},{"id":2740,"title":"旧ルイ・ヴィトン 高知店","architect":"乾久美子","year":2003.0,"address":"高知県高知市はりまや町3-1-1","latitude":33.56246566772461,"longitude":133.54298400878906,"category":"店舗","big_category":"商業施設","description":"ルイ・ヴィトン自体は閉鎖。セブンイレブンに改装されており、特徴的なファサードは撤去されている。","image_url":"","tags":"","prefecture":"高知","contractor":"","structural_designer":"","landscape_designer":"","shinkenchiku_url":""},{"id":2741,"title":"高知市文化プラザかるぽーと","architect":"昭和設計","year":2001.0,"address":"高知県高知市九反田2-1","latitude":33.55825424194336,"longitude":133.5472869873047,"category":"総合文化施設","big_category":"文化施設","description":"","image_url":"","tags":"","prefecture":"高知","contractor":"","structural_designer":"","landscape_designer":"","shinkenchiku_url":""},{"id":2742,"title":"沢田マンション","architect":"沢田嘉農","year":1972.0,"address":"高知県高知市薊野北町1-10-3","latitude":33.57946014404297,"longitude":133.5530548095703,"category":"集合住宅","big_category":"住宅","description":"","image_url":"","tags":"","prefecture":"高知","contractor":"","structural_designer":"","landscape_designer":"","shinkenchiku_url":""},{"id":2743,"title":"牧野富太郎記念館 高知県立牧野植物園","architect":"内藤廣","year":1999.0,"address":"高知県高知市五台山4200-6","latitude":33.54742431640625,"longitude":133.5786895751953,"category":"動植物園","big_category":"レジャー施設","description":"","image_url":"","tags":"2000年村野藤吾賞","prefecture":"高知","contractor":"","structural_designer":"","landscape_designer":"","shinkenchiku_url":""},{"id":2744,"title":"龍馬の生まれたまち記念館","architect":"不明","year":2004.0,"address":"高知県高知市上町2-6-33","latitude":33.556453704833984,"longitude":133.5244903564453,"category":"博物館","big_category":"ミュージアム","description":"","image_url":"","tags":"","prefecture":"高知","contractor":"","structural_designer":"","landscape_designer":"","shinkenchiku_url":""},{"id":2745,"title":"高知駅","architect":"内藤廣","year":2009.0,"address":"高知県高知市栄田町2-1-10","latitude":33.56727981567383,"longitude":133.54351806640625,"category":"駅","big_category":"インフラ","description":"","image_url":"","tags":"","prefecture":"高知","contractor":"","structural_designer":"","landscape_designer":"","shinkenchiku_url":""},{"id":2746,"title":"高知県立坂本龍馬記念館","architect":"ワークステーション","year":1991.0,"address":"高知県高知市浦戸 県立坂本龍馬記念館","latitude":33.496551513671875,"longitude":133.57186889648438,"category":"博物館","big_category":"ミュージアム","description":"","image_url":"","tags":"2022年JIA25年賞 受賞作品","prefecture":"高知","contractor":"","structural_designer":"","landscape_designer":"","shinkenchiku_url":""},{"id":2747,"title":"大方あかつき館・上林暁文学記念館","architect":"團紀彦","year":1997.0,"address":"高知県幡多郡黒潮町入野6931-3","latitude":33.0224494934082,"longitude":133.01321411132812,"category":"博物館","big_category":"ミュージアム","description":"","image_url":"","tags":"新建築1998年6月号","prefecture":"高知","contractor":"","structural_designer":"","landscape_designer":"","shinkenchiku_url":""},{"id":2748,"title":"佐川町立桜座","architect":"ワークステーション","year":1998.0,"address":"高知県高岡郡佐川町甲346-1","latitude":33.5000114440918,"longitude":133.30313110351562,"category":"ホール・劇場","big_category":"文化施設","description":"","image_url":"","tags":"新建築1998年6月号","prefecture":"高知","contractor":"","structural_designer":"","landscape_designer":"","shinkenchiku_url":""},{"id":2749,"title":"佐川町公営住宅・荷稲団地","architect":"西森啓史+太田憲男","year":2004.0,"address":"高知県高岡郡佐川町乙3347-5","latitude":33.51158905029297,"longitude":133.29248046875,"category":"集合住宅","big_category":"住宅","description":"","image_url":"","tags":"","prefecture":"高知","contractor":"","structural_designer":"","landscape_designer":"","shinkenchiku_url":""},{"id":2750,"title":"土佐くろしお鉄道 中村駅","architect":"nextstations","year":2010.0,"address":"高知県四万十市駅前町7-1","latitude":32.98455810546875,"longitude":132.94381713867188,"category":"駅","big_category":"インフラ","description":"","image_url":"","tags":"","prefecture":"高知","contractor":"","structural_designer":"","landscape_designer":"","shinkenchiku_url":""}]}