{"page":106,"total_pages":290,"items_per_page":50,"total_items":14467,"items":[{"id":5251,"title":"GATE SQUARE 小杉陣屋町","architect":"竹中工務店","year":2015.0,"address":"神奈川県川崎市中原区小杉陣屋町1-15-17","latitude":35.583885192871094,"longitude":139.6588592529297,"category":"集合住宅/公園","big_category":"住宅,レジャー施設","description":"","image_url":"","tags":"新建築2015年8月号","prefecture":"神奈川","contractor":"","structural_designer":"","landscape_designer":"","shinkenchiku_url":""},{"id":5252,"title":"ザ・パークハウス グラン 千鳥ヶ淵","architect":"三菱地所+竹中工務店","year":2015.0,"address":"東京都千代田区三番町2-2","latitude":35.690128326416016,"longitude":139.74595642089844,"category":"集合住宅","big_category":"住宅","description":"","image_url":"","tags":"新建築2015年8月号","prefecture":"東京","contractor":"","structural_designer":"","landscape_designer":"","shinkenchiku_url":""},{"id":5253,"title":"フロール横浜山手","architect":"飯田善彦","year":2015.0,"address":"神奈川県横浜市中区大和町2-40","latitude":35.429561614990234,"longitude":139.64642333984375,"category":"集合住宅","big_category":"住宅","description":"","image_url":"","tags":"新建築2015年8月号","prefecture":"神奈川","contractor":"","structural_designer":"","landscape_designer":"","shinkenchiku_url":""},{"id":5254,"title":"地域貢献型シェアハウス コクリエ","architect":"井坂幸恵","year":2015.0,"address":"茨城県日立市大みか町3-1-12","latitude":36.51611328125,"longitude":140.6299591064453,"category":"集合住宅/寮","big_category":"住宅,住宅","description":"","image_url":"","tags":"新建築2015年8月号","prefecture":"茨城","contractor":"","structural_designer":"","landscape_designer":"","shinkenchiku_url":""},{"id":5255,"title":"荻窪家族プロジェクト","architect":"連健夫","year":2015.0,"address":"東京都杉並区荻窪4-24-18","latitude":35.702030181884766,"longitude":139.62437438964844,"category":"集合住宅","big_category":"住宅","description":"","image_url":"","tags":"新建築2015年8月号","prefecture":"東京","contractor":"","structural_designer":"","landscape_designer":"","shinkenchiku_url":""},{"id":5256,"title":"あだち農まちプロジェクト ワカミヤハイツ","architect":"落合正行","year":2015.0,"address":"東京都足立区西新井4-40-4","latitude":35.78925323486328,"longitude":139.77236938476562,"category":"集合住宅","big_category":"住宅","description":"","image_url":"","tags":"新建築2015年8月号","prefecture":"東京","contractor":"","structural_designer":"","landscape_designer":"","shinkenchiku_url":""},{"id":5257,"title":"tetto","architect":"SALHAUS","year":2015.0,"address":"神奈川県川崎市麻生区岡上558-0","latitude":35.57965087890625,"longitude":139.4775390625,"category":"集合住宅","big_category":"住宅","description":"","image_url":"","tags":"新建築2015年8月号","prefecture":"神奈川","contractor":"","structural_designer":"","landscape_designer":"","shinkenchiku_url":""},{"id":5258,"title":"ホシノタニ団地","architect":"ブルースタジオ+大和小田急建設","year":2015.0,"address":"神奈川県座間市入谷5-1691-2","latitude":35.48117446899414,"longitude":139.4005126953125,"category":"集合住宅/カフェ","big_category":"住宅,商業施設","description":"","image_url":"","tags":"新建築2015年8月号","prefecture":"神奈川","contractor":"","structural_designer":"","landscape_designer":"","shinkenchiku_url":""},{"id":5259,"title":"シェアプレイス聖蹟桜ヶ丘","architect":"古谷俊一+南條洋雄","year":2015.0,"address":"東京都多摩市桜ケ丘4-39","latitude":35.646461486816406,"longitude":139.44419860839844,"category":"集合住宅/寮","big_category":"住宅,住宅","description":"","image_url":"","tags":"新建築2015年8月号","prefecture":"東京","contractor":"","structural_designer":"","landscape_designer":"","shinkenchiku_url":""},{"id":5260,"title":"保土ヶ谷駅前ハイツ 改修","architect":"設計組織ADH+九段建築研究所","year":2013.0,"address":"神奈川県横浜市保土ケ谷区岩井町123-2","latitude":35.445350646972656,"longitude":139.6001434326172,"category":"集合住宅","big_category":"住宅","description":"デザイン監修：設計組織ADH","image_url":"","tags":"新建築2015年8月号","prefecture":"神奈川","contractor":"","structural_designer":"","landscape_designer":"","shinkenchiku_url":""},{"id":5261,"title":"洋光台中央団地 改修","architect":"隈研吾+蓑部和人","year":2015.0,"address":"神奈川県横浜市磯子区洋光台3-13-2","latitude":35.37977600097656,"longitude":139.5957489013672,"category":"集合住宅/公園/広場","big_category":"住宅,レジャー施設,文化施設","description":"デザイン監修：隈研吾","image_url":"","tags":"新建築2019年2月号,新建築2015年8月号","prefecture":"神奈川","contractor":"","structural_designer":"","landscape_designer":"","shinkenchiku_url":""},{"id":5262,"title":"ルーテル学院大学 新校舎 トリニティホール","architect":"連健夫","year":2005.0,"address":"東京都三鷹市大沢3-10-20","latitude":35.68745803833008,"longitude":139.53582763671875,"category":"大学","big_category":"教育","description":"","image_url":"","tags":"","prefecture":"東京","contractor":"","structural_designer":"","landscape_designer":"","shinkenchiku_url":""},{"id":5263,"title":"旧澤村邸 改修","architect":"落合正行","year":2011.0,"address":"静岡県下田市3-16-10","latitude":34.671043395996094,"longitude":138.94436645507812,"category":"観光施設/博物館/古民家","big_category":"レジャー施設,ミュージアム,近代建築/遺産","description":"","image_url":"","tags":"","prefecture":"静岡","contractor":"","structural_designer":"","landscape_designer":"","shinkenchiku_url":""},{"id":5264,"title":"柊家旅館 新館","architect":"道田淳","year":2006.0,"address":"京都府京都市中京区中白山町277","latitude":35.010311126708984,"longitude":135.76551818847656,"category":"旅館","big_category":"宿泊","description":"","image_url":"","tags":"","prefecture":"京都","contractor":"","structural_designer":"","landscape_designer":"","shinkenchiku_url":""},{"id":5265,"title":"別邸 仙寿庵","architect":"羽深隆雄","year":1997.0,"address":"群馬県利根郡みなかみ町谷川614","latitude":36.78537368774414,"longitude":138.95648193359375,"category":"旅館","big_category":"宿泊","description":"","image_url":"","tags":"","prefecture":"群馬","contractor":"","structural_designer":"","landscape_designer":"","shinkenchiku_url":""},{"id":5266,"title":"奥日光ホテル四季彩 改修","architect":"象設計集団","year":2005.0,"address":"栃木県日光市中宮祠2485","latitude":36.74712371826172,"longitude":139.47145080566406,"category":"ホテル","big_category":"宿泊","description":"","image_url":"","tags":"","prefecture":"栃木","contractor":"","structural_designer":"","landscape_designer":"","shinkenchiku_url":""},{"id":5267,"title":"星野リゾート 界 松本 旧貴祥庵","architect":"羽深隆雄","year":1999.0,"address":"長野県松本市浅間温泉1-31-1","latitude":36.261722564697266,"longitude":137.98870849609375,"category":"旅館","big_category":"宿泊","description":"","image_url":"","tags":"","prefecture":"長野","contractor":"","structural_designer":"","landscape_designer":"","shinkenchiku_url":""},{"id":5268,"title":"パーゴラ","architect":"SANAA","year":2013.0,"address":"岡山県岡山市北区津島中1-1-1","latitude":34.68707275390625,"longitude":133.92051696777344,"category":"広場/大学","big_category":"文化施設,教育","description":"","image_url":"","tags":"新建築2015年9月号","prefecture":"岡山","contractor":"","structural_designer":"","landscape_designer":"","shinkenchiku_url":""},{"id":5269,"title":"喜多方市新本庁舎","architect":"古谷誠章","year":2015.0,"address":"福島県喜多方市御清水東7244-2","latitude":37.65128707885742,"longitude":139.87464904785156,"category":"庁舎","big_category":"公共施設","description":"","image_url":"","tags":"2017年日本建築学会 作品選奨,新建築2015年9月号","prefecture":"福島","contractor":"","structural_designer":"","landscape_designer":"","shinkenchiku_url":""},{"id":5270,"title":"YKK80ビル","architect":"日建設計","year":2015.0,"address":"東京都千代田区神田和泉町1-1-16","latitude":35.699214935302734,"longitude":139.77593994140625,"category":"オフィスビル","big_category":"企業施設","description":"","image_url":"","tags":"新建築2015年9月号","prefecture":"東京","contractor":"","structural_designer":"","landscape_designer":"","shinkenchiku_url":""},{"id":5271,"title":"郡山市立中央公民館・勤労青少年ホーム","architect":"NTTファシリティーズ","year":2015.0,"address":"福島県郡山市麓山1-8-4","latitude":37.39409255981445,"longitude":140.37232971191406,"category":"公民館・交流施設","big_category":"公共施設","description":"","image_url":"","tags":"新建築2015年9月号","prefecture":"福島","contractor":"","structural_designer":"","landscape_designer":"","shinkenchiku_url":""},{"id":5272,"title":"川の上 百俵館","architect":"EDO","year":2015.0,"address":"宮城県石巻市小船越字山畑343-1","latitude":38.50466537475586,"longitude":141.3010711669922,"category":"図書館/カフェ","big_category":"文化施設,商業施設","description":"","image_url":"","tags":"新建築2015年9月号","prefecture":"宮城","contractor":"","structural_designer":"","landscape_designer":"","shinkenchiku_url":""},{"id":5273,"title":"湯田温泉観光回遊拠点施設 狐の足あと","architect":"光井純","year":2015.0,"address":"山口県山口市湯田温泉2-1-3","latitude":34.16453170776367,"longitude":131.45729064941406,"category":"観光施設/温泉","big_category":"レジャー施設,宿泊","description":"","image_url":"","tags":"新建築2015年9月号","prefecture":"山口","contractor":"","structural_designer":"","landscape_designer":"","shinkenchiku_url":""},{"id":5274,"title":"富久千代酒造 酒蔵改修ギャラリー","architect":"yHa architects","year":2014.0,"address":"佐賀県鹿島市浜町1254-1","latitude":33.093746185302734,"longitude":130.11456298828125,"category":"醸造所/ギャラリー","big_category":"商業施設,ミュージアム","description":"","image_url":"","tags":"第26回AACA 芦原義信賞,新建築2015年9月号","prefecture":"佐賀","contractor":"","structural_designer":"","landscape_designer":"","shinkenchiku_url":""},{"id":5275,"title":"G.Itoya 銀座伊東屋","architect":"大成建設","year":2015.0,"address":"東京都中央区銀座2-7-15","latitude":35.67292022705078,"longitude":139.767822265625,"category":"店舗/テナントビル","big_category":"商業施設,商業施設","description":"","image_url":"","tags":"第26回AACA賞,新建築2015年9月号","prefecture":"東京","contractor":"","structural_designer":"","landscape_designer":"","shinkenchiku_url":""},{"id":5276,"title":"アスファルト・スポット","architect":"R&Sie","year":2003.0,"address":"新潟県十日町市寅乙358","latitude":37.14866638183594,"longitude":138.7509765625,"category":"オブジェ","big_category":"ミュージアム","description":"大地の芸術祭作品。","image_url":"","tags":"大地の芸術祭","prefecture":"新潟","contractor":"","structural_designer":"","landscape_designer":"","shinkenchiku_url":""},{"id":5277,"title":"モミガラパーク　／ マッドメン","architect":"小川次郎+黒田潤三","year":2003.0,"address":"新潟県十日町市伊達","latitude":37.04057693481445,"longitude":138.77650451660156,"category":"オブジェ","big_category":"ミュージアム","description":"大地の芸術祭作品。","image_url":"","tags":"大地の芸術祭","prefecture":"新潟","contractor":"","structural_designer":"","landscape_designer":"","shinkenchiku_url":""},{"id":5278,"title":"バタフライパビリオン","architect":"ドミニク・ペロー","year":2006.0,"address":"新潟県十日町市下組","latitude":37.20323944091797,"longitude":138.78726196289062,"category":"オブジェ","big_category":"ミュージアム","description":"大地の芸術祭作品。","image_url":"","tags":"大地の芸術祭","prefecture":"新潟","contractor":"","structural_designer":"","landscape_designer":"","shinkenchiku_url":""},{"id":5279,"title":"下条茅葺きの塔","architect":"みかんぐみ","year":2012.0,"address":"新潟県十日町市下条","latitude":37.1982421875,"longitude":138.77978515625,"category":"オブジェ","big_category":"ミュージアム","description":"大地の芸術祭作品。","image_url":"","tags":"大地の芸術祭","prefecture":"新潟","contractor":"","structural_designer":"","landscape_designer":"","shinkenchiku_url":""},{"id":5280,"title":"清津川プレスセンター「きよっつ」","architect":"槻橋修","year":2012.0,"address":"新潟県十日町市芋川乙3263","latitude":37.0303955078125,"longitude":138.69674682617188,"category":"公民館・交流施設/観光施設","big_category":"公共施設,レジャー施設","description":"大地の芸術祭作品。","image_url":"","tags":"大地の芸術祭","prefecture":"新潟","contractor":"","structural_designer":"","landscape_designer":"","shinkenchiku_url":""},{"id":5281,"title":"ポチョムキン","architect":"カサグランデ&リンターラ","year":2003.0,"address":"新潟県十日町市倉俣","latitude":37.01817321777344,"longitude":138.70640563964844,"category":"公園","big_category":"レジャー施設","description":"大地の芸術祭作品。","image_url":"","tags":"大地の芸術祭","prefecture":"新潟","contractor":"","structural_designer":"","landscape_designer":"","shinkenchiku_url":""},{"id":5282,"title":"船の家","architect":"アトリエ・ワン","year":2012.0,"address":"新潟県十日町市田中庚271","latitude":37.05533218383789,"longitude":138.6949920654297,"category":"オブジェ/住宅","big_category":"ミュージアム,住宅","description":"大地の芸術祭作品。","image_url":"","tags":"大地の芸術祭","prefecture":"新潟","contractor":"","structural_designer":"","landscape_designer":"","shinkenchiku_url":""},{"id":5283,"title":"磯辺行久記念 越後妻有清津倉庫美術館","architect":"山本想太郎","year":2015.0,"address":"新潟県十日町市角間未1528-2","latitude":36.987335205078125,"longitude":138.74005126953125,"category":"美術館","big_category":"ミュージアム","description":"大地の芸術祭作品。","image_url":"","tags":"大地の芸術祭","prefecture":"新潟","contractor":"","structural_designer":"","landscape_designer":"","shinkenchiku_url":""},{"id":5284,"title":"オーストラリア･ハウス","architect":"アンドリュー・バーンズ","year":2012.0,"address":"新潟県十日町市浦田7577-1","latitude":37.058048248291016,"longitude":138.55609130859375,"category":"住宅","big_category":"住宅","description":"大地の芸術祭作品。","image_url":"","tags":"大地の芸術祭","prefecture":"新潟","contractor":"","structural_designer":"","landscape_designer":"","shinkenchiku_url":""},{"id":5285,"title":"黎の家","architect":"手塚建築研究所","year":2009.0,"address":"新潟県十日町市松之山坂下235","latitude":37.08427810668945,"longitude":138.6221160888672,"category":"古民家/住宅","big_category":"近代建築/遺産,住宅","description":"大地の芸術祭作品。","image_url":"","tags":"大地の芸術祭","prefecture":"新潟","contractor":"","structural_designer":"","landscape_designer":"","shinkenchiku_url":""},{"id":5286,"title":"RICOH Future House","architect":"UDS","year":2015.0,"address":"神奈川県海老名市扇町5-7","latitude":35.45530700683594,"longitude":139.3881072998047,"category":"テナントビル/オフィスビル","big_category":"商業施設,企業施設","description":"","image_url":"","tags":"","prefecture":"神奈川","contractor":"","structural_designer":"","landscape_designer":"","shinkenchiku_url":""},{"id":5287,"title":"Gridie","architect":"若松均+野口信彦","year":2012.0,"address":"東京都大田区石川町2-1-3","latitude":35.59904479980469,"longitude":139.68528747558594,"category":"集合住宅","big_category":"住宅","description":"S棟を若松均、N棟を野口信彦が設計","image_url":"","tags":"","prefecture":"東京","contractor":"","structural_designer":"","landscape_designer":"","shinkenchiku_url":""},{"id":5288,"title":"TOTOミュージアム","architect":"梓設計","year":2015.0,"address":"福岡県北九州市小倉北区中島2-1-1","latitude":33.87233352661133,"longitude":130.8721160888672,"category":"博物館","big_category":"ミュージアム","description":"","image_url":"","tags":"新建築2015年10月号","prefecture":"福岡","contractor":"鹿島建設","structural_designer":"","landscape_designer":"","shinkenchiku_url":""},{"id":5289,"title":"虹のチャペル メゾン・プルミエールアットロビンズ","architect":"久保都島建築設計","year":2015.0,"address":"東京都目黒区中目黒1–1–29","latitude":35.644195556640625,"longitude":139.70401000976562,"category":"結婚式場","big_category":"宗教","description":"","image_url":"","tags":"","prefecture":"東京","contractor":"フジタビルメンテナンス","structural_designer":"","landscape_designer":"","shinkenchiku_url":""},{"id":5290,"title":"よしの保育園","architect":"手塚建築研究所","year":2015.0,"address":"青森県むつ市緑町17-8","latitude":41.2883415222168,"longitude":141.19793701171875,"category":"幼稚園","big_category":"教育","description":"","image_url":"","tags":"","prefecture":"青森","contractor":"熊谷建設工業","structural_designer":"","landscape_designer":"","shinkenchiku_url":""},{"id":5291,"title":"河原町団地","architect":"大谷幸夫","year":1972.0,"address":"神奈川県川崎市幸区河原町1","latitude":35.5399055480957,"longitude":139.69578552246094,"category":"集合住宅","big_category":"住宅","description":"","image_url":"","tags":"DOCOMOMO","prefecture":"神奈川","contractor":"大成建設","structural_designer":"","landscape_designer":"","shinkenchiku_url":""},{"id":5292,"title":"村上市郷土資料館","architect":"坂本鹿名夫","year":1977.0,"address":"新潟県村上市三之町7-9","latitude":38.225616455078125,"longitude":139.4811553955078,"category":"博物館","big_category":"ミュージアム","description":"","image_url":"","tags":"","prefecture":"新潟","contractor":"","structural_designer":"","landscape_designer":"","shinkenchiku_url":""},{"id":5293,"title":"沼津市庁舎","architect":"石本建築事務所","year":1966.0,"address":"静岡県沼津市御幸町16-1","latitude":35.095645904541016,"longitude":138.8634490966797,"category":"庁舎","big_category":"公共施設","description":"","image_url":"","tags":"","prefecture":"静岡","contractor":"","structural_designer":"","landscape_designer":"","shinkenchiku_url":""},{"id":5294,"title":"きうちファッションカレッジ","architect":"沖種郎","year":1961.0,"address":"静岡県沼津市大手町3-7-5","latitude":35.1002082824707,"longitude":138.8606719970703,"category":"専門学校","big_category":"教育","description":"","image_url":"","tags":"","prefecture":"静岡","contractor":"","structural_designer":"","landscape_designer":"","shinkenchiku_url":""},{"id":5295,"title":"大久保動物病院","architect":"隈研吾","year":2015.0,"address":"群馬県高崎市上並榎町357-9","latitude":36.342918395996094,"longitude":138.9933624267578,"category":"個人医院","big_category":"医療施設","description":"","image_url":"","tags":"","prefecture":"群馬","contractor":"","structural_designer":"","landscape_designer":"","shinkenchiku_url":""},{"id":5296,"title":"虫塚","architect":"隈研吾","year":2015.0,"address":"神奈川県鎌倉市山ノ内70","latitude":35.3317756652832,"longitude":139.55532836914062,"category":"霊園/オブジェ","big_category":"宗教,ミュージアム","description":"建長寺境内","image_url":"","tags":"新建築2015年10月号","prefecture":"神奈川","contractor":"","structural_designer":"","landscape_designer":"","shinkenchiku_url":""},{"id":5297,"title":"カトリック鈴鹿教会","architect":"アルファヴィル","year":2015.0,"address":"三重県鈴鹿市神戸3-17-5","latitude":34.87824249267578,"longitude":136.58474731445312,"category":"教会","big_category":"宗教","description":"","image_url":"","tags":"新建築2015年10月号","prefecture":"三重","contractor":"","structural_designer":"","landscape_designer":"","shinkenchiku_url":""},{"id":5298,"title":"変なホテル","architect":"川添善行","year":2015.0,"address":"長崎県佐世保市ハウステンボス町6-5","latitude":33.08979415893555,"longitude":129.78887939453125,"category":"ホテル","big_category":"宿泊","description":"","image_url":"","tags":"新建築2015年10月号","prefecture":"長崎","contractor":"","structural_designer":"","landscape_designer":"","shinkenchiku_url":""},{"id":5299,"title":"あわくら温泉元湯","architect":"安部良","year":2015.0,"address":"岡山県英田郡西粟倉村2050","latitude":35.18954086303711,"longitude":134.32418823242188,"category":"温泉/カフェ","big_category":"宿泊,商業施設","description":"","image_url":"","tags":"新建築2015年10月号","prefecture":"岡山","contractor":"","structural_designer":"","landscape_designer":"","shinkenchiku_url":""},{"id":5300,"title":"福島矢吹町みんなの家","architect":"長尾亜子+野上恵子","year":2015.0,"address":"福島県西白河郡矢吹町295-2","latitude":37.20355224609375,"longitude":140.32662963867188,"category":"公民館・交流施設","big_category":"公共施設","description":"","image_url":"","tags":"新建築2015年10月号","prefecture":"福島","contractor":"","structural_designer":"","landscape_designer":"","shinkenchiku_url":""}]}