{"page":77,"total_pages":290,"items_per_page":50,"total_items":14467,"items":[{"id":3801,"title":"岡山南部健康づくりセンター","architect":"坂倉建築研究所","year":1997.0,"address":"岡山県岡山市北区平田408-1","latitude":34.635406494140625,"longitude":133.88221740722656,"category":"福祉センター","big_category":"医療施設","description":"","image_url":"","tags":"","prefecture":"岡山","contractor":"","structural_designer":"","landscape_designer":"","shinkenchiku_url":""},{"id":3802,"title":"所沢市民体育館","architect":"坂倉建築研究所","year":2004.0,"address":"埼玉県所沢市並木5-3","latitude":35.80987548828125,"longitude":139.4623260498047,"category":"体育館","big_category":"レジャー施設","description":"","image_url":"","tags":"","prefecture":"埼玉","contractor":"","structural_designer":"","landscape_designer":"","shinkenchiku_url":""},{"id":3803,"title":"小田原市総合文化体育館 小田原アリーナ","architect":"坂倉建築研究所","year":1996.0,"address":"神奈川県小田原市中曽根263","latitude":35.29338836669922,"longitude":139.15487670898438,"category":"体育館","big_category":"レジャー施設","description":"","image_url":"","tags":"","prefecture":"神奈川","contractor":"","structural_designer":"","landscape_designer":"","shinkenchiku_url":""},{"id":3804,"title":"メイフラワーゴルフクラブ 旧上伊佐野ゴルフ倶楽部","architect":"坂倉建築研究所","year":1991.0,"address":"栃木県矢板市上伊佐野1020","latitude":36.88044738769531,"longitude":139.91046142578125,"category":"クラブハウス","big_category":"レジャー施設","description":"","image_url":"","tags":"","prefecture":"栃木","contractor":"","structural_designer":"","landscape_designer":"","shinkenchiku_url":""},{"id":3805,"title":"茅ヶ崎公園プール","architect":"坂倉建築研究所","year":1990.0,"address":"神奈川県横浜市都筑区茅ヶ崎南1-4","latitude":35.53913116455078,"longitude":139.5814666748047,"category":"プール","big_category":"レジャー施設","description":"","image_url":"","tags":"","prefecture":"神奈川","contractor":"","structural_designer":"","landscape_designer":"","shinkenchiku_url":""},{"id":3806,"title":"国立オリンピック記念青少年総合センター","architect":"坂倉建築研究所","year":1994.0,"address":"東京都渋谷区代々木神園町3-1","latitude":35.67470169067383,"longitude":139.6934356689453,"category":"研修施設","big_category":"教育","description":"","image_url":"","tags":"","prefecture":"東京","contractor":"","structural_designer":"","landscape_designer":"","shinkenchiku_url":""},{"id":3807,"title":"群馬ロイヤルホテル 愛と平和の教会","architect":"坂倉建築研究所","year":1998.0,"address":"群馬県前橋市大手町1-9-7","latitude":36.38703536987305,"longitude":139.05953979492188,"category":"結婚式場","big_category":"宗教","description":"","image_url":"","tags":"","prefecture":"群馬","contractor":"","structural_designer":"","landscape_designer":"","shinkenchiku_url":""},{"id":3808,"title":"星野リゾート 界 津軽 旧南津軽錦水","architect":"坂倉建築研究所","year":1990.0,"address":"青森県南津軽郡大鰐町大鰐上牡丹森36","latitude":40.511817932128906,"longitude":140.57418823242188,"category":"旅館","big_category":"宿泊","description":"","image_url":"","tags":"","prefecture":"青森","contractor":"","structural_designer":"","landscape_designer":"","shinkenchiku_url":""},{"id":3809,"title":"星野リゾート 界 箱根 旧箱根湯本桜庵","architect":"坂倉建築研究所","year":1987.0,"address":"神奈川県足柄下郡箱根町湯本茶屋230","latitude":35.223148345947266,"longitude":139.08407592773438,"category":"旅館","big_category":"宿泊","description":"","image_url":"","tags":"新建築1987年12月号","prefecture":"神奈川","contractor":"","structural_designer":"","landscape_designer":"","shinkenchiku_url":""},{"id":3810,"title":"大阪府立大型児童館 ビッグバン","architect":"坂倉建築研究所","year":1999.0,"address":"大阪府堺市南区茶山台1丁9-1","latitude":34.494991302490234,"longitude":135.513671875,"category":"児童施設","big_category":"教育","description":"","image_url":"","tags":"","prefecture":"大阪","contractor":"","structural_designer":"","landscape_designer":"","shinkenchiku_url":""},{"id":3811,"title":"みえこどもの城","architect":"坂倉建築研究所","year":1989.0,"address":"三重県松阪市立野町1291","latitude":34.54491424560547,"longitude":136.50338745117188,"category":"児童施設","big_category":"教育","description":"","image_url":"","tags":"","prefecture":"三重","contractor":"","structural_designer":"","landscape_designer":"","shinkenchiku_url":""},{"id":3812,"title":"大磯町郷土資料館","architect":"坂倉建築研究所","year":1988.0,"address":"神奈川県中郡大磯町西小磯446-1","latitude":35.305381774902344,"longitude":139.29087829589844,"category":"博物館","big_category":"ミュージアム","description":"","image_url":"","tags":"","prefecture":"神奈川","contractor":"","structural_designer":"","landscape_designer":"","shinkenchiku_url":""},{"id":3813,"title":"調布市武者小路実篤記念館","architect":"坂倉建築研究所","year":1985.0,"address":"東京都調布市若葉町1-8-30","latitude":35.65668487548828,"longitude":139.581298828125,"category":"博物館","big_category":"ミュージアム","description":"","image_url":"","tags":"","prefecture":"東京","contractor":"","structural_designer":"","landscape_designer":"","shinkenchiku_url":""},{"id":3814,"title":"東京工芸大学 中野キャンパス3号館","architect":"坂倉建築研究所","year":2011.0,"address":"東京都中野区本町2-9-5","latitude":35.69306182861328,"longitude":139.67941284179688,"category":"大学","big_category":"教育","description":"","image_url":"","tags":"","prefecture":"東京","contractor":"","structural_designer":"","landscape_designer":"","shinkenchiku_url":""},{"id":3815,"title":"静岡文化芸術大学","architect":"坂倉建築研究所","year":2000.0,"address":"静岡県浜松市中区中央2-1-1","latitude":34.71263122558594,"longitude":137.7386474609375,"category":"大学","big_category":"教育","description":"","image_url":"","tags":"","prefecture":"静岡","contractor":"","structural_designer":"","landscape_designer":"","shinkenchiku_url":""},{"id":3816,"title":"岐阜県立看護大学","architect":"坂倉建築研究所","year":2000.0,"address":"岐阜県羽島市江吉良町3047-1","latitude":35.30607986450195,"longitude":136.68499755859375,"category":"大学","big_category":"教育","description":"","image_url":"","tags":"","prefecture":"岐阜","contractor":"","structural_designer":"","landscape_designer":"","shinkenchiku_url":""},{"id":3817,"title":"大阪芸術大学 10号館／クラブハウス／芸術劇場／撮影所","architect":"坂倉建築研究所","year":2000.0,"address":"大阪府南河内郡河南町東山469","latitude":34.51034164428711,"longitude":135.6320037841797,"category":"大学","big_category":"教育","description":"","image_url":"","tags":"","prefecture":"大阪","contractor":"","structural_designer":"","landscape_designer":"","shinkenchiku_url":""},{"id":3818,"title":"多摩市永山公民館 ベルブ永山","architect":"坂倉建築研究所","year":1997.0,"address":"東京都多摩市永山1-5 ‎","latitude":35.62834548950195,"longitude":139.4484100341797,"category":"総合文化施設","big_category":"文化施設","description":"","image_url":"","tags":"","prefecture":"東京","contractor":"","structural_designer":"","landscape_designer":"","shinkenchiku_url":""},{"id":3819,"title":"大阪府立大学 看護学部 旧大阪府立看護大学","architect":"坂倉建築研究所","year":1994.0,"address":"大阪府羽曳野市はびきの3-7-30","latitude":34.54933547973633,"longitude":135.58843994140625,"category":"大学","big_category":"教育","description":"","image_url":"","tags":"","prefecture":"大阪","contractor":"","structural_designer":"","landscape_designer":"","shinkenchiku_url":""},{"id":3820,"title":"浜松市かわな野外活動センター","architect":"坂倉建築研究所","year":1989.0,"address":"静岡県浜松市北区引佐町川名455-5","latitude":34.8793830871582,"longitude":137.69854736328125,"category":"研修施設","big_category":"教育","description":"","image_url":"","tags":"","prefecture":"静岡","contractor":"","structural_designer":"","landscape_designer":"","shinkenchiku_url":""},{"id":3821,"title":"芦屋市立図書館","architect":"坂倉建築研究所","year":1987.0,"address":"兵庫県芦屋市伊勢町12-5","latitude":34.722412109375,"longitude":135.31179809570312,"category":"図書館","big_category":"文化施設","description":"","image_url":"","tags":"","prefecture":"兵庫","contractor":"","structural_designer":"","landscape_designer":"","shinkenchiku_url":""},{"id":3822,"title":"世田谷区民健康村なかのビレジ","architect":"坂倉建築研究所","year":1986.0,"address":"群馬県利根郡川場村大字谷地1320","latitude":36.72277069091797,"longitude":139.1021728515625,"category":"ホテル/研修施設","big_category":"宿泊,教育","description":"","image_url":"","tags":"","prefecture":"群馬","contractor":"","structural_designer":"","landscape_designer":"","shinkenchiku_url":""},{"id":3823,"title":"東京都立大学 荒川キャンパス 旧東京都立医療技術短期大学","architect":"坂倉建築研究所","year":1986.0,"address":"東京都荒川区東尾久7-2-10","latitude":35.75001525878906,"longitude":139.7720947265625,"category":"大学","big_category":"教育","description":"","image_url":"","tags":"1992年公共建築賞・特別賞","prefecture":"東京","contractor":"","structural_designer":"","landscape_designer":"","shinkenchiku_url":""},{"id":3824,"title":"大阪芸術大学短期大学部 伊丹学舎 旧浪速短期大学","architect":"坂倉建築研究所","year":1986.0,"address":"兵庫県伊丹市荒牧4-8-70","latitude":34.812862396240234,"longitude":135.38246154785156,"category":"大学","big_category":"教育","description":"","image_url":"","tags":"","prefecture":"兵庫","contractor":"","structural_designer":"","landscape_designer":"","shinkenchiku_url":""},{"id":3825,"title":"東大和市中央図書館","architect":"坂倉建築研究所","year":1983.0,"address":"東京都東大和市中央3-930","latitude":35.744712829589844,"longitude":139.42703247070312,"category":"図書館","big_category":"文化施設","description":"","image_url":"","tags":"","prefecture":"東京","contractor":"","structural_designer":"","landscape_designer":"","shinkenchiku_url":""},{"id":3826,"title":"群馬県立女子大学","architect":"坂倉建築研究所","year":1982.0,"address":"群馬県佐波郡玉村町上之手1395-1","latitude":36.297157287597656,"longitude":139.11300659179688,"category":"大学","big_category":"教育","description":"","image_url":"","tags":"","prefecture":"群馬","contractor":"","structural_designer":"","landscape_designer":"","shinkenchiku_url":""},{"id":3827,"title":"埼玉県立名栗少年自然の家 名栗げんきプラザ","architect":"坂倉建築研究所","year":1981.0,"address":"埼玉県飯能市大字上名栗1289-2","latitude":35.93572235107422,"longitude":139.15354919433594,"category":"研修施設","big_category":"教育","description":"","image_url":"","tags":"","prefecture":"埼玉","contractor":"","structural_designer":"","landscape_designer":"","shinkenchiku_url":""},{"id":3828,"title":"埼玉県青少年総合野外活動センター","architect":"坂倉建築研究所","year":1975.0,"address":"埼玉県秩父市山田4386","latitude":36.00110626220703,"longitude":139.14242553710938,"category":"研修施設","big_category":"教育","description":"","image_url":"","tags":"","prefecture":"埼玉","contractor":"","structural_designer":"","landscape_designer":"","shinkenchiku_url":""},{"id":3829,"title":"大阪府立青少年海洋センター","architect":"坂倉建築研究所","year":1975.0,"address":"大阪府泉南郡岬町淡輪6190","latitude":34.335296630859375,"longitude":135.18130493164062,"category":"研修施設","big_category":"教育","description":"","image_url":"","tags":"","prefecture":"大阪","contractor":"","structural_designer":"","landscape_designer":"","shinkenchiku_url":""},{"id":3830,"title":"鶴見区民センター","architect":"坂倉建築研究所","year":2005.0,"address":"大阪府大阪市鶴見区横堤5-3-15","latitude":34.704105377197266,"longitude":135.5734100341797,"category":"公民館・交流施設/ホール・劇場","big_category":"公共施設,文化施設","description":"","image_url":"","tags":"","prefecture":"大阪","contractor":"","structural_designer":"","landscape_designer":"","shinkenchiku_url":""},{"id":3831,"title":"東大和市民会館 ハミングホール","architect":"坂倉建築研究所","year":1999.0,"address":"東京都東大和市向原6-1","latitude":35.738800048828125,"longitude":139.43406677246094,"category":"ホール・劇場","big_category":"文化施設","description":"","image_url":"","tags":"","prefecture":"東京","contractor":"","structural_designer":"","landscape_designer":"","shinkenchiku_url":""},{"id":3832,"title":"北沢タウンホール","architect":"坂倉建築研究所","year":1990.0,"address":"東京都世田谷区北沢2-8-18","latitude":35.662139892578125,"longitude":139.66983032226562,"category":"ホール・劇場","big_category":"文化施設","description":"","image_url":"","tags":"","prefecture":"東京","contractor":"","structural_designer":"","landscape_designer":"","shinkenchiku_url":""},{"id":3833,"title":"常滑市民文化会館・中央公民館","architect":"坂倉建築研究所","year":1983.0,"address":"愛知県常滑市新開町5-65","latitude":34.88511276245117,"longitude":136.83717346191406,"category":"ホール・劇場/公民館・交流施設","big_category":"文化施設,公共施設","description":"","image_url":"","tags":"","prefecture":"愛知","contractor":"","structural_designer":"","landscape_designer":"","shinkenchiku_url":""},{"id":3834,"title":"うらがわら駅舎・連絡橋","architect":"高橋真","year":null,"address":"新潟県上越市浦川原区顕聖寺 うらがわら駅","latitude":37.15897750854492,"longitude":138.419189453125,"category":"駅","big_category":"インフラ","description":"","image_url":"","tags":"","prefecture":"新潟","contractor":"","structural_designer":"","landscape_designer":"","shinkenchiku_url":""},{"id":3835,"title":"JR山形新幹線大石田駅","architect":"藤木隆男","year":1999.0,"address":"山形県北村山郡大石田町駅前通り1-2 大石田駅","latitude":38.59568786621094,"longitude":140.37527465820312,"category":"駅","big_category":"インフラ","description":"","image_url":"","tags":"","prefecture":"山形","contractor":"","structural_designer":"","landscape_designer":"","shinkenchiku_url":""},{"id":3836,"title":"篠崎駅前交番","architect":"藤木隆男","year":1994.0,"address":"東京都江戸川区篠崎町7-27-15 篠崎駅前交番","latitude":35.7056770324707,"longitude":139.90426635742188,"category":"警察・消防署","big_category":"公共施設","description":"","image_url":"","tags":"","prefecture":"東京","contractor":"","structural_designer":"","landscape_designer":"","shinkenchiku_url":""},{"id":3837,"title":"札幌パークホテル 旧ホテル三愛","architect":"坂倉準三","year":1964.0,"address":"北海道札幌市中央区南10条西3","latitude":43.04750442504883,"longitude":141.35614013671875,"category":"ホテル","big_category":"宿泊","description":"","image_url":"","tags":"","prefecture":"北海道","contractor":"","structural_designer":"","landscape_designer":"","shinkenchiku_url":""},{"id":3838,"title":"大雪山展望塔 エスポワールの鐘","architect":"六角鬼丈","year":1984.0,"address":"北海道上川郡上川町越路 上川公園","latitude":43.85683059692383,"longitude":142.76097106933594,"category":"オブジェ","big_category":"ミュージアム","description":"","image_url":"","tags":"","prefecture":"北海道","contractor":"","structural_designer":"","landscape_designer":"","shinkenchiku_url":""},{"id":3839,"title":"富士カントリー倶楽部 クラブハウス","architect":"アントニン・レーモンド","year":1958.0,"address":"静岡県御殿場市東山2472","latitude":35.29680252075195,"longitude":138.9672393798828,"category":"クラブハウス/レストラン","big_category":"レジャー施設,商業施設","description":"","image_url":"","tags":"","prefecture":"静岡","contractor":"","structural_designer":"","landscape_designer":"","shinkenchiku_url":""},{"id":3840,"title":"東京文化会館","architect":"前川國男","year":1961.0,"address":"東京都台東区上野公園5-45 ‎","latitude":35.71441650390625,"longitude":139.77529907226562,"category":"ホール・劇場","big_category":"文化施設","description":"","image_url":"","tags":"1961年日本建築学会 作品賞,公共建築百選,DOCOMOMO,第03回BCS賞 (1962)","prefecture":"東京","contractor":"","structural_designer":"","landscape_designer":"","shinkenchiku_url":""},{"id":3841,"title":"明月院","architect":"不明","year":1394.0,"address":"神奈川県鎌倉市山ノ内189","latitude":35.33485794067383,"longitude":139.55145263671875,"category":"寺院","big_category":"宗教","description":"","image_url":"","tags":"","prefecture":"神奈川","contractor":"","structural_designer":"","landscape_designer":"","shinkenchiku_url":""},{"id":3842,"title":"駒場IIキャンパス 東京大学生産技術研究所","architect":"原広司","year":2001.0,"address":"東京都目黒区駒場4-6-1","latitude":35.66238784790039,"longitude":139.67723083496094,"category":"大学/研究施設","big_category":"教育,教育","description":"","image_url":"","tags":"","prefecture":"東京","contractor":"","structural_designer":"","landscape_designer":"","shinkenchiku_url":""},{"id":3843,"title":"オリーブベイホテル","architect":"隈研吾","year":2013.0,"address":"長崎県西海市大島町1577-8","latitude":33.04948806762695,"longitude":129.6234130859375,"category":"ホテル","big_category":"宿泊","description":"","image_url":"","tags":"","prefecture":"長崎","contractor":"","structural_designer":"","landscape_designer":"","shinkenchiku_url":""},{"id":3844,"title":"鬼ノ城ゴルフ倶楽部","architect":"隈研吾","year":1992.0,"address":"岡山県総社市奥坂666","latitude":34.730552673339844,"longitude":133.7872772216797,"category":"レストラン/クラブハウス","big_category":"商業施設,レジャー施設","description":"","image_url":"","tags":"","prefecture":"岡山","contractor":"","structural_designer":"","landscape_designer":"","shinkenchiku_url":""},{"id":3845,"title":"ADK松竹スクエア","architect":"隈研吾","year":2002.0,"address":"東京都中央区築地1-13-1","latitude":35.66830062866211,"longitude":139.76943969726562,"category":"オフィスビル","big_category":"企業施設","description":"","image_url":"","tags":"","prefecture":"東京","contractor":"","structural_designer":"","landscape_designer":"","shinkenchiku_url":""},{"id":3846,"title":"暗闇坂宮下 青山","architect":"隈研吾","year":2004.0,"address":"東京都港区南青山2-24-8","latitude":35.66986083984375,"longitude":139.71807861328125,"category":"料亭","big_category":"商業施設","description":"","image_url":"","tags":"","prefecture":"東京","contractor":"","structural_designer":"","landscape_designer":"","shinkenchiku_url":""},{"id":3847,"title":"分とく山 本店","architect":"隈研吾","year":2004.0,"address":"東京都港区南麻布5-1-5","latitude":35.65562057495117,"longitude":139.7231903076172,"category":"料亭","big_category":"商業施設","description":"今津康夫設計の店舗に建て替え","image_url":"","tags":"","prefecture":"東京","contractor":"","structural_designer":"","landscape_designer":"","shinkenchiku_url":""},{"id":3848,"title":"特別養護老人ホーム ほしのさと","architect":"隈研吾","year":2006.0,"address":"山口県下松市生野屋南1-13-1","latitude":34.03144073486328,"longitude":131.87411499023438,"category":"養護施設","big_category":"医療施設","description":"","image_url":"","tags":"","prefecture":"山口","contractor":"","structural_designer":"","landscape_designer":"","shinkenchiku_url":""},{"id":3849,"title":"東都医療大学","architect":"隈研吾","year":2008.0,"address":"埼玉県深谷市上柴町西4-2-11","latitude":36.18023681640625,"longitude":139.2989044189453,"category":"大学","big_category":"教育","description":"","image_url":"","tags":"","prefecture":"埼玉","contractor":"","structural_designer":"","landscape_designer":"","shinkenchiku_url":""},{"id":3850,"title":"ルシアン ペラフィネ 心斎橋","architect":"隈研吾","year":2009.0,"address":"大阪府大阪市中央区西心斎橋1-1-1","latitude":34.67482376098633,"longitude":135.50006103515625,"category":"店舗","big_category":"商業施設","description":"","image_url":"","tags":"","prefecture":"大阪","contractor":"","structural_designer":"","landscape_designer":"","shinkenchiku_url":""}]}