{"page":256,"total_pages":290,"items_per_page":50,"total_items":14467,"items":[{"id":12751,"title":"新番丁スクエア","architect":"榎大作","year":2021.0,"address":"香川県高松市番町2-14","latitude":34.34527587890625,"longitude":134.04005432128906,"category":"養護施設","big_category":"医療施設","description":"","image_url":"","tags":"Ver5.10(2023年10月)の追加建築","prefecture":"香川","contractor":"","structural_designer":"","landscape_designer":"","shinkenchiku_url":""},{"id":12752,"title":"礼拝堂 永寿 宇多津浄苑","architect":"鈴木祐介","year":2020.0,"address":"香川県綾歌郡宇多津町東分板橋西360","latitude":34.2911262512207,"longitude":133.8323974609375,"category":"霊園","big_category":"宗教","description":"","image_url":"","tags":"Ver5.10(2023年10月)の追加建築","prefecture":"香川","contractor":"","structural_designer":"","landscape_designer":"","shinkenchiku_url":""},{"id":12753,"title":"江戸川区角野栄子児童文学館 魔法の文学館","architect":"隈研吾","year":2023.0,"address":"東京都江戸川区南葛西7-3-1","latitude":35.64920425415039,"longitude":139.8822479248047,"category":"博物館","big_category":"ミュージアム","description":"2023年11月3日オープン予定。要事前予約","image_url":"","tags":"Ver5.10(2023年10月)の追加建築","prefecture":"東京","contractor":"","structural_designer":"","landscape_designer":"","shinkenchiku_url":""},{"id":12754,"title":"カプリス","architect":"川本達也","year":2023.0,"address":"愛知県名古屋市守山区下志段味5-2907","latitude":35.250335693359375,"longitude":137.017822265625,"category":"美容院","big_category":"商業施設","description":"","image_url":"","tags":"Ver5.10(2023年10月)の追加建築","prefecture":"愛知","contractor":"","structural_designer":"","landscape_designer":"","shinkenchiku_url":""},{"id":12755,"title":"ais大宮ビル","architect":"シーラカンスアンドアソシエイツ","year":1993.0,"address":"埼玉県さいたま市大宮区仲町1-60","latitude":35.90510940551758,"longitude":139.6257781982422,"category":"テナントビル","big_category":"商業施設","description":"","image_url":"","tags":"Ver5.10(2023年10月)の追加建築","prefecture":"埼玉","contractor":"","structural_designer":"","landscape_designer":"","shinkenchiku_url":""},{"id":12756,"title":"日本聖公会 大宮聖愛教会","architect":"上林敬吉","year":1934.0,"address":"埼玉県さいたま市大宮区桜木町2-172","latitude":35.90760040283203,"longitude":139.62057495117188,"category":"教会","big_category":"宗教","description":"","image_url":"","tags":"Ver5.10(2023年10月)の追加建築","prefecture":"埼玉","contractor":"","structural_designer":"","landscape_designer":"","shinkenchiku_url":""},{"id":12757,"title":"京都ゼロゲート","architect":"日建設計+竹中工務店","year":2018.0,"address":"京都府京都市下京区四条通高倉東入立売中之町83-1","latitude":35.00390625,"longitude":135.76275634765625,"category":"テナントビル","big_category":"商業施設","description":"1FApple京都の内装はノーマン・フォスター設計","image_url":"","tags":"Ver5.10(2023年10月)の追加建築","prefecture":"京都","contractor":"","structural_designer":"","landscape_designer":"","shinkenchiku_url":""},{"id":12758,"title":"SACRAビル 旧不動貯金銀行京都支店","architect":"日本建築","year":1915.0,"address":"京都府京都市中京区中之町20","latitude":35.00873565673828,"longitude":135.7648468017578,"category":"テナントビル","big_category":"商業施設","description":"1988年改修","image_url":"","tags":"Ver5.10(2023年10月)の追加建築","prefecture":"京都","contractor":"","structural_designer":"","landscape_designer":"","shinkenchiku_url":""},{"id":12759,"title":"平安女学院大学 室町館","architect":"富家宏泰","year":1951.0,"address":"京都府京都市上京区武衛陣町221","latitude":35.01948928833008,"longitude":135.75770568847656,"category":"大学","big_category":"教育","description":"","image_url":"","tags":"Ver5.10(2023年10月)の追加建築","prefecture":"京都","contractor":"","structural_designer":"","landscape_designer":"","shinkenchiku_url":""},{"id":12760,"title":"ニシヤマナガヤ","architect":"植村康平","year":2019.0,"address":"愛知県名古屋市名東区西山本通2-23","latitude":35.15533447265625,"longitude":136.99464416503906,"category":"店舗/モール/シェアオフィス","big_category":"商業施設,商業施設,商業施設","description":"西山商店街内にある築60年程の空き家をリノベーション","image_url":"","tags":"Ver5.10(2023年10月)の追加建築","prefecture":"愛知","contractor":"","structural_designer":"","landscape_designer":"","shinkenchiku_url":""},{"id":12761,"title":"翠紅舎","architect":"河井尊臣","year":2018.0,"address":"京都府京都市右京区嵯峨五島町37","latitude":35.01309585571289,"longitude":135.68772888183594,"category":"専門学校","big_category":"教育","description":"日本の木工技術を共有するための空間","image_url":"","tags":"Ver5.10(2023年10月)の追加建築","prefecture":"京都","contractor":"","structural_designer":"","landscape_designer":"","shinkenchiku_url":""},{"id":12762,"title":"大熊町立 学び舎ゆめの森","architect":"飯田善彦+鈴木弘人","year":2023.0,"address":"福島県双葉郡大熊町大川原南平2019-1","latitude":37.38139724731445,"longitude":140.9647674560547,"category":"学校/幼稚園","big_category":"教育,教育","description":"","image_url":"","tags":"新建築2023年11月号,Ver5.20(2024年1月)の追加建築","prefecture":"福島","contractor":"","structural_designer":"","landscape_designer":"","shinkenchiku_url":""},{"id":12763,"title":"横浜市立汐見台小学校","architect":"飯田善彦","year":2023.0,"address":"神奈川県横浜市磯子区汐見台3-6","latitude":35.40071105957031,"longitude":139.6067352294922,"category":"学校","big_category":"教育","description":"","image_url":"","tags":"新建築2023年11月号,Ver5.20(2024年1月)の追加建築","prefecture":"神奈川","contractor":"","structural_designer":"","landscape_designer":"","shinkenchiku_url":""},{"id":12764,"title":"安平町立早来学園","architect":"アトリエブンク+IEE教育環境研究所+チームラボアーキテクツ","year":2023.0,"address":"北海道勇払郡安平町早来大町169-1","latitude":42.76797866821289,"longitude":141.82662963867188,"category":"学校","big_category":"教育","description":"設計・監理：アトリエブンク 基本構想・基本計画・計画指導・家具計画：IEE教育環境研究所 ICT環境設計：チーム・ラボ","image_url":"","tags":"新建築2023年11月号,Ver5.20(2024年1月)の追加建築","prefecture":"北海道","contractor":"","structural_designer":"","landscape_designer":"","shinkenchiku_url":""},{"id":12765,"title":"マチスタヂオ","architect":"増田信吾+大坪克亘","year":2023.0,"address":"山形県米沢市本町2-1-12","latitude":37.90221405029297,"longitude":140.11114501953125,"category":"シェアオフィス","big_category":"商業施設","description":"","image_url":"","tags":"新建築2023年11月号,Ver5.20(2024年1月)の追加建築","prefecture":"山形","contractor":"","structural_designer":"","landscape_designer":"","shinkenchiku_url":""},{"id":12766,"title":"青葉山公園 仙臺緑彩館","architect":"槻橋修+グラック+文化財保存計画協会","year":2023.0,"address":"宮城県仙台市青葉区川内追廻無番地","latitude":38.257057189941406,"longitude":140.85877990722656,"category":"観光施設/公園/博物館","big_category":"レジャー施設,レジャー施設,ミュージアム","description":"全国都市緑化仙台フェアのメイン会場として利用され、2023年7月からビジターセンターとして活用されている。設計：ティーハウス・グラック・文化財保存計画協会設計共同体 統括・建築設計監修：槻橋修 公園設計監修：福岡孝則","image_url":"","tags":"新建築2023年11月号,Ver5.20(2024年1月)の追加建築","prefecture":"宮城","contractor":"","structural_designer":"","landscape_designer":"","shinkenchiku_url":""},{"id":12767,"title":"田町タワー","architect":"三菱地所","year":2023.0,"address":"東京都港区芝5-33-8","latitude":35.646751403808594,"longitude":139.74859619140625,"category":"オフィスビル","big_category":"企業施設","description":"","image_url":"","tags":"新建築2023年11月号,Ver5.20(2024年1月)の追加建築","prefecture":"東京","contractor":"","structural_designer":"","landscape_designer":"","shinkenchiku_url":""},{"id":12768,"title":"人吉市宝来町のみんなの家","architect":"乾久美子","year":2023.0,"address":"熊本県人吉市宝来町1285","latitude":32.211082458496094,"longitude":130.74725341796875,"category":"公民館・交流施設","big_category":"公共施設","description":"","image_url":"","tags":"くまもとアートポリス,新建築2023年11月号,Ver5.20(2024年1月)の追加建築","prefecture":"熊本","contractor":"","structural_designer":"","landscape_designer":"","shinkenchiku_url":""},{"id":12769,"title":"人吉市下新町・上新町のみんなの家","architect":"乾久美子","year":2023.0,"address":"熊本県人吉市下新町329","latitude":32.21522903442383,"longitude":130.7681427001953,"category":"公民館・交流施設","big_category":"公共施設","description":"","image_url":"","tags":"くまもとアートポリス,新建築2023年11月号,Ver5.20(2024年1月)の追加建築","prefecture":"熊本","contractor":"","structural_designer":"","landscape_designer":"","shinkenchiku_url":""},{"id":12770,"title":"八代市中津道のみんなの家","architect":"柳澤潤","year":2023.0,"address":"熊本県八代市坂本町中津道300","latitude":32.3824577331543,"longitude":130.6545867919922,"category":"公民館・交流施設","big_category":"公共施設","description":"","image_url":"","tags":"くまもとアートポリス,新建築2023年11月号,Ver5.20(2024年1月)の追加建築","prefecture":"熊本","contractor":"","structural_designer":"","landscape_designer":"","shinkenchiku_url":""},{"id":12771,"title":"八代市藤本・大門のみんなの家","architect":"柳澤潤","year":2023.0,"address":"熊本県八代市坂本町葉木字黒須場4259","latitude":32.42912292480469,"longitude":130.6474151611328,"category":"公民館・交流施設","big_category":"公共施設","description":"","image_url":"","tags":"くまもとアートポリス,新建築2023年11月号,Ver5.20(2024年1月)の追加建築","prefecture":"熊本","contractor":"","structural_designer":"","landscape_designer":"","shinkenchiku_url":""},{"id":12772,"title":"認定こども園 五風会","architect":"安藤忠雄","year":2023.0,"address":"大阪府岸和田市岸城町18-11","latitude":34.45722579956055,"longitude":135.37037658691406,"category":"幼稚園","big_category":"教育","description":"","image_url":"","tags":"Ver5.20(2024年1月)の追加建築","prefecture":"大阪","contractor":"","structural_designer":"","landscape_designer":"","shinkenchiku_url":""},{"id":12773,"title":"河崎家住宅 旧河崎經吉邸","architect":"木子七郎","year":1937.0,"address":"大阪府大阪市都島区網島町6-14","latitude":34.6938362121582,"longitude":135.52464294433594,"category":"住宅/洋館","big_category":"住宅,近代建築/遺産","description":"現在新たな活用を検討中","image_url":"","tags":"Ver5.20(2024年1月)の追加建築","prefecture":"大阪","contractor":"","structural_designer":"","landscape_designer":"","shinkenchiku_url":""},{"id":12774,"title":"大同生命大阪本社ビル","architect":"日建設計+一粒社ヴォーリズ建築事務所","year":1993.0,"address":"大阪府大阪市西区江戸堀1-2-1","latitude":34.69205856323242,"longitude":135.49671936035156,"category":"オフィスビル","big_category":"企業施設","description":"","image_url":"","tags":"Ver5.20(2024年1月)の追加建築","prefecture":"大阪","contractor":"","structural_designer":"","landscape_designer":"","shinkenchiku_url":""},{"id":12775,"title":"広場と書庫 SHINDO YARDS","architect":"山﨑健太郎","year":2023.0,"address":"三重県伊賀市新堂313","latitude":34.82087707519531,"longitude":136.20680236816406,"category":"図書館/公共施設","big_category":"文化施設,公共施設","description":"DMG森精機が整備。図書館、市役所支所などが入居している複合施設","image_url":"","tags":"新建築2023年12月号,Ver5.20(2024年1月)の追加建築","prefecture":"三重","contractor":"","structural_designer":"","landscape_designer":"","shinkenchiku_url":""},{"id":12776,"title":"りゅう歯科医院","architect":"葉祥栄","year":2008.0,"address":"福岡県久留米市花畑3-2-11","latitude":33.30550765991211,"longitude":130.51512145996094,"category":"個人医院","big_category":"医療施設","description":"","image_url":"","tags":"Ver5.20(2024年1月)の追加建築","prefecture":"福岡","contractor":"","structural_designer":"","landscape_designer":"","shinkenchiku_url":""},{"id":12777,"title":"サンコーテクノプラザ南流山児童センター 流山市立南流山地域図書館","architect":"新居千秋","year":2023.0,"address":"千葉県流山市南流山2539-1","latitude":35.833656311035156,"longitude":139.9015655517578,"category":"児童施設/図書館","big_category":"教育,文化施設","description":"","image_url":"","tags":"Ver5.20(2024年1月)の追加建築","prefecture":"千葉","contractor":"","structural_designer":"","landscape_designer":"","shinkenchiku_url":""},{"id":12778,"title":"AMZA","architect":"ON+余川辰哉","year":2021.0,"address":"神奈川県川崎市多摩区登戸1831-1","latitude":35.619537353515625,"longitude":139.56309509277344,"category":"テナントビル","big_category":"商業施設","description":"","image_url":"","tags":"Ver5.20(2024年1月)の追加建築","prefecture":"神奈川","contractor":"","structural_designer":"","landscape_designer":"","shinkenchiku_url":""},{"id":12779,"title":"各務原市庁舎","architect":"日本設計+大建設計株式会社+長尾英樹","year":2023.0,"address":"岐阜県各務原市那加桜町1-69","latitude":35.39899826049805,"longitude":136.8480987548828,"category":"庁舎","big_category":"公共施設","description":"","image_url":"","tags":"Ver5.20(2024年1月)の追加建築","prefecture":"岐阜","contractor":"","structural_designer":"","landscape_designer":"","shinkenchiku_url":""},{"id":12780,"title":"旭川市役所新総合庁舎","architect":"久米設計+柴滝建築設計事務所+中原建築設計事務所","year":2023.0,"address":"北海道旭川市7条通9","latitude":43.77133560180664,"longitude":142.36444091796875,"category":"庁舎","big_category":"公共施設","description":"","image_url":"","tags":"Ver5.20(2024年1月)の追加建築","prefecture":"北海道","contractor":"","structural_designer":"","landscape_designer":"","shinkenchiku_url":""},{"id":12781,"title":"SANU 2nd Home 一宮1st","architect":"加藤匡毅+あわデザインスタジオ","year":2023.0,"address":"千葉県長生郡一宮町一宮10147","latitude":35.374046325683594,"longitude":140.38722229003906,"category":"住宅/コテージ/カフェ","big_category":"住宅,宿泊,商業施設","description":"","image_url":"","tags":"Ver5.20(2024年1月)の追加建築","prefecture":"千葉","contractor":"","structural_designer":"","landscape_designer":"","shinkenchiku_url":""},{"id":12782,"title":"湘南工科大学附属高校図書館","architect":"川添善行+風景研究所","year":2023.0,"address":"神奈川県藤沢市辻堂西海岸1-1-25","latitude":35.324806213378906,"longitude":139.45053100585938,"category":"学校/図書館","big_category":"教育,文化施設","description":"","image_url":"","tags":"Ver5.20(2024年1月)の追加建築,新建築2024年12月号","prefecture":"神奈川","contractor":"","structural_designer":"","landscape_designer":"","shinkenchiku_url":""},{"id":12783,"title":"高知県本山町新庁舎","architect":"遠藤克彦","year":2022.0,"address":"高知県長岡郡本山町本山636","latitude":33.75967025756836,"longitude":133.5867462158203,"category":"庁舎","big_category":"公共施設","description":"","image_url":"","tags":"Ver5.20(2024年1月)の追加建築","prefecture":"高知","contractor":"","structural_designer":"","landscape_designer":"","shinkenchiku_url":""},{"id":12784,"title":"京丹波町役場","architect":"香山壽夫","year":2023.0,"address":"京都府船井郡京丹波町蒲生蒲生野487-1","latitude":35.16989517211914,"longitude":135.41940307617188,"category":"庁舎","big_category":"公共施設","description":"","image_url":"","tags":"新建築2023年12月号,Ver5.20(2024年1月)の追加建築","prefecture":"京都","contractor":"","structural_designer":"","landscape_designer":"","shinkenchiku_url":""},{"id":12785,"title":"銀座髙木ビル","architect":"山路哲生","year":2023.0,"address":"東京都中央区銀座7-3-6","latitude":35.670379638671875,"longitude":139.7606201171875,"category":"オフィスビル/テナントビル","big_category":"企業施設,商業施設","description":"","image_url":"","tags":"新建築2023年12月号,Ver5.20(2024年1月)の追加建築","prefecture":"東京","contractor":"","structural_designer":"","landscape_designer":"","shinkenchiku_url":""},{"id":12786,"title":"野村不動産溜池山王ビル","architect":"清水建設","year":2023.0,"address":"東京都港区赤坂1-1-14","latitude":35.67091369628906,"longitude":139.74432373046875,"category":"オフィスビル","big_category":"企業施設","description":"","image_url":"","tags":"新建築2023年12月号,Ver5.20(2024年1月)の追加建築","prefecture":"東京","contractor":"","structural_designer":"","landscape_designer":"","shinkenchiku_url":""},{"id":12787,"title":"潮騒レストラン","architect":"坂茂","year":2023.0,"address":"石川県珠洲市大谷町2-47","latitude":37.50135803222656,"longitude":137.17112731933594,"category":"レストラン/店舗","big_category":"商業施設,商業施設","description":"","image_url":"","tags":"新建築2023年12月号,Ver5.20(2024年1月)の追加建築","prefecture":"石川","contractor":"","structural_designer":"","landscape_designer":"","shinkenchiku_url":""},{"id":12788,"title":"セクールショップ&ギャラリー + 理容マツシマ","architect":"SPACESPACE","year":2022.0,"address":"大阪府寝屋川市香里新町2-15","latitude":34.78538513183594,"longitude":135.6277313232422,"category":"ギャラリー/美容院","big_category":"ミュージアム,商業施設","description":"","image_url":"","tags":"新建築2023年12月号,Ver5.20(2024年1月)の追加建築","prefecture":"大阪","contractor":"","structural_designer":"","landscape_designer":"","shinkenchiku_url":""},{"id":12789,"title":"まきのさんの道の駅・佐川","architect":"佐藤八尋+STUDIO YY+ワークステーション","year":2023.0,"address":"高知県高岡郡佐川町加茂2711-1","latitude":33.503379821777344,"longitude":133.3167724609375,"category":"PA・道の駅","big_category":"インフラ","description":"","image_url":"","tags":"新建築2023年12月号,Ver5.20(2024年1月)の追加建築","prefecture":"高知","contractor":"","structural_designer":"","landscape_designer":"","shinkenchiku_url":""},{"id":12790,"title":"認定こども園 つむぎ野","architect":"象設計集団","year":2023.0,"address":"宮城県多賀城市鶴ケ谷1-12-1","latitude":38.29848861694336,"longitude":141.01583862304688,"category":"幼稚園","big_category":"教育","description":"","image_url":"","tags":"新建築2023年12月号,Ver5.20(2024年1月)の追加建築","prefecture":"宮城","contractor":"","structural_designer":"","landscape_designer":"","shinkenchiku_url":""},{"id":12791,"title":"多機能ホーム奏","architect":"象設計集団","year":2018.0,"address":"北海道帯広市東3条南27-4","latitude":42.90082931518555,"longitude":143.21250915527344,"category":"養護施設","big_category":"医療施設","description":"2020年3月グループホーム棟竣工","image_url":"","tags":"Ver5.20(2024年1月)の追加建築","prefecture":"北海道","contractor":"","structural_designer":"","landscape_designer":"","shinkenchiku_url":""},{"id":12792,"title":"三鷹あゆみクリニック","architect":"象設計集団","year":2020.0,"address":"東京都三鷹市下連雀3-7-16","latitude":35.70026779174805,"longitude":139.5635223388672,"category":"個人医院/住宅","big_category":"医療施設,住宅","description":"","image_url":"","tags":"Ver5.20(2024年1月)の追加建築","prefecture":"東京","contractor":"","structural_designer":"","landscape_designer":"","shinkenchiku_url":""},{"id":12793,"title":"おひさま くるめようちえん","architect":"象設計集団","year":2020.0,"address":"福岡県久留米市長門石4-10-3","latitude":33.332374572753906,"longitude":130.48463439941406,"category":"幼稚園","big_category":"教育","description":"","image_url":"","tags":"Ver5.20(2024年1月)の追加建築","prefecture":"福岡","contractor":"","structural_designer":"","landscape_designer":"","shinkenchiku_url":""},{"id":12794,"title":"上野動物園バードソング","architect":"象設計集団","year":2007.0,"address":"東京都台東区上野公園9-9","latitude":35.717010498046875,"longitude":139.7705078125,"category":"店舗","big_category":"商業施設","description":"上野動物園内にある売店","image_url":"","tags":"Ver5.20(2024年1月)の追加建築","prefecture":"東京","contractor":"","structural_designer":"","landscape_designer":"","shinkenchiku_url":""},{"id":12795,"title":"MORIUMIUS漁村留学棟","architect":"象設計集団","year":2021.0,"address":"宮城県石巻市雄勝町桑浜桑浜60","latitude":38.4991455078125,"longitude":141.52688598632812,"category":"学校/寮","big_category":"教育,住宅","description":"","image_url":"","tags":"Ver5.20(2024年1月)の追加建築","prefecture":"宮城","contractor":"","structural_designer":"","landscape_designer":"","shinkenchiku_url":""},{"id":12796,"title":"中津川市立福岡小学校","architect":"石本建築事務所","year":2023.0,"address":"岐阜県中津川市福岡1-8","latitude":35.5740966796875,"longitude":137.45420837402344,"category":"学校","big_category":"教育","description":"","image_url":"","tags":"新建築2023年12月号,Ver5.20(2024年1月)の追加建築","prefecture":"岐阜","contractor":"","structural_designer":"","landscape_designer":"","shinkenchiku_url":""},{"id":12797,"title":"島田市新庁舎","architect":"石本建築事務所","year":2023.0,"address":"静岡県島田市中央町1-1","latitude":34.836097717285156,"longitude":138.1769561767578,"category":"庁舎","big_category":"公共施設","description":"","image_url":"","tags":"Ver5.20(2024年1月)の追加建築","prefecture":"静岡","contractor":"","structural_designer":"","landscape_designer":"","shinkenchiku_url":""},{"id":12798,"title":"芦原温泉駅西口賑わい施設 アフレア","architect":"木下設計","year":2023.0,"address":"福井県あわら市春宮1-12-18","latitude":36.21466064453125,"longitude":136.2346649169922,"category":"観光施設/ホール・劇場","big_category":"レジャー施設,文化施設","description":"","image_url":"","tags":"新建築2023年12月号,Ver5.20(2024年1月)の追加建築","prefecture":"福井","contractor":"","structural_designer":"","landscape_designer":"","shinkenchiku_url":""},{"id":12799,"title":"江北小路","architect":"スタジオ・クハラ・ヤギ+team Timberize","year":2023.0,"address":"東京都足立区江北4-18-13","latitude":35.77385711669922,"longitude":139.763916015625,"category":"集合住宅","big_category":"住宅","description":"","image_url":"","tags":"新建築2023年12月号,Ver5.20(2024年1月)の追加建築","prefecture":"東京","contractor":"","structural_designer":"","landscape_designer":"","shinkenchiku_url":""},{"id":12800,"title":"洋光台南第一住宅集会所・管理事務所","architect":"スタジオ・クハラ・ヤギ+team Timberize","year":2021.0,"address":"神奈川県横浜市磯子区洋光台5-4-40","latitude":35.37531280517578,"longitude":139.59584045410156,"category":"公民館・交流施設","big_category":"公共施設","description":"","image_url":"","tags":"Ver5.20(2024年1月)の追加建築","prefecture":"神奈川","contractor":"","structural_designer":"","landscape_designer":"","shinkenchiku_url":""}]}