{"page":138,"total_pages":290,"items_per_page":50,"total_items":14467,"items":[{"id":6851,"title":"道の駅いたこ 農産物直売所","architect":"八木敦之","year":2017.0,"address":"茨城県潮来市前川1326-1","latitude":35.94668197631836,"longitude":140.5892791748047,"category":"PA・道の駅","big_category":"インフラ","description":"","image_url":"","tags":"Ver1.96(2017年8月)の追加建築","prefecture":"茨城","contractor":"","structural_designer":"","landscape_designer":"","shinkenchiku_url":""},{"id":6852,"title":"斎藤茂吉記念館","architect":"谷口吉郎+谷口吉生","year":1967.0,"address":"山形県上山市北町弁天1421","latitude":38.17206573486328,"longitude":140.2992706298828,"category":"博物館","big_category":"ミュージアム","description":"地上部分を谷口吉郎が、地下部分・大規模改修を谷口吉生が手がけた","image_url":"","tags":"Ver1.96(2017年8月)の追加建築","prefecture":"山形","contractor":"","structural_designer":"","landscape_designer":"","shinkenchiku_url":""},{"id":6853,"title":"苫小牧市総合体育館","architect":"日建設計","year":1973.0,"address":"北海道苫小牧市末広町3-2-16","latitude":42.6358528137207,"longitude":141.60850524902344,"category":"体育館","big_category":"レジャー施設","description":"","image_url":"","tags":"Ver1.96(2017年8月)の追加建築","prefecture":"北海道","contractor":"","structural_designer":"","landscape_designer":"","shinkenchiku_url":""},{"id":6854,"title":"苫小牧市民会館","architect":"日建設計","year":1969.0,"address":"北海道苫小牧市旭町3-2-2","latitude":42.63106155395508,"longitude":141.60330200195312,"category":"ホール・劇場","big_category":"文化施設","description":"","image_url":"","tags":"Ver1.96(2017年8月)の追加建築","prefecture":"北海道","contractor":"","structural_designer":"","landscape_designer":"","shinkenchiku_url":""},{"id":6855,"title":"Agri Chapel 丘の礼拝堂","architect":"百枝優","year":2016.0,"address":"長崎県長崎市四杖町2671-1","latitude":32.8027229309082,"longitude":129.79742431640625,"category":"結婚式場","big_category":"宗教","description":"長崎あぐりの丘高原ホテル内","image_url":"","tags":"Ver1.96(2017年8月)の追加建築,新建築2018年10月号,第31回AACA 芦原義信賞","prefecture":"長崎","contractor":"","structural_designer":"","landscape_designer":"","shinkenchiku_url":""},{"id":6856,"title":"宇美町地域交流センター うみ・みらい館","architect":"日本設計","year":2007.0,"address":"福岡県糟屋郡宇美町平和1-1-2","latitude":33.57291793823242,"longitude":130.51535034179688,"category":"図書館","big_category":"文化施設","description":"","image_url":"","tags":"Ver1.96(2017年8月)の追加建築","prefecture":"福岡","contractor":"","structural_designer":"","landscape_designer":"","shinkenchiku_url":""},{"id":6857,"title":"白河文化交流館 コミネス","architect":"日本設計","year":2016.0,"address":"福島県白河市会津町1-17","latitude":37.130401611328125,"longitude":140.209228515625,"category":"ホール・劇場","big_category":"文化施設","description":"","image_url":"","tags":"Ver1.96(2017年8月)の追加建築","prefecture":"福島","contractor":"","structural_designer":"","landscape_designer":"","shinkenchiku_url":""},{"id":6858,"title":"高浜町役場 高浜公民館","architect":"日本設計","year":2016.0,"address":"福井県大飯郡高浜町宮崎86-23-2","latitude":35.48798370361328,"longitude":135.5460662841797,"category":"庁舎/公民館・交流施設","big_category":"公共施設,公共施設","description":"","image_url":"","tags":"Ver1.96(2017年8月)の追加建築","prefecture":"福井","contractor":"","structural_designer":"","landscape_designer":"","shinkenchiku_url":""},{"id":6859,"title":"世界救世教 岡田茂吉記念館","architect":"日本設計","year":2014.0,"address":"京都府京都市右京区嵯峨広沢北下馬野町4-1","latitude":35.02512741088867,"longitude":135.692626953125,"category":"博物館/宗教施設","big_category":"ミュージアム,宗教","description":"（恐らく）一般の人も見学可能","image_url":"","tags":"Ver1.96(2017年8月)の追加建築","prefecture":"京都","contractor":"","structural_designer":"","landscape_designer":"","shinkenchiku_url":""},{"id":6860,"title":"小諸自動車教習所","architect":"東孝光","year":1970.0,"address":"長野県小諸市森山85","latitude":36.30304718017578,"longitude":138.44924926757812,"category":"専門学校","big_category":"教育","description":"","image_url":"","tags":"Ver1.96(2017年8月)の追加建築","prefecture":"長野","contractor":"","structural_designer":"","landscape_designer":"","shinkenchiku_url":""},{"id":6861,"title":"千曲市更埴庁舎","architect":"滝沢健児","year":1965.0,"address":"長野県千曲市杭瀬下84","latitude":36.533897399902344,"longitude":138.1199951171875,"category":"庁舎","big_category":"公共施設","description":"","image_url":"","tags":"Ver1.96(2017年8月)の追加建築","prefecture":"長野","contractor":"","structural_designer":"","landscape_designer":"","shinkenchiku_url":""},{"id":6862,"title":"千曲市更埴体育館","architect":"滝沢健児","year":1971.0,"address":"長野県千曲市杭瀬下2-1","latitude":36.53071212768555,"longitude":138.11488342285156,"category":"体育館","big_category":"レジャー施設","description":"","image_url":"","tags":"Ver1.96(2017年8月)の追加建築","prefecture":"長野","contractor":"","structural_designer":"","landscape_designer":"","shinkenchiku_url":""},{"id":6863,"title":"高碕記念館","architect":"ウィリアム・メレル・ヴォーリズ","year":1923.0,"address":"兵庫県宝塚市雲雀丘1-7-58","latitude":34.82848358154297,"longitude":135.40005493164062,"category":"洋館","big_category":"近代建築/遺産","description":"庭園は火曜日〜日曜日、内部見学は要予約","image_url":"","tags":"Ver1.96(2017年8月)の追加建築,登録有形文化財","prefecture":"兵庫","contractor":"","structural_designer":"","landscape_designer":"","shinkenchiku_url":""},{"id":6864,"title":"西友 行徳店","architect":"菊竹清訓","year":1986.0,"address":"千葉県市川市行徳駅前1-19-1","latitude":35.68408203125,"longitude":139.91534423828125,"category":"テナントビル","big_category":"商業施設","description":"","image_url":"","tags":"Ver1.96(2017年8月)の追加建築","prefecture":"千葉","contractor":"","structural_designer":"","landscape_designer":"","shinkenchiku_url":""},{"id":6865,"title":"森の中の家 安野光雅館","architect":"安藤忠雄","year":2017.0,"address":"京都府京丹後市久美浜町谷764","latitude":35.5831184387207,"longitude":134.95082092285156,"category":"美術館","big_category":"ミュージアム","description":"","image_url":"","tags":"Ver1.96(2017年8月)の追加建築","prefecture":"京都","contractor":"","structural_designer":"","landscape_designer":"","shinkenchiku_url":""},{"id":6866,"title":"江之浦測候所","architect":"杉本博司+榊田倫之","year":2017.0,"address":"神奈川県小田原市江之浦362-1","latitude":35.18821334838867,"longitude":139.1348876953125,"category":"美術館","big_category":"ミュージアム","description":"要事前予約、チケット購入","image_url":"","tags":"Ver1.96(2017年8月)の追加建築,新建築2017年12月号","prefecture":"神奈川","contractor":"","structural_designer":"","landscape_designer":"","shinkenchiku_url":""},{"id":6867,"title":"鹿児島県産業会館","architect":"内藤建築事務所","year":1967.0,"address":"鹿児島県鹿児島市名山町9-1","latitude":31.594505310058594,"longitude":130.5587158203125,"category":"公共施設","big_category":"公共施設","description":"","image_url":"","tags":"Ver1.96(2017年8月)の追加建築,DOCOMOMO","prefecture":"鹿児島","contractor":"小牧建設","structural_designer":"","landscape_designer":"","shinkenchiku_url":""},{"id":6868,"title":"フォーエバー現代美術館 旧八坂倶楽部","architect":"不明","year":1913.0,"address":"京都府京都市東山区祇園町南側570-2","latitude":35.00114440917969,"longitude":135.77557373046875,"category":"美術館","big_category":"ミュージアム","description":"2019年2月で閉館","image_url":"","tags":"Ver1.96(2017年8月)の追加建築","prefecture":"京都","contractor":"","structural_designer":"","landscape_designer":"","shinkenchiku_url":""},{"id":6869,"title":"キリスト兄弟団西宮教会","architect":"出江寛+新井組","year":1982.0,"address":"兵庫県西宮市染殿町2-6","latitude":34.73469924926758,"longitude":135.34458923339844,"category":"教会","big_category":"宗教","description":"","image_url":"","tags":"Ver1.96(2017年8月)の追加建築","prefecture":"兵庫","contractor":"","structural_designer":"","landscape_designer":"","shinkenchiku_url":""},{"id":6870,"title":"yzcorp+bld","architect":"若林広幸","year":2008.0,"address":"兵庫県神戸市中央区下山手通2-17-2","latitude":34.69415283203125,"longitude":135.1901397705078,"category":"ホール・劇場","big_category":"文化施設","description":"","image_url":"","tags":"Ver1.96(2017年8月)の追加建築","prefecture":"兵庫","contractor":"","structural_designer":"","landscape_designer":"","shinkenchiku_url":""},{"id":6871,"title":"明治学院大学 本館","architect":"内井昭蔵","year":1996.0,"address":"東京都港区白金台1-2-37","latitude":35.63759994506836,"longitude":139.73135375976562,"category":"大学","big_category":"教育","description":"","image_url":"","tags":"Ver1.96(2017年8月)の追加建築","prefecture":"東京","contractor":"","structural_designer":"","landscape_designer":"","shinkenchiku_url":""},{"id":6872,"title":"明治学院大学 2号館","architect":"内井昭蔵","year":1997.0,"address":"東京都港区白金台1-2-37","latitude":35.638057708740234,"longitude":139.7305908203125,"category":"大学","big_category":"教育","description":"","image_url":"","tags":"Ver1.96(2017年8月)の追加建築","prefecture":"東京","contractor":"","structural_designer":"","landscape_designer":"","shinkenchiku_url":""},{"id":6873,"title":"浦安市立高洲保育園","architect":"内井昭蔵","year":1999.0,"address":"千葉県浦安市高洲2-3-4","latitude":35.638282775878906,"longitude":139.9105987548828,"category":"幼稚園","big_category":"教育","description":"","image_url":"","tags":"Ver1.96(2017年8月)の追加建築","prefecture":"千葉","contractor":"","structural_designer":"","landscape_designer":"","shinkenchiku_url":""},{"id":6874,"title":"新潟大学 総合研究棟 物質・生産系","architect":"内井昭蔵","year":2002.0,"address":"新潟県新潟市西区五十嵐2の町","latitude":37.8658561706543,"longitude":138.9407958984375,"category":"大学","big_category":"教育","description":"","image_url":"","tags":"Ver1.96(2017年8月)の追加建築","prefecture":"新潟","contractor":"","structural_designer":"","landscape_designer":"","shinkenchiku_url":""},{"id":6875,"title":"新潟大学 総合研究棟 生命･環境系","architect":"内井建築設計事務所","year":2003.0,"address":"新潟県新潟市西区五十嵐2の町","latitude":37.86663055419922,"longitude":138.9403076171875,"category":"大学","big_category":"教育","description":"","image_url":"","tags":"Ver1.96(2017年8月)の追加建築","prefecture":"新潟","contractor":"","structural_designer":"","landscape_designer":"","shinkenchiku_url":""},{"id":6876,"title":"鳥取環境大学 本部・講義棟","architect":"内井昭蔵","year":2001.0,"address":"鳥取県鳥取市若葉台北1-1-1-1","latitude":35.45082092285156,"longitude":134.25537109375,"category":"大学","big_category":"教育","description":"","image_url":"","tags":"Ver1.96(2017年8月)の追加建築","prefecture":"鳥取","contractor":"","structural_designer":"","landscape_designer":"","shinkenchiku_url":""},{"id":6877,"title":"台東区立大正小学校･大正幼稚園","architect":"内井昭蔵","year":1994.0,"address":"東京都台東区入谷2-23-8","latitude":35.72095489501953,"longitude":139.7880859375,"category":"学校/幼稚園","big_category":"教育,教育","description":"","image_url":"","tags":"Ver1.96(2017年8月)の追加建築","prefecture":"東京","contractor":"","structural_designer":"","landscape_designer":"","shinkenchiku_url":""},{"id":6878,"title":"台東区立上野小学校","architect":"内井昭蔵","year":1991.0,"address":"東京都台東区東上野6-16-8","latitude":35.713829040527344,"longitude":139.7836456298828,"category":"学校","big_category":"教育","description":"","image_url":"","tags":"Ver1.96(2017年8月)の追加建築","prefecture":"東京","contractor":"","structural_designer":"","landscape_designer":"","shinkenchiku_url":""},{"id":6879,"title":"明治学院大学高等学校 本館","architect":"内井昭蔵","year":1991.0,"address":"東京都港区白金台1-2-37","latitude":35.63638687133789,"longitude":139.73016357421875,"category":"学校","big_category":"教育","description":"香山建築研究所+石本建築事務所の設計により2022年建て替え","image_url":"","tags":"Ver1.96(2017年8月)の追加建築","prefecture":"東京","contractor":"","structural_designer":"","landscape_designer":"","shinkenchiku_url":""},{"id":6880,"title":"千葉英和高等学校","architect":"内井昭蔵","year":1987.0,"address":"千葉県八千代市村上709-1","latitude":35.738502502441406,"longitude":140.12423706054688,"category":"学校","big_category":"教育","description":"","image_url":"","tags":"Ver1.96(2017年8月)の追加建築","prefecture":"千葉","contractor":"","structural_designer":"","landscape_designer":"","shinkenchiku_url":""},{"id":6881,"title":"横浜市立荏田南小学校","architect":"内井昭蔵","year":1983.0,"address":"神奈川県横浜市都筑区荏田南2-5-2","latitude":35.544559478759766,"longitude":139.5564422607422,"category":"学校","big_category":"教育","description":"","image_url":"","tags":"Ver1.96(2017年8月)の追加建築","prefecture":"神奈川","contractor":"","structural_designer":"","landscape_designer":"","shinkenchiku_url":""},{"id":6882,"title":"横浜市立本町小学校","architect":"内井昭蔵","year":1984.0,"address":"神奈川県横浜市中区花咲町3-86","latitude":35.450599670410156,"longitude":139.62867736816406,"category":"学校","big_category":"教育","description":"","image_url":"","tags":"Ver1.96(2017年8月)の追加建築","prefecture":"神奈川","contractor":"","structural_designer":"","landscape_designer":"","shinkenchiku_url":""},{"id":6883,"title":"和歌山市民図書館","architect":"岡田新一","year":1981.0,"address":"和歌山県和歌山市湊本町3-1","latitude":34.23372268676758,"longitude":135.16348266601562,"category":"図書館","big_category":"文化施設","description":"","image_url":"","tags":"Ver1.96(2017年8月)の追加建築","prefecture":"和歌山","contractor":"","structural_designer":"","landscape_designer":"","shinkenchiku_url":""},{"id":6884,"title":"諫早市美術・歴史館","architect":"佐藤総合計画","year":2013.0,"address":"長崎県諫早市東小路町2-23","latitude":32.843849182128906,"longitude":130.05001831054688,"category":"美術館/博物館","big_category":"ミュージアム,ミュージアム","description":"","image_url":"","tags":"Ver1.96(2017年8月)の追加建築","prefecture":"長崎","contractor":"","structural_designer":"","landscape_designer":"","shinkenchiku_url":""},{"id":6885,"title":"ネスタリゾート神戸 ホテル ザ・パヴォーネ","architect":"高松伸","year":2017.0,"address":"兵庫県三木市細川町垂穂槙山894-60","latitude":34.816558837890625,"longitude":135.05917358398438,"category":"ホテル","big_category":"宿泊","description":"","image_url":"","tags":"Ver1.96(2017年8月)の追加建築","prefecture":"兵庫","contractor":"","structural_designer":"","landscape_designer":"","shinkenchiku_url":""},{"id":6886,"title":"佐用コンドミニアム","architect":"安藤忠雄","year":1991.0,"address":"兵庫県佐用郡佐用町口金近八ノ谷459-12","latitude":35.0085563659668,"longitude":134.39112854003906,"category":"ホテル","big_category":"宿泊","description":"2021年に全室スウィートのコンドミニアムとして改修","image_url":"","tags":"Ver1.96(2017年8月)の追加建築","prefecture":"兵庫","contractor":"","structural_designer":"","landscape_designer":"","shinkenchiku_url":""},{"id":6887,"title":"ウッドワンプラザ金沢","architect":"伊東豊雄","year":2017.0,"address":"石川県野々市市御経塚4-72","latitude":36.5493049621582,"longitude":136.60035705566406,"category":"店舗","big_category":"商業施設","description":"","image_url":"","tags":"Ver1.96(2017年8月)の追加建築","prefecture":"石川","contractor":"","structural_designer":"","landscape_designer":"","shinkenchiku_url":""},{"id":6888,"title":"CLT Cafe","architect":"KUS","year":2016.0,"address":"兵庫県神戸市垂水区狩口台7-15-47","latitude":34.64020919799805,"longitude":135.0245819091797,"category":"カフェ","big_category":"商業施設","description":"土日のみ。隣が安藤忠雄設計の住宅の模様。","image_url":"","tags":"Ver1.96(2017年8月)の追加建築","prefecture":"兵庫","contractor":"","structural_designer":"","landscape_designer":"","shinkenchiku_url":""},{"id":6889,"title":"ワインカーヴ CUVEE MISAWA","architect":"竹山聖","year":2015.0,"address":"山梨県北杜市明野町上手11984-1","latitude":35.77415466308594,"longitude":138.4684600830078,"category":"醸造所","big_category":"商業施設","description":"","image_url":"","tags":"Ver1.96(2017年8月)の追加建築","prefecture":"山梨","contractor":"","structural_designer":"","landscape_designer":"","shinkenchiku_url":""},{"id":6890,"title":"山梨県立富士山世界遺産センター","architect":"竜巳一級建築設計事務所","year":2016.0,"address":"山梨県南都留郡富士河口湖町船津6663−1","latitude":35.485626220703125,"longitude":138.77059936523438,"category":"博物館","big_category":"ミュージアム","description":"","image_url":"","tags":"Ver1.96(2017年8月)の追加建築","prefecture":"山梨","contractor":"","structural_designer":"","landscape_designer":"","shinkenchiku_url":""},{"id":6891,"title":"山梨学院大学 スポーツ科学部棟","architect":"清水建設","year":2016.0,"address":"山梨県甲府市酒折2-4-5","latitude":35.65478515625,"longitude":138.6027069091797,"category":"大学","big_category":"教育","description":"","image_url":"","tags":"Ver1.96(2017年8月)の追加建築","prefecture":"山梨","contractor":"","structural_designer":"","landscape_designer":"","shinkenchiku_url":""},{"id":6892,"title":"釜石市大町復興住宅3号","architect":"千葉学","year":2017.0,"address":"岩手県釜石市大町1-9-26","latitude":39.27342987060547,"longitude":141.88235473632812,"category":"集合住宅","big_category":"住宅","description":"","image_url":"","tags":"Ver1.96(2017年8月)の追加建築","prefecture":"岩手","contractor":"","structural_designer":"","landscape_designer":"","shinkenchiku_url":""},{"id":6893,"title":"吉光組","architect":"千葉学","year":2016.0,"address":"石川県小松市長崎町甲118","latitude":36.42483901977539,"longitude":136.4444580078125,"category":"低層オフィス","big_category":"企業施設","description":"","image_url":"","tags":"Ver1.96(2017年8月)の追加建築","prefecture":"石川","contractor":"","structural_designer":"","landscape_designer":"","shinkenchiku_url":""},{"id":6894,"title":"佐渡インフォメーションセンター あいぽーと佐渡","architect":"黒川紀章建築都市設計事務所","year":2014.0,"address":"新潟県佐渡市両津夷384-11","latitude":38.08378982543945,"longitude":138.4362030029297,"category":"観光施設","big_category":"レジャー施設","description":"","image_url":"","tags":"Ver2.00(2017年9月)の追加建築","prefecture":"新潟","contractor":"","structural_designer":"","landscape_designer":"","shinkenchiku_url":""},{"id":6895,"title":"猪名川霊園 礼拝堂・休憩棟","architect":"デイビッド・チッパーフィールド+小山光","year":2017.0,"address":"兵庫県川辺郡猪名川町清水字北谷27","latitude":34.96980667114258,"longitude":135.3180389404297,"category":"霊園","big_category":"宗教","description":"","image_url":"","tags":"新建築2017年9月号,Ver2.00(2017年9月)の追加建築","prefecture":"兵庫","contractor":"","structural_designer":"","landscape_designer":"","shinkenchiku_url":""},{"id":6896,"title":"三鷹中央防災公園・元気創造プラザ","architect":"日本設計","year":2017.0,"address":"東京都三鷹市新川6-37-1","latitude":35.68169021606445,"longitude":139.561767578125,"category":"福祉センター/児童施設/公園","big_category":"医療施設,教育,レジャー施設","description":"","image_url":"","tags":"新建築2017年9月号,Ver2.00(2017年9月)の追加建築","prefecture":"東京","contractor":"","structural_designer":"","landscape_designer":"","shinkenchiku_url":""},{"id":6897,"title":"再春館製薬所体育館 サクラリーナ","architect":"井手健一郎+松田和也","year":2017.0,"address":"熊本県上益城郡益城町 再春館製薬所体育館 サクラリーナ","latitude":32.81711196899414,"longitude":130.82965087890625,"category":"体育館","big_category":"レジャー施設","description":"","image_url":"","tags":"新建築2017年9月号,Ver2.00(2017年9月)の追加建築","prefecture":"熊本","contractor":"","structural_designer":"","landscape_designer":"","shinkenchiku_url":""},{"id":6898,"title":"日比谷パークフロント","architect":"鹿島建設+日建設計","year":2017.0,"address":"東京都千代田区内幸町2-1-8","latitude":35.67082214355469,"longitude":139.75360107421875,"category":"オフィスビル","big_category":"企業施設","description":"","image_url":"","tags":"新建築2017年9月号,Ver2.00(2017年9月)の追加建築","prefecture":"東京","contractor":"","structural_designer":"","landscape_designer":"","shinkenchiku_url":""},{"id":6899,"title":"大手町ホトリア","architect":"三菱地所","year":2015.0,"address":"東京都千代田区大手町1-1-1","latitude":35.68651580810547,"longitude":139.76211547851562,"category":"オフィスビル","big_category":"企業施設","description":"大手門タワー・JXビルと大手町パークビルディングによって構成される。2015年11月に大手門タワー・JXビル竣工。2017年1月に大手町パークビルディング竣工。","image_url":"","tags":"新建築2017年9月号,Ver2.00(2017年9月)の追加建築","prefecture":"東京","contractor":"","structural_designer":"","landscape_designer":"","shinkenchiku_url":""},{"id":6900,"title":"熊本大学ましきラボ","architect":"田中智之","year":2016.0,"address":"熊本県熊本市東区長嶺南5-3","latitude":32.78679275512695,"longitude":130.82009887695312,"category":"研究施設/大学","big_category":"教育,教育","description":"","image_url":"","tags":"新建築2017年9月号,Ver2.00(2017年9月)の追加建築","prefecture":"熊本","contractor":"","structural_designer":"","landscape_designer":"","shinkenchiku_url":""}]}