{"page":49,"total_pages":290,"items_per_page":50,"total_items":14467,"items":[{"id":2401,"title":"犬島アートプロジェクト「精錬所」","architect":"三分一博志","year":2008.0,"address":"岡山県岡山市東区犬島327-5","latitude":34.56660461425781,"longitude":134.10531616210938,"category":"美術館/産業遺産","big_category":"ミュージアム,近代建築/遺産","description":"瀬戸内国際芸術祭","image_url":"","tags":"2011年日本建築学会 作品賞,2010年度日本建築大賞,瀬戸内国際芸術祭","prefecture":"岡山","contractor":"","structural_designer":"","landscape_designer":"","shinkenchiku_url":""},{"id":2402,"title":"岡山西警察署","architect":"磯崎新","year":1997.0,"address":"岡山県岡山市北区野殿東町2-10","latitude":34.65979766845703,"longitude":133.88272094726562,"category":"警察・消防署","big_category":"公共施設","description":"","image_url":"","tags":"","prefecture":"岡山","contractor":"","structural_designer":"","landscape_designer":"","shinkenchiku_url":""},{"id":2403,"title":"犬島 家プロジェクト F邸","architect":"妹島和世","year":2010.0,"address":"岡山県岡山市東区犬島321","latitude":34.56514358520508,"longitude":134.10511779785156,"category":"美術館/ギャラリー/住宅","big_category":"ミュージアム,ミュージアム,住宅","description":"瀬戸内国際芸術祭参加作品。F、I、S、A、Cの5邸がある。","image_url":"","tags":"2015年村野藤吾賞,瀬戸内国際芸術祭","prefecture":"岡山","contractor":"","structural_designer":"","landscape_designer":"","shinkenchiku_url":""},{"id":2404,"title":"岡山市立オリエント美術館","architect":"岡田新一","year":1979.0,"address":"岡山県岡山市北区天神町9-31","latitude":34.66643524169922,"longitude":133.9301300048828,"category":"美術館","big_category":"ミュージアム","description":"","image_url":"","tags":"1988年公共建築賞,2006年JIA25年賞","prefecture":"岡山","contractor":"","structural_designer":"","landscape_designer":"","shinkenchiku_url":""},{"id":2405,"title":"おかやま信用金庫内山下支店 内山下スクエア","architect":"安藤忠雄","year":2013.0,"address":"岡山県岡山市北区内山下1-7-1","latitude":34.661041259765625,"longitude":133.93069458007812,"category":"金融機関","big_category":"企業施設","description":"","image_url":"","tags":"","prefecture":"岡山","contractor":"","structural_designer":"","landscape_designer":"","shinkenchiku_url":""},{"id":2406,"title":"IPU環太平洋大学 新校舎 PHILOSOPHIA","architect":"安藤忠雄","year":2013.0,"address":"岡山県岡山市東区瀬戸町観音寺721","latitude":34.72682571411133,"longitude":134.01229858398438,"category":"大学","big_category":"教育","description":"","image_url":"","tags":"","prefecture":"岡山","contractor":"","structural_designer":"","landscape_designer":"","shinkenchiku_url":""},{"id":2407,"title":"吉備津神社 回廊","architect":"不明","year":1719.0,"address":"岡山県岡山市北区吉備津931","latitude":34.67071533203125,"longitude":133.85064697265625,"category":"寺院","big_category":"宗教","description":"","image_url":"","tags":"","prefecture":"岡山","contractor":"","structural_designer":"","landscape_designer":"","shinkenchiku_url":""},{"id":2408,"title":"笠岡市立カブトガニ博物館","architect":"レーモンド設計事務所","year":1990.0,"address":"岡山県笠岡市横島1946-2","latitude":34.477394104003906,"longitude":133.52146911621094,"category":"博物館","big_category":"ミュージアム","description":"","image_url":"","tags":"","prefecture":"岡山","contractor":"","structural_designer":"","landscape_designer":"","shinkenchiku_url":""},{"id":2409,"title":"きびプラザ","architect":"黒川紀章","year":1991.0,"address":"岡山県加賀郡吉備中央町吉川4860-6","latitude":34.835105895996094,"longitude":133.7606658935547,"category":"モール/公民館・交流施設","big_category":"商業施設,公共施設","description":"","image_url":"","tags":"","prefecture":"岡山","contractor":"","structural_designer":"","landscape_designer":"","shinkenchiku_url":""},{"id":2410,"title":"吉備高原小学校・幼稚園","architect":"シーラカンスアンドアソシエイツ","year":1998.0,"address":"岡山県加賀郡吉備中央町竹部7520-19","latitude":34.83846664428711,"longitude":133.7639923095703,"category":"学校/幼稚園","big_category":"教育,教育","description":"幼稚園の竣工が1999年12月","image_url":"","tags":"2000年日本建築学会 作品選奨","prefecture":"岡山","contractor":"大本組","structural_designer":"中田捷夫研究室","landscape_designer":"","shinkenchiku_url":""},{"id":2411,"title":"友琳会館 友琳庭（吉備）","architect":"重森三玲","year":1969.0,"address":"岡山県加賀郡吉備中央町豊野1-2","latitude":34.863258361816406,"longitude":133.69387817382812,"category":"庭園","big_category":"文化施設","description":"","image_url":"","tags":"","prefecture":"岡山","contractor":"","structural_designer":"","landscape_designer":"","shinkenchiku_url":""},{"id":2412,"title":"苫田ダム管理庁舎","architect":"内藤廣","year":2003.0,"address":"岡山県苫田郡鏡野町土生1592","latitude":35.12660598754883,"longitude":133.8928985595703,"category":"公共施設","big_category":"公共施設","description":"","image_url":"","tags":"","prefecture":"岡山","contractor":"","structural_designer":"","landscape_designer":"","shinkenchiku_url":""},{"id":2413,"title":"高梁市成羽美術館","architect":"安藤忠雄","year":1994.0,"address":"岡山県高梁市成羽町下原1068-3","latitude":34.78073501586914,"longitude":133.53672790527344,"category":"美術館","big_category":"ミュージアム","description":"","image_url":"","tags":"","prefecture":"岡山","contractor":"","structural_designer":"","landscape_designer":"","shinkenchiku_url":""},{"id":2414,"title":"まなび広場にいみ 新見文化交流館・生涯学習センター","architect":"日建設計","year":1999.0,"address":"岡山県新見市新見310-3","latitude":34.97705841064453,"longitude":133.47035217285156,"category":"総合文化施設","big_category":"文化施設","description":"","image_url":"","tags":"","prefecture":"岡山","contractor":"","structural_designer":"","landscape_designer":"","shinkenchiku_url":""},{"id":2415,"title":"いこい処 笑食亭 牛窓の食堂","architect":"ニジアーキテクツ+ユージー技建","year":2013.0,"address":"岡山県瀬戸内市牛窓町鹿忍2222-1","latitude":34.617671966552734,"longitude":134.1330108642578,"category":"レストラン","big_category":"商業施設","description":"デザイン監修：原田将史","image_url":"","tags":"新建築2014年5月号","prefecture":"岡山","contractor":"ユージー技建","structural_designer":"オーノJAPAN","landscape_designer":"","shinkenchiku_url":"https://data.shinkenchiku.online/articles/SK_2014_05_122-0"},{"id":2416,"title":"牛窓ヨットハーバークラブハウス","architect":"石井和紘","year":1994.0,"address":"岡山県瀬戸内市牛窓町牛窓5414-7","latitude":34.61344909667969,"longitude":134.14622497558594,"category":"クラブハウス/港","big_category":"レジャー施設,インフラ","description":"","image_url":"","tags":"","prefecture":"岡山","contractor":"","structural_designer":"","landscape_designer":"","shinkenchiku_url":""},{"id":2417,"title":"瀬戸内市牛窓国際交流ヴィラ 事務局 旧牛窓国際芸術祭事務局","architect":"藤井博巳","year":1985.0,"address":"岡山県瀬戸内市牛窓町牛窓452","latitude":34.62511444091797,"longitude":134.16029357910156,"category":"公共施設","big_category":"公共施設","description":"","image_url":"","tags":"新建築1985年7月号","prefecture":"岡山","contractor":"","structural_designer":"","landscape_designer":"","shinkenchiku_url":""},{"id":2418,"title":"有隣荘","architect":"薬師寺主計+伊東忠太","year":1928.0,"address":"岡山県倉敷市中央1-3-18","latitude":34.59654998779297,"longitude":133.77120971679688,"category":"住宅","big_category":"住宅","description":"ゴールデンウィーク期間中のみ公開","image_url":"","tags":"","prefecture":"岡山","contractor":"","structural_designer":"","landscape_designer":"","shinkenchiku_url":""},{"id":2419,"title":"カモ井加工紙第二製造工場倉庫","architect":"TNA","year":2013.0,"address":"岡山県倉敷市片島町236","latitude":34.57483673095703,"longitude":133.72018432617188,"category":"工場","big_category":"企業施設","description":"年に1度、工場見学を開催している","image_url":"","tags":"","prefecture":"岡山","contractor":"","structural_designer":"","landscape_designer":"","shinkenchiku_url":""},{"id":2420,"title":"倉敷市営中庄団地 第一期","architect":"新居千秋","year":2000.0,"address":"岡山県倉敷市中庄団地21","latitude":34.61292266845703,"longitude":133.79119873046875,"category":"集合住宅","big_category":"住宅","description":"","image_url":"","tags":"","prefecture":"岡山","contractor":"","structural_designer":"","landscape_designer":"","shinkenchiku_url":""},{"id":2421,"title":"日本基督教団 倉敷教会","architect":"西村伊作","year":1923.0,"address":"岡山県倉敷市鶴形1-5-15","latitude":34.600650787353516,"longitude":133.77108764648438,"category":"教会","big_category":"宗教","description":"","image_url":"","tags":"","prefecture":"岡山","contractor":"","structural_designer":"","landscape_designer":"","shinkenchiku_url":""},{"id":2422,"title":"若竹の園","architect":"西村伊作","year":1925.0,"address":"岡山県倉敷市中央1-6-12","latitude":34.59506607055664,"longitude":133.7700653076172,"category":"幼稚園","big_category":"教育","description":"","image_url":"","tags":"","prefecture":"岡山","contractor":"","structural_designer":"","landscape_designer":"","shinkenchiku_url":""},{"id":2423,"title":"カモ井資料館","architect":"TNA","year":2012.0,"address":"岡山県倉敷市片島町236","latitude":34.5750617980957,"longitude":133.7198486328125,"category":"企業施設","big_category":"企業施設","description":"","image_url":"","tags":"","prefecture":"岡山","contractor":"","structural_designer":"","landscape_designer":"","shinkenchiku_url":""},{"id":2424,"title":"岡山県文化交流施設 水島サロン 水島愛あいサロン 環境交流スクエア","architect":"芦原太郎","year":1996.0,"address":"岡山県倉敷市水島東千鳥町1-50","latitude":34.527889251708984,"longitude":133.73977661132812,"category":"総合文化施設","big_category":"文化施設","description":"","image_url":"","tags":"","prefecture":"岡山","contractor":"","structural_designer":"","landscape_designer":"","shinkenchiku_url":""},{"id":2425,"title":"児島市民交流センター 旧橋の博物館","architect":"上田篤","year":1987.0,"address":"岡山県倉敷市児島味野2-2-38","latitude":34.46833419799805,"longitude":133.80361938476562,"category":"公民館・交流施設","big_category":"公共施設","description":"旧 倉敷市橋の博物館。改修","image_url":"","tags":"","prefecture":"岡山","contractor":"","structural_designer":"","landscape_designer":"","shinkenchiku_url":""},{"id":2426,"title":"岡山県営中庄団地 第一期","architect":"丹田悦雄","year":1993.0,"address":"岡山県倉敷市中庄団地2","latitude":34.61440658569336,"longitude":133.78857421875,"category":"集合住宅","big_category":"住宅","description":"","image_url":"","tags":"新建築1994年5月号","prefecture":"岡山","contractor":"","structural_designer":"","landscape_designer":"","shinkenchiku_url":""},{"id":2427,"title":"岡山県営中庄団地 第二期","architect":"阿部勤","year":1996.0,"address":"岡山県倉敷市中庄団地4","latitude":34.61321258544922,"longitude":133.78884887695312,"category":"集合住宅","big_category":"住宅","description":"","image_url":"","tags":"","prefecture":"岡山","contractor":"","structural_designer":"","landscape_designer":"","shinkenchiku_url":""},{"id":2428,"title":"岡山県営中庄団地 第三期","architect":"遠藤剛生","year":1998.0,"address":"岡山県倉敷市中庄団地6","latitude":34.61226272583008,"longitude":133.7896270751953,"category":"集合住宅","big_category":"住宅","description":"","image_url":"","tags":"","prefecture":"岡山","contractor":"","structural_designer":"","landscape_designer":"","shinkenchiku_url":""},{"id":2429,"title":"倉敷市営中庄団地 第二期","architect":"元倉眞琴","year":2004.0,"address":"岡山県倉敷市中庄団地25","latitude":34.61193084716797,"longitude":133.7923126220703,"category":"集合住宅","big_category":"住宅","description":"","image_url":"","tags":"","prefecture":"岡山","contractor":"","structural_designer":"","landscape_designer":"","shinkenchiku_url":""},{"id":2430,"title":"倉敷民芸館","architect":"不明","year":null,"address":"岡山県倉敷市中央1-4-11","latitude":34.59550476074219,"longitude":133.77159118652344,"category":"博物館","big_category":"ミュージアム","description":"","image_url":"","tags":"","prefecture":"岡山","contractor":"","structural_designer":"","landscape_designer":"","shinkenchiku_url":""},{"id":2431,"title":"倉敷紡績記念館","architect":"不明","year":1888.0,"address":"岡山県倉敷市本町7-1 ","latitude":34.5954704284668,"longitude":133.77305603027344,"category":"洋館","big_category":"近代建築/遺産","description":"","image_url":"","tags":"","prefecture":"岡山","contractor":"","structural_designer":"","landscape_designer":"","shinkenchiku_url":""},{"id":2432,"title":"倉敷歴史民俗資料館 旧倉敷幼稚園","architect":"不明","year":1915.0,"address":"岡山県倉敷市西中新田669","latitude":34.58474349975586,"longitude":133.7739715576172,"category":"洋館","big_category":"近代建築/遺産","description":"","image_url":"","tags":"","prefecture":"岡山","contractor":"","structural_designer":"","landscape_designer":"","shinkenchiku_url":""},{"id":2433,"title":"くらしき作陽大学 作陽音楽短期大学","architect":"吉村順三","year":1997.0,"address":"岡山県倉敷市玉島長尾3515","latitude":34.57493591308594,"longitude":133.67800903320312,"category":"大学","big_category":"教育","description":"","image_url":"","tags":"","prefecture":"岡山","contractor":"","structural_designer":"","landscape_designer":"","shinkenchiku_url":""},{"id":2434,"title":"倉敷市立美術館 旧倉敷市庁舎","architect":"丹下健三","year":1960.0,"address":"岡山県倉敷市中央2-6-1","latitude":34.5951042175293,"longitude":133.76866149902344,"category":"美術館","big_category":"ミュージアム","description":"","image_url":"","tags":"","prefecture":"岡山","contractor":"","structural_designer":"","landscape_designer":"","shinkenchiku_url":""},{"id":2435,"title":"倉敷アイビースクエア 旧倉敷紡績所","architect":"浦辺鎮太郎","year":1974.0,"address":"岡山県倉敷市本町7-2","latitude":34.59505844116211,"longitude":133.7729949951172,"category":"複合施設","big_category":"商業施設","description":"旧倉敷紡績所は1899竣工。2018年リニューアル、新宴会場を増設。2019年客室棟の耐震化等の改修","image_url":"","tags":"1974年日本建築学会 作品賞,2002年JIA25年賞,新建築2018年11月号,新建築2019年11月号","prefecture":"岡山","contractor":"","structural_designer":"","landscape_designer":"","shinkenchiku_url":""},{"id":2436,"title":"児島虎次郎記念館","architect":"不明","year":1916.0,"address":"岡山県倉敷市本町7-1 ","latitude":34.59547805786133,"longitude":133.77272033691406,"category":"洋館","big_category":"近代建築/遺産","description":"","image_url":"","tags":"","prefecture":"岡山","contractor":"","structural_designer":"","landscape_designer":"","shinkenchiku_url":""},{"id":2437,"title":"倉敷国際ホテル","architect":"浦辺鎮太郎","year":1963.0,"address":"岡山県倉敷市中央1-1-44","latitude":34.5961799621582,"longitude":133.7697296142578,"category":"ホテル","big_category":"宿泊","description":"2019年耐震化・リニューアル","image_url":"","tags":"1964年日本建築学会 作品賞,DOCOMOMO,新建築2019年11月号","prefecture":"岡山","contractor":"","structural_designer":"","landscape_designer":"","shinkenchiku_url":""},{"id":2438,"title":"大原美術館","architect":"薬師寺主計","year":1930.0,"address":"岡山県倉敷市中央1-1-15","latitude":34.596160888671875,"longitude":133.77064514160156,"category":"美術館","big_category":"ミュージアム","description":"","image_url":"","tags":"","prefecture":"岡山","contractor":"","structural_designer":"","landscape_designer":"","shinkenchiku_url":""},{"id":2439,"title":"大原美術館 分館","architect":"浦辺鎮太郎+浦辺設計","year":1961.0,"address":"岡山県倉敷市中央1-1-15","latitude":34.595523834228516,"longitude":133.76992797851562,"category":"美術館","big_category":"ミュージアム","description":"1961年分館竣工、地下展示棟増築1986年、新収蔵庫棟2009年竣工。","image_url":"","tags":"DOCOMOMO","prefecture":"岡山","contractor":"","structural_designer":"","landscape_designer":"","shinkenchiku_url":""},{"id":2440,"title":"岡山県立大学 同窓会館","architect":"岩本弘光","year":2013.0,"address":"岡山県総社市窪木111","latitude":34.691429138183594,"longitude":133.77915954589844,"category":"大学","big_category":"教育","description":"","image_url":"","tags":"","prefecture":"岡山","contractor":"","structural_designer":"","landscape_designer":"","shinkenchiku_url":""},{"id":2441,"title":"グリーンヒルズ津山 グラスハウス","architect":"横河健","year":1998.0,"address":"岡山県津山市大田512","latitude":35.095672607421875,"longitude":134.00946044921875,"category":"プール","big_category":"レジャー施設","description":"日本建築学会 作品賞受賞者名：横河健、木村旭","image_url":"","tags":"1999年日本建築学会 作品賞","prefecture":"岡山","contractor":"","structural_designer":"","landscape_designer":"","shinkenchiku_url":""},{"id":2442,"title":"津山市リージョンセンター","architect":"北川原温","year":1998.0,"address":"岡山県津山市大田920","latitude":35.092525482177734,"longitude":134.00262451171875,"category":"総合文化施設","big_category":"文化施設","description":"","image_url":"","tags":"","prefecture":"岡山","contractor":"","structural_designer":"","landscape_designer":"","shinkenchiku_url":""},{"id":2443,"title":"津山文化センター","architect":"川島甲士","year":1965.0,"address":"岡山県津山市山下68","latitude":35.064109802246094,"longitude":134.00401306152344,"category":"ホール・劇場","big_category":"文化施設","description":"2020年3月末まで改修閉館","image_url":"","tags":"DOCOMOMO","prefecture":"岡山","contractor":"","structural_designer":"","landscape_designer":"","shinkenchiku_url":""},{"id":2444,"title":"有元歯科医院","architect":"妹島和世","year":2006.0,"address":"岡山県津山市北園町6-17","latitude":35.0744514465332,"longitude":134.0059356689453,"category":"個人医院","big_category":"医療施設","description":"","image_url":"","tags":"","prefecture":"岡山","contractor":"","structural_designer":"","landscape_designer":"","shinkenchiku_url":""},{"id":2445,"title":"津山洋学資料館","architect":"象設計集団","year":2010.0,"address":"岡山県津山市西新町5","latitude":35.06312561035156,"longitude":134.01629638671875,"category":"博物館","big_category":"ミュージアム","description":"","image_url":"","tags":"","prefecture":"岡山","contractor":"","structural_designer":"","landscape_designer":"","shinkenchiku_url":""},{"id":2446,"title":"作州民芸館 旧土居銀行","architect":"不明","year":1920.0,"address":"岡山県津山市西今町18","latitude":35.06050109863281,"longitude":133.99368286132812,"category":"洋館/金融機関","big_category":"近代建築/遺産,企業施設","description":"","image_url":"","tags":"","prefecture":"岡山","contractor":"","structural_designer":"","landscape_designer":"","shinkenchiku_url":""},{"id":2447,"title":"津山郷土博物館 旧津山支庁舎","architect":"不明","year":1934.0,"address":"岡山県津山市山下92","latitude":35.060813903808594,"longitude":134.0056610107422,"category":"洋館","big_category":"近代建築/遺産","description":"","image_url":"","tags":"","prefecture":"岡山","contractor":"","structural_designer":"","landscape_designer":"","shinkenchiku_url":""},{"id":2448,"title":"奈義町現代美術館・奈義町立図書館","architect":"磯崎新","year":1994.0,"address":"岡山県勝田郡奈義町豊沢441","latitude":35.123958587646484,"longitude":134.17491149902344,"category":"美術館","big_category":"ミュージアム","description":"","image_url":"","tags":",2020年JIA25年賞 受賞作品","prefecture":"岡山","contractor":"","structural_designer":"","landscape_designer":"","shinkenchiku_url":""},{"id":2449,"title":"旧閑谷学校","architect":"不明","year":1673.0,"address":"岡山県備前市閑谷784","latitude":34.79573440551758,"longitude":134.22109985351562,"category":"博物館","big_category":"ミュージアム","description":"","image_url":"","tags":"","prefecture":"岡山","contractor":"","structural_designer":"","landscape_designer":"","shinkenchiku_url":""},{"id":2450,"title":"鶴学園八千代校舎 カンパネルラの館","architect":"村上徹","year":2000.0,"address":"広島県安芸高田市八千代町土師1144-1","latitude":34.661163330078125,"longitude":132.60536193847656,"category":"大学","big_category":"教育","description":"","image_url":"","tags":"","prefecture":"広島","contractor":"","structural_designer":"","landscape_designer":"","shinkenchiku_url":""}]}