{"page":215,"total_pages":290,"items_per_page":50,"total_items":14467,"items":[{"id":10701,"title":"おおば内科・循環器科医院","architect":"山田浩史","year":2016.0,"address":"佐賀県三養基郡みやき町白壁232-2","latitude":33.326541900634766,"longitude":130.4637908935547,"category":"個人医院","big_category":"医療施設","description":"","image_url":"","tags":"Ver4.00(2021年9月)の追加建築","prefecture":"佐賀","contractor":"","structural_designer":"","landscape_designer":"","shinkenchiku_url":""},{"id":10702,"title":"TERASO-Ⅰ","architect":"平野公基","year":2011.0,"address":"福岡県福岡市博多区博多駅東2-7-27","latitude":33.58658218383789,"longitude":130.42442321777344,"category":"テナントビル","big_category":"商業施設","description":"","image_url":"","tags":"Ver4.00(2021年9月)の追加建築","prefecture":"福岡","contractor":"","structural_designer":"","landscape_designer":"","shinkenchiku_url":""},{"id":10703,"title":"TERASO-Ⅱ","architect":"平野公基","year":2014.0,"address":"福岡県福岡市博多区博多駅東2-7-27","latitude":33.58685302734375,"longitude":130.4241180419922,"category":"テナントビル","big_category":"商業施設","description":"","image_url":"","tags":"Ver4.00(2021年9月)の追加建築","prefecture":"福岡","contractor":"","structural_designer":"","landscape_designer":"","shinkenchiku_url":""},{"id":10704,"title":"丸屋商事本社","architect":"NKS2アーキテクツ","year":2018.0,"address":"福岡県京都郡苅田町長浜町17-2","latitude":33.78179168701172,"longitude":130.99188232421875,"category":"低層オフィス","big_category":"企業施設","description":"","image_url":"","tags":"Ver4.00(2021年9月)の追加建築","prefecture":"福岡","contractor":"","structural_designer":"","landscape_designer":"","shinkenchiku_url":""},{"id":10705,"title":"斎苑 ミナモテラス","architect":"NKS2アーキテクツ","year":2017.0,"address":"大分県中津市宮夫58-4","latitude":33.593441009521484,"longitude":131.2103729248047,"category":"斎場","big_category":"公共施設","description":"","image_url":"","tags":"Ver4.00(2021年9月)の追加建築","prefecture":"大分","contractor":"","structural_designer":"","landscape_designer":"","shinkenchiku_url":""},{"id":10706,"title":"香椎保育所","architect":"NKS2アーキテクツ","year":2011.0,"address":"福岡県福岡市東区香椎駅前2-16-23","latitude":33.6595458984375,"longitude":130.43994140625,"category":"幼稚園","big_category":"教育","description":"","image_url":"","tags":"Ver4.00(2021年9月)の追加建築","prefecture":"福岡","contractor":"","structural_designer":"","landscape_designer":"","shinkenchiku_url":""},{"id":10707,"title":"九州工業大学 製図室","architect":"古森弘一","year":2013.0,"address":"福岡県北九州市戸畑区仙水町1-1","latitude":33.89289474487305,"longitude":130.8413543701172,"category":"大学","big_category":"教育","description":"","image_url":"","tags":"Ver4.00(2021年9月)の追加建築","prefecture":"福岡","contractor":"","structural_designer":"","landscape_designer":"","shinkenchiku_url":""},{"id":10708,"title":"池田保育園","architect":"古森弘一","year":2020.0,"address":"福岡県北九州市八幡西区池田2-3-26","latitude":33.80008316040039,"longitude":130.74758911132812,"category":"幼稚園","big_category":"教育","description":"","image_url":"","tags":"Ver4.00(2021年9月)の追加建築","prefecture":"福岡","contractor":"","structural_designer":"","landscape_designer":"","shinkenchiku_url":""},{"id":10709,"title":"東月隈公民館・老人いこいの家","architect":"NKS2アーキテクツ","year":2005.0,"address":"福岡県福岡市博多区東月隈4-3-1","latitude":33.578765869140625,"longitude":130.47332763671875,"category":"公民館・交流施設/福祉センター","big_category":"公共施設,医療施設","description":"","image_url":"","tags":"Ver4.00(2021年9月)の追加建築","prefecture":"福岡","contractor":"","structural_designer":"","landscape_designer":"","shinkenchiku_url":""},{"id":10710,"title":"志井のクリニック 岡田クリニック","architect":"NKS2アーキテクツ","year":1999.0,"address":"福岡県北九州市小倉南区志井1710-1","latitude":33.81465148925781,"longitude":130.8763885498047,"category":"個人医院","big_category":"医療施設","description":"","image_url":"","tags":"Ver4.00(2021年9月)の追加建築","prefecture":"福岡","contractor":"髙藤建設","structural_designer":"","landscape_designer":"","shinkenchiku_url":""},{"id":10711,"title":"こころ保育園","architect":"古森弘一","year":2020.0,"address":"福岡県北九州市小倉南区中曽根東2-9-21","latitude":33.83279037475586,"longitude":130.94427490234375,"category":"幼稚園","big_category":"教育","description":"","image_url":"","tags":"Ver4.00(2021年9月)の追加建築","prefecture":"福岡","contractor":"","structural_designer":"","landscape_designer":"","shinkenchiku_url":""},{"id":10712,"title":"もやいのえんがわ","architect":"古森弘一","year":2014.0,"address":"福岡県北九州市八幡西区鉄王2-2-43","latitude":33.84856414794922,"longitude":130.75074768066406,"category":"幼稚園/児童施設","big_category":"教育,教育","description":"内科診療所だったはずだが、幼稚園、児童館になっている","image_url":"","tags":"Ver4.00(2021年9月)の追加建築","prefecture":"福岡","contractor":"","structural_designer":"","landscape_designer":"","shinkenchiku_url":""},{"id":10713,"title":"博多駅前三丁目 アド・ベン・コーポレーション","architect":"古森弘一","year":2007.0,"address":"福岡市博多区博多駅前3-12-24","latitude":33.587589263916016,"longitude":130.41477966308594,"category":"オフィスビル","big_category":"企業施設","description":"","image_url":"","tags":"Ver4.00(2021年9月)の追加建築","prefecture":"福岡","contractor":"","structural_designer":"","landscape_designer":"","shinkenchiku_url":""},{"id":10714,"title":"九州産業大学付属九州高等学校 体育館","architect":"シーラカンスK&H","year":2012.0,"address":"福岡県福岡市東区香椎駅東2-22-1","latitude":33.66294479370117,"longitude":130.44705200195312,"category":"学校/体育館","big_category":"教育,レジャー施設","description":"","image_url":"","tags":"Ver4.00(2021年9月)の追加建築","prefecture":"福岡","contractor":"","structural_designer":"","landscape_designer":"","shinkenchiku_url":""},{"id":10715,"title":"佐賀県弁護士会館","architect":"ケイス","year":2011.0,"address":"佐賀県佐賀市中の小路7-19","latitude":33.25288009643555,"longitude":130.2943572998047,"category":"組合施設","big_category":"公共施設","description":"","image_url":"","tags":"Ver4.00(2021年9月)の追加建築","prefecture":"佐賀","contractor":"","structural_designer":"","landscape_designer":"","shinkenchiku_url":""},{"id":10716,"title":"北九州市立大学 北方交流センター","architect":"赤川貴雄","year":2011.0,"address":"福岡県北九州市小倉南区北方4-2-1","latitude":33.84407424926758,"longitude":130.8786163330078,"category":"大学","big_category":"教育","description":"","image_url":"","tags":"Ver4.00(2021年9月)の追加建築","prefecture":"福岡","contractor":"","structural_designer":"","landscape_designer":"","shinkenchiku_url":""},{"id":10717,"title":"ふたば保育園","architect":"赤川貴雄","year":2012.0,"address":"福岡県北九州市八幡東区槻田1-4-50","latitude":33.86323165893555,"longitude":130.84426879882812,"category":"幼稚園","big_category":"教育","description":"","image_url":"","tags":"Ver4.00(2021年9月)の追加建築","prefecture":"福岡","contractor":"","structural_designer":"","landscape_designer":"","shinkenchiku_url":""},{"id":10718,"title":"糠塚町の道場 湖月庵","architect":"芦澤竜一","year":2020.0,"address":"滋賀県東近江市糠塚町52-3","latitude":35.10630416870117,"longitude":136.17242431640625,"category":"スポーツ施設","big_category":"レジャー施設","description":"","image_url":"","tags":"Ver4.00(2021年9月)の追加建築","prefecture":"滋賀","contractor":"","structural_designer":"","landscape_designer":"","shinkenchiku_url":""},{"id":10719,"title":"堺市立大浜体育館・大浜武道館","architect":"梓設計","year":2021.0,"address":"大阪府堺市堺区大浜北町5-7","latitude":34.58058547973633,"longitude":135.4590301513672,"category":"体育館","big_category":"レジャー施設","description":"","image_url":"","tags":"Ver4.00(2021年9月)の追加建築","prefecture":"大阪","contractor":"熊谷組JV","structural_designer":"","landscape_designer":"","shinkenchiku_url":""},{"id":10720,"title":"モアナ渡辺通ビル","architect":"岩根英紀","year":2012.0,"address":"福岡県福岡市中央区渡辺通2-9-9","latitude":33.583431243896484,"longitude":130.40333557128906,"category":"テナントビル","big_category":"商業施設","description":"","image_url":"","tags":"Ver4.00(2021年9月)の追加建築","prefecture":"福岡","contractor":"","structural_designer":"","landscape_designer":"","shinkenchiku_url":""},{"id":10721,"title":"福岡自治労会館","architect":"岩根英紀","year":2013.0,"address":"福岡県福岡市中央区天神5-6","latitude":33.595027923583984,"longitude":130.39833068847656,"category":"組合施設","big_category":"公共施設","description":"","image_url":"","tags":"Ver4.00(2021年9月)の追加建築","prefecture":"福岡","contractor":"","structural_designer":"","landscape_designer":"","shinkenchiku_url":""},{"id":10722,"title":"すむのさとこどもかん","architect":"岩根英紀","year":2006.0,"address":"佐賀県鳥栖市高田町211-5","latitude":33.348209381103516,"longitude":130.52536010742188,"category":"幼稚園/児童施設","big_category":"教育,教育","description":"","image_url":"","tags":"Ver4.00(2021年9月)の追加建築","prefecture":"佐賀","contractor":"","structural_designer":"","landscape_designer":"","shinkenchiku_url":""},{"id":10723,"title":"壱岐公民館・老人いこいの家","architect":"岩根英紀","year":2014.0,"address":"福岡県福岡市西区拾六町団地1-14","latitude":33.56476593017578,"longitude":130.30845642089844,"category":"公民館・交流施設/福祉センター","big_category":"公共施設,医療施設","description":"","image_url":"","tags":"Ver4.00(2021年9月)の追加建築","prefecture":"福岡","contractor":"","structural_designer":"","landscape_designer":"","shinkenchiku_url":""},{"id":10724,"title":"金光教諫早教会","architect":"佐々木信明","year":2015.0,"address":"長崎県諫早市西小路町1072-1","latitude":32.84219741821289,"longitude":130.0501251220703,"category":"宗教施設","big_category":"宗教","description":"","image_url":"","tags":"Ver4.00(2021年9月)の追加建築","prefecture":"長崎","contractor":"","structural_designer":"","landscape_designer":"","shinkenchiku_url":""},{"id":10725,"title":"福田こども園","architect":"佐々木信明","year":2014.0,"address":"長崎県長崎市福田本町1694-2","latitude":32.74411392211914,"longitude":129.8184051513672,"category":"幼稚園","big_category":"教育","description":"","image_url":"","tags":"Ver4.00(2021年9月)の追加建築","prefecture":"長崎","contractor":"","structural_designer":"","landscape_designer":"","shinkenchiku_url":""},{"id":10726,"title":"小城市立小城中学校","architect":"久米設計","year":2009.0,"address":"佐賀県小城市小城町松尾4104","latitude":33.295989990234375,"longitude":130.19558715820312,"category":"学校","big_category":"教育","description":"","image_url":"","tags":"Ver4.00(2021年9月)の追加建築","prefecture":"佐賀","contractor":"","structural_designer":"","landscape_designer":"","shinkenchiku_url":""},{"id":10727,"title":"今宿の礼拝堂 福岡福音自由教会","architect":"井手健一郎","year":2009.0,"address":"福岡県福岡市西区今宿3-35-13","latitude":33.57942199707031,"longitude":130.2635498046875,"category":"教会","big_category":"宗教","description":"","image_url":"","tags":"Ver4.00(2021年9月)の追加建築","prefecture":"福岡","contractor":"","structural_designer":"","landscape_designer":"","shinkenchiku_url":""},{"id":10728,"title":"大濠テラス 八女茶と日本庭園と","architect":"井手健一郎","year":2020.0,"address":"福岡県福岡市中央区大濠公園1-9","latitude":33.582786560058594,"longitude":130.37684631347656,"category":"カフェ","big_category":"商業施設","description":"","image_url":"","tags":"Ver4.00(2021年9月)の追加建築,新建築2022年5月号","prefecture":"福岡","contractor":"","structural_designer":"","landscape_designer":"","shinkenchiku_url":""},{"id":10729,"title":"大賀薬局 九州医療センター前店","architect":"井手健一郎","year":2021.0,"address":"福岡県福岡市中央区地行浜1-6-18","latitude":33.5919303894043,"longitude":130.36181640625,"category":"医療施設/店舗","big_category":"医療施設,商業施設","description":"","image_url":"","tags":"Ver4.00(2021年9月)の追加建築","prefecture":"福岡","contractor":"","structural_designer":"","landscape_designer":"","shinkenchiku_url":""},{"id":10730,"title":"二日市のオフィス 美容室jeu","architect":"井手健一郎","year":2018.0,"address":"福岡県筑紫野市紫2-24-17","latitude":33.495643615722656,"longitude":130.52113342285156,"category":"美容院","big_category":"商業施設","description":"","image_url":"","tags":"Ver4.00(2021年9月)の追加建築","prefecture":"福岡","contractor":"","structural_designer":"","landscape_designer":"","shinkenchiku_url":""},{"id":10731,"title":"佐藤産業 本社オフィス・倉庫","architect":"井手健一郎","year":2016.0,"address":"福岡県糟屋郡宇美町障子岳南3-1-26","latitude":33.562217712402344,"longitude":130.53250122070312,"category":"低層オフィス/工場","big_category":"企業施設,企業施設","description":"","image_url":"","tags":"Ver4.00(2021年9月)の追加建築","prefecture":"福岡","contractor":"","structural_designer":"","landscape_designer":"","shinkenchiku_url":""},{"id":10732,"title":"&Green","architect":"井手健一郎","year":2017.0,"address":"福岡県福岡市南区花畑1-38-13","latitude":33.539703369140625,"longitude":130.40350341796875,"category":"店舗","big_category":"商業施設","description":"","image_url":"","tags":"Ver4.00(2021年9月)の追加建築","prefecture":"福岡","contractor":"","structural_designer":"","landscape_designer":"","shinkenchiku_url":""},{"id":10733,"title":"あおねこ動物病院","architect":"柳瀬真澄","year":2010.0,"address":"福岡県筑紫野市針摺東5-11-7","latitude":33.48234939575195,"longitude":130.5428466796875,"category":"個人医院","big_category":"医療施設","description":"","image_url":"","tags":"Ver4.00(2021年9月)の追加建築","prefecture":"福岡","contractor":"","structural_designer":"","landscape_designer":"","shinkenchiku_url":""},{"id":10734,"title":"九州大学 稲盛財団記念館","architect":"日建設計+三信建築設計事務所","year":2009.0,"address":"福岡県福岡市西区元岡744","latitude":33.597904205322266,"longitude":130.21934509277344,"category":"大学","big_category":"教育","description":"","image_url":"","tags":"Ver4.00(2021年9月)の追加建築","prefecture":"福岡","contractor":"","structural_designer":"","landscape_designer":"","shinkenchiku_url":""},{"id":10735,"title":"西南学院小学校","architect":"鹿島建設","year":2010.0,"address":"福岡県福岡市早良区百道浜1-1-2","latitude":33.588863372802734,"longitude":130.35675048828125,"category":"学校","big_category":"教育","description":"","image_url":"","tags":"Ver4.00(2021年9月)の追加建築","prefecture":"福岡","contractor":"","structural_designer":"","landscape_designer":"","shinkenchiku_url":""},{"id":10736,"title":"宇佐市葬斎場 やすらぎの里","architect":"株式会社大建設計","year":2007.0,"address":"大分県宇佐市安心院町田ノ口346","latitude":33.42030715942383,"longitude":131.32803344726562,"category":"斎場","big_category":"公共施設","description":"","image_url":"","tags":"Ver4.00(2021年9月)の追加建築","prefecture":"大分","contractor":"","structural_designer":"","landscape_designer":"","shinkenchiku_url":""},{"id":10737,"title":"長崎大学医学部 良順会館150周年ミュージアム","architect":"佐々木信明","year":2007.0,"address":"長崎県長崎市坂本1-12","latitude":32.77174377441406,"longitude":129.86756896972656,"category":"大学/博物館","big_category":"教育,ミュージアム","description":"","image_url":"","tags":"Ver4.00(2021年9月)の追加建築","prefecture":"長崎","contractor":"","structural_designer":"","landscape_designer":"","shinkenchiku_url":""},{"id":10738,"title":"福岡県醤油会館","architect":"柳瀬真澄","year":2006.0,"address":"福岡県筑紫野市牛島65","latitude":33.48191452026367,"longitude":130.54881286621094,"category":"組合施設","big_category":"公共施設","description":"","image_url":"","tags":"Ver4.00(2021年9月)の追加建築","prefecture":"福岡","contractor":"竹中工務店","structural_designer":"","landscape_designer":"","shinkenchiku_url":""},{"id":10739,"title":"西原商会本社ビル","architect":"松岡恭子+東条設計","year":2020.0,"address":"鹿児島県鹿児島市与次郎1-10-21","latitude":31.570234298706055,"longitude":130.56744384765625,"category":"オフィスビル","big_category":"企業施設","description":"","image_url":"","tags":"Ver4.00(2021年9月)の追加建築","prefecture":"鹿児島","contractor":"竹中工務店・渡辺組建設共同企業体","structural_designer":"","landscape_designer":"","shinkenchiku_url":""},{"id":10740,"title":"IHP STYLISHビル","architect":"松岡恭子","year":2006.0,"address":"鹿児島県鹿児島市東千石町16-18","latitude":31.591928482055664,"longitude":130.55450439453125,"category":"テナントビル","big_category":"商業施設","description":"","image_url":"","tags":"Ver4.00(2021年9月)の追加建築","prefecture":"鹿児島","contractor":"","structural_designer":"","landscape_designer":"","shinkenchiku_url":""},{"id":10741,"title":"星野リゾート 界 ポロト","architect":"中村拓志","year":2021.0,"address":"北海道白老郡白老町若草町1-1018-1","latitude":42.56013107299805,"longitude":141.36196899414062,"category":"ホテル","big_category":"宿泊","description":"ウポポイ（国立アイヌ博物館）に隣接して2022年1月14日にオープン予定","image_url":"","tags":"Ver4.00(2021年9月)の追加建築,新建築2022年1月号","prefecture":"北海道","contractor":"","structural_designer":"","landscape_designer":"","shinkenchiku_url":""},{"id":10742,"title":"こども本の森 遠野","architect":"安藤忠雄+カクタ設計","year":2021.0,"address":"岩手県遠野市中央通り1-16","latitude":39.32897186279297,"longitude":141.53118896484375,"category":"図書館","big_category":"文化施設","description":"2021年7月25日にオープン。しばらくの間は要事前予約","image_url":"","tags":"Ver4.00(2021年9月)の追加建築,新建築2021年11月号","prefecture":"岩手","contractor":"","structural_designer":"","landscape_designer":"","shinkenchiku_url":""},{"id":10743,"title":"髙部公民館","architect":"藤森照信+諏訪n設計企画","year":2021.0,"address":"長野県茅野市宮川高部95-イ","latitude":35.99582290649414,"longitude":138.1292724609375,"category":"公民館・交流施設","big_category":"公共施設","description":"","image_url":"","tags":"Ver4.00(2021年9月)の追加建築","prefecture":"長野","contractor":"","structural_designer":"","landscape_designer":"","shinkenchiku_url":""},{"id":10744,"title":"東立石保育園","architect":"相坂研介","year":2021.0,"address":"東京都葛飾区東立石4-45","latitude":35.736873626708984,"longitude":139.8511505126953,"category":"幼稚園","big_category":"教育","description":"","image_url":"","tags":"Ver4.00(2021年9月)の追加建築","prefecture":"東京","contractor":"","structural_designer":"","landscape_designer":"","shinkenchiku_url":""},{"id":10745,"title":"丸栄慶雲館","architect":"相坂研介","year":2014.0,"address":"東京都渋谷区神南1-9","latitude":35.6642951965332,"longitude":139.70147705078125,"category":"テナントビル/オフィスビル","big_category":"商業施設,企業施設","description":"","image_url":"","tags":"Ver4.00(2021年9月)の追加建築","prefecture":"東京","contractor":"","structural_designer":"","landscape_designer":"","shinkenchiku_url":""},{"id":10746,"title":"大正大学8号館","architect":"大林組","year":2020.0,"address":"東京都豊島区西巣鴨3-20-1","latitude":35.74207305908203,"longitude":139.72833251953125,"category":"大学/図書館","big_category":"教育,文化施設","description":"","image_url":"","tags":"Ver4.00(2021年9月)の追加建築","prefecture":"東京","contractor":"","structural_designer":"","landscape_designer":"","shinkenchiku_url":""},{"id":10747,"title":"ESCALIER 麹町","architect":"櫻井潔","year":2021.0,"address":"東京都千代田区麴町6-4-17","latitude":35.685760498046875,"longitude":139.73272705078125,"category":"オフィスビル","big_category":"企業施設","description":"","image_url":"","tags":"Ver4.00(2021年9月)の追加建築","prefecture":"東京","contractor":"","structural_designer":"","landscape_designer":"","shinkenchiku_url":""},{"id":10748,"title":"HULIC&New SHINJUKU","architect":"櫻井潔","year":2021.0,"address":"東京都新宿区新宿3-17-10","latitude":35.69193649291992,"longitude":139.70306396484375,"category":"テナントビル","big_category":"商業施設","description":"","image_url":"","tags":"Ver4.00(2021年9月)の追加建築","prefecture":"東京","contractor":"","structural_designer":"","landscape_designer":"","shinkenchiku_url":""},{"id":10749,"title":"グラスオフィス・ヒロシマ 新川電機中国支社","architect":"横河健","year":2001.0,"address":"広島県広島市中区竹屋町8-6","latitude":34.38259506225586,"longitude":132.4626007080078,"category":"オフィスビル","big_category":"企業施設","description":"","image_url":"","tags":"Ver4.00(2021年9月)の追加建築","prefecture":"広島","contractor":"前田建設・広島菱重共同企業体","structural_designer":"","landscape_designer":"","shinkenchiku_url":""},{"id":10750,"title":"焼津市 新庁舎","architect":"佐藤総合計画","year":2021.0,"address":"静岡県焼津市本町2-16","latitude":34.867095947265625,"longitude":138.3227996826172,"category":"庁舎","big_category":"公共施設","description":"","image_url":"","tags":"Ver4.00(2021年9月)の追加建築","prefecture":"静岡","contractor":"","structural_designer":"","landscape_designer":"","shinkenchiku_url":""}]}