{"page":2,"total_pages":290,"items_per_page":50,"total_items":14467,"items":[{"id":51,"title":"札幌市資料館 旧札幌市控訴院","architect":"司法省会計課","year":1926.0,"address":"北海道札幌市中央区大通西13-4-194","latitude":43.0577392578125,"longitude":141.3372344970703,"category":"洋館","big_category":"近代建築/遺産","description":"","image_url":"","tags":"","prefecture":"北海道","contractor":"","structural_designer":"","landscape_designer":"","shinkenchiku_url":""},{"id":52,"title":"本郷新記念札幌彫刻美術館","architect":"田上義也","year":1981.0,"address":"北海道札幌市中央区宮の森4条12-1-41","latitude":43.055137634277344,"longitude":141.29647827148438,"category":"美術館","big_category":"ミュージアム","description":"","image_url":"","tags":"","prefecture":"北海道","contractor":"","structural_designer":"","landscape_designer":"","shinkenchiku_url":""},{"id":53,"title":"ノアの方舟","architect":"ナイジェル・コーツ","year":1988.0,"address":"北海道札幌市中央区南8条西4-","latitude":43.050846099853516,"longitude":141.35377502441406,"category":"レストラン","big_category":"商業施設","description":"","image_url":"","tags":"","prefecture":"北海道","contractor":"","structural_designer":"","landscape_designer":"","shinkenchiku_url":""},{"id":54,"title":"豊平館","architect":"安達喜幸","year":1879.0,"address":"北海道札幌市中央区中島公園1-20","latitude":43.04636764526367,"longitude":141.3523712158203,"category":"洋館","big_category":"近代建築/遺産","description":"","image_url":"","tags":"重要文化財","prefecture":"北海道","contractor":"","structural_designer":"","landscape_designer":"","shinkenchiku_url":""},{"id":55,"title":"渡辺淳一文学館","architect":"安藤忠雄","year":1998.0,"address":"北海道札幌市中央区南12条西6-414","latitude":43.04443359375,"longitude":141.35113525390625,"category":"博物館","big_category":"ミュージアム","description":"","image_url":"","tags":"","prefecture":"北海道","contractor":"","structural_designer":"","landscape_designer":"","shinkenchiku_url":""},{"id":56,"title":"札幌市水道記念館","architect":"倉塚良夫","year":1937.0,"address":"北海道札幌市中央区伏見4-","latitude":43.03435516357422,"longitude":141.32984924316406,"category":"洋館","big_category":"近代建築/遺産","description":"","image_url":"","tags":"","prefecture":"北海道","contractor":"","structural_designer":"","landscape_designer":"","shinkenchiku_url":""},{"id":57,"title":"ろいず珈琲館 旧小熊邸","architect":"田上義也","year":1927.0,"address":"北海道札幌市中央区伏見5-3-1","latitude":43.03261947631836,"longitude":141.33213806152344,"category":"カフェ","big_category":"商業施設","description":"","image_url":"","tags":"","prefecture":"北海道","contractor":"","structural_designer":"","landscape_designer":"","shinkenchiku_url":""},{"id":58,"title":"もいわ山ロープウェイ施設","architect":"光井純","year":2011.0,"address":"北海道札幌市中央区伏見5-3-7","latitude":43.031494140625,"longitude":141.33306884765625,"category":"観光施設","big_category":"レジャー施設","description":"","image_url":"","tags":"","prefecture":"北海道","contractor":"","structural_designer":"","landscape_designer":"","shinkenchiku_url":""},{"id":59,"title":"エドウィン・ダン記念館","architect":"北海道庁","year":1887.0,"address":"北海道札幌市南区真駒内泉町1-6-1","latitude":42.98896789550781,"longitude":141.3523406982422,"category":"洋館","big_category":"近代建築/遺産","description":"","image_url":"","tags":"","prefecture":"北海道","contractor":"","structural_designer":"","landscape_designer":"","shinkenchiku_url":""},{"id":60,"title":"札幌コミュニティドーム","architect":"アトリエブンク","year":1997.0,"address":"北海道札幌市東区栄町885-1","latitude":43.115806579589844,"longitude":141.37503051757812,"category":"スタジアム","big_category":"レジャー施設","description":"","image_url":"","tags":"","prefecture":"北海道","contractor":"","structural_designer":"","landscape_designer":"","shinkenchiku_url":""},{"id":61,"title":"北海道青年会館 北海道ハウス ユースホステル","architect":"田上義也","year":1974.0,"address":"北海道札幌市北区北6条西6-3-1","latitude":43.06776809692383,"longitude":141.3456573486328,"category":"公共施設/ホステル","big_category":"公共施設,宿泊","description":"","image_url":"","tags":"","prefecture":"北海道","contractor":"","structural_designer":"","landscape_designer":"","shinkenchiku_url":""},{"id":62,"title":"旧永山武四郎邸","architect":"不明","year":null,"address":"北海道札幌市中央区北2条東6","latitude":43.06558609008789,"longitude":141.36471557617188,"category":"洋館","big_category":"近代建築/遺産","description":"","image_url":"","tags":"","prefecture":"北海道","contractor":"","structural_designer":"","landscape_designer":"","shinkenchiku_url":""},{"id":63,"title":"創成川公園","architect":"栗生明","year":2011.0,"address":"北海道札幌市中央区北1条東1","latitude":43.063316345214844,"longitude":141.35745239257812,"category":"公園","big_category":"レジャー施設","description":"","image_url":"","tags":"","prefecture":"北海道","contractor":"","structural_designer":"","landscape_designer":"","shinkenchiku_url":""},{"id":64,"title":"札幌市民ホール","architect":"日建設計","year":2008.0,"address":"北海道札幌市中央区北1条西1","latitude":43.06233596801758,"longitude":141.35562133789062,"category":"ホール・劇場","big_category":"文化施設","description":"","image_url":"","tags":"","prefecture":"北海道","contractor":"","structural_designer":"","landscape_designer":"","shinkenchiku_url":""},{"id":65,"title":"北海道立三岸好太郎美術館","architect":"岡田新一","year":1983.0,"address":"北海道札幌市中央区北2条西15","latitude":43.061798095703125,"longitude":141.33352661132812,"category":"美術館","big_category":"ミュージアム","description":"","image_url":"","tags":"","prefecture":"北海道","contractor":"","structural_designer":"","landscape_designer":"","shinkenchiku_url":""},{"id":66,"title":"札幌市教育文化会館","architect":"田上義也","year":1980.0,"address":"北海道札幌市中央区北1条西13","latitude":43.060302734375,"longitude":141.33705139160156,"category":"ホール・劇場","big_category":"文化施設","description":"","image_url":"","tags":"","prefecture":"北海道","contractor":"","structural_designer":"","landscape_designer":"","shinkenchiku_url":""},{"id":67,"title":"北海道知事公館 旧三井家別館","architect":"萩原惇正","year":1936.0,"address":"北海道札幌市中央区北1条西16","latitude":43.05959701538086,"longitude":141.3324432373047,"category":"洋館","big_category":"近代建築/遺産","description":"4月29日から11月30日まで庭園開放。土日は館内見学不可","image_url":"","tags":"","prefecture":"北海道","contractor":"","structural_designer":"","landscape_designer":"","shinkenchiku_url":""},{"id":68,"title":"北星学園創立百周年記念館","architect":"マックス・ヒンデル","year":1926.0,"address":"北海道札幌市中央区南4条西17-2-2","latitude":43.052467346191406,"longitude":141.33132934570312,"category":"洋館","big_category":"近代建築/遺産","description":"月水金のみ","image_url":"","tags":"","prefecture":"北海道","contractor":"","structural_designer":"","landscape_designer":"","shinkenchiku_url":""},{"id":69,"title":"北海道博物館 旧北海道開拓記念館","architect":"佐藤武夫","year":1971.0,"address":"北海道札幌市厚別区厚別町小野幌53-2","latitude":43.051937103271484,"longitude":141.4923858642578,"category":"博物館","big_category":"ミュージアム","description":"","image_url":"","tags":"1973年日本建築学会 作品賞,公共建築百選,2002年JIA25年賞","prefecture":"北海道","contractor":"","structural_designer":"","landscape_designer":"","shinkenchiku_url":""},{"id":70,"title":"札幌市子ども人形劇場こぐま座","architect":"田上義也","year":1972.0,"address":"北海道札幌市中央区中島公園1-1","latitude":43.047462463378906,"longitude":141.35458374023438,"category":"ホール・劇場","big_category":"文化施設","description":"","image_url":"","tags":"","prefecture":"北海道","contractor":"","structural_designer":"","landscape_designer":"","shinkenchiku_url":""},{"id":71,"title":"札幌コンサートホールKitara","architect":"北海道開発コンサルタント","year":1997.0,"address":"北海道札幌市中央区中島公園1-15","latitude":43.04433059692383,"longitude":141.35247802734375,"category":"ホール・劇場","big_category":"文化施設","description":"","image_url":"","tags":"","prefecture":"北海道","contractor":"","structural_designer":"","landscape_designer":"","shinkenchiku_url":""},{"id":72,"title":"つきさっぷ郷土資料館 旧北部軍司令官官邸","architect":"不明","year":1941.0,"address":"北海道札幌市豊平区月寒東2条2-","latitude":43.038516998291016,"longitude":141.39718627929688,"category":"洋館","big_category":"近代建築/遺産","description":"","image_url":"","tags":"","prefecture":"北海道","contractor":"","structural_designer":"","landscape_designer":"","shinkenchiku_url":""},{"id":73,"title":"さっぽろ雪まつり資料館","architect":"田上義也","year":1984.0,"address":"北海道札幌市豊平区羊ヶ丘1","latitude":42.998966217041016,"longitude":141.39547729492188,"category":"博物館","big_category":"ミュージアム","description":"","image_url":"","tags":"","prefecture":"北海道","contractor":"","structural_designer":"","landscape_designer":"","shinkenchiku_url":""},{"id":74,"title":"札幌市豊平川さけ科学館","architect":"田上義也","year":1984.0,"address":"北海道札幌市南区真駒内公園2-1","latitude":43.00153732299805,"longitude":141.34393310546875,"category":"博物館","big_category":"ミュージアム","description":"","image_url":"","tags":"","prefecture":"北海道","contractor":"","structural_designer":"","landscape_designer":"","shinkenchiku_url":""},{"id":75,"title":"六花亭 真駒内店","architect":"古市徹雄","year":2002.0,"address":"北海道札幌市南区真駒内上町1-15-16-2","latitude":42.99787902832031,"longitude":141.349853515625,"category":"店舗","big_category":"商業施設","description":"","image_url":"","tags":"2006年日本建築学会 作品選奨","prefecture":"北海道","contractor":"","structural_designer":"","landscape_designer":"","shinkenchiku_url":""},{"id":76,"title":"簾舞郷土資料館 旧黒岩家住宅","architect":"不明","year":1872.0,"address":"北海道札幌市南区簾舞1条2-4-15","latitude":42.964149475097656,"longitude":141.26748657226562,"category":"洋館","big_category":"近代建築/遺産","description":"","image_url":"","tags":"","prefecture":"北海道","contractor":"","structural_designer":"","landscape_designer":"","shinkenchiku_url":""},{"id":77,"title":"糸魚小学校","architect":"アトリエブンク","year":2007.0,"address":"北海道士別市朝日町中央4050","latitude":44.11625289916992,"longitude":142.60296630859375,"category":"学校","big_category":"教育","description":"","image_url":"","tags":"2010年日本建築学会 作品選奨","prefecture":"北海道","contractor":"","structural_designer":"","landscape_designer":"","shinkenchiku_url":""},{"id":78,"title":"鹿追町ピュアモルトクラブハウス","architect":"倉本龍彦","year":1998.0,"address":"北海道河東郡鹿追町元町3-19-1","latitude":43.099517822265625,"longitude":142.98236083984375,"category":"公共施設/研修施設","big_category":"公共施設,教育","description":"","image_url":"","tags":"","prefecture":"北海道","contractor":"","structural_designer":"","landscape_designer":"","shinkenchiku_url":""},{"id":79,"title":"神田日勝記念美術館","architect":"日本工房","year":1992.0,"address":"北海道河東郡鹿追町東町3-2","latitude":43.09770965576172,"longitude":142.99021911621094,"category":"美術館","big_category":"ミュージアム","description":"","image_url":"","tags":"","prefecture":"北海道","contractor":"","structural_designer":"","landscape_designer":"","shinkenchiku_url":""},{"id":80,"title":"室蘭ユースホステル","architect":"田上義也","year":1972.0,"address":"北海道室蘭市みゆき町3-12-2","latitude":42.329795837402344,"longitude":141.01748657226562,"category":"ホステル","big_category":"宿泊","description":"","image_url":"","tags":"","prefecture":"北海道","contractor":"","structural_designer":"","landscape_designer":"","shinkenchiku_url":""},{"id":81,"title":"室蘭市旧室蘭駅舎","architect":"不明","year":1912.0,"address":"北海道室蘭市海岸町1-5-1","latitude":42.3221549987793,"longitude":140.97018432617188,"category":"洋館","big_category":"近代建築/遺産","description":"","image_url":"","tags":"","prefecture":"北海道","contractor":"","structural_designer":"","landscape_designer":"","shinkenchiku_url":""},{"id":82,"title":"知床斜里駅","architect":"川人洋志","year":2007.0,"address":"北海道斜里郡斜里町港町17-1","latitude":43.91100311279297,"longitude":144.66151428222656,"category":"駅","big_category":"インフラ","description":"","image_url":"","tags":"","prefecture":"北海道","contractor":"","structural_designer":"","landscape_designer":"","shinkenchiku_url":""},{"id":83,"title":"田上義也記念室 旧坂牛邸","architect":"田上義也","year":1928.0,"address":"北海道小樽市入船5-8-15","latitude":43.18504333496094,"longitude":140.99024963378906,"category":"住宅","big_category":"住宅","description":"毎週金・土・日曜のみ開館","image_url":"","tags":"","prefecture":"北海道","contractor":"","structural_designer":"","landscape_designer":"","shinkenchiku_url":""},{"id":84,"title":"旧日本郵船株式会社小樽支店","architect":"佐立七次郎","year":1906.0,"address":"北海道小樽市色内3-7-8","latitude":43.20728302001953,"longitude":140.99832153320312,"category":"洋館","big_category":"近代建築/遺産","description":"","image_url":"","tags":"","prefecture":"北海道","contractor":"","structural_designer":"","landscape_designer":"","shinkenchiku_url":""},{"id":85,"title":"小樽旅亭 蔵群","architect":"中山眞琴","year":2002.0,"address":"北海道小樽市朝里川温泉2-685","latitude":43.14683151245117,"longitude":141.03968811035156,"category":"ホテル","big_category":"宿泊","description":"","image_url":"","tags":"","prefecture":"北海道","contractor":"","structural_designer":"","landscape_designer":"","shinkenchiku_url":""},{"id":86,"title":"小樽市総合博物館 本館","architect":"不明","year":1885.0,"address":"北海道小樽市手宮1-3-6","latitude":43.21138381958008,"longitude":141.00144958496094,"category":"洋館","big_category":"近代建築/遺産","description":"","image_url":"","tags":"","prefecture":"北海道","contractor":"","structural_designer":"","landscape_designer":"","shinkenchiku_url":""},{"id":87,"title":"後藤純男美術館","architect":"不明","year":1997.0,"address":"北海道空知郡上富良野町東4線北26号","latitude":43.45398712158203,"longitude":142.4910125732422,"category":"美術館","big_category":"ミュージアム","description":"","image_url":"","tags":"","prefecture":"北海道","contractor":"","structural_designer":"","landscape_designer":"","shinkenchiku_url":""},{"id":88,"title":"かぜのび 風の美術館","architect":"飯田善彦","year":2012.0,"address":"北海道樺戸郡新十津川町字吉野100-4","latitude":43.59669876098633,"longitude":141.73162841796875,"category":"美術館","big_category":"ミュージアム","description":"","image_url":"","tags":"","prefecture":"北海道","contractor":"","structural_designer":"","landscape_designer":"","shinkenchiku_url":""},{"id":89,"title":"共働学舎新得農場男子寮","architect":"川人洋志","year":2012.0,"address":"北海道上川郡新得町新得西2線53","latitude":43.0830078125,"longitude":142.8180389404297,"category":"寮","big_category":"住宅","description":"","image_url":"","tags":"","prefecture":"北海道","contractor":"","structural_designer":"","landscape_designer":"","shinkenchiku_url":""},{"id":90,"title":"リストランテ・マッカリーナ","architect":"内藤廣","year":1998.0,"address":"北海道虻田郡真狩村字緑岡172-3","latitude":42.766510009765625,"longitude":140.7788543701172,"category":"レストラン","big_category":"商業施設","description":"","image_url":"","tags":"","prefecture":"北海道","contractor":"","structural_designer":"","landscape_designer":"","shinkenchiku_url":""},{"id":91,"title":"十勝千年の森","architect":"象設計集団","year":2002.0,"address":"北海道上川郡清水町字羽帯南10線103-6","latitude":42.934547424316406,"longitude":142.86940002441406,"category":"芸術祭・芸術村/美術館/公園","big_category":"ミュージアム,ミュージアム,レジャー施設","description":"","image_url":"","tags":"","prefecture":"北海道","contractor":"","structural_designer":"","landscape_designer":"","shinkenchiku_url":""},{"id":92,"title":"ホテルP ホテル清さと","architect":"伊東豊雄","year":1992.0,"address":"北海道斜里郡清里町字上斜里815ｰ8","latitude":43.85462188720703,"longitude":144.6019744873047,"category":"ホテル","big_category":"宿泊","description":"","image_url":"","tags":"","prefecture":"北海道","contractor":"","structural_designer":"","landscape_designer":"","shinkenchiku_url":""},{"id":93,"title":"龍雲閣","architect":"不明","year":1908.0,"address":"北海道日高郡新ひだか町静内御園587","latitude":42.41587448120117,"longitude":142.46942138671875,"category":"和風住宅","big_category":"住宅","description":"期間中のみ公開","image_url":"","tags":"","prefecture":"北海道","contractor":"","structural_designer":"","landscape_designer":"","shinkenchiku_url":""},{"id":94,"title":"こども未来館あいぽーと","architect":"アトリエブンク","year":2010.0,"address":"北海道石狩市花川北7条1-22","latitude":43.17283248901367,"longitude":141.31785583496094,"category":"児童施設","big_category":"教育","description":"","image_url":"","tags":"","prefecture":"北海道","contractor":"","structural_designer":"","landscape_designer":"","shinkenchiku_url":""},{"id":95,"title":"支笏湖ユースホステル旧館","architect":"田上義也","year":1960.0,"address":"北海道千歳市支笏湖温泉10","latitude":42.77593231201172,"longitude":141.40330505371094,"category":"ホステル","big_category":"宿泊","description":"2021年解体","image_url":"","tags":"","prefecture":"北海道","contractor":"","structural_designer":"","landscape_designer":"","shinkenchiku_url":""},{"id":96,"title":"水の教会","architect":"安藤忠雄","year":1988.0,"address":"北海道勇払郡占冠村中トマム","latitude":43.063026428222656,"longitude":142.62757873535156,"category":"教会/結婚式場","big_category":"宗教,宗教","description":"","image_url":"","tags":"","prefecture":"北海道","contractor":"","structural_designer":"","landscape_designer":"","shinkenchiku_url":""},{"id":97,"title":"足寄動物化石博物館","architect":"アトリエブンク","year":1998.0,"address":"北海道足寄郡足寄町郊南1-29-25","latitude":43.23112869262695,"longitude":143.54342651367188,"category":"博物館","big_category":"ミュージアム","description":"","image_url":"","tags":"","prefecture":"北海道","contractor":"","structural_designer":"","landscape_designer":"","shinkenchiku_url":""},{"id":98,"title":"水の神殿","architect":"石山修武","year":2009.0,"address":"北海道帯広市東3条南19-1-1‎","latitude":43.130550384521484,"longitude":143.18235778808594,"category":"オブジェ","big_category":"ミュージアム","description":"場所を修正","image_url":"","tags":"","prefecture":"北海道","contractor":"","structural_designer":"","landscape_designer":"","shinkenchiku_url":""},{"id":99,"title":"北海道立帯広美術館","architect":"アトリエaku","year":1991.0,"address":"北海道帯広市緑ヶ丘2","latitude":42.905296325683594,"longitude":143.1858673095703,"category":"美術館","big_category":"ミュージアム","description":"","image_url":"","tags":"2023年JIA25年賞 登録作品","prefecture":"北海道","contractor":"宮坂・萩原・曽根・市川・大道共同企業体","structural_designer":"","landscape_designer":"","shinkenchiku_url":""},{"id":100,"title":"森の交流館・十勝","architect":"象設計集団","year":1996.0,"address":"北海道帯広市西20条南6-1-2","latitude":42.90114212036133,"longitude":143.15032958984375,"category":"公共施設/公民館・交流施設","big_category":"公共施設,公共施設","description":"","image_url":"","tags":"","prefecture":"北海道","contractor":"","structural_designer":"","landscape_designer":"","shinkenchiku_url":""}]}