{"page":8,"total_pages":290,"items_per_page":50,"total_items":14467,"items":[{"id":351,"title":"せんだいメディアテーク","architect":"伊東豊雄","year":2000.0,"address":"宮城県仙台市青葉区春日町2-1","latitude":38.26556396484375,"longitude":140.86550903320312,"category":"総合文化施設","big_category":"文化施設","description":"日本建築学会 作品賞受賞者名：伊東豊雄、佐々木睦朗","image_url":"https://lh3.googleusercontent.com/-ZIYxfiTrxrk/T22tYAGYmuI/AAAAAAAAJzU/eLaGRXEs-ig/s1024/P3206704.JPG","tags":"2003年日本建築学会 作品賞,2006年公共建築賞","prefecture":"宮城","contractor":"","structural_designer":"","landscape_designer":"","shinkenchiku_url":""},{"id":352,"title":"宮城県立図書館","architect":"原広司","year":1998.0,"address":"宮城県仙台市泉区紫山1-1-1","latitude":38.34604263305664,"longitude":140.83856201171875,"category":"図書館","big_category":"文化施設","description":"","image_url":"https://farm3.staticflickr.com/2880/8903740405_49ead37862_h.jpg","tags":"","prefecture":"宮城","contractor":"","structural_designer":"","landscape_designer":"","shinkenchiku_url":""},{"id":353,"title":"宮城県美術館","architect":"前川國男","year":1981.0,"address":"宮城県仙台市青葉区川内元支倉34-1","latitude":38.26390838623047,"longitude":140.85498046875,"category":"美術館","big_category":"ミュージアム","description":"","image_url":"https://farm8.staticflickr.com/7361/8920393616_5303fc78c2_h.jpg","tags":"公共建築百選","prefecture":"宮城","contractor":"","structural_designer":"","landscape_designer":"","shinkenchiku_url":""},{"id":354,"title":"仙台文学館","architect":"ネオタイド","year":1998.0,"address":"宮城県仙台市青葉区北根2-7-1","latitude":38.296470642089844,"longitude":140.8761444091797,"category":"博物館","big_category":"ミュージアム","description":"","image_url":"https://farm6.staticflickr.com/5347/9786841314_7fb8aa45c0_h.jpg","tags":"","prefecture":"宮城","contractor":"","structural_designer":"","landscape_designer":"","shinkenchiku_url":""},{"id":355,"title":"中本誠司現代美術館","architect":"不明","year":1976.0,"address":"宮城県仙台市青葉区 2-20-15","latitude":38.29458999633789,"longitude":140.86294555664062,"category":"美術館","big_category":"ミュージアム","description":"","image_url":"https://lh3.googleusercontent.com/-4SPQCFF8FpY/UQI1R-VjDYI/AAAAAAAAzgA/xg6xqpaUrus/s1024/lr-1165057.jpg","tags":"","prefecture":"宮城","contractor":"","structural_designer":"","landscape_designer":"","shinkenchiku_url":""},{"id":356,"title":"地底の森ミュージアム 仙台市富沢遺跡保存館","architect":"坂倉建築研究所","year":1996.0,"address":"宮城県仙台市太白区長町南4-3-1","latitude":38.22281265258789,"longitude":140.87249755859375,"category":"博物館","big_category":"ミュージアム","description":"","image_url":"https://farm6.staticflickr.com/5349/8908627616_5b09a923c0_h.jpg","tags":"","prefecture":"宮城","contractor":"","structural_designer":"","landscape_designer":"","shinkenchiku_url":""},{"id":357,"title":"杜の教会","architect":"針生承一","year":1997.0,"address":"宮城県仙台市太白区秋保町湯元字除26-1","latitude":38.22198486328125,"longitude":140.7336883544922,"category":"教会","big_category":"宗教","description":"","image_url":"https://farm8.staticflickr.com/7369/8928032989_af7e66ebbf_h.jpg","tags":"","prefecture":"宮城","contractor":"","structural_designer":"","landscape_designer":"","shinkenchiku_url":""},{"id":358,"title":"竹泉荘","architect":"阿部仁史","year":2010.0,"address":"宮城県刈田郡蔵王町遠刈田温泉上ノ原88-11","latitude":38.12371826171875,"longitude":140.56121826171875,"category":"ホテル","big_category":"宿泊","description":"","image_url":"","tags":"","prefecture":"宮城","contractor":"","structural_designer":"","landscape_designer":"","shinkenchiku_url":""},{"id":359,"title":"東北歴史博物館","architect":"荒井和征","year":1999.0,"address":"宮城県多賀城市高崎1-22-1","latitude":38.299678802490234,"longitude":140.9940643310547,"category":"博物館","big_category":"ミュージアム","description":"","image_url":"","tags":"","prefecture":"宮城","contractor":"","structural_designer":"","landscape_designer":"","shinkenchiku_url":""},{"id":360,"title":"大河原公園","architect":"宮崎浩","year":1996.0,"address":"宮城県柴田郡大河原町緑町30","latitude":38.04240036010742,"longitude":140.72178649902344,"category":"公園","big_category":"レジャー施設","description":"","image_url":"","tags":"","prefecture":"宮城","contractor":"","structural_designer":"","landscape_designer":"","shinkenchiku_url":""},{"id":361,"title":"大衡村万葉の森博物館 大衡村ふるさと美術館","architect":"針生承一","year":1992.0,"address":"宮城県黒川郡大衡村大衡平林39-12","latitude":38.469120025634766,"longitude":140.8819580078125,"category":"博物館","big_category":"ミュージアム","description":"","image_url":"","tags":"","prefecture":"宮城","contractor":"","structural_designer":"","landscape_designer":"","shinkenchiku_url":""},{"id":362,"title":"岩出山中学校","architect":"山本理顕","year":1996.0,"address":"宮城県大崎市岩出山松沢202-1","latitude":38.65934371948242,"longitude":140.85763549804688,"category":"学校","big_category":"教育","description":"","image_url":"","tags":"","prefecture":"宮城","contractor":"","structural_designer":"","landscape_designer":"","shinkenchiku_url":""},{"id":363,"title":"大崎市民会館 旧古川市民会館","architect":"武基雄","year":1966.0,"address":"宮城県大崎市古川北町5-5-1","latitude":38.58104705810547,"longitude":140.96792602539062,"category":"ホール・劇場","big_category":"文化施設","description":"","image_url":"","tags":"DOCOMOMO","prefecture":"宮城","contractor":"","structural_designer":"","landscape_designer":"","shinkenchiku_url":""},{"id":364,"title":"鳴子早稲田桟敷湯","architect":"石山修武","year":1998.0,"address":"宮城県大崎市鳴子温泉新屋敷124-1","latitude":38.7437744140625,"longitude":140.71731567382812,"category":"温泉","big_category":"宿泊","description":"","image_url":"","tags":"","prefecture":"宮城","contractor":"","structural_designer":"","landscape_designer":"","shinkenchiku_url":""},{"id":365,"title":"鳴子ホテル","architect":"白井晟一","year":1958.0,"address":"宮城県大崎市鳴子温泉字湯元36","latitude":38.741790771484375,"longitude":140.71636962890625,"category":"ホテル","big_category":"宿泊","description":"取り壊された模様。未確認。","image_url":"","tags":"","prefecture":"宮城","contractor":"","structural_designer":"","landscape_designer":"","shinkenchiku_url":""},{"id":366,"title":"岩出山保育所","architect":"六角鬼丈","year":1997.0,"address":"宮城県大崎市岩出山字下川原町105-1","latitude":38.65614318847656,"longitude":140.87014770507812,"category":"幼稚園","big_category":"教育","description":"","image_url":"","tags":"","prefecture":"宮城","contractor":"","structural_designer":"","landscape_designer":"","shinkenchiku_url":""},{"id":367,"title":"関井レディースクリニック","architect":"阿部仁史","year":2001.0,"address":"宮城県大崎市古川駅東2-10-31","latitude":38.57202911376953,"longitude":140.97483825683594,"category":"個人医院","big_category":"医療施設","description":"","image_url":"","tags":"","prefecture":"宮城","contractor":"","structural_designer":"","landscape_designer":"","shinkenchiku_url":""},{"id":368,"title":"大崎生涯学習センター パレット大崎","architect":"大宇根弘司","year":1998.0,"address":"宮城県大崎市古川穂波3-4-20","latitude":38.565406799316406,"longitude":140.94586181640625,"category":"公民館・交流施設/総合文化施設","big_category":"公共施設,文化施設","description":"","image_url":"","tags":"","prefecture":"宮城","contractor":"","structural_designer":"","landscape_designer":"","shinkenchiku_url":""},{"id":369,"title":"感覚ミュージアム","architect":"六角鬼丈","year":2000.0,"address":"宮城県大崎市岩出山字下川原町100","latitude":38.65659713745117,"longitude":140.8706817626953,"category":"美術館","big_category":"ミュージアム","description":"1/4～営業　月曜日休館","image_url":"https://farm3.staticflickr.com/2891/8910939787_9a967a6003_h.jpg","tags":"","prefecture":"宮城","contractor":"","structural_designer":"","landscape_designer":"","shinkenchiku_url":""},{"id":370,"title":"原阿佐緒記念館","architect":"不明","year":null,"address":"宮城県黒川郡大和町宮床字八坊原19-2","latitude":38.405338287353516,"longitude":140.84677124023438,"category":"洋館","big_category":"近代建築/遺産","description":"","image_url":"","tags":"","prefecture":"宮城","contractor":"","structural_designer":"","landscape_designer":"","shinkenchiku_url":""},{"id":371,"title":"旧登米高等尋常小学校校舎","architect":"不明","year":1888.0,"address":"宮城県登米市登米町寺池桜小路6‎","latitude":38.65541458129883,"longitude":141.27972412109375,"category":"洋館","big_category":"近代建築/遺産","description":"","image_url":"","tags":"","prefecture":"宮城","contractor":"","structural_designer":"","landscape_designer":"","shinkenchiku_url":""},{"id":372,"title":"登米伝統芸能伝承館 森舞台","architect":"隈研吾","year":1996.0,"address":"宮城県登米市登米町寺池上町42","latitude":38.65962600708008,"longitude":141.2801513671875,"category":"ホール・劇場","big_category":"文化施設","description":"","image_url":"https://farm8.staticflickr.com/7308/8910036702_af72f6a866_h.jpg","tags":"1997年日本建築学会 作品賞","prefecture":"宮城","contractor":"","structural_designer":"","landscape_designer":"","shinkenchiku_url":""},{"id":373,"title":"サトル・サトウ・アート・ミュージアム","architect":"不明","year":2007.0,"address":"宮城県登米市中田町上沼字舘43","latitude":38.719093322753906,"longitude":141.24351501464844,"category":"美術館","big_category":"ミュージアム","description":"小学校を改装","image_url":"https://lh3.googleusercontent.com/-up3Pey40nnw/UQI0YMP6aPI/AAAAAAAAzW8/jZmkNELL5RM/s1024/lr-1175127.jpg","tags":"","prefecture":"宮城","contractor":"","structural_designer":"","landscape_designer":"","shinkenchiku_url":""},{"id":374,"title":"東松島こどものみんなの家","architect":"伊東豊雄+o+h","year":2013.0,"address":"宮城県東松島市大塩字緑ヶ丘4-4-4","latitude":38.437103271484375,"longitude":141.17169189453125,"category":"児童施設","big_category":"教育","description":"2017年解体","image_url":"","tags":"","prefecture":"宮城","contractor":"","structural_designer":"","landscape_designer":"","shinkenchiku_url":""},{"id":375,"title":"東松島市宮戸島のみんなの家","architect":"SANAA","year":2012.0,"address":"宮城県東松島市宮戸二ツ橋1","latitude":38.334571838378906,"longitude":141.15597534179688,"category":"公民館・交流施設","big_category":"公共施設","description":"見学には予約が必要です。","image_url":"","tags":"","prefecture":"宮城","contractor":"","structural_designer":"","landscape_designer":"","shinkenchiku_url":""},{"id":376,"title":"ZONA 白石市「福祉の里」","architect":"堀池秀人","year":1998.0,"address":"宮城県白石市福岡蔵本字茶園62-1","latitude":38.01034164428711,"longitude":140.6031036376953,"category":"福祉センター/養護施設","big_category":"医療施設,医療施設","description":"","image_url":"","tags":"","prefecture":"宮城","contractor":"","structural_designer":"","landscape_designer":"","shinkenchiku_url":""},{"id":377,"title":"白石市営鷹巣第２住宅 シルバーハウジング","architect":"設計組織ADH","year":2003.0,"address":"宮城県白石市鷹巣東4-3-5-5","latitude":37.997947692871094,"longitude":140.6451416015625,"category":"集合住宅","big_category":"住宅","description":"","image_url":"","tags":"","prefecture":"宮城","contractor":"","structural_designer":"","landscape_designer":"","shinkenchiku_url":""},{"id":378,"title":"白石市営鷹巣住宅","architect":"北山恒","year":1999.0,"address":"宮城県白石市鷹巣西1-5-19","latitude":37.99913787841797,"longitude":140.63255310058594,"category":"集合住宅","big_category":"住宅","description":"","image_url":"","tags":"","prefecture":"宮城","contractor":"","structural_designer":"","landscape_designer":"","shinkenchiku_url":""},{"id":379,"title":"白石第二小学校","architect":"北山恒+芦原太郎","year":1996.0,"address":"宮城県白石市字白石沖29","latitude":37.99861526489258,"longitude":140.6230010986328,"category":"学校","big_category":"教育","description":"","image_url":"","tags":"1998年日本建築学会 作品選奨","prefecture":"宮城","contractor":"","structural_designer":"","landscape_designer":"","shinkenchiku_url":""},{"id":380,"title":"白石市文化体育活動センター ホワイト・キューブ","architect":"堀池秀人","year":1997.0,"address":"宮城県白石市鷹巣東2-1-1","latitude":37.996612548828125,"longitude":140.637939453125,"category":"体育館/ホール・劇場","big_category":"レジャー施設,文化施設","description":"","image_url":"https://lh3.googleusercontent.com/-LMjis3c6rfA/UCi1DuyOeHI/AAAAAAABGc4/11eF5bHHiD8/s1024/lr-7034991.jpg","tags":"","prefecture":"宮城","contractor":"","structural_designer":"","landscape_designer":"","shinkenchiku_url":""},{"id":381,"title":"公立刈田綜合病院","architect":"芦原太郎+北山恒+堀池秀人","year":2002.0,"address":"宮城県白石市福岡蔵本字下原沖36","latitude":38.01188659667969,"longitude":140.6090545654297,"category":"病院","big_category":"医療施設","description":"設計名義はアーキテクツ・コラボレーティブ。","image_url":"https://lh3.googleusercontent.com/-1SRYKfeGUhE/UCipELwV6jI/AAAAAAAASZg/HLF-AMqMjXc/s1024/lr-7034868.jpg","tags":"2005年度日本建築家協会賞,2004年日本建築学会 作品選奨","prefecture":"宮城","contractor":"","structural_designer":"","landscape_designer":"","shinkenchiku_url":""},{"id":382,"title":"しらさぎ橋","architect":"阿部仁史","year":1994.0,"address":"宮城県白石市鷹巣西1-","latitude":38.001075744628906,"longitude":140.62899780273438,"category":"橋","big_category":"インフラ","description":"","image_url":"https://farm9.staticflickr.com/8269/8906875305_1b661555d4_h.jpg","tags":"","prefecture":"宮城","contractor":"","structural_designer":"","landscape_designer":"","shinkenchiku_url":""},{"id":383,"title":"白石市情報センター","architect":"八束はじめ","year":1997.0,"address":"宮城県白石市字亘理町37-3","latitude":38.008155822753906,"longitude":140.6207275390625,"category":"総合文化施設","big_category":"文化施設","description":"","image_url":"https://lh3.googleusercontent.com/-5Nb3VevoMqE/UCieQaWPDbI/AAAAAAABGIM/XEKfLOkOFuk/s1024/lr-7034909.jpg","tags":"新建築1998年6月号","prefecture":"宮城","contractor":"","structural_designer":"","landscape_designer":"","shinkenchiku_url":""},{"id":384,"title":"名取市斎場","architect":"針生承一","year":2000.0,"address":"宮城県名取市小塚原新鍋島159-2","latitude":38.16508865356445,"longitude":140.9454803466797,"category":"斎場","big_category":"公共施設","description":"","image_url":"","tags":"","prefecture":"宮城","contractor":"","structural_designer":"","landscape_designer":"","shinkenchiku_url":""},{"id":385,"title":"名取市文化会館多目的ホール｢希望の家｣ Haus der Hoffnung","architect":"槇文彦","year":2012.0,"address":"宮城県名取市増田柳田520","latitude":38.16756057739258,"longitude":140.8909149169922,"category":"その他文化施設","big_category":"文化施設","description":"","image_url":"","tags":"","prefecture":"宮城","contractor":"","structural_designer":"","landscape_designer":"","shinkenchiku_url":""},{"id":386,"title":"名取市民文化会館","architect":"槇文彦","year":1997.0,"address":"宮城県名取市増田柳田520","latitude":38.16813278198242,"longitude":140.8914337158203,"category":"ホール・劇場","big_category":"文化施設","description":"","image_url":"https://farm6.staticflickr.com/5334/8900525825_bb806fd592_h.jpg","tags":"","prefecture":"宮城","contractor":"","structural_designer":"","landscape_designer":"","shinkenchiku_url":""},{"id":387,"title":"宮城スタジアム","architect":"針生承一+阿部仁史","year":2000.0,"address":"宮城県宮城郡利府町菅谷字舘40-1","latitude":38.335411071777344,"longitude":140.94932556152344,"category":"スタジアム","big_category":"レジャー施設","description":"","image_url":"https://farm8.staticflickr.com/7425/8928084285_23f911ebde_h.jpg","tags":"東京2020オリンピック競技会場","prefecture":"宮城","contractor":"","structural_designer":"","landscape_designer":"","shinkenchiku_url":""},{"id":388,"title":"宮城県総合運動公園 高架水槽","architect":"針生承一+阿部仁史","year":1994.0,"address":"宮城県宮城郡利府町菅谷字舘40-1","latitude":38.336605072021484,"longitude":140.95387268066406,"category":"オブジェ","big_category":"ミュージアム","description":"","image_url":"","tags":"","prefecture":"宮城","contractor":"","structural_designer":"","landscape_designer":"","shinkenchiku_url":""},{"id":389,"title":"いわき回廊美術館","architect":"蔡國強","year":2013.0,"address":"福島県いわき市平中神谷地曾作7","latitude":37.07045364379883,"longitude":140.9273681640625,"category":"美術館","big_category":"ミュージアム","description":"","image_url":"","tags":"","prefecture":"福島","contractor":"","structural_designer":"","landscape_designer":"","shinkenchiku_url":""},{"id":390,"title":"いわき芸術文化交流館アリオス","architect":"佐藤尚巳","year":2008.0,"address":"福島県いわき市平三崎1-6","latitude":37.049827575683594,"longitude":140.8897247314453,"category":"ホール・劇場","big_category":"文化施設","description":"","image_url":"","tags":"","prefecture":"福島","contractor":"","structural_designer":"","landscape_designer":"","shinkenchiku_url":""},{"id":391,"title":"白水阿弥陀堂","architect":"不明","year":1160.0,"address":"福島県いわき市内郷白水町広畑219","latitude":37.03588104248047,"longitude":140.8348388671875,"category":"寺院","big_category":"宗教","description":"","image_url":"","tags":"","prefecture":"福島","contractor":"","structural_designer":"","landscape_designer":"","shinkenchiku_url":""},{"id":392,"title":"森美術館","architect":"伊藤寛","year":1995.0,"address":"福島県いわき市大久町稲荷前2-2","latitude":37.16541290283203,"longitude":140.9736328125,"category":"美術館","big_category":"ミュージアム","description":"","image_url":"","tags":"","prefecture":"福島","contractor":"","structural_designer":"","landscape_designer":"","shinkenchiku_url":""},{"id":393,"title":"いわき市立美術館","architect":"佐藤総合計画","year":1984.0,"address":"福島県いわき市平字堂根町4-4","latitude":37.05182647705078,"longitude":140.88958740234375,"category":"美術館","big_category":"ミュージアム","description":"","image_url":"","tags":"","prefecture":"福島","contractor":"","structural_designer":"","landscape_designer":"","shinkenchiku_url":""},{"id":394,"title":"いわきニュータウンセンタービル","architect":"北川原温","year":1994.0,"address":"福島県いわき市中央台飯野4-2-4","latitude":37.01533508300781,"longitude":140.91976928710938,"category":"オフィスビル/モール/総合文化施設","big_category":"企業施設,商業施設,文化施設","description":"","image_url":"","tags":"","prefecture":"福島","contractor":"","structural_designer":"","landscape_designer":"","shinkenchiku_url":""},{"id":395,"title":"まどのそとのそのまたむこう 絵本美術館","architect":"安藤忠雄","year":2005.0,"address":"福島県いわき市平豊間字合磯209-42","latitude":36.97378921508789,"longitude":140.9669647216797,"category":"美術館","big_category":"ミュージアム","description":"事前申込となっており、下記住所へ往復はがきに住所・氏名・連絡先を明記のうえ郵送。後日日時を指定された招待状が送られてくる。","image_url":"","tags":"新建築2005年11月号","prefecture":"福島","contractor":"","structural_designer":"","landscape_designer":"","shinkenchiku_url":""},{"id":396,"title":"ふくしま海洋科学館 アクアマリンふくしま ","architect":"日本設計","year":2000.0,"address":"福島県いわき市小名浜辰巳町50","latitude":36.94265365600586,"longitude":140.90150451660156,"category":"水族館","big_category":"レジャー施設","description":"","image_url":"","tags":"2003年日本建築学会 作品選奨","prefecture":"福島","contractor":"","structural_designer":"","landscape_designer":"","shinkenchiku_url":""},{"id":397,"title":"北会津村役場庁舎","architect":"古市徹雄","year":1998.0,"address":"福島県会津若松市北会津町中荒井諏訪前11","latitude":37.49153518676758,"longitude":139.87408447265625,"category":"庁舎","big_category":"公共施設","description":"","image_url":"","tags":"","prefecture":"福島","contractor":"","structural_designer":"","landscape_designer":"","shinkenchiku_url":""},{"id":398,"title":"福島県ハイテクプラザ 会津若松技術支援センター","architect":"古市徹雄","year":2001.0,"address":"福島県会津若松市一箕町大字鶴賀字下柳原88-1","latitude":37.52534484863281,"longitude":139.93359375,"category":"公共施設/研究施設","big_category":"公共施設,教育","description":"","image_url":"","tags":"","prefecture":"福島","contractor":"","structural_designer":"","landscape_designer":"","shinkenchiku_url":""},{"id":399,"title":"日中線記念館 旧国鉄熱塩駅","architect":"不明","year":1938.0,"address":"福島県喜多方市熱塩加納町熱塩前田丁602","latitude":37.73000717163086,"longitude":139.87994384765625,"category":"洋館","big_category":"近代建築/遺産","description":"郡山市立金透小学校内 入館は事前予約","image_url":"","tags":"","prefecture":"福島","contractor":"","structural_designer":"","landscape_designer":"","shinkenchiku_url":""},{"id":400,"title":"新宮熊野神社","architect":"不明","year":null,"address":"福島県喜多方市慶徳町新宮字熊野2242","latitude":37.61862564086914,"longitude":139.8317108154297,"category":"寺院","big_category":"宗教","description":"","image_url":"https://lh3.googleusercontent.com/-3IGzEFbhijs/UIPNA8Sp0QI/AAAAAAAAhO8/P648viOx6YA/s1024/lr-7309587.jpg","tags":"","prefecture":"福島","contractor":"","structural_designer":"","landscape_designer":"","shinkenchiku_url":""}]}