{"page":121,"total_pages":290,"items_per_page":50,"total_items":14467,"items":[{"id":6001,"title":"地球環境戦略研究機関","architect":"日建設計","year":2002.0,"address":"神奈川県三浦郡葉山町上山口2108-11","latitude":35.25896072387695,"longitude":139.61192321777344,"category":"研究施設","big_category":"教育","description":"","image_url":"","tags":"Ver1.80(2016年5月)の追加建築","prefecture":"神奈川","contractor":"","structural_designer":"","landscape_designer":"","shinkenchiku_url":""},{"id":6002,"title":"アパホテル&リゾート 東京ベイ幕張 旧幕張プリンスホテル","architect":"丹下健三","year":1993.0,"address":"千葉県千葉市美浜区ひび野2-3","latitude":35.644012451171875,"longitude":140.0370330810547,"category":"ホテル","big_category":"宿泊","description":"","image_url":"","tags":"Ver1.80(2016年5月)の追加建築","prefecture":"千葉","contractor":"","structural_designer":"","landscape_designer":"","shinkenchiku_url":""},{"id":6003,"title":"大宮ソニックシティ","architect":"日建設計","year":1988.0,"address":"埼玉県さいたま市大宮区桜木町1-7-5","latitude":35.9052848815918,"longitude":139.6196746826172,"category":"オフィスビル/ホテル/ホール・劇場","big_category":"企業施設,宿泊,文化施設","description":"","image_url":"","tags":"Ver1.80(2016年5月)の追加建築","prefecture":"埼玉","contractor":"","structural_designer":"","landscape_designer":"","shinkenchiku_url":""},{"id":6004,"title":"群馬県民会館 ベイシア文化ホール","architect":"岡田新一","year":1971.0,"address":"群馬県前橋市日吉町1-10-1","latitude":36.397682189941406,"longitude":139.0753631591797,"category":"ホール・劇場","big_category":"文化施設","description":"","image_url":"","tags":"Ver1.80(2016年5月)の追加建築","prefecture":"群馬","contractor":"","structural_designer":"","landscape_designer":"","shinkenchiku_url":""},{"id":6005,"title":"栃木県立博物館","architect":"日本設計","year":1982.0,"address":"栃木県宇都宮市睦町2-2","latitude":36.559471130371094,"longitude":139.86056518554688,"category":"博物館","big_category":"ミュージアム","description":"","image_url":"","tags":"Ver1.80(2016年5月)の追加建築","prefecture":"栃木","contractor":"","structural_designer":"","landscape_designer":"","shinkenchiku_url":""},{"id":6006,"title":"茨城県営松代アパート","architect":"大野秀敏+三上建築事務所","year":1991.0,"address":"茨城県つくば市松代3-24-1","latitude":36.06755447387695,"longitude":140.10067749023438,"category":"集合住宅","big_category":"住宅","description":"","image_url":"","tags":"Ver1.80(2016年5月)の追加建築,1995年日本建築学会 作品選奨","prefecture":"茨城","contractor":"","structural_designer":"","landscape_designer":"","shinkenchiku_url":""},{"id":6007,"title":"前沢ガーデン円劇場","architect":"大野秀敏","year":1989.0,"address":"富山県黒部市前沢3418","latitude":36.8602294921875,"longitude":137.46054077148438,"category":"ホール・劇場","big_category":"文化施設","description":"野外劇場","image_url":"","tags":"Ver1.80(2016年5月)の追加建築","prefecture":"富山","contractor":"","structural_designer":"","landscape_designer":"","shinkenchiku_url":""},{"id":6008,"title":"岐阜現代美術館 大地館 旧NBK関工園 事務棟・ホール棟","architect":"大野秀敏","year":1992.0,"address":"岐阜県関市桃紅大地1","latitude":35.452857971191406,"longitude":136.90106201171875,"category":"美術館/低層オフィス","big_category":"ミュージアム,企業施設","description":"近年篠田桃紅作品を展示する美術館になった。入館無料","image_url":"","tags":"Ver1.80(2016年5月)の追加建築","prefecture":"岐阜","contractor":"","structural_designer":"","landscape_designer":"","shinkenchiku_url":""},{"id":6009,"title":"NBK関工園 MEMEセンター&元気亭","architect":"大野秀敏","year":1997.0,"address":"岐阜県関市桃紅大地1","latitude":35.45111846923828,"longitude":136.9011993408203,"category":"低層オフィス","big_category":"企業施設","description":"GoogleMapsの衛星写真上では取り壊されてる？","image_url":"","tags":"Ver1.80(2016年5月)の追加建築","prefecture":"岐阜","contractor":"","structural_designer":"","landscape_designer":"","shinkenchiku_url":""},{"id":6010,"title":"YKK64ビル","architect":"大野秀敏","year":1999.0,"address":"富山県黒部市飯沢6120-5","latitude":36.89535140991211,"longitude":137.42991638183594,"category":"低層オフィス","big_category":"企業施設","description":"","image_url":"","tags":"Ver1.80(2016年5月)の追加建築","prefecture":"富山","contractor":"","structural_designer":"","landscape_designer":"","shinkenchiku_url":""},{"id":6011,"title":"鯖江市環境教育支援センター","architect":"大野秀敏","year":2005.0,"address":"福井県鯖江市中野町73-11","latitude":35.954593658447266,"longitude":136.20851135253906,"category":"公共施設","big_category":"公共施設","description":"","image_url":"","tags":"Ver1.80(2016年5月)の追加建築","prefecture":"福井","contractor":"","structural_designer":"","landscape_designer":"","shinkenchiku_url":""},{"id":6012,"title":"東京農業大学 富士畜産農場研修センター","architect":"大野秀敏","year":1990.0,"address":"静岡県富士宮市麓422","latitude":35.39430236816406,"longitude":138.5700225830078,"category":"大学/研究施設","big_category":"教育,教育","description":"","image_url":"","tags":"Ver1.80(2016年5月)の追加建築","prefecture":"静岡","contractor":"","structural_designer":"","landscape_designer":"","shinkenchiku_url":""},{"id":6013,"title":"鯖江市立中河小学校 校舎・体育館","architect":"大野秀敏","year":2005.0,"address":"福井県鯖江市中野町73-16","latitude":35.95405960083008,"longitude":136.2086639404297,"category":"学校/体育館","big_category":"教育,レジャー施設","description":"体育館の竣工は2007年","image_url":"","tags":"Ver1.80(2016年5月)の追加建築","prefecture":"福井","contractor":"","structural_designer":"","landscape_designer":"","shinkenchiku_url":""},{"id":6014,"title":"伊達市立保原小学校","architect":"大野秀敏","year":2012.0,"address":"福島県伊達市保原町弥生町15","latitude":37.820674896240234,"longitude":140.5496368408203,"category":"学校","big_category":"教育","description":"","image_url":"","tags":"Ver1.80(2016年5月)の追加建築","prefecture":"福島","contractor":"","structural_designer":"","landscape_designer":"","shinkenchiku_url":""},{"id":6015,"title":"YKK健康管理センター","architect":"大野秀敏","year":2008.0,"address":"富山県黒部市吉田200","latitude":36.89598083496094,"longitude":137.43125915527344,"category":"企業施設","big_category":"企業施設","description":"","image_url":"","tags":"Ver1.80(2016年5月)の追加建築,2010年日本建築学会 作品選奨","prefecture":"富山","contractor":"","structural_designer":"","landscape_designer":"","shinkenchiku_url":""},{"id":6016,"title":"ハートホーム平川","architect":"大野秀敏","year":2003.0,"address":"山口県山口市黒川729-2","latitude":34.14400100708008,"longitude":131.44976806640625,"category":"養護施設","big_category":"医療施設","description":"","image_url":"","tags":"Ver1.80(2016年5月)の追加建築","prefecture":"山口","contractor":"","structural_designer":"","landscape_designer":"","shinkenchiku_url":""},{"id":6017,"title":"YKK市川寮","architect":"大野秀敏","year":1987.0,"address":"千葉県市川市須和田2-17-2","latitude":35.73759078979492,"longitude":139.9136199951172,"category":"寮","big_category":"住宅","description":"","image_url":"","tags":"Ver1.80(2016年5月)の追加建築","prefecture":"千葉","contractor":"","structural_designer":"","landscape_designer":"","shinkenchiku_url":""},{"id":6018,"title":"茨城県営石岡南台アパート","architect":"大野秀敏","year":1991.0,"address":"茨城県石岡市南台1-4","latitude":36.182891845703125,"longitude":140.29025268554688,"category":"集合住宅","big_category":"住宅","description":"","image_url":"","tags":"Ver1.80(2016年5月)の追加建築","prefecture":"茨城","contractor":"","structural_designer":"","landscape_designer":"","shinkenchiku_url":""},{"id":6019,"title":"幕張ベイタウン・パティオスM8-2街区(10番街)","architect":"大野秀敏+中村勉+小沢明","year":1996.0,"address":"千葉県千葉市美浜区打瀬1-10","latitude":35.64052200317383,"longitude":140.04769897460938,"category":"集合住宅","big_category":"住宅","description":"","image_url":"","tags":"Ver1.80(2016年5月)の追加建築","prefecture":"千葉","contractor":"","structural_designer":"","landscape_designer":"","shinkenchiku_url":""},{"id":6020,"title":"朝日新聞 秋田支局","architect":"シーラカンスアンドアソシエイツ","year":1999.0,"address":"秋田県秋田市山王2-1-46","latitude":39.71958923339844,"longitude":140.1060028076172,"category":"低層オフィス","big_category":"企業施設","description":"","image_url":"","tags":"Ver1.80(2016年5月)の追加建築","prefecture":"秋田","contractor":"","structural_designer":"","landscape_designer":"","shinkenchiku_url":""},{"id":6021,"title":"秋田市立新屋図書館","architect":"松田平田設計","year":1998.0,"address":"秋田県秋田市新屋大川町12-26","latitude":39.684566497802734,"longitude":140.0904083251953,"category":"図書館","big_category":"文化施設","description":"","image_url":"","tags":"Ver1.80(2016年5月)の追加建築","prefecture":"秋田","contractor":"","structural_designer":"","landscape_designer":"","shinkenchiku_url":""},{"id":6022,"title":"α-compiler R.NEWBOLD 秋田店","architect":"加藤一成","year":1999.0,"address":"秋田県秋田市東通7-7-7","latitude":39.71223449707031,"longitude":140.13783264160156,"category":"店舗","big_category":"商業施設","description":"","image_url":"","tags":"Ver1.80(2016年5月)の追加建築","prefecture":"秋田","contractor":"","structural_designer":"","landscape_designer":"","shinkenchiku_url":""},{"id":6023,"title":"原敬記念館","architect":"谷口吉郎","year":1958.0,"address":"岩手県盛岡市本宮4-38-25","latitude":39.6875,"longitude":141.12884521484375,"category":"博物館","big_category":"ミュージアム","description":"","image_url":"","tags":"Ver1.80(2016年5月)の追加建築","prefecture":"岩手","contractor":"","structural_designer":"","landscape_designer":"","shinkenchiku_url":""},{"id":6024,"title":"北日本銀行 本店","architect":"圓堂政嘉","year":1961.0,"address":"岩手県盛岡市中央通1-6","latitude":39.704742431640625,"longitude":141.14859008789062,"category":"金融機関","big_category":"企業施設","description":"","image_url":"","tags":"Ver1.80(2016年5月)の追加建築","prefecture":"岩手","contractor":"","structural_designer":"","landscape_designer":"","shinkenchiku_url":""},{"id":6025,"title":"備前市役所 日生総合支所 旧日生町庁舎","architect":"K構造研究所","year":1972.0,"address":"岡山県備前市日生町日生630","latitude":34.73259735107422,"longitude":134.27191162109375,"category":"庁舎","big_category":"公共施設","description":"","image_url":"","tags":"Ver1.80(2016年5月)の追加建築,DOCOMOMO","prefecture":"岡山","contractor":"","structural_designer":"","landscape_designer":"","shinkenchiku_url":""},{"id":6026,"title":"盛岡市庁舎","architect":"圓堂政嘉","year":1962.0,"address":"岩手県盛岡市内丸12-2","latitude":39.702049255371094,"longitude":141.15447998046875,"category":"庁舎","big_category":"公共施設","description":"","image_url":"","tags":"Ver1.80(2016年5月)の追加建築","prefecture":"岩手","contractor":"","structural_designer":"","landscape_designer":"","shinkenchiku_url":""},{"id":6027,"title":"IBC岩手放送会館","architect":"坂倉準三","year":1964.0,"address":"岩手県盛岡市志家町6-1","latitude":39.69857406616211,"longitude":141.16159057617188,"category":"低層オフィス/企業施設","big_category":"企業施設,企業施設","description":"","image_url":"","tags":"Ver1.80(2016年5月)の追加建築","prefecture":"岩手","contractor":"","structural_designer":"","landscape_designer":"","shinkenchiku_url":""},{"id":6028,"title":"八甲田ホテル","architect":"早川正夫","year":1991.0,"address":"青森県青森市荒川南荒川山1-1","latitude":40.64570617675781,"longitude":140.85214233398438,"category":"ホテル","big_category":"宿泊","description":"","image_url":"","tags":"Ver1.80(2016年5月)の追加建築","prefecture":"青森","contractor":"","structural_designer":"","landscape_designer":"","shinkenchiku_url":""},{"id":6029,"title":"青森公立大学 国際交流ハウス","architect":"INA新建築研究所","year":1994.0,"address":"青森県青森市合子沢山崎 青森市国際交流ハウス","latitude":40.753257751464844,"longitude":140.7744903564453,"category":"大学/公民館・交流施設/クラブハウス","big_category":"教育,公共施設,レジャー施設","description":"","image_url":"","tags":"Ver1.80(2016年5月)の追加建築","prefecture":"青森","contractor":"","structural_designer":"","landscape_designer":"","shinkenchiku_url":""},{"id":6030,"title":"東北大学 附属図書館","architect":"鬼頭梓","year":1972.0,"address":"宮城県仙台市青葉区川内27-1","latitude":38.25839614868164,"longitude":140.8518829345703,"category":"図書館","big_category":"文化施設","description":"","image_url":"","tags":"Ver1.80(2016年5月)の追加建築,2002年JIA25年賞","prefecture":"宮城","contractor":"","structural_designer":"","landscape_designer":"","shinkenchiku_url":""},{"id":6031,"title":"仙台市博物館","architect":"佐藤総合計画","year":1986.0,"address":"宮城県仙台市青葉区川内26","latitude":38.25593948364258,"longitude":140.85682678222656,"category":"博物館","big_category":"ミュージアム","description":"","image_url":"","tags":"Ver1.80(2016年5月)の追加建築,2017年JIA25年賞 登録作品","prefecture":"宮城","contractor":"","structural_designer":"","landscape_designer":"","shinkenchiku_url":""},{"id":6032,"title":"岩手県民会館 トーサイクラシックホール岩手","architect":"佐藤武夫","year":1973.0,"address":"岩手県盛岡市内丸13-1","latitude":39.70369338989258,"longitude":141.15481567382812,"category":"ホール・劇場","big_category":"文化施設","description":"","image_url":"","tags":"Ver1.80(2016年5月)の追加建築,2004年JIA25年賞","prefecture":"岩手","contractor":"","structural_designer":"","landscape_designer":"","shinkenchiku_url":""},{"id":6033,"title":"ウイングベイ小樽 旧マイカル小樽","architect":"ジョン・ジャーディ","year":1999.0,"address":"北海道小樽市築港11-5","latitude":43.183258056640625,"longitude":141.0243682861328,"category":"モール/ホテル","big_category":"商業施設,宿泊","description":"","image_url":"","tags":"Ver1.80(2016年5月)の追加建築","prefecture":"北海道","contractor":"","structural_designer":"","landscape_designer":"","shinkenchiku_url":""},{"id":6034,"title":"旧三井銀行小樽支店","architect":"曽禰達蔵+中條精一郎","year":1927.0,"address":"北海道小樽市色内1-3-1","latitude":43.19776153564453,"longitude":141.0013885498047,"category":"金融機関","big_category":"企業施設","description":"","image_url":"","tags":"Ver1.80(2016年5月)の追加建築,重要文化財","prefecture":"北海道","contractor":"","structural_designer":"","landscape_designer":"","shinkenchiku_url":""},{"id":6035,"title":"マリンワールド海の中道","architect":"磯崎新","year":1989.0,"address":"福岡県福岡市東区西戸崎18-28","latitude":33.66104507446289,"longitude":130.3633575439453,"category":"水族館","big_category":"レジャー施設","description":"","image_url":"","tags":"Ver1.80(2016年5月)の追加建築","prefecture":"福岡","contractor":"","structural_designer":"","landscape_designer":"","shinkenchiku_url":""},{"id":6036,"title":"ジュールA","architect":"鈴木エドワード","year":1990.0,"address":"東京都港区麻布十番1-10-10","latitude":35.656028747558594,"longitude":139.73672485351562,"category":"集合住宅","big_category":"住宅","description":"","image_url":"","tags":"Ver1.80(2016年5月)の追加建築","prefecture":"東京","contractor":"","structural_designer":"","landscape_designer":"","shinkenchiku_url":""},{"id":6037,"title":"昭和女子大学附属昭和こども園","architect":"納谷建築設計事務所","year":2016.0,"address":"東京都世田谷区太子堂1-7-57","latitude":35.64314651489258,"longitude":139.6747283935547,"category":"幼稚園","big_category":"教育","description":"","image_url":"","tags":"新建築2016年5月号,Ver1.80(2016年5月)の追加建築","prefecture":"東京","contractor":"","structural_designer":"","landscape_designer":"","shinkenchiku_url":""},{"id":6038,"title":"所沢ひまわり幼稚園 改築棟","architect":"シーラカンスK&H","year":2015.0,"address":"埼玉県所沢市三ケ島4-2282","latitude":35.798770904541016,"longitude":139.4131622314453,"category":"幼稚園","big_category":"教育","description":"","image_url":"","tags":"新建築2016年5月号,Ver1.80(2016年5月)の追加建築","prefecture":"埼玉","contractor":"","structural_designer":"","landscape_designer":"","shinkenchiku_url":""},{"id":6039,"title":"フクマスベース 福増幼稚園新館","architect":"吉村靖孝","year":2016.0,"address":"千葉県市原市福増字揚ヶ橋690-1","latitude":35.47761917114258,"longitude":140.13307189941406,"category":"幼稚園","big_category":"教育","description":"","image_url":"","tags":"新建築2016年5月号,Ver1.80(2016年5月)の追加建築,2018年日本建築学会 作品選奨","prefecture":"千葉","contractor":"","structural_designer":"","landscape_designer":"","shinkenchiku_url":""},{"id":6040,"title":"会津坂下町立坂下東幼稚園","architect":"阿部直人+辺見美津男+秋月直道","year":2013.0,"address":"福島県河沼郡会津坂下町上口705","latitude":37.56082534790039,"longitude":139.8340606689453,"category":"幼稚園","big_category":"教育","description":"","image_url":"","tags":"新建築2016年5月号,Ver1.80(2016年5月)の追加建築","prefecture":"福島","contractor":"","structural_designer":"","landscape_designer":"","shinkenchiku_url":""},{"id":6041,"title":"二本松市立とうわこども園","architect":"辺見美津男","year":2012.0,"address":"福島県二本松市針道字大町西46","latitude":37.59122085571289,"longitude":140.5684814453125,"category":"幼稚園","big_category":"教育","description":"","image_url":"","tags":"新建築2016年5月号,Ver1.80(2016年5月)の追加建築","prefecture":"福島","contractor":"","structural_designer":"","landscape_designer":"","shinkenchiku_url":""},{"id":6042,"title":"ちぐさこども園","architect":"仙田満","year":2015.0,"address":"群馬県沼田市柳町394","latitude":36.653831481933594,"longitude":139.0452117919922,"category":"幼稚園","big_category":"教育","description":"","image_url":"","tags":"新建築2016年5月号,Ver1.80(2016年5月)の追加建築","prefecture":"群馬","contractor":"","structural_designer":"","landscape_designer":"","shinkenchiku_url":""},{"id":6043,"title":"須賀川市立大東こども園・大東児童クラブ館","architect":"渡部和生","year":2016.0,"address":"福島県須賀川市雨田字高屋敷8-1","latitude":37.26625061035156,"longitude":140.4222412109375,"category":"幼稚園","big_category":"教育","description":"","image_url":"","tags":"新建築2016年5月号,Ver1.80(2016年5月)の追加建築","prefecture":"福島","contractor":"","structural_designer":"","landscape_designer":"","shinkenchiku_url":""},{"id":6044,"title":"かまいしこども園","architect":"平田晃久","year":2015.0,"address":"岩手県釜石市天神町5-13","latitude":39.27664566040039,"longitude":141.88470458984375,"category":"幼稚園","big_category":"教育","description":"","image_url":"","tags":"新建築2016年5月号,Ver1.80(2016年5月)の追加建築","prefecture":"岩手","contractor":"","structural_designer":"","landscape_designer":"","shinkenchiku_url":""},{"id":6045,"title":"扇こころ保育園","architect":"bask design","year":2015.0,"address":"東京都足立区扇1-22-28","latitude":35.7640495300293,"longitude":139.77304077148438,"category":"幼稚園","big_category":"教育","description":"","image_url":"","tags":"新建築2016年5月号,Ver1.80(2016年5月)の追加建築","prefecture":"東京","contractor":"","structural_designer":"","landscape_designer":"","shinkenchiku_url":""},{"id":6046,"title":"東松認定こども園げんき","architect":"谷口麻里子+梶浦暁","year":2015.0,"address":"埼玉県東松山市石橋1761","latitude":36.03953552246094,"longitude":139.37405395507812,"category":"幼稚園","big_category":"教育","description":"","image_url":"","tags":"新建築2016年5月号,Ver1.80(2016年5月)の追加建築","prefecture":"埼玉","contractor":"","structural_designer":"","landscape_designer":"","shinkenchiku_url":""},{"id":6047,"title":"森のおうち保育園","architect":"鮎川透","year":2015.0,"address":"福岡県福岡市中央区小笹3-13-6","latitude":33.56521224975586,"longitude":130.38644409179688,"category":"幼稚園","big_category":"教育","description":"","image_url":"","tags":"新建築2016年5月号,Ver1.80(2016年5月)の追加建築","prefecture":"福岡","contractor":"","structural_designer":"","landscape_designer":"","shinkenchiku_url":""},{"id":6048,"title":"星の杜こども園","architect":"ジャクエツ環境事業+呉屋彦四郎","year":2015.0,"address":"兵庫県神戸市北区鹿の子台南町1-2-15","latitude":34.852108001708984,"longitude":135.21420288085938,"category":"幼稚園","big_category":"教育","description":"","image_url":"","tags":"新建築2016年5月号,Ver1.80(2016年5月)の追加建築","prefecture":"兵庫","contractor":"","structural_designer":"","landscape_designer":"","shinkenchiku_url":""},{"id":6049,"title":"吉井保育所","architect":"角野辰徳+古賀俊光","year":2015.0,"address":"長崎県佐世保市吉井町吉元540-1","latitude":33.26250457763672,"longitude":129.6952667236328,"category":"幼稚園","big_category":"教育","description":"","image_url":"","tags":"新建築2016年5月号,Ver1.80(2016年5月)の追加建築","prefecture":"長崎","contractor":"","structural_designer":"","landscape_designer":"","shinkenchiku_url":""},{"id":6050,"title":"こばと保育園","architect":"角野辰徳+古賀俊光","year":2013.0,"address":"福岡県福岡市南区桧原4-36-25","latitude":33.53180694580078,"longitude":130.39122009277344,"category":"幼稚園","big_category":"教育","description":"","image_url":"","tags":"新建築2016年5月号,Ver1.80(2016年5月)の追加建築","prefecture":"福岡","contractor":"","structural_designer":"","landscape_designer":"","shinkenchiku_url":""}]}