{"page":129,"total_pages":290,"items_per_page":50,"total_items":14467,"items":[{"id":6401,"title":"いの町新庁舎","architect":"昭和設計+上田堯世","year":2015.0,"address":"高知県吾川郡いの町1700-1","latitude":33.54865646362305,"longitude":133.427734375,"category":"庁舎","big_category":"公共施設","description":"","image_url":"","tags":"Ver1.93(2016年12月)の追加建築","prefecture":"高知","contractor":"","structural_designer":"","landscape_designer":"","shinkenchiku_url":""},{"id":6402,"title":"豊後高田市新庁舎","architect":"東九州設計工務","year":2015.0,"address":"大分県豊後高田市是永町御玉39-3","latitude":33.55615997314453,"longitude":131.44708251953125,"category":"庁舎","big_category":"公共施設","description":"","image_url":"","tags":"Ver1.93(2016年12月)の追加建築","prefecture":"大分","contractor":"","structural_designer":"","landscape_designer":"","shinkenchiku_url":""},{"id":6403,"title":"幸区役所庁舎","architect":"日本設計","year":2015.0,"address":"神奈川県川崎市幸区戸手本町1-11-1","latitude":35.544334411621094,"longitude":139.68679809570312,"category":"庁舎","big_category":"公共施設","description":"","image_url":"","tags":"Ver1.93(2016年12月)の追加建築","prefecture":"神奈川","contractor":"","structural_designer":"","landscape_designer":"","shinkenchiku_url":""},{"id":6404,"title":"こども元気センター","architect":"仙田満","year":2016.0,"address":"福島県いわき市植田町本町1-12","latitude":36.91472625732422,"longitude":140.79666137695312,"category":"児童施設","big_category":"教育","description":"","image_url":"","tags":"Ver1.93(2016年12月)の追加建築","prefecture":"福島","contractor":"","structural_designer":"","landscape_designer":"","shinkenchiku_url":""},{"id":6405,"title":"エクシブ鳥羽別邸","architect":"安井建築設計","year":2016.0,"address":"三重県鳥羽市安楽島町字ニエ212-8","latitude":34.45874786376953,"longitude":136.86795043945312,"category":"ホテル","big_category":"宿泊","description":"","image_url":"","tags":"Ver1.93(2016年12月)の追加建築","prefecture":"三重","contractor":"","structural_designer":"","landscape_designer":"","shinkenchiku_url":""},{"id":6406,"title":"瀬戸内市民図書館 もみわ広場","architect":"香山壽夫","year":2016.0,"address":"岡山県瀬戸内市邑久町尾張465-1","latitude":34.663185119628906,"longitude":134.0937042236328,"category":"図書館","big_category":"文化施設","description":"","image_url":"","tags":"Ver1.93(2016年12月)の追加建築","prefecture":"岡山","contractor":"","structural_designer":"","landscape_designer":"","shinkenchiku_url":""},{"id":6407,"title":"北区立滝野川紅葉中学校","architect":"香山壽夫","year":2013.0,"address":"東京都北区滝野川5-55-8","latitude":35.74980163574219,"longitude":139.7248077392578,"category":"学校","big_category":"教育","description":"","image_url":"","tags":"Ver1.93(2016年12月)の追加建築","prefecture":"東京","contractor":"","structural_designer":"","landscape_designer":"","shinkenchiku_url":""},{"id":6408,"title":"大野市庁舎","architect":"山下設計+西川建築設計","year":2015.0,"address":"福井県大野市天神町1-1","latitude":35.979766845703125,"longitude":136.48756408691406,"category":"庁舎","big_category":"公共施設","description":"","image_url":"","tags":"Ver1.93(2016年12月)の追加建築","prefecture":"福井","contractor":"","structural_designer":"","landscape_designer":"","shinkenchiku_url":""},{"id":6409,"title":"東広島芸術文化ホール くらら","architect":"香山壽夫","year":2015.0,"address":"広島県東広島市西条栄町7-19","latitude":34.4283447265625,"longitude":132.74253845214844,"category":"ホール・劇場","big_category":"文化施設","description":"","image_url":"","tags":"Ver1.93(2016年12月)の追加建築","prefecture":"広島","contractor":"","structural_designer":"","landscape_designer":"","shinkenchiku_url":""},{"id":6410,"title":"東京大学 伊藤国際学術研究センター","architect":"香山壽夫","year":2011.0,"address":"東京都文京区本郷7-3-1","latitude":35.71023941040039,"longitude":139.7604217529297,"category":"大学","big_category":"教育","description":"","image_url":"","tags":"Ver1.93(2016年12月)の追加建築","prefecture":"東京","contractor":"","structural_designer":"","landscape_designer":"","shinkenchiku_url":""},{"id":6411,"title":"穂の国とよはし芸術劇場 PLAT","architect":"香山壽夫+大成建設","year":2013.0,"address":"愛知県豊橋市西小田原町123","latitude":34.7606086730957,"longitude":137.38414001464844,"category":"ホール・劇場","big_category":"文化施設","description":"","image_url":"","tags":"Ver1.93(2016年12月)の追加建築","prefecture":"愛知","contractor":"","structural_designer":"","landscape_designer":"","shinkenchiku_url":""},{"id":6412,"title":"文京区立第六中学校","architect":"香山壽夫","year":2015.0,"address":"東京都文京区向丘1-2-15","latitude":35.717018127441406,"longitude":139.75804138183594,"category":"学校","big_category":"教育","description":"","image_url":"","tags":"Ver1.93(2016年12月)の追加建築","prefecture":"東京","contractor":"","structural_designer":"","landscape_designer":"","shinkenchiku_url":""},{"id":6413,"title":"松尾交流センター 洗心館","architect":"榎本建築設計","year":2015.0,"address":"千葉県山武市松尾町松尾40-2","latitude":35.63780975341797,"longitude":140.4561004638672,"category":"公民館・交流施設","big_category":"公共施設","description":"","image_url":"","tags":"Ver1.93(2016年12月)の追加建築","prefecture":"千葉","contractor":"","structural_designer":"","landscape_designer":"","shinkenchiku_url":""},{"id":6414,"title":"八千代市立中央図書館・八千代市市民ギャラリー","architect":"岡田新一設計事務所","year":2015.0,"address":"千葉県八千代市村上2510","latitude":35.72858810424805,"longitude":140.11338806152344,"category":"図書館/ギャラリー","big_category":"文化施設,ミュージアム","description":"","image_url":"","tags":"Ver1.93(2016年12月)の追加建築","prefecture":"千葉","contractor":"","structural_designer":"","landscape_designer":"","shinkenchiku_url":""},{"id":6415,"title":"片町きらら","architect":"アール・アイ・エー","year":2016.0,"address":"石川県金沢市片町2-2-2","latitude":36.56062316894531,"longitude":136.6526336669922,"category":"テナントビル","big_category":"商業施設","description":"","image_url":"","tags":"Ver1.93(2016年12月)の追加建築","prefecture":"石川","contractor":"","structural_designer":"","landscape_designer":"","shinkenchiku_url":""},{"id":6416,"title":"THE TENDER HOUSE","architect":"竹中工務店","year":2015.0,"address":"東京都港区白金台4-19-16","latitude":35.63893127441406,"longitude":139.7230987548828,"category":"レストラン/結婚式場","big_category":"商業施設,宗教","description":"","image_url":"","tags":"Ver1.93(2016年12月)の追加建築","prefecture":"東京","contractor":"","structural_designer":"","landscape_designer":"","shinkenchiku_url":""},{"id":6417,"title":"成城学園 澤柳記念講堂","architect":"日建設計","year":2015.0,"address":"東京都世田谷区成城6-1-20","latitude":35.64327621459961,"longitude":139.6004180908203,"category":"ホール・劇場/大学","big_category":"文化施設,教育","description":"","image_url":"","tags":"Ver1.93(2016年12月)の追加建築","prefecture":"東京","contractor":"","structural_designer":"","landscape_designer":"","shinkenchiku_url":""},{"id":6418,"title":"八尾市立龍華コミュニティセンター／八尾市役所龍華出張所／八尾市立龍華図書館","architect":"INA新建築研究所","year":2015.0,"address":"大阪府八尾市植松町5-8-32","latitude":34.61220169067383,"longitude":135.58905029296875,"category":"公民館・交流施設/図書館/庁舎","big_category":"公共施設,文化施設,公共施設","description":"","image_url":"","tags":"Ver1.93(2016年12月)の追加建築","prefecture":"大阪","contractor":"","structural_designer":"","landscape_designer":"","shinkenchiku_url":""},{"id":6419,"title":"多摩美術大学 アートテーク","architect":"田淵諭+鹿島建設","year":2015.0,"address":"東京都八王子市鑓水2-1723","latitude":35.61088943481445,"longitude":139.350341796875,"category":"大学","big_category":"教育","description":"","image_url":"","tags":"Ver1.93(2016年12月)の追加建築","prefecture":"東京","contractor":"","structural_designer":"","landscape_designer":"","shinkenchiku_url":""},{"id":6420,"title":"ヤマハ大阪ビル","architect":"竹中工務店","year":2015.0,"address":"大阪府大阪市西区南堀江1−2−13","latitude":34.67137145996094,"longitude":135.49679565429688,"category":"オフィスビル","big_category":"企業施設","description":"","image_url":"","tags":"Ver1.93(2016年12月)の追加建築","prefecture":"大阪","contractor":"","structural_designer":"","landscape_designer":"","shinkenchiku_url":""},{"id":6421,"title":"佐伯市庁舎","architect":"山下設計","year":2015.0,"address":"大分県佐伯市中村南町1-1","latitude":32.95976638793945,"longitude":131.89999389648438,"category":"庁舎","big_category":"公共施設","description":"","image_url":"","tags":"Ver1.93(2016年12月)の追加建築","prefecture":"大分","contractor":"","structural_designer":"","landscape_designer":"","shinkenchiku_url":""},{"id":6422,"title":"MAIN STAGE The Base","architect":"久武正明","year":2015.0,"address":"兵庫県芦屋市春日町1-12","latitude":34.73394775390625,"longitude":135.31619262695312,"category":"低層オフィス","big_category":"企業施設","description":"","image_url":"","tags":"Ver1.93(2016年12月)の追加建築","prefecture":"兵庫","contractor":"","structural_designer":"","landscape_designer":"","shinkenchiku_url":""},{"id":6423,"title":"東洋食品工業短期大学 新体育館","architect":"竹中工務店","year":2008.0,"address":"兵庫県川西市南花屋敷4-23-2","latitude":34.82351303100586,"longitude":135.40142822265625,"category":"体育館/大学","big_category":"レジャー施設,教育","description":"","image_url":"","tags":"Ver1.93(2016年12月)の追加建築","prefecture":"兵庫","contractor":"","structural_designer":"","landscape_designer":"","shinkenchiku_url":""},{"id":6424,"title":"ウェスタ川越","architect":"佐藤総合計画","year":2015.0,"address":"埼玉県川越市新宿町1-17-17","latitude":35.90419387817383,"longitude":139.4790802001953,"category":"総合文化施設/ホール・劇場","big_category":"文化施設,文化施設","description":"","image_url":"","tags":"Ver1.93(2016年12月)の追加建築","prefecture":"埼玉","contractor":"","structural_designer":"","landscape_designer":"","shinkenchiku_url":""},{"id":6425,"title":"名寄市民文化センター EN-RAYホール","architect":"日建設計","year":2015.0,"address":"北海道名寄市西13条南4-2","latitude":44.35196304321289,"longitude":142.44456481933594,"category":"ホール・劇場","big_category":"文化施設","description":"","image_url":"","tags":"Ver1.93(2016年12月)の追加建築","prefecture":"北海道","contractor":"","structural_designer":"","landscape_designer":"","shinkenchiku_url":""},{"id":6426,"title":"コスモスふきあげ館","architect":"日本設計","year":2015.0,"address":"埼玉県鴻巣市明用636-1","latitude":36.086570739746094,"longitude":139.45216369628906,"category":"公民館・交流施設/図書館/児童施設","big_category":"公共施設,文化施設,教育","description":"","image_url":"","tags":"Ver1.93(2016年12月)の追加建築","prefecture":"埼玉","contractor":"","structural_designer":"","landscape_designer":"","shinkenchiku_url":""},{"id":6427,"title":"名古屋市瑞穂文化小劇場／瑞穂図書館","architect":"内藤建築事務所","year":2015.0,"address":"愛知県名古屋市瑞穂区豊岡通3-29","latitude":35.1219367980957,"longitude":136.9412384033203,"category":"ホール・劇場/図書館","big_category":"文化施設,文化施設","description":"","image_url":"","tags":"Ver1.93(2016年12月)の追加建築","prefecture":"愛知","contractor":"","structural_designer":"","landscape_designer":"","shinkenchiku_url":""},{"id":6428,"title":"京都銀行 金融大学校桂川キャンパス","architect":"日建設計","year":2014.0,"address":"京都府京都市南区久世高田町376-7","latitude":34.96269226074219,"longitude":135.7094268798828,"category":"研修施設/金融機関","big_category":"教育,企業施設","description":"","image_url":"","tags":"Ver1.93(2016年12月)の追加建築","prefecture":"京都","contractor":"","structural_designer":"","landscape_designer":"","shinkenchiku_url":""},{"id":6429,"title":"HIOKIイノベーションセンター","architect":"日建設計","year":2014.0,"address":"長野県上田市小泉81","latitude":36.38078689575195,"longitude":138.19541931152344,"category":"研究施設","big_category":"教育","description":"","image_url":"","tags":"Ver1.93(2016年12月)の追加建築","prefecture":"長野","contractor":"","structural_designer":"","landscape_designer":"","shinkenchiku_url":""},{"id":6430,"title":"神戸大学大学院工学研究科　先端膜工学研究拠点","architect":"遠藤秀平","year":2015.0,"address":"兵庫県神戸市灘区六甲台町1-1","latitude":34.72697830200195,"longitude":135.236572265625,"category":"大学","big_category":"教育","description":"","image_url":"","tags":"Ver1.93(2016年12月)の追加建築","prefecture":"兵庫","contractor":"","structural_designer":"","landscape_designer":"","shinkenchiku_url":""},{"id":6431,"title":"南長野運動公園総合球技場","architect":"竹中工務店+東畑建築事務所+アーキプラン","year":2015.0,"address":"長野県長野市 篠ノ井東福寺320","latitude":36.57994842529297,"longitude":138.16990661621094,"category":"スタジアム","big_category":"レジャー施設","description":"","image_url":"","tags":"Ver1.93(2016年12月)の追加建築","prefecture":"長野","contractor":"","structural_designer":"","landscape_designer":"","shinkenchiku_url":""},{"id":6432,"title":"川崎富士見球技場","architect":"石本建築事務所","year":2014.0,"address":"神奈川県川崎市川崎区富士見2-1-1","latitude":35.527122497558594,"longitude":139.70960998535156,"category":"スタジアム","big_category":"レジャー施設","description":"","image_url":"","tags":"Ver1.93(2016年12月)の追加建築","prefecture":"神奈川","contractor":"","structural_designer":"","landscape_designer":"","shinkenchiku_url":""},{"id":6433,"title":"二子玉川ライズ Ⅱ-a街区","architect":"日建設計+アールアイエー+コンラン&パートナーズ+東急設計","year":2015.0,"address":"東京都世田谷区玉川2−21−1","latitude":35.6122932434082,"longitude":139.62855529785156,"category":"モール","big_category":"商業施設","description":"デザイン監修：コンラン&パートナーズ","image_url":"","tags":"Ver1.93(2016年12月)の追加建築,新建築2015年9月号","prefecture":"東京","contractor":"","structural_designer":"","landscape_designer":"","shinkenchiku_url":""},{"id":6434,"title":"帝京科学大学 千住キャンパス6号館・7号館","architect":"NTTファシリティーズ","year":2015.0,"address":"東京都足立区千住桜木2-2-1","latitude":35.75347137451172,"longitude":139.78929138183594,"category":"大学","big_category":"教育","description":"","image_url":"","tags":"Ver1.93(2016年12月)の追加建築","prefecture":"東京","contractor":"","structural_designer":"","landscape_designer":"","shinkenchiku_url":""},{"id":6435,"title":"ふじしろ中央図書館","architect":"岡田新一","year":2002.0,"address":"茨城県取手市藤代415","latitude":35.92498779296875,"longitude":140.11257934570312,"category":"図書館","big_category":"文化施設","description":"","image_url":"","tags":"Ver1.93(2016年12月)の追加建築","prefecture":"茨城","contractor":"","structural_designer":"","landscape_designer":"","shinkenchiku_url":""},{"id":6436,"title":"三原市役所 本郷生涯学習センター","architect":"大旗連合建築設計","year":2004.0,"address":"広島県三原市本郷南6-25-1","latitude":34.4106330871582,"longitude":132.98326110839844,"category":"図書館/庁舎","big_category":"文化施設,公共施設","description":"","image_url":"","tags":"Ver1.93(2016年12月)の追加建築","prefecture":"広島","contractor":"","structural_designer":"","landscape_designer":"","shinkenchiku_url":""},{"id":6437,"title":"観音寺市立 中央図書館","architect":"株式会社大建設計","year":2004.0,"address":"香川県観音寺市坂本町1-1-1","latitude":34.12910079956055,"longitude":133.66188049316406,"category":"図書館","big_category":"文化施設","description":"","image_url":"","tags":"Ver1.93(2016年12月)の追加建築","prefecture":"香川","contractor":"","structural_designer":"","landscape_designer":"","shinkenchiku_url":""},{"id":6438,"title":"熊本保健科学大学","architect":"佐藤総合計画","year":2002.0,"address":"熊本県熊本市北区和泉町325","latitude":32.853614807128906,"longitude":130.6973876953125,"category":"大学","big_category":"教育","description":"","image_url":"","tags":"Ver1.93(2016年12月)の追加建築","prefecture":"熊本","contractor":"","structural_designer":"","landscape_designer":"","shinkenchiku_url":""},{"id":6439,"title":"東京大学 先端科学技術研究センター3号館","architect":"シーラカンスアンドアソシエイツ","year":2003.0,"address":"東京都目黒区駒場4-6-1","latitude":35.66239929199219,"longitude":139.6766815185547,"category":"大学","big_category":"教育","description":"","image_url":"","tags":"Ver1.93(2016年12月)の追加建築","prefecture":"東京","contractor":"","structural_designer":"","landscape_designer":"","shinkenchiku_url":""},{"id":6440,"title":"桜美林大学 プラネット淵野辺キャンパス","architect":"アーキテクトファイブ","year":2003.0,"address":"神奈川県相模原市中央区淵野辺4-16-1","latitude":35.56834030151367,"longitude":139.39614868164062,"category":"大学","big_category":"教育","description":"","image_url":"","tags":"Ver1.93(2016年12月)の追加建築","prefecture":"神奈川","contractor":"","structural_designer":"","landscape_designer":"","shinkenchiku_url":""},{"id":6441,"title":"聖隷クリストファー中・高等学校","architect":"一粒社ヴォーリズ建築事務所","year":2003.0,"address":"静岡県浜松市北区三方原町3453","latitude":34.79251480102539,"longitude":137.69610595703125,"category":"学校","big_category":"教育","description":"","image_url":"","tags":"Ver1.93(2016年12月)の追加建築","prefecture":"静岡","contractor":"","structural_designer":"","landscape_designer":"","shinkenchiku_url":""},{"id":6442,"title":"東北大学 マルチメディア総合研究棟","architect":"八重樫直人","year":2003.0,"address":"宮城県仙台市青葉区川内27-1","latitude":38.26084518432617,"longitude":140.8507843017578,"category":"大学","big_category":"教育","description":"","image_url":"","tags":"Ver1.93(2016年12月)の追加建築","prefecture":"宮城","contractor":"","structural_designer":"","landscape_designer":"","shinkenchiku_url":""},{"id":6443,"title":"笠間広域斎場やすらぎの森","architect":"アール・アイ・エー+戸頃建築設計","year":2003.0,"address":"茨城県笠間市笠間4669","latitude":36.36125183105469,"longitude":140.27871704101562,"category":"斎場","big_category":"公共施設","description":"","image_url":"","tags":"Ver1.93(2016年12月)の追加建築","prefecture":"茨城","contractor":"","structural_designer":"","landscape_designer":"","shinkenchiku_url":""},{"id":6444,"title":"茨城県工業技術センター窯業指導所 匠工房・笠間","architect":"戸頃建築設計","year":1995.0,"address":"茨城県笠間市笠間2346-3","latitude":36.371482849121094,"longitude":140.26124572753906,"category":"その他文化施設","big_category":"文化施設","description":"","image_url":"","tags":"Ver1.93(2016年12月)の追加建築","prefecture":"茨城","contractor":"","structural_designer":"","landscape_designer":"","shinkenchiku_url":""},{"id":6445,"title":"笠間工芸の丘","architect":"戸頃建築設計","year":1998.0,"address":"茨城県笠間市笠間2388-1","latitude":36.372474670410156,"longitude":140.26145935058594,"category":"体験施設","big_category":"レジャー施設","description":"","image_url":"","tags":"Ver1.93(2016年12月)の追加建築","prefecture":"茨城","contractor":"","structural_designer":"","landscape_designer":"","shinkenchiku_url":""},{"id":6446,"title":"神栖市役所 平泉コミュニティセンター","architect":"戸頃建築設計","year":2002.0,"address":"茨城県神栖市平泉2751","latitude":35.90616226196289,"longitude":140.6345977783203,"category":"公民館・交流施設/庁舎","big_category":"公共施設,公共施設","description":"","image_url":"","tags":"Ver1.93(2016年12月)の追加建築","prefecture":"茨城","contractor":"","structural_designer":"","landscape_designer":"","shinkenchiku_url":""},{"id":6447,"title":"国立科学博物館 地球館","architect":"芦原義信","year":1998.0,"address":"東京都台東区上野公園7-20","latitude":35.71554946899414,"longitude":139.77679443359375,"category":"博物館","big_category":"ミュージアム","description":"","image_url":"","tags":"Ver1.93(2016年12月)の追加建築","prefecture":"東京","contractor":"","structural_designer":"","landscape_designer":"","shinkenchiku_url":""},{"id":6448,"title":"青森県立三沢航空科学館","architect":"梓設計","year":2003.0,"address":"青森県三沢市大字三沢字北山158","latitude":40.708248138427734,"longitude":141.39064025878906,"category":"博物館","big_category":"ミュージアム","description":"","image_url":"","tags":"Ver1.93(2016年12月)の追加建築","prefecture":"青森","contractor":"","structural_designer":"","landscape_designer":"","shinkenchiku_url":""},{"id":6449,"title":"さいたま市記念総合体育館","architect":"日本設計","year":2003.0,"address":"埼玉県さいたま市桜区道場4-3-1","latitude":35.855934143066406,"longitude":139.6085205078125,"category":"体育館","big_category":"レジャー施設","description":"","image_url":"","tags":"Ver1.93(2016年12月)の追加建築","prefecture":"埼玉","contractor":"","structural_designer":"","landscape_designer":"","shinkenchiku_url":""},{"id":6450,"title":"島根県立浜山体育館 カミアリーナ","architect":"馬庭稔","year":2003.0,"address":"島根県出雲市大社町北荒木1868-10","latitude":35.38398742675781,"longitude":132.70664978027344,"category":"体育館","big_category":"レジャー施設","description":"","image_url":"","tags":"Ver1.93(2016年12月)の追加建築","prefecture":"島根","contractor":"","structural_designer":"","landscape_designer":"","shinkenchiku_url":""}]}