{"page":189,"total_pages":290,"items_per_page":50,"total_items":14467,"items":[{"id":9401,"title":"ザ・ライブリー大阪本町","architect":"寶田陵+杤尾直也+日企設計","year":2017.0,"address":"大阪府大阪市中央区南本町1-5-11","latitude":34.682823181152344,"longitude":135.50770568847656,"category":"ホテル","big_category":"宿泊","description":"","image_url":"","tags":"Ver3.40(2020年5月)の追加建築","prefecture":"大阪","contractor":"","structural_designer":"","landscape_designer":"","shinkenchiku_url":""},{"id":9402,"title":"喫茶野ざらし","architect":"佐藤研吾","year":2020.0,"address":"東京都墨田区吾妻橋2-11-5","latitude":35.70985412597656,"longitude":139.80259704589844,"category":"カフェ","big_category":"商業施設","description":"","image_url":"","tags":"Ver3.40(2020年5月)の追加建築","prefecture":"東京","contractor":"","structural_designer":"","landscape_designer":"","shinkenchiku_url":""},{"id":9403,"title":"咆哮 2kwgallery","architect":"塔本研作","year":2017.0,"address":"滋賀県大津市音羽台3-29-1","latitude":35.002071380615234,"longitude":135.8614501953125,"category":"ギャラリー/住宅","big_category":"ミュージアム,住宅","description":"","image_url":"","tags":"Ver3.40(2020年5月)の追加建築","prefecture":"滋賀","contractor":"","structural_designer":"","landscape_designer":"","shinkenchiku_url":""},{"id":9404,"title":"ネッツトヨタ愛媛 J.Spot新居浜","architect":"矢野青山建築設計事務所","year":2020.0,"address":"愛媛県新居浜市国領1丁目甲1799-4","latitude":33.93839645385742,"longitude":133.32032775878906,"category":"店舗","big_category":"商業施設","description":"","image_url":"","tags":"Ver3.40(2020年5月)の追加建築","prefecture":"愛媛","contractor":"","structural_designer":"","landscape_designer":"","shinkenchiku_url":""},{"id":9405,"title":"レジーナリゾート軽井沢御影用水","architect":"現代建築研究所","year":2016.0,"address":"長野県北佐久郡軽井沢町大字追分49-2","latitude":36.33074951171875,"longitude":138.52740478515625,"category":"ホテル","big_category":"宿泊","description":"","image_url":"","tags":"Ver3.40(2020年5月)の追加建築","prefecture":"長野","contractor":"","structural_designer":"","landscape_designer":"","shinkenchiku_url":""},{"id":9406,"title":"関水金属本社ビル","architect":"現代建築研究所","year":2014.0,"address":"東京都新宿区西落合1-24-10","latitude":35.721397399902344,"longitude":139.68006896972656,"category":"低層オフィス","big_category":"企業施設","description":"","image_url":"","tags":"Ver3.40(2020年5月)の追加建築","prefecture":"東京","contractor":"","structural_designer":"","landscape_designer":"","shinkenchiku_url":""},{"id":9407,"title":"ブラス軽井沢 シモーネ・カンタフィオ","architect":"隈研吾","year":2020.0,"address":"長野県北佐久郡軽井沢町大字長倉2147-635","latitude":36.36636734008789,"longitude":138.5867156982422,"category":"レストラン","big_category":"商業施設","description":"2020年7月オープン予定だったが延期","image_url":"","tags":"Ver3.40(2020年5月)の追加建築","prefecture":"長野","contractor":"","structural_designer":"","landscape_designer":"","shinkenchiku_url":""},{"id":9408,"title":"富士吉田市の準公共施設 センゲンボウ","architect":"ツバメアーキテクツ","year":2019.0,"address":"山梨県富士吉田市上吉田4-1-22","latitude":35.48082733154297,"longitude":138.79588317871094,"category":"公共施設","big_category":"公共施設","description":"","image_url":"","tags":"Ver3.40(2020年5月)の追加建築","prefecture":"山梨","contractor":"","structural_designer":"","landscape_designer":"","shinkenchiku_url":""},{"id":9409,"title":"窓辺ビル いちぼし堂","architect":"ツバメアーキテクツ","year":2018.0,"address":"静岡市葵区安東1-6-29","latitude":34.985904693603516,"longitude":138.38681030273438,"category":"シェアオフィス/幼稚園","big_category":"商業施設,教育","description":"","image_url":"","tags":"Ver3.40(2020年5月)の追加建築","prefecture":"静岡","contractor":"","structural_designer":"","landscape_designer":"","shinkenchiku_url":""},{"id":9410,"title":"草津温泉湯畑","architect":"象設計集団","year":1994.0,"address":"群馬県吾妻郡草津町大字草津 湯畑","latitude":36.62296676635742,"longitude":138.59674072265625,"category":"広場","big_category":"文化施設","description":"","image_url":"","tags":"Ver3.40(2020年5月)の追加建築","prefecture":"群馬","contractor":"","structural_designer":"","landscape_designer":"","shinkenchiku_url":""},{"id":9411,"title":"HANAZONO EDGE","architect":"フジタ+日建設計","year":2019.0,"address":"北海道虻田郡倶知安町字岩尾別328","latitude":42.891780853271484,"longitude":140.69961547851562,"category":"レストラン","big_category":"商業施設","description":"","image_url":"","tags":"Ver3.40(2020年5月)の追加建築","prefecture":"北海道","contractor":"","structural_designer":"","landscape_designer":"","shinkenchiku_url":""},{"id":9412,"title":"パークハイアット ニセコHANAZONO","architect":"フジタ+日建設計","year":2019.0,"address":"北海道虻田郡倶知安町字岩尾別328-47","latitude":42.89414978027344,"longitude":140.69813537597656,"category":"ホテル","big_category":"宿泊","description":"","image_url":"","tags":"Ver3.40(2020年5月)の追加建築","prefecture":"北海道","contractor":"","structural_designer":"","landscape_designer":"","shinkenchiku_url":""},{"id":9413,"title":"上勝町ゼロ・ウェイストセンターWHY","architect":"中村拓志","year":2020.0,"address":"徳島県勝浦郡上勝町大字福原字下日浦94-4","latitude":33.902286529541016,"longitude":134.4188690185547,"category":"ホテル/公共施設","big_category":"宿泊,公共施設","description":"2020年4月25日オープン予定も5月30日に延期","image_url":"","tags":"Ver3.40(2020年5月)の追加建築,新建築2020年7月号,2021年日本建築学会 作品賞","prefecture":"徳島","contractor":"北島コーポレーション","structural_designer":"","landscape_designer":"","shinkenchiku_url":""},{"id":9414,"title":"龍谷大学 深草キャンパス 成就館","architect":"飯田善彦","year":2020.0,"address":"京都府京都市伏見区深草塚本町67","latitude":34.962730407714844,"longitude":135.7671356201172,"category":"大学/ホール・劇場","big_category":"教育,文化施設","description":"","image_url":"","tags":"Ver3.40(2020年5月)の追加建築,新建築2020年5月号","prefecture":"京都","contractor":"","structural_designer":"","landscape_designer":"","shinkenchiku_url":""},{"id":9415,"title":"ところざわサクラタウン 角川武蔵野ミュージアム","architect":"隈研吾+鹿島建設","year":2020.0,"address":"埼玉県所沢市東所沢和田3-31-3","latitude":35.79774475097656,"longitude":139.50775146484375,"category":"博物館/総合文化施設/美術館","big_category":"ミュージアム,文化施設,ミュージアム","description":"2020年6月6日プレオープン、11月本オープン予定。外観及びデザイン監修に隈研吾","image_url":"","tags":"Ver3.40(2020年5月)の追加建築,新建築2020年12月号","prefecture":"埼玉","contractor":"","structural_designer":"","landscape_designer":"","shinkenchiku_url":""},{"id":9416,"title":"ところざわサクラタウン EJアニメホテル","architect":"隈研吾+鹿島建設","year":2020.0,"address":"埼玉県所沢市東所沢和田3-31-3","latitude":35.7971076965332,"longitude":139.5066680908203,"category":"ホテル/店舗","big_category":"宿泊,商業施設","description":"2020年7月11日オープン予定。外観及びデザイン監修に隈研吾","image_url":"","tags":"Ver3.40(2020年5月)の追加建築,新建築2020年12月号","prefecture":"埼玉","contractor":"","structural_designer":"","landscape_designer":"","shinkenchiku_url":""},{"id":9417,"title":"ところざわサクラタウン ジャパンパビリオン","architect":"鹿島建設","year":2020.0,"address":"埼玉県所沢市東所沢和田3-31-3","latitude":35.79684066772461,"longitude":139.507568359375,"category":"ホール・劇場","big_category":"文化施設","description":"","image_url":"","tags":"Ver3.40(2020年5月)の追加建築,新建築2020年12月号","prefecture":"埼玉","contractor":"","structural_designer":"","landscape_designer":"","shinkenchiku_url":""},{"id":9418,"title":"ところざわサクラタウン 武蔵野坐令和神社","architect":"種村強+隈研吾","year":2020.0,"address":"埼玉県所沢市東所沢和田3-31-3","latitude":35.79721450805664,"longitude":139.5083465576172,"category":"寺院","big_category":"宗教","description":"隈研吾が社殿のデザイン","image_url":"","tags":"Ver3.40(2020年5月)の追加建築,新建築2020年12月号","prefecture":"埼玉","contractor":"","structural_designer":"","landscape_designer":"","shinkenchiku_url":""},{"id":9419,"title":"祝言寺","architect":"内井昭蔵","year":1986.0,"address":"東京都台東区松が谷1-6-17","latitude":35.711578369140625,"longitude":139.78627014160156,"category":"寺院","big_category":"宗教","description":"","image_url":"","tags":"Ver3.40(2020年5月)の追加建築","prefecture":"東京","contractor":"","structural_designer":"","landscape_designer":"","shinkenchiku_url":""},{"id":9420,"title":"東京インターナショナルスクール 大濠キンダーガーテン","architect":"中村拓志","year":2017.0,"address":"福岡県福岡市中央区鳥飼1-4-53","latitude":33.58234786987305,"longitude":130.37051391601562,"category":"幼稚園","big_category":"教育","description":"","image_url":"","tags":"Ver3.40(2020年5月)の追加建築","prefecture":"福岡","contractor":"","structural_designer":"","landscape_designer":"","shinkenchiku_url":""},{"id":9421,"title":"無人島のツリーテラス","architect":"中村拓志","year":2016.0,"address":"広島県尾道市向東町13703","latitude":34.37504577636719,"longitude":133.2459259033203,"category":"カフェ","big_category":"商業施設","description":"ベラビスタ スパ&マリーナの宿泊者用プライベートビーチにある（と思われる）","image_url":"","tags":"Ver3.40(2020年5月)の追加建築","prefecture":"広島","contractor":"","structural_designer":"","landscape_designer":"","shinkenchiku_url":""},{"id":9422,"title":"大平和祈念塔","architect":"日建設計","year":1970.0,"address":"大阪府富田林市大字廿山285-1","latitude":34.502227783203125,"longitude":135.58592224121094,"category":"展望台/宗教施設","big_category":"レジャー施設,宗教","description":"","image_url":"","tags":"Ver3.40(2020年5月)の追加建築","prefecture":"大阪","contractor":"","structural_designer":"","landscape_designer":"","shinkenchiku_url":""},{"id":9423,"title":"京町家旅館 すみ蛍 おぼろ","architect":"木下昌大","year":2019.0,"address":"京都府京都市下京区裏方町176-1","latitude":34.99393081665039,"longitude":135.7473907470703,"category":"古民家/旅館","big_category":"近代建築/遺産,宿泊","description":"一棟貸しの旅館","image_url":"","tags":"Ver3.40(2020年5月)の追加建築","prefecture":"京都","contractor":"","structural_designer":"","landscape_designer":"","shinkenchiku_url":""},{"id":9424,"title":"イーストハウス","architect":"南川祐輝","year":2010.0,"address":"愛知県西尾市一色町佐久島大島 イーストハウス","latitude":34.71929931640625,"longitude":137.04591369628906,"category":"オブジェ","big_category":"ミュージアム","description":"佐久島アート","image_url":"","tags":"Ver3.40(2020年5月)の追加建築","prefecture":"愛知","contractor":"","structural_designer":"","landscape_designer":"","shinkenchiku_url":""},{"id":9425,"title":"おひるねハウス","architect":"南川祐輝","year":2004.0,"address":"愛知県西尾市一色町佐久島石垣16","latitude":34.722957611083984,"longitude":137.0371551513672,"category":"オブジェ","big_category":"ミュージアム","description":"佐久島アート。2004年に初代が作られ2013年に初代が老朽化のため同様のものが作られた","image_url":"","tags":"Ver3.40(2020年5月)の追加建築","prefecture":"愛知","contractor":"","structural_designer":"","landscape_designer":"","shinkenchiku_url":""},{"id":9426,"title":"養護老人ホーム ながはま","architect":"竹原義二","year":2014.0,"address":"滋賀県長浜市加田町19-6","latitude":35.35694122314453,"longitude":136.3034210205078,"category":"養護施設","big_category":"医療施設","description":"","image_url":"","tags":"Ver3.40(2020年5月)の追加建築,新建築2014年11月号","prefecture":"滋賀","contractor":"奥田工務店","structural_designer":"ガル構造事務所","landscape_designer":"","shinkenchiku_url":"https://data.shinkenchiku.online/articles/SK_2014_11_114-0"},{"id":9427,"title":"琵琶湖の保養所 ON THE EDGE ニトリクラブ琵琶湖","architect":"大江匡","year":2002.0,"address":"滋賀県米原市磯2485-3","latitude":35.30121994018555,"longitude":136.25482177734375,"category":"研修施設","big_category":"教育","description":"ニトリ社員用の保養施設","image_url":"","tags":"Ver3.40(2020年5月)の追加建築","prefecture":"滋賀","contractor":"","structural_designer":"","landscape_designer":"","shinkenchiku_url":""},{"id":9428,"title":"オーレック・グリーンラボ長野","architect":"木下昌大","year":2016.0,"address":"長野県長野市大字赤沼1896-50","latitude":36.70476150512695,"longitude":138.27786254882812,"category":"店舗/低層オフィス","big_category":"商業施設,企業施設","description":"","image_url":"","tags":"Ver3.40(2020年5月)の追加建築","prefecture":"長野","contractor":"","structural_designer":"","landscape_designer":"","shinkenchiku_url":""},{"id":9429,"title":"オーレック・グリーンラボ弘前","architect":"木下昌大","year":2017.0,"address":"青森県弘前市大字神田4-2-5","latitude":40.62565612792969,"longitude":140.48770141601562,"category":"店舗/低層オフィス","big_category":"商業施設,企業施設","description":"","image_url":"","tags":"Ver3.40(2020年5月)の追加建築","prefecture":"青森","contractor":"","structural_designer":"","landscape_designer":"","shinkenchiku_url":""},{"id":9430,"title":"エイトビル","architect":"木下昌大","year":2014.0,"address":"東京都港区南青山4-10-3","latitude":35.666351318359375,"longitude":139.71751403808594,"category":"低層オフィス","big_category":"企業施設","description":"","image_url":"","tags":"Ver3.40(2020年5月)の追加建築","prefecture":"東京","contractor":"","structural_designer":"","landscape_designer":"","shinkenchiku_url":""},{"id":9431,"title":"クロビル","architect":"木下昌大","year":2013.0,"address":"東京都豊島区東池袋5-12-6","latitude":35.7260856628418,"longitude":139.7224884033203,"category":"集合住宅/レストラン","big_category":"住宅,商業施設","description":"","image_url":"","tags":"Ver3.40(2020年5月)の追加建築","prefecture":"東京","contractor":"","structural_designer":"","landscape_designer":"","shinkenchiku_url":""},{"id":9432,"title":"KDXレジデンス赤坂","architect":"木下昌大","year":2014.0,"address":"東京都港区赤坂6-13-11","latitude":35.66960144042969,"longitude":139.73397827148438,"category":"集合住宅","big_category":"住宅","description":"","image_url":"","tags":"Ver3.40(2020年5月)の追加建築","prefecture":"東京","contractor":"","structural_designer":"","landscape_designer":"","shinkenchiku_url":""},{"id":9433,"title":"大空と大地のなーさりぃ 茗荷谷園","architect":"木下昌大","year":2019.0,"address":"東京都文京区大塚3-27-1","latitude":35.72236251831055,"longitude":139.73599243164062,"category":"幼稚園","big_category":"教育","description":"","image_url":"","tags":"Ver3.40(2020年5月)の追加建築","prefecture":"東京","contractor":"","structural_designer":"","landscape_designer":"","shinkenchiku_url":""},{"id":9434,"title":"給分浜集会所","architect":"前田茂樹","year":2017.0,"address":"宮城県石巻市給分浜大房28","latitude":38.3282585144043,"longitude":141.47506713867188,"category":"公民館・交流施設","big_category":"公共施設","description":"","image_url":"","tags":"Ver3.40(2020年5月)の追加建築","prefecture":"宮城","contractor":"","structural_designer":"","landscape_designer":"","shinkenchiku_url":""},{"id":9435,"title":"ノルトロックジャパン 大阪オフィス","architect":"前田茂樹","year":2014.0,"address":"大阪府箕面市彩都粟生南1-18-35","latitude":34.8515739440918,"longitude":135.52236938476562,"category":"低層オフィス","big_category":"企業施設","description":"","image_url":"","tags":"Ver3.40(2020年5月)の追加建築","prefecture":"大阪","contractor":"","structural_designer":"","landscape_designer":"","shinkenchiku_url":""},{"id":9436,"title":"五穀屋 nicoe店","architect":"永山祐子","year":2014.0,"address":"静岡県浜松市浜北区染地台6-7-11 nicoe内","latitude":34.79643630981445,"longitude":137.74757385253906,"category":"店舗","big_category":"商業施設","description":"内装設計","image_url":"","tags":"Ver3.40(2020年5月)の追加建築","prefecture":"静岡","contractor":"","structural_designer":"","landscape_designer":"","shinkenchiku_url":""},{"id":9437,"title":"粟ヶ岳世界農業遺産茶草場テラス かっぽしテラス","architect":"竹下一級建築士事務所","year":2019.0,"address":"静岡県掛川市東山1051-1","latitude":34.84189987182617,"longitude":138.0684814453125,"category":"観光施設","big_category":"レジャー施設","description":"","image_url":"","tags":"Ver3.40(2020年5月)の追加建築","prefecture":"静岡","contractor":"","structural_designer":"","landscape_designer":"","shinkenchiku_url":""},{"id":9438,"title":"サーラプラザ佐鳴台","architect":"竹下一級建築士事務所","year":2017.0,"address":"静岡県浜松市中区佐鳴台1-11-5","latitude":34.70405578613281,"longitude":137.70277404785156,"category":"カフェ","big_category":"商業施設","description":"","image_url":"","tags":"Ver3.40(2020年5月)の追加建築","prefecture":"静岡","contractor":"","structural_designer":"","landscape_designer":"","shinkenchiku_url":""},{"id":9439,"title":"春華堂nicoe","architect":"竹下一級建築士事務所","year":2014.0,"address":"静岡県浜松市浜北区染地台6-7-11","latitude":34.7962532043457,"longitude":137.74729919433594,"category":"モール","big_category":"商業施設","description":"","image_url":"","tags":"Ver3.40(2020年5月)の追加建築","prefecture":"静岡","contractor":"","structural_designer":"","landscape_designer":"","shinkenchiku_url":""},{"id":9440,"title":"掛川中央幼保園","architect":"竹下一級建築士事務所","year":2009.0,"address":"静岡県掛川市和光2-16-1","latitude":34.78672790527344,"longitude":138.01077270507812,"category":"幼稚園","big_category":"教育","description":"","image_url":"","tags":"Ver3.40(2020年5月)の追加建築","prefecture":"静岡","contractor":"","structural_designer":"","landscape_designer":"","shinkenchiku_url":""},{"id":9441,"title":"浜松信用金庫 於呂支店","architect":"竹下一級建築士事務所","year":2015.0,"address":"静岡県浜松市浜北区豊保112-5","latitude":34.82151412963867,"longitude":137.80181884765625,"category":"金融機関","big_category":"企業施設","description":"","image_url":"","tags":"Ver3.40(2020年5月)の追加建築","prefecture":"静岡","contractor":"","structural_designer":"","landscape_designer":"","shinkenchiku_url":""},{"id":9442,"title":"ウンノハウス新社屋","architect":"彦根建築設計事務所","year":2019.0,"address":"山形県山形市大野目4-1-37","latitude":38.278297424316406,"longitude":140.35980224609375,"category":"低層オフィス","big_category":"企業施設","description":"","image_url":"","tags":"Ver3.40(2020年5月)の追加建築","prefecture":"山形","contractor":"","structural_designer":"","landscape_designer":"","shinkenchiku_url":""},{"id":9443,"title":"京都文教大学 恵光館","architect":"設計組織DNA","year":1997.0,"address":"京都府宇治市槇島町千足80","latitude":34.91400909423828,"longitude":135.78504943847656,"category":"大学","big_category":"教育","description":"","image_url":"","tags":"Ver3.40(2020年5月)の追加建築","prefecture":"京都","contractor":"","structural_designer":"","landscape_designer":"","shinkenchiku_url":""},{"id":9444,"title":"Y's bld","architect":"設計組織DNA","year":2012.0,"address":"京都府京都市山科区椥辻草海道町40-5","latitude":34.97178268432617,"longitude":135.81480407714844,"category":"テナントビル","big_category":"商業施設","description":"","image_url":"","tags":"Ver3.40(2020年5月)の追加建築","prefecture":"京都","contractor":"","structural_designer":"","landscape_designer":"","shinkenchiku_url":""},{"id":9445,"title":"城陽市消防署 青谷消防分署","architect":"設計組織DNA","year":2013.0,"address":"京都府城陽市中樋ノ上45-1","latitude":34.829837799072266,"longitude":135.8011474609375,"category":"警察・消防署","big_category":"公共施設","description":"","image_url":"","tags":"Ver3.40(2020年5月)の追加建築","prefecture":"京都","contractor":"","structural_designer":"","landscape_designer":"","shinkenchiku_url":""},{"id":9446,"title":"京都大学 花山天文台","architect":"大倉三郎","year":1929.0,"address":"京都府京都市山科区北花山大峰町17","latitude":34.99386215209961,"longitude":135.7933349609375,"category":"展望台/公共施設","big_category":"レジャー施設,公共施設","description":"土日有料公開","image_url":"","tags":"Ver3.40(2020年5月)の追加建築","prefecture":"京都","contractor":"","structural_designer":"","landscape_designer":"","shinkenchiku_url":""},{"id":9447,"title":"グランドセイコースタジオ雫石","architect":"隈研吾+大建設計","year":2020.0,"address":"岩手県岩手郡雫石町板橋61-1","latitude":39.702579498291016,"longitude":141.02407836914062,"category":"博物館/工場/カフェ","big_category":"ミュージアム,企業施設,商業施設","description":"専門工房、ラウンジ、展示スペース。2020年6月オープン予定","image_url":"","tags":"Ver3.40(2020年5月)の追加建築","prefecture":"岩手","contractor":"","structural_designer":"","landscape_designer":"","shinkenchiku_url":""},{"id":9448,"title":"UNIQLO TOKYO","architect":"ヘルツォーク&ド・ムロン+竹中工務店+乃村工藝社","year":2020.0,"address":"東京都中央区銀座3-2-1 マロニエゲート銀座2","latitude":35.673770904541016,"longitude":139.76513671875,"category":"店舗","big_category":"商業施設","description":"","image_url":"","tags":"Ver3.40(2020年5月)の追加建築,新建築2020年7月号","prefecture":"東京","contractor":"","structural_designer":"","landscape_designer":"","shinkenchiku_url":""},{"id":9449,"title":"蕪珈琲","architect":"藤村龍至","year":2019.0,"address":"神奈川県鎌倉市長谷2-15-14","latitude":35.3118782043457,"longitude":139.53533935546875,"category":"カフェ","big_category":"商業施設","description":"","image_url":"","tags":"Ver3.40(2020年5月)の追加建築","prefecture":"神奈川","contractor":"","structural_designer":"","landscape_designer":"","shinkenchiku_url":""},{"id":9450,"title":"最高裁判所長官公邸 旧馬場家牛込邸","architect":"吉田鉄郎","year":1928.0,"address":"東京都新宿区若宮町39","latitude":35.698368072509766,"longitude":139.73843383789062,"category":"和風住宅","big_category":"住宅","description":"","image_url":"","tags":"Ver3.40(2020年5月)の追加建築","prefecture":"東京","contractor":"","structural_designer":"","landscape_designer":"","shinkenchiku_url":""}]}