{"page":84,"total_pages":290,"items_per_page":50,"total_items":14467,"items":[{"id":4151,"title":"星野リゾート トマム ザ・タワー","architect":"クライン・ダイサム・アーキテクツ","year":2008.0,"address":"北海道勇払郡占冠村中トマム 星野リゾート","latitude":43.049407958984375,"longitude":142.6129608154297,"category":"ホテル","big_category":"宿泊","description":"","image_url":"","tags":"","prefecture":"北海道","contractor":"","structural_designer":"","landscape_designer":"","shinkenchiku_url":""},{"id":4152,"title":"江ノ島 湘南港ヨットハウス","architect":"西田司+西田勝彦","year":2014.0,"address":"神奈川県藤沢市江の島1-12-2","latitude":35.29912185668945,"longitude":139.48406982421875,"category":"港/観光施設","big_category":"インフラ,レジャー施設","description":"","image_url":"","tags":"2016年日本建築学会 作品選奨,東京2020オリンピック競技会場,新建築2014年10月号","prefecture":"神奈川","contractor":"谷津建設","structural_designer":"Arup","landscape_designer":"","shinkenchiku_url":"https://data.shinkenchiku.online/articles/SK_2014_10_082-0"},{"id":4153,"title":"ル・キューブ金沢","architect":"山下設計","year":2014.0,"address":"石川県金沢市袋町1-1","latitude":36.572269439697266,"longitude":136.65672302246094,"category":"テナントビル/集合住宅","big_category":"商業施設,住宅","description":"","image_url":"","tags":"","prefecture":"石川","contractor":"","structural_designer":"","landscape_designer":"","shinkenchiku_url":""},{"id":4154,"title":"幸手市庁舎","architect":"加藤渉","year":1967.0,"address":"埼玉県幸手市東4-6-8","latitude":36.07808303833008,"longitude":139.7258758544922,"category":"庁舎","big_category":"公共施設","description":"","image_url":"","tags":"","prefecture":"埼玉","contractor":"","structural_designer":"","landscape_designer":"","shinkenchiku_url":""},{"id":4155,"title":"戸畑図書館","architect":"青木茂","year":2014.0,"address":"福岡県北九州市戸畑区新池1-1-1","latitude":33.894779205322266,"longitude":130.82955932617188,"category":"図書館","big_category":"文化施設","description":"","image_url":"","tags":"新建築2014年7月号","prefecture":"福岡","contractor":"鴻池・九鉄特定建設工事共同企業体","structural_designer":"金箱構造設計事務所","landscape_designer":"","shinkenchiku_url":"https://data.shinkenchiku.online/articles/SK_2014_07_162-0"},{"id":4156,"title":"真光寺","architect":"間宮晨一千","year":2014.0,"address":"愛知県名古屋市南区東又兵ヱ町2-134","latitude":35.09547805786133,"longitude":136.91915893554688,"category":"寺院","big_category":"宗教","description":"","image_url":"","tags":"","prefecture":"愛知","contractor":"","structural_designer":"","landscape_designer":"","shinkenchiku_url":""},{"id":4157,"title":"敦賀駅交流施設 オルパーク","architect":"千葉学+ジェイアール西日本コンサルタンツ","year":2014.0,"address":"福井県敦賀市鉄輪町1-1-19","latitude":35.64512252807617,"longitude":136.07603454589844,"category":"駅/総合文化施設","big_category":"インフラ,文化施設","description":"","image_url":"","tags":"新建築2014年5月号","prefecture":"福井","contractor":"大鉄工業","structural_designer":"ジェイアール西日本コンサルタンツ","landscape_designer":"","shinkenchiku_url":"https://data.shinkenchiku.online/articles/SK_2014_05_086-0"},{"id":4158,"title":"四万十町本庁舎","architect":"松田平田設計","year":2014.0,"address":"高知県高岡郡四万十町琴平町554-23","latitude":33.21162414550781,"longitude":133.1360321044922,"category":"庁舎","big_category":"公共施設","description":"","image_url":"","tags":"新建築2014年5月号","prefecture":"高知","contractor":"入交・田邊・郷田特定建設工事共同企業体","structural_designer":"松田平田設計","landscape_designer":"","shinkenchiku_url":"https://data.shinkenchiku.online/articles/SK_2014_05_096-0"},{"id":4159,"title":"逗子市地域活動センター 小坪大谷戸会館","architect":"柳澤潤","year":2014.0,"address":"神奈川県逗子市新宿4-15-26","latitude":35.29994583129883,"longitude":139.56434631347656,"category":"公民館・交流施設","big_category":"公共施設","description":"","image_url":"","tags":"新建築2014年5月号","prefecture":"神奈川","contractor":"湘南営繕協会","structural_designer":"構造計画設計室","landscape_designer":"","shinkenchiku_url":"https://data.shinkenchiku.online/articles/SK_2014_05_128-0"},{"id":4160,"title":"道の駅 なぶら土佐佐賀","architect":"小川文象","year":2014.0,"address":"高知県幡多郡黒潮町佐賀1350","latitude":33.086708068847656,"longitude":133.10174560546875,"category":"PA・道の駅","big_category":"インフラ","description":"","image_url":"","tags":"新建築2014年5月号","prefecture":"高知","contractor":"土居建設","structural_designer":"Arup","landscape_designer":"","shinkenchiku_url":"https://data.shinkenchiku.online/articles/SK_2014_05_136-0"},{"id":4161,"title":"日清食品グループ the WAVE","architect":"古谷誠章+竹中工務店","year":2013.0,"address":"東京都八王子市戸吹町2100","latitude":35.712257385253906,"longitude":139.2878875732422,"category":"研究施設/企業施設","big_category":"教育,企業施設","description":"デザイン監修：古谷誠章","image_url":"","tags":"新建築2014年5月号","prefecture":"東京","contractor":"竹中工務店","structural_designer":"竹中工務店","landscape_designer":"","shinkenchiku_url":"https://data.shinkenchiku.online/articles/SK_2014_05_158-0"},{"id":4162,"title":"辨天宮の新祠","architect":"石黒由紀","year":2012.0,"address":"東京都練馬区区北町1-39-17","latitude":35.765968322753906,"longitude":139.6678924560547,"category":"寺院","big_category":"宗教","description":"","image_url":"","tags":"新建築2014年5月号","prefecture":"東京","contractor":"社寺建","structural_designer":"","landscape_designer":"","shinkenchiku_url":"https://data.shinkenchiku.online/articles/SK_2014_05_180-0"},{"id":4163,"title":"ロンブル ド アンジュ","architect":"小川文象","year":2012.0,"address":"広島県広島市中区本通1-25 パオビル80 4F","latitude":34.393211364746094,"longitude":132.46180725097656,"category":"レストラン","big_category":"商業施設","description":"","image_url":"","tags":"","prefecture":"広島","contractor":"","structural_designer":"","landscape_designer":"","shinkenchiku_url":""},{"id":4164,"title":"沖縄美ら海水族館","architect":"国建","year":2002.0,"address":"沖縄県国頭郡本部町石川424","latitude":26.69415855407715,"longitude":127.8779296875,"category":"水族館","big_category":"レジャー施設","description":"","image_url":"","tags":"2006年公共建築賞・特別賞","prefecture":"沖縄","contractor":"","structural_designer":"","landscape_designer":"","shinkenchiku_url":""},{"id":4165,"title":"おきなわ郷土村","architect":"国建","year":1980.0,"address":"沖縄県国頭郡本部町石川424","latitude":26.690601348876953,"longitude":127.876953125,"category":"博物館/動植物園","big_category":"ミュージアム,レジャー施設","description":"","image_url":"","tags":"","prefecture":"沖縄","contractor":"","structural_designer":"","landscape_designer":"","shinkenchiku_url":""},{"id":4166,"title":"瀬底土帝君","architect":"不明","year":1851.0,"address":"沖縄県国頭郡本部町字瀬底南瀬底原56","latitude":26.64373016357422,"longitude":127.86482238769531,"category":"遺跡/宗教施設","big_category":"近代建築/遺産,宗教","description":"","image_url":"","tags":"","prefecture":"沖縄","contractor":"","structural_designer":"","landscape_designer":"","shinkenchiku_url":""},{"id":4167,"title":"那覇市民体育館","architect":"国建","year":1986.0,"address":"沖縄県那覇市識名（字）-1227","latitude":26.201740264892578,"longitude":127.71498107910156,"category":"体育館","big_category":"レジャー施設","description":"","image_url":"","tags":"","prefecture":"沖縄","contractor":"","structural_designer":"","landscape_designer":"","shinkenchiku_url":""},{"id":4168,"title":"斎場御嶽","architect":"不明","year":null,"address":"沖縄県南城市知念久手堅271 ‎","latitude":26.172143936157227,"longitude":127.82625579833984,"category":"遺跡/宗教施設","big_category":"近代建築/遺産,宗教","description":"","image_url":"","tags":"","prefecture":"沖縄","contractor":"","structural_designer":"","landscape_designer":"","shinkenchiku_url":""},{"id":4169,"title":"仲村渠樋川","architect":"不明","year":null,"address":"沖縄県南城市玉城仲村渠724","latitude":26.145469665527344,"longitude":127.791748046875,"category":"遺跡","big_category":"近代建築/遺産","description":"","image_url":"","tags":"重要文化財","prefecture":"沖縄","contractor":"","structural_designer":"","landscape_designer":"","shinkenchiku_url":""},{"id":4170,"title":"ハマユウ荘 うふあがり島","architect":"末吉栄三","year":1996.0,"address":"沖縄県島尻郡北大東村中野152-9","latitude":25.948514938354492,"longitude":131.29554748535156,"category":"ホテル","big_category":"宿泊","description":"","image_url":"","tags":"","prefecture":"沖縄","contractor":"","structural_designer":"","landscape_designer":"","shinkenchiku_url":""},{"id":4171,"title":"糸満市庁舎","architect":"日本設計","year":2002.0,"address":"沖縄県糸満市潮崎町1-1","latitude":26.123401641845703,"longitude":127.66523742675781,"category":"庁舎","big_category":"公共施設","description":"","image_url":"","tags":"2006年公共建築賞・特別賞","prefecture":"沖縄","contractor":"","structural_designer":"","landscape_designer":"","shinkenchiku_url":""},{"id":4172,"title":"海中公園センター 黒島研究所 旧八重山研究施設","architect":"清家清","year":1975.0,"address":"沖縄県八重山郡竹富町字黒島136","latitude":24.239059448242188,"longitude":123.99317932128906,"category":"研究施設/博物館","big_category":"教育,ミュージアム","description":"","image_url":"","tags":"","prefecture":"沖縄","contractor":"","structural_designer":"","landscape_designer":"","shinkenchiku_url":""},{"id":4173,"title":"箱根 湯の花プリンスホテル","architect":"池原義郎","year":1988.0,"address":"神奈川県足柄下郡芦之湯箱根町芦之湯93","latitude":35.225589752197266,"longitude":139.0381317138672,"category":"旅館","big_category":"宿泊","description":"","image_url":"","tags":"","prefecture":"神奈川","contractor":"","structural_designer":"","landscape_designer":"","shinkenchiku_url":""},{"id":4174,"title":"ヴィラヴィスタ箱根","architect":"黒川雅之","year":1987.0,"address":"神奈川県足柄下郡箱根町宮城野1355-8","latitude":35.25334548950195,"longitude":139.0568389892578,"category":"研修施設","big_category":"教育","description":"企業の保養所","image_url":"","tags":"","prefecture":"神奈川","contractor":"","structural_designer":"","landscape_designer":"","shinkenchiku_url":""},{"id":4175,"title":"ホテルジャパン箱根","architect":"吉村順三","year":1981.0,"address":"神奈川県足柄下郡箱根町元箱根159","latitude":35.238590240478516,"longitude":139.0027313232422,"category":"ホテル","big_category":"宿泊","description":"会員制ホテル","image_url":"","tags":"","prefecture":"神奈川","contractor":"","structural_designer":"","landscape_designer":"","shinkenchiku_url":""},{"id":4176,"title":"箱根茶寮 椿山荘 旧藤田平太別館","architect":"今井平七","year":1918.0,"address":"神奈川県足柄下郡箱根町二ノ平1297","latitude":35.24166488647461,"longitude":139.04327392578125,"category":"料亭/和風住宅","big_category":"商業施設,住宅","description":"","image_url":"","tags":"","prefecture":"神奈川","contractor":"","structural_designer":"","landscape_designer":"","shinkenchiku_url":""},{"id":4177,"title":"強羅花壇 別館 旧閑院宮載仁親王別荘","architect":"柳井平八","year":1930.0,"address":"神奈川県足柄下郡箱根町強羅1300","latitude":35.247344970703125,"longitude":139.04481506347656,"category":"料亭/洋館","big_category":"商業施設,近代建築/遺産","description":"","image_url":"","tags":"","prefecture":"神奈川","contractor":"","structural_designer":"","landscape_designer":"","shinkenchiku_url":""},{"id":4178,"title":"富士屋ホテル別館 旧御用邸菊華荘","architect":"不明","year":1895.0,"address":"神奈川県足柄下郡箱根町宮ノ下359","latitude":35.24456787109375,"longitude":139.05911254882812,"category":"旅館","big_category":"宿泊","description":"","image_url":"","tags":"","prefecture":"神奈川","contractor":"","structural_designer":"","landscape_designer":"","shinkenchiku_url":""},{"id":4179,"title":"港区立箱根大平台港荘","architect":"北川原温","year":1998.0,"address":"神奈川県足柄下郡箱根町大平台294","latitude":35.23805236816406,"longitude":139.07127380371094,"category":"ホテル","big_category":"宿泊","description":"港区民専用の保養施設","image_url":"","tags":"","prefecture":"神奈川","contractor":"","structural_designer":"","landscape_designer":"","shinkenchiku_url":""},{"id":4180,"title":"萬翠楼福住","architect":"豊田為次郎","year":1877.0,"address":"神奈川県足柄下郡 箱根町湯本643","latitude":35.23133850097656,"longitude":139.09971618652344,"category":"旅館","big_category":"宿泊","description":"","image_url":"","tags":"","prefecture":"神奈川","contractor":"","structural_designer":"","landscape_designer":"","shinkenchiku_url":""},{"id":4181,"title":"草津トリヴィラ","architect":"竹中工務店","year":1992.0,"address":"群馬県吾妻郡草津町草津553","latitude":36.62763977050781,"longitude":138.60020446777344,"category":"ホテル","big_category":"宿泊","description":"2020年2月末で閉館の予定","image_url":"","tags":"2019年JIA25年賞 登録作品","prefecture":"群馬","contractor":"","structural_designer":"","landscape_designer":"","shinkenchiku_url":""},{"id":4182,"title":"ラ・リューシュ","architect":"ギュスターヴ・エッフェル","year":1900.0,"address":"山梨県北杜市長坂町中丸2072","latitude":35.82231140136719,"longitude":138.35305786132812,"category":"オブジェ","big_category":"ミュージアム","description":"清春芸術村内","image_url":"","tags":"","prefecture":"山梨","contractor":"","structural_designer":"","landscape_designer":"","shinkenchiku_url":""},{"id":4183,"title":"千葉ポートパーク野外劇場","architect":"黒川雅之","year":1995.0,"address":"千葉県千葉市中央区中央港1-10-1","latitude":35.59788513183594,"longitude":140.09774780273438,"category":"公園/ホール・劇場","big_category":"レジャー施設,文化施設","description":"","image_url":"","tags":"","prefecture":"千葉","contractor":"","structural_designer":"","landscape_designer":"","shinkenchiku_url":""},{"id":4184,"title":"千葉ポートタワー","architect":"日建設計","year":1986.0,"address":"千葉県千葉市中央区中央港1-10-1","latitude":35.600406646728516,"longitude":140.09779357910156,"category":"展望台/レストラン","big_category":"レジャー施設,商業施設","description":"","image_url":"","tags":"","prefecture":"千葉","contractor":"","structural_designer":"","landscape_designer":"","shinkenchiku_url":""},{"id":4185,"title":"千葉南袖展望台","architect":"黒川雅之","year":1995.0,"address":"千葉県袖ヶ浦市南袖36","latitude":35.45566940307617,"longitude":139.95346069335938,"category":"公園/展望台","big_category":"レジャー施設,レジャー施設","description":"","image_url":"","tags":"","prefecture":"千葉","contractor":"","structural_designer":"","landscape_designer":"","shinkenchiku_url":""},{"id":4186,"title":"健康の里来待診療所・健康センター","architect":"黒川雅之","year":1997.0,"address":"島根県松江市宍道町上来待213-1","latitude":35.402931213378906,"longitude":132.96078491210938,"category":"福祉センター","big_category":"医療施設","description":"","image_url":"","tags":"","prefecture":"島根","contractor":"","structural_designer":"","landscape_designer":"","shinkenchiku_url":""},{"id":4187,"title":"花陰","architect":"黒川雅之","year":2006.0,"address":"山口県山口市下小鯖3530-1","latitude":34.111610412597656,"longitude":131.5352783203125,"category":"カフェ","big_category":"商業施設","description":"レストランは閉店も隣接した動物病院は営業中？","image_url":"","tags":"","prefecture":"山口","contractor":"","structural_designer":"","landscape_designer":"","shinkenchiku_url":""},{"id":4188,"title":"札幌キタホテル","architect":"黒川雅之","year":1991.0,"address":"北海道札幌市中央区南14条西1-1-20","latitude":43.042503356933594,"longitude":141.35696411132812,"category":"ホテル","big_category":"宿泊","description":"","image_url":"","tags":"","prefecture":"北海道","contractor":"","structural_designer":"","landscape_designer":"","shinkenchiku_url":""},{"id":4189,"title":"風と光の塔","architect":"黒川雅之","year":1999.0,"address":"富山県富山市奥田新町7-41","latitude":36.7061653137207,"longitude":137.2164764404297,"category":"オブジェ","big_category":"ミュージアム","description":"","image_url":"","tags":"","prefecture":"富山","contractor":"","structural_designer":"","landscape_designer":"","shinkenchiku_url":""},{"id":4190,"title":"はじまりの美術館","architect":"竹原義二","year":2014.0,"address":"福島県耶麻郡猪苗代町新町4873","latitude":37.56343460083008,"longitude":140.10902404785156,"category":"美術館","big_category":"ミュージアム","description":"2014年6月オープン予定","image_url":"","tags":"2017年日本建築学会 作品選奨,新建築2014年9月号","prefecture":"福島","contractor":"快適古民家再生協会共同企業体","structural_designer":"下山建築設計室","landscape_designer":"","shinkenchiku_url":"https://data.shinkenchiku.online/articles/SK_2014_09_068-0"},{"id":4191,"title":"しぜんの国保育園 small village","architect":"ナフ・アーキテクト&デザイン","year":2014.0,"address":"東京都町田市忠生2-5-3","latitude":35.5780029296875,"longitude":139.4248046875,"category":"幼稚園","big_category":"教育","description":"","image_url":"","tags":"新建築2015年4月号","prefecture":"東京","contractor":"","structural_designer":"","landscape_designer":"","shinkenchiku_url":""},{"id":4192,"title":"住田屋焼山店","architect":"ナフ・アーキテクト&デザイン","year":2008.0,"address":"広島県呉市焼山中央3-13-33","latitude":34.296104431152344,"longitude":132.56202697753906,"category":"店舗","big_category":"商業施設","description":"","image_url":"","tags":"","prefecture":"広島","contractor":"","structural_designer":"","landscape_designer":"","shinkenchiku_url":""},{"id":4193,"title":"ビストロ&バー と屋","architect":"ナフ・アーキテクト&デザイン","year":1998.0,"address":"広島県東広島市西条栄町6-25","latitude":34.42851638793945,"longitude":132.7419891357422,"category":"レストラン","big_category":"商業施設","description":"","image_url":"","tags":"","prefecture":"広島","contractor":"","structural_designer":"","landscape_designer":"","shinkenchiku_url":""},{"id":4194,"title":"引地歯科医院","architect":"ナフ・アーキテクト&デザイン","year":2008.0,"address":"広島県広島市西区草津新町2-15-19","latitude":34.3746337890625,"longitude":132.3944549560547,"category":"個人医院","big_category":"医療施設","description":"","image_url":"","tags":"","prefecture":"広島","contractor":"","structural_designer":"","landscape_designer":"","shinkenchiku_url":""},{"id":4195,"title":"高美が丘歯科医院","architect":"ナフ・アーキテクト&デザイン","year":2007.0,"address":"広島県東広島市高屋高美が丘5-1-19","latitude":34.46095657348633,"longitude":132.79150390625,"category":"個人医院","big_category":"医療施設","description":"","image_url":"","tags":"","prefecture":"広島","contractor":"","structural_designer":"","landscape_designer":"","shinkenchiku_url":""},{"id":4196,"title":"町田自然幼稚園","architect":"ナフ・アーキテクト&デザイン","year":2003.0,"address":"東京都町田市忠生2-7-5","latitude":35.57916259765625,"longitude":139.42579650878906,"category":"幼稚園","big_category":"教育","description":"2003年にE棟、2005年にI棟、2006年にK棟、2007年にL棟、2008年にM棟、2017年にQ棟2018年にR棟がそれぞれ敷地内に竣工している","image_url":"","tags":"","prefecture":"東京","contractor":"","structural_designer":"","landscape_designer":"","shinkenchiku_url":""},{"id":4197,"title":"MUSEUM","architect":"五十嵐淳","year":2014.0,"address":"北海道札幌市中央区南3条東2-6-2","latitude":43.058433532714844,"longitude":141.3592529296875,"category":"美術館","big_category":"ミュージアム","description":"","image_url":"","tags":"","prefecture":"北海道","contractor":"","structural_designer":"","landscape_designer":"","shinkenchiku_url":""},{"id":4198,"title":"東京大学 ダイワユビキタス学術研究館","architect":"隈研吾","year":2014.0,"address":"東京都文京区本郷7-3-1","latitude":35.708091735839844,"longitude":139.76268005371094,"category":"大学/ホール・劇場","big_category":"教育,文化施設","description":"","image_url":"","tags":"","prefecture":"東京","contractor":"大和ハウス工業","structural_designer":"隈研吾+大和ハウス工業+関東構造一級建築士事務所","landscape_designer":"","shinkenchiku_url":"https://data.shinkenchiku.online/articles/SK_2014_07_154-0"},{"id":4199,"title":"成安造形大学 キャンパスが美術館","architect":"不明","year":2010.0,"address":"滋賀県大津市仰木の里東4-3-1","latitude":35.10908889770508,"longitude":135.90231323242188,"category":"美術館","big_category":"ミュージアム","description":"","image_url":"","tags":"","prefecture":"滋賀","contractor":"","structural_designer":"","landscape_designer":"","shinkenchiku_url":""},{"id":4200,"title":"ランゴリーノ","architect":"GENETO建築設計","year":2013.0,"address":"群馬県館林市花山町27-3","latitude":36.23802185058594,"longitude":139.554443359375,"category":"レストラン","big_category":"商業施設","description":"","image_url":"","tags":"","prefecture":"群馬","contractor":"","structural_designer":"","landscape_designer":"","shinkenchiku_url":""}]}