{"page":9,"total_pages":290,"items_per_page":50,"total_items":14467,"items":[{"id":401,"title":"川/フィルター 乙字亭","architect":"隈研吾","year":1997.0,"address":"福島県石川郡玉川村竜崎滝山12-26","latitude":37.246829986572266,"longitude":140.3898162841797,"category":"レストラン","big_category":"商業施設","description":"店は閉店した模様。玉川村が取得し、観光拠点として2024年までに改修・リニューアルオープンを目指している","image_url":"","tags":"","prefecture":"福島","contractor":"","structural_designer":"","landscape_designer":"","shinkenchiku_url":""},{"id":402,"title":"光の学校 福島県立郡山養護学校","architect":"渡部和生","year":1999.0,"address":"福島県郡山市富田町上ノ台1","latitude":37.43010330200195,"longitude":140.34530639648438,"category":"専門学校","big_category":"教育","description":"","image_url":"","tags":"2004年日本建築学会 作品賞,2006年公共建築賞,2004年日本建築学会 作品選奨","prefecture":"福島","contractor":"","structural_designer":"","landscape_designer":"","shinkenchiku_url":""},{"id":403,"title":"光の学校2 太田看護専門学校","architect":"渡部和生","year":2002.0,"address":"福島県郡山市緑町26-14","latitude":37.4052734375,"longitude":140.36549377441406,"category":"専門学校","big_category":"教育","description":"","image_url":"","tags":"","prefecture":"福島","contractor":"","structural_designer":"","landscape_designer":"","shinkenchiku_url":""},{"id":404,"title":"安積歴史博物館","architect":"不明","year":null,"address":"福島県郡山市開成5-25-63","latitude":37.39169692993164,"longitude":140.3505401611328,"category":"博物館","big_category":"ミュージアム","description":"震災復旧中","image_url":"","tags":"","prefecture":"福島","contractor":"","structural_designer":"","landscape_designer":"","shinkenchiku_url":""},{"id":405,"title":"郷さくら美術館（郡山）","architect":"不明","year":null,"address":"福島県郡山市長者1-6-16","latitude":37.39909744262695,"longitude":140.36647033691406,"category":"美術館","big_category":"ミュージアム","description":"","image_url":"","tags":"","prefecture":"福島","contractor":"","structural_designer":"","landscape_designer":"","shinkenchiku_url":""},{"id":406,"title":"ビッグパレットふくしま","architect":"北川原温","year":1998.0,"address":"福島県郡山市南2-52","latitude":37.369441986083984,"longitude":140.3739471435547,"category":"展示・会議場","big_category":"公共施設","description":"","image_url":"https://farm6.staticflickr.com/5442/8899909639_6d6a962159_h.jpg","tags":"2000年日本建築学会 作品賞","prefecture":"福島","contractor":"","structural_designer":"","landscape_designer":"","shinkenchiku_url":""},{"id":407,"title":"郡山市立美術館","architect":"柳澤孝彦","year":1992.0,"address":"福島県郡山市安原町字大谷地130-2","latitude":37.39268112182617,"longitude":140.4198760986328,"category":"美術館","big_category":"ミュージアム","description":"","image_url":"https://farm8.staticflickr.com/7421/8932712754_b5eb75fca4_h.jpg","tags":"公共建築百選","prefecture":"福島","contractor":"","structural_designer":"","landscape_designer":"","shinkenchiku_url":""},{"id":408,"title":"三春交流館まほら","architect":"大高正人","year":2003.0,"address":"福島県田村郡三春町字大町191","latitude":37.44218826293945,"longitude":140.4912567138672,"category":"ホール・劇場","big_category":"文化施設","description":"","image_url":"","tags":"","prefecture":"福島","contractor":"","structural_designer":"","landscape_designer":"","shinkenchiku_url":""},{"id":409,"title":"三春町保健センター","architect":"武澤秀一","year":1998.0,"address":"福島県田村郡三春町南町26-1","latitude":37.440513610839844,"longitude":140.4947967529297,"category":"福祉センター","big_category":"医療施設","description":"","image_url":"","tags":"","prefecture":"福島","contractor":"","structural_designer":"","landscape_designer":"","shinkenchiku_url":""},{"id":410,"title":"久米正雄記念館 文学資料館","architect":"不明","year":null,"address":"福島県郡山市総合体育館南側","latitude":37.395965576171875,"longitude":140.36312866210938,"category":"洋館","big_category":"近代建築/遺産","description":"鎌倉から移築･復元","image_url":"","tags":"","prefecture":"福島","contractor":"","structural_designer":"","landscape_designer":"","shinkenchiku_url":""},{"id":411,"title":"金透記念館 旧郡山尋常小学校","architect":"不明","year":1876.0,"address":"福島県郡山市堂前町5-21","latitude":37.396366119384766,"longitude":140.38111877441406,"category":"洋館","big_category":"近代建築/遺産","description":"学校に問合せ","image_url":"","tags":"","prefecture":"福島","contractor":"","structural_designer":"","landscape_designer":"","shinkenchiku_url":""},{"id":412,"title":"郡山市開成館","architect":"不明","year":null,"address":"福島県郡山市開成3-3-7","latitude":37.395748138427734,"longitude":140.3525848388672,"category":"洋館","big_category":"近代建築/遺産","description":"県指定重要文化財","image_url":"","tags":"重要文化財","prefecture":"福島","contractor":"","structural_designer":"","landscape_designer":"","shinkenchiku_url":""},{"id":413,"title":"くるめがすりの家 旧小塩完次邸","architect":"遠藤新","year":1931.0,"address":"福島県相馬郡新地町福田字中里","latitude":37.88927459716797,"longitude":140.89251708984375,"category":"住宅","big_category":"住宅","description":"震災のため内部見学中止中","image_url":"","tags":"","prefecture":"福島","contractor":"","structural_designer":"","landscape_designer":"","shinkenchiku_url":""},{"id":414,"title":"CCGA現代グラフィックアートセンター","architect":"ランドスケープインターナショナル","year":1994.0,"address":"福島県須賀川市塩田字宮田1","latitude":37.30095672607422,"longitude":140.44833374023438,"category":"美術館","big_category":"ミュージアム","description":"冬期（12～2月）休館","image_url":"","tags":"","prefecture":"福島","contractor":"","structural_designer":"","landscape_designer":"","shinkenchiku_url":""},{"id":415,"title":"SUS福島工場社員寮","architect":"伊東豊雄","year":2005.0,"address":"福島県須賀川市虹の台2-15","latitude":37.24943923950195,"longitude":140.462646484375,"category":"寮","big_category":"住宅","description":"見学は要問い合わせ","image_url":"","tags":"新建築2005年11月号","prefecture":"福島","contractor":"","structural_designer":"","landscape_designer":"","shinkenchiku_url":""},{"id":416,"title":"ムシテックワールド","architect":"久米設計","year":2001.0,"address":"福島県須賀川市虹の台100","latitude":37.25090408325195,"longitude":140.46237182617188,"category":"博物館","big_category":"ミュージアム","description":"","image_url":"","tags":"","prefecture":"福島","contractor":"","structural_designer":"","landscape_designer":"","shinkenchiku_url":""},{"id":417,"title":"泉崎資料館","architect":"湯澤正信","year":1993.0,"address":"福島県西白河郡泉崎村泉崎舘24-9","latitude":37.15848922729492,"longitude":140.29872131347656,"category":"博物館","big_category":"ミュージアム","description":"","image_url":"","tags":"","prefecture":"福島","contractor":"","structural_designer":"","landscape_designer":"","shinkenchiku_url":""},{"id":418,"title":"フォレストパークあだたら","architect":"トム・ヘネガン+安藤和浩","year":1998.0,"address":"福島県安達郡大玉村玉井字長久保68","latitude":37.58092498779297,"longitude":140.32872009277344,"category":"体験施設","big_category":"レジャー施設","description":"","image_url":"","tags":"2002年公共建築賞","prefecture":"福島","contractor":"","structural_designer":"","landscape_designer":"","shinkenchiku_url":""},{"id":419,"title":"棚倉町文化センター","architect":"古市徹雄","year":1995.0,"address":"福島県東白川郡棚倉町関口一本松58","latitude":37.03639221191406,"longitude":140.39895629882812,"category":"総合文化施設","big_category":"文化施設","description":"","image_url":"","tags":"","prefecture":"福島","contractor":"","structural_designer":"","landscape_designer":"","shinkenchiku_url":""},{"id":420,"title":"猪苗代町体験交流館「学びいな」","architect":"青島裕之","year":2009.0,"address":"福島県耶麻郡猪苗代町鶴田141-1","latitude":37.562469482421875,"longitude":140.1005401611328,"category":"総合文化施設","big_category":"文化施設","description":"","image_url":"","tags":"","prefecture":"福島","contractor":"","structural_designer":"","landscape_designer":"","shinkenchiku_url":""},{"id":421,"title":"天鏡閣 旧有栖川宮・高松宮翁島別邸","architect":"不明","year":1908.0,"address":"福島県耶麻郡猪苗代町大字翁沢字御殿山1048-14","latitude":37.52134323120117,"longitude":140.04347229003906,"category":"洋館","big_category":"近代建築/遺産","description":"","image_url":"","tags":"重要文化財","prefecture":"福島","contractor":"","structural_designer":"","landscape_designer":"","shinkenchiku_url":""},{"id":422,"title":"奥会津歴史民俗資料館","architect":"不明","year":1985.0,"address":"福島県南会津郡南会津町糸沢西沢山3692-20","latitude":37.14610290527344,"longitude":139.72012329101562,"category":"洋館","big_category":"近代建築/遺産","description":"","image_url":"","tags":"","prefecture":"福島","contractor":"","structural_designer":"","landscape_designer":"","shinkenchiku_url":""},{"id":423,"title":"南相馬市立中央図書館","architect":"寺田大塚小林計画同人","year":2009.0,"address":"福島県南相馬市原町区旭町2-7-1","latitude":37.63835144042969,"longitude":140.9699249267578,"category":"図書館","big_category":"文化施設","description":"","image_url":"","tags":"","prefecture":"福島","contractor":"","structural_designer":"","landscape_designer":"","shinkenchiku_url":""},{"id":424,"title":"福島県男女共生センター","architect":"槇文彦","year":2000.0,"address":"福島県二本松市郭内1-196-1","latitude":37.59626007080078,"longitude":140.43487548828125,"category":"公共施設","big_category":"公共施設","description":"","image_url":"","tags":"","prefecture":"福島","contractor":"","structural_designer":"","landscape_designer":"","shinkenchiku_url":""},{"id":425,"title":"光の風景 東村保健福祉センター","architect":"渡部和生","year":2000.0,"address":"福島県白河市東上野出島字干草場153-3","latitude":37.10592269897461,"longitude":140.36373901367188,"category":"福祉センター","big_category":"医療施設","description":"","image_url":"","tags":"","prefecture":"福島","contractor":"","structural_designer":"","landscape_designer":"","shinkenchiku_url":""},{"id":426,"title":"白河市南湖公園内明治記念館","architect":"不明","year":1883.0,"address":"福島県白河市五郎窪40","latitude":37.11117172241211,"longitude":140.21896362304688,"category":"洋館","big_category":"近代建築/遺産","description":"","image_url":"","tags":"","prefecture":"福島","contractor":"","structural_designer":"","landscape_designer":"","shinkenchiku_url":""},{"id":427,"title":"福島県文化財センター白河館　「まほろん」","architect":"佐藤総合計画","year":2000.0,"address":"福島県白河市白坂一里段86","latitude":37.099037170410156,"longitude":140.2051544189453,"category":"博物館","big_category":"ミュージアム","description":"","image_url":"","tags":"","prefecture":"福島","contractor":"","structural_designer":"","landscape_designer":"","shinkenchiku_url":""},{"id":428,"title":"白河市立図書館","architect":"高橋靗一","year":2011.0,"address":"福島県白河市道場小路96-5","latitude":37.129920959472656,"longitude":140.21141052246094,"category":"図書館","big_category":"文化施設","description":"","image_url":"https://lh3.googleusercontent.com/-uzSjmw9ktGc/UCihIam7OpI/AAAAAAAAROc/BFzAm0TyMmA/s1024/lr-7034830.jpg","tags":"","prefecture":"福島","contractor":"","structural_designer":"","landscape_designer":"","shinkenchiku_url":""},{"id":429,"title":"古関裕而記念館","architect":"岡田新一","year":1988.0,"address":"福島県福島市入江町1-1","latitude":37.76970672607422,"longitude":140.4785919189453,"category":"博物館","big_category":"ミュージアム","description":"","image_url":"","tags":"","prefecture":"福島","contractor":"","structural_designer":"","landscape_designer":"","shinkenchiku_url":""},{"id":430,"title":"福島県教育会館","architect":"大高正人+前川國男","year":1956.0,"address":"福島県福島市上浜町10-38","latitude":37.75326919555664,"longitude":140.47561645507812,"category":"ホール・劇場/組合施設","big_category":"文化施設,公共施設","description":"ミド同人","image_url":"","tags":"DOCOMOMO","prefecture":"福島","contractor":"","structural_designer":"","landscape_designer":"","shinkenchiku_url":""},{"id":431,"title":"福島市音楽堂","architect":"岡田新一","year":1984.0,"address":"福島県福島市入江町1-1","latitude":37.76969528198242,"longitude":140.4785919189453,"category":"ホール・劇場","big_category":"文化施設","description":"","image_url":"","tags":"","prefecture":"福島","contractor":"","structural_designer":"","landscape_designer":"","shinkenchiku_url":""},{"id":432,"title":"日本基督教団 福島新町教会","architect":"ウィリアム・メレル・ヴォーリズ","year":1927.0,"address":"福島県福島市新町8-6","latitude":37.75655746459961,"longitude":140.4684295654297,"category":"教会","big_category":"宗教","description":"","image_url":"","tags":"","prefecture":"福島","contractor":"","structural_designer":"","landscape_designer":"","shinkenchiku_url":""},{"id":433,"title":"長楽寺禅堂","architect":"竹中工務店","year":2010.0,"address":"福島県福島市舟場町3-10","latitude":37.75313186645508,"longitude":140.47366333007812,"category":"寺院","big_category":"宗教","description":"","image_url":"","tags":"第10回芦原義信 優秀賞,2013年日本建築学会 作品選奨","prefecture":"福島","contractor":"","structural_designer":"","landscape_designer":"","shinkenchiku_url":""},{"id":434,"title":"福島県立美術館／図書館","architect":"大高正人","year":1984.0,"address":"福島県福島市森合字西養山1","latitude":37.767578125,"longitude":140.45777893066406,"category":"美術館","big_category":"ミュージアム","description":"","image_url":"https://lh3.googleusercontent.com/-HMZocyfWBtQ/UQI5VCBH7OI/AAAAAAAA0L0/rpubBgYRxOs/s1024/lr-1185347.jpg","tags":"公共建築百選","prefecture":"福島","contractor":"","structural_designer":"","landscape_designer":"","shinkenchiku_url":""},{"id":435,"title":"北塩原村役場","architect":"谷口吉生+高宮眞介","year":1979.0,"address":"福島県耶麻郡北塩原村北山姥ヶ作3151","latitude":37.65566635131836,"longitude":139.9373016357422,"category":"庁舎","big_category":"公共施設","description":"","image_url":"","tags":"","prefecture":"福島","contractor":"","structural_designer":"","landscape_designer":"","shinkenchiku_url":""},{"id":436,"title":"諸橋近代美術館","architect":"清水公夫","year":1998.0,"address":"福島県耶麻郡北塩原村桧原剣ヶ峯1093-23","latitude":37.653812408447266,"longitude":140.09649658203125,"category":"美術館","big_category":"ミュージアム","description":"冬期閉館","image_url":"","tags":"","prefecture":"福島","contractor":"","structural_designer":"","landscape_designer":"","shinkenchiku_url":""},{"id":437,"title":"栃木県立美術館","architect":"川崎清","year":1969.0,"address":"栃木県宇都宮市桜4-2-7","latitude":36.56744384765625,"longitude":139.86605834960938,"category":"美術館","big_category":"ミュージアム","description":"","image_url":"","tags":"","prefecture":"栃木","contractor":"","structural_designer":"","landscape_designer":"","shinkenchiku_url":""},{"id":438,"title":"宇都宮市冒険活動センター","architect":"久米設計","year":1996.0,"address":"栃木県宇都宮市篠井町1885-1","latitude":36.684288024902344,"longitude":139.82223510742188,"category":"公園","big_category":"レジャー施設","description":"","image_url":"","tags":"","prefecture":"栃木","contractor":"","structural_designer":"","landscape_designer":"","shinkenchiku_url":""},{"id":439,"title":"しらさぎ美術館","architect":"UA","year":2010.0,"address":"栃木県宇都宮市下田原町1758-1","latitude":36.634647369384766,"longitude":139.90414428710938,"category":"ギャラリー","big_category":"ミュージアム","description":"開館日：第3・第4日曜日。公式サイト上では閉鎖の記載はないが、閉館中の様子。要事前問い合わせ。","image_url":"","tags":"","prefecture":"栃木","contractor":"","structural_designer":"","landscape_designer":"","shinkenchiku_url":""},{"id":440,"title":"宇都宮聖ヨハネ教会","architect":"上林敬吉","year":1933.0,"address":"栃木県宇都宮市桜2-3-29","latitude":36.56604766845703,"longitude":139.87078857421875,"category":"教会","big_category":"宗教","description":"","image_url":"","tags":"","prefecture":"栃木","contractor":"","structural_designer":"","landscape_designer":"","shinkenchiku_url":""},{"id":441,"title":"栃木県立宇都宮産業展示館 マロニエプラザ","architect":"神谷五男","year":1989.0,"address":"栃木県宇都宮市元今泉6-1-37","latitude":36.56137466430664,"longitude":139.9127197265625,"category":"展示・会議場","big_category":"公共施設","description":"","image_url":"","tags":"","prefecture":"栃木","contractor":"","structural_designer":"","landscape_designer":"","shinkenchiku_url":""},{"id":442,"title":"松が峰教会","architect":"マックス・ヒンデル","year":1932.0,"address":"栃木県宇都宮市松が峰1-1-5","latitude":36.558128356933594,"longitude":139.88137817382812,"category":"教会","big_category":"宗教","description":"","image_url":"","tags":"","prefecture":"栃木","contractor":"","structural_designer":"","landscape_designer":"","shinkenchiku_url":""},{"id":443,"title":"ギャラリー絆和","architect":"不明","year":null,"address":"栃木県宇都宮市松が峰2-7-17","latitude":36.556007385253906,"longitude":139.88075256347656,"category":"和風住宅","big_category":"住宅","description":"宮崎駿の疎開先。現在はギャラリー。","image_url":"","tags":"","prefecture":"栃木","contractor":"","structural_designer":"","landscape_designer":"","shinkenchiku_url":""},{"id":444,"title":"宇都宮大学オプティクス教育研究センター","architect":"山本理顕","year":2009.0,"address":"栃木県宇都宮市陽東7-1-2","latitude":36.54859161376953,"longitude":139.93118286132812,"category":"大学","big_category":"教育","description":"","image_url":"","tags":"","prefecture":"栃木","contractor":"","structural_designer":"","landscape_designer":"","shinkenchiku_url":""},{"id":445,"title":"作新学院大学","architect":"隈研吾","year":2000.0,"address":"栃木県宇都宮市竹下町908","latitude":36.54278564453125,"longitude":139.9774627685547,"category":"大学","big_category":"教育","description":"","image_url":"","tags":"","prefecture":"栃木","contractor":"","structural_designer":"","landscape_designer":"","shinkenchiku_url":""},{"id":446,"title":"栃木県総合文化センター","architect":"前川建築設計事務所","year":1991.0,"address":"栃木県宇都宮市本町1-8","latitude":36.56399917602539,"longitude":139.88255310058594,"category":"ホール・劇場","big_category":"文化施設","description":"","image_url":"","tags":"","prefecture":"栃木","contractor":"","structural_designer":"","landscape_designer":"","shinkenchiku_url":""},{"id":447,"title":"大谷石地下採掘場跡","architect":"不明","year":null,"address":"栃木県宇都宮市大谷町909","latitude":36.599857330322266,"longitude":139.8242645263672,"category":"産業遺産","big_category":"近代建築/遺産","description":"休館中　要確認","image_url":"https://lh3.googleusercontent.com/-L8GMvYUqSWw/Uf6GWqG87NI/AAAAAAAA-o8/i1zX94BREIw/s1024/lr-6261759.jpg","tags":"","prefecture":"栃木","contractor":"","structural_designer":"","landscape_designer":"","shinkenchiku_url":""},{"id":448,"title":"宇都宮美術館","architect":"岡田新一","year":1996.0,"address":"栃木県宇都宮市長岡町1077","latitude":36.607173919677734,"longitude":139.8739776611328,"category":"美術館","big_category":"ミュージアム","description":"5/30まで休館","image_url":"https://lh3.googleusercontent.com/-yjS-rZD80_s/UIPMhRi7fwI/AAAAAAAAhKo/4IKnmJBlmaQ/s1024/lr-7299446.jpg","tags":"","prefecture":"栃木","contractor":"","structural_designer":"","landscape_designer":"","shinkenchiku_url":""},{"id":449,"title":"あぐり館","architect":"神谷五男","year":1997.0,"address":"栃木県芳賀郡益子町大沢3535","latitude":36.495033264160156,"longitude":140.11392211914062,"category":"公民館・交流施設","big_category":"公共施設","description":"","image_url":"","tags":"新建築1998年2月号","prefecture":"栃木","contractor":"","structural_designer":"","landscape_designer":"","shinkenchiku_url":""},{"id":450,"title":"陶芸メッセ 益子","architect":"不明","year":null,"address":"栃木県芳賀郡益子町益子3021","latitude":36.46540832519531,"longitude":140.10423278808594,"category":"美術館","big_category":"ミュージアム","description":"","image_url":"https://lh3.googleusercontent.com/-huNz1UFLvsU/Uf6H4o8IRbI/AAAAAAAA-xc/mghV9nh4thw/s1024/lr-6272224.jpg","tags":"","prefecture":"栃木","contractor":"","structural_designer":"","landscape_designer":"","shinkenchiku_url":""}]}