{"page":265,"total_pages":290,"items_per_page":50,"total_items":14467,"items":[{"id":13201,"title":"西予市宇和文化会館","architect":"満野久","year":1990.0,"address":"愛媛県西予市宇和町卯之町3-444","latitude":33.361572265625,"longitude":132.51173400878906,"category":"ホール・劇場","big_category":"文化施設","description":"","image_url":"","tags":"Ver5.30(2024年4月)の追加建築","prefecture":"愛媛","contractor":"","structural_designer":"","landscape_designer":"","shinkenchiku_url":""},{"id":13202,"title":"光風湯圃べにや","architect":"小堀哲夫","year":2021.0,"address":"福井県あわら市温泉4-510","latitude":36.225223541259766,"longitude":136.19277954101562,"category":"旅館","big_category":"宿泊","description":"","image_url":"","tags":"Ver5.30(2024年4月)の追加建築","prefecture":"福井","contractor":"","structural_designer":"","landscape_designer":"","shinkenchiku_url":""},{"id":13203,"title":"大和ハウスグループ みらい価値共創センター コトクリエ","architect":"小堀哲夫","year":2021.0,"address":"奈良県奈良市西九条町4-1-1","latitude":34.65414810180664,"longitude":135.8086700439453,"category":"研修施設/ホール・劇場","big_category":"教育,文化施設","description":"","image_url":"","tags":"Ver5.30(2024年4月)の追加建築","prefecture":"奈良","contractor":"","structural_designer":"","landscape_designer":"","shinkenchiku_url":""},{"id":13204,"title":"下諏訪南小学校","architect":"小堀哲夫","year":2015.0,"address":"長野県諏訪郡下諏訪町南四王5188","latitude":36.0689811706543,"longitude":138.0881805419922,"category":"学校","big_category":"教育","description":"","image_url":"","tags":"Ver5.30(2024年4月)の追加建築","prefecture":"長野","contractor":"","structural_designer":"","landscape_designer":"","shinkenchiku_url":""},{"id":13205,"title":"goodcoffee 東陽町","architect":"竹中工務店","year":2023.0,"address":"東京都江東区南砂2-5-14","latitude":35.66999053955078,"longitude":139.81979370117188,"category":"カフェ","big_category":"商業施設","description":"","image_url":"","tags":"Ver5.30(2024年4月)の追加建築","prefecture":"東京","contractor":"","structural_designer":"","landscape_designer":"","shinkenchiku_url":""},{"id":13206,"title":"三塚牧場シルクロ","architect":"勝邦義","year":2022.0,"address":"宮城県登米市迫町新田小友65-6","latitude":38.69860076904297,"longitude":141.1088409423828,"category":"カフェ","big_category":"商業施設","description":"プロジェクトデザイン：小泉瑛一","image_url":"","tags":"Ver5.30(2024年4月)の追加建築","prefecture":"宮城","contractor":"佐々耕住建","structural_designer":"SCALA DESIGN ENGINEERS","landscape_designer":"","shinkenchiku_url":""},{"id":13207,"title":"南三陸ワイナリー","architect":"勝邦義+一色ヒロタカ","year":2020.0,"address":"宮城県本吉郡南三陸町志津川旭ケ浦7-3","latitude":38.67287826538086,"longitude":141.45680236816406,"category":"醸造所","big_category":"商業施設","description":"","image_url":"","tags":"Ver5.30(2024年4月)の追加建築","prefecture":"宮城","contractor":"山本セメント+ホソダアーキスタジオ","structural_designer":"Graph Studio","landscape_designer":"","shinkenchiku_url":""},{"id":13208,"title":"シアターキネマティカ カフェCity Lights","architect":"勝邦義","year":2022.0,"address":"宮城県石巻市中央1-3-12","latitude":38.42990493774414,"longitude":141.30606079101562,"category":"カフェ/ホール・劇場","big_category":"商業施設,文化施設","description":"","image_url":"","tags":"Ver5.30(2024年4月)の追加建築","prefecture":"宮城","contractor":"","structural_designer":"","landscape_designer":"","shinkenchiku_url":""},{"id":13209,"title":"パネフリ工業本社","architect":"竹山聖","year":2024.0,"address":"京都府長岡京市一里塚2-11","latitude":34.92601776123047,"longitude":135.7002716064453,"category":"低層オフィス","big_category":"企業施設","description":"","image_url":"","tags":"Ver5.30(2024年4月)の追加建築,新建築2024年9月号","prefecture":"京都","contractor":"","structural_designer":"","landscape_designer":"","shinkenchiku_url":""},{"id":13210,"title":"ディオール 麻布台ヒルズ","architect":"隈研吾","year":2024.0,"address":"東京都港区麻布台1-2-4","latitude":35.66210174560547,"longitude":139.74183654785156,"category":"店舗","big_category":"商業施設","description":"","image_url":"","tags":"Ver5.30(2024年4月)の追加建築","prefecture":"東京","contractor":"","structural_designer":"","landscape_designer":"","shinkenchiku_url":""},{"id":13211,"title":"カルティエ 麻布台ヒルズ","architect":"永山祐子","year":2024.0,"address":"東京都港区麻布台1-2-10","latitude":35.662052154541016,"longitude":139.7421112060547,"category":"店舗","big_category":"商業施設","description":"","image_url":"","tags":"Ver5.30(2024年4月)の追加建築","prefecture":"東京","contractor":"","structural_designer":"","landscape_designer":"","shinkenchiku_url":""},{"id":13212,"title":"メイノハマ ステップス","architect":"松山将勝","year":2024.0,"address":"福岡県福岡市西区姪浜駅南1-10-20","latitude":33.582176208496094,"longitude":130.32643127441406,"category":"モール","big_category":"商業施設","description":"2024年4月19日オープン予定","image_url":"","tags":"Ver5.30(2024年4月)の追加建築","prefecture":"福岡","contractor":"","structural_designer":"","landscape_designer":"","shinkenchiku_url":""},{"id":13213,"title":"JINS イオンモール豊川店","architect":"平田晃久","year":2023.0,"address":"愛知県豊川市白鳥町兎足1-16 イオンモール豊川1F","latitude":34.82526779174805,"longitude":137.3512725830078,"category":"店舗","big_category":"商業施設","description":"内装設計","image_url":"","tags":"Ver5.30(2024年4月)の追加建築","prefecture":"愛知","contractor":"","structural_designer":"","landscape_designer":"","shinkenchiku_url":""},{"id":13214,"title":"こども本の森 熊本","architect":"安藤忠雄","year":2024.0,"address":"熊本県熊本市中央区出水2-5-1","latitude":32.78575897216797,"longitude":130.7351531982422,"category":"図書館","big_category":"文化施設","description":"2024年4月8日オープン予定。熊本県立図書館に隣接","image_url":"","tags":"Ver5.30(2024年4月)の追加建築","prefecture":"熊本","contractor":"","structural_designer":"","landscape_designer":"","shinkenchiku_url":""},{"id":13215,"title":"マンマ ランポ","architect":"中村好文","year":2023.0,"address":"兵庫県姫路市保城442-3","latitude":34.85624694824219,"longitude":134.71878051757812,"category":"カフェ/住宅","big_category":"商業施設,住宅","description":"","image_url":"","tags":"Ver5.30(2024年4月)の追加建築","prefecture":"兵庫","contractor":"","structural_designer":"","landscape_designer":"","shinkenchiku_url":""},{"id":13216,"title":"サンツモリビル","architect":"渡辺豊和","year":1980.0,"address":"和歌山県橋本市市脇1-2-39-5","latitude":34.31413269042969,"longitude":135.6023712158203,"category":"テナントビル","big_category":"商業施設","description":"","image_url":"","tags":"Ver5.30(2024年4月)の追加建築","prefecture":"和歌山","contractor":"","structural_designer":"","landscape_designer":"","shinkenchiku_url":""},{"id":13217,"title":"テラスロマネスク穂積台","architect":"渡辺豊和","year":1978.0,"address":"大阪府茨木市穂積台6-3","latitude":34.810462951660156,"longitude":135.55043029785156,"category":"住宅/都市計画","big_category":"住宅,公共施設","description":"分譲住宅30戸","image_url":"","tags":"Ver5.30(2024年4月)の追加建築","prefecture":"大阪","contractor":"","structural_designer":"","landscape_designer":"","shinkenchiku_url":""},{"id":13218,"title":"辻野ハウジング","architect":"渡辺豊和","year":1980.0,"address":"大阪府阪南市尾崎町5-24","latitude":34.365692138671875,"longitude":135.24769592285156,"category":"住宅/都市計画","big_category":"住宅,公共施設","description":"道の両脇に2棟10戸の分譲住宅","image_url":"","tags":"Ver5.30(2024年4月)の追加建築","prefecture":"大阪","contractor":"","structural_designer":"","landscape_designer":"","shinkenchiku_url":""},{"id":13219,"title":"かすたねっと 旧王子信用金庫練馬支店","architect":"黒川紀章","year":1988.0,"address":"東京都練馬区練馬2-1-9","latitude":35.741275787353516,"longitude":139.6558837890625,"category":"店舗","big_category":"商業施設","description":"2012年改修","image_url":"","tags":"Ver5.30(2024年4月)の追加建築","prefecture":"東京","contractor":"","structural_designer":"","landscape_designer":"","shinkenchiku_url":""},{"id":13220,"title":"広島港宇品地区クルーズターミナル","architect":"大和リース","year":2024.0,"address":"広島県広島市南区宇品海岸3-12","latitude":34.352664947509766,"longitude":3573211392.0,"category":"港","big_category":"インフラ","description":"","image_url":"","tags":"Ver5.30(2024年4月)の追加建築","prefecture":"広島","contractor":"","structural_designer":"","landscape_designer":"","shinkenchiku_url":""},{"id":13221,"title":"トライト","architect":"山下設計","year":2022.0,"address":"東京都港区虎ノ門2-4-7","latitude":35.66831970214844,"longitude":139.74737548828125,"category":"オフィスビル","big_category":"企業施設","description":"","image_url":"","tags":"Ver5.30(2024年4月)の追加建築","prefecture":"東京","contractor":"大林組","structural_designer":"","landscape_designer":"","shinkenchiku_url":""},{"id":13222,"title":"HANEDA INNOVATION CITY II期","architect":"鹿島建設","year":2023.0,"address":"東京都大田区羽田空港1-1-4","latitude":35.549259185791016,"longitude":139.75482177734375,"category":"ホテル/研究施設/オフィスビル","big_category":"宿泊,教育,企業施設","description":"ホテル、研究施設棟","image_url":"","tags":"Ver5.30(2024年4月)の追加建築","prefecture":"東京","contractor":"","structural_designer":"","landscape_designer":"","shinkenchiku_url":""},{"id":13223,"title":"日本生命淀屋橋ビル","architect":"日建設計+大林組","year":2022.0,"address":"大阪府大阪市中央区北浜3-5-29","latitude":34.69195556640625,"longitude":135.50230407714844,"category":"オフィスビル","big_category":"企業施設","description":"大林組大阪本店オフィスが移転・入居","image_url":"","tags":"新建築2024年3月号,Ver5.30(2024年4月)の追加建築","prefecture":"大阪","contractor":"大林組+奥村組+藤木工務店+大末建設共同事業体","structural_designer":"","landscape_designer":"","shinkenchiku_url":""},{"id":13224,"title":"Cornes House","architect":"竹中工務店","year":2023.0,"address":"東京都港区芝3-3-10","latitude":35.65287780761719,"longitude":139.74790954589844,"category":"オフィスビル/店舗","big_category":"企業施設,商業施設","description":"外車ディーラーのオフィス・ショールーム","image_url":"","tags":"新建築2024年3月号,Ver5.30(2024年4月)の追加建築,第33回AACA 優秀賞","prefecture":"東京","contractor":"竹中工務店","structural_designer":"","landscape_designer":"","shinkenchiku_url":""},{"id":13225,"title":"FUJIFILM Creative Village","architect":"東畑建築事務所","year":2023.0,"address":"東京都港区南青山6-6","latitude":35.65996170043945,"longitude":139.7183837890625,"category":"研究施設/オフィスビル","big_category":"教育,企業施設","description":"","image_url":"","tags":"新建築2024年3月号,Ver5.30(2024年4月)の追加建築","prefecture":"東京","contractor":"","structural_designer":"","landscape_designer":"","shinkenchiku_url":""},{"id":13226,"title":"HAMACHO FUTURE LAB","architect":"ワクト+神本豊秋","year":2023.0,"address":"東京都中央区日本橋浜町3-9-5","latitude":35.6837272644043,"longitude":139.7891845703125,"category":"オフィスビル/店舗/温泉","big_category":"企業施設,商業施設,宿泊","description":"1965年竣工の木造棟と1980年竣工のRC棟を連結、増築、減築","image_url":"","tags":"新建築2024年3月号,Ver5.30(2024年4月)の追加建築","prefecture":"東京","contractor":"","structural_designer":"","landscape_designer":"","shinkenchiku_url":""},{"id":13227,"title":"シェア工房アジュール","architect":"関谷昌人","year":2023.0,"address":"奈良県大和高田市中今里町5-29","latitude":34.50773620605469,"longitude":135.7506561279297,"category":"シェアオフィス/コテージ","big_category":"商業施設,宿泊","description":"","image_url":"","tags":"新建築2024年3月号,Ver5.30(2024年4月)の追加建築","prefecture":"奈良","contractor":"","structural_designer":"","landscape_designer":"","shinkenchiku_url":""},{"id":13228,"title":"蔵前JPテラス","architect":"日本郵政一級建築士事務所","year":2023.0,"address":"東京都台東区蔵前1-3-28","latitude":35.701194763183594,"longitude":139.79086303710938,"category":"複合ビル/集合住宅","big_category":"企業施設,住宅","description":"","image_url":"","tags":"新建築2024年3月号,Ver5.30(2024年4月)の追加建築","prefecture":"東京","contractor":"大成建設","structural_designer":"","landscape_designer":"","shinkenchiku_url":""},{"id":13229,"title":"風姿 黒茶屋別邸","architect":"手塚建築研究所+大野博史","year":2023.0,"address":"東京都あきる野市小中野177-1","latitude":35.72504425048828,"longitude":139.20834350585938,"category":"ホテル","big_category":"宿泊","description":"","image_url":"","tags":"新建築2024年4月号,Ver5.30(2024年4月)の追加建築","prefecture":"東京","contractor":"","structural_designer":"","landscape_designer":"","shinkenchiku_url":""},{"id":13230,"title":"弥彦村アートプロジェクト カフェ59FU","architect":"上條・福島都市設計事務所+大島彩+酒井真樹+岡田英樹","year":2022.0,"address":"新潟県西蒲原郡弥彦村弥彦3510","latitude":37.69529342651367,"longitude":138.8228759765625,"category":"カフェ","big_category":"商業施設","description":"","image_url":"","tags":"新建築2024年4月号,Ver5.30(2024年4月)の追加建築","prefecture":"新潟","contractor":"","structural_designer":"","landscape_designer":"","shinkenchiku_url":""},{"id":13231,"title":"ヒューマンハブ天寧寺倉庫","architect":"長坂常","year":2022.0,"address":"福島県会津若松市天寧寺町7-38","latitude":37.48842239379883,"longitude":139.94869995117188,"category":"シェアオフィス/店舗/カフェ","big_category":"商業施設,商業施設,商業施設","description":"","image_url":"","tags":"新建築2024年4月号,Ver5.30(2024年4月)の追加建築","prefecture":"福島","contractor":"","structural_designer":"","landscape_designer":"","shinkenchiku_url":""},{"id":13232,"title":"上池袋のメディウム HIRAKU IKEBKRO 01 \"SOCIAL DESIGN LIBRARY\"","architect":"mtthw","year":2023.0,"address":"東京都豊島区上池袋2-2-15","latitude":35.73484420776367,"longitude":139.71751403808594,"category":"シェアオフィス/図書館/公民館・交流施設","big_category":"商業施設,文化施設,公共施設","description":"","image_url":"","tags":"新建築2024年4月号,Ver5.30(2024年4月)の追加建築","prefecture":"東京","contractor":"","structural_designer":"","landscape_designer":"","shinkenchiku_url":""},{"id":13233,"title":"上伏古コミュニティセンター","architect":"小澤丈夫+安田幸一","year":2023.0,"address":"北海道河西郡芽室町上伏古9線18","latitude":42.796810150146484,"longitude":143.0074462890625,"category":"公民館・交流施設","big_category":"公共施設","description":"実施設計：アトリエブンク","image_url":"","tags":"新建築2024年4月号,Ver5.30(2024年4月)の追加建築","prefecture":"北海道","contractor":"紺野建設","structural_designer":"山脇克彦建築構造設計","landscape_designer":"","shinkenchiku_url":""},{"id":13234,"title":"箕面船場阪大前駅エントランス","architect":"前田茂樹+東畑建築事務所","year":2024.0,"address":"大阪府箕面市船場東3-1","latitude":34.8213996887207,"longitude":135.49082946777344,"category":"駅","big_category":"インフラ","description":"","image_url":"","tags":"新建築2024年4月号,Ver5.30(2024年4月)の追加建築","prefecture":"大阪","contractor":"","structural_designer":"","landscape_designer":"","shinkenchiku_url":""},{"id":13235,"title":"スペルノーヴァカワサキ","architect":"スピーク","year":2023.0,"address":"神奈川県川崎市幸区大宮町1-13","latitude":35.52925109863281,"longitude":139.69407653808594,"category":"ホール・劇場","big_category":"文化施設","description":"","image_url":"","tags":"新建築2024年4月号,Ver5.30(2024年4月)の追加建築","prefecture":"神奈川","contractor":"","structural_designer":"ビーファーム","landscape_designer":"","shinkenchiku_url":""},{"id":13236,"title":"ドコモ代々木第二ビル","architect":"NTTファシリティーズ","year":2023.0,"address":"東京都渋谷区千駄ケ谷5-26-288","latitude":35.68510818481445,"longitude":139.70269775390625,"category":"オフィスビル","big_category":"企業施設","description":"","image_url":"","tags":"新建築2024年4月号,Ver5.30(2024年4月)の追加建築","prefecture":"東京","contractor":"竹中工務店・共立建設JV","structural_designer":"","landscape_designer":"","shinkenchiku_url":""},{"id":13237,"title":"三井不動産ロジスティクスパーク船橋Ⅲ","architect":"大林組","year":2021.0,"address":"千葉県船橋市浜町2-4-7","latitude":35.680179595947266,"longitude":139.98899841308594,"category":"工場","big_category":"企業施設","description":"","image_url":"","tags":"新建築2024年4月号,Ver5.30(2024年4月)の追加建築","prefecture":"千葉","contractor":"","structural_designer":"","landscape_designer":"","shinkenchiku_url":""},{"id":13238,"title":"コレタス吉祥寺II","architect":"SALHAUS","year":2024.0,"address":"東京都武蔵野市吉祥寺本町2-4-18","latitude":35.70552062988281,"longitude":139.57839965820312,"category":"テナントビル","big_category":"商業施設","description":"","image_url":"","tags":"Ver5.30(2024年4月)の追加建築","prefecture":"東京","contractor":"青木工務店","structural_designer":"","landscape_designer":"","shinkenchiku_url":""},{"id":13239,"title":"コレタス吉祥寺","architect":"建築設計アーキフォルム","year":2021.0,"address":"東京都武蔵野市吉祥寺本町4-1-2","latitude":35.70490264892578,"longitude":139.57388305664062,"category":"テナントビル","big_category":"商業施設","description":"","image_url":"","tags":"Ver5.30(2024年4月)の追加建築","prefecture":"東京","contractor":"","structural_designer":"","landscape_designer":"","shinkenchiku_url":""},{"id":13240,"title":"東紀州こどもの園","architect":"隈研吾","year":2024.0,"address":"三重県熊野市金山町2400","latitude":33.86388397216797,"longitude":136.0572052001953,"category":"養護施設","big_category":"医療施設","description":"児童養護施設","image_url":"","tags":"Ver5.30(2024年4月)の追加建築","prefecture":"三重","contractor":"","structural_designer":"","landscape_designer":"","shinkenchiku_url":""},{"id":13241,"title":"物質試行36 gallery bauhaus","architect":"鈴木了二","year":1993.0,"address":"東京都千代田区外神田2-19-14","latitude":35.702049255371094,"longitude":139.76673889160156,"category":"ギャラリー","big_category":"ミュージアム","description":"","image_url":"","tags":"Ver5.30(2024年4月)の追加建築","prefecture":"東京","contractor":"","structural_designer":"","landscape_designer":"","shinkenchiku_url":""},{"id":13242,"title":"自由が丘のレジデンス あえん 自由が丘","architect":"鈴木エドワード","year":1989.0,"address":"東京都目黒区自由が丘2-8-20","latitude":35.61051559448242,"longitude":139.6671600341797,"category":"レストラン/住宅","big_category":"商業施設,住宅","description":"東西アスファルト事業協同組合講演会サイトにて「年内に完成する自由ヶ丘の迎賓館と店舗を兼ねた住宅」という記述より1989年竣工とした","image_url":"","tags":"Ver5.30(2024年4月)の追加建築","prefecture":"東京","contractor":"","structural_designer":"","landscape_designer":"","shinkenchiku_url":""},{"id":13243,"title":"九品仏の家 Au Praxinoscope","architect":"アーキベスタ","year":1987.0,"address":"東京都世田谷区奥沢7-13-11","latitude":35.608497619628906,"longitude":139.6627197265625,"category":"ギャラリー/住宅","big_category":"ミュージアム,住宅","description":"","image_url":"","tags":"Ver5.30(2024年4月)の追加建築","prefecture":"東京","contractor":"伊西組","structural_designer":"梅沢建築構造研究所","landscape_designer":"","shinkenchiku_url":""},{"id":13244,"title":"ソノラバーガー","architect":"佐藤研吾","year":2023.0,"address":"福島県郡山市西田町三町目関根54","latitude":37.455379486083984,"longitude":140.42799377441406,"category":"レストラン","big_category":"商業施設","description":"","image_url":"","tags":"Ver5.30(2024年4月)の追加建築","prefecture":"福島","contractor":"","structural_designer":"","landscape_designer":"","shinkenchiku_url":""},{"id":13245,"title":"三木市役所","architect":"昭和設計","year":1993.0,"address":"兵庫県三木市上の丸町10-30","latitude":34.796878814697266,"longitude":134.990234375,"category":"庁舎","big_category":"公共施設","description":"","image_url":"","tags":"Ver5.30(2024年4月)の追加建築","prefecture":"兵庫","contractor":"","structural_designer":"","landscape_designer":"","shinkenchiku_url":""},{"id":13246,"title":"ボナプール楽生苑","architect":"伊東豊雄","year":2024.0,"address":"広島県尾道市瀬戸田町瀬戸田1-1","latitude":34.30862808227539,"longitude":133.0849609375,"category":"ホテル/公民館・交流施設/シェアオフィス","big_category":"宿泊,公共施設,商業施設","description":"","image_url":"","tags":"Ver5.30(2024年4月)の追加建築","prefecture":"広島","contractor":"関西住建","structural_designer":"","landscape_designer":"","shinkenchiku_url":""},{"id":13247,"title":"矢澤酒造店","architect":"内藤廣","year":2023.0,"address":"福島県東白川郡矢祭町戸塚41","latitude":36.88774871826172,"longitude":140.42031860351562,"category":"店舗","big_category":"商業施設","description":"","image_url":"","tags":"Ver5.30(2024年4月)の追加建築","prefecture":"福島","contractor":"","structural_designer":"","landscape_designer":"","shinkenchiku_url":""},{"id":13248,"title":"SEEN","architect":"小松隼人","year":2023.0,"address":"広島県尾道市向島町立花145","latitude":34.35939025878906,"longitude":133.18783569335938,"category":"コテージ","big_category":"宿泊","description":"","image_url":"","tags":"Ver5.30(2024年4月)の追加建築","prefecture":"広島","contractor":"","structural_designer":"","landscape_designer":"","shinkenchiku_url":""},{"id":13249,"title":"Oshigome Base 豪建ホーム","architect":"小松隼人","year":2023.0,"address":"広島県呉市押込3-3-25","latitude":34.31627655029297,"longitude":132.56576538085938,"category":"低層オフィス/住宅","big_category":"企業施設,住宅","description":"","image_url":"","tags":"Ver5.30(2024年4月)の追加建築","prefecture":"広島","contractor":"豪建ホーム","structural_designer":"堀江建築設計事務所","landscape_designer":"","shinkenchiku_url":""},{"id":13250,"title":"LIFE & CULTURE MARKET L/C","architect":"小松隼人","year":2021.0,"address":"広島県東広島市西条土与丸4-3-31","latitude":34.43138885498047,"longitude":132.75547790527344,"category":"展示・会議場/店舗/低層オフィス","big_category":"公共施設,商業施設,企業施設","description":"","image_url":"","tags":"Ver5.30(2024年4月)の追加建築","prefecture":"広島","contractor":"創建ホーム","structural_designer":"堀江建築設計事務所","landscape_designer":"","shinkenchiku_url":""}]}