{"page":61,"total_pages":290,"items_per_page":50,"total_items":14467,"items":[{"id":3001,"title":"石打ダム管理所","architect":"青木茂","year":1991.0,"address":"熊本県宇城市三角町中村 石打ダム管理所","latitude":32.64439392089844,"longitude":130.5189971923828,"category":"公共施設","big_category":"公共施設","description":"くまもとアートポリス","image_url":"","tags":"くまもとアートポリス","prefecture":"熊本","contractor":"","structural_designer":"","landscape_designer":"","shinkenchiku_url":""},{"id":3002,"title":"海のピラミッド 三角港フェリーターミナル","architect":"葉祥栄","year":1990.0,"address":"熊本県宇城市三角町三角浦1160","latitude":32.606658935546875,"longitude":130.46949768066406,"category":"港","big_category":"インフラ","description":"くまもとアートポリス","image_url":"","tags":"くまもとアートポリス","prefecture":"熊本","contractor":"","structural_designer":"","landscape_designer":"","shinkenchiku_url":""},{"id":3003,"title":"不知火町立美術館・図書館 不知火文化プラザ","architect":"北川原温","year":1999.0,"address":"熊本県宇城市不知火町高良2352","latitude":32.64690399169922,"longitude":130.66909790039062,"category":"美術館","big_category":"ミュージアム","description":"くまもとアートポリス","image_url":"","tags":"くまもとアートポリス,2002年日本建築学会 作品選奨","prefecture":"熊本","contractor":"","structural_designer":"","landscape_designer":"","shinkenchiku_url":""},{"id":3004,"title":"宇土市立網津小学校","architect":"坂本一成","year":2011.0,"address":"熊本県宇土市網津町2082-3","latitude":32.69645690917969,"longitude":130.59950256347656,"category":"学校","big_category":"教育","description":"くまもとアートポリス","image_url":"","tags":"くまもとアートポリス","prefecture":"熊本","contractor":"","structural_designer":"","landscape_designer":"","shinkenchiku_url":""},{"id":3005,"title":"宇土マリーナハウス","architect":"吉松秀樹","year":1998.0,"address":"熊本県宇土市下網田町3084-1","latitude":32.6624641418457,"longitude":130.52212524414062,"category":"港","big_category":"インフラ","description":"くまもとアートポリス","image_url":"","tags":"くまもとアートポリス","prefecture":"熊本","contractor":"","structural_designer":"","landscape_designer":"","shinkenchiku_url":""},{"id":3006,"title":"宇土市立宇土小学校","architect":"シーラカンスアンドアソシエイツ","year":2011.0,"address":"熊本県宇土市高柳町104-1","latitude":32.6838493347168,"longitude":130.65292358398438,"category":"学校","big_category":"教育","description":"くまもとアートポリス。日本建築家協会賞受賞者名：小嶋一浩、赤松佳珠子、新谷眞人","image_url":"","tags":"くまもとアートポリス,2013年村野藤吾賞,2013年度日本建築家協会賞,2013年日本建築学会 作品選奨","prefecture":"熊本","contractor":"","structural_designer":"","landscape_designer":"","shinkenchiku_url":""},{"id":3007,"title":"熊本テクノポリスセンター","architect":"内井昭蔵","year":1986.0,"address":"熊本県益城町大字田原2081-10","latitude":32.82453155517578,"longitude":130.8431396484375,"category":"研究施設","big_category":"教育","description":"","image_url":"","tags":"1992年公共建築賞","prefecture":"熊本","contractor":"","structural_designer":"","landscape_designer":"","shinkenchiku_url":""},{"id":3008,"title":"嘉島町役場庁舎","architect":"黒川紀章","year":1997.0,"address":"熊本県上益城郡嘉島町上島530","latitude":32.740238189697266,"longitude":130.75733947753906,"category":"庁舎","big_category":"公共施設","description":"","image_url":"","tags":"","prefecture":"熊本","contractor":"","structural_designer":"","landscape_designer":"","shinkenchiku_url":""},{"id":3009,"title":"サイトB 菊池市街地ポケットパーク 横町","architect":"塩塚隆生","year":2012.0,"address":"熊本県菊池市隈府167-17","latitude":32.98374557495117,"longitude":130.8102569580078,"category":"公園","big_category":"レジャー施設","description":"くまもとアートポリス","image_url":"","tags":"くまもとアートポリス","prefecture":"熊本","contractor":"","structural_designer":"","landscape_designer":"","shinkenchiku_url":""},{"id":3010,"title":"サイトA 菊池市街地ポケットパーク 切明","architect":"塩塚隆生","year":2012.0,"address":"熊本県菊池市隈府495-1","latitude":32.979881286621094,"longitude":130.80604553222656,"category":"公園","big_category":"レジャー施設","description":"くまもとアートポリス","image_url":"","tags":"くまもとアートポリス","prefecture":"熊本","contractor":"","structural_designer":"","landscape_designer":"","shinkenchiku_url":""},{"id":3011,"title":"球泉洞森林館","architect":"木島安史","year":1984.0,"address":"熊本県球磨郡球磨村大瀬1121","latitude":32.2753791809082,"longitude":130.61520385742188,"category":"博物館","big_category":"ミュージアム","description":"くまもとアートポリス","image_url":"","tags":"1985年日本建築学会 作品賞","prefecture":"熊本","contractor":"","structural_designer":"","landscape_designer":"","shinkenchiku_url":""},{"id":3012,"title":"final wooden house 球泉洞休暇村バンガロー モクバンR1","architect":"藤本壮介","year":2008.0,"address":"熊本県球磨郡球磨村大字神瀬甲1130","latitude":32.307884216308594,"longitude":130.6140899658203,"category":"ホテル","big_category":"宿泊","description":"くまもとアートポリス。豪雨災害により撤去された模様","image_url":"","tags":"くまもとアートポリス","prefecture":"熊本","contractor":"","structural_designer":"","landscape_designer":"","shinkenchiku_url":""},{"id":3013,"title":"球泉洞休暇村バンガロー モクバンR2","architect":"渡瀬正記+永吉歩","year":2009.0,"address":"熊本県球磨郡球磨村大字神瀬甲1130","latitude":32.3088264465332,"longitude":130.61392211914062,"category":"ホテル","big_category":"宿泊","description":"くまもとアートポリス","image_url":"","tags":"くまもとアートポリス","prefecture":"熊本","contractor":"","structural_designer":"","landscape_designer":"","shinkenchiku_url":""},{"id":3014,"title":"玉名天望館","architect":"高崎正治","year":1992.0,"address":"熊本県玉名市大倉 玉名天望館","latitude":32.91824722290039,"longitude":130.56993103027344,"category":"博物館","big_category":"ミュージアム","description":"くまもとアートポリス","image_url":"","tags":"くまもとアートポリス","prefecture":"熊本","contractor":"","structural_designer":"","landscape_designer":"","shinkenchiku_url":""},{"id":3015,"title":"玉名市立歴史博物館こころピア","architect":"毛綱毅曠","year":1993.0,"address":"熊本県玉名市岩崎117","latitude":32.93404769897461,"longitude":130.56124877929688,"category":"博物館","big_category":"ミュージアム","description":"","image_url":"","tags":"","prefecture":"熊本","contractor":"","structural_designer":"","landscape_designer":"","shinkenchiku_url":""},{"id":3016,"title":"パークドーム熊本","architect":"高橋靗一+フジタ","year":1997.0,"address":"熊本県熊本市東区平山町2972","latitude":32.83926773071289,"longitude":130.8025360107422,"category":"スタジアム","big_category":"レジャー施設","description":"","image_url":"","tags":"2023年JIA25年賞 受賞作品","prefecture":"熊本","contractor":"","structural_designer":"","landscape_designer":"","shinkenchiku_url":""},{"id":3017,"title":"リデル・ライト両女史記念館","architect":"中條精一郎","year":1918.0,"address":"熊本県熊本市中央区黒髪5-23-1 ","latitude":32.81898498535156,"longitude":130.73080444335938,"category":"洋館/博物館","big_category":"近代建築/遺産,ミュージアム","description":"","image_url":"","tags":"","prefecture":"熊本","contractor":"","structural_designer":"","landscape_designer":"","shinkenchiku_url":""},{"id":3018,"title":"五高記念館","architect":"山口半六+久留正道","year":1889.0,"address":"熊本県熊本市中央区黒髪2-40-1","latitude":32.81635284423828,"longitude":130.7269744873047,"category":"洋館/博物館","big_category":"近代建築/遺産,ミュージアム","description":"熊本大学構内","image_url":"","tags":"","prefecture":"熊本","contractor":"","structural_designer":"","landscape_designer":"","shinkenchiku_url":""},{"id":3019,"title":"夏目漱石内坪井旧居","architect":"不明","year":null,"address":"熊本県熊本市中央区内坪井町4-22 ","latitude":32.810428619384766,"longitude":130.70907592773438,"category":"和風住宅","big_category":"住宅","description":"","image_url":"","tags":"","prefecture":"熊本","contractor":"","structural_designer":"","landscape_designer":"","shinkenchiku_url":""},{"id":3020,"title":"熊本市立熊本博物館","architect":"黒川紀章","year":1977.0,"address":"熊本県熊本市中央区古京町3-2","latitude":32.80860900878906,"longitude":130.69927978515625,"category":"博物館","big_category":"ミュージアム","description":"","image_url":"","tags":"","prefecture":"熊本","contractor":"","structural_designer":"","landscape_designer":"","shinkenchiku_url":""},{"id":3021,"title":"熊本県立美術館","architect":"前川國男","year":1973.0,"address":"熊本県熊本市中央区二の丸2","latitude":32.80756759643555,"longitude":130.70053100585938,"category":"美術館","big_category":"ミュージアム","description":"","image_url":"","tags":"2006年JIA25年賞,DOCOMOMO","prefecture":"熊本","contractor":"","structural_designer":"","landscape_designer":"","shinkenchiku_url":""},{"id":3022,"title":"熊本県伝統工芸館","architect":"菊竹清訓","year":1982.0,"address":"熊本県熊本市中央区千葉城町3-35","latitude":32.80759811401367,"longitude":130.7069091796875,"category":"博物館","big_category":"ミュージアム","description":"","image_url":"","tags":"","prefecture":"熊本","contractor":"","structural_designer":"","landscape_designer":"","shinkenchiku_url":""},{"id":3023,"title":"県営新渡鹿団地","architect":"小宮山昭","year":1993.0,"address":"熊本県熊本市中央区渡鹿3-15-1","latitude":32.807498931884766,"longitude":130.73948669433594,"category":"集合住宅","big_category":"住宅","description":"","image_url":"","tags":"","prefecture":"熊本","contractor":"","structural_designer":"","landscape_designer":"","shinkenchiku_url":""},{"id":3024,"title":"熊本洋学校教師館 ジェーンズ邸","architect":"不明","year":1872.0,"address":"熊本県熊本市中央区水前寺公園22-16","latitude":32.790672302246094,"longitude":130.73727416992188,"category":"洋館","big_category":"近代建築/遺産","description":"","image_url":"","tags":"","prefecture":"熊本","contractor":"","structural_designer":"","landscape_designer":"","shinkenchiku_url":""},{"id":3025,"title":"水前寺江津湖公園管理棟","architect":"ウシダ・フィンドレイ・パートナーシップ","year":1999.0,"address":"熊本県熊本市東区広木町935-1","latitude":32.7685546875,"longitude":130.7566680908203,"category":"公園","big_category":"レジャー施設","description":"くまもとアートポリス","image_url":"","tags":"くまもとアートポリス","prefecture":"熊本","contractor":"","structural_designer":"","landscape_designer":"","shinkenchiku_url":""},{"id":3026,"title":"熊本市営新地団地D","architect":"西岡弘","year":1995.0,"address":"熊本県熊本市北区清水新地7-2-1","latitude":32.853668212890625,"longitude":130.74327087402344,"category":"集合住宅","big_category":"住宅","description":"くまもとアートポリス","image_url":"","tags":"くまもとアートポリス","prefecture":"熊本","contractor":"","structural_designer":"","landscape_designer":"","shinkenchiku_url":""},{"id":3027,"title":"県営竜蛇平団地","architect":"元倉眞琴","year":1994.0,"address":"熊本県熊本市帯山3-1","latitude":32.79838562011719,"longitude":130.74630737304688,"category":"集合住宅","big_category":"住宅","description":"くまもとアートポリス","image_url":"","tags":"1995年日本建築学会 作品賞,くまもとアートポリス","prefecture":"熊本","contractor":"","structural_designer":"","landscape_designer":"","shinkenchiku_url":""},{"id":3028,"title":"熊本市医師会館・看護専門学校","architect":"古谷誠章","year":2011.0,"address":"熊本県熊本市本荘3-3-3","latitude":32.7948112487793,"longitude":130.71026611328125,"category":"専門学校/組合施設","big_category":"教育,公共施設","description":"","image_url":"","tags":"","prefecture":"熊本","contractor":"","structural_designer":"","landscape_designer":"","shinkenchiku_url":""},{"id":3029,"title":"熊本市営新地団地B","architect":"緒方理一郎","year":1992.0,"address":"熊本県熊本市北区清水新地5-12-1","latitude":32.853328704833984,"longitude":130.740966796875,"category":"集合住宅","big_category":"住宅","description":"くまもとアートポリス","image_url":"","tags":"くまもとアートポリス","prefecture":"熊本","contractor":"","structural_designer":"","landscape_designer":"","shinkenchiku_url":""},{"id":3030,"title":"熊本市営新地団地A","architect":"早川邦彦","year":1991.0,"address":"熊本県熊本市北区清水新地5-9-1","latitude":32.8528938293457,"longitude":130.73838806152344,"category":"集合住宅","big_category":"住宅","description":"くまもとアートポリス","image_url":"","tags":"くまもとアートポリス","prefecture":"熊本","contractor":"","structural_designer":"","landscape_designer":"","shinkenchiku_url":""},{"id":3031,"title":"熊本県立美術館分館","architect":"エリアス・トーレス+マルティネス・ラペーニャ","year":1992.0,"address":"熊本県熊本市千葉城町2-18","latitude":32.80656433105469,"longitude":130.7081756591797,"category":"美術館","big_category":"ミュージアム","description":"くまもとアートポリス","image_url":"","tags":"くまもとアートポリス,2022年JIA25年賞 登録作品","prefecture":"熊本","contractor":"淺沼組・坂口建設建設","structural_designer":"","landscape_designer":"","shinkenchiku_url":""},{"id":3032,"title":"熊本南警察署熊本駅交番","architect":"クライン・ダイサム・アーキテクツ","year":2011.0,"address":"熊本県熊本市西区春日2-8-8","latitude":32.78856658935547,"longitude":130.68930053710938,"category":"警察・消防署","big_category":"公共施設","description":"くまもとアートポリス","image_url":"","tags":"くまもとアートポリス","prefecture":"熊本","contractor":"","structural_designer":"","landscape_designer":"","shinkenchiku_url":""},{"id":3033,"title":"熊本市現代美術館","architect":"梓設計","year":2002.0,"address":"熊本県熊本市中央区上通町2-1","latitude":32.80335235595703,"longitude":130.711181640625,"category":"美術館","big_category":"ミュージアム","description":"タレル作品有り","image_url":"","tags":"","prefecture":"熊本","contractor":"","structural_designer":"","landscape_designer":"","shinkenchiku_url":""},{"id":3034,"title":"熊本駅新幹線口（西口）駅前広場","architect":"佐藤光彦","year":2011.0,"address":"熊本県熊本市西区春日3-637-2","latitude":32.7905158996582,"longitude":130.68801879882812,"category":"広場","big_category":"文化施設","description":"くまもとアートポリス","image_url":"","tags":"くまもとアートポリス","prefecture":"熊本","contractor":"","structural_designer":"","landscape_designer":"","shinkenchiku_url":""},{"id":3035,"title":"旧細川刑部邸","architect":"細川興孝","year":1678.0,"address":"熊本県熊本市中央区古京町3-1 ","latitude":32.809356689453125,"longitude":130.69964599609375,"category":"古民家","big_category":"近代建築/遺産","description":"","image_url":"","tags":"","prefecture":"熊本","contractor":"","structural_designer":"","landscape_designer":"","shinkenchiku_url":""},{"id":3036,"title":"熊本北警察署","architect":"篠原一男","year":1990.0,"address":"熊本県熊本市中央区草葉町5-13","latitude":32.80577087402344,"longitude":130.7156524658203,"category":"警察・消防署","big_category":"公共施設","description":"くまもとアートポリス","image_url":"","tags":"くまもとアートポリス","prefecture":"熊本","contractor":"","structural_designer":"","landscape_designer":"","shinkenchiku_url":""},{"id":3037,"title":"再春館製薬社員寮 旧再春館製薬女子寮","architect":"妹島和世","year":1991.0,"address":"熊本県熊本市中央区帯山4-20-5","latitude":32.804317474365234,"longitude":130.74789428710938,"category":"寮","big_category":"住宅","description":"くまもとアートポリス","image_url":"","tags":"くまもとアートポリス","prefecture":"熊本","contractor":"","structural_designer":"","landscape_designer":"","shinkenchiku_url":""},{"id":3038,"title":"熊本県営保田窪第一団地","architect":"山本理顕","year":1991.0,"address":"熊本県熊本市中央区帯山1-28","latitude":32.80099105834961,"longitude":130.74183654785156,"category":"集合住宅","big_category":"住宅","description":"","image_url":"","tags":"2023年JIA25年賞 登録作品","prefecture":"熊本","contractor":"和久田建設・高橋建設・三津野建設・安田建設","structural_designer":"","landscape_designer":"","shinkenchiku_url":""},{"id":3039,"title":"熊本駅白川口（東口）駅前広場 暫定形","architect":"西沢立衛","year":2010.0,"address":"熊本県熊本市西区春日3-15-1","latitude":32.78960418701172,"longitude":130.6896514892578,"category":"広場","big_category":"文化施設","description":"くまもとアートポリス。2016年熊本地震の後、再整備されたため現存していない","image_url":"","tags":"くまもとアートポリス","prefecture":"熊本","contractor":"","structural_designer":"","landscape_designer":"","shinkenchiku_url":""},{"id":3040,"title":"白川橋左岸緑地トイレ","architect":"ヌーブ","year":2011.0,"address":"熊本県熊本市中央区本山3-","latitude":32.789520263671875,"longitude":130.69398498535156,"category":"トイレ","big_category":"公共施設","description":"くまもとアートポリス","image_url":"","tags":"くまもとアートポリス","prefecture":"熊本","contractor":"","structural_designer":"","landscape_designer":"","shinkenchiku_url":""},{"id":3041,"title":"白川橋 \"フライングライト\"","architect":"藤江和子","year":1992.0,"address":"熊本県熊本市中央区本山2-","latitude":32.789798736572266,"longitude":130.69342041015625,"category":"橋","big_category":"インフラ","description":"くまもとアートポリス","image_url":"","tags":"くまもとアートポリス","prefecture":"熊本","contractor":"","structural_designer":"","landscape_designer":"","shinkenchiku_url":""},{"id":3042,"title":"熊本市営託麻団地","architect":"坂本一成+長谷川逸子+松永安光","year":1993.0,"address":"熊本県熊本市東区西原3-2","latitude":32.81890869140625,"longitude":130.75738525390625,"category":"集合住宅","big_category":"住宅","description":"くまもとアートポリス。長谷川逸子棟のみ1993年竣工。坂本一成棟、松永安光棟は1994年竣工","image_url":"","tags":"くまもとアートポリス","prefecture":"熊本","contractor":"","structural_designer":"","landscape_designer":"","shinkenchiku_url":""},{"id":3043,"title":"熊本市営新地団地E","architect":"上田憲二郎","year":1995.0,"address":"熊本県熊本市北区清水新地7-2-2","latitude":32.85397720336914,"longitude":130.74449157714844,"category":"集合住宅","big_category":"住宅","description":"くまもとアートポリス","image_url":"","tags":"くまもとアートポリス","prefecture":"熊本","contractor":"","structural_designer":"","landscape_designer":"","shinkenchiku_url":""},{"id":3044,"title":"熊本市営新地団地C","architect":"富永譲","year":1993.0,"address":"熊本県熊本市北区清水新地7-1-1","latitude":32.853118896484375,"longitude":130.74244689941406,"category":"集合住宅","big_category":"住宅","description":"くまもとアートポリス","image_url":"","tags":"くまもとアートポリス","prefecture":"熊本","contractor":"","structural_designer":"","landscape_designer":"","shinkenchiku_url":""},{"id":3045,"title":"熊本北警察署坪井交番","architect":"みかんぐみ","year":1995.0,"address":"熊本県熊本市中央区坪井1-1-40","latitude":32.80908966064453,"longitude":130.71051025390625,"category":"警察・消防署","big_category":"公共施設","description":"くまもとアートポリス。マニュエル・タルディッツ+加茂紀和子名義。","image_url":"","tags":"くまもとアートポリス","prefecture":"熊本","contractor":"","structural_designer":"","landscape_designer":"","shinkenchiku_url":""},{"id":3046,"title":"熊本県農業公園カントリーパーク","architect":"遠藤剛生","year":1991.0,"address":"熊本県合志市栄3802-4","latitude":32.891334533691406,"longitude":130.7596435546875,"category":"公園","big_category":"レジャー施設","description":"","image_url":"","tags":"","prefecture":"熊本","contractor":"","structural_designer":"","landscape_designer":"","shinkenchiku_url":""},{"id":3047,"title":"熊本県立農業大学校学生寮","architect":"藤森照信","year":2000.0,"address":"熊本県合志市栄3803","latitude":32.894004821777344,"longitude":130.7613525390625,"category":"寮","big_category":"住宅","description":"くまもとアートポリス","image_url":"","tags":"2001年日本建築学会 作品賞,くまもとアートポリス","prefecture":"熊本","contractor":"","structural_designer":"","landscape_designer":"","shinkenchiku_url":""},{"id":3048,"title":"合志市保健福祉センターふれあい館","architect":"今村雅樹","year":2002.0,"address":"熊本県合志市須屋2251-1","latitude":32.87325668334961,"longitude":130.7338409423828,"category":"福祉センター","big_category":"医療施設","description":"くまもとアートポリス","image_url":"","tags":"くまもとアートポリス,2004年日本建築学会 作品選奨","prefecture":"熊本","contractor":"","structural_designer":"","landscape_designer":"","shinkenchiku_url":""},{"id":3049,"title":"鞠智城 温故創生館 長者山展望広場休憩所","architect":"山本成一郎","year":2004.0,"address":"熊本県山鹿市菊鹿町米原443-1","latitude":33.0037727355957,"longitude":130.7874298095703,"category":"城郭","big_category":"近代建築/遺産","description":"","image_url":"","tags":"","prefecture":"熊本","contractor":"","structural_designer":"","landscape_designer":"","shinkenchiku_url":""},{"id":3050,"title":"熊本県立装飾古墳館","architect":"安藤忠雄","year":1992.0,"address":"熊本県山鹿市鹿央町岩原3085","latitude":32.99372100830078,"longitude":130.66976928710938,"category":"美術館","big_category":"ミュージアム","description":"くまもとアートポリス","image_url":"","tags":"くまもとアートポリス","prefecture":"熊本","contractor":"","structural_designer":"","landscape_designer":"","shinkenchiku_url":""}]}