{"page":248,"total_pages":290,"items_per_page":50,"total_items":14467,"items":[{"id":12351,"title":"五島リトリートray","architect":"大成建設+アーキヴィジョン広谷スタジオ+橋本夕紀夫","year":2022.0,"address":"長崎県五島市上崎山町2877","latitude":32.64299011230469,"longitude":128.84942626953125,"category":"ホテル","description":"内装設計:橋本夕紀夫 デザインアーキテクト:アーキヴィジョン広谷スタジオ","image_url":""},{"id":12352,"title":"藤沢教会附属 みくに幼稚園","architect":"梶浦暁","year":2022.0,"address":"神奈川県藤沢市鵠沼花沢町2-5","latitude":35.33766174316406,"longitude":139.48516845703125,"category":"幼稚園","description":"","image_url":""},{"id":12353,"title":"稲川まちづくりセンター","architect":"梶浦暁","year":2015.0,"address":"山形県飽海郡遊佐町増穂大坪25-2","latitude":39.018367767333984,"longitude":139.8864288330078,"category":"公民館・交流施設","description":"","image_url":""},{"id":12354,"title":"菊水酒造 KIKUSUI Renewal Plan 65","architect":"梶浦暁","year":2013.0,"address":"新潟県新発田市島潟750","latitude":37.96025085449219,"longitude":139.35418701171875,"category":"醸造所","description":"2013～2015年にかけて竣工","image_url":""},{"id":12355,"title":"澤田美喜記念館","architect":"三宅敏郎","year":1987.0,"address":"神奈川県中郡大磯町大磯1152","latitude":35.310211181640625,"longitude":139.31382751464844,"category":"博物館","description":"","image_url":""},{"id":12356,"title":"ノエビア南大東海洋研究所","architect":"竹中工務店","year":2002.0,"address":"沖縄県島尻郡南大東村 ノエビア南大東海洋研究所","latitude":25.862226486206055,"longitude":131.2658233642578,"category":"研究施設","description":"","image_url":""},{"id":12357,"title":"川崎祐宣記念講堂","architect":"竹中工務店","year":2004.0,"address":"岡山県倉敷市松島288","latitude":34.63496017456055,"longitude":133.81015014648438,"category":"大学/ホール・劇場","description":"","image_url":""},{"id":12358,"title":"埼玉医科大学 あすなろ","architect":"竹中工務店","year":2008.0,"address":"埼玉県日高市山根1351-6","latitude":35.91911697387695,"longitude":139.32135009765625,"category":"幼稚園","description":"","image_url":""},{"id":12359,"title":"中村区役所等複合庁舎","architect":"竹中工務店","year":2022.0,"address":"愛知県名古屋市中村区松原町1-23-1","latitude":35.176902770996094,"longitude":136.8681640625,"category":"庁舎","description":"","image_url":""},{"id":12360,"title":"リニアスタイル","architect":"竹中工務店","year":2022.0,"address":"愛知県名古屋市緑区鳴子町2-64-1","latitude":35.100101470947266,"longitude":136.9662322998047,"category":"集合住宅","description":"","image_url":""},{"id":12361,"title":"妙智會山形教会","architect":"竹中工務店","year":2022.0,"address":"山形県酒田市住吉町18-25","latitude":38.92891311645508,"longitude":139.83358764648438,"category":"宗教施設","description":"","image_url":""},{"id":12362,"title":"茨城キリスト教大学 1号館","architect":"竹中工務店","year":2022.0,"address":"茨城県日立市大みか町6-11-1","latitude":36.511600494384766,"longitude":140.6182098388672,"category":"大学","description":"","image_url":""},{"id":12363,"title":"新柏クリニックおおたかの森","architect":"竹中工務店","year":2022.0,"address":"千葉県流山市西初石3-354-6","latitude":35.8823356628418,"longitude":139.91712951660156,"category":"個人医院","description":"","image_url":""},{"id":12364,"title":"GLA八ヶ岳いのちの里 新ホール棟・研修棟","architect":"竹中工務店","year":2022.0,"address":"山梨県北杜市高根町村山西割4283-149","latitude":35.858272552490234,"longitude":138.40342712402344,"category":"宗教施設","description":"","image_url":""},{"id":12365,"title":"GLA八ヶ岳いのちの里 人生祈念館","architect":"日本設計","year":2012.0,"address":"山梨県北杜市高根町村山西割4283-149","latitude":35.860408782958984,"longitude":138.40480041503906,"category":"宗教施設","description":"","image_url":""},{"id":12366,"title":"大阪電気通信大学 寝屋川キャンパス OECUイノベーションスクエア","architect":"竹中工務店","year":2022.0,"address":"大阪府寝屋川市初町18-8","latitude":34.76013946533203,"longitude":135.6270751953125,"category":"大学","description":"","image_url":""},{"id":12367,"title":"西部ガスグループ 油山研修所","architect":"竹中工務店","year":2022.0,"address":"福岡県福岡市城南区東油山3-28-15","latitude":33.53241729736328,"longitude":130.37440490722656,"category":"研修施設","description":"","image_url":""},{"id":12368,"title":"千代田インテグレ本社","architect":"竹中工務店","year":2022.0,"address":"東京都千代田区二番町1-1","latitude":35.68645477294922,"longitude":139.73851013183594,"category":"オフィスビル","description":"","image_url":""},{"id":12369,"title":"ザ ロイヤルパークホテル アイコニック 京都","architect":"竹中工務店","year":2022.0,"address":"京都府京都市中京区東洞院通御池上ル船屋町420","latitude":35.01118087768555,"longitude":135.76124572753906,"category":"ホテル","description":"","image_url":""},{"id":12370,"title":"杏林大学 松田進勇記念アリーナ","architect":"竹中工務店","year":2021.0,"address":"東京都三鷹市新川6-20-2","latitude":35.67881774902344,"longitude":139.5652618408203,"category":"大学/体育館","description":"","image_url":""},{"id":12371,"title":"竹中工務店 岡山営業所","architect":"竹中工務店","year":2021.0,"address":"岡山県岡山市北区田町2-1-10","latitude":34.660179138183594,"longitude":133.92401123046875,"category":"低層オフィス","description":"","image_url":""},{"id":12372,"title":"東日本放送 新社屋","architect":"竹中工務店","year":2021.0,"address":"宮城県仙台市太白区あすと長町1-3-15","latitude":38.229854583740234,"longitude":140.8887939453125,"category":"低層オフィス","description":"","image_url":""},{"id":12373,"title":"ハイアット プレイス 京都","architect":"竹中工務店","year":2021.0,"address":"京都府京都市中京区少将井町240","latitude":35.01551055908203,"longitude":135.75933837890625,"category":"ホテル","description":"","image_url":""},{"id":12374,"title":"金沢実践倫理会館","architect":"竹中工務店","year":2021.0,"address":"石川県金沢市玉川町11-5","latitude":36.57304763793945,"longitude":136.6522674560547,"category":"宗教施設","description":"","image_url":""},{"id":12375,"title":"福岡実践倫理会館","architect":"竹中工務店","year":2021.0,"address":"福岡市博多区住吉5-10-3","latitude":33.5832633972168,"longitude":130.41575622558594,"category":"宗教施設","description":"","image_url":""},{"id":12376,"title":"高知放送新社屋","architect":"竹中工務店","year":2021.0,"address":"高知県高知市本町3-3-39","latitude":33.558319091796875,"longitude":133.53477478027344,"category":"オフィスビル","description":"","image_url":""},{"id":12377,"title":"新柏クリニック糖尿病みらい","architect":"竹中工務店","year":2020.0,"address":"千葉県柏市新柏1-4-5","latitude":35.83843994140625,"longitude":139.96827697753906,"category":"個人医院","description":"","image_url":""},{"id":12378,"title":"千切屋 新本社","architect":"竹中工務店","year":2020.0,"address":"京都府京都市中京区高倉通三条下る丸屋町160","latitude":35.00803756713867,"longitude":135.762451171875,"category":"店舗","description":"","image_url":""},{"id":12379,"title":"東京スイミングセンター","architect":"竹中工務店","year":2020.0,"address":"東京都豊島区駒込5-4-21","latitude":35.73811721801758,"longitude":139.73873901367188,"category":"プール","description":"","image_url":""},{"id":12380,"title":"イデアルビル","architect":"中村拓志","year":2023.0,"address":"東京都港区南青山6-13-1","latitude":35.66039276123047,"longitude":139.7145538330078,"category":"テナントビル/住宅","description":"","image_url":""},{"id":12381,"title":"オランダ王国大使公邸","architect":"ジェームズ・ガーディナー+上林敬吉","year":1928.0,"address":"東京都港区芝公園3-6-3","latitude":35.6617546081543,"longitude":139.74586486816406,"category":"住宅/公共施設","description":"年に1度チューリップガーデン公開日に要予約で一般公開","image_url":""},{"id":12382,"title":"チェコ共和国大使館","architect":"イジー・ロウダ+イヴァン・スカーラ","year":1977.0,"address":"東京都渋谷区広尾2-16-14","latitude":35.651981353759766,"longitude":139.7169189453125,"category":"公共施設/博物館","description":"チェコセンターが併設されており見学可能","image_url":""},{"id":12383,"title":"アメリカ大使館職員宿舎 テンプルタウンハウス","architect":"ハリー・ウィーズ","year":1982.0,"address":"東京都港区六本木2-1-1","latitude":35.667076110839844,"longitude":139.73699951171875,"category":"集合住宅/集合住宅","description":"春のガレージセール、秋のフレンドシップデー時に見学可能","image_url":""},{"id":12384,"title":"アメリカ大使公邸","architect":"ハロルド・ビュレン・マゴニーグル+アントニン・レーモンド","year":1931.0,"address":"東京都港区赤坂1-10-5","latitude":35.667762756347656,"longitude":139.74295043945312,"category":"住宅/公共施設","description":"春の大使館めぐりスタンプラリーの際に見学可能","image_url":""},{"id":12385,"title":"スペイン大使公邸","architect":"ジェームズ・ガーディナー+上林敬吉","year":1927.0,"address":"東京都港区六本木1-3-29","latitude":35.665611267089844,"longitude":139.74151611328125,"category":"住宅/公共施設","description":"基本的に見学不能だが、希に公開イベント等がある","image_url":""},{"id":12386,"title":"スウェーデン大使館","architect":"ミカエル・グラニット+加藤吉人","year":1991.0,"address":"東京都港区六本木1-10-3","latitude":35.66455078125,"longitude":139.74183654785156,"category":"公共施設","description":"展覧会、展示イベント等がある","image_url":""},{"id":12387,"title":"神戸港新港第四突堤Q2上屋","architect":"大蔵省営繕課","year":1932.0,"address":"兵庫県神戸市中央区新港町4-4","latitude":34.68267059326172,"longitude":135.20217895507812,"category":"港","description":"","image_url":""},{"id":12388,"title":"湯田上温泉 ホテル小柳","architect":"難波和彦","year":1972.0,"address":"新潟県南蒲原郡田上町田上乙1322-1","latitude":37.71482849121094,"longitude":139.0829620361328,"category":"ホテル","description":"","image_url":""},{"id":12389,"title":"鈴木胃腸科クリニック","architect":"難波和彦","year":1983.0,"address":"埼玉県蓮田市東3-7-17","latitude":35.98160171508789,"longitude":139.6590576171875,"category":"個人医院","description":"","image_url":""},{"id":12390,"title":"なおび幼稚園","architect":"難波和彦","year":2004.0,"address":"東京都小平市上水本町4-21-1","latitude":35.71576690673828,"longitude":139.4794921875,"category":"幼稚園","description":"","image_url":""},{"id":12391,"title":"LASCASAS","architect":"阿部勤","year":1994.0,"address":"東京都文京区本駒込5-4-1","latitude":35.73221206665039,"longitude":139.75035095214844,"category":"集合住宅/住宅/ギャラリー","description":"","image_url":""},{"id":12392,"title":"文京グリーンコート","architect":"久米設計","year":1998.0,"address":"東京都文京区本駒込2-28-8","latitude":35.729820251464844,"longitude":139.74746704101562,"category":"モール/集合住宅/オフィスビル","description":"","image_url":""},{"id":12393,"title":"カリス","architect":"藤本壮介","year":2019.0,"address":"東京都豊島区駒込3-11-12","latitude":35.73756790161133,"longitude":139.7427978515625,"category":"集合住宅","description":"","image_url":""},{"id":12394,"title":"専門学校桑沢デザイン研究所 新教育施設 旧ヒコ・みづのジュエリーカレッジ東京","architect":"吉柳満+志摩健","year":1999.0,"address":"東京都渋谷区神南1-4-17","latitude":35.66547775268555,"longitude":139.7006378173828,"category":"専門学校","description":"2023年志摩健により改修","image_url":""},{"id":12395,"title":"銀座の小さなビル","architect":"小山光","year":2022.0,"address":"東京都中央区銀座7-2-13","latitude":35.670265197753906,"longitude":139.75990295410156,"category":"テナントビル","description":"","image_url":""},{"id":12396,"title":"猿田彦珈琲 伊勢国多気店","architect":"米田雅樹","year":2021.0,"address":"三重県多気郡多気町ヴィソン672-1 アトリエ1","latitude":34.46103286743164,"longitude":136.51502990722656,"category":"カフェ","description":"","image_url":""},{"id":12397,"title":"WANLIFE DOG VILLAGE","architect":"今西伴仁","year":2022.0,"address":"高知県四万十市古津賀304-1","latitude":32.9824333190918,"longitude":132.9600372314453,"category":"カフェ","description":"","image_url":""},{"id":12398,"title":"ZEN RESORT NIKKO A棟","architect":"上林剛典","year":2022.0,"address":"栃木県日光市中宮祠2482","latitude":36.73475646972656,"longitude":139.49429321289062,"category":"コテージ","description":"","image_url":""},{"id":12399,"title":"イエベイカーズ / 大門の母屋と新屋","architect":"studio velocity+吉村真基","year":2015.0,"address":"愛知県岡崎市大門3-19-3","latitude":34.990177154541016,"longitude":137.15237426757812,"category":"住宅/店舗","description":"2015年、studio velocity設計により住宅として大門の母屋と新屋が竣工。2022年、吉村真基設計によりパン屋として一部改修","image_url":""},{"id":12400,"title":"light and space 田中整形外科","architect":"松井大佑","year":2022.0,"address":"福岡県春日市下白水北7-16","latitude":33.52511978149414,"longitude":130.43862915039062,"category":"個人医院","description":"","image_url":""}]}