{"page":251,"total_pages":290,"items_per_page":50,"total_items":14467,"items":[{"id":12501,"title":"ABCハウジング ウェルビーみのお","architect":"木村貞基+駒井陽次+森下大右","year":2023.0,"address":"大阪府箕面市今宮1-1-1","latitude":34.833656311035156,"longitude":135.49375915527344,"category":"展示・会議場/カフェ/店舗","description":"ウェルビーベース、センターハウス、カフェ棟、フラワー棟など","image_url":""},{"id":12502,"title":"南国市地域交流センター MIARE!","architect":"昭和設計+ハウジング総合コンサルタント","year":2022.0,"address":"高知県南国市大そね甲2117","latitude":33.56999969482422,"longitude":133.64260864257812,"category":"公民館・交流施設/ホール・劇場","description":"","image_url":""},{"id":12503,"title":"高知警察署","architect":"昭和設計","year":2022.0,"address":"高知県高知市北本町1-10-12","latitude":33.566471099853516,"longitude":133.5418243408203,"category":"警察・消防署","description":"","image_url":""},{"id":12504,"title":"淡路市立 津名図書館","architect":"昭和設計","year":2021.0,"address":"兵庫県淡路市志筑新島5-4","latitude":34.42836380004883,"longitude":134.9046630859375,"category":"図書館","description":"","image_url":""},{"id":12505,"title":"神慈秀明会 玉山手支部","architect":"昭和設計","year":2022.0,"address":"大阪府柏原市旭ケ丘1-8-25","latitude":34.56473922729492,"longitude":135.6318817138672,"category":"宗教施設","description":"","image_url":""},{"id":12506,"title":"神戸市西区総合庁舎","architect":"昭和設計","year":2021.0,"address":"兵庫県神戸市西区糀台5-4-1","latitude":34.72089767456055,"longitude":135.0193634033203,"category":"庁舎","description":"","image_url":""},{"id":12507,"title":"西脇市新庁舎 / 市民交流施設オリナス","architect":"昭和設計","year":2021.0,"address":"兵庫県西脇市下戸田128-1","latitude":34.982730865478516,"longitude":134.9798126220703,"category":"庁舎/ホール・劇場","description":"","image_url":""},{"id":12508,"title":"ブランチ横浜南部市場","architect":"昭和設計","year":2019.0,"address":"神奈川県横浜市金沢区鳥浜町1-1","latitude":35.381690979003906,"longitude":139.63455200195312,"category":"モール","description":"","image_url":""},{"id":12509,"title":"湯布院地域複合施設 ゆふいんラックホール","architect":"昭和設計","year":2021.0,"address":"大分県由布市湯布院町川上3738-1","latitude":33.26437759399414,"longitude":131.3557891845703,"category":"庁舎/総合文化施設","description":"","image_url":""},{"id":12510,"title":"北神区民センター","architect":"昭和設計","year":2011.0,"address":"兵庫県神戸市北区藤原台中町1-3-1","latitude":34.82246398925781,"longitude":135.2193603515625,"category":"ホール・劇場/公民館・交流施設","description":"","image_url":""},{"id":12511,"title":"水戸の美容室 Hair salon BOB","architect":"AAOAA","year":2023.0,"address":"茨城県水戸市元吉田町2193-5","latitude":36.35144805908203,"longitude":140.4837188720703,"category":"美容院","description":"","image_url":""},{"id":12512,"title":"HIBARI NEST","architect":"種昻哲","year":2023.0,"address":"富山県射水市戸破4071","latitude":36.72344970703125,"longitude":137.10604858398438,"category":"シェアオフィス","description":"","image_url":""},{"id":12513,"title":"GRID","architect":"ihrmk","year":2022.0,"address":"大阪府豊中市玉井町3-11-24","latitude":34.787452697753906,"longitude":135.45443725585938,"category":"集合住宅","description":"","image_url":""},{"id":12514,"title":"渋谷SAUNAS","architect":"SNARK","year":2022.0,"address":"東京都渋谷区桜丘町18-9","latitude":35.656044006347656,"longitude":139.70083618164062,"category":"温泉","description":"","image_url":""},{"id":12515,"title":"中部土木本社","architect":"内藤廣","year":2021.0,"address":"愛知県名古屋市名東区社台3-125","latitude":35.171775817871094,"longitude":137.0035400390625,"category":"低層オフィス","description":"","image_url":""},{"id":12516,"title":"多摩市立中央図書館","architect":"佐藤総合計画","year":2023.0,"address":"東京都多摩市落合2-35","latitude":35.6210823059082,"longitude":139.42433166503906,"category":"図書館","description":"","image_url":""},{"id":12517,"title":"NANZUKA UNDERGROUND","architect":"SNARK","year":2021.0,"address":"東京都渋谷区神宮前3-30-10","latitude":35.67210006713867,"longitude":139.71005249023438,"category":"ギャラリー","description":"","image_url":""},{"id":12518,"title":"ラムール/カノワ/キョウ","architect":"SNARK","year":2020.0,"address":"群馬県前橋市北代田町9-8","latitude":36.41552734375,"longitude":139.0654754638672,"category":"カフェ/店舗","description":"","image_url":""},{"id":12519,"title":"PeaceHair The Salon","architect":"SNARK","year":2020.0,"address":"群馬県高崎市日高町1014-1","latitude":36.35398483276367,"longitude":139.0377960205078,"category":"美容院","description":"","image_url":""},{"id":12520,"title":"ハイノート前橋店","architect":"SNARK","year":2019.0,"address":"群馬県前橋市朝日町3-28-3","latitude":36.38773727416992,"longitude":139.08621215820312,"category":"店舗","description":"","image_url":""},{"id":12521,"title":"渋川の家 ヘアサロン モギ","architect":"SNARK+横尾真","year":2018.0,"address":"群馬県渋川市渋川2537-4","latitude":36.49361801147461,"longitude":139.00115966796875,"category":"住宅/美容院","description":"","image_url":""},{"id":12522,"title":"わびさびや","architect":"SNARK","year":2012.0,"address":"群馬県桐生市新宿3-4-49","latitude":36.39392852783203,"longitude":139.3446502685547,"category":"カフェ/店舗/住宅","description":"","image_url":""},{"id":12523,"title":"House in Shinto バーバーショップ ヒダズ","architect":"SNARK+横尾真","year":2014.0,"address":"群馬県北群馬郡榛東村新井2416-1","latitude":36.425628662109375,"longitude":138.99093627929688,"category":"住宅/美容院","description":"","image_url":""},{"id":12524,"title":"カプリス ドゥ モワ","architect":"SNARK","year":2021.0,"address":"群馬県高崎市下滝町566-1","latitude":36.31142807006836,"longitude":139.08251953125,"category":"店舗","description":"","image_url":""},{"id":12525,"title":"茶立玄 山手","architect":"石原愛美","year":2023.0,"address":"広島県尾道市東土堂町9-8","latitude":34.40778732299805,"longitude":133.19845581054688,"category":"店舗","description":"築80年ほどの古民家を改修","image_url":""},{"id":12526,"title":"叢 Tokyo","architect":"谷尻誠","year":2019.0,"address":"東京都世田谷区代田4-3-12","latitude":35.660118103027344,"longitude":139.65826416015625,"category":"店舗","description":"","image_url":""},{"id":12527,"title":"武雄市民体育館 CableOne SPORTS PARK","architect":"谷尻誠+石橋建築事務所","year":2023.0,"address":"佐賀県武雄市武雄町大字武雄4866","latitude":33.19264602661133,"longitude":130.03042602539062,"category":"体育館","description":"","image_url":""},{"id":12528,"title":"ヤマト港南ビル クロネコヤマトミュージアム","architect":"日建設計","year":2019.0,"address":"東京都港区港南2-13-26","latitude":35.62663269042969,"longitude":139.7452392578125,"category":"オフィスビル/博物館","description":"博物館と車路の二重らせん構造","image_url":""},{"id":12529,"title":"ヒノデヒルズ・ニセコビレッジ","architect":"清水建設","year":2019.0,"address":"北海道虻田郡ニセコ町東山温泉","latitude":42.844627380371094,"longitude":140.67515563964844,"category":"ホテル","description":"","image_url":""},{"id":12530,"title":"CHARLES & KEITH 四条河原町店","architect":"デイビッド・チッパーフィールド+小山光","year":2023.0,"address":"京都府京都市下京区四条通寺町東入御旅町24","latitude":35.003868103027344,"longitude":135.7678985595703,"category":"店舗","description":"2023年7月9日オープン予定","image_url":""},{"id":12531,"title":"青野ビル","architect":"長谷川逸子","year":1982.0,"address":"愛媛県松山市千舟町4-3-7","latitude":33.836669921875,"longitude":132.76507568359375,"category":"テナントビル","description":"","image_url":""},{"id":12532,"title":"くぼみアパートメント / 街のポケット","architect":"熊木英雄","year":2023.0,"address":"埼玉県戸田市上戸田2-5-10","latitude":35.81386184692383,"longitude":139.681884765625,"category":"集合住宅","description":"","image_url":""},{"id":12533,"title":"オレンジフラット","architect":"長谷川逸子","year":2000.0,"address":"宮城県仙台市宮城野区鶴巻1-7-38","latitude":38.26435470581055,"longitude":140.96624755859375,"category":"集合住宅","description":"","image_url":""},{"id":12534,"title":"新神戸アパートメント","architect":"長谷川逸子","year":1997.0,"address":"兵庫県神戸市中央区熊内町4-12-4","latitude":34.70574188232422,"longitude":135.19786071777344,"category":"集合住宅","description":"","image_url":""},{"id":12535,"title":"エンハコビル","architect":"熊木英雄","year":2022.0,"address":"埼玉県戸田市上戸田3-2-8","latitude":35.81557846069336,"longitude":139.67599487304688,"category":"テナントビル","description":"","image_url":""},{"id":12536,"title":"学芸大学YK HOUSE","architect":"照井信三","year":1994.0,"address":"東京都目黒区鷹番3-3-16","latitude":35.6286735534668,"longitude":139.68551635742188,"category":"テナントビル/住宅","description":"","image_url":""},{"id":12537,"title":"1/4円弧KOH 南建設社屋","architect":"黒沢隆","year":1987.0,"address":"東京都目黒区中央町1-4-25","latitude":35.629276275634766,"longitude":139.6931915283203,"category":"低層オフィス","description":"","image_url":""},{"id":12538,"title":"旧イデー・ワークステーション","architect":"クライン・ダイサム・アーキテクツ","year":1996.0,"address":"東京都世田谷区下馬1-5-1","latitude":35.6385498046875,"longitude":139.683349609375,"category":"低層オフィス","description":"","image_url":""},{"id":12539,"title":"早見芸術学園1号館","architect":"黒沢隆","year":1992.0,"address":"神奈川県鎌倉市小町1-2-16","latitude":35.317806243896484,"longitude":139.55084228515625,"category":"専門学校","description":"","image_url":""},{"id":12540,"title":"ソラトカゼト 西新井","architect":"永山祐子","year":2022.0,"address":"東京都足立区西新井栄町2-4-10","latitude":35.77617645263672,"longitude":139.7876434326172,"category":"モール","description":"","image_url":""},{"id":12541,"title":"ブランシエスタ大鳥居","architect":"乾久美子+長谷工コーポレーション","year":2023.0,"address":"東京都大田区東糀谷2-13","latitude":35.553955078125,"longitude":139.74044799804688,"category":"集合住宅","description":"共用部インテリア・外装・外構デザイン:乾久美子","image_url":""},{"id":12542,"title":"聖林寺 休み処 聖林茶館","architect":"栗生明+北川・上田総合計画","year":2022.0,"address":"奈良県桜井市下692","latitude":34.49169921875,"longitude":135.851318359375,"category":"カフェ","description":"","image_url":""},{"id":12543,"title":"平川市新本庁舎","architect":"古谷誠章","year":2022.0,"address":"青森県平川市柏木町藤山25-6","latitude":40.58408737182617,"longitude":140.56642150878906,"category":"庁舎","description":"","image_url":""},{"id":12544,"title":"氷見市芸術文化館","architect":"古谷誠章","year":2022.0,"address":"富山県氷見市幸町31-9","latitude":36.85859298706055,"longitude":136.9768524169922,"category":"ホール・劇場","description":"","image_url":""},{"id":12545,"title":"龍谷大学深草キャンパス ミトラ館","architect":"飯田善彦","year":2020.0,"address":"京都府京都市伏見区深草西浦町4-10","latitude":34.96229553222656,"longitude":135.7664794921875,"category":"大学/寮","description":"","image_url":""},{"id":12546,"title":"ぐんぎん尾瀬片品発電所","architect":"團紀彦","year":2023.0,"address":"群馬県利根郡片品村大字土出1318","latitude":36.82124710083008,"longitude":139.24391174316406,"category":"公共施設/工場","description":"2023年秋竣工予定。営業運転は開始している。所在地は合っていると思われるが、車で行くにはかなり険しい道となっているので注意。定期的に見学会が開かれている","image_url":""},{"id":12547,"title":"つるかわ保育園","architect":"アーキヴィジョン広谷スタジオ","year":2020.0,"address":"東京都町田市大蔵町2177-2","latitude":35.58513641357422,"longitude":139.47401428222656,"category":"幼稚園","description":"原広司設計の鶴川幼稚園の建て替え?（確度：低）","image_url":""},{"id":12548,"title":"田辺聖公会マリア礼拝堂","architect":"アーキヴィジョン広谷スタジオ","year":2020.0,"address":"和歌山県田辺市朝日ヶ丘12-26","latitude":33.73368835449219,"longitude":135.3933868408203,"category":"教会","description":"","image_url":""},{"id":12549,"title":"セイカ 未来創造館","architect":"アーキヴィジョン広谷スタジオ","year":2020.0,"address":"和歌山県和歌山市西浜1660-627","latitude":34.2009391784668,"longitude":135.14883422851562,"category":"研究施設","description":"","image_url":""},{"id":12550,"title":"すさみ町多世代交流施設 E'cora","architect":"アーキヴィジョン広谷スタジオ","year":2018.0,"address":"和歌山県西牟婁郡すさみ町周参見2341","latitude":33.55434036254883,"longitude":135.495849609375,"category":"公民館・交流施設","description":"","image_url":""}]}