{"page":124,"total_pages":290,"items_per_page":50,"total_items":14467,"items":[{"id":6151,"title":"C Clinic セイコメディカルビューティークリニック","architect":"中原祐二","year":2011.0,"address":"鹿児島県鹿児島市泉町5-1","latitude":31.59384536743164,"longitude":130.55828857421875,"category":"個人医院","description":"","image_url":""},{"id":6152,"title":"N Dental Clinic のうみ矯正歯科医院","architect":"中原祐二","year":null,"address":"鹿児島県鹿児島市郡元2-17-6","latitude":31.56005859375,"longitude":130.5465087890625,"category":"個人医院","description":"","image_url":""},{"id":6153,"title":"山形屋百貨店","architect":"斉藤久季","year":1916.0,"address":"鹿児島県鹿児島市金生町10-3-1","latitude":31.593189239501953,"longitude":130.55702209472656,"category":"モール/店舗","description":"","image_url":""},{"id":6154,"title":"鹿児島県立甲南高等学校 旧鹿児島県立第二鹿児島中学校","architect":"三上昇","year":1930.0,"address":"鹿児島県鹿児島市上之園町23-1","latitude":31.579206466674805,"longitude":130.54705810546875,"category":"学校","description":"","image_url":""},{"id":6155,"title":"淡路の工場 プライミクス本社・工場・乳化分散技術研究所","architect":"谷尻誠","year":2015.0,"address":"兵庫県淡路市夢舞台1-38","latitude":34.57229232788086,"longitude":135.0170135498047,"category":"低層オフィス/工場/研究施設","description":"","image_url":""},{"id":6156,"title":"淡路の社員寮","architect":"谷尻誠","year":2015.0,"address":"兵庫県淡路市夢舞台1-38","latitude":34.571109771728516,"longitude":135.0159912109375,"category":"寮","description":"","image_url":""},{"id":6157,"title":"壬生歯科医院","architect":"谷尻誠","year":2012.0,"address":"東京都府中市本宿町4-24-4","latitude":35.68003463745117,"longitude":139.45956420898438,"category":"個人医院","description":"","image_url":""},{"id":6158,"title":"WM 広島 アルファロメオ/フィアット広島","architect":"谷尻誠","year":2006.0,"address":"広島県広島市西区庚午中1-19-19","latitude":34.383087158203125,"longitude":132.41465759277344,"category":"店舗","description":"","image_url":""},{"id":6159,"title":"仁保の店舗 カフェ ガルエ","architect":"谷尻誠","year":2005.0,"address":"広島県広島市南区仁保4-5-10","latitude":34.36299133300781,"longitude":132.49789428710938,"category":"カフェ","description":"","image_url":""},{"id":6160,"title":"REGOビル","architect":"谷尻誠","year":2002.0,"address":"広島県広島市中区中町1-4","latitude":34.39040756225586,"longitude":132.4607696533203,"category":"テナントビル","description":"","image_url":""},{"id":6161,"title":"沼袋の集合住宅 La Torretta","architect":"谷尻誠","year":2012.0,"address":"東京都中野区沼袋2-37-1","latitude":35.72377014160156,"longitude":139.66525268554688,"category":"集合住宅","description":"","image_url":""},{"id":6162,"title":"おばんざい乙屋","architect":"谷尻誠","year":2003.0,"address":"広島県三次市十日市東1-11-27","latitude":34.80621337890625,"longitude":132.8579864501953,"category":"バー・居酒屋","description":"","image_url":""},{"id":6163,"title":"東広島の共同住宅 ラ・テラス","architect":"谷尻誠","year":2006.0,"address":"広島県東広島市三永3-17-25","latitude":34.390445709228516,"longitude":132.76467895507812,"category":"カフェ/集合住宅","description":"","image_url":""},{"id":6164,"title":"宮崎国際空港カントリークラブハウス","architect":"吉松秀樹","year":1988.0,"address":"宮崎県宮崎市田野町乙5030-2","latitude":31.829877853393555,"longitude":131.26205444335938,"category":"クラブハウス","description":"","image_url":""},{"id":6165,"title":"みなと交流センター はーばりー","architect":"原広司","year":2015.0,"address":"愛媛県今治市片原町1-1-27","latitude":34.06952667236328,"longitude":133.00502014160156,"category":"港/複合施設","description":"","image_url":""},{"id":6166,"title":"宇奈月温泉総湯 湯めどころ宇奈月","architect":"ofa","year":2016.0,"address":"富山県黒部市宇奈月温泉256-11","latitude":36.81631851196289,"longitude":137.582763671875,"category":"温泉/観光施設","description":"","image_url":""},{"id":6167,"title":"電通テック本社ビル","architect":"丹下健三","year":1967.0,"address":"東京都中央区築地1-11-1","latitude":35.66915512084961,"longitude":139.77047729492188,"category":"オフィスビル","description":"","image_url":""},{"id":6168,"title":"クローバーハウス クローバーインターナショナルスクール","architect":"MADアーキテクツ","year":2015.0,"address":"愛知県岡崎市福岡町菱田56-6","latitude":34.900718688964844,"longitude":137.1547393798828,"category":"幼稚園/住宅","description":"","image_url":""},{"id":6169,"title":"宮古市崎山貝塚縄文の森ミュージアム","architect":"アトリエノルド","year":2016.0,"address":"岩手県宮古市崎山第1地割16-1","latitude":39.67412567138672,"longitude":141.9598846435547,"category":"博物館","description":"","image_url":""},{"id":6170,"title":"道の駅 石神の丘","architect":"アトリエノルド","year":2002.0,"address":"岩手県岩手郡岩手町五日市10-121-20","latitude":39.968421936035156,"longitude":141.21363830566406,"category":"PA・道の駅","description":"2008年にアトリエノルド設計で増築棟竣工","image_url":""},{"id":6171,"title":"山形村 ふるさと物産センター","architect":"アトリエノルド","year":1993.0,"address":"岩手県久慈市山形町川井第8地割12-1","latitude":40.15079879760742,"longitude":141.57351684570312,"category":"PA・道の駅","description":"","image_url":""},{"id":6172,"title":"南郷図書館","architect":"アトリエノルド","year":2004.0,"address":"青森県八戸市南郷大字市野沢中市野沢39-1","latitude":40.404476165771484,"longitude":141.4320831298828,"category":"図書館","description":"","image_url":""},{"id":6173,"title":"八戸工業大学 メディアセンター","architect":"アトリエノルド","year":2010.0,"address":"青森県八戸市妙大開88-1","latitude":40.47993469238281,"longitude":141.5634765625,"category":"大学","description":"","image_url":""},{"id":6174,"title":"さとうみステーション","architect":"o+h+陶器浩一","year":2014.0,"address":"宮城県気仙沼市本吉町野々下163-5","latitude":38.82059860229492,"longitude":141.57322692871094,"category":"店舗","description":"ENEOSのガソリンスタンド","image_url":""},{"id":6175,"title":"竹の会所","architect":"陶器浩一","year":2011.0,"address":"宮城県気仙沼市本吉町田の沢110","latitude":38.80799865722656,"longitude":141.55430603027344,"category":"公民館・交流施設","description":"","image_url":""},{"id":6176,"title":"ハナファームキッチン","architect":"小島光晴","year":2012.0,"address":"埼玉県本庄市本庄3-7-47","latitude":36.242000579833984,"longitude":139.1939697265625,"category":"レストラン","description":"","image_url":""},{"id":6177,"title":"すみれチャイルド","architect":"慶野正司","year":2014.0,"address":"栃木県小山市駅南町3-22-3","latitude":36.303470611572266,"longitude":139.81369018554688,"category":"幼稚園","description":"","image_url":""},{"id":6178,"title":"maoデンタルクリニック","architect":"慶野正司","year":2014.0,"address":"茨城県坂東市沓掛1602-1","latitude":36.10279846191406,"longitude":139.89601135253906,"category":"個人医院","description":"","image_url":""},{"id":6179,"title":"NanZ VILLAGE","architect":"安藤泰","year":2015.0,"address":"静岡県下田市1-6-18","latitude":34.677059173583984,"longitude":138.94589233398438,"category":"モール/店舗","description":"","image_url":""},{"id":6180,"title":"おりづるタワー","architect":"三分一博志","year":2016.0,"address":"広島県広島市中区大手町1-2-1","latitude":34.39567184448242,"longitude":132.45465087890625,"category":"オフィスビル/展望台/テナントビル","description":"","image_url":""},{"id":6181,"title":"辰巳アパートメントハウス","architect":"伊藤博之","year":2016.0,"address":"東京都江東区門前仲町1-13-13","latitude":35.673221588134766,"longitude":139.79515075683594,"category":"集合住宅","description":"","image_url":""},{"id":6182,"title":"CASA ESPIRAL","architect":"佐藤森","year":2016.0,"address":"兵庫県西宮市上大市1-10-9","latitude":34.76591110229492,"longitude":135.35987854003906,"category":"集合住宅","description":"","image_url":""},{"id":6183,"title":"色麻町農業伝習館","architect":"杉浦伝宗","year":1993.0,"address":"宮城県加美郡色麻町四竃東原1-40","latitude":38.53031539916992,"longitude":140.8656005859375,"category":"公民館・交流施設/体験施設","description":"","image_url":""},{"id":6184,"title":"トヨシキ・ワールド・アパートメント","architect":"アトリエ・ワン","year":2015.0,"address":"千葉県柏市豊四季148-35","latitude":35.86656188964844,"longitude":139.93789672851562,"category":"集合住宅","description":"","image_url":""},{"id":6185,"title":"釜石市大町復興住宅1号","architect":"千葉学+大和ハウス工業","year":2016.0,"address":"岩手県釜石市大町3-9-10","latitude":39.275360107421875,"longitude":141.8816375732422,"category":"集合住宅","description":"","image_url":""},{"id":6186,"title":"釜石市天神復興住宅","architect":"千葉学+大和ハウス工業","year":2016.0,"address":"岩手県釜石市天神町5","latitude":39.276947021484375,"longitude":141.88430786132812,"category":"集合住宅","description":"","image_url":""},{"id":6187,"title":"岩沼市玉浦西災害公営住宅B-1地区","architect":"手島浩之","year":2015.0,"address":"宮城県岩沼市玉浦西1","latitude":38.109535217285156,"longitude":140.89492797851562,"category":"都市計画/住宅","description":"","image_url":""},{"id":6188,"title":"矢吹町中町第一災害公営住宅","architect":"スタジオ・クハラ・ヤギ+team Timberize","year":2016.0,"address":"福島県西白河郡矢吹町中町332","latitude":37.20263671875,"longitude":140.326171875,"category":"都市計画/集合住宅","description":"","image_url":""},{"id":6189,"title":"矢吹町中町第二災害公営住宅","architect":"岩堀未来+倉本剛+長尾亜子+野上恵子","year":2016.0,"address":"福島県西白河郡矢吹町中町168","latitude":37.202964782714844,"longitude":140.32424926757812,"category":"都市計画/集合住宅","description":"","image_url":""},{"id":6190,"title":"パッシブタウン第1期街区","architect":"エステック計画研究所","year":2016.0,"address":"富山県黒部市三日市茅堂4016","latitude":36.87715148925781,"longitude":137.44619750976562,"category":"都市計画/住宅","description":"","image_url":""},{"id":6191,"title":"住友不動産 新宿ガーデンタワー","architect":"日建設計","year":2016.0,"address":"東京都新宿区大久保3-8-1","latitude":35.70775604248047,"longitude":139.70327758789062,"category":"オフィスビル","description":"","image_url":""},{"id":6192,"title":"リージア代田テラス","architect":"スピーク","year":2016.0,"address":"東京都世田谷区代田3-57-12","latitude":35.65752029418945,"longitude":139.65892028808594,"category":"都市計画/住宅","description":"","image_url":""},{"id":6193,"title":"コルネ","architect":"石田敏明","year":2016.0,"address":"東京都目黒区上目黒1-13-9 ","latitude":35.64582443237305,"longitude":139.69906616210938,"category":"集合住宅","description":"","image_url":""},{"id":6194,"title":"中野薫木荘","architect":"浅利幸男","year":2016.0,"address":"東京都中野区中野5-21-5","latitude":35.707725524902344,"longitude":139.6710662841797,"category":"集合住宅","description":"","image_url":""},{"id":6195,"title":"プロト・パッソ","architect":"納谷建築設計事務所","year":2016.0,"address":"東京都中野区新井4-18-11","latitude":35.71662521362305,"longitude":139.66818237304688,"category":"集合住宅","description":"","image_url":""},{"id":6196,"title":"スクエアガーデン池袋","architect":"甲村健一","year":2015.0,"address":"東京都豊島区南池袋1-15-23","latitude":35.72483825683594,"longitude":139.70883178710938,"category":"集合住宅","description":"","image_url":""},{"id":6197,"title":"坐忘林","architect":"中山眞琴","year":2015.0,"address":"北海道虻田郡倶知安町花園76-4","latitude":42.90448760986328,"longitude":140.67718505859375,"category":"旅館","description":"","image_url":""},{"id":6198,"title":"星野リゾート 界 鬼怒川","architect":"今村幹+東出明","year":2015.0,"address":"栃木県日光市鬼怒川温泉滝308","latitude":36.82842254638672,"longitude":139.71566772460938,"category":"旅館","description":"","image_url":""},{"id":6199,"title":"裏磐梯のホテル ホテリ・アアルト","architect":"益子義弘+河合俊和+大竹慎太郎","year":2009.0,"address":"福島県耶麻郡北塩原村大字檜原大府平1073-153","latitude":37.65095901489258,"longitude":140.09791564941406,"category":"ホテル","description":"2019年6月に客室棟、ラウンジ棟を増築。設計は益子義弘","image_url":""},{"id":6200,"title":"道後温泉 うめ乃や","architect":"武智和臣","year":1994.0,"address":"愛媛県松山市上市2-8-9","latitude":33.84941864013672,"longitude":132.78794860839844,"category":"旅館","description":"","image_url":""}]}