{"page":267,"total_pages":290,"items_per_page":50,"total_items":14467,"items":[{"id":13301,"title":"ATVKマクセルブース クセがあるスタジオ","architect":"kvalito","year":2024.0,"address":"京都府乙訓郡大山崎町字大山崎小字鏡田30-1","latitude":34.899131774902344,"longitude":135.69029235839844,"category":"企業施設","description":"","image_url":""},{"id":13302,"title":"氷とお芋の専門店 らんらん","architect":"kvalito","year":2022.0,"address":"大阪府茨木市真砂1-7-25","latitude":34.79912185668945,"longitude":135.57598876953125,"category":"カフェ","description":"","image_url":""},{"id":13303,"title":"川西市黒川里山センター","architect":"エキスポ+木村松本建築設計事務所+山口陽登","year":2024.0,"address":"兵庫県川西市黒川谷垣内295","latitude":34.92721176147461,"longitude":135.4398651123047,"category":"公民館・交流施設/体験施設","description":"","image_url":""},{"id":13304,"title":"神前の家族葬会館 家族葬のゲートハウス神前","architect":"神出顕徳","year":2023.0,"address":"和歌山県和歌山市神前192-1","latitude":34.216121673583984,"longitude":135.2049560546875,"category":"斎場","description":"","image_url":""},{"id":13305,"title":"北参道テラス","architect":"Noiz Architects","year":2023.0,"address":"東京都渋谷区千駄ヶ谷4-15-11","latitude":35.679935455322266,"longitude":139.70774841308594,"category":"オフィスビル","description":"","image_url":""},{"id":13306,"title":"さいたま市岩槻人形博物館・にぎわい交流館いわつき","architect":"東畑建築事務所","year":2019.0,"address":"埼玉県さいたま市岩槻区本町6-1-1","latitude":35.9508171081543,"longitude":139.69996643066406,"category":"博物館/公民館・交流施設/カフェ","description":"","image_url":""},{"id":13307,"title":"元町館","architect":"今井孝之","year":1986.0,"address":"東京都文京区本郷2-3-15","latitude":35.70269775390625,"longitude":139.75927734375,"category":"集合住宅","description":"","image_url":""},{"id":13308,"title":"国営ひたち海浜公園 西口 翼のゲート","architect":"今井孝之","year":1990.0,"address":"茨城県ひたちなか市馬渡字大沼605-4","latitude":36.401695251464844,"longitude":140.5916748046875,"category":"公園","description":"","image_url":""},{"id":13309,"title":"アルテリアデザインスタジオ","architect":"鈴木エドワード","year":1986.0,"address":"東京都渋谷区代々木4-34-3","latitude":35.68144989013672,"longitude":139.69003295898438,"category":"低層オフィス","description":"","image_url":""},{"id":13310,"title":"ゲストハウス積凪","architect":"しわく堂","year":2021.0,"address":"香川県三豊市詫間町積586-1","latitude":34.24839782714844,"longitude":133.61253356933594,"category":"コテージ","description":"二棟のゲストハウス、一棟貸しヴィラ","image_url":""},{"id":13311,"title":"海辺の珈琲研究所　豆豆豆","architect":"しわく堂","year":2023.0,"address":"香川県三豊市仁尾町仁尾乙172-1","latitude":34.186683654785156,"longitude":133.64979553222656,"category":"カフェ/工場","description":"","image_url":""},{"id":13312,"title":"築港スタンド/HOTELいりこ寮","architect":"しわく堂","year":2023.0,"address":"香川県観音寺市港町2-9-31","latitude":34.12690734863281,"longitude":133.64028930664062,"category":"カフェ","description":"","image_url":""},{"id":13313,"title":"HOTELいりこ寮","architect":"しわく堂","year":2023.0,"address":"香川県観音寺市港町2-9-31","latitude":34.12690734863281,"longitude":133.64019775390625,"category":"ホテル","description":"","image_url":""},{"id":13314,"title":"とうふのお店　カンショク","architect":"しわく堂","year":2021.0,"address":"香川県観音寺市柞田町甲1153-1","latitude":34.11404037475586,"longitude":133.66477966308594,"category":"店舗","description":"","image_url":""},{"id":13315,"title":"クーベル","architect":"しわく堂","year":2020.0,"address":"香川県三豊市仁尾町仁尾乙165-1","latitude":34.18574523925781,"longitude":133.64962768554688,"category":"ホステル","description":"","image_url":""},{"id":13316,"title":"Mittan","architect":"しわく堂","year":2019.0,"address":"愛媛県松山市神田町3-41","latitude":33.86109924316406,"longitude":132.7165985107422,"category":"コテージ","description":"一棟貸し","image_url":""},{"id":13317,"title":"ルンビニー幼稚園","architect":"谷口吉生","year":1998.0,"address":"東京都葛飾区柴又7-10-30","latitude":35.7587890625,"longitude":139.87965393066406,"category":"幼稚園","description":"","image_url":""},{"id":13318,"title":"広島銀行十日市支店・ひろぎん証券三次支店","architect":"竹中工務店","year":2023.0,"address":"広島県三次市十日市中2-13-26","latitude":34.80659484863281,"longitude":132.8500518798828,"category":"金融機関","description":"","image_url":""},{"id":13319,"title":"京都湾処","architect":"松村一輝","year":2022.0,"address":"京都府京都市東山区北棟梁町311-1","latitude":34.99405288696289,"longitude":135.77069091796875,"category":"カフェ","description":"","image_url":""},{"id":13320,"title":"フレンチバルK","architect":"植村康平","year":2023.0,"address":"愛知県名古屋市東区泉1-18-17","latitude":35.175575256347656,"longitude":136.91281127929688,"category":"レストラン","description":"","image_url":""},{"id":13321,"title":"おがわ食堂","architect":"ウエノアトリエ","year":2021.0,"address":"埼玉県比企郡小川町大塚45-7","latitude":36.056854248046875,"longitude":139.26065063476562,"category":"レストラン","description":"築80年の店舗併用住宅を改修","image_url":""},{"id":13322,"title":"彌榮自動車 ヤサカグループ本社屋","architect":"富家宏泰","year":1959.0,"address":"京都府京都市下京区中堂寺櫛笥町1","latitude":34.996543884277344,"longitude":135.7462615966797,"category":"低層オフィス","description":"","image_url":""},{"id":13323,"title":"東京海上日動東日本研修センター","architect":"鹿島建設","year":1994.0,"address":"栃木県下野市緑1-5-1","latitude":36.3880615234375,"longitude":139.8538818359375,"category":"研修施設","description":"","image_url":""},{"id":13324,"title":"FIL cream","architect":"ウエノアトリエ","year":2023.0,"address":"東京都渋谷区千駄ヶ谷1-12-4 松田ビル1F","latitude":35.67721176147461,"longitude":139.71127319335938,"category":"カフェ/店舗","description":"","image_url":""},{"id":13325,"title":"福山東警察署駅前交番","architect":"メグロ建築研究所","year":2023.0,"address":"広島県福山市三之丸町30-1","latitude":34.488826751708984,"longitude":133.3612518310547,"category":"警察・消防署","description":"","image_url":""},{"id":13326,"title":"きさぬき動物病院","architect":"宇住庵設計","year":2005.0,"address":"鹿児島県鹿屋市札元2-3800-3","latitude":31.400394439697266,"longitude":130.8721466064453,"category":"個人医院","description":"","image_url":""},{"id":13327,"title":"ニュートンプレイス","architect":"隈研吾+長谷工コーポレーション","year":2003.0,"address":"東京都江東区塩浜1-4-33","latitude":35.661468505859375,"longitude":139.8009033203125,"category":"集合住宅","description":"ファサード・パブリックスペース・ランドスケープデザイン監修：隈研吾","image_url":""},{"id":13328,"title":"コモレビヘアサロン","architect":"トミトアーキテクチャ","year":2023.0,"address":"長野県長野市松代町東条3112-1","latitude":36.55967330932617,"longitude":138.20816040039062,"category":"美容院","description":"","image_url":""},{"id":13329,"title":"ナミワケ荘 社会福祉法人ライフの学校 霞目キャンパス","architect":"トミトアーキテクチャ","year":2023.0,"address":"宮城県仙台市若林区霞目2-14-26","latitude":38.23534393310547,"longitude":140.92800903320312,"category":"カフェ/寮","description":"","image_url":""},{"id":13330,"title":"JR長崎駅ビル アミュプラザ長崎 新館","architect":"大林組","year":2023.0,"address":"長崎県長崎市尾上町1-1","latitude":32.752288818359375,"longitude":129.87034606933594,"category":"テナントビル/ホテル","description":"","image_url":""},{"id":13331,"title":"篠原ビル II","architect":"隈研吾+篠原聡子","year":1990.0,"address":"千葉県東金市東岩崎6-1","latitude":35.55946731567383,"longitude":140.36407470703125,"category":"テナントビル","description":"","image_url":""},{"id":13332,"title":"らーめん和屋","architect":"植村康平","year":2019.0,"address":"愛知県知多郡美浜町奥田森越81-1","latitude":34.78758239746094,"longitude":136.86439514160156,"category":"レストラン","description":"知多奥田駅の高架下にあるラーメン屋","image_url":""},{"id":13333,"title":"鳥取県立美術館","architect":"槇文彦","year":2024.0,"address":"鳥取県倉吉市駄経寺町2-3-9","latitude":35.43244171142578,"longitude":133.83872985839844,"category":"美術館","description":"2025年3月オープン予定。建築は竣工","image_url":""},{"id":13334,"title":"SHIRAHAMA KEY TERRACE HOTEL SEAMORE 旧ホテルシーモア","architect":"富家宏泰","year":1967.0,"address":"和歌山県西牟婁郡白浜町1821","latitude":33.675987243652344,"longitude":135.33738708496094,"category":"ホテル","description":"2018年3月大規模リニューアル","image_url":""},{"id":13335,"title":"福岡銀行 奈良屋町支店","architect":"浦辺鎮太郎","year":1974.0,"address":"福岡県福岡市博多区奈良屋町1-11","latitude":33.59850311279297,"longitude":130.4066925048828,"category":"金融機関","description":"","image_url":""},{"id":13336,"title":"狭山樹林葬地","architect":"中村拓志","year":2022.0,"address":"埼玉県所沢市上山口2050","latitude":35.77062225341797,"longitude":139.42579650878906,"category":"霊園/オブジェ","description":"","image_url":""},{"id":13337,"title":"神戸市西神中央駅前 休憩スポット プレンティ広場 グリーンルーフ","architect":"畑友洋+津川恵理","year":2024.0,"address":"兵庫県神戸市西区糀台5-4-1","latitude":34.71947479248047,"longitude":135.0180206298828,"category":"広場","description":"グリーンルーフ（屋根部分）の設計を畑友洋、屋根下のベンチの設計を津川恵理が手がけていると思われる","image_url":""},{"id":13338,"title":"トイレトワ","architect":"遠野未来","year":2023.0,"address":"埼玉県入間郡三芳町上富1589-2","latitude":35.837345123291016,"longitude":139.4800567626953,"category":"トイレ","description":"","image_url":""},{"id":13339,"title":"霧島神宮駅","architect":"水戸岡鋭治+川口琢磨","year":2004.0,"address":"鹿児島県霧島市霧島大窪465","latitude":31.818767547607422,"longitude":130.83673095703125,"category":"駅","description":"2004年水戸岡鋭治によりリニューアル。2024年川口琢磨により改修","image_url":""},{"id":13340,"title":"レ・ジェイド京都四条大宮","architect":"岸和郎","year":2022.0,"address":"京都府京都市下京区四条通猪熊西入立中町487","latitude":35.00379180908203,"longitude":135.7498321533203,"category":"集合住宅","description":"","image_url":""},{"id":13341,"title":"東京バーティカルレインボー グリックビル","architect":"迫慶一郎","year":2019.0,"address":"東京都豊島区南池袋2-30-16","latitude":35.72697067260742,"longitude":139.7161102294922,"category":"オフィスビル","description":"","image_url":""},{"id":13342,"title":"佐世保ホワイトホエール 御船保育園","architect":"迫慶一郎","year":2020.0,"address":"長崎県佐世保市御船町1-13","latitude":33.16782760620117,"longitude":129.70672607421875,"category":"幼稚園","description":"","image_url":""},{"id":13343,"title":"諫早ホライズン アメイズ諫早城見町パーク&リバーサイド","architect":"迫慶一郎","year":2023.0,"address":"長崎県諫早市城見町20-18","latitude":32.84659957885742,"longitude":130.05078125,"category":"集合住宅","description":"","image_url":""},{"id":13344,"title":"慈眼寺駅","architect":"水戸岡鋭治","year":2016.0,"address":"鹿児島県鹿児島市慈眼寺町1","latitude":31.51694679260254,"longitude":130.50588989257812,"category":"駅","description":"","image_url":""},{"id":13345,"title":"谷山駅","architect":"水戸岡鋭治","year":2016.0,"address":"鹿児島県鹿児島市谷山中央1-4127","latitude":31.526838302612305,"longitude":130.51853942871094,"category":"駅","description":"","image_url":""},{"id":13346,"title":"上熊本駅","architect":"水戸岡鋭治","year":2015.0,"address":"熊本県熊本市西区上熊本2-18","latitude":32.81806945800781,"longitude":130.69932556152344,"category":"駅","description":"","image_url":""},{"id":13347,"title":"大分駅","architect":"水戸岡鋭治","year":2012.0,"address":"大分県大分市要町1-14","latitude":33.2331657409668,"longitude":131.6063995361328,"category":"駅","description":"","image_url":""},{"id":13348,"title":"みやうちウィメンズクリニック 旧衛藤クリニック","architect":"磯崎新","year":1981.0,"address":"大分県杵築市杵築665-501","latitude":33.41923904418945,"longitude":131.62918090820312,"category":"個人医院","description":"クリニックは閉業とある","image_url":""},{"id":13349,"title":"北九州市立美術館 アネックス","architect":"磯崎新","year":1987.0,"address":"福岡県北九州市戸畑区西鞘ケ谷町21-1","latitude":33.87042236328125,"longitude":130.827392578125,"category":"美術館","description":"","image_url":""},{"id":13350,"title":"岩田学園 体育館","architect":"磯崎新","year":1985.0,"address":"大分県大分市岩田町1-1","latitude":33.236995697021484,"longitude":131.62535095214844,"category":"学校/体育館","description":"","image_url":""}]}