{"page":278,"total_pages":290,"items_per_page":50,"total_items":14467,"items":[{"id":13851,"title":"劇団四季新芸術センター本館","architect":"三菱地所","year":2006.0,"address":"神奈川県横浜市青葉区あざみ野1-24-7","latitude":35.56946563720703,"longitude":139.54888916015625,"category":"低層オフィス","description":"","image_url":""},{"id":13852,"title":"エトモあざみ野","architect":"吉田裕一+交建設計","year":2019.0,"address":"神奈川県横浜市青葉区あざみ野2-1-1","latitude":35.56821060180664,"longitude":139.55331420898438,"category":"モール","description":"","image_url":""},{"id":13853,"title":"ゆうゆうのもり幼稚園","architect":"仙田満","year":2005.0,"address":"神奈川県横浜市都筑区早渕2-3-77","latitude":35.54494857788086,"longitude":139.59913635253906,"category":"幼稚園","description":"","image_url":""},{"id":13854,"title":"横浜市立早渕中学校","architect":"湯澤正信","year":2008.0,"address":"神奈川県横浜市都筑区早渕2-4-1","latitude":35.544620513916016,"longitude":139.59732055664062,"category":"学校","description":"","image_url":""},{"id":13855,"title":"IEC横浜支店","architect":"鵜飼哲矢","year":2015.0,"address":"神奈川県横浜市都筑区茅ケ崎東4-6-15","latitude":35.54636001586914,"longitude":139.57862854003906,"category":"低層オフィス","description":"","image_url":""},{"id":13856,"title":"神奈川県遊技場協同組合会館","architect":"寒竹伸一","year":1994.0,"address":"神奈川県横浜市神奈川区鶴屋町1-6-10","latitude":35.46900939941406,"longitude":139.62350463867188,"category":"組合施設","description":"","image_url":""},{"id":13857,"title":"クレイン ヨコハマ","architect":"小泉雅生","year":2010.0,"address":"神奈川県横浜市神奈川区鶴屋町2-15-3","latitude":35.4679069519043,"longitude":139.62307739257812,"category":"テナントビル","description":"","image_url":""},{"id":13858,"title":"コンカード横浜","architect":"矢萩喜從郎+大成建設","year":2008.0,"address":"神奈川県横浜市神奈川区金港町3-1","latitude":35.468292236328125,"longitude":139.6270294189453,"category":"オフィスビル","description":"","image_url":""},{"id":13859,"title":"横浜市動物愛護センター","architect":"湯澤正信","year":2011.0,"address":"神奈川県横浜市神奈川区菅田町75-4","latitude":35.49591827392578,"longitude":139.57020568847656,"category":"公共施設","description":"","image_url":""},{"id":13860,"title":"トトロ幼稚舎","architect":"小林克弘","year":1997.0,"address":"神奈川県横浜市磯子区杉田3-22-44","latitude":35.378360748291016,"longitude":139.61343383789062,"category":"幼稚園","description":"","image_url":""},{"id":13861,"title":"横浜療育医療センター 増築","architect":"湯澤正信","year":2003.0,"address":"神奈川県横浜市旭区市沢町557-2","latitude":35.45640182495117,"longitude":139.56390380859375,"category":"病院","description":"","image_url":""},{"id":13862,"title":"関東学院のびのびのば園","architect":"湯澤正信","year":2014.0,"address":"神奈川県横浜市港南区野庭町617-2","latitude":35.39158630371094,"longitude":139.56748962402344,"category":"幼稚園","description":"","image_url":""},{"id":13863,"title":"横浜市立蒔田小学校","architect":"坂本鹿名夫","year":1958.0,"address":"神奈川県横浜市南区蒔田町1020","latitude":35.426151275634766,"longitude":139.6128692626953,"category":"学校","description":"","image_url":""},{"id":13864,"title":"大岡プロムナード","architect":"中村勉","year":1982.0,"address":"神奈川県横浜市南区大橋町3-62","latitude":35.424842834472656,"longitude":139.60044860839844,"category":"公園","description":"","image_url":""},{"id":13865,"title":"南消防署蒔田消防出張所","architect":"湯澤正信","year":2015.0,"address":"神奈川県横浜市南区宿町3-54-5","latitude":35.431026458740234,"longitude":139.6095733642578,"category":"警察・消防署","description":"","image_url":""},{"id":13866,"title":"總持寺 大祖堂","architect":"田辺泰","year":1965.0,"address":"神奈川県横浜市鶴見区寺谷1-1-15","latitude":35.507774353027344,"longitude":139.670654296875,"category":"寺院","description":"","image_url":""},{"id":13867,"title":"早川取水堰堤","architect":"山口文象","year":1936.0,"address":"神奈川県足柄下郡箱根町湯本","latitude":35.23263168334961,"longitude":139.09852600097656,"category":"公共施設/産業遺産","description":"","image_url":""},{"id":13868,"title":"東京国立近代美術館フィルムセンター相模原分館 映画保存棟Ⅲ","architect":"安井建築設計","year":2014.0,"address":"神奈川県相模原市中央区高根3-1-4","latitude":35.55997848510742,"longitude":139.39366149902344,"category":"博物館","description":"","image_url":""},{"id":13869,"title":"明治記念大磯邸園 西園寺公望別邸跡・旧池田成彬邸","architect":"中條精一郎","year":1932.0,"address":"神奈川県中郡大磯町西小磯295","latitude":35.306602478027344,"longitude":139.3034210205078,"category":"洋館","description":"","image_url":""},{"id":13870,"title":"横浜第二合同庁舎 旧生糸検査所","architect":"遠藤於菟","year":1926.0,"address":"神奈川県横浜市中区北仲通5-57","latitude":35.45014953613281,"longitude":139.63722229003906,"category":"庁舎/洋館","description":"1993年6月に取壊し後、外観のみ同じデザインで復元。設計は建設省関東地方局営繕部","image_url":""},{"id":13871,"title":"勧行寺 客殿","architect":"茂木計一郎","year":1965.0,"address":"神奈川県横浜市西区南軽井沢9","latitude":35.46986770629883,"longitude":139.6146697998047,"category":"寺院","description":"","image_url":""},{"id":13872,"title":"テラストリコロール","architect":"矢萩喜從郎","year":1995.0,"address":"東京都日野市程久保8-13-3","latitude":35.65494918823242,"longitude":139.4091033935547,"category":"集合住宅","description":"","image_url":""},{"id":13873,"title":"エバーフィールド木材加工場","architect":"小川次郎+kittan studio+池田聖太","year":2023.0,"address":"熊本県上益城郡甲佐町府領892","latitude":32.70602035522461,"longitude":130.75631713867188,"category":"工場","description":"","image_url":""},{"id":13874,"title":"広川幼稚園 トコトコはうす","architect":"藤村龍至+林田俊二","year":2019.0,"address":"福岡県八女郡広川町新代616","latitude":33.24271011352539,"longitude":130.5453643798828,"category":"幼稚園","description":"","image_url":""},{"id":13875,"title":"緑町保育園","architect":"藤村龍至","year":2019.0,"address":"千葉県千葉市稲毛区緑町2-22-1","latitude":35.623260498046875,"longitude":140.09548950195312,"category":"幼稚園","description":"","image_url":""},{"id":13876,"title":"東峰村水源の森交流館","architect":"藤村龍至+林田俊二","year":2021.0,"address":"福岡県朝倉郡東峰村小石原868-1","latitude":33.464725494384766,"longitude":130.8291015625,"category":"研修施設/レストラン","description":"運営会社が破産し、現在閉館中?","image_url":""},{"id":13877,"title":"一本松遊水公園キャンプ場トイレ","architect":"藤村龍至","year":2020.0,"address":"福岡県糟屋郡宇美町宇美正楽3-3","latitude":33.55942916870117,"longitude":130.5530242919922,"category":"トイレ","description":"","image_url":""},{"id":13878,"title":"AQ Group本社屋","architect":"野沢正光","year":2024.0,"address":"埼玉県さいたま市西区三橋5-976-1","latitude":35.908695220947266,"longitude":139.59432983398438,"category":"オフィスビル","description":"","image_url":""},{"id":13879,"title":"OS meliaビル","architect":"ブルースタジオ","year":2024.0,"address":"東京都中野区東中野1-55-4","latitude":35.706016540527344,"longitude":139.68478393554688,"category":"オフィスビル","description":"","image_url":""},{"id":13880,"title":"全日本海員福祉センター","architect":"野沢正光","year":2022.0,"address":"東京都港区六本木7-15","latitude":35.66259765625,"longitude":139.73033142089844,"category":"オフィスビル/組合施設","description":"","image_url":""},{"id":13881,"title":"海田町役場","architect":"野沢正光","year":2023.0,"address":"広島県安芸郡海田町南昭和町14-17","latitude":34.36637878417969,"longitude":132.5362548828125,"category":"庁舎","description":"","image_url":""},{"id":13882,"title":"無印良品 唐津店","architect":"MUJI HOUSE","year":2024.0,"address":"佐賀県唐津市町田2030-1","latitude":33.43818664550781,"longitude":129.96630859375,"category":"店舗","description":"","image_url":""},{"id":13883,"title":"無印良品 日田店","architect":"MUJI HOUSE","year":2024.0,"address":"大分県日田市庄手648-71","latitude":33.3120002746582,"longitude":130.9232635498047,"category":"店舗","description":"","image_url":""},{"id":13884,"title":"烏森オフィス","architect":"MARU。architecture","year":2023.0,"address":"愛知県名古屋市中川区烏森町四反畑29-3","latitude":35.151912689208984,"longitude":136.86239624023438,"category":"低層オフィス","description":"","image_url":""},{"id":13885,"title":"MARU。architecture上野桜木事務所","architect":"MARU。architecture","year":2019.0,"address":"東京都台東区上野桜木1-4-5","latitude":35.720943450927734,"longitude":139.77256774902344,"category":"低層オフィス","description":"","image_url":""},{"id":13886,"title":"日本大学 工学部ロハス工学センター棟 ロハスの森「ホール」","architect":"はりゅうウッドスタジオ+浦部智義","year":2024.0,"address":"福島県郡山市田村町徳定中河原1","latitude":37.3594856262207,"longitude":140.38119506835938,"category":"大学","description":"","image_url":""},{"id":13887,"title":"さくらんぼこどもキャンパス CLAAPIN SAGAE","architect":"羽田設計事務所+新関謙一郎","year":2024.0,"address":"山形県寒河江市八鍬川原919-6","latitude":38.39874267578125,"longitude":140.26853942871094,"category":"児童施設","description":"","image_url":""},{"id":13888,"title":"西浦駅待合所","architect":"安井秀夫+伊藤隆一 他","year":2024.0,"address":"愛知県蒲郡市西浦町馬々 西浦駅","latitude":34.78990173339844,"longitude":137.1786346435547,"category":"駅","description":"高校生以上の学生を対象にコンペでデザインが選ばれた。デザイン：中野美奈+大月菜子+飯島あゆみ 実施設計：蒲郡市役所建設部建築住宅課 設計監修：安井秀夫+伊藤隆一","image_url":""},{"id":13889,"title":"西蒲田7丁目ビル グレワンビル","architect":"安井秀夫","year":2020.0,"address":"東京都大田区西蒲田7-25-7","latitude":35.563663482666016,"longitude":139.71311950683594,"category":"オフィスビル/店舗","description":"","image_url":""},{"id":13890,"title":"キャプテン翼スタジアム垂井","architect":"安井秀夫","year":2018.0,"address":"岐阜県不破郡垂井町笹原1911-1","latitude":35.374900817871094,"longitude":136.53343200683594,"category":"スタジアム","description":"","image_url":""},{"id":13891,"title":"デュフレ代々木公園","architect":"安井秀夫","year":2006.0,"address":"東京都渋谷区富ケ谷1-16-2","latitude":35.666587829589844,"longitude":139.6925811767578,"category":"集合住宅","description":"","image_url":""},{"id":13892,"title":"海岸通り皮ふ科","architect":"安井秀夫","year":2001.0,"address":"愛知県蒲郡市大塚町山ノ沢7-5","latitude":34.80833435058594,"longitude":137.26541137695312,"category":"個人医院","description":"","image_url":""},{"id":13893,"title":"ファム・エ・モード 本店","architect":"安井秀夫","year":1999.0,"address":"秋田県湯沢市大町1-3-52","latitude":39.16110610961914,"longitude":140.4922637939453,"category":"店舗","description":"","image_url":""},{"id":13894,"title":"ラ・シェネガ East","architect":"安井秀夫","year":1998.0,"address":"長野県松本市大手2-2-5","latitude":36.234214782714844,"longitude":137.96726989746094,"category":"店舗","description":"","image_url":""},{"id":13895,"title":"神倉公園公衆便所","architect":"安井秀夫","year":null,"address":"愛知県蒲郡市宝町397","latitude":34.82638931274414,"longitude":137.22369384765625,"category":"トイレ","description":"","image_url":""},{"id":13896,"title":"蒲郡市立形原中学校プール管理棟","architect":"安井秀夫","year":null,"address":"愛知県蒲郡市形原町佃20-1","latitude":34.802040100097656,"longitude":137.18124389648438,"category":"プール","description":"","image_url":""},{"id":13897,"title":"旭公園公衆便所","architect":"安井秀夫","year":null,"address":"愛知県蒲郡市旭町18","latitude":34.82660675048828,"longitude":137.2205352783203,"category":"トイレ","description":"","image_url":""},{"id":13898,"title":"鶴賀電気本社ビル","architect":"安井秀夫","year":1991.0,"address":"神奈川県横浜市港北区新横浜1-29-15","latitude":35.504432678222656,"longitude":139.60826110839844,"category":"オフィスビル","description":"","image_url":""},{"id":13899,"title":"渥美建設 京都本社","architect":"安井秀夫","year":1989.0,"address":"京都府城陽市平川横道70","latitude":34.86561584472656,"longitude":135.77813720703125,"category":"低層オフィス","description":"","image_url":""},{"id":13900,"title":"渥美建設 大阪本社","architect":"安井秀夫","year":1990.0,"address":"大阪府大阪市大正区三軒家西2-3-30","latitude":34.666114807128906,"longitude":135.47467041015625,"category":"低層オフィス","description":"","image_url":""}]}