{"page":266,"total_pages":290,"items_per_page":50,"total_items":14467,"items":[{"id":13251,"title":"ひとやね","architect":"隈研吾","year":2023.0,"address":"岡山県岡山市南区古新田1391","latitude":34.62432861328125,"longitude":133.8778076171875,"category":"展示・会議場/店舗","description":"","image_url":""},{"id":13252,"title":"寝屋川市立望が丘小学校・中学校","architect":"隈研吾+梓設計","year":2024.0,"address":"大阪府寝屋川市打上高塚町4","latitude":34.755367279052734,"longitude":135.64944458007812,"category":"学校","description":"","image_url":""},{"id":13253,"title":"ワーフ六本木","architect":"SALHAUS","year":2024.0,"address":"東京都港区六本木3-8-2","latitude":35.66387939453125,"longitude":139.73440551757812,"category":"テナントビル","description":"","image_url":""},{"id":13254,"title":"おりがみ公園","architect":"栗生明","year":2018.0,"address":"埼玉県比企郡嵐山町菅谷226","latitude":36.039833068847656,"longitude":139.3302001953125,"category":"公園","description":"","image_url":""},{"id":13255,"title":"旧尾崎テオドラ邸","architect":"不明","year":1888.0,"address":"東京都世田谷区豪徳寺2-30-16","latitude":35.650062561035156,"longitude":139.64691162109375,"category":"洋館/カフェ/ギャラリー","description":"1888年麻布に竣工、1933年現在地に移築。田野倉徹也により保存・改修。漫画家の山下和美、笹生那実らによる保存プロジェクト","image_url":""},{"id":13256,"title":"YKK AP 島根","architect":"高松伸","year":1996.0,"address":"島根県松江市玉湯町湯町785-2","latitude":35.43427658081055,"longitude":133.01393127441406,"category":"低層オフィス","description":"","image_url":""},{"id":13257,"title":"The Con-Tour Hatanodai","architect":"神谷修平","year":2023.0,"address":"東京都大田区上池台1-4-6","latitude":35.602474212646484,"longitude":139.69918823242188,"category":"集合住宅","description":"","image_url":""},{"id":13258,"title":"JINS 豊田南店","architect":"岡田宰","year":2024.0,"address":"愛知県豊田市豊栄町6-330","latitude":35.043800354003906,"longitude":137.15444946289062,"category":"店舗","description":"","image_url":""},{"id":13259,"title":"山陽小野田市庁舎","architect":"K構造研究所","year":1963.0,"address":"山口県山陽小野田市日の出1-1-1","latitude":34.00312042236328,"longitude":131.18194580078125,"category":"庁舎","description":"","image_url":""},{"id":13260,"title":"宇部市俵田翁記念体育館","architect":"大成建設","year":1959.0,"address":"山口県宇部市恩田町4-1-1","latitude":33.946842193603516,"longitude":131.2722930908203,"category":"体育館","description":"","image_url":""},{"id":13261,"title":"下松市市民体育館","architect":"日建設計","year":1962.0,"address":"山口県下松市西柳1-1-1-1","latitude":34.01576614379883,"longitude":131.8670196533203,"category":"体育館","description":"","image_url":""},{"id":13262,"title":"吉川家納骨堂","architect":"佐藤武夫","year":1964.0,"address":"山口県岩国市横山1-10","latitude":34.169517517089844,"longitude":132.17384338378906,"category":"霊園","description":"","image_url":""},{"id":13263,"title":"天神町テラス","architect":"鈴木理考","year":2020.0,"address":"東京都小平市天神町3-7-1","latitude":35.7310791015625,"longitude":139.49990844726562,"category":"ホール・劇場/カフェ","description":"","image_url":""},{"id":13264,"title":"TOKYO FARM VILLAGE","architect":"加藤渓一","year":2022.0,"address":"東京都八王子市小比企町1673-1","latitude":35.641754150390625,"longitude":139.319580078125,"category":"レストラン/カフェ","description":"","image_url":""},{"id":13265,"title":"ホーバーターミナルおおいた ホボッタ 大分空港","architect":"藤本壮介+松井設計","year":2024.0,"address":"大分県国東市安岐町下原541-68","latitude":33.475406646728516,"longitude":131.73190307617188,"category":"港","description":"2024年1月時点で建物は完成。2024年秋の運行開始を予定","image_url":""},{"id":13266,"title":"ホーバーターミナルおおいた ホボッタ 西大分","architect":"藤本壮介+松井設計","year":2024.0,"address":"大分県大分市駄原2905-5","latitude":33.24838638305664,"longitude":131.5935516357422,"category":"港","description":"2024年1月時点で建物は完成。2024年秋の運行開始を予定","image_url":""},{"id":13267,"title":"三木市立堀光美術館","architect":"光安義光","year":1982.0,"address":"兵庫県三木市上の丸町4-5","latitude":34.79854202270508,"longitude":134.9871368408203,"category":"美術館","description":"","image_url":""},{"id":13268,"title":"呼子カトリック教会","architect":"鉄川与助+アルベール・ペルー","year":1882.0,"address":"佐賀県唐津市呼子町殿ノ浦1868-1","latitude":33.53825378417969,"longitude":129.8878173828125,"category":"教会","description":"1882年馬渡島教会堂として竣工後、呼子へ移築","image_url":""},{"id":13269,"title":"唐津市浜玉社会体育館","architect":"光吉健次","year":1976.0,"address":"佐賀県唐津市浜玉町浜崎1669-49","latitude":33.45015335083008,"longitude":130.0390167236328,"category":"体育館","description":"","image_url":""},{"id":13270,"title":"唐津市立浜玉中学校","architect":"光吉健次","year":1968.0,"address":"佐賀県唐津市浜玉町大江6-1","latitude":33.45037841796875,"longitude":130.0464630126953,"category":"学校","description":"","image_url":""},{"id":13271,"title":"酒井医院","architect":"村上徹","year":1999.0,"address":"佐賀県唐津市大名小路5-3","latitude":33.449886322021484,"longitude":129.97215270996094,"category":"個人医院","description":"","image_url":""},{"id":13272,"title":"吉島家緞通ミュージアム","architect":"中村享一","year":2006.0,"address":"佐賀県佐賀市赤松町1-1-28","latitude":33.246498107910156,"longitude":130.29571533203125,"category":"博物館","description":"","image_url":""},{"id":13273,"title":"DENTAL BOX 野口歯科","architect":"中村享一","year":1986.0,"address":"佐賀県鳥栖市神辺町1578-8","latitude":33.38383483886719,"longitude":130.51019287109375,"category":"個人医院","description":"","image_url":""},{"id":13274,"title":"有田ポーセリンパーク ツヴィンガー宮殿","architect":"ダニエル・ペッペルマン","year":1993.0,"address":"佐賀県西松浦郡有田町戸矢 有田ポーセリンパーク","latitude":33.16581344604492,"longitude":129.9082794189453,"category":"城郭/観光施設","description":"1728年竣工のザクセン選帝侯領ドレスデン・ツヴィンガー宮殿を模した建築","image_url":""},{"id":13275,"title":"今帰仁の家 マキナ ナキジン","architect":"五十嵐敏恭","year":2021.0,"address":"沖縄県国頭郡今帰仁村諸志2031-130","latitude":26.67998504638672,"longitude":127.94245147705078,"category":"コテージ","description":"一棟貸し","image_url":""},{"id":13276,"title":"SHINMINKA Villa TAMASHIRO","architect":"漢那潤","year":2016.0,"address":"沖縄県国頭郡今帰仁村玉城821","latitude":26.674179077148438,"longitude":127.97065734863281,"category":"コテージ","description":"一棟貸し","image_url":""},{"id":13277,"title":"百名のゲストハウス mui たびと風のうつわ","architect":"五十嵐敏恭","year":2021.0,"address":"沖縄県南城市玉城百名1201-3","latitude":26.13603401184082,"longitude":127.78662872314453,"category":"コテージ","description":"一棟貸し","image_url":""},{"id":13278,"title":"ザ・レイクスイート 湖の栖","architect":"石井建築事務所","year":2021.0,"address":"北海道有珠郡壮瞥町洞爺湖温泉7-1","latitude":42.565643310546875,"longitude":140.83316040039062,"category":"ホテル","description":"","image_url":""},{"id":13279,"title":"寿ビルディング","architect":"山虎組","year":1927.0,"address":"京都府京都市下京区河原町通り四条下ル市之町251-2","latitude":35.001678466796875,"longitude":135.76914978027344,"category":"洋館/テナントビル","description":"","image_url":""},{"id":13280,"title":"KYO AMAHARE","architect":"トネリコ","year":2023.0,"address":"京都府京都市中京区蛸薬師通柳馬場東入油屋町127","latitude":35.006141662597656,"longitude":135.7645721435547,"category":"古民家/店舗","description":"築130年の京町家の改修","image_url":""},{"id":13281,"title":"MtK Contemporary Art","architect":"名和晃平","year":2021.0,"address":"京都府京都市左京区岡崎南御所町20-1","latitude":35.0137825012207,"longitude":135.7850799560547,"category":"ギャラリー/古民家","description":"","image_url":""},{"id":13282,"title":"スノーピーク ヤケイスイート 油山福岡","architect":"谷尻誠","year":2024.0,"address":"福岡県福岡市南区柏原710-2","latitude":33.50899887084961,"longitude":130.37745666503906,"category":"コテージ","description":"2024年4月18日オープン予定。全3棟のコテージ、1棟のヴィラ","image_url":""},{"id":13283,"title":"TSUTAYA BOOKSTORE 常総インターチェンジ","architect":"谷尻誠","year":2023.0,"address":"茨城県常総市むすびまち3","latitude":36.08289337158203,"longitude":139.9856719970703,"category":"店舗","description":"","image_url":""},{"id":13284,"title":"東京女子大学 文理学部4号館","architect":"高橋靗一","year":1983.0,"address":"東京都杉並区善福寺2-6-1","latitude":35.7105598449707,"longitude":139.59022521972656,"category":"大学","description":"","image_url":""},{"id":13285,"title":"マガジンハウス","architect":"高橋靗一+冨井建築設計研究室","year":1983.0,"address":"東京都中央区銀座3-13-10","latitude":35.67021942138672,"longitude":139.76904296875,"category":"オフィスビル","description":"","image_url":""},{"id":13286,"title":"こくみん共済 coop 情報センター 旧全労済情報センター","architect":"高橋靗一","year":1995.0,"address":"東京都八王子市別所2-39-1","latitude":35.61469268798828,"longitude":139.40020751953125,"category":"低層オフィス","description":"","image_url":""},{"id":13287,"title":"青山居","architect":"高橋靗一+高橋真","year":1998.0,"address":"東京都目黒区青葉台1-6-6","latitude":35.64830017089844,"longitude":139.6988525390625,"category":"集合住宅","description":"","image_url":""},{"id":13288,"title":"八王子学園八王子高等学校","architect":"高橋靗一","year":2000.0,"address":"東京都八王子市台町4-35-1","latitude":35.65831756591797,"longitude":139.31768798828125,"category":"学校","description":"","image_url":""},{"id":13289,"title":"特別養護老人ホームこまえ正吉苑","architect":"高橋靗一","year":2002.0,"address":"東京都狛江市西野川2-27-23","latitude":35.64544677734375,"longitude":139.57408142089844,"category":"養護施設","description":"","image_url":""},{"id":13290,"title":"星光PMC千葉研究所","architect":"高橋靗一","year":1999.0,"address":"千葉県千葉市緑区大野台2-3-37","latitude":35.514766693115234,"longitude":140.23927307128906,"category":"研究施設","description":"","image_url":""},{"id":13291,"title":"学ぶ、学び舎 東京学芸大学HIVE棟","architect":"秋吉浩気","year":2023.0,"address":"東京都小金井市貫井北町4-1","latitude":35.706321716308594,"longitude":139.4949493408203,"category":"大学","description":"","image_url":""},{"id":13292,"title":"うどん屋 もり豊","architect":"中村浩士","year":2023.0,"address":"埼玉県越谷市大成町6-228-1","latitude":35.887264251708984,"longitude":139.8235321044922,"category":"レストラン","description":"","image_url":""},{"id":13293,"title":"WOWK芝公園","architect":"パーシモンヒルズ・アーキテクツ","year":2022.0,"address":"東京都港区芝3-13-8","latitude":35.6522331237793,"longitude":139.74571228027344,"category":"オフィスビル","description":"","image_url":""},{"id":13294,"title":"cafe_feu","architect":"中村浩士","year":2022.0,"address":"埼玉県吉川市美南2-8-14","latitude":35.867183685302734,"longitude":139.8545379638672,"category":"カフェ","description":"","image_url":""},{"id":13295,"title":"えのもと整形外科クリニック / しろくま薬局","architect":"中村浩士","year":2021.0,"address":"埼玉県越谷市弥十郎451-1","latitude":35.91931915283203,"longitude":139.7947998046875,"category":"個人医院","description":"","image_url":""},{"id":13296,"title":"atelier N 中村浩士建築設計事務所","architect":"中村浩士","year":2019.0,"address":"埼玉県越谷市大成町7-90-1","latitude":35.88512420654297,"longitude":139.83262634277344,"category":"低層オフィス","description":"","image_url":""},{"id":13297,"title":"初台のアパート Eハウス","architect":"遠藤政樹","year":1996.0,"address":"東京都渋谷区本町2-13-8","latitude":35.68262481689453,"longitude":139.68202209472656,"category":"集合住宅","description":"","image_url":""},{"id":13298,"title":"カシオ本社ビル","architect":"NTTファシリティーズ+大成建設","year":1997.0,"address":"東京都渋谷区本町1-6-2","latitude":35.68071365356445,"longitude":139.684814453125,"category":"オフィスビル","description":"","image_url":""},{"id":13299,"title":"アルビオン白金教育センター","architect":"鹿島建設","year":2007.0,"address":"東京都港区白金2-6-8","latitude":35.64017868041992,"longitude":139.73011779785156,"category":"研修施設/企業施設","description":"","image_url":""},{"id":13300,"title":"イグレック","architect":"山口真一郎+竹中工務店","year":2007.0,"address":"東京都港区白金2-5-16","latitude":35.640380859375,"longitude":139.7309112548828,"category":"集合住宅","description":"","image_url":""}]}