{"page":268,"total_pages":290,"items_per_page":50,"total_items":14467,"items":[{"id":13351,"title":"岩田学園 学生寮","architect":"磯崎新","year":1985.0,"address":"大分県大分市岩田町1-1","latitude":33.23652267456055,"longitude":131.62576293945312,"category":"学校/寮","description":"","image_url":""},{"id":13352,"title":"西戸山タワーホウムズ\t 低層部","architect":"磯崎新","year":1986.0,"address":"東京都新宿区百人町3-1-6","latitude":35.70626449584961,"longitude":139.7003173828125,"category":"広場/集合住宅","description":"","image_url":""},{"id":13353,"title":"グラスアート赤坂","architect":"磯崎新","year":1985.0,"address":"東京都港区赤坂3-10-14","latitude":35.67582321166992,"longitude":139.73670959472656,"category":"テナントビル","description":"","image_url":""},{"id":13354,"title":"直方駅","architect":"水戸岡鋭治","year":2011.0,"address":"福岡県直方市山部 直方駅","latitude":33.748207092285156,"longitude":130.72496032714844,"category":"駅","description":"","image_url":""},{"id":13355,"title":"西戸崎駅","architect":"水戸岡鋭治","year":1996.0,"address":"福岡県福岡市東区西戸崎1-1","latitude":33.65021514892578,"longitude":130.35780334472656,"category":"駅","description":"","image_url":""},{"id":13356,"title":"須恵駅","architect":"水戸岡鋭治","year":1995.0,"address":"福岡県糟屋郡須惠町植木","latitude":33.596641540527344,"longitude":130.4982147216797,"category":"駅","description":"","image_url":""},{"id":13357,"title":"古民家宿コロク","architect":"彦根建築設計事務所","year":2024.0,"address":"長野県諏訪郡富士見町境11184","latitude":35.9062614440918,"longitude":138.27210998535156,"category":"古民家/コテージ","description":"","image_url":""},{"id":13358,"title":"新水ビル","architect":"坂倉建築研究所","year":2023.0,"address":"神奈川県横浜市港北区綱島東1-9","latitude":35.5361213684082,"longitude":139.6358184814453,"category":"テナントビル","description":"","image_url":""},{"id":13359,"title":"姫路城迎賓館","architect":"西山夘三","year":1951.0,"address":"兵庫県姫路市本町68-75","latitude":34.8380012512207,"longitude":134.69244384765625,"category":"公共施設","description":"","image_url":""},{"id":13360,"title":"震災ミュージアム 旧東海大学阿蘇校舎1号館","architect":"山田守","year":1973.0,"address":"熊本県阿蘇郡南阿蘇村河陽5435","latitude":32.89142990112305,"longitude":130.99537658691406,"category":"大学/博物館","description":"震災遺構として公開されている","image_url":""},{"id":13361,"title":"三条市体育文化会館","architect":"仙田満","year":2019.0,"address":"新潟県三条市荒町2-1-3","latitude":37.637149810791016,"longitude":138.95263671875,"category":"体育館","description":"","image_url":""},{"id":13362,"title":"キッズツリーハウス認定こども園本郷","architect":"仙田満","year":2023.0,"address":"愛知県日進市本郷町鴻土5-1","latitude":35.14054870605469,"longitude":137.04188537597656,"category":"幼稚園","description":"","image_url":""},{"id":13363,"title":"上越マリーナ","architect":"寒竹伸一","year":2002.0,"address":"新潟県上越市春日新田4-2-2969-3","latitude":37.178077697753906,"longitude":138.2593231201172,"category":"港","description":"","image_url":""},{"id":13364,"title":"テラスカイ上越サテライトオフィス","architect":"トラフ建築設計事務所","year":2017.0,"address":"新潟県上越市本町6-4-22","latitude":37.11708450317383,"longitude":138.24526977539062,"category":"低層オフィス/古民家","description":"","image_url":""},{"id":13365,"title":"上越市立歴史博物館 新館","architect":"寒竹伸一","year":2001.0,"address":"新潟県上越市本城町7-7","latitude":37.11178970336914,"longitude":138.25494384765625,"category":"博物館","description":"","image_url":""},{"id":13366,"title":"上越市立歴史博物館 旧館","architect":"石本建築事務所","year":1972.0,"address":"新潟県上越市本城町7-7","latitude":37.11162567138672,"longitude":138.25523376464844,"category":"博物館","description":"","image_url":""},{"id":13367,"title":"リージョンプラザ上越 上越科学館","architect":"石本建築事務所","year":1984.0,"address":"新潟県上越市下門前446-2","latitude":37.15434646606445,"longitude":138.25144958496094,"category":"博物館/体育館/ホール・劇場","description":"","image_url":""},{"id":13368,"title":"日本聖公会 高田降臨教会","architect":"ウィリアム・メレル・ヴォーリズ","year":1938.0,"address":"新潟県上越市西城町3-9-17","latitude":37.11324691772461,"longitude":138.24717712402344,"category":"教会","description":"","image_url":""},{"id":13369,"title":"西新潟健診プラザ","architect":"伊藤喜三郎建築研究所","year":2022.0,"address":"新潟県新潟市西区小新南2-1-60","latitude":37.8675651550293,"longitude":138.9930419921875,"category":"医療施設","description":"","image_url":""},{"id":13370,"title":"イタリア軒ホテル","architect":"梓設計","year":1976.0,"address":"新潟県新潟市中央区西堀通7-1574","latitude":37.92525100708008,"longitude":139.04425048828125,"category":"ホテル/レストラン","description":"","image_url":""},{"id":13371,"title":"カーブドッチ VineSpa","architect":"谷尻誠","year":2022.0,"address":"新潟県新潟市西蒲区角田浜1661","latitude":37.80293655395508,"longitude":138.8472137451172,"category":"温泉/ホテル","description":"","image_url":""},{"id":13372,"title":"ランドリーホリデー / ヨシヲアイスクリーム","architect":"谷尻誠","year":2022.0,"address":"愛媛県四国中央市中之庄町574-1","latitude":33.97579574584961,"longitude":133.5352020263672,"category":"店舗/カフェ","description":"","image_url":""},{"id":13373,"title":"Yohaku coffee&spa","architect":"谷尻誠","year":2022.0,"address":"東京都東久留米市東本町6-15 平和ビル302","latitude":35.76183319091797,"longitude":139.53321838378906,"category":"カフェ/店舗","description":"内装設計","image_url":""},{"id":13374,"title":"FabCafe Nagoya","architect":"谷尻誠","year":2020.0,"address":"愛知県名古屋市中区丸の内3-6-18 レイヤードヒサヤオオドオリパーク ZONE1","latitude":35.17617416381836,"longitude":136.90823364257812,"category":"カフェ","description":"","image_url":""},{"id":13375,"title":"サツドラホールディングス本社ビル","architect":"谷尻誠","year":2020.0,"address":"北海道札幌市東区北8条東4-1-20","latitude":43.07183074951172,"longitude":141.3599395751953,"category":"低層オフィス","description":"","image_url":""},{"id":13376,"title":"中目黒クロスオーバー","architect":"谷尻誠","year":2019.0,"address":"東京都目黒区上目黒2-9-17","latitude":35.64168167114258,"longitude":139.69979858398438,"category":"集合住宅","description":"","image_url":""},{"id":13377,"title":"studiowork Lab","architect":"谷尻誠","year":2019.0,"address":"愛知県名古屋市北区光音寺町野方1919-27","latitude":35.2118034362793,"longitude":136.90675354003906,"category":"低層オフィス/ギャラリー","description":"","image_url":""},{"id":13378,"title":"銀座七丁目プレイス","architect":"谷尻誠","year":2019.0,"address":"東京都中央区銀座7-3-8","latitude":35.6701774597168,"longitude":139.76052856445312,"category":"オフィスビル","description":"","image_url":""},{"id":13379,"title":"CIRCLES 銀座","architect":"谷尻誠","year":2019.0,"address":"東京都中央区銀座3-7-6","latitude":35.671993255615234,"longitude":139.76739501953125,"category":"オフィスビル","description":"","image_url":""},{"id":13380,"title":"ゆめの樹保育園しんこいわ","architect":"谷尻誠","year":2016.0,"address":"東京都葛飾区西新小岩5-30-6","latitude":35.723548889160156,"longitude":139.85116577148438,"category":"幼稚園","description":"","image_url":""},{"id":13381,"title":"山口ゆめ花博TELEWORK STATION","architect":"谷尻誠","year":2018.0,"address":"山口県山口市阿知須 山口きらら博記念公園","latitude":34.00733947753906,"longitude":131.37440490722656,"category":"オブジェ/公園","description":"","image_url":""},{"id":13382,"title":"ライオン橋歯科医院","architect":"谷尻誠","year":2016.0,"address":"大阪府大阪市北区西天満3-8-1","latitude":34.694915771484375,"longitude":135.50759887695312,"category":"個人医院","description":"","image_url":""},{"id":13383,"title":"ビストロ ラミール","architect":"谷尻誠","year":2007.0,"address":"愛媛県新居浜市高木町3-39","latitude":33.95213317871094,"longitude":133.28585815429688,"category":"レストラン","description":"","image_url":""},{"id":13384,"title":"玉名市民会館","architect":"株式会社大建設計","year":2020.0,"address":"熊本県玉名市岩崎88-5","latitude":32.93508529663086,"longitude":130.56109619140625,"category":"ホール・劇場","description":"","image_url":""},{"id":13385,"title":"江戸川区立 塩沢江戸川荘","architect":"関・空間設計","year":1989.0,"address":"新潟県南魚沼市舞子2063-29","latitude":36.981048583984375,"longitude":138.81419372558594,"category":"ホテル","description":"岡設計（旧名称）","image_url":""},{"id":13386,"title":"浜名湖かんざんじ荘","architect":"関・空間設計","year":1995.0,"address":"静岡県浜松市西区呉松町1768-1","latitude":34.770816802978516,"longitude":137.61941528320312,"category":"ホテル","description":"岡設計（旧名称）","image_url":""},{"id":13387,"title":"ハチテン","architect":"川口とし子","year":2006.0,"address":"新潟県長岡市古正寺2-12","latitude":37.457420349121094,"longitude":138.82421875,"category":"店舗/住宅","description":"","image_url":""},{"id":13388,"title":"馬高縄文館","architect":"木村博幸","year":2009.0,"address":"新潟県長岡市関原町1-3060-1","latitude":37.44659423828125,"longitude":138.7684783935547,"category":"博物館","description":"","image_url":""},{"id":13389,"title":"加茂市立加茂南小学校","architect":"木村博幸","year":1996.0,"address":"新潟県加茂市五番町7-1","latitude":37.65610885620117,"longitude":139.05819702148438,"category":"学校","description":"","image_url":""},{"id":13390,"title":"三条東公民館","architect":"木村博幸","year":2010.0,"address":"新潟県三条市興野1-13-70","latitude":37.63462829589844,"longitude":138.9669647216797,"category":"公民館・交流施設","description":"","image_url":""},{"id":13391,"title":"きものブレイン新工場","architect":"岸田省吾","year":2016.0,"address":"新潟県十日町市高田町6-510-1","latitude":37.136993408203125,"longitude":138.74859619140625,"category":"工場","description":"","image_url":""},{"id":13392,"title":"東京大学 山中寮内藤セミナーハウス","architect":"岸田省吾","year":2009.0,"address":"山梨県南都留郡山中湖村平野506-296","latitude":35.407920837402344,"longitude":138.8651580810547,"category":"ホテル","description":"東大生だけでなく一般人も利用可能","image_url":""},{"id":13393,"title":"受法寺 本堂","architect":"上田堯世","year":2006.0,"address":"高知県高知市浦戸343","latitude":33.496891021728516,"longitude":133.5660400390625,"category":"寺院","description":"","image_url":""},{"id":13394,"title":"高知県立県民文化ホール","architect":"石本建築事務所","year":1976.0,"address":"高知県高知市本町4-3-30","latitude":33.556800842285156,"longitude":133.5331268310547,"category":"ホール・劇場","description":"","image_url":""},{"id":13395,"title":"かたつむり山荘","architect":"山本長水","year":1969.0,"address":"高知県長岡郡大豊町葛原73-1","latitude":33.78186798095703,"longitude":133.642333984375,"category":"コテージ","description":"","image_url":""},{"id":13396,"title":"本山町上関下関集落活動センター なめかわのさと","architect":"高谷時彦","year":2021.0,"address":"高知県長岡郡本山町下関122","latitude":33.76925277709961,"longitude":133.62339782714844,"category":"公民館・交流施設","description":"","image_url":""},{"id":13397,"title":"鶴岡商工会議所会館","architect":"高谷時彦","year":2015.0,"address":"山形県鶴岡市馬場町8-13","latitude":38.72612762451172,"longitude":139.82846069335938,"category":"組合施設","description":"","image_url":""},{"id":13398,"title":"草加警察署 松原交番","architect":"高谷時彦","year":1996.0,"address":"埼玉県草加市松原1-2-14","latitude":35.84345626831055,"longitude":139.8002166748047,"category":"警察・消防署","description":"","image_url":""},{"id":13399,"title":"吹浦まちづくりセンター","architect":"高谷時彦","year":2016.0,"address":"山形県飽海郡遊佐町吹浦布倉10-1","latitude":39.07371520996094,"longitude":139.87969970703125,"category":"公民館・交流施設","description":"","image_url":""},{"id":13400,"title":"横浜市立川和中学校","architect":"高谷時彦","year":1997.0,"address":"神奈川県横浜市都筑区富士見が丘21-1","latitude":35.53112030029297,"longitude":139.55703735351562,"category":"学校","description":"","image_url":""}]}