{"page":238,"total_pages":290,"items_per_page":50,"total_items":14467,"items":[{"id":11851,"title":"FAMビル","architect":"難波和彦","year":1993.0,"address":"東京都世田谷区太子堂2-17-10","latitude":35.645206451416016,"longitude":139.67056274414062,"category":"テナントビル","description":"","image_url":""},{"id":11852,"title":"NATURE STUDIO","architect":"槻橋修+村上工務店","year":2022.0,"address":"兵庫県神戸市兵庫区雪御所町2-1","latitude":34.689796447753906,"longitude":135.16502380371094,"category":"モール/水族館/広場","description":"旧湊山小学校の改修","image_url":""},{"id":11853,"title":"JFEスチール西日本製鉄所 福山本館","architect":"山下設計+竹中工務店","year":2012.0,"address":"広島県福山市鋼管町1","latitude":34.47858428955078,"longitude":133.43568420410156,"category":"低層オフィス","description":"","image_url":""},{"id":11854,"title":"府中市立府中小学校・府中中学校","architect":"日本設計","year":2008.0,"address":"広島県府中市元町576-1","latitude":34.57614517211914,"longitude":133.23513793945312,"category":"学校","description":"","image_url":""},{"id":11855,"title":"矢賀ストリート","architect":"甲村健一","year":2002.0,"address":"広島県広島市東区矢賀2-8-11-3","latitude":34.39985656738281,"longitude":132.49740600585938,"category":"集合住宅/住宅","description":"","image_url":""},{"id":11856,"title":"雪花山房","architect":"白井昱磨","year":1997.0,"address":"広島県山県郡北広島町長笹636-1","latitude":34.61971664428711,"longitude":132.3832550048828,"category":"レストラン/住宅","description":"著名な蕎麦屋だったが現在は閉業","image_url":""},{"id":11857,"title":"老人保健施設 シェスタ","architect":"奥村昭雄+野沢正光","year":1997.0,"address":"広島県廿日市市阿品4-51-1","latitude":34.3195915222168,"longitude":132.310546875,"category":"養護施設","description":"","image_url":""},{"id":11858,"title":"東京都伊豆大島岡田港船客待合所兼津波避難施設","architect":"日建設計","year":2018.0,"address":"東京都大島町岡田","latitude":34.79029083251953,"longitude":139.39169311523438,"category":"港","description":"","image_url":""},{"id":11859,"title":"アムテック研究開発センター","architect":"大和ハウス工業","year":2018.0,"address":"大阪府大阪市住之江区南港北1-6-85","latitude":34.63943099975586,"longitude":135.41864013671875,"category":"研究施設","description":"","image_url":""},{"id":11860,"title":"浜理薬品工業 本社・研究所","architect":"大和ハウス工業","year":2020.0,"address":"大阪府大阪市住之江区南港北1-19-40","latitude":34.64202117919922,"longitude":135.41957092285156,"category":"低層オフィス","description":"","image_url":""},{"id":11861,"title":"鉄板焼 とよふみ","architect":"中本尋之","year":2021.0,"address":"広島県呉市中通り4-2-14","latitude":34.24686050415039,"longitude":132.56637573242188,"category":"レストラン","description":"","image_url":""},{"id":11862,"title":"鎌倉市立御成小学校","architect":"久米設計","year":1933.0,"address":"神奈川県鎌倉市御成町19-1","latitude":35.31819152832031,"longitude":139.5471649169922,"category":"学校","description":"1998年久米設計により改修","image_url":""},{"id":11863,"title":"警視庁麹町警察署半蔵門警備派出所庁舎\t","architect":"芦原義信","year":1992.0,"address":"東京都千代田区麹町1-2-1","latitude":35.683990478515625,"longitude":139.74452209472656,"category":"警察・消防署","description":"","image_url":""},{"id":11864,"title":"用賀プロムナード","architect":"象設計集団","year":1986.0,"address":"東京都世田谷区用賀4-23","latitude":35.62807083129883,"longitude":139.6302032470703,"category":"広場","description":"","image_url":""},{"id":11865,"title":"リブマックスリゾート伊東川奈 旧モービル石油中央研修所","architect":"芦原義信","year":1975.0,"address":"静岡県伊東市富戸1301","latitude":34.92668914794922,"longitude":139.14051818847656,"category":"ホテル","description":"","image_url":""},{"id":11866,"title":"東海大学 清水校舎1号館 旧東海大学海洋学部清水本館","architect":"山田守","year":1965.0,"address":"静岡県静岡市清水区折戸3-20-1","latitude":34.98986053466797,"longitude":138.5143585205078,"category":"大学","description":"","image_url":""},{"id":11867,"title":"陸前高田市立博物館","architect":"内藤廣","year":2022.0,"address":"岩手県陸前高田市高田町馬場前119","latitude":39.01530838012695,"longitude":141.62814331054688,"category":"博物館","description":"2022年11月5日オープン予定","image_url":""},{"id":11868,"title":"陸前高田市東日本大震災追悼施設","architect":"内藤廣","year":2022.0,"address":"岩手県陸前高田市高田町並杉300-1","latitude":39.01515197753906,"longitude":141.6286163330078,"category":"霊園/宗教施設","description":"","image_url":""},{"id":11869,"title":"東亞合成水素ステーション徳島","architect":"森下修","year":2022.0,"address":"徳島県板野郡北島町鯛浜原76-3","latitude":34.11499786376953,"longitude":134.55625915527344,"category":"店舗/低層オフィス","description":"","image_url":""},{"id":11870,"title":"BAM鎌倉","architect":"隈研吾","year":2022.0,"address":"神奈川県鎌倉市雪ノ下1-11-4-1","latitude":35.322662353515625,"longitude":139.55453491210938,"category":"博物館","description":"","image_url":""},{"id":11871,"title":"柄と繪","architect":"丸山晴之","year":2020.0,"address":"福井県越前市池ノ上町46-1-10","latitude":35.87606430053711,"longitude":136.14810180664062,"category":"低層オフィス/店舗","description":"","image_url":""},{"id":11872,"title":"水嶋農機","architect":"丸山晴之","year":2017.0,"address":"福井県越前市赤坂町5-1-3","latitude":35.948326110839844,"longitude":136.2462921142578,"category":"低層オフィス/店舗","description":"","image_url":""},{"id":11873,"title":"福井銀行今立支店","architect":"丸山晴之","year":2021.0,"address":"福井県越前市粟田部町11字19-2","latitude":35.91797637939453,"longitude":136.24630737304688,"category":"金融機関","description":"","image_url":""},{"id":11874,"title":"湊で暮らす宿 んだこ","architect":"丸山晴之","year":2021.0,"address":"福井県坂井市三国町南本町4-10-26","latitude":36.21088409423828,"longitude":136.15159606933594,"category":"古民家/コテージ","description":"築150年以上の町家を一棟貸しのゲストハウスに改修","image_url":""},{"id":11875,"title":"高嶺の森のレセプション","architect":"山下貴成","year":2021.0,"address":"静岡県御殿場市上小林1506-6","latitude":35.34124755859375,"longitude":138.90805053710938,"category":"コテージ/カフェ","description":"一棟貸しコテージ群のレセプション。コテージは無印良品陽の家（デザイン監修：原研哉）","image_url":""},{"id":11876,"title":"森のクリニック 荻島歯科医院アネックス","architect":"山下貴成","year":2020.0,"address":"埼玉県新座市大和田4-2-27","latitude":35.81075668334961,"longitude":139.55001831054688,"category":"個人医院","description":"","image_url":""},{"id":11877,"title":"尾道市因島総合支所","architect":"あい設計","year":2020.0,"address":"広島県尾道市因島土生町7-4","latitude":34.29484176635742,"longitude":133.1693878173828,"category":"庁舎","description":"","image_url":""},{"id":11878,"title":"parc","architect":"浦辺鎮太郎+重名秀紀","year":1974.0,"address":"岡山県岡山市北区撫川1592-1","latitude":34.64701843261719,"longitude":133.83416748046875,"category":"カフェ","description":"浦辺鎮太郎設計の施設を改修","image_url":""},{"id":11879,"title":"ポートメッセなごや","architect":"久米設計+竹中工務店","year":2022.0,"address":"愛知県名古屋市港区金城ふ頭2-2","latitude":35.04869842529297,"longitude":136.8433837890625,"category":"展示・会議場","description":"2022年10月オープン予定","image_url":""},{"id":11880,"title":"御徒町のアパートメント ブルックハウス","architect":"長谷川豪","year":2014.0,"address":"東京都台東区東上野1-20-2","latitude":35.70829391479492,"longitude":139.77833557128906,"category":"集合住宅","description":"","image_url":""},{"id":11881,"title":"お宿Onn 湯田温泉","architect":"成瀬・猪熊建築設計事務所+積水ハウス","year":2022.0,"address":"山口県山口市湯田温泉4-5-2","latitude":34.164161682128906,"longitude":131.45542907714844,"category":"ホテル","description":"デザイン監修：成瀬・猪熊建築設計事務所","image_url":""},{"id":11882,"title":"新橋の路地裏ビル 新橋アバックビル","architect":"小山光","year":2021.0,"address":"東京都港区新橋2-15-5","latitude":35.66650390625,"longitude":139.75653076171875,"category":"テナントビル","description":"","image_url":""},{"id":11883,"title":"鎌倉青山","architect":"池原靖史+生沼広之","year":2022.0,"address":"神奈川県鎌倉市御成町14-32","latitude":35.32032775878906,"longitude":139.54910278320312,"category":"ホテル","description":"","image_url":""},{"id":11884,"title":"山鳥の森オートキャンプ場 山鳥の湯","architect":"川嵜義彦","year":2021.0,"address":"熊本県阿蘇郡南小国町満願寺6298","latitude":33.06522750854492,"longitude":131.15744018554688,"category":"温泉","description":"","image_url":""},{"id":11885,"title":"FIL STORE","architect":"ようび建築設計室","year":2017.0,"address":"熊本県阿蘇郡南小国町満願寺30","latitude":33.091060638427734,"longitude":131.07818603515625,"category":"店舗","description":"","image_url":""},{"id":11886,"title":"陸前高田市庁舎","architect":"NTTファシリティーズ","year":2021.0,"address":"岩手県陸前高田市高田町下和野100","latitude":39.02037048339844,"longitude":141.63323974609375,"category":"庁舎","description":"","image_url":""},{"id":11887,"title":"道の駅おおがた","architect":"草階建築創作所","year":2021.0,"address":"秋田県南秋田郡大潟村西5-2","latitude":40.01563262939453,"longitude":139.95144653320312,"category":"PA・道の駅","description":"","image_url":""},{"id":11888,"title":"道の駅うご 端縫いの郷","architect":"草階建築創作所","year":2016.0,"address":"秋田県雄勝郡羽後町西馬音内中野200","latitude":39.20103073120117,"longitude":140.41305541992188,"category":"PA・道の駅","description":"","image_url":""},{"id":11889,"title":"にかほ市観光拠点センター にかほっと","architect":"草階建築創作所","year":2016.0,"address":"秋田県にかほ市象潟町大塩越36-1","latitude":39.219261169433594,"longitude":139.900146484375,"category":"PA・道の駅","description":"","image_url":""},{"id":11890,"title":"三輪公民館・文化交流施設美里音","architect":"草階建築創作所","year":2010.0,"address":"秋田県雄勝郡羽後町貝沢字拾三本塚111-1","latitude":39.19549560546875,"longitude":140.44227600097656,"category":"公民館・交流施設/ホール・劇場","description":"","image_url":""},{"id":11891,"title":"島根県立しまね海洋館アクアス","architect":"UR都市機構+日建設計","year":1999.0,"address":"島根県浜田市久代町1117-2","latitude":34.95943832397461,"longitude":132.14456176757812,"category":"水族館","description":"1999年本館、2008年ペンギン館、2011年別館シロイルカ繁殖プール、2017年屋外通路竣工","image_url":""},{"id":11892,"title":"弘前厚生学院記念館 旧弘前偕行社","architect":"堀江佐吉","year":1907.0,"address":"青森県弘前市御幸町8-10","latitude":40.590789794921875,"longitude":140.47720336914062,"category":"洋館","description":"","image_url":""},{"id":11893,"title":"弘前シードル工房kimori","architect":"蟻塚学","year":2014.0,"address":"青森県弘前市清水富田寺沢125","latitude":40.590126037597656,"longitude":140.44285583496094,"category":"体験施設/店舗","description":"","image_url":""},{"id":11894,"title":"旧藤田家別邸洋館","architect":"堀江金蔵","year":1921.0,"address":"青森県弘前市上白銀町8-1","latitude":40.60354232788086,"longitude":140.46141052246094,"category":"洋館","description":"","image_url":""},{"id":11895,"title":"佐瀧本店","architect":"堀江金蔵","year":1924.0,"address":"青森県三戸郡三戸町八日町49","latitude":40.37727355957031,"longitude":141.25648498535156,"category":"店舗","description":"","image_url":""},{"id":11896,"title":"佐瀧別邸","architect":"堀江金蔵","year":1924.0,"address":"青森県三戸郡三戸町大字梅内字雷平285-2","latitude":40.37660217285156,"longitude":141.25668334960938,"category":"洋館","description":"","image_url":""},{"id":11897,"title":"スペース・デネガ","architect":"上遠野徹","year":1983.0,"address":"青森県弘前市上瓦ケ町11-2","latitude":40.5997428894043,"longitude":140.4766845703125,"category":"ギャラリー","description":"","image_url":""},{"id":11898,"title":"黒石市立図書館","architect":"蟻塚学+みかんぐみ","year":2022.0,"address":"青森県黒石市内町24-1","latitude":40.642669677734375,"longitude":140.59185791015625,"category":"図書館","description":"","image_url":""},{"id":11899,"title":"川島猛アートファクトリー 旧・オリエンタルモーター亀水工場","architect":"TAS建築事務所","year":1969.0,"address":"香川県高松市亀水町1411","latitude":34.376617431640625,"longitude":133.93699645996094,"category":"美術館/工場","description":"火・木・土曜日開館。2016年改修","image_url":""},{"id":11900,"title":"まいまい亭","architect":"山本忠司","year":1978.0,"address":"香川県高松市東田町18-5","latitude":34.335208892822266,"longitude":134.04879760742188,"category":"レストラン","description":"","image_url":""}]}