{"page":3,"total_pages":290,"items_per_page":50,"total_items":14467,"items":[{"id":101,"title":"六花亭ホールKyu","architect":"不明","year":1912.0,"address":"北海道帯広市大通南5-15","latitude":42.92649459838867,"longitude":143.20452880859375,"category":"洋館","description":"","image_url":""},{"id":102,"title":"北海道ホテル","architect":"象設計集団","year":1995.0,"address":"北海道帯広市西7条南19-1","latitude":42.910308837890625,"longitude":143.19699096679688,"category":"ホテル","description":"","image_url":""},{"id":103,"title":"メムメドウズ MEMU EARTH HOTEL メーム","architect":"隈研吾","year":2011.0,"address":"北海道広尾郡大樹町字芽武158-1","latitude":42.46726989746094,"longitude":143.3750457763672,"category":"住宅/ホテル/コテージ","description":"複数の施設・住宅を建築家が設計。要事前予約も気軽に見学可能。2018年よりホテルとして運営している","image_url":""},{"id":104,"title":"太郎吉蔵","architect":"中村好文","year":2004.0,"address":"北海道滝川市栄町2-8-9","latitude":43.5549430847168,"longitude":141.9041748046875,"category":"ホール・劇場","description":"","image_url":""},{"id":105,"title":"置戸町生涯学習情報センター","architect":"三上建築事務所","year":2005.0,"address":"北海道常呂郡置戸町置戸445-2","latitude":43.67519760131836,"longitude":143.58778381347656,"category":"図書館","description":"","image_url":""},{"id":106,"title":"中札内美術村 相原求一朗美術館","architect":"不明","year":1927.0,"address":"北海道河西郡中札内村栄東5線","latitude":42.676815032958984,"longitude":143.16433715820312,"category":"美術館","description":"","image_url":""},{"id":107,"title":"ファーム富田／回廊","architect":"五十嵐淳","year":2010.0,"address":"北海道空知郡中富良野町中富良野基線北15","latitude":43.41904067993164,"longitude":142.4266815185547,"category":"公園","description":"","image_url":""},{"id":108,"title":"長沼町の道の駅 マオイの丘公園","architect":"アーキテクトファイブ","year":1996.0,"address":"北海道夕張郡長沼町幌内","latitude":42.93111038208008,"longitude":141.73036193847656,"category":"公園","description":"","image_url":""},{"id":109,"title":"弟子屈町屈斜路コタンアイヌ民俗資料館","architect":"毛綱毅曠","year":1982.0,"address":"北海道川上郡弟子屈町屈斜路市街地1","latitude":43.55656814575195,"longitude":144.3327178955078,"category":"博物館","description":"","image_url":""},{"id":110,"title":"登別温泉ふれあいセンター 旧登別温泉科学館","architect":"太田實","year":1957.0,"address":"北海道登別市登別温泉町58-1","latitude":42.4911003112793,"longitude":141.14321899414062,"category":"温泉","description":"","image_url":""},{"id":111,"title":"聖台病院 作業療法棟","architect":"藤本壮介","year":1996.0,"address":"北海道上川郡東神楽町東1線2号","latitude":43.7197265625,"longitude":142.40206909179688,"category":"病院","description":"作業療法棟と東病棟を分離。場所を修正","image_url":""},{"id":112,"title":"ザ・ウィンザーホテル洞爺 チャペル","architect":"アーキテクトファイブ","year":2001.0,"address":"北海道虻田郡洞爺湖町清水 ザ・ウィンザーホテル洞爺","latitude":42.593570709228516,"longitude":140.75894165039062,"category":"教会","description":"","image_url":""},{"id":113,"title":"白糠町立茶路小中学校","architect":"毛綱毅曠","year":2002.0,"address":"北海道白糠郡白糠町マカヨ1-1","latitude":43.02412414550781,"longitude":144.02317810058594,"category":"学校","description":"毛綱毅曠の遺作","image_url":""},{"id":114,"title":"公立はこだて未来大学","architect":"山本理顕","year":2000.0,"address":"北海道函館市亀田中野町116-2","latitude":41.84181594848633,"longitude":140.7669677734375,"category":"大学","description":"日本建築学会 作品賞受賞者名：山本理顕、木村俊彦","image_url":""},{"id":115,"title":"天使の聖母トラピスチヌ修道院 旅人の聖堂","architect":"香山壽夫","year":2001.0,"address":"北海道函館市上湯川町346","latitude":41.787628173828125,"longitude":140.82122802734375,"category":"教会","description":"","image_url":""},{"id":116,"title":"開港記念館 旧函館市イギリス領事館","architect":"新庄幸次郎","year":1913.0,"address":"北海道函館市元町33-14","latitude":41.765953063964844,"longitude":140.7106475830078,"category":"洋館","description":"","image_url":""},{"id":117,"title":"プレイリー・ハウス 旧佐田邸","architect":"田上義也","year":1928.0,"address":"北海道函館市元町32-43","latitude":41.76515197753906,"longitude":140.71177673339844,"category":"住宅/カフェ","description":"2012年にカフェとしてオープン。冬期（11月～）休館","image_url":""},{"id":118,"title":"函館市写真歴史館 旧北海道庁函館支庁庁舎","architect":"北海道庁+家田於菟之助","year":1909.0,"address":"北海道函館市元町12-18","latitude":41.765220642089844,"longitude":140.7095184326172,"category":"洋館","description":"道指定文化財","image_url":""},{"id":119,"title":"旧函館区公会堂","architect":"小西朝次郎","year":1910.0,"address":"北海道函館市元町11-13","latitude":41.76503372192383,"longitude":140.7089080810547,"category":"洋館","description":"重要文化財","image_url":""},{"id":120,"title":"函館市中央図書館","architect":"鬼頭梓+佐田祐一","year":2005.0,"address":"北海道函館市五稜郭町26-1","latitude":41.79827117919922,"longitude":140.75343322753906,"category":"図書館","description":"","image_url":""},{"id":121,"title":"金森美術館 旧金森船具店","architect":"不明","year":1911.0,"address":"北海道函館市末広町22-17","latitude":41.76685333251953,"longitude":140.71377563476562,"category":"洋館","description":"","image_url":""},{"id":122,"title":"函館市立博物館","architect":"不明","year":null,"address":"北海道函館市青柳町17-1","latitude":41.756160736083984,"longitude":140.71522521972656,"category":"洋館","description":"","image_url":""},{"id":123,"title":"トーパスヴィレッジ・ムーイ 函館市戸井ウォーターパーク サークルコテージ／ハーブハウス／管理棟","architect":"毛綱毅曠","year":1996.0,"address":"北海道函館市原木町281","latitude":41.73207473754883,"longitude":141.03005981445312,"category":"ホテル","description":"","image_url":""},{"id":124,"title":"八雲町公民館","architect":"田上義也","year":1964.0,"address":"北海道二海郡八雲町末広町154","latitude":42.25453186035156,"longitude":140.26858520507812,"category":"公民館・交流施設","description":"","image_url":""},{"id":125,"title":"比布町図書館","architect":"アトリエブンク","year":1993.0,"address":"北海道上川郡比布町北町1-2-3","latitude":43.87568664550781,"longitude":142.4771728515625,"category":"図書館","description":"","image_url":""},{"id":126,"title":"アルテピアッツァ美唄","architect":"安田侃","year":1992.0,"address":"北海道美唄市落合町栄町 アルテピアッツァ美唄","latitude":43.33249282836914,"longitude":141.9109344482422,"category":"美術館","description":"","image_url":""},{"id":127,"title":"はまます郷土資料館","architect":"不明","year":1899.0,"address":"北海道石狩市浜益区浜益 はまます村郷土資料館","latitude":43.61257553100586,"longitude":141.37335205078125,"category":"洋館","description":"","image_url":""},{"id":128,"title":"二風谷アイヌ文化博物館","architect":"アトリエブンク","year":1991.0,"address":"北海道沙流郡平取町二風谷61","latitude":42.63724899291992,"longitude":142.15777587890625,"category":"博物館","description":"","image_url":""},{"id":129,"title":"豊富町定住支援センター 「ふらっときた」","architect":"アトリエブンク","year":2013.0,"address":"北海道天塩郡豊富町1条6","latitude":45.10240936279297,"longitude":141.7745361328125,"category":"公共施設","description":"","image_url":""},{"id":130,"title":"ピアソン記念館","architect":"ウィリアム・メレル・ヴォーリズ","year":1914.0,"address":"北海道北見市幸町7-4-28","latitude":43.80649185180664,"longitude":143.8869171142578,"category":"洋館","description":"","image_url":""},{"id":131,"title":"オホーツク木のプラザ","architect":"杉本洋文","year":1996.0,"address":"北海道北見市泉町1-3-18","latitude":43.80553436279297,"longitude":143.90028381347656,"category":"児童施設","description":"","image_url":""},{"id":132,"title":"北見ハッカ記念館","architect":"不明","year":1934.0,"address":"北海道北見市南仲町1-7-28","latitude":43.79972457885742,"longitude":143.893798828125,"category":"洋館","description":"","image_url":""},{"id":133,"title":"留辺蘂町開拓資料館 旧武華駅逓","architect":"不明","year":1920.0,"address":"北海道北見市留辺蘂町滝の湯","latitude":43.73238754272461,"longitude":143.42405700683594,"category":"洋館","description":"金・土のみ開館","image_url":""},{"id":134,"title":"静寂の塔 十勝ヘレンケラー記念塔","architect":"石山修武","year":2001.0,"address":"北海道中川郡幕別町栄193","latitude":42.80093765258789,"longitude":143.22723388671875,"category":"オブジェ","description":"かなり見つけにくいので注意。","image_url":""},{"id":135,"title":"TOKACHI HILLS","architect":"灘本幸子","year":2013.0,"address":"北海道中川郡幕別町字日新13-5","latitude":42.86363220214844,"longitude":143.2433624267578,"category":"公園","description":"","image_url":""},{"id":136,"title":"ナウマン温泉アルコ236","architect":"アトリエブンク","year":1994.0,"address":"北海道中川郡幕別町忠類白銀町384-1","latitude":42.55931091308594,"longitude":143.3001708984375,"category":"ホテル","description":"","image_url":""},{"id":137,"title":"幕別町保健福祉センター","architect":"アトリエブンク","year":1996.0,"address":"北海道中川郡幕別町新町122-1","latitude":42.90384292602539,"longitude":143.36041259765625,"category":"福祉センター","description":"","image_url":""},{"id":138,"title":"ナウマン象記念館","architect":"アトリエブンク","year":1987.0,"address":"北海道中川郡幕別町忠類白銀町383-1","latitude":42.55799102783203,"longitude":143.29998779296875,"category":"博物館","description":"","image_url":""},{"id":139,"title":"網走市立郷土博物館","architect":"田上義也","year":1936.0,"address":"北海道網走市桂町1-1-3","latitude":44.017723083496094,"longitude":144.26889038085938,"category":"洋館","description":"","image_url":""},{"id":140,"title":"博物館網走監獄","architect":"不明","year":1896.0,"address":"北海道網走市呼人1-1","latitude":43.995697021484375,"longitude":144.2293243408203,"category":"洋館","description":"","image_url":""},{"id":141,"title":"町立郷土博物館 ふるさと館JRY 旧上湧別郷土館","architect":"渡辺豊和","year":1996.0,"address":"北海道紋別郡湧別町北兵村1区","latitude":44.15989303588867,"longitude":143.58035278320312,"category":"博物館","description":"","image_url":""},{"id":142,"title":"日の出岬展望台「ラ・ルーナ」","architect":"アトリエaku","year":1992.0,"address":"北海道紋別郡雄武町沢木","latitude":44.51774215698242,"longitude":143.0618438720703,"category":"展望台","description":"","image_url":""},{"id":143,"title":"夕張鹿鳴館 旧北炭鹿ノ谷倶楽部","architect":"不明","year":1913.0,"address":"北海道夕張市鹿の谷2-","latitude":43.03705978393555,"longitude":141.96018981933594,"category":"洋館","description":"","image_url":""},{"id":144,"title":"しもきた克雪ドーム","architect":"原広司","year":2005.0,"address":"青森県むつ市真砂町8-8","latitude":41.28227233886719,"longitude":141.17385864257812,"category":"スタジアム","description":"","image_url":""},{"id":145,"title":"むつ市立図書館","architect":"近藤道男","year":2000.0,"address":"青森県むつ市中央2-3-10","latitude":41.28952407836914,"longitude":141.1855010986328,"category":"図書館","description":"","image_url":""},{"id":146,"title":"鈴木誠作記念館 旧大湊ホテル","architect":"近藤道男","year":1921.0,"address":"青森県むつ市中央2-13","latitude":41.289268493652344,"longitude":141.18370056152344,"category":"洋館/ホテル/博物館","description":"1995年復元","image_url":""},{"id":147,"title":"北洋館 旧大湊要港部会議所","architect":"不明","year":1915.0,"address":"青森県むつ市大湊町4-1","latitude":41.25504684448242,"longitude":141.13973999023438,"category":"洋館","description":"","image_url":""},{"id":148,"title":"青函トンネル記念館","architect":"アトリエブンク","year":2005.0,"address":"青森県東津軽郡外ヶ浜町三厩龍浜99","latitude":41.25383377075195,"longitude":140.34678649902344,"category":"博物館","description":"","image_url":""},{"id":149,"title":"太宰治記念館 斜陽館 旧津島家住宅","architect":"堀江佐吉","year":1905.0,"address":"青森県五所川原市金木町朝日山412-1","latitude":40.90264129638672,"longitude":140.45533752441406,"category":"和風住宅","description":"","image_url":""},{"id":150,"title":"弘前市民会館","architect":"前川國男","year":1964.0,"address":"青森県弘前市下白銀町1-6","latitude":40.60487747192383,"longitude":140.46231079101562,"category":"ホール・劇場","description":"2013年大規模改修","image_url":""}]}