{"page":31,"total_pages":290,"items_per_page":50,"total_items":14467,"items":[{"id":1501,"title":"文化のみち二葉館 旧川上貞奴邸","architect":"あめりか屋","year":1920.0,"address":"愛知県名古屋市東区橦木町3-23","latitude":35.180416107177734,"longitude":136.91867065429688,"category":"博物館","description":"","image_url":""},{"id":1502,"title":"東山給水塔","architect":"成瀬薫","year":1930.0,"address":"愛知県名古屋市千種区田代町四観音通西5-1","latitude":35.17335891723633,"longitude":136.9547882080078,"category":"産業遺産","description":"","image_url":""},{"id":1503,"title":"UFJ銀行貨幣資料館 旧名古屋銀行本店","architect":"不明","year":1926.0,"address":"愛知県名古屋市中区錦2-20-25","latitude":35.16864776611328,"longitude":136.90115356445312,"category":"洋館/金融機関","description":"","image_url":""},{"id":1504,"title":"名古屋クロイゾンスクエア","architect":"竹中工務店","year":2002.0,"address":"愛知県名古屋市中区栄3-27-17","latitude":35.164642333984375,"longitude":136.90679931640625,"category":"モール/店舗","description":"","image_url":""},{"id":1505,"title":"覚王山ル・アンジェ教会","architect":"森田恭通","year":2009.0,"address":"愛知県名古屋市千種区御棚町3-26","latitude":35.16133499145508,"longitude":136.94992065429688,"category":"教会","description":"","image_url":""},{"id":1506,"title":"コーポラティブハウス にじのもりハウス","architect":"邑計画工房","year":2003.0,"address":"愛知県名古屋市名東区にじが丘3-16-2","latitude":35.15801239013672,"longitude":136.99034118652344,"category":"集合住宅","description":"","image_url":""},{"id":1507,"title":"丸美産業本社社屋","architect":"高松伸","year":2008.0,"address":"愛知県名古屋市瑞穂区瑞穂通3-21","latitude":35.13056564331055,"longitude":136.93502807617188,"category":"オフィスビル","description":"","image_url":""},{"id":1508,"title":"名古屋市美術館","architect":"黒川紀章","year":1987.0,"address":"愛知県名古屋市中区栄2-17-25","latitude":35.16386413574219,"longitude":136.90106201171875,"category":"美術館","description":"","image_url":"https://lh3.googleusercontent.com/-Z8fUuKiySMA/UywRFiWnyXI/AAAAAAABLXc/zdDkXuZdShM/s1024/lr-15.jpg"},{"id":1509,"title":"徳川園","architect":"不明","year":null,"address":"愛知県名古屋市東区徳川町1001","latitude":35.18415069580078,"longitude":136.93243408203125,"category":"美術館","description":"","image_url":"https://lh3.googleusercontent.com/-OIhbyUf0Khk/UIPCC3uanWI/AAAAAAAAfro/_ndDtRMiR88/s1024/lr-8193160.jpg"},{"id":1510,"title":"栄町の音楽ホール 宗次ホール","architect":"團紀彦","year":2007.0,"address":"愛知県名古屋市中区栄4-5-14","latitude":35.168853759765625,"longitude":136.9126739501953,"category":"ホール・劇場","description":"","image_url":"https://lh3.googleusercontent.com/-iKtp2435nxU/UIO9vxkyaOI/AAAAAAAAfGk/0-bP0LW_Cmw/s800/lr-8193137.jpg"},{"id":1511,"title":"羽島市庁舎","architect":"坂倉準三","year":1955.0,"address":"岐阜県羽島市竹鼻町55","latitude":35.31993865966797,"longitude":136.7033233642578,"category":"庁舎","description":"","image_url":""},{"id":1512,"title":"下呂交流会館 アクティブ","architect":"日本設計","year":2010.0,"address":"岐阜県下呂市森2270-3","latitude":35.80695724487305,"longitude":137.25205993652344,"category":"ホール・劇場/体育館","description":"","image_url":""},{"id":1513,"title":"道の駅 可児ッテ","architect":"北川原温","year":2010.0,"address":"岐阜県可児市柿田416-1","latitude":35.4300537109375,"longitude":137.10116577148438,"category":"PA・道の駅","description":"","image_url":""},{"id":1514,"title":"可児市文化創造センター ala","architect":"香山壽夫","year":2002.0,"address":"岐阜県可児市下恵土3433-139","latitude":35.42822265625,"longitude":137.04193115234375,"category":"総合文化施設","description":"","image_url":""},{"id":1515,"title":"花フェスタ記念公園 花の地球館・花のタワー","architect":"大野秀敏+河野正博","year":1995.0,"address":"岐阜県可児市瀬田1584-1","latitude":35.42143249511719,"longitude":137.0996856689453,"category":"公園/展望台","description":"","image_url":""},{"id":1516,"title":"西福寺","architect":"高松伸","year":1982.0,"address":"岐阜県可児市広見743-1","latitude":35.42165756225586,"longitude":137.06040954589844,"category":"寺院","description":"","image_url":""},{"id":1517,"title":"兼山町歴史民俗資料館 旧兼山小学校","architect":"不明","year":null,"address":"岐阜県可児市兼山674-1","latitude":35.45768737792969,"longitude":137.09336853027344,"category":"洋館","description":"","image_url":""},{"id":1518,"title":"テクノプラザ本館","architect":"リチャード・ロジャース","year":1998.0,"address":"岐阜県各務原市テクノプラザ1-1","latitude":35.42695617675781,"longitude":136.88845825195312,"category":"公共施設/研究施設","description":"","image_url":""},{"id":1519,"title":"天野エンザイム 岐阜研究所","architect":"黒川紀章+リチャード・ロジャース","year":1999.0,"address":"岐阜県各務原市テクノプラザ1-6","latitude":35.426177978515625,"longitude":136.890625,"category":"企業施設","description":"","image_url":""},{"id":1520,"title":"学びの森 雲のテラス ／ レストルーム","architect":"石川幹子+小林正美","year":2005.0,"address":"岐阜県各務原市那加雲雀町 水と緑のカフェテラス","latitude":35.4018669128418,"longitude":136.84512329101562,"category":"公園","description":"","image_url":""},{"id":1521,"title":"世界淡水魚園「オアシスパーク」","architect":"仙田満","year":1999.0,"address":"岐阜県各務原市川島笠田町1564-1","latitude":35.3704719543457,"longitude":136.80760192871094,"category":"水族館","description":"","image_url":""},{"id":1522,"title":"瞑想の森","architect":"伊東豊雄","year":2006.0,"address":"岐阜県各務原市那加扇平2-5","latitude":35.42041778564453,"longitude":136.83688354492188,"category":"斎場","description":"","image_url":"https://farm8.staticflickr.com/7284/8934764650_f491536cdd_h.jpg"},{"id":1523,"title":"せきがはら人間村 ／ 清塚ミュージアム","architect":"不明","year":null,"address":"岐阜県不破郡関ヶ原町2067","latitude":35.36418151855469,"longitude":136.46412658691406,"category":"美術館","description":"要予約","image_url":""},{"id":1524,"title":"関市円空館","architect":"佐藤総合計画","year":2003.0,"address":"岐阜県関市池尻185","latitude":35.50582504272461,"longitude":136.89019775390625,"category":"博物館","description":"","image_url":""},{"id":1525,"title":"岐阜県美術館","architect":"日建設計","year":1982.0,"address":"岐阜県岐阜市宇佐4-1-22","latitude":35.40141296386719,"longitude":136.73019409179688,"category":"美術館","description":"","image_url":""},{"id":1526,"title":"岐阜県立図書館","architect":"岡田新一","year":1995.0,"address":"岐阜県岐阜市宇佐4-2-1","latitude":35.39979934692383,"longitude":136.7305908203125,"category":"図書館","description":"","image_url":""},{"id":1527,"title":"加藤栄三・東一記念美術館","architect":"吉村順三","year":1990.0,"address":"岐阜県岐阜市大宮町1-46","latitude":35.434974670410156,"longitude":136.7751007080078,"category":"美術館","description":"","image_url":""},{"id":1528,"title":"名和昆虫博物館","architect":"武田五一","year":1919.0,"address":"岐阜県岐阜市大宮町2-18","latitude":35.43384552001953,"longitude":136.7723388671875,"category":"洋館/博物館","description":"","image_url":""},{"id":1529,"title":"アピタ岐阜店","architect":"アルド・ロッシ","year":1993.0,"address":"岐阜県岐阜市加納神明町6-1","latitude":35.40161895751953,"longitude":136.749267578125,"category":"店舗","description":"","image_url":""},{"id":1530,"title":"長良川国際会議場","architect":"安藤忠雄","year":1995.0,"address":"岐阜県岐阜市長良福光2695-2","latitude":35.441192626953125,"longitude":136.76861572265625,"category":"展示・会議場","description":"","image_url":"https://lh3.googleusercontent.com/-YTSzpy6LDss/UN7cYEGlslI/AAAAAAAAuco/zz7q8khN3ZM/s1024/lr-061355.jpg"},{"id":1531,"title":"岐阜市民会館","architect":"坂倉準三","year":1967.0,"address":"岐阜県岐阜市美江寺町2-6","latitude":35.425418853759766,"longitude":136.75830078125,"category":"ホール・劇場","description":"","image_url":"https://lh3.googleusercontent.com/--BTfHqSR8k0/UN7XdBTInuI/AAAAAAAAt3o/chW9w1r_w8k/s1152/lr-061402.jpg"},{"id":1532,"title":"宮村民俗資料館 旧宮小学校　","architect":"不明","year":null,"address":"岐阜県高山市一之宮町3087","latitude":36.08253860473633,"longitude":137.23980712890625,"category":"洋館","description":"","image_url":""},{"id":1533,"title":"光ミュージアム 旧光記念館","architect":"竹中工務店","year":1998.0,"address":"岐阜県高山市中山町175","latitude":36.155609130859375,"longitude":137.23358154296875,"category":"美術館/宗教施設","description":"","image_url":""},{"id":1534,"title":"高山市図書館 煥章館","architect":"不明","year":null,"address":"岐阜県高山市馬場町2-115","latitude":36.143489837646484,"longitude":137.26235961914062,"category":"図書館","description":"","image_url":""},{"id":1535,"title":"飛騨高山美術館","architect":"鹿島建設","year":1997.0,"address":"岐阜県高山市上岡本町1-124-1","latitude":36.13668441772461,"longitude":137.2409210205078,"category":"美術館","description":"サンクチュアリコート高山 アートギャラリーリゾートに建て替え。美術館自体は同施設内にて継続","image_url":""},{"id":1536,"title":"吉島家住宅","architect":"西田伊三郎","year":1907.0,"address":"岐阜県高山市大新町1-51","latitude":36.14662170410156,"longitude":137.25828552246094,"category":"博物館","description":"","image_url":""},{"id":1537,"title":"山岳資料館 旧高山観測所","architect":"不明","year":null,"address":"岐阜県高山市西之一色町3-933-6","latitude":36.13552474975586,"longitude":137.241943359375,"category":"洋館","description":"","image_url":""},{"id":1538,"title":"明宝歴史民俗資料館 旧明方小学校　","architect":"不明","year":1937.0,"address":"岐阜県郡上市明宝気良154","latitude":35.85704040527344,"longitude":137.0300750732422,"category":"洋館","description":"","image_url":""},{"id":1539,"title":"古今伝授の里 フィールドミュージアム","architect":"瀧光夫","year":1993.0,"address":"岐阜県郡上市大和町牧912-1","latitude":35.81187057495117,"longitude":136.9246368408203,"category":"公園","description":"","image_url":""},{"id":1540,"title":"郡上市総合スポーツセンター「月舟蓋」","architect":"黒川哲郎","year":2001.0,"address":"岐阜県郡上市八幡町旭1130-1","latitude":35.75194549560547,"longitude":136.9669952392578,"category":"体育館","description":"","image_url":""},{"id":1541,"title":"郡上八幡旧庁舎記念館","architect":"不明","year":1936.0,"address":"岐阜県郡上八幡町島谷524-6","latitude":35.74989318847656,"longitude":136.959228515625,"category":"庁舎","description":"","image_url":""},{"id":1542,"title":"岐阜県先端科学技術体験センター サイエンスワールド","architect":"仙田満","year":1999.0,"address":"岐阜県瑞浪市明世町戸狩54","latitude":35.37617492675781,"longitude":137.23703002929688,"category":"博物館","description":"","image_url":""},{"id":1543,"title":"市之倉さかづき美術館","architect":"宮崎一一","year":2002.0,"address":"岐阜県多治見市市之倉町6-30-1","latitude":35.30012130737305,"longitude":137.1271209716797,"category":"美術館","description":"","image_url":""},{"id":1544,"title":"幸兵衛窯","architect":"加藤卓男","year":1973.0,"address":"岐阜県多治見市市之倉町4-115","latitude":35.29881286621094,"longitude":137.1278076171875,"category":"博物館","description":"","image_url":""},{"id":1545,"title":"ギャルリももぐさ","architect":"中村好文","year":null,"address":"岐阜県多治見市東栄町2-8-16","latitude":35.35194396972656,"longitude":137.14007568359375,"category":"ギャラリー","description":"","image_url":""},{"id":1546,"title":"ギャラリー陶林春窯","architect":"不明","year":null,"address":"岐阜県多治見市白山町3-89-1","latitude":35.33927536010742,"longitude":137.1181182861328,"category":"ギャラリー","description":"","image_url":""},{"id":1547,"title":"セラミックパークMINO","architect":"磯崎新","year":2002.0,"address":"岐阜県多治見市東町4-2-5","latitude":35.33103561401367,"longitude":137.1549835205078,"category":"美術館","description":"","image_url":"https://farm8.staticflickr.com/7430/8897227771_7f37648ba4_h.jpg"},{"id":1548,"title":"ソフトピアジャパン・ドリーム・コア","architect":"大江匡","year":2000.0,"address":"岐阜県大垣市今宿6-52-16","latitude":35.36786651611328,"longitude":136.63735961914062,"category":"オフィスビル","description":"","image_url":""},{"id":1549,"title":"ソフトピアジャパンセンタービル","architect":"黒川紀章","year":1996.0,"address":"岐阜県大垣市加賀野4-1-7","latitude":35.36757278442383,"longitude":136.63925170898438,"category":"オフィスビル","description":"","image_url":""},{"id":1550,"title":"IAMAS マルチメディア工房","architect":"SANAA","year":1996.0,"address":"岐阜県大垣市領家町3-95","latitude":35.38588333129883,"longitude":136.62120056152344,"category":"専門学校","description":"","image_url":"https://farm8.staticflickr.com/7307/8922677104_c26954428f_h.jpg"}]}