{"page":35,"total_pages":290,"items_per_page":50,"total_items":14467,"items":[{"id":1701,"title":"飯田市小笠原資料館","architect":"妹島和世","year":1999.0,"address":"長野県飯田市伊豆木3942-1","latitude":35.44610595703125,"longitude":137.79486083984375,"category":"博物館","description":"","image_url":"https://farm8.staticflickr.com/7283/8942620821_ad54684173_h.jpg"},{"id":1702,"title":"澄心寺庫裏","architect":"宮本佳明","year":2009.0,"address":"長野県上伊那郡箕輪町三日町289","latitude":35.90074920654297,"longitude":138.01031494140625,"category":"寺院","description":"","image_url":""},{"id":1703,"title":"興禅寺 看雲庭","architect":"重森三玲","year":1963.0,"address":"長野県木曽郡木曽町福島5659","latitude":35.852970123291016,"longitude":137.70266723632812,"category":"庭園","description":"","image_url":""},{"id":1704,"title":"おぼろ月夜の館 斑山文庫","architect":"宮本忠長","year":1990.0,"address":"長野県下高井郡野沢温泉村大字豊郷9549-ロ-2","latitude":36.921504974365234,"longitude":138.44781494140625,"category":"博物館","description":"","image_url":""},{"id":1705,"title":"安田民俗資料館","architect":"不明","year":null,"address":"新潟県北蒲原郡安田町大字六野瀬","latitude":37.98086166381836,"longitude":139.26612854003906,"category":"洋館","description":"","image_url":""},{"id":1706,"title":"せきかわ歴史とみちの館","architect":"香山壽夫","year":1994.0,"address":"新潟県岩船郡関川村下関1311","latitude":38.09117126464844,"longitude":139.56527709960938,"category":"博物館","description":"","image_url":""},{"id":1707,"title":"旧佐渡鉱山北沢地区 工作工場群跡地広場","architect":"eau","year":2010.0,"address":"新潟県佐渡市相川北沢町2","latitude":38.03725051879883,"longitude":138.24107360839844,"category":"産業遺産/広場","description":"","image_url":""},{"id":1708,"title":"浦島 南館","architect":"北山恒","year":1997.0,"address":"新潟県佐渡市窪田978-3","latitude":38.00410079956055,"longitude":138.31045532226562,"category":"旅館","description":"","image_url":""},{"id":1709,"title":"旧佐渡鉱山大間地区 大間港跡地広場","architect":"eau","year":2010.0,"address":"新潟県佐渡市相川大間町 大間港跡地広場","latitude":38.03886032104492,"longitude":138.23585510253906,"category":"産業遺産/広場","description":"","image_url":""},{"id":1710,"title":"浦島 東館","architect":"内藤廣+原口剛","year":2012.0,"address":"新潟県佐渡市窪田978-3","latitude":38.003761291503906,"longitude":138.3111572265625,"category":"旅館","description":"","image_url":""},{"id":1711,"title":"版画村美術館 旧相川裁判所","architect":"不明","year":null,"address":"新潟県佐渡市相川米屋町38-2 ‎","latitude":38.035152435302734,"longitude":138.24090576171875,"category":"洋館","description":"","image_url":""},{"id":1712,"title":"Snow Peak Headquarters","architect":"大成建設","year":2011.0,"address":"新潟県三条市中野原456","latitude":37.54553985595703,"longitude":139.04498291015625,"category":"低層オフィス/工場/店舗","description":"","image_url":""},{"id":1713,"title":"谷村美術館","architect":"村野藤吾","year":1983.0,"address":"新潟県糸魚川市京ヶ峰2-1-13","latitude":37.041690826416016,"longitude":137.87655639648438,"category":"美術館","description":"","image_url":"https://lh3.googleusercontent.com/-oytl7sM5guQ/T64P7PtiWbI/AAAAAAAAMFg/F_hsNKa6mmI/s1024/P4279473.jpg"},{"id":1714,"title":"当間高原リゾート ベルナティオ la Sala/FIORIA","architect":"鹿島建設+イリア","year":2010.0,"address":"新潟県十日町市馬場癸1239","latitude":37.0489387512207,"longitude":138.73513793945312,"category":"結婚式場","description":"","image_url":""},{"id":1715,"title":"千手温泉 千年の湯","architect":"内田文雄","year":2001.0,"address":"新潟県十日町市水口沢121-7","latitude":37.16255569458008,"longitude":138.73683166503906,"category":"温泉","description":"","image_url":""},{"id":1716,"title":"越後妻有大地の芸術祭の里","architect":"不明","year":null,"address":"新潟県十日町市松代3743-1","latitude":37.131591796875,"longitude":138.61497497558594,"category":"芸術祭・芸術村","description":"2012年　トリエンナーレ","image_url":"https://lh3.googleusercontent.com/-eHzF8tjioxQ/UDi5Mq6cULI/AAAAAAAAeBU/rrQega8PAYE/s1024/lr-8042434.jpg"},{"id":1717,"title":"越後松之山 森の学校 キョロロ ","architect":"手塚建築研究所","year":2003.0,"address":"新潟県十日町市松之山松口1712-2","latitude":37.099700927734375,"longitude":138.61734008789062,"category":"美術館","description":"","image_url":"https://lh3.googleusercontent.com/-NUmMwwugfJk/UDi2XpXZdlI/AAAAAAAAdmw/gzGXq0ZofSw/s1024/lr-8042139.jpg"},{"id":1718,"title":"越後妻有交流館キナーレ ／里山現代美術館 MonET","architect":"原広司","year":2003.0,"address":"新潟県十日町市本町6-1-17-2","latitude":37.138790130615234,"longitude":138.76016235351562,"category":"美術館","description":"","image_url":"https://farm4.staticflickr.com/3714/9457310596_12d6b46072_h.jpg"},{"id":1719,"title":"あてま森と水辺の教室ポポラ 森のホール ／ 水辺のホール","architect":"安藤忠雄","year":2010.0,"address":"新潟県十日町市馬場癸1239","latitude":37.0479621887207,"longitude":138.7359619140625,"category":"体験施設","description":"","image_url":"https://lh3.googleusercontent.com/-IxLenR3tH_g/UDiNgZfrh2I/AAAAAAAAZ1g/S9sijs6u4hE/s1024/lr-8031501.jpg"},{"id":1720,"title":"十日町情報館","architect":"内藤廣","year":1999.0,"address":"新潟県十日町市西本町2-1-1","latitude":37.14208221435547,"longitude":138.75704956054688,"category":"図書館","description":"","image_url":""},{"id":1721,"title":"良寛記念館","architect":"谷口吉郎","year":1961.0,"address":"新潟県三島郡出雲崎町米田1","latitude":37.54238510131836,"longitude":138.6879425048828,"category":"博物館","description":"展示棟の竣工1961年、管理棟の竣工が1964年","image_url":""},{"id":1722,"title":"樹下美術館","architect":"大橋秀三","year":2007.0,"address":"新潟県上越市頸城区城野腰451","latitude":37.206298828125,"longitude":138.30841064453125,"category":"美術館","description":"冬期休館（3/15まで）","image_url":""},{"id":1723,"title":"ほくほく線くびき駅","architect":"毛綱毅曠","year":1997.0,"address":"新潟県上越市頸城区手島 くびき駅","latitude":37.19815444946289,"longitude":138.36155700683594,"category":"駅","description":"","image_url":""},{"id":1724,"title":"雪のまちみらい館","architect":"青木淳","year":1999.0,"address":"新潟県上越市安塚区安塚722-3 ","latitude":37.1279411315918,"longitude":138.44635009765625,"category":"博物館","description":"","image_url":""},{"id":1725,"title":"旧小林古径邸","architect":"吉田五十八","year":1934.0,"address":"新潟県上越市本城町7-7","latitude":37.1104736328125,"longitude":138.2548065185547,"category":"和風住宅","description":"2001年に東京都大田区より宮本忠長設計により移築復元","image_url":""},{"id":1726,"title":"one roof apartment","architect":"平田晃久+吉原美比古","year":2010.0,"address":"新潟県上越市とよば130","latitude":37.10386276245117,"longitude":138.2737274169922,"category":"集合住宅","description":"","image_url":""},{"id":1727,"title":"ゑしんの里記念館","architect":"池原義郎","year":2005.0,"address":"新潟県上越市板倉区米増27-4","latitude":37.03803634643555,"longitude":138.29200744628906,"category":"博物館","description":"","image_url":""},{"id":1728,"title":"桝屋本店","architect":"平田晃久","year":2006.0,"address":"新潟県上越市三和区末野新田341","latitude":37.16300964355469,"longitude":138.37164306640625,"category":"店舗","description":"","image_url":""},{"id":1729,"title":"旧師団長官舎","architect":"不明","year":1910.0,"address":"新潟県上越市大町2-3-30","latitude":37.10660171508789,"longitude":138.2454071044922,"category":"洋館","description":"","image_url":""},{"id":1730,"title":"新潟市江南区文化会館","architect":"新居千秋","year":2012.0,"address":"新潟県新潟市江南区茅野山3-1-14","latitude":37.85638427734375,"longitude":139.0959014892578,"category":"総合文化施設","description":"","image_url":""},{"id":1731,"title":"新潟市歴史博物館 旧新潟税関庁舎","architect":"不明","year":null,"address":"新潟県新潟市中央区柳島町2-10","latitude":37.930484771728516,"longitude":139.05810546875,"category":"博物館","description":"","image_url":""},{"id":1732,"title":"新潟市立中央図書館","architect":"岡田新一","year":2007.0,"address":"新潟県新潟市中央区明石2-1-10","latitude":37.916603088378906,"longitude":139.06790161132812,"category":"図書館","description":"","image_url":""},{"id":1733,"title":"新津記念館 旧新津邸","architect":"大友弘","year":1938.0,"address":"新潟県新潟市旭町通1番町754-34","latitude":37.91902160644531,"longitude":139.03704833984375,"category":"洋館","description":"「石油王」新津恒吉の迎賓館","image_url":""},{"id":1734,"title":"新潟県政記念館","architect":"不明","year":null,"address":"新潟県新潟市一番堀通3-3","latitude":37.914581298828125,"longitude":139.04052734375,"category":"洋館","description":"重要文化財","image_url":""},{"id":1735,"title":"曽我・平澤記念館","architect":"香山壽夫","year":1991.0,"address":"新潟県新潟市南区味方213-1","latitude":37.7757453918457,"longitude":139.00990295410156,"category":"博物館","description":"","image_url":""},{"id":1736,"title":"サルナート 吉運堂","architect":"黒川紀章","year":1985.0,"address":"新潟県新潟市南区戸頭1347-1","latitude":37.757728576660156,"longitude":139.0175323486328,"category":"店舗/低層オフィス","description":"","image_url":""},{"id":1737,"title":"ナミックステクノコア","architect":"山本理顕","year":2008.0,"address":"新潟県新潟市北区島見町3337-1","latitude":37.97207260131836,"longitude":139.2080535888672,"category":"企業施設","description":"30日前までに予約","image_url":"https://farm6.staticflickr.com/5332/8944808594_006b650898_h.jpg"},{"id":1738,"title":"新潟市立葛塚中学校","architect":"安藤忠雄","year":2004.0,"address":"新潟県新潟市北区太田乙433","latitude":37.92228698730469,"longitude":139.22950744628906,"category":"学校","description":"","image_url":"https://lh3.googleusercontent.com/-JHLuzFTDiUM/T635DQuaJXI/AAAAAAAALnU/7QxKIAkRZjc/s1024/P4259108.jpg"},{"id":1739,"title":"潟博物館 水の駅 ビュー福島潟","architect":"青木淳","year":1997.0,"address":"新潟県新潟市北区前新田乙493","latitude":37.9135627746582,"longitude":139.24026489257812,"category":"博物館","description":"","image_url":"https://farm4.staticflickr.com/3783/8908078798_1be86aa641_h.jpg"},{"id":1740,"title":"新潟市立豊栄図書館","architect":"安藤忠雄","year":2000.0,"address":"新潟県新潟市北区東栄町1-1-35","latitude":37.914039611816406,"longitude":139.2211456298828,"category":"図書館","description":"","image_url":"https://lh3.googleusercontent.com/-tBeIf_CAG-k/T634ebmnAyI/AAAAAAAALh8/ErKOHnSBbYk/s1024/P4259044.jpg"},{"id":1741,"title":"新潟市民芸術文化会館 りゅーとぴあ","architect":"長谷川逸子","year":1998.0,"address":"新潟県新潟市中央区一番堀通町3-2","latitude":37.91345977783203,"longitude":139.04071044921875,"category":"ホール・劇場","description":"","image_url":"https://lh3.googleusercontent.com/-UTL2WwW5niY/T637k6t3jrI/AAAAAAAALuk/d69OVmwS-1s/s1024/P4269206.jpg"},{"id":1742,"title":"山の下みなとタワー・入船みなとタワー","architect":"小林克弘","year":2002.0,"address":"新潟県新潟市東区臨海町2-4","latitude":37.943843841552734,"longitude":139.0717315673828,"category":"展望台","description":"","image_url":"https://farm3.staticflickr.com/2834/9786854216_70f9f4bbc9_h.jpg"},{"id":1743,"title":"天寿園 瞑想館","architect":"村野藤吾","year":1988.0,"address":"新潟県新潟市中央区清五郎633-8","latitude":37.879295349121094,"longitude":139.05393981933594,"category":"寺院/公園/美術館","description":"","image_url":"https://farm9.staticflickr.com/8403/8933772581_93fce53316_h.jpg"},{"id":1744,"title":"新潟ふるさと村アピール館","architect":"香山壽夫","year":1991.0,"address":"新潟県新潟市西区山田2307-1","latitude":37.865352630615234,"longitude":139.02029418945312,"category":"博物館/PA・道の駅","description":"","image_url":"https://farm4.staticflickr.com/3739/12220974923_ba5192d0ba_h.jpg"},{"id":1745,"title":"清水園 旧新発田藩下屋敷","architect":"不明","year":1693.0,"address":"新潟県新発田市大栄町7-9-32","latitude":37.943443298339844,"longitude":139.328369140625,"category":"寺院","description":"","image_url":""},{"id":1746,"title":"吉運堂 新発田店","architect":"黒川紀章","year":2005.0,"address":"新潟県新発田市城北町2-10-22","latitude":37.9630126953125,"longitude":139.32418823242188,"category":"店舗","description":"","image_url":""},{"id":1747,"title":"蕗谷虹児記念館","architect":"内井昭蔵","year":1987.0,"address":"新潟県新発田市中央町4-11-7","latitude":37.9517822265625,"longitude":139.32736206054688,"category":"美術館","description":"","image_url":""},{"id":1748,"title":"新発田カトリック教会","architect":"アントニン・レーモンド","year":1966.0,"address":"新潟県新発田市中央町1-7-7","latitude":37.9505729675293,"longitude":139.32864379882812,"category":"教会","description":"","image_url":"https://lh3.googleusercontent.com/-WmZs-miOxiw/T63gapR5A6I/AAAAAAAALT8/2dAYTgcuajs/s1024/P4258913.jpg"},{"id":1749,"title":"聖籠町立聖籠中学校","architect":"香山壽夫","year":2001.0,"address":"新潟県北蒲原郡聖籠町蓮潟366-1","latitude":37.98545837402344,"longitude":139.2762908935547,"category":"学校","description":"","image_url":""},{"id":1750,"title":"相川郷土博物館","architect":"不明","year":1895.0,"address":"新潟県佐渡市相川坂下町20","latitude":38.03738784790039,"longitude":138.2401123046875,"category":"洋館","description":"","image_url":""}]}