{"page":69,"total_pages":290,"items_per_page":50,"total_items":14467,"items":[{"id":3401,"title":"和光 旧服部時計店","architect":"渡辺仁","year":1932.0,"address":"東京都中央区銀座4-5-11","latitude":35.67167663574219,"longitude":139.76504516601562,"category":"店舗","description":"","image_url":""},{"id":3402,"title":"T-LATTICE","architect":"北山恒+木下道郎+谷内田章夫","year":1991.0,"address":"東京都渋谷区富ヶ谷2-23-8","latitude":35.663238525390625,"longitude":139.68287658691406,"category":"オフィスビル","description":"ワークショップ名義","image_url":""},{"id":3403,"title":"三経75ビル 旧一番館","architect":"竹山実+粟津潔","year":1970.0,"address":"東京都新宿区歌舞伎町2-20","latitude":35.6973991394043,"longitude":139.70408630371094,"category":"オフィスビル","description":"","image_url":""},{"id":3404,"title":"二番館","architect":"竹山実+粟津潔","year":1970.0,"address":"東京都新宿区歌舞伎町2-30-14","latitude":35.69706344604492,"longitude":139.7036590576172,"category":"オフィスビル","description":"","image_url":""},{"id":3405,"title":"日本橋高島屋","architect":"高橋貞太郎+前田健二郎+片岡安+村野藤吾","year":1933.0,"address":"東京都中央区日本橋2-4-1","latitude":35.680667877197266,"longitude":139.77369689941406,"category":"店舗","description":"1933年に高橋貞太郎+前田健二郎+片岡安（顧問）設計で竣工（日本生命館）、1952年、54年に村野藤吾による増築。また新館は1963年に村野藤吾設計。","image_url":""},{"id":3406,"title":"T-office","architect":"篠原聡子","year":2000.0,"address":"東京都目黒区三田1-11-29","latitude":35.640838623046875,"longitude":139.71221923828125,"category":"オフィスビル","description":"","image_url":""},{"id":3407,"title":"晴海客船ターミナル","architect":"竹山実","year":1991.0,"address":"東京都中央区晴海5-7-1","latitude":35.646968841552734,"longitude":139.77316284179688,"category":"港","description":"2022年2月20日の営業を持って閉館、その後解体。","image_url":""},{"id":3408,"title":"SHIBUYA109","architect":"竹山実","year":1978.0,"address":"東京都渋谷区道玄坂2-29-1","latitude":35.65958786010742,"longitude":139.69862365722656,"category":"テナントビル","description":"","image_url":""},{"id":3409,"title":"スピークフォービル","architect":"照井信三","year":1999.0,"address":"東京都渋谷区猿楽町28-2","latitude":35.64814376831055,"longitude":139.70108032226562,"category":"テナントビル","description":"","image_url":""},{"id":3410,"title":"林原第5ビル","architect":"リチャード・ロジャース+アーキテクトファイブ","year":1993.0,"address":"東京都新宿区歌舞伎町2-1-5","latitude":35.695213317871094,"longitude":139.70635986328125,"category":"オフィスビル","description":"","image_url":""},{"id":3411,"title":"安与ビル","architect":"明石信道","year":1969.0,"address":"東京都新宿区新宿3-37-11","latitude":35.69063186645508,"longitude":139.70127868652344,"category":"オフィスビル","description":"","image_url":""},{"id":3412,"title":"岡山高島屋","architect":"村野藤吾","year":1973.0,"address":"岡山県岡山市北区本町6-40","latitude":34.664756774902344,"longitude":133.9197235107422,"category":"店舗","description":"","image_url":""},{"id":3413,"title":"Tree's","architect":"妹尾正治","year":1986.0,"address":"京都府京都市北区上賀茂今井河原町66","latitude":35.05091857910156,"longitude":135.75961303710938,"category":"モール","description":"","image_url":""},{"id":3414,"title":"京都タワービル","architect":"山田守","year":1964.0,"address":"京都府京都市下京区東塩小路町721","latitude":34.98752212524414,"longitude":135.7593536376953,"category":"観光施設","description":"","image_url":""},{"id":3415,"title":"LVMH大阪 エトワール心斎橋","architect":"隈研吾+乾久美子","year":2004.0,"address":"大阪府大阪市中央区心斎橋筋1-9-17","latitude":34.674560546875,"longitude":135.5006561279297,"category":"店舗","description":"一階Dior心斎橋のファサード設計は乾久美子","image_url":""},{"id":3416,"title":"もちいどの夢CUBE","architect":"勝村一郎","year":2007.0,"address":"奈良県奈良市餅飯殿町12","latitude":34.680320739746094,"longitude":135.82916259765625,"category":"モール","description":"","image_url":""},{"id":3417,"title":"ヴォヤージュ ドゥ ルミエール 京都七条迎賓館 旧鴻池銀行七条支店","architect":"宗兵蔵+大倉三郎+芦澤竜一","year":1927.0,"address":"京都府京都市下京区夷之町（七条通）704","latitude":34.98946762084961,"longitude":135.75611877441406,"category":"結婚式場/金融機関","description":"2014年に芦澤竜一設計で改修","image_url":""},{"id":3418,"title":"学士会館","architect":"高橋貞太郎","year":1928.0,"address":"東京都千代田区神田錦町3-28","latitude":35.693199157714844,"longitude":139.75909423828125,"category":"ホテル","description":"2024年12月一杯で休業。新館は解体、旧館は曳家で保存予定","image_url":""},{"id":3419,"title":"川奈ホテル","architect":"高橋貞太郎","year":1936.0,"address":"静岡県伊東市川奈1459","latitude":34.940128326416016,"longitude":139.1399688720703,"category":"ホテル","description":"","image_url":""},{"id":3420,"title":"大阪水道記念館 旧柴島浄水場第一排水ポンプ場","architect":"宗兵蔵","year":1914.0,"address":"大阪府大阪市東淀川区柴島1-3-1","latitude":34.724483489990234,"longitude":135.5054931640625,"category":"博物館","description":"","image_url":""},{"id":3421,"title":"メリヤス会館 旧莫大小会館","architect":"宗兵蔵","year":1929.0,"address":"大阪府大阪市福島区福島3-1-39","latitude":34.690677642822266,"longitude":135.48464965820312,"category":"テナントビル","description":"","image_url":""},{"id":3422,"title":"苗場プリヴェ サンダンス・リゾート苗場","architect":"北山恒+木下道郎+谷内田章夫","year":1988.0,"address":"新潟県南魚沼郡湯沢町三国469","latitude":36.7876091003418,"longitude":138.78660583496094,"category":"ホテル","description":"ワークショップ名義","image_url":""},{"id":3423,"title":"オナーズヒル軽井沢","architect":"谷内田章夫","year":2002.0,"address":"長野県北佐久郡軽井沢町茂沢472-15","latitude":36.307804107666016,"longitude":138.55491638183594,"category":"ホテル","description":"","image_url":""},{"id":3424,"title":"廊の家 オナーズヒル軽井沢 プレミアムスイート1","architect":"TNA","year":2008.0,"address":"長野県北佐久郡軽井沢町茂沢472-15","latitude":36.31011962890625,"longitude":138.55715942382812,"category":"住宅","description":"販売中。宿泊も可能。","image_url":""},{"id":3425,"title":"霧の蔵ブルワリー","architect":"木下道郎","year":1998.0,"address":"宮崎県都城市志比田町5480","latitude":31.74214744567871,"longitude":131.06080627441406,"category":"レストラン","description":"","image_url":""},{"id":3426,"title":"旧八幡郵便局","architect":"ウィリアム・メレル・ヴォーリズ","year":1921.0,"address":"滋賀県近江八幡市仲屋町中8","latitude":35.138519287109375,"longitude":136.09255981445312,"category":"その他文化施設","description":"2004年、玄関部分復元","image_url":""},{"id":3427,"title":"ニュー新橋ビル","architect":"松田平田設計","year":1971.0,"address":"東京都港区新橋2-16-1","latitude":35.666412353515625,"longitude":139.75746154785156,"category":"テナントビル","description":"","image_url":""},{"id":3428,"title":"神戸大丸 南館","architect":"北山孝二郎","year":1992.0,"address":"兵庫県神戸市中央区明石町40","latitude":34.68867874145508,"longitude":135.19044494628906,"category":"店舗","description":"","image_url":""},{"id":3429,"title":"フロインドリーブ本店 旧ユニオン教会","architect":"ウィリアム・メレル・ヴォーリズ","year":1928.0,"address":"兵庫県神戸市中央区生田町4-6-15","latitude":34.70077133178711,"longitude":135.19517517089844,"category":"店舗/カフェ","description":"","image_url":""},{"id":3430,"title":"HUQUE.BLDG南船場","architect":"若林広幸","year":2004.0,"address":"大阪府大阪市中央区南船場4-10-13","latitude":34.676944732666016,"longitude":135.49827575683594,"category":"オフィスビル","description":"","image_url":""},{"id":3431,"title":"1928ビル 旧毎日新聞社京都支局","architect":"武田五一","year":1928.0,"address":"京都府京都市中京区三条通御幸町東南角1928","latitude":35.00823974609375,"longitude":135.75662231445312,"category":"ギャラリー","description":"貸しホール、貸し館。若林広幸がオーナーであり改修も行った","image_url":""},{"id":3432,"title":"大成閣","architect":"村野藤吾","year":1964.0,"address":"大阪府大阪市中央区東心斎橋1-18-12","latitude":34.67377471923828,"longitude":135.50286865234375,"category":"レストラン","description":"","image_url":""},{"id":3433,"title":"アスナル金山","architect":"北山孝二郎","year":2005.0,"address":"愛知県名古屋市中区金山1-17-1","latitude":35.1436882019043,"longitude":136.9005126953125,"category":"モール","description":"","image_url":""},{"id":3434,"title":"シーマークビルディング","architect":"北山孝二郎","year":2007.0,"address":"福岡県福岡市東区香椎照葉3-2-1","latitude":33.66274642944336,"longitude":130.4222412109375,"category":"オフィスビル","description":"","image_url":""},{"id":3435,"title":"フレスタモールカジル横川","architect":"北山孝二郎","year":2002.0,"address":"広島県広島市西区横川町3-2-36","latitude":34.40949630737305,"longitude":132.44862365722656,"category":"モール","description":"","image_url":""},{"id":3436,"title":"ビナウォーク海老名","architect":"北山孝二郎","year":2002.0,"address":"神奈川県海老名市中央1-4-1","latitude":35.451995849609375,"longitude":139.3935546875,"category":"モール","description":"","image_url":""},{"id":3437,"title":"ココラフロント","architect":"北山孝二郎","year":2008.0,"address":"愛知県豊橋市駅前大通1-55","latitude":34.762184143066406,"longitude":137.3839569091797,"category":"モール","description":"","image_url":""},{"id":3438,"title":"草津温泉 御座之湯","architect":"北山孝二郎","year":2013.0,"address":"群馬県吾妻郡草津町草津421","latitude":36.62234115600586,"longitude":138.59591674804688,"category":"温泉","description":"","image_url":""},{"id":3439,"title":"芦ノ湖テラス","architect":"北山孝二郎","year":2007.0,"address":"神奈川県足柄下郡箱根町元箱根61","latitude":35.20368194580078,"longitude":139.03076171875,"category":"カフェ","description":"","image_url":""},{"id":3440,"title":"さつき別荘","architect":"北山孝二郎","year":2007.0,"address":"熊本県玉名市岩崎368-2","latitude":32.93865203857422,"longitude":130.5591583251953,"category":"旅館","description":"","image_url":""},{"id":3441,"title":"横浜ベイクォーター","architect":"北山孝二郎","year":2006.0,"address":"神奈川県横浜市神奈川区金港町1-10","latitude":35.46656036376953,"longitude":139.6266632080078,"category":"モール","description":"","image_url":""},{"id":3442,"title":"日本料理テッセン","architect":"北山孝二郎","year":2004.0,"address":"静岡県駿東郡長泉町東野クレマチスの丘347-1 ‎","latitude":35.172271728515625,"longitude":138.87425231933594,"category":"レストラン","description":"","image_url":""},{"id":3443,"title":"キヤッセ羽生","architect":"北山孝二郎","year":2001.0,"address":"埼玉県羽生市三田ヶ谷1725","latitude":36.17202377319336,"longitude":139.60169982910156,"category":"公園","description":"","image_url":""},{"id":3444,"title":"チャーチストリート軽井沢","architect":"北山孝二郎","year":2000.0,"address":"長野県北佐久郡軽井沢町軽井沢（大字）601-1","latitude":36.35905838012695,"longitude":138.6348876953125,"category":"モール","description":"BISHOP軽井沢跡地","image_url":""},{"id":3445,"title":"南海platplat","architect":"北山孝二郎","year":2000.0,"address":"大阪府堺市堺区戎島町3-22-1","latitude":34.58177185058594,"longitude":135.46910095214844,"category":"モール","description":"","image_url":""},{"id":3446,"title":"白ばら幼稚園","architect":"北山孝二郎","year":2009.0,"address":"福島県いわき市山田町林崎前15 ‎","latitude":36.929500579833984,"longitude":140.7725830078125,"category":"幼稚園","description":"","image_url":""},{"id":3447,"title":"いわき幼稚園","architect":"北山孝二郎","year":2008.0,"address":"福島県いわき市平下荒川川前12-1","latitude":37.03910446166992,"longitude":140.90576171875,"category":"幼稚園","description":"","image_url":""},{"id":3448,"title":"アーステクチャー サブワン","architect":"高松伸","year":1991.0,"address":"東京都渋谷区上原2-30-4","latitude":35.66402053833008,"longitude":139.6802520751953,"category":"低層オフィス","description":"","image_url":""},{"id":3449,"title":"ユナイテッドアローズ 原宿本店 メンズ館","architect":"リカルド・ボフィル+鹿島建設","year":1992.0,"address":"東京都渋谷区神宮前3-28-1","latitude":35.67179870605469,"longitude":139.70953369140625,"category":"店舗","description":"","image_url":""},{"id":3450,"title":"東京銀座資生堂ビル","architect":"リカルド・ボフィル","year":2001.0,"address":"東京都中央区銀座8-8-3","latitude":35.668556213378906,"longitude":139.76185607910156,"category":"オフィスビル","description":"","image_url":""}]}