{"page":34,"total_pages":290,"items_per_page":50,"total_items":14467,"items":[{"id":1651,"title":"松本深志教育会館","architect":"柳澤孝彦","year":2006.0,"address":"長野県松本市蟻ヶ崎3-3-1","latitude":36.24567413330078,"longitude":137.9659423828125,"category":"学校/体育館","description":"","image_url":""},{"id":1652,"title":"旧開智学校","architect":"不明","year":1873.0,"address":"長野県松本市開智2-4-12","latitude":36.24300003051758,"longitude":137.96807861328125,"category":"洋館","description":"","image_url":""},{"id":1653,"title":"ラ・シェネガ west","architect":"遠藤克彦","year":2012.0,"address":"長野県松本市大手2-1-15","latitude":36.23430633544922,"longitude":137.96665954589844,"category":"店舗","description":"","image_url":""},{"id":1654,"title":"日本浮世絵博物館","architect":"篠原一男","year":1982.0,"address":"長野県松本市島立2206-1","latitude":36.231903076171875,"longitude":137.93453979492188,"category":"美術館","description":"","image_url":""},{"id":1655,"title":"窪田空穂記念館","architect":"柳澤孝彦","year":1993.0,"address":"長野県松本市和田1715-1","latitude":36.20649719238281,"longitude":137.91725158691406,"category":"博物館","description":"","image_url":""},{"id":1656,"title":"山辺学校歴史民俗資料館 旧山辺学校校舎","architect":"不明","year":1883.0,"address":"長野県松本市大字里山辺2930-1","latitude":36.23533248901367,"longitude":138.00347900390625,"category":"洋館","description":"","image_url":""},{"id":1657,"title":"サードミレニアムゲート","architect":"竹山聖","year":2001.0,"address":"長野県松本市中央2-3-1","latitude":36.23355484008789,"longitude":137.9689483642578,"category":"オフィスビル/テナントビル","description":"","image_url":""},{"id":1658,"title":"まつもと市民芸術館","architect":"伊東豊雄","year":2004.0,"address":"長野県松本市深志3-10-1","latitude":36.229915618896484,"longitude":137.9746856689453,"category":"ホール・劇場","description":"","image_url":"https://farm8.staticflickr.com/7321/8935038589_68c089749d_h.jpg"},{"id":1659,"title":"松本市美術館","architect":"宮本忠長","year":2002.0,"address":"長野県松本市中央4-2-22","latitude":36.231624603271484,"longitude":137.97650146484375,"category":"美術館","description":"","image_url":"https://lh3.googleusercontent.com/-yodFLt23KqE/UN7kOVvlVsI/AAAAAAAAvVw/F13F6ltDfns/s800/lr-020611.jpg"},{"id":1660,"title":"上田市農林漁業体験実習館 室賀温泉ささらの湯","architect":"北川原温","year":1997.0,"address":"長野県上田市上室賀1232-1","latitude":36.40958786010742,"longitude":138.14816284179688,"category":"温泉","description":"","image_url":""},{"id":1661,"title":"上田市マルチメディア情報センター","architect":"小宮山昭","year":1995.0,"address":"長野県上田市下之郷812-1","latitude":36.36381912231445,"longitude":138.23683166503906,"category":"公民館・交流施設/図書館","description":"","image_url":""},{"id":1662,"title":"信濃デッサン館 槐多庵","architect":"北川原温","year":1985.0,"address":"長野県上田市古安曽3478","latitude":36.34274673461914,"longitude":138.19876098632812,"category":"美術館","description":"閉館中。外観は現存。","image_url":""},{"id":1663,"title":"中澤ホール","architect":"早川邦彦","year":1983.0,"address":"長野県上田市中央6-3-26","latitude":36.40351867675781,"longitude":138.25888061523438,"category":"ホール・劇場","description":"","image_url":""},{"id":1664,"title":"石井鶴三美術館","architect":"不明","year":1915.0,"address":"長野県上田市大手2-7-13","latitude":36.40440368652344,"longitude":138.24771118164062,"category":"洋館","description":"","image_url":""},{"id":1665,"title":"無言館","architect":"縣孝二","year":1997.0,"address":"長野県上田市古安曽山王山3462","latitude":36.345436096191406,"longitude":138.2000274658203,"category":"美術館","description":"","image_url":""},{"id":1666,"title":"旧宣教師館","architect":"不明","year":1904.0,"address":"長野県上田市大字下之郷812-8","latitude":36.36348342895508,"longitude":138.2354736328125,"category":"洋館","description":"","image_url":""},{"id":1667,"title":"一茶記念館","architect":"宮本忠長","year":2003.0,"address":"長野県上水内郡信濃町柏原2437-2","latitude":36.80900573730469,"longitude":138.20057678222656,"category":"博物館","description":"","image_url":""},{"id":1668,"title":"サンリツ服部美術館","architect":"内井昭蔵","year":1994.0,"address":"長野県諏訪市湖岸通り2-1-1","latitude":36.055057525634766,"longitude":138.11199951171875,"category":"美術館","description":"","image_url":""},{"id":1669,"title":"片倉館","architect":"森山松之助","year":1928.0,"address":"長野県諏訪市湖岸通り4-1-9","latitude":36.04820251464844,"longitude":138.1131134033203,"category":"温泉/洋館","description":"事前申し込みのガイドツアー有り","image_url":"https://lh3.googleusercontent.com/-NycMZ2YGdTU/UdzXR6nVEnI/AAAAAAAA-G4/FEUulQGBiGI/s1024/lr-6171429.jpg"},{"id":1670,"title":"日東光学ショールーム・金子茶房","architect":"柳澤孝彦","year":2010.0,"address":"長野県諏訪市中洲826","latitude":35.99795913696289,"longitude":138.12060546875,"category":"カフェ/企業施設","description":"","image_url":"https://farm6.staticflickr.com/5492/9263754248_8746727272_h.jpg"},{"id":1671,"title":"須坂クラシック美術館 旧牧新七家","architect":"不明","year":null,"address":"長野県須坂市大字須坂371-6","latitude":36.65440368652344,"longitude":138.3084259033203,"category":"洋館","description":"","image_url":""},{"id":1672,"title":"長野県稲荷山養護学校","architect":"北川原温","year":2007.0,"address":"長野県千曲市野高場1795","latitude":36.538272857666016,"longitude":138.10755920410156,"category":"専門学校","description":"","image_url":""},{"id":1673,"title":"笹屋ホテル 豊年虫","architect":"遠藤新","year":1932.0,"address":"長野県千曲市戸倉温泉3055","latitude":36.4835319519043,"longitude":138.14230346679688,"category":"旅館","description":"","image_url":""},{"id":1674,"title":"川上村林業総合センター","architect":"飯田善彦","year":1995.0,"address":"長野県南佐久郡川上村大字大深山536","latitude":35.974952697753906,"longitude":138.577880859375,"category":"観光施設","description":"","image_url":""},{"id":1675,"title":"東京YMCA野辺山高原センター","architect":"内井昭蔵","year":1976.0,"address":"長野県南佐久郡川上村樋沢1416","latitude":35.95556640625,"longitude":138.4880828857422,"category":"ホテル","description":"解体","image_url":""},{"id":1676,"title":"仁科神明宮","architect":"不明","year":1636.0,"address":"長野県大町市社宮本1159","latitude":36.445072174072266,"longitude":137.87574768066406,"category":"寺院","description":"","image_url":""},{"id":1677,"title":"真福寺 客殿","architect":"宮本佳明","year":2013.0,"address":"長野県上伊那郡辰野町大字伊那富羽場7831","latitude":35.95286560058594,"longitude":137.98004150390625,"category":"寺院","description":"","image_url":""},{"id":1678,"title":"アンフォルメル中川村美術館","architect":"毛綱毅曠","year":1989.0,"address":"長野県上伊那郡中川村大草2124","latitude":35.64665603637695,"longitude":137.95462036132812,"category":"美術館","description":"火・木・土・日開館。変則的なので注意。","image_url":""},{"id":1679,"title":"長野県信濃美術館","architect":"日建設計","year":1966.0,"address":"長野県長野市箱清水1-4-4","latitude":36.66148376464844,"longitude":138.19100952148438,"category":"美術館","description":"解体済み","image_url":""},{"id":1680,"title":"NHK長野放送会館","architect":"みかんぐみ","year":1997.0,"address":"長野県長野市稲葉210-2","latitude":36.63007354736328,"longitude":138.1975555419922,"category":"公共施設","description":"","image_url":""},{"id":1681,"title":"長野市立博物館","architect":"宮本忠長","year":1981.0,"address":"長野県長野市小島田町1414","latitude":36.59156799316406,"longitude":138.18792724609375,"category":"博物館","description":"","image_url":""},{"id":1682,"title":"奥社の茶屋","architect":"隈研吾","year":2003.0,"address":"長野県長野市戸隠3506","latitude":36.74246597290039,"longitude":138.08509826660156,"category":"レストラン","description":"","image_url":""},{"id":1683,"title":"長野市オリンピック記念アリーナ エムウェーブ","architect":"久米設計+鹿島建設","year":1996.0,"address":"長野県長野市北長池195","latitude":36.640655517578125,"longitude":138.2402801513672,"category":"スポーツ施設/スタジアム","description":"","image_url":""},{"id":1684,"title":"長野オリンピックスタジアム","architect":"類設計室","year":2000.0,"address":"長野県長野市篠ノ井東福寺320","latitude":36.579769134521484,"longitude":138.16810607910156,"category":"スタジアム","description":"","image_url":""},{"id":1685,"title":"日本クレーン協会長野支部博物館 旧池田警察署庁舎","architect":"不明","year":null,"address":"長野県長野市篠ノ井布施五明463-32","latitude":36.57806396484375,"longitude":138.13082885742188,"category":"洋館","description":"","image_url":""},{"id":1686,"title":"池田満寿夫美術館","architect":"竹中工務店","year":1996.0,"address":"長野県長野市松代町松代殿町10","latitude":36.565372467041016,"longitude":138.19798278808594,"category":"美術館","description":"","image_url":""},{"id":1687,"title":"長野県信濃美術館 東山魁夷館","architect":"谷口吉生","year":1989.0,"address":"長野県長野市箱清水1-4-4","latitude":36.66196823120117,"longitude":138.19110107421875,"category":"美術館","description":"","image_url":"https://farm3.staticflickr.com/2867/9265231487_6e76ceea09_h.jpg"},{"id":1688,"title":"長野市今井ニュータウン（オリンピック選手村） G工区","architect":"遠藤剛生","year":1998.0,"address":"長野県長野市川中島町今井原7","latitude":36.59461975097656,"longitude":138.1477813720703,"category":"集合住宅","description":"","image_url":"https://lh3.googleusercontent.com/-gX0kpEjMFq8/UdzUcUV_tYI/AAAAAAAA94U/ffwSOQgsmXo/s1024/lr-6161413.jpg"},{"id":1689,"title":"長野市今井ニュータウン（オリンピック選手村） E工区","architect":"松永安光","year":1998.0,"address":"長野県長野市川中島町今井原","latitude":36.594322204589844,"longitude":138.1480712890625,"category":"集合住宅","description":"","image_url":"https://lh3.googleusercontent.com/-gX0kpEjMFq8/UdzUcUV_tYI/AAAAAAAA94U/ffwSOQgsmXo/s1024/lr-6161413.jpg"},{"id":1690,"title":"長野市今井ニュータウン（オリンピック選手村） D工区","architect":"富永譲","year":1998.0,"address":"長野県長野市川中島町今井原8","latitude":36.59377670288086,"longitude":138.1470184326172,"category":"集合住宅","description":"","image_url":"https://lh3.googleusercontent.com/-gX0kpEjMFq8/UdzUcUV_tYI/AAAAAAAA94U/ffwSOQgsmXo/s1024/lr-6161413.jpg"},{"id":1691,"title":"長野市今井ニュータウン（オリンピック選手村） F工区","architect":"元倉眞琴","year":1998.0,"address":"長野県長野市川中島町今井原","latitude":36.59356689453125,"longitude":138.14794921875,"category":"集合住宅","description":"","image_url":"https://lh3.googleusercontent.com/-gX0kpEjMFq8/UdzUcUV_tYI/AAAAAAAA94U/ffwSOQgsmXo/s1024/lr-6161413.jpg"},{"id":1692,"title":"長野市今井ニュータウン（オリンピック選手村） C工区","architect":"内藤廣","year":1998.0,"address":"長野県長野市川中島町今井原3","latitude":36.593017578125,"longitude":138.14935302734375,"category":"集合住宅","description":"","image_url":"https://lh3.googleusercontent.com/-gX0kpEjMFq8/UdzUcUV_tYI/AAAAAAAA94U/ffwSOQgsmXo/s1024/lr-6161413.jpg"},{"id":1693,"title":"長野市今井ニュータウン（オリンピック選手村） B工区","architect":"長谷川逸子","year":1998.0,"address":"長野県長野市川中島町今井原9","latitude":36.5929069519043,"longitude":138.1467742919922,"category":"集合住宅","description":"","image_url":"https://lh3.googleusercontent.com/-gX0kpEjMFq8/UdzUcUV_tYI/AAAAAAAA94U/ffwSOQgsmXo/s1024/lr-6161413.jpg"},{"id":1694,"title":"長野市今井ニュータウン（オリンピック選手村） A工区","architect":"新居千秋","year":1998.0,"address":"長野県長野市川中島町今井原6","latitude":36.59272384643555,"longitude":138.14810180664062,"category":"集合住宅","description":"","image_url":"https://lh3.googleusercontent.com/-gX0kpEjMFq8/UdzUcUV_tYI/AAAAAAAA94U/ffwSOQgsmXo/s1024/lr-6161413.jpg"},{"id":1695,"title":"北野美術館","architect":"吉村順三+重森三玲","year":1968.0,"address":"長野県長野市若穂綿内7963-2","latitude":36.617740631103516,"longitude":138.25279235839844,"category":"美術館","description":"庭園は重森三玲","image_url":"https://farm8.staticflickr.com/7355/9457323766_75aad2d000_h.jpg"},{"id":1696,"title":"大田区休養村とうぶ","architect":"伊東豊雄","year":1998.0,"address":"長野県東御市和6733-1","latitude":36.3984260559082,"longitude":138.35337829589844,"category":"ホテル","description":"","image_url":""},{"id":1697,"title":"八ヶ岳高原音楽堂","architect":"吉村順三","year":1988.0,"address":"長野県南佐久郡南牧村海ノ口2244","latitude":35.98859786987305,"longitude":138.43899536132812,"category":"ホール・劇場","description":"","image_url":""},{"id":1698,"title":"福沢桃介記念館","architect":"不明","year":null,"address":"長野県木曽郡南木曽町読書2941","latitude":35.59858322143555,"longitude":137.60511779785156,"category":"洋館","description":"","image_url":""},{"id":1699,"title":"飯田高羽合同庁舎","architect":"原広司","year":2002.0,"address":"長野県飯田市高羽町6-1-5","latitude":35.52336120605469,"longitude":137.82179260253906,"category":"庁舎","description":"","image_url":""},{"id":1700,"title":"飯田市美術博物館","architect":"原広司","year":1988.0,"address":"長野県飯田市追手町2-655-7","latitude":35.511878967285156,"longitude":137.8319854736328,"category":"美術館","description":"","image_url":""}]}