{"page":196,"total_pages":290,"items_per_page":50,"total_items":14467,"items":[{"id":9751,"title":"神社本庁","architect":"菊竹清訓","year":1987.0,"address":"東京都渋谷区代々木1-1-2","latitude":35.679500579833984,"longitude":139.7029266357422,"category":"公共施設/宗教施設","description":"菊竹清訓は設計監修","image_url":""},{"id":9752,"title":"東京都立多摩図書館 ／ 東京都公文書館","architect":"佐藤総合計画","year":2016.0,"address":"東京都国分寺市泉町2-2-226","latitude":35.69807434082031,"longitude":139.47003173828125,"category":"図書館/公共施設","description":"","image_url":""},{"id":9753,"title":"T-FIT HATCHOBORI","architect":"戸田建設","year":2019.0,"address":"東京都中央区八丁堀2-8-5","latitude":35.67669677734375,"longitude":139.77536010742188,"category":"オフィスビル","description":"","image_url":""},{"id":9754,"title":"佐賀城公園 こころざしの森","architect":"馬場正尊","year":2017.0,"address":"佐賀県佐賀市城内2-1","latitude":33.24957275390625,"longitude":130.30104064941406,"category":"公園","description":"他、同設計者で県庁内地下食堂、県庁デザイン部署執務室、県庁内サインの改修が行われている","image_url":""},{"id":9755,"title":"くまの就労支援センター ヨリドコ","architect":"多田正治","year":2020.0,"address":"和歌山県新宮市仲之町3-1-8","latitude":33.72853469848633,"longitude":135.99002075195312,"category":"公共施設","description":"","image_url":""},{"id":9756,"title":"コウノイエ","architect":"多田正治+佐野こずえ","year":2016.0,"address":"三重県熊野市神川町神上938","latitude":33.95159912109375,"longitude":136.00477600097656,"category":"古民家","description":"","image_url":""},{"id":9757,"title":"地域に開かれたワイナリー 98winesワイナリー","architect":"坂野由美子","year":2018.0,"address":"山梨県甲州市塩山福生里250-1","latitude":35.74373245239258,"longitude":138.7462158203125,"category":"カフェ/醸造所","description":"醸造棟の竣工が2018年6月。店舗棟は2019年3月。","image_url":""},{"id":9758,"title":"日本の窓 木製サッシ十和田工場","architect":"東京組+沼田直樹","year":2017.0,"address":"青森県十和田市大字八斗沢字八斗沢68-10","latitude":40.65158462524414,"longitude":141.2308807373047,"category":"工場","description":"","image_url":""},{"id":9759,"title":"大雪渓酒造 花紋大雪渓","architect":"川上恵一","year":2016.0,"address":"長野県北安曇郡池田町会染9642-2","latitude":36.38920593261719,"longitude":137.88796997070312,"category":"醸造所/古民家","description":"","image_url":""},{"id":9760,"title":"旧長井小学校第一校舎","architect":"鈴木建築設計事務所","year":1933.0,"address":"山形県長井市ままの上5-3","latitude":38.1077880859375,"longitude":140.04232788085938,"category":"学校/公民館・交流施設","description":"2019年3月レトロフィット改修","image_url":""},{"id":9761,"title":"豊島区立トキワ荘マンガミュージアム","architect":"丹青社+本多豊+バウ・ビルト","year":2020.0,"address":"東京都豊島区南長崎3-9-22","latitude":35.72425079345703,"longitude":139.68609619140625,"category":"博物館","description":"トキワ荘を再現","image_url":""},{"id":9762,"title":"馬見丘陵公園館","architect":"建築研究所アーキヴィジョン","year":1991.0,"address":"奈良県北葛城郡河合町大字佐味田2202","latitude":34.56272888183594,"longitude":135.7367706298828,"category":"博物館","description":"","image_url":""},{"id":9763,"title":"地盤工学会会館","architect":"建築研究所アーキヴィジョン","year":2003.0,"address":"東京都文京区千石4-38-2","latitude":35.7277946472168,"longitude":139.74241638183594,"category":"組合施設","description":"","image_url":""},{"id":9764,"title":"足柄駅交流センター","architect":"隈研吾","year":2020.0,"address":"静岡県駿東郡小山町竹之下 足柄駅","latitude":35.33313751220703,"longitude":138.9813232421875,"category":"駅/公民館・交流施設","description":"","image_url":""},{"id":9765,"title":"廣樹山妙静寺","architect":"横山公男","year":1968.0,"address":"滋賀県高島市新旭町饗庭1832-1","latitude":35.379634857177734,"longitude":136.0326385498047,"category":"寺院","description":"","image_url":""},{"id":9766,"title":"坊平リカバリー温泉 高源ゆ","architect":"渋谷達郎","year":2020.0,"address":"山形県上山市蔵王坊平国有林241林班","latitude":38.123931884765625,"longitude":140.39413452148438,"category":"温泉","description":"","image_url":""},{"id":9767,"title":"SOMPO美術館","architect":"大成建設","year":2020.0,"address":"東京都新宿区西新宿1-26-1","latitude":35.692569732666016,"longitude":139.69656372070312,"category":"美術館","description":"","image_url":""},{"id":9768,"title":"まんとみ幼稚園","architect":"林雅子","year":1968.0,"address":"東京都江東区亀戸1-14-12","latitude":35.69404220581055,"longitude":139.82205200195312,"category":"幼稚園","description":"","image_url":""},{"id":9769,"title":"P/OP SHIBUYA 旧三基商事東京支店・東京本部第1ビル","architect":"竹中工務店","year":1985.0,"address":"東京都渋谷区渋谷3-9-7","latitude":35.657379150390625,"longitude":139.70481872558594,"category":"オフィスビル/店舗","description":"現在は家具のショールーム","image_url":""},{"id":9770,"title":"紅蘭亭下通ビル","architect":"内藤廣","year":2020.0,"address":"熊本県熊本市中央区安政町5-26","latitude":32.80170822143555,"longitude":130.7091064453125,"category":"レストラン/テナントビル","description":"","image_url":""},{"id":9771,"title":"宝塚市立文化芸術センター","architect":"東畑建築事務所+地域計画建築研究所","year":2019.0,"address":"兵庫県宝塚市武庫川町7-64","latitude":34.80736541748047,"longitude":135.34884643554688,"category":"総合文化施設/美術館/動植物園","description":"","image_url":""},{"id":9772,"title":"宝塚市立手塚治虫記念館","architect":"山下設計","year":1994.0,"address":"兵庫県宝塚市武庫川町7-65","latitude":34.8071403503418,"longitude":135.34835815429688,"category":"博物館","description":"","image_url":""},{"id":9773,"title":"鳥羽市役所","architect":"坂本鹿名夫","year":1962.0,"address":"三重県鳥羽市鳥羽3-1-1","latitude":34.48133087158203,"longitude":136.8434295654297,"category":"庁舎","description":"","image_url":""},{"id":9774,"title":"功徳山瑞光寺 瑞光廟無上殿","architect":"竹原義二","year":2018.0,"address":"愛知県名古屋市名東区平和が丘4-144","latitude":35.17021560668945,"longitude":136.98965454101562,"category":"寺院/霊園","description":"","image_url":""},{"id":9775,"title":"Cafe Restaurant BRICK","architect":"田根剛","year":2020.0,"address":"青森県弘前市吉野町2-11","latitude":40.59842300415039,"longitude":140.4727325439453,"category":"レストラン","description":"弘前れんが倉庫美術館に隣接したレストラン","image_url":""},{"id":9776,"title":"長岡市立互尊文庫","architect":"吉武泰水","year":1967.0,"address":"新潟県長岡市坂之上町3-1-20","latitude":37.45094680786133,"longitude":138.84922790527344,"category":"図書館","description":"設計クレジット：日本図書館協会施設委員会","image_url":""},{"id":9777,"title":"岩瀬スポーツ公園庭球場管理棟 旧倉敷レイヨン富山アパート","architect":"浦辺鎮太郎","year":1961.0,"address":"富山県富山市森5-1-17","latitude":36.74340057373047,"longitude":137.23532104492188,"category":"集合住宅/公共施設","description":"","image_url":""},{"id":9778,"title":"海南nobinos","architect":"東畑建築事務所","year":2020.0,"address":"和歌山県海南市日方1525-6","latitude":34.155208587646484,"longitude":135.2092742919922,"category":"図書館/公民館・交流施設","description":"","image_url":""},{"id":9779,"title":"岡家住宅","architect":"ウィリアム・メレル・ヴォーリズ","year":1938.0,"address":"滋賀県蒲生郡日野町大字鎌掛2301","latitude":34.986907958984375,"longitude":136.26161193847656,"category":"和風住宅","description":"ヴォーリズ設計の和風住宅。月二日ほど公開している","image_url":""},{"id":9780,"title":"スノーピークランドステーション白馬","architect":"隈研吾","year":2020.0,"address":"長野県北安曇郡白馬村大字北城5497","latitude":36.69755935668945,"longitude":137.85647583007812,"category":"店舗/レストラン/カフェ","description":"","image_url":""},{"id":9781,"title":"余白を住み開く家 NOLK gallery/studio","architect":"田中培仁+ムカバトリ","year":2018.0,"address":"東京都世田谷区下馬5-9-19","latitude":35.63481521606445,"longitude":139.6813201904297,"category":"住宅/ギャラリー","description":"時折ギャラリーとして公開","image_url":""},{"id":9782,"title":"タケフ・ナイフビレッジ−2","architect":"長田直之","year":2020.0,"address":"福井県越前市余川町22-91","latitude":35.88800048828125,"longitude":136.23684692382812,"category":"店舗","description":"","image_url":""},{"id":9783,"title":"こどもえんつくし ダイニングホール棟 forestaカランころ","architect":"前田圭介","year":2020.0,"address":"広島県福山市木之庄町5-17-36","latitude":34.49930953979492,"longitude":133.35916137695312,"category":"幼稚園","description":"","image_url":""},{"id":9784,"title":"神慈秀明会 福山支部","architect":"前田圭介","year":2019.0,"address":"広島県福山市引野町南2-16-12","latitude":34.489803314208984,"longitude":133.42410278320312,"category":"宗教施設","description":"","image_url":""},{"id":9785,"title":"久世エスパスセンター","architect":"類設計室","year":1997.0,"address":"岡山県真庭市鍋屋17-1","latitude":35.07744216918945,"longitude":133.75250244140625,"category":"ホール・劇場/公民館・交流施設","description":"","image_url":""},{"id":9786,"title":"たちばな大路こども園","architect":"類設計室","year":2018.0,"address":"滋賀県草津市大路2-1-55","latitude":35.02095031738281,"longitude":135.9667205810547,"category":"幼稚園","description":"","image_url":""},{"id":9787,"title":"美原総合スポーツセンター","architect":"類設計室","year":2009.0,"address":"大阪府堺市美原区小平尾1141-1","latitude":34.54048538208008,"longitude":135.57760620117188,"category":"スポーツ施設/プール/体育館","description":"","image_url":""},{"id":9788,"title":"藤井寺市生涯学習センター","architect":"類設計室","year":1994.0,"address":"大阪府藤井寺市藤井寺3-1-20","latitude":34.566097259521484,"longitude":135.59725952148438,"category":"博物館","description":"","image_url":""},{"id":9789,"title":"横浜市新庁舎","architect":"竹中工務店+槇文彦","year":2020.0,"address":"神奈川県横浜市中区本町6-50-10","latitude":35.45026779174805,"longitude":139.63421630859375,"category":"庁舎","description":"","image_url":""},{"id":9790,"title":"十日町市博物館","architect":"石本建築事務所+トータルメディア開発研究所+阿部設計事務所","year":2020.0,"address":"新潟県十日町市西本町1-448-9","latitude":37.14094543457031,"longitude":138.7568359375,"category":"博物館","description":"","image_url":""},{"id":9791,"title":"なすび保育園","architect":"手塚建築研究所","year":2018.0,"address":"東京都立川市西砂町6-75-9","latitude":35.734764099121094,"longitude":139.3681182861328,"category":"幼稚園","description":"","image_url":""},{"id":9792,"title":"BREEZE","architect":"井手孝太郎","year":2012.0,"address":"東京都世田谷区代沢3-17-15","latitude":35.65602493286133,"longitude":139.67288208007812,"category":"集合住宅","description":"","image_url":""},{"id":9793,"title":"神戸市立長尾小学校","architect":"安藤忠雄","year":2007.0,"address":"兵庫県神戸市北区上津台3-4-1","latitude":34.86574935913086,"longitude":135.1947021484375,"category":"学校","description":"","image_url":""},{"id":9794,"title":"fw bldg.","architect":"若松均","year":2003.0,"address":"東京都世田谷区深沢7-16-3","latitude":35.62075424194336,"longitude":139.64869689941406,"category":"集合住宅/低層オフィス","description":"","image_url":""},{"id":9795,"title":"ラテール豊橋","architect":"itoto architects","year":2020.0,"address":"愛知県豊橋市豊栄町東298-1","latitude":34.70362854003906,"longitude":137.43527221679688,"category":"カフェ/店舗","description":"","image_url":""},{"id":9796,"title":"楽笑モール 地域交流棟 〇〇すぎるパン屋・じばカフェ","architect":"itoto architects","year":2020.0,"address":"愛知県蒲郡市三谷町須田10-68","latitude":34.818626403808594,"longitude":137.24063110351562,"category":"カフェ/店舗/福祉センター","description":"","image_url":""},{"id":9797,"title":"楽笑モール 福祉棟","architect":"itoto architects","year":2020.0,"address":"愛知県蒲郡市三谷町須田10-68","latitude":34.818206787109375,"longitude":137.24063110351562,"category":"養護施設","description":"","image_url":""},{"id":9798,"title":"HOME BASE","architect":"PLUS CASA","year":2015.0,"address":"鳥取県八頭郡智頭町大字南方442","latitude":35.25320053100586,"longitude":134.24462890625,"category":"住宅/低層オフィス","description":"","image_url":""},{"id":9799,"title":"智頭宿 楽之","architect":"PLUS CASA","year":2018.0,"address":"鳥取県八頭郡智頭町大字智頭484","latitude":35.26962661743164,"longitude":134.2287139892578,"category":"ホステル/レストラン","description":"","image_url":""},{"id":9800,"title":"ヨックモックミュージアム","architect":"栗田祥弘","year":2020.0,"address":"東京都港区南青山6-15-1","latitude":35.659576416015625,"longitude":139.71401977539062,"category":"美術館","description":"","image_url":""}]}