{"page":207,"total_pages":290,"items_per_page":50,"total_items":14467,"items":[{"id":10301,"title":"大森ベルポート","architect":"山下設計","year":1991.0,"address":"東京都品川区南大井6-26-2","latitude":35.588321685791016,"longitude":139.73150634765625,"category":"モール/オフィスビル","description":"第一期1991年、第二期1996年竣工。","image_url":""},{"id":10302,"title":"北条まちづくりプロジェクト・もりねき","architect":"ブルースタジオ+石本建築事務所","year":2020.0,"address":"大阪府大東市北条3-1900-1","latitude":34.73101043701172,"longitude":135.6422882080078,"category":"都市計画/住宅/公園","description":"","image_url":""},{"id":10303,"title":"長久手リニモテラス","architect":"東畑建築事務所+ナノメートルアーキテクチャー","year":2021.0,"address":"愛知県長久手市勝入塚121","latitude":35.1724853515625,"longitude":137.04876708984375,"category":"公共施設","description":"","image_url":""},{"id":10304,"title":"黒部平駅","architect":"吉阪隆正","year":1969.0,"address":"富山県中新川郡立山町芦峅寺黒部平","latitude":36.56697082519531,"longitude":137.65000915527344,"category":"駅","description":"","image_url":""},{"id":10305,"title":"小田垣商店","architect":"杉本博司+榊田倫之","year":2021.0,"address":"兵庫県丹波篠山市立町9","latitude":35.072418212890625,"longitude":135.22335815429688,"category":"店舗","description":"江戸後期から大正初期にかけて建てられた10棟のうちの5棟の改修","image_url":""},{"id":10306,"title":"ホテル トウ 西洞院 京都 バイ ウィズシード","architect":"谷尻誠","year":2021.0,"address":"京都府京都市下京区西洞院町455","latitude":34.99199676513672,"longitude":135.75534057617188,"category":"ホテル","description":"","image_url":""},{"id":10307,"title":"トグルホテル水道橋","architect":"クライン・ダイサム・アーキテクツ+入江三宅設計","year":2020.0,"address":"東京都千代田区飯田橋3-11-4","latitude":35.70252227783203,"longitude":139.74981689453125,"category":"ホテル","description":"建築デザイン監修、インテリアデザイン：クライン・ダイサム・アーキテクツ","image_url":""},{"id":10308,"title":"消滅集落のオーベルジュ Cuisine regionale Levo","architect":"本瀬齋田建築設計事務所","year":2020.0,"address":"富山県南砺市利賀村大勘場田島100","latitude":36.401493072509766,"longitude":136.99411010742188,"category":"ホテル","description":"オーベルジュ","image_url":""},{"id":10309,"title":"メゾンド楼蘭","architect":"クリストファー・アレグザンダー","year":1988.0,"address":"東京都文京区本駒込4-27-3","latitude":35.7330436706543,"longitude":139.7561492919922,"category":"集合住宅/店舗","description":"","image_url":""},{"id":10310,"title":"倫理研究所 船橋社宅","architect":"内藤廣","year":2004.0,"address":"千葉県船橋市本郷町541","latitude":35.70817184448242,"longitude":139.95005798339844,"category":"集合住宅/寮","description":"","image_url":""},{"id":10311,"title":"紀尾井清堂 倫理研究所 紀尾井町第二ビル","architect":"内藤廣","year":2020.0,"address":"東京都千代田区紀尾井町3","latitude":35.6821403503418,"longitude":139.73513793945312,"category":"宗教施設","description":"","image_url":""},{"id":10312,"title":"大阪倫理会館","architect":"歌一洋","year":2001.0,"address":"大阪府大阪市都島区片町1-7-20","latitude":34.6925163269043,"longitude":135.52398681640625,"category":"宗教施設","description":"","image_url":""},{"id":10313,"title":"ヘルツ電子株式会社 本社","architect":"渡辺隆","year":2021.0,"address":"静岡県浜松市北区東三方町422-1","latitude":34.78236770629883,"longitude":137.73049926757812,"category":"低層オフィス/工場","description":"","image_url":""},{"id":10314,"title":"HOTEL AO KAMAKURA","architect":"千葉学","year":2020.0,"address":"神奈川県鎌倉市腰越3-1-7","latitude":35.308265686035156,"longitude":139.49197387695312,"category":"ホテル/レストラン","description":"","image_url":""},{"id":10315,"title":"アズミセトダ 旧堀内邸","architect":"三浦史朗","year":2021.0,"address":"広島県尾道市瀬戸田町瀬戸田246","latitude":34.304229736328125,"longitude":133.0850067138672,"category":"ホテル","description":"築140年の和風邸宅を改修","image_url":""},{"id":10316,"title":"ホテル アンテルーム那覇","architect":"UDS","year":2020.0,"address":"沖縄県那覇市前島3-27-11","latitude":26.225440979003906,"longitude":127.67894744873047,"category":"ホテル","description":"名和晃平によるアートディレクション","image_url":""},{"id":10317,"title":"ZENBI -鍵善良房-","architect":"金澤富","year":2021.0,"address":"京都府京都市東山区祇園町南側570-107","latitude":35.00307846069336,"longitude":135.77334594726562,"category":"美術館/ギャラリー","description":"","image_url":""},{"id":10318,"title":"白","architect":"金澤富","year":2018.0,"address":"京都府京都市東山区祇園町南側570-210","latitude":35.00297546386719,"longitude":135.77354431152344,"category":"店舗/カフェ","description":"","image_url":""},{"id":10319,"title":"EMIL NAKIJIN","architect":"小川晋一","year":2020.0,"address":"沖縄県国頭郡今帰仁村諸志2031-139","latitude":26.680007934570312,"longitude":127.94220733642578,"category":"ホテル","description":"","image_url":""},{"id":10320,"title":"蓼科ソサエティクラブ 旧蓼科仙境都市","architect":"黒川紀章","year":1976.0,"address":"長野県佐久市春日","latitude":36.126216888427734,"longitude":138.33375549316406,"category":"遺跡/ホテル","description":"現在は廃墟として有名","image_url":""},{"id":10321,"title":"森山邸","architect":"西沢立衛","year":2005.0,"address":"東京都大田区西蒲田3-21-5","latitude":35.567569732666016,"longitude":139.7097625732422,"category":"集合住宅/住宅","description":"時間貸しするサービスを開始","image_url":""},{"id":10322,"title":"クレインズファクトリー","architect":"北山恒","year":1998.0,"address":"東京都渋谷区神宮前6-16-8","latitude":35.66521453857422,"longitude":139.70358276367188,"category":"店舗/低層オフィス","description":"","image_url":""},{"id":10323,"title":"ユーロスペース KINOHAUSビル 旧Q-AX","architect":"北山恒","year":2006.0,"address":"東京都渋谷区円山町1-5","latitude":35.6593017578125,"longitude":139.69525146484375,"category":"ホール・劇場","description":"","image_url":""},{"id":10324,"title":"猿楽町ハウス","architect":"北山恒","year":2020.0,"address":"東京都渋谷区猿楽町4-10","latitude":35.65206527709961,"longitude":139.7037811279297,"category":"店舗/住宅","description":"","image_url":""},{"id":10325,"title":"クラールハイト三宿","architect":"北山恒","year":2008.0,"address":"東京都世田谷区三宿1-3-23","latitude":35.64851379394531,"longitude":139.6775665283203,"category":"集合住宅","description":"","image_url":""},{"id":10326,"title":"花フェスタ記念公園 物販施設・西ゲート","architect":"大野秀敏","year":2002.0,"address":"岐阜県可児市瀬田1584-1","latitude":35.42081069946289,"longitude":137.09559631347656,"category":"公園","description":"","image_url":""},{"id":10327,"title":"大江戸線春日駅","architect":"大野秀敏","year":2000.0,"address":"東京都文京区春日1-16-17","latitude":35.70989227294922,"longitude":139.75314331054688,"category":"駅","description":"地下鉄駅","image_url":""},{"id":10328,"title":"大江戸線本郷三丁目駅","architect":"大野秀敏","year":2000.0,"address":"東京都文京区本郷2-39-1","latitude":35.7075080871582,"longitude":139.76043701171875,"category":"駅","description":"地下鉄駅","image_url":""},{"id":10329,"title":"うかい大橋","architect":"大野秀敏+大日コンサルタント","year":2004.0,"address":"岐阜県岐阜市長良雄総 うかい大橋","latitude":35.43966293334961,"longitude":136.79598999023438,"category":"橋","description":"","image_url":""},{"id":10330,"title":"YKK AP埼玉窓工場","architect":"大野秀敏+竹中工務店","year":2011.0,"address":"埼玉県久喜市菖蒲町台字南110","latitude":36.05066680908203,"longitude":139.6208953857422,"category":"工場","description":"デザイン監修：大野秀敏","image_url":""},{"id":10331,"title":"岐阜県立岐阜高等学校","architect":"大野秀敏+デザインボックス+岬建築事務所","year":2012.0,"address":"岐阜県岐阜市大縄場3-1","latitude":35.42510986328125,"longitude":136.74649047851562,"category":"学校","description":"","image_url":""},{"id":10332,"title":"グループホーム楽し愛","architect":"大野秀敏","year":2019.0,"address":"岡山県岡山市北区吉宗706","latitude":34.727134704589844,"longitude":133.9075927734375,"category":"養護施設","description":"","image_url":""},{"id":10333,"title":"ハートフル成田東","architect":"大野秀敏","year":2019.0,"address":"東京都杉並区成田東3-26-6","latitude":35.69385528564453,"longitude":139.63693237304688,"category":"養護施設","description":"","image_url":""},{"id":10334,"title":"ハートハウス成城・はあと保育園成城","architect":"大野秀敏","year":2017.0,"address":"東京都世田谷区成城3-2-9","latitude":35.63462448120117,"longitude":139.59991455078125,"category":"養護施設/幼稚園","description":"","image_url":""},{"id":10335,"title":"はあと保育園中央","architect":"大野秀敏","year":2019.0,"address":"山口県山口市神田町4-22","latitude":34.17314910888672,"longitude":131.45726013183594,"category":"幼稚園","description":"","image_url":""},{"id":10336,"title":"三共製作所 G&P棟・森海ホール","architect":"大野秀敏","year":2017.0,"address":"静岡県菊川市本所2700-1","latitude":34.75436782836914,"longitude":138.1060028076172,"category":"工場/ホール・劇場","description":"","image_url":""},{"id":10337,"title":"エムケイ 本社 旧MK石油ヘッドオフィス","architect":"高松伸","year":1993.0,"address":"京都府京都市南区西九条東島町63-1","latitude":34.97917175292969,"longitude":135.75401306152344,"category":"オフィスビル","description":"","image_url":""},{"id":10338,"title":"パチンコ京一西浦店 旧プラネット","architect":"高松伸","year":1993.0,"address":"京都府京都市伏見区深草西浦町1-5","latitude":34.9630012512207,"longitude":135.76344299316406,"category":"店舗","description":"","image_url":""},{"id":10339,"title":"江寿画廊ビル","architect":"黒川紀章","year":1984.0,"address":"京都府京都市中京区毘沙門町557","latitude":35.01721954345703,"longitude":135.76678466796875,"category":"ギャラリー/テナントビル","description":"","image_url":""},{"id":10340,"title":"アルテミス オーバンビル","architect":"高松伸","year":1992.0,"address":"大阪府大阪市中央区高麗橋2-5-10","latitude":34.689979553222656,"longitude":135.50399780273438,"category":"テナントビル","description":"","image_url":""},{"id":10341,"title":"下館ゴルフ倶楽部 クラブハウス","architect":"曽根幸一","year":1996.0,"address":"茨城県筑西市茂田 ザ・ヒロサワ・シティ","latitude":36.28910446166992,"longitude":140.01634216308594,"category":"クラブハウス","description":"","image_url":""},{"id":10342,"title":"川崎市かわさき老人福祉・地域交流センター","architect":"曽根幸一","year":1994.0,"address":"神奈川県川崎市川崎区堤根34-15","latitude":35.525474548339844,"longitude":139.6921844482422,"category":"福祉センター","description":"","image_url":""},{"id":10343,"title":"Island and office 八丈島","architect":"須磨一清","year":2021.0,"address":"東京都八丈島八丈町大賀郷5492","latitude":33.13770294189453,"longitude":139.74124145507812,"category":"シェアオフィス/コテージ","description":"企業用のサテライトオフィス","image_url":""},{"id":10344,"title":"雷鳥沢ヒュッテ","architect":"吉阪隆正","year":1975.0,"address":"富山県中新川郡立山町芦峅寺 雷鳥沢ヒュッテ","latitude":36.586978912353516,"longitude":137.5981903076172,"category":"コテージ","description":"","image_url":""},{"id":10345,"title":"ミカフェート横浜元町店","architect":"永山祐子","year":2015.0,"address":"神奈川県横浜市中区元町2-93","latitude":35.440582275390625,"longitude":139.64944458007812,"category":"カフェ","description":"2020年9月末で閉業","image_url":""},{"id":10346,"title":"松本ホテル花月","architect":"永山祐子","year":2016.0,"address":"長野県松本市大手4-8-9","latitude":36.23598861694336,"longitude":137.972412109375,"category":"ホテル","description":"","image_url":""},{"id":10347,"title":"Catenary Collier Ginza","architect":"日本国土開発+永山祐子","year":2017.0,"address":"東京都中央区銀座1-8-7","latitude":35.67406463623047,"longitude":139.76858520507812,"category":"テナントビル","description":"ファサード監修：永山祐子","image_url":""},{"id":10348,"title":"桶屋","architect":"永山祐子","year":2016.0,"address":"東京都八王子市元横山町3-9-3","latitude":35.66363525390625,"longitude":139.33526611328125,"category":"低層オフィス/工場","description":"アーティストのための工房を備えたオフィス","image_url":""},{"id":10349,"title":"積善館 山荘棟客室改修","architect":"永山祐子","year":2019.0,"address":"群馬県吾妻郡中之条町四万 積善館","latitude":36.68644714355469,"longitude":138.7734832763672,"category":"旅館","description":"","image_url":""},{"id":10350,"title":"VOGUE Wedding Salon","architect":"永山祐子","year":2019.0,"address":"東京都港区南青山6-12-2","latitude":35.660770416259766,"longitude":139.7149658203125,"category":"結婚式場","description":"1F/2F","image_url":""}]}