{"page":66,"total_pages":290,"items_per_page":50,"total_items":14467,"items":[{"id":3251,"title":"旭川市庁舎","architect":"佐藤武夫","year":1958.0,"address":"北海道旭川市6条通9-48","latitude":43.77063751220703,"longitude":142.3648223876953,"category":"庁舎","description":"","image_url":""},{"id":3252,"title":"本郷新アトリエ 本郷新記念館","architect":"上遠野徹","year":1977.0,"address":"北海道札幌市中央区宮の森4条12-2-1","latitude":43.055538177490234,"longitude":141.2960662841797,"category":"博物館","description":"本郷新記念札幌彫刻美術館に隣接。元アトリエ。","image_url":""},{"id":3253,"title":"新潟県民会館","architect":"佐藤武夫","year":1967.0,"address":"新潟県新潟市中央区一番堀通町3-13","latitude":37.913414001464844,"longitude":139.0389862060547,"category":"ホール・劇場","description":"","image_url":""},{"id":3254,"title":"定山渓温泉ホテル鹿の湯・花もみじ","architect":"上遠野徹","year":1992.0,"address":"北海道札幌市南区定山渓温泉西3-32","latitude":42.966068267822266,"longitude":141.16171264648438,"category":"旅館","description":"","image_url":""},{"id":3255,"title":"稚内グランドホテル","architect":"上遠野徹","year":1979.0,"address":"北海道稚内市大黒2-13-11","latitude":45.397518157958984,"longitude":141.68572998046875,"category":"ホテル","description":"","image_url":""},{"id":3256,"title":"稚内北星学園大学","architect":"上遠野徹","year":1986.0,"address":"北海道稚内市若葉台1-2290-28","latitude":45.38279724121094,"longitude":141.71791076660156,"category":"大学","description":"","image_url":""},{"id":3257,"title":"旧札幌大同生命ビル","architect":"黒川紀章","year":1975.0,"address":"北海道札幌市中央区北3条西3-1","latitude":43.06489944458008,"longitude":141.35194396972656,"category":"オフィスビル","description":"取壊済み","image_url":""},{"id":3258,"title":"吉屋信子記念館 旧吉屋信子邸","architect":"吉田五十八","year":1962.0,"address":"神奈川県鎌倉市長谷1-3-6","latitude":35.31488037109375,"longitude":139.54083251953125,"category":"和風住宅","description":"見学は要予約。一般公開日もある。4月、5月、6月、10月、11月の毎週土曜日。5月、6月、10月、11月の1日～3日。ゴールデンウィ-ク期間4月28日～5月6日。","image_url":""},{"id":3259,"title":"日本芸術院会館","architect":"吉田五十八","year":1958.0,"address":"東京都台東区上野公園1-30","latitude":35.71343994140625,"longitude":139.7748260498047,"category":"ホール・劇場","description":"","image_url":""},{"id":3260,"title":"河庄","architect":"吉村順三","year":1959.0,"address":"福岡県福岡市中央区西中洲5-13","latitude":33.59077453613281,"longitude":130.4046173095703,"category":"料亭","description":"","image_url":""},{"id":3261,"title":"俵屋","architect":"吉村順三","year":1958.0,"address":"京都府京都市中京区麩屋町通姉小路上ル中白山町278","latitude":35.01039505004883,"longitude":135.76593017578125,"category":"旅館","description":"","image_url":""},{"id":3262,"title":"大阪中央郵便局","architect":"吉田鉄郎","year":1939.0,"address":"大阪府大阪市北区梅田3-2-4","latitude":34.70060348510742,"longitude":135.4949188232422,"category":"公共施設","description":"","image_url":""},{"id":3263,"title":"旧京都中央電話局上分局","architect":"吉田鉄郎","year":1924.0,"address":"京都府京都市上京区中筋通丸太町下る駒之町561-1","latitude":35.01740646362305,"longitude":135.7708282470703,"category":"洋館","description":"現在はスーパーが入っている模様","image_url":""},{"id":3264,"title":"東京中央郵便局","architect":"吉田鉄郎","year":1931.0,"address":"東京都千代田区丸の内2-7-2","latitude":35.67964172363281,"longitude":139.7650909423828,"category":"公共施設","description":"","image_url":""},{"id":3265,"title":"ホテル日航奈良","architect":"アルド・ロッシ","year":1998.0,"address":"奈良県奈良市三条本町8-1","latitude":34.681766510009766,"longitude":135.81838989257812,"category":"ホテル","description":"","image_url":""},{"id":3266,"title":"浅葉克己デザイン室","architect":"アルド・ロッシ+モリス・アジミ","year":1991.0,"address":"東京都港区南青山3-9-2","latitude":35.666141510009766,"longitude":139.7153778076172,"category":"オフィスビル","description":"","image_url":""},{"id":3267,"title":"新潟カトリック教会","architect":"マックス・ヒンデル","year":1927.0,"address":"新潟県新潟市中央区東大畑通1番町656","latitude":37.92473220825195,"longitude":139.03884887695312,"category":"教会","description":"","image_url":""},{"id":3268,"title":"KMT サイエンスヒルズこまつ","architect":"伊藤麻理+元倉眞琴","year":2013.0,"address":"石川県小松市こまつの杜2","latitude":36.401485443115234,"longitude":136.45556640625,"category":"博物館/体験施設","description":"","image_url":""},{"id":3269,"title":"福岡大学A棟","architect":"元倉眞琴+槇文彦+山本・堀アーキテクツ","year":1996.0,"address":"福岡県福岡市城南区七隈8-19-1","latitude":33.54891586303711,"longitude":130.36572265625,"category":"大学","description":"","image_url":""},{"id":3270,"title":"宇久須のレストラン かねじょう","architect":"元倉眞琴","year":2001.0,"address":"静岡県賀茂郡西伊豆町宇久須189-2","latitude":34.846038818359375,"longitude":138.7715606689453,"category":"レストラン","description":"","image_url":""},{"id":3271,"title":"横浜スーパーファクトリー","architect":"元倉眞琴","year":2008.0,"address":"神奈川県横浜市鶴見区末広町1-11","latitude":35.494117736816406,"longitude":139.68002319335938,"category":"その他文化施設","description":"","image_url":""},{"id":3272,"title":"押立第二保育園分園","architect":"元倉眞琴","year":2011.0,"address":"東京都府中市押立町2-14-29","latitude":35.65897750854492,"longitude":139.51406860351562,"category":"幼稚園","description":"","image_url":""},{"id":3273,"title":"滝山しおん保育園 増築","architect":"元倉眞琴","year":2012.0,"address":"東京都東久留米市滝山7-5-12","latitude":35.74807357788086,"longitude":139.50718688964844,"category":"幼稚園","description":"","image_url":""},{"id":3274,"title":"五日市わかば保育園","architect":"元倉眞琴","year":2013.0,"address":"東京都あきる野市五日市104-1","latitude":35.729312896728516,"longitude":139.225341796875,"category":"幼稚園","description":"","image_url":""},{"id":3275,"title":"宝塚ガーデンヴィレッジ","architect":"長谷川逸子","year":2012.0,"address":"兵庫県宝塚市売布4-3","latitude":34.81937026977539,"longitude":135.36172485351562,"category":"集合住宅","description":"","image_url":""},{"id":3276,"title":"メトロサ","architect":"北川原温","year":1989.0,"address":"東京都渋谷区神宮前5-40-10","latitude":35.664588928222656,"longitude":139.7064666748047,"category":"集合住宅","description":"","image_url":""},{"id":3277,"title":"蔦珈琲店 旧山田守自邸","architect":"山田守","year":1959.0,"address":"東京都港区南青山5-11-20","latitude":35.66181945800781,"longitude":139.71157836914062,"category":"カフェ","description":"","image_url":""},{"id":3278,"title":"吹田文化創造交流館 旧西尾家住宅　離れ","architect":"武田五一","year":1926.0,"address":"大阪府吹田市内本町2-15-11","latitude":34.75651550292969,"longitude":135.52354431152344,"category":"和風住宅","description":"","image_url":""},{"id":3279,"title":"奈良市営コミュニティ住宅","architect":"黒川紀章","year":1992.0,"address":"奈良県奈良市三条本町1-93","latitude":34.678707122802734,"longitude":135.81689453125,"category":"集合住宅","description":"","image_url":""},{"id":3280,"title":"ラビリンス","architect":"早川邦彦","year":1989.0,"address":"東京都杉並区井草1-26-9","latitude":35.727088928222656,"longitude":139.6248321533203,"category":"集合住宅","description":"","image_url":""},{"id":3281,"title":"美味伝承甲南漬資料館 旧高嶋平介邸","architect":"清水栄二","year":1931.0,"address":"兵庫県神戸市東灘区御影塚町4-4-8","latitude":34.71080017089844,"longitude":135.24417114257812,"category":"博物館","description":"","image_url":""},{"id":3282,"title":"射水市本江市営住宅","architect":"栗生明","year":1995.0,"address":"富山県射水市本江北379","latitude":36.75471115112305,"longitude":137.1752471923828,"category":"集合住宅","description":"","image_url":""},{"id":3283,"title":"下関市営白雲台団地","architect":"早川邦彦","year":1996.0,"address":"山口県下関市上田中町8","latitude":33.962955474853516,"longitude":130.933349609375,"category":"集合住宅","description":"","image_url":""},{"id":3284,"title":"小松ツリーズ 明文堂書店 TSUTAYA KOMATSU","architect":"迫慶一郎","year":2013.0,"address":"石川県小松市沖周辺土地区画整理事業施行地区内4街区 明文堂書店 TSUTAYA KOMATSU","latitude":36.39643096923828,"longitude":136.4618682861328,"category":"店舗","description":"","image_url":""},{"id":3285,"title":"Design Ohasu Days 旧泉北考古資料館・すえむら資料館","architect":"槇文彦","year":1970.0,"address":"大阪府堺市南区若松台2-5-1","latitude":34.492103576660156,"longitude":135.5109405517578,"category":"博物館/カフェ","description":"閉館していたがカフェとして再開","image_url":""},{"id":3286,"title":"藤井斉成会有鄰館","architect":"武田五一","year":1926.0,"address":"京都府京都市左京区岡崎円勝寺町44","latitude":35.01128005981445,"longitude":135.78147888183594,"category":"美術館","description":"","image_url":""},{"id":3287,"title":"近江八幡市立資料館 旧近江八幡警察署庁舎","architect":"ウィリアム・メレル・ヴォーリズ","year":1953.0,"address":"滋賀県近江八幡市新町2-22","latitude":35.13808059692383,"longitude":136.0891571044922,"category":"博物館","description":"1886年に元の建物が竣工。1953年にヴォーリズが大幅に改修。","image_url":""},{"id":3288,"title":"神戸市文書館 旧南蛮美術館","architect":"小川安一郎","year":1938.0,"address":"兵庫県神戸市中央区熊内町1-8-21","latitude":34.708106994628906,"longitude":135.2023162841797,"category":"博物館","description":"","image_url":""},{"id":3289,"title":"金津創作の森 アートコア","architect":"小林正美","year":1999.0,"address":"福井県あわら市宮谷57-2-19","latitude":36.23066711425781,"longitude":136.26123046875,"category":"総合文化施設","description":"","image_url":""},{"id":3290,"title":"星の森","architect":"小林正美+石川幹子","year":2003.0,"address":"岐阜県各務原市鵜沼南町7-19","latitude":35.39743423461914,"longitude":136.94580078125,"category":"コテージ","description":"","image_url":""},{"id":3291,"title":"水の国/MUSEUM104 水ふれあい公園","architect":"高野祐之","year":1997.0,"address":"島根県江津市桜江町坂本2025","latitude":34.96464538574219,"longitude":132.42677307128906,"category":"美術館","description":"","image_url":""},{"id":3292,"title":"フローティングアイランド","architect":"柳田英一+横河健","year":1989.0,"address":"広島県福山市沼隈町大字常石1349-15","latitude":34.3912239074707,"longitude":133.2849884033203,"category":"港","description":"水族館などがあった跡地。現在はマリーナ。","image_url":""},{"id":3293,"title":"滋賀県立琵琶湖博物館","architect":"日建設計","year":1996.0,"address":"滋賀県草津市下物町1091","latitude":35.07414627075195,"longitude":135.9349365234375,"category":"博物館","description":"","image_url":""},{"id":3294,"title":"スキュルチュール江坂","architect":"竹中工務店","year":1997.0,"address":"大阪府吹田市芳野町13-14","latitude":34.75600051879883,"longitude":135.48910522460938,"category":"美術館","description":"","image_url":""},{"id":3295,"title":"鹿児島県立博物館 旧鹿児島県立図書館","architect":"岩下松雄","year":1927.0,"address":"鹿児島県鹿児島市城山町1-1","latitude":31.594057083129883,"longitude":130.55271911621094,"category":"博物館","description":"","image_url":""},{"id":3296,"title":"香川国際交流会館 アイパル香川 旧香川県立図書館","architect":"芦原義信","year":1963.0,"address":"香川県高松市番町1-11-63","latitude":34.34199523925781,"longitude":134.04600524902344,"category":"総合文化施設","description":"","image_url":""},{"id":3297,"title":"大阪府臨海スポーツセンター","architect":"槇文彦","year":1972.0,"address":"大阪府高石市高師浜丁6-1","latitude":34.52877426147461,"longitude":135.42898559570312,"category":"体育館","description":"","image_url":""},{"id":3298,"title":"京都府立図書館","architect":"武田五一","year":1909.0,"address":"京都府京都市左京区岡崎成勝寺町9","latitude":35.01296615600586,"longitude":135.78196716308594,"category":"図書館","description":"","image_url":""},{"id":3299,"title":"リーガロイヤルホテル大阪 旧中之島ロイヤルホテル","architect":"吉田五十八+竹中工務店","year":1965.0,"address":"大阪府大阪市北区中之島5-3-68","latitude":34.68886184692383,"longitude":135.48800659179688,"category":"ホテル","description":"2019年6月にトラフによりメインロビー改修","image_url":""},{"id":3300,"title":"新・都ホテル","architect":"村野藤吾","year":1975.0,"address":"京都府京都市南区西九条院町17","latitude":34.98345184326172,"longitude":135.7557373046875,"category":"ホテル","description":"","image_url":""}]}