{"page":169,"total_pages":290,"items_per_page":50,"total_items":14467,"items":[{"id":8401,"title":"メムメドウズ レストラン棟","architect":"隈研吾","year":2011.0,"address":"北海道広尾郡大樹町芽武158","latitude":42.467262268066406,"longitude":143.37913513183594,"category":"レストラン","description":"","image_url":""},{"id":8402,"title":"メムメドウズ 多目的施設","architect":"隈研吾","year":2011.0,"address":"北海道広尾郡大樹町芽武158","latitude":42.467864990234375,"longitude":143.37803649902344,"category":"研修施設","description":"競走馬の訓練施設の改修。タイキシャトル等で有名な元大樹ファーム","image_url":""},{"id":8403,"title":"大槌駅観光交流施設","architect":"久慈設計","year":2019.0,"address":"岩手県上閉伊郡大槌町本町1","latitude":39.356632232666016,"longitude":141.9031982421875,"category":"駅","description":"","image_url":""},{"id":8404,"title":"日本基督教団 今津教会会堂","architect":"ウィリアム・メレル・ヴォーリズ","year":1934.0,"address":"滋賀県高島市今津町今津1650-1","latitude":35.402713775634766,"longitude":136.0350341796875,"category":"教会","description":"","image_url":""},{"id":8405,"title":"旧今津郵便局","architect":"ウィリアム・メレル・ヴォーリズ","year":1936.0,"address":"滋賀県高島市今津町今津","latitude":35.40305709838867,"longitude":136.03424072265625,"category":"公共施設/洋館","description":"","image_url":""},{"id":8406,"title":"高島市役所本庁舎 旧館","architect":"徳岡設計","year":1995.0,"address":"滋賀県高島市新旭町北畑565","latitude":35.35309982299805,"longitude":136.03582763671875,"category":"庁舎","description":"","image_url":""},{"id":8407,"title":"旧江若鉄道 近江今津駅舎","architect":"不明","year":1930.0,"address":"滋賀県高島市今津町住吉2-6-8","latitude":35.4017333984375,"longitude":136.0308837890625,"category":"駅","description":"解体予定だが保存運動がおこなわれている","image_url":""},{"id":8408,"title":"高島市役所本庁舎 新館","architect":"安井建築設計","year":2019.0,"address":"滋賀県高島市新旭町北畑565","latitude":35.3526725769043,"longitude":136.0360870361328,"category":"庁舎","description":"","image_url":""},{"id":8409,"title":"あいぱーく今立 越前市今立総合支所","architect":"徳岡設計","year":2018.0,"address":"福井県越前市粟田部町9-1-9","latitude":35.91928482055664,"longitude":136.24649047851562,"category":"総合文化施設","description":"","image_url":""},{"id":8410,"title":"甲賀市あいこうか市民ホール","architect":"徳岡設計","year":1983.0,"address":"滋賀県甲賀市水口町水口5633","latitude":34.967350006103516,"longitude":136.16651916503906,"category":"ホール・劇場","description":"","image_url":""},{"id":8411,"title":"碓井琴平文化館 織田廣喜美術館／碓井郷土館","architect":"徳岡設計","year":1996.0,"address":"福岡県嘉麻市上臼井767","latitude":33.560848236083984,"longitude":130.7083740234375,"category":"美術館/博物館/図書館","description":"","image_url":""},{"id":8412,"title":"大津市立和邇図書館","architect":"徳岡設計","year":1992.0,"address":"滋賀県大津市和邇高城25","latitude":35.159149169921875,"longitude":135.92210388183594,"category":"図書館","description":"","image_url":""},{"id":8413,"title":"大津市和邇文化センター","architect":"徳岡設計","year":1988.0,"address":"滋賀県大津市和邇高城12","latitude":35.15960693359375,"longitude":135.9216766357422,"category":"ホール・劇場","description":"","image_url":""},{"id":8414,"title":"甲賀市甲南図書交流館ふるる","architect":"徳岡設計","year":2004.0,"address":"滋賀県甲賀市甲南町深川1865","latitude":34.929752349853516,"longitude":136.16848754882812,"category":"図書館","description":"","image_url":""},{"id":8415,"title":"高島市立今津図書館","architect":"徳岡設計","year":2001.0,"address":"滋賀県高島市今津町舟橋2-3-1","latitude":35.40097427368164,"longitude":136.02890014648438,"category":"図書館","description":"","image_url":""},{"id":8416,"title":"佐賀市立富士生涯学習センター フォレスタふじ","architect":"徳岡設計","year":2008.0,"address":"佐賀県佐賀市富士町大字古湯","latitude":33.373748779296875,"longitude":130.20603942871094,"category":"公民館・交流施設/図書館","description":"","image_url":""},{"id":8417,"title":"夜久野ふれあいプラザ","architect":"徳岡設計","year":2005.0,"address":"京都府福知山市夜久野町額田19-2","latitude":35.31848907470703,"longitude":135.00250244140625,"category":"総合文化施設/福祉センター","description":"","image_url":""},{"id":8418,"title":"日野市多摩平の森ふれあい館","architect":"徳岡設計","year":2004.0,"address":"東京都日野市多摩平2-9","latitude":35.6633186340332,"longitude":139.3816375732422,"category":"総合文化施設/公民館・交流施設/児童施設","description":"","image_url":""},{"id":8419,"title":"高島市役所別館 旧高島郡民会館","architect":"不明","year":null,"address":"滋賀県高島市今津町名小路1-4-1","latitude":35.40008544921875,"longitude":136.03079223632812,"category":"庁舎","description":"","image_url":""},{"id":8420,"title":"ダイヤゲート池袋","architect":"日建設計","year":2019.0,"address":"東京都豊島区南池袋1-16-15","latitude":35.726619720458984,"longitude":139.7107696533203,"category":"オフィスビル","description":"","image_url":""},{"id":8421,"title":"五ケ山クロス ベース","architect":"yHa architects","year":2019.0,"address":"福岡県那珂川市五ケ山1397-46","latitude":33.41362380981445,"longitude":130.41537475585938,"category":"展望台/観光施設/店舗","description":"","image_url":""},{"id":8422,"title":"菊鹿ワイナリー アイラリッジ","architect":"井手健一郎+高木冨士川計画事務所","year":2018.0,"address":"熊本県山鹿市菊鹿町相良34","latitude":33.06413269042969,"longitude":130.76808166503906,"category":"レストラン/醸造所","description":"","image_url":""},{"id":8423,"title":"当麻町役場","architect":"山下設計+柴滝建築設計事務所","year":2018.0,"address":"北海道上川郡当麻町3条東2-11-1","latitude":43.82823944091797,"longitude":142.5082550048828,"category":"庁舎","description":"","image_url":""},{"id":8424,"title":"鷹栖地区住民センター","architect":"アトリエブンク","year":2018.0,"address":"北海道上川郡鷹栖町町北1条3-2-5","latitude":43.844486236572266,"longitude":142.35391235351562,"category":"公民館・交流施設","description":"","image_url":""},{"id":8425,"title":"東川町複合交流施設 せんとぴゅあⅡ","architect":"小篠隆生+アトリエブンク+アイエイ研究所+KITABA","year":2018.0,"address":"北海道上川郡東川町北町1-11-2","latitude":43.69867706298828,"longitude":142.50682067871094,"category":"博物館/図書館","description":"","image_url":""},{"id":8426,"title":"輪島KABULET","architect":"五井建築研究所","year":2018.0,"address":"石川県輪島市河井町208","latitude":37.39316940307617,"longitude":136.9021453857422,"category":"福祉センター/公民館・交流施設","description":"","image_url":""},{"id":8427,"title":"金沢工業大学 国際高等専門学校 白山麓キャンパス 校舎・体育館・学生寮","architect":"五井建築研究所","year":2018.0,"address":"石川県白山市瀬戸3","latitude":36.2896728515625,"longitude":136.65040588378906,"category":"大学","description":"","image_url":""},{"id":8428,"title":"追手門学院大学 茨木総持寺キャンパス ACADEMIC ARK","architect":"三菱地所","year":2019.0,"address":"大阪府茨木市太田東芝町1-400-6","latitude":34.8377799987793,"longitude":135.577392578125,"category":"大学/図書館","description":"","image_url":""},{"id":8429,"title":"追手門学院大学 茨木総持寺キャンパス 食堂棟","architect":"三菱地所","year":2019.0,"address":"大阪府茨木市太田東芝町1-400-6","latitude":34.83734130859375,"longitude":135.57666015625,"category":"大学/カフェ","description":"","image_url":""},{"id":8430,"title":"追手門学院中・高等学校 新校舎","architect":"類設計室","year":2019.0,"address":"大阪府茨木市太田東芝町1-400-6","latitude":34.840274810791016,"longitude":135.57763671875,"category":"学校","description":"","image_url":""},{"id":8431,"title":"東京音楽大学 中目黒・代官山キャンパス","architect":"日建設計+戸田建設","year":2019.0,"address":"東京都目黒区上目黒1-9-1","latitude":35.64674377441406,"longitude":139.69989013671875,"category":"大学","description":"","image_url":""},{"id":8432,"title":"大分県立芸術文化短期大学 音楽ホール棟","architect":"石原健也+西田司","year":2019.0,"address":"大分県大分市上野丘東1-11","latitude":33.2235107421875,"longitude":131.61660766601562,"category":"大学/ホール・劇場","description":"キャンパス再整備第一期","image_url":""},{"id":8433,"title":"大分県立芸術文化短期大学 図書館","architect":"石原健也+西田司","year":2018.0,"address":"大分県大分市上野丘東1-11","latitude":33.22357177734375,"longitude":131.614990234375,"category":"大学/図書館","description":"キャンパス再整備第一期","image_url":""},{"id":8434,"title":"愛知県立愛知総合工科高等学校","architect":"久米設計","year":2016.0,"address":"愛知県名古屋市千種区星が丘山手107","latitude":35.16169738769531,"longitude":136.98037719726562,"category":"学校","description":"","image_url":""},{"id":8435,"title":"桜川市立桃山学園","architect":"kw+hgアーキテクツ","year":2018.0,"address":"茨城県桜川市真壁町伊佐々158","latitude":36.26864242553711,"longitude":140.08712768554688,"category":"学校","description":"","image_url":""},{"id":8436,"title":"北区立田端中学校","architect":"シーラカンスK&H","year":2019.0,"address":"東京都北区田端6-9-1","latitude":35.741241455078125,"longitude":139.75608825683594,"category":"学校","description":"","image_url":""},{"id":8437,"title":"陸前高田市立気仙小学校","architect":"綾井新+土屋辰之助+IEE教育環境研究所","year":2018.0,"address":"岩手県陸前高田市気仙町愛宕下","latitude":39.001163482666016,"longitude":141.61566162109375,"category":"学校","description":"","image_url":""},{"id":8438,"title":"東泉丘ひだまり保育園","architect":"竹原義二","year":2017.0,"address":"大阪府豊中市東泉丘2-12-13","latitude":34.79091262817383,"longitude":135.48912048339844,"category":"幼稚園","description":"","image_url":""},{"id":8439,"title":"羽鷹池ひだまり保育園","architect":"竹原義二","year":2018.0,"address":"大阪府豊中市少路1-15","latitude":34.80485916137695,"longitude":135.4724884033203,"category":"幼稚園","description":"","image_url":""},{"id":8440,"title":"保内児童センター・保内保育所 だんだん","architect":"アンブレ・アーキテクツ","year":2019.0,"address":"愛媛県八幡浜市保内町宮内","latitude":33.482662200927734,"longitude":132.40199279785156,"category":"幼稚園","description":"","image_url":""},{"id":8441,"title":"めぐみ会第一仏光こども園新園舎","architect":"プラスニューオフィス","year":2017.0,"address":"兵庫県たつの市揖保川町山津屋67-2","latitude":34.8225212097168,"longitude":134.52590942382812,"category":"幼稚園","description":"","image_url":""},{"id":8442,"title":"カミヤト凸凹保育園","architect":"teco","year":2019.0,"address":"神奈川県厚木市上依知425-1","latitude":35.515357971191406,"longitude":139.3607177734375,"category":"幼稚園","description":"","image_url":""},{"id":8443,"title":"杉並たかいどいちご保育園・グループホームたかいどの里","architect":"藤木隆男+井本佐保里","year":2018.0,"address":"東京都杉並区高井戸東4-5-7","latitude":35.688106536865234,"longitude":139.61940002441406,"category":"幼稚園/養護施設","description":"","image_url":""},{"id":8444,"title":"くくや台幼稚園","architect":"Live Haus建築設計所+飯田貴之","year":2019.0,"address":"茨城県古河市三和176-5","latitude":36.162654876708984,"longitude":139.70513916015625,"category":"幼稚園","description":"","image_url":""},{"id":8445,"title":"あけぼのぶんぶん保育園","architect":"竹原義二","year":2015.0,"address":"大阪府豊中市長興寺南2-8-16","latitude":34.77165603637695,"longitude":135.47384643554688,"category":"幼稚園","description":"","image_url":""},{"id":8446,"title":"あけぼのぽんぽこ保育園","architect":"竹原義二","year":2015.0,"address":"大阪府豊中市西緑丘2-4-1","latitude":34.81001281738281,"longitude":135.47694396972656,"category":"幼稚園","description":"","image_url":""},{"id":8447,"title":"あけぼのひだまり保育園","architect":"竹原義二","year":2015.0,"address":"大阪府豊中市柴原町2-14-1","latitude":34.798065185546875,"longitude":135.45950317382812,"category":"幼稚園","description":"","image_url":""},{"id":8448,"title":"中桜塚ひだまり保育園","architect":"竹原義二","year":2018.0,"address":"大阪府豊中市中桜塚4-11-17","latitude":34.7800407409668,"longitude":135.4729766845703,"category":"幼稚園","description":"","image_url":""},{"id":8449,"title":"梅の里保育園","architect":"竹原義二","year":2011.0,"address":"大阪府富田林市梅の里1-2-5","latitude":34.525291442871094,"longitude":135.60044860839844,"category":"幼稚園","description":"","image_url":""},{"id":8450,"title":"蔵宿いろは","architect":"竹原義二","year":2009.0,"address":"広島県廿日市市宮島町589-4","latitude":34.29960250854492,"longitude":132.32154846191406,"category":"旅館","description":"","image_url":""}]}