{"page":80,"total_pages":290,"items_per_page":50,"total_items":14467,"items":[{"id":3951,"title":"ロック・フィールド 玉川ファクトリー","architect":"安藤忠雄","year":2003.0,"address":"神奈川県川崎市高津区久地3-12-57","latitude":35.61116409301758,"longitude":139.6031494140625,"category":"工場","description":"","image_url":""},{"id":3952,"title":"ロック・フィールド 神戸ヘッドオフィス ／ 神戸ファクトリー","architect":"安藤忠雄","year":2004.0,"address":"兵庫県神戸市東灘区魚崎浜町15-2","latitude":34.704750061035156,"longitude":135.2831573486328,"category":"オフィスビル/工場","description":"","image_url":""},{"id":3953,"title":"米子東病院","architect":"安藤忠雄","year":2006.0,"address":"鳥取県米子市淀江町佐陀2169","latitude":35.45212173461914,"longitude":133.3955078125,"category":"病院","description":"","image_url":""},{"id":3954,"title":"新桜宮橋","architect":"安藤忠雄","year":2006.0,"address":"大阪府大阪市北区天満橋1-1-1","latitude":34.697750091552734,"longitude":135.52276611328125,"category":"橋","description":"","image_url":""},{"id":3955,"title":"桜宮橋","architect":"武田五一","year":1930.0,"address":"大阪府大阪市北区天満橋1-1-1","latitude":34.69755935668945,"longitude":135.52276611328125,"category":"橋","description":"","image_url":""},{"id":3956,"title":"聖心女子学院 創立100周年記念ホール","architect":"安藤忠雄","year":2009.0,"address":"東京都港区白金4-11-1","latitude":35.64281463623047,"longitude":139.7272491455078,"category":"大学/ホール・劇場","description":"","image_url":""},{"id":3957,"title":"俄ビル","architect":"安藤忠雄","year":2009.0,"address":"京都府京都市中京区福長町105","latitude":35.00914764404297,"longitude":135.76512145996094,"category":"テナントビル/オフィスビル","description":"","image_url":""},{"id":3958,"title":"上方落語協会会館","architect":"安藤忠雄","year":2012.0,"address":"大阪府大阪市北区天満4-12-7","latitude":34.69516372680664,"longitude":135.51364135742188,"category":"ホール・劇場/オフィスビル/組合施設","description":"","image_url":""},{"id":3959,"title":"老木レディースクリニック2","architect":"安藤忠雄","year":2012.0,"address":"大阪府和泉市あゆみ野1-4-1","latitude":34.45213317871094,"longitude":135.44764709472656,"category":"個人医院","description":"","image_url":""},{"id":3960,"title":"ビュロー品川","architect":"青木淳","year":2004.0,"address":"東京都港区港南4-1-6","latitude":35.63121795654297,"longitude":139.746826171875,"category":"集合住宅","description":"","image_url":""},{"id":3961,"title":"ルイ・ヴィトン 博多店","architect":"青木淳","year":2012.0,"address":"福岡県福岡市中央区天神2-5-55","latitude":33.58797836303711,"longitude":130.39822387695312,"category":"店舗","description":"","image_url":""},{"id":3962,"title":"ルイ・ヴィトン松屋銀座店","architect":"青木淳","year":2000.0,"address":"東京都中央区銀座3-6-1","latitude":35.67225646972656,"longitude":139.76669311523438,"category":"店舗","description":"2000年竣工、2013年ファサードリニューアル。設計は同じく青木淳。","image_url":""},{"id":3963,"title":"青々荘","architect":"青木淳","year":2010.0,"address":"東京都武蔵野市吉祥寺本町4-26-1","latitude":35.70814514160156,"longitude":139.5713653564453,"category":"集合住宅","description":"青木野枝とのコラボ作品","image_url":""},{"id":3964,"title":"浜松サーラ 旧ガスビルディングサーラ浜松","architect":"黒川紀章+青木茂","year":1981.0,"address":"静岡県浜松市東区西塚町200","latitude":34.718994140625,"longitude":137.75827026367188,"category":"モール","description":"元は黒川紀章設計による「ガスビルディングサーラ浜松」を2011年に青木茂が改修（リファイニング）","image_url":""},{"id":3965,"title":"高根ハイツ","architect":"青木茂","year":2010.0,"address":"東京都中野区東中野2-29-6","latitude":35.70576858520508,"longitude":139.68035888671875,"category":"集合住宅","description":"","image_url":""},{"id":3966,"title":"後藤寺さくらマンション","architect":"青木茂","year":2009.0,"address":"福岡県田川市丸山町1-4","latitude":33.629676818847656,"longitude":130.80111694335938,"category":"集合住宅","description":"","image_url":""},{"id":3967,"title":"Qiz溝口","architect":"青木茂","year":2008.0,"address":"神奈川県川崎市高津区溝口1-13-1","latitude":35.599891662597656,"longitude":139.61317443847656,"category":"テナントビル","description":"","image_url":""},{"id":3968,"title":"リベラほうしょう","architect":"青木茂","year":2007.0,"address":"愛知県知多郡武豊町字長尾山29","latitude":34.853023529052734,"longitude":136.91481018066406,"category":"集合住宅","description":"","image_url":""},{"id":3969,"title":"イプセ目黒鷹番","architect":"青木茂","year":2007.0,"address":"東京都目黒区鷹番1-6-19","latitude":35.626075744628906,"longitude":139.6886749267578,"category":"集合住宅","description":"","image_url":""},{"id":3970,"title":"e+ANNEX","architect":"青木茂","year":2006.0,"address":"福岡県行橋市宮市町1-27","latitude":33.72983169555664,"longitude":130.97303771972656,"category":"店舗","description":"","image_url":""},{"id":3971,"title":"福岡市農業協同組合本店ビル","architect":"青木茂","year":2005.0,"address":"福岡県福岡市中央区天神4-9-1","latitude":33.59566116333008,"longitude":130.3997344970703,"category":"組合施設","description":"","image_url":""},{"id":3972,"title":"ＮＦビル","architect":"青木茂","year":2005.0,"address":"岐阜県岐阜市神田町8-2-3","latitude":35.41321563720703,"longitude":136.7598876953125,"category":"オフィスビル","description":"","image_url":""},{"id":3973,"title":"ヌーヴェル ONE","architect":"青木茂","year":2005.0,"address":"福岡県福岡市早良区城西3-11-6","latitude":33.578433990478516,"longitude":130.36045837402344,"category":"集合住宅","description":"","image_url":""},{"id":3974,"title":"イプセ都立大学","architect":"青木茂","year":2005.0,"address":"東京都目黒区緑が丘1-4-1","latitude":35.61202621459961,"longitude":139.67909240722656,"category":"集合住宅","description":"","image_url":""},{"id":3975,"title":"渋谷商業ビル","architect":"青木茂","year":2012.0,"address":"東京都渋谷区1-15-1","latitude":35.670814514160156,"longitude":139.7046356201172,"category":"テナントビル","description":"","image_url":""},{"id":3976,"title":"YS BLD.","architect":"青木茂","year":2011.0,"address":"東京都港区三田4-17-19","latitude":35.641788482666016,"longitude":139.73910522460938,"category":"集合住宅","description":"","image_url":""},{"id":3977,"title":"鶴見町旧海軍防備衛所跡地資料館 富永一朗マンガ記念館","architect":"青木茂","year":1987.0,"address":"大分県佐伯市鶴見大字梶寄浦字鶴御崎","latitude":32.932456970214844,"longitude":132.08274841308594,"category":"博物館","description":"閉鎖中","image_url":""},{"id":3978,"title":"緒方町役場庁舎","architect":"青木茂","year":1995.0,"address":"大分県豊後大野市緒方町馬場36","latitude":32.97027587890625,"longitude":131.4737091064453,"category":"庁舎","description":"","image_url":""},{"id":3979,"title":"杵築中央保育園","architect":"青木茂","year":1999.0,"address":"大分県杵築市南杵築972","latitude":33.41072082519531,"longitude":131.60597229003906,"category":"幼稚園","description":"","image_url":""},{"id":3980,"title":"limpid","architect":"有馬裕之","year":1999.0,"address":"福岡県福岡市中央区大名2-1-4","latitude":33.58872604370117,"longitude":130.39601135253906,"category":"テナントビル","description":"","image_url":""},{"id":3981,"title":"VOID+H.M.P","architect":"有馬裕之","year":2001.0,"address":"福岡県福岡市中央区大名1-3-7","latitude":33.586326599121094,"longitude":130.3946533203125,"category":"テナントビル","description":"","image_url":""},{"id":3982,"title":"やま中","architect":"磯崎新","year":1997.0,"address":"福岡県福岡市中央区渡辺通2-8-8","latitude":33.58325958251953,"longitude":130.4028778076172,"category":"料亭","description":"","image_url":""},{"id":3983,"title":"天神南駅","architect":"葉祥栄","year":2005.0,"address":"福岡県福岡市中央区渡辺通5 天神南駅","latitude":33.588279724121094,"longitude":130.40176391601562,"category":"駅","description":"","image_url":""},{"id":3984,"title":"大濠公園能楽堂","architect":"大江宏","year":1986.0,"address":"福岡県福岡市中央区大濠公園1-5","latitude":33.58949279785156,"longitude":130.37423706054688,"category":"ホール・劇場","description":"","image_url":""},{"id":3985,"title":"サンライフ大濠","architect":"三浦紀之","year":1978.0,"address":"福岡県福岡市中央区大濠2-7-13","latitude":33.58701705932617,"longitude":130.37208557128906,"category":"集合住宅","description":"","image_url":""},{"id":3986,"title":"フラワーショップ マージ・オーキッド","architect":"西岡弘","year":1986.0,"address":"福岡県福岡市中央区浄水通3-30","latitude":33.57493591308594,"longitude":130.3941192626953,"category":"店舗","description":"","image_url":""},{"id":3987,"title":"福岡'89地行地区コートハウス","architect":"西岡弘","year":1989.0,"address":"福岡県福岡市中央区地行浜1-7-8","latitude":33.59208679199219,"longitude":130.36231994628906,"category":"集合住宅","description":"","image_url":""},{"id":3988,"title":"シーサイドももち 出江寛棟","architect":"出江寛","year":1989.0,"address":"福岡県福岡市早良区百道浜4-1-4","latitude":33.58901596069336,"longitude":130.3478240966797,"category":"集合住宅","description":"","image_url":""},{"id":3989,"title":"シーサイドももち 木島安史棟","architect":"木島安史","year":1989.0,"address":"福岡県福岡市早良区百道浜3-910-3","latitude":33.58898162841797,"longitude":130.348388671875,"category":"テナントビル","description":"","image_url":""},{"id":3990,"title":"シーサイドももち 黒川紀章棟","architect":"黒川紀章","year":1988.0,"address":"福岡県福岡市早良区百道浜3-901-13","latitude":33.587974548339844,"longitude":130.34829711914062,"category":"オフィスビル","description":"","image_url":""},{"id":3991,"title":"シーサイドももち 水谷頴介棟","architect":"水谷頴介","year":1989.0,"address":"福岡県福岡市早良区百道浜3-3-2","latitude":33.588924407958984,"longitude":130.34901428222656,"category":"集合住宅","description":"","image_url":""},{"id":3992,"title":"シーサイドももち スタンレイ・タイガーマン棟","architect":"スタンレイ・タイガーマン","year":1989.0,"address":"福岡県福岡市早良区百道浜4-1-2","latitude":33.58833312988281,"longitude":130.34779357910156,"category":"集合住宅","description":"","image_url":""},{"id":3993,"title":"シーサイドももち 葉祥栄棟","architect":"葉祥栄","year":1989.0,"address":"福岡県福岡市早良区百道浜3-3-1","latitude":33.58854675292969,"longitude":130.3482208251953,"category":"テナントビル","description":"","image_url":""},{"id":3994,"title":"シーサイドももち 鮎川透棟","architect":"鮎川透","year":1988.0,"address":"福岡県福岡市早良区百道浜4-1-3","latitude":33.588687896728516,"longitude":130.34776306152344,"category":"集合住宅","description":"","image_url":""},{"id":3995,"title":"ネクサスももちレジデンシャルタワー","architect":"マイケル・グレイヴス","year":1996.0,"address":"福岡県福岡市早良区百道浜4-31-1","latitude":33.5930290222168,"longitude":130.349365234375,"category":"集合住宅","description":"","image_url":""},{"id":3996,"title":"福岡大学 60周年記念館","architect":"槇文彦","year":1996.0,"address":"福岡県福岡市城南区七隅8-19-1","latitude":33.54725646972656,"longitude":130.3648681640625,"category":"大学/ホール・劇場","description":"","image_url":""},{"id":3997,"title":"さつき幼稚園","architect":"シーラカンスK&H","year":2006.0,"address":"福岡県福岡市早良区西油山154","latitude":33.53290557861328,"longitude":130.35255432128906,"category":"幼稚園","description":"","image_url":""},{"id":3998,"title":"九州大学 芸術工学部","architect":"香山壽夫","year":1970.0,"address":"福岡県福岡市南区塩原4-9-1","latitude":33.56062698364258,"longitude":130.4303436279297,"category":"大学","description":"環境画像棟、工業音響棟、画像特殊施設棟、音響特殊施設棟、工作工房の5つが登録有形文化財として登録された","image_url":""},{"id":3999,"title":"Lunette ゆめアール大橋","architect":"石田壽一","year":2005.0,"address":"福岡市南区大橋1-3-25","latitude":33.55937576293945,"longitude":130.42762756347656,"category":"児童施設/ホール・劇場/公民館・交流施設","description":"","image_url":""},{"id":4000,"title":"九州大学 工学系研究棟 ウェスト2号館／3号館／4号館","architect":"シーザー・ペリ+三菱地所+三島設計","year":2005.0,"address":"福岡県福岡市西区元岡744","latitude":33.5964241027832,"longitude":130.21759033203125,"category":"大学","description":"","image_url":""}]}