{"page":53,"total_pages":290,"items_per_page":50,"total_items":14467,"items":[{"id":2601,"title":"周東町パストラルホール","architect":"竹山聖","year":1994.0,"address":"山口県岩国市周東町用田137-8","latitude":34.08049392700195,"longitude":132.0487060546875,"category":"ホール・劇場","description":"","image_url":""},{"id":2602,"title":"労働福祉事業団山口保養所 錦グリーンパレス","architect":"象設計集団","year":1980.0,"address":"山口県岩国市錦町深川3213-2","latitude":34.31161880493164,"longitude":131.9872283935547,"category":"ホテル","description":"","image_url":""},{"id":2603,"title":"岩国徴古館","architect":"佐藤武夫","year":1945.0,"address":"山口県岩国市横山2-7-19","latitude":34.17093276977539,"longitude":132.1771697998047,"category":"博物館","description":"","image_url":""},{"id":2604,"title":"KidMuseum 玖珂町こどもの館","architect":"小川晋一","year":1995.0,"address":"山口県岩国市玖珂町5330","latitude":34.09347152709961,"longitude":132.08006286621094,"category":"児童施設","description":"","image_url":""},{"id":2605,"title":"岩国市庁舎","architect":"佐藤総合計画","year":2008.0,"address":"山口県岩国市今津町1-14-51","latitude":34.166500091552734,"longitude":132.2189483642578,"category":"庁舎","description":"","image_url":""},{"id":2606,"title":"錦帯橋","architect":"不明","year":1673.0,"address":"山口県岩国市岩国 錦帯橋","latitude":34.16758346557617,"longitude":132.1784210205078,"category":"橋","description":"","image_url":""},{"id":2607,"title":"伊藤公資料館","architect":"不明","year":null,"address":"山口県光市束荷2250-1","latitude":34.00867462158203,"longitude":131.9954833984375,"category":"洋館","description":"","image_url":""},{"id":2608,"title":"山口市大海総合センター サウンドエッグ","architect":"小川晋一","year":1994.0,"address":"山口県山口市秋穂東1130-5","latitude":34.02981948852539,"longitude":131.46505737304688,"category":"総合文化施設","description":"","image_url":""},{"id":2609,"title":"道の駅 仁保の郷","architect":"宮崎浩","year":2000.0,"address":"山口県山口市仁保中郷1034","latitude":34.2110710144043,"longitude":131.55931091308594,"category":"PA・道の駅","description":"","image_url":""},{"id":2610,"title":"山口県立山口博物館","architect":"坂倉準三","year":1967.0,"address":"山口県山口市春日町8-2","latitude":34.18253707885742,"longitude":131.47276306152344,"category":"博物館","description":"","image_url":""},{"id":2611,"title":"山口県立美術館","architect":"鬼頭梓","year":1979.0,"address":"山口県山口市亀山町3-1","latitude":34.180118560791016,"longitude":131.4748077392578,"category":"美術館","description":"","image_url":""},{"id":2612,"title":"山口市秋穂地域交流センター・山口市立秋穂図書館","architect":"日建設計","year":2009.0,"address":"山口県山口市秋穂二島1062","latitude":34.06001663208008,"longitude":131.43614196777344,"category":"図書館","description":"","image_url":""},{"id":2613,"title":"山口カルメル会修道院聖堂","architect":"坂倉建築研究所","year":2002.0,"address":"山口県山口市仁保中郷103","latitude":34.21448516845703,"longitude":131.55355834960938,"category":"教会","description":"","image_url":""},{"id":2614,"title":"tag","architect":"宮崎浩","year":2000.0,"address":"山口県山口市糸米2-2-10","latitude":34.176231384277344,"longitude":131.46493530273438,"category":"店舗","description":"","image_url":""},{"id":2615,"title":"山口市営 阿知須合同納骨塔","architect":"藤原・山下設計事務所","year":1967.0,"address":"山口県山口市阿知須649-1","latitude":34.00413513183594,"longitude":131.3494415283203,"category":"斎場/オブジェ","description":"","image_url":""},{"id":2616,"title":"山口県政資料館","architect":"妻木頼黄+武田五一+大熊喜邦","year":1916.0,"address":"山口県山口市滝町1-1","latitude":34.18564987182617,"longitude":131.4707489013672,"category":"博物館","description":"","image_url":""},{"id":2617,"title":"中原中也記念館","architect":"宮崎浩","year":1993.0,"address":"山口県山口市湯田温泉1-11-21","latitude":34.164764404296875,"longitude":131.45790100097656,"category":"博物館","description":"","image_url":""},{"id":2618,"title":"山口情報芸術センター","architect":"磯崎新","year":2003.0,"address":"山口県山口市中園町7-7","latitude":34.169559478759766,"longitude":131.46731567382812,"category":"総合文化施設/美術館/図書館","description":"図書館棟が2019年3月に濱田慎太建築事務所によりエントランス改修","image_url":""},{"id":2619,"title":"常栄寺 南溟庭","architect":"重森三玲","year":1968.0,"address":"山口県山口市宮野下2001","latitude":34.19801712036133,"longitude":131.4898681640625,"category":"庭園","description":"","image_url":""},{"id":2620,"title":"ピッツェリア・アンコーラ","architect":"三分一博志","year":2003.0,"address":"山口県山口市吉敷赤田4-5-8","latitude":34.17550277709961,"longitude":131.42930603027344,"category":"レストラン","description":"","image_url":""},{"id":2621,"title":"きららガラス未来館","architect":"隈研吾","year":2004.0,"address":"山口県山陽小野田市大字小野田7534-4","latitude":33.94313049316406,"longitude":131.1703643798828,"category":"博物館","description":"","image_url":""},{"id":2622,"title":"海／フィルター ソル・ポニエンテ","architect":"隈研吾","year":2001.0,"address":"山口県山陽小野田市小野田760","latitude":33.94829177856445,"longitude":131.16444396972656,"category":"レストラン","description":"","image_url":""},{"id":2623,"title":"徳山歯科医師会館","architect":"小川晋一","year":1993.0,"address":"山口県周南市今宿町3-55","latitude":34.060096740722656,"longitude":131.8022003173828,"category":"組合施設","description":"","image_url":""},{"id":2624,"title":"漢陽寺","architect":"重森三玲","year":1973.0,"address":"山口県周南市鹿野上2872","latitude":34.23557662963867,"longitude":131.8150634765625,"category":"庭園","description":"","image_url":""},{"id":2625,"title":"星野哲郎記念館","architect":"佐藤総合計画","year":2007.0,"address":"山口県大島郡周防大島町平野417-11","latitude":33.90786361694336,"longitude":132.35467529296875,"category":"博物館","description":"","image_url":""},{"id":2626,"title":"萩博物館","architect":"建築研究所アーキヴィジョン","year":2004.0,"address":"山口県萩市堀内355","latitude":34.41324996948242,"longitude":131.39048767089844,"category":"博物館","description":"","image_url":""},{"id":2627,"title":"萩市民館","architect":"菊竹清訓","year":1969.0,"address":"山口県萩市江向495-4","latitude":34.40846252441406,"longitude":131.39816284179688,"category":"ホール・劇場","description":"","image_url":""},{"id":2628,"title":"山口県立萩美術館 浦上記念館","architect":"丹下健三","year":1996.0,"address":"山口県萩市平安古586-1","latitude":34.409339904785156,"longitude":131.39434814453125,"category":"美術館","description":"","image_url":""},{"id":2629,"title":"萩市庁舎","architect":"菊竹清訓","year":1974.0,"address":"山口県萩市江向510","latitude":34.408077239990234,"longitude":131.3990936279297,"category":"庁舎","description":"","image_url":""},{"id":2630,"title":"秋吉台国際芸術村","architect":"磯崎新","year":1999.0,"address":"山口県美祢市秋芳町秋吉50","latitude":34.22283935546875,"longitude":131.3231964111328,"category":"芸術祭・芸術村/美術館/その他宿泊施設","description":"","image_url":""},{"id":2631,"title":"やまぐちフラワーランド","architect":"日建設計","year":2006.0,"address":"山口県柳井市新庄500-1","latitude":33.98082733154297,"longitude":132.0892791748047,"category":"動植物園","description":"","image_url":""},{"id":2632,"title":"和木町庁舎","architect":"黒川紀章","year":1975.0,"address":"山口県玖珂郡和木町和木1-1-1","latitude":34.2024040222168,"longitude":132.22019958496094,"category":"庁舎","description":"","image_url":""},{"id":2633,"title":"門入の郷 門入ブリッジ 椿の城","architect":"多田善昭","year":1996.0,"address":"香川県さぬき市寒川町石田東2966","latitude":34.2354850769043,"longitude":134.21786499023438,"category":"公園/橋","description":"","image_url":""},{"id":2634,"title":"木の武道館 飛翔の館","architect":"多田善昭","year":1991.0,"address":"香川県さぬき市寒川町石田東甲333","latitude":34.26658248901367,"longitude":134.2031707763672,"category":"体育館","description":"","image_url":""},{"id":2635,"title":"志度寺","architect":"重森三玲","year":1962.0,"address":"香川県さぬき市志度1102","latitude":34.32431411743164,"longitude":134.17958068847656,"category":"寺院","description":"","image_url":""},{"id":2636,"title":"町衆の館 こめっせ宇多津","architect":"多田善昭","year":2008.0,"address":"香川県綾歌郡宇多津町(その他)1882-3","latitude":34.31016159057617,"longitude":133.8249053955078,"category":"博物館","description":"","image_url":""},{"id":2637,"title":"観音寺郷土資料館 旧農事試験場","architect":"不明","year":1914.0,"address":"香川県観音寺市有明町3-35","latitude":34.13080596923828,"longitude":133.64358520507812,"category":"洋館","description":"琴弾公園内","image_url":""},{"id":2638,"title":"観音寺市立中央図書館","architect":"不明","year":null,"address":"香川県観音寺市坂本町1-1-1","latitude":34.1285285949707,"longitude":133.6620330810547,"category":"図書館","description":"","image_url":""},{"id":2639,"title":"丸亀市立城乾小学校","architect":"毛綱毅曠","year":1999.0,"address":"香川県丸亀市中府町5-15-1","latitude":34.28766632080078,"longitude":133.7925262451172,"category":"学校","description":"","image_url":""},{"id":2640,"title":"丸亀高等学校記念館","architect":"不明","year":1893.0,"address":"香川県丸亀市六番丁1","latitude":34.28329086303711,"longitude":133.79811096191406,"category":"洋館","description":"","image_url":""},{"id":2641,"title":"丸亀市猪熊弦一郎現代美術館","architect":"谷口吉生","year":1991.0,"address":"香川県丸亀市浜町80-1","latitude":34.29117965698242,"longitude":133.79212951660156,"category":"美術館","description":"","image_url":""},{"id":2642,"title":"丸亀平井美術館","architect":"アルフレード・アリーバス","year":1993.0,"address":"香川県丸亀市土器町東8-538","latitude":34.301734924316406,"longitude":133.8056640625,"category":"美術館","description":"","image_url":""},{"id":2643,"title":"丸亀市立図書館","architect":"谷口吉生","year":1991.0,"address":"香川県丸亀市浜町80-1","latitude":34.2908821105957,"longitude":133.79183959960938,"category":"図書館","description":"","image_url":""},{"id":2644,"title":"物質試行47 金刀比羅宮プロジェクト","architect":"鈴木了二","year":2004.0,"address":"香川県仲多度郡琴平町（その他）-892","latitude":34.18284225463867,"longitude":133.80950927734375,"category":"寺院","description":"","image_url":""},{"id":2645,"title":"金刀比羅宮新茶所「神椿」","architect":"田窪恭治","year":2007.0,"address":"香川県仲多度郡琴平町（その他）-892","latitude":34.18305969238281,"longitude":133.81198120117188,"category":"カフェ","description":"","image_url":""},{"id":2646,"title":"高松市役所庵治支所 旧庵治町役場","architect":"村上徹","year":1996.0,"address":"香川県高松市庵治町6393-5","latitude":34.384037017822266,"longitude":134.1265869140625,"category":"庁舎","description":"","image_url":""},{"id":2647,"title":"ジョージナカシマ記念館","architect":"永見眞一","year":2008.0,"address":"香川県高松市牟礼町大町1132-1","latitude":34.335243225097656,"longitude":134.1529083251953,"category":"博物館","description":"","image_url":""},{"id":2648,"title":"掬月亭","architect":"伊藤要太郎","year":1640.0,"address":"香川県高松市栗林町1-20-16","latitude":34.330482482910156,"longitude":134.04443359375,"category":"茶室","description":"","image_url":""},{"id":2649,"title":"道の駅「香南楽湯」 香南町保健センター・社会福祉センター","architect":"宮崎浩","year":2002.0,"address":"香川県高松市香南町横井997-2","latitude":34.239418029785156,"longitude":134.00729370117188,"category":"PA・道の駅","description":"","image_url":""},{"id":2650,"title":"喫茶 城の眼","architect":"山本忠司","year":1962.0,"address":"香川県高松市紺屋町2-4","latitude":34.34461212158203,"longitude":134.04873657226562,"category":"カフェ","description":"","image_url":""}]}