{"page":150,"total_pages":290,"items_per_page":50,"total_items":14467,"items":[{"id":7451,"title":"静岡理工科大学 建築学科棟 えんつりー","architect":"古谷誠章","year":2017.0,"address":"静岡県袋井市豊沢2200-2","latitude":34.73906326293945,"longitude":137.96090698242188,"category":"大学","description":"","image_url":""},{"id":7452,"title":"あるくらす","architect":"古谷誠章","year":2017.0,"address":"北海道雨竜郡沼田町南1条1-8-25","latitude":43.80567932128906,"longitude":141.9385986328125,"category":"医療施設/福祉センター","description":"","image_url":""},{"id":7453,"title":"守山市立守山中学校","architect":"石原健也","year":2017.0,"address":"滋賀県守山市石田町350","latitude":35.068756103515625,"longitude":135.98300170898438,"category":"学校","description":"","image_url":""},{"id":7454,"title":"日本海事検定協会本部ビル","architect":"竹中工務店","year":2018.0,"address":"東京都中央区八丁堀1-9-7","latitude":35.67729568481445,"longitude":139.7772216796875,"category":"オフィスビル","description":"","image_url":""},{"id":7455,"title":"食堂の壁 黒んぼ食堂","architect":"宮晶子","year":2014.0,"address":"埼玉県深谷市宿根525-1","latitude":36.19370651245117,"longitude":139.26138305664062,"category":"レストラン","description":"","image_url":""},{"id":7456,"title":"Tree-ness House","architect":"平田晃久","year":2017.0,"address":"住所不明","latitude":0.0,"longitude":0.0,"category":"ギャラリー/住宅","description":"","image_url":""},{"id":7457,"title":"高尾山スミカ","architect":"成瀬・猪熊建築設計事務所","year":2018.0,"address":"東京都八王子市高尾町 高尾山スミカ","latitude":35.63096618652344,"longitude":139.25631713867188,"category":"店舗","description":"1978年竣工の売店をリノベーション","image_url":""},{"id":7458,"title":"テラス蓼科","architect":"日建設計","year":2005.0,"address":"長野県茅野市北山蓼科4035-949","latitude":36.05188751220703,"longitude":138.25074768066406,"category":"ホテル","description":"","image_url":""},{"id":7459,"title":"観音寺市役所","architect":"石本建築事務所","year":2015.0,"address":"香川県観音寺市坂本町1-1-1","latitude":34.12846755981445,"longitude":133.6628875732422,"category":"庁舎","description":"","image_url":""},{"id":7460,"title":"戦没船員の碑","architect":"吉村順三","year":1971.0,"address":"神奈川県横須賀市鴨居3","latitude":35.254398345947266,"longitude":139.74072265625,"category":"オブジェ/宗教施設","description":"","image_url":""},{"id":7461,"title":"三観広域行政組合北消防署","architect":"石本建築事務所","year":2016.0,"address":"香川県三豊市高瀬町下勝間2344-1","latitude":34.18178939819336,"longitude":133.7131805419922,"category":"警察・消防署","description":"","image_url":""},{"id":7462,"title":"三観広域行政組合消防本部・南消防署","architect":"石本建築事務所","year":2016.0,"address":"香川県観音寺市坂本町1-1-7","latitude":34.12779235839844,"longitude":133.6613311767578,"category":"警察・消防署","description":"","image_url":""},{"id":7463,"title":"港区立郷土歴史館等複合施設 ゆかしの杜 旧公衆衛生院","architect":"日本設計+大成建設+香山壽夫+内田祥三","year":1938.0,"address":"東京都港区白金台4-6-2","latitude":35.63913345336914,"longitude":139.72671508789062,"category":"博物館/福祉センター/公共施設","description":"元は1938年竣工、内田祥三設計の旧公衆衛生院を改修","image_url":""},{"id":7464,"title":"神奈川県庁新庁舎","architect":"坂倉準三+坂倉建築研究所","year":1966.0,"address":"神奈川県横浜市中区元浜町1-3","latitude":35.44843292236328,"longitude":139.64158630371094,"category":"庁舎","description":"","image_url":""},{"id":7465,"title":"宇和米博物館 LOCAアクティベーションプロジェクト 旧宇和町小学校","architect":"齊藤正","year":1928.0,"address":"愛媛県西予市宇和町卯之町2-24","latitude":33.36802673339844,"longitude":132.51214599609375,"category":"博物館/低層オフィス/児童施設","description":"宇和町小学校として1928竣工、その後1990年に移築。2017年齊藤正の設計で改修。","image_url":""},{"id":7466,"title":"アザレ","architect":"齊藤正","year":2016.0,"address":"香川県坂出市新浜町4-8","latitude":34.311405181884766,"longitude":133.8456268310547,"category":"レストラン/古民家","description":"リノベーション","image_url":""},{"id":7467,"title":"イスノキ","architect":"齊藤正","year":2009.0,"address":"香川県丸亀市柞原町306-2","latitude":34.26870346069336,"longitude":133.8050079345703,"category":"低層オフィス","description":"","image_url":""},{"id":7468,"title":"千鳥文化","architect":"ドットアーキテクツ","year":2017.0,"address":"大阪府大阪市住之江区北加賀屋5-2-28","latitude":34.62162399291992,"longitude":135.47503662109375,"category":"レストラン/店舗","description":"築60年の住宅のリノベーション。2020年に第二期工事竣工。設計は同じくドットアーキテクツ","image_url":""},{"id":7469,"title":"大津百町スタジオ","architect":"竹原義二","year":2016.0,"address":"滋賀県大津市御幸町御幸町1-56","latitude":35.00429153442383,"longitude":135.8634490966797,"category":"店舗/古民家","description":"築約90年の町家改修。ショールーム、料理教室などに利用。見学可能","image_url":""},{"id":7470,"title":"ものづくり創造拠点 SENTAN","architect":"丹羽英二建築事務所","year":2017.0,"address":"愛知県豊田市挙母町2-1-1","latitude":35.0822639465332,"longitude":137.16046142578125,"category":"研究施設/公共施設","description":"","image_url":""},{"id":7471,"title":"東京ミッドタウン日比谷","architect":"マイケル・ホプキンズ+日建設計","year":2018.0,"address":"東京都千代田区有楽町1-1-2","latitude":35.67361068725586,"longitude":139.7591552734375,"category":"複合ビル","description":"","image_url":""},{"id":7472,"title":"東宝日比谷ビル 日比谷シャンテ","architect":"竹中工務店","year":1987.0,"address":"東京都千代田区有楽町1-2-2","latitude":35.673091888427734,"longitude":139.7598876953125,"category":"複合ビル","description":"2018年に改修","image_url":""},{"id":7473,"title":"大倉本館","architect":"大成建設+シルヴァン・デュビソン","year":2016.0,"address":"東京都中央区銀座2-6-12","latitude":35.673221588134766,"longitude":139.7667236328125,"category":"複合ビル","description":"","image_url":""},{"id":7474,"title":"泊まれる公園 INN THE PARK","architect":"馬場正尊","year":2017.0,"address":"静岡県沼津市足高220","latitude":35.16053771972656,"longitude":138.84991455078125,"category":"ホテル","description":"","image_url":""},{"id":7475,"title":"evam eva yamanashi","architect":"奥野公章","year":2017.0,"address":"山梨県中央市関原885","latitude":35.56742477416992,"longitude":138.56639099121094,"category":"店舗/レストラン/ギャラリー","description":"","image_url":""},{"id":7476,"title":"東京クラシッククラブ クラブハウス","architect":"竹原義二","year":2016.0,"address":"千葉県千葉市若葉区和泉町365","latitude":35.57770919799805,"longitude":140.25682067871094,"category":"クラブハウス","description":"","image_url":""},{"id":7477,"title":"元浅草の事務所","architect":"松本悠介","year":2018.0,"address":"東京都台東区元浅草1-6-27","latitude":35.70835876464844,"longitude":139.78366088867188,"category":"低層オフィス","description":"","image_url":""},{"id":7478,"title":"等々力の小さなシェアオフィス","architect":"miCo.","year":null,"address":"東京都世田谷区等々力4-18-12-101","latitude":35.610748291015625,"longitude":139.65216064453125,"category":"低層オフィス","description":"","image_url":""},{"id":7479,"title":"原宿のサロン","architect":"miCo.","year":2012.0,"address":"東京都渋谷区神宮前6-33-11ヴィラ・ハタ3階","latitude":35.66789627075195,"longitude":139.70379638671875,"category":"美容院","description":"","image_url":""},{"id":7480,"title":"西麻布ビルディング改修","architect":"元木大輔","year":2017.0,"address":"東京都港区西麻布4-10-3","latitude":35.65778350830078,"longitude":139.7228546142578,"category":"オフィスビル","description":"","image_url":""},{"id":7481,"title":"子羊の群れ教会 いのちの家","architect":"日本設計","year":2016.0,"address":"兵庫県芦屋市陽光町4","latitude":34.71402359008789,"longitude":135.31639099121094,"category":"教会","description":"","image_url":""},{"id":7482,"title":"カトリック菊名教会","architect":"村上晶子","year":2008.0,"address":"神奈川県横浜市港北区篠原北2-15-17","latitude":35.5107307434082,"longitude":139.62551879882812,"category":"教会","description":"","image_url":""},{"id":7483,"title":"カトリック調布教会","architect":"村上晶子","year":2008.0,"address":"東京都調布市富士見町3-21-12","latitude":35.661766052246094,"longitude":139.5426025390625,"category":"教会","description":"","image_url":""},{"id":7484,"title":"カトリック笹丘教会","architect":"村上晶子","year":2011.0,"address":"福岡県福岡市中央区笹丘1-16-1","latitude":33.5661735534668,"longitude":130.379150390625,"category":"教会","description":"","image_url":""},{"id":7485,"title":"聖マリアハートクリニック","architect":"村上晶子","year":2012.0,"address":"青森県八戸市東白山台3-20-3","latitude":40.48233413696289,"longitude":141.46128845214844,"category":"個人医院","description":"","image_url":""},{"id":7486,"title":"山口カルメル会聖堂","architect":"村上晶子","year":2002.0,"address":"山口県山口市仁保中郷103","latitude":34.214210510253906,"longitude":131.55374145507812,"category":"教会","description":"","image_url":""},{"id":7487,"title":"浦和ルーテル教会","architect":"村上晶子","year":2014.0,"address":"埼玉県さいたま市浦和区駒場1-28-12","latitude":35.87186813354492,"longitude":139.66000366210938,"category":"教会","description":"","image_url":""},{"id":7488,"title":"日本基督教団 真駒内教会　","architect":"アトリエブンク","year":2014.0,"address":"北海道札幌市南区真駒内泉町2-1","latitude":42.98752975463867,"longitude":141.3541717529297,"category":"教会","description":"","image_url":""},{"id":7489,"title":"奥尻町立奥尻中学校","architect":"アトリエブンク","year":2017.0,"address":"北海道奥尻郡奥尻町奥尻40","latitude":42.16331100463867,"longitude":139.51296997070312,"category":"学校","description":"","image_url":""},{"id":7490,"title":"北海道札幌視覚支援学校","architect":"アトリエブンク","year":2016.0,"address":"北海道札幌市中央区南14条西12-11","latitude":43.04119110107422,"longitude":141.34115600585938,"category":"学校","description":"","image_url":""},{"id":7491,"title":"名寄市立名寄南小学校","architect":"アトリエブンク","year":2016.0,"address":"北海道名寄市西6条南12-55-2","latitude":44.34294128417969,"longitude":142.45396423339844,"category":"学校","description":"","image_url":""},{"id":7492,"title":"江差町立江差中学校","architect":"アトリエブンク","year":2015.0,"address":"北海道檜山郡江差町字陣屋町 江差中学校","latitude":41.86053466796875,"longitude":140.12838745117188,"category":"学校","description":"","image_url":""},{"id":7493,"title":"須坂市役所","architect":"佐藤武夫","year":1964.0,"address":"長野県須坂市大字須坂東横町1528-1","latitude":36.65108871459961,"longitude":138.30731201171875,"category":"庁舎","description":"","image_url":""},{"id":7494,"title":"江南市新体育館 KTXアリーナ","architect":"佐藤総合計画","year":2018.0,"address":"愛知県江南市高屋町清水118","latitude":35.35005187988281,"longitude":136.874755859375,"category":"体育館","description":"","image_url":""},{"id":7495,"title":"日向市新庁舎","architect":"内藤廣+安藤設計+アーク計画設計事務所+甲斐修二設計室","year":2018.0,"address":"宮崎県日向市本町10-5","latitude":32.422569274902344,"longitude":131.6244354248047,"category":"庁舎","description":"","image_url":""},{"id":7496,"title":"五所川原市新庁舎","architect":"佐藤総合計画","year":2018.0,"address":"青森県五所川原市布屋町字布屋町41","latitude":40.80774688720703,"longitude":140.4460906982422,"category":"庁舎","description":"","image_url":""},{"id":7497,"title":"吉川市新庁舎","architect":"佐藤総合計画","year":2018.0,"address":"埼玉県吉川市きよみ野1-1","latitude":35.896034240722656,"longitude":139.85609436035156,"category":"庁舎","description":"","image_url":""},{"id":7498,"title":"吉川市民交流センター おあしす","architect":"アール・アイ・エー","year":1999.0,"address":"埼玉県吉川市きよみ野1-1-1","latitude":35.89574432373047,"longitude":139.85455322265625,"category":"総合文化施設/ホール・劇場/図書館","description":"","image_url":""},{"id":7499,"title":"桶川市新庁舎","architect":"日本設計","year":2018.0,"address":"埼玉県桶川市泉1-3-28","latitude":36.00294494628906,"longitude":139.55836486816406,"category":"庁舎","description":"","image_url":""},{"id":7500,"title":"クリフサイド","architect":"中村順平","year":1946.0,"address":"神奈川県横浜市中区元町2-114","latitude":35.43855285644531,"longitude":139.6492919921875,"category":"ホール・劇場","description":"","image_url":""}]}