{"page":136,"total_pages":290,"items_per_page":50,"total_items":14467,"items":[{"id":6751,"title":"在日ブルガリア大使館","architect":"丹下健三","year":1974.0,"address":"東京都渋谷区代々木5-33-5","latitude":35.673709869384766,"longitude":139.69046020507812,"category":"公共施設","description":"","image_url":""},{"id":6752,"title":"在日トルコ大使館","architect":"丹下健三","year":1977.0,"address":"東京都渋谷区神宮前2-33-6","latitude":35.673187255859375,"longitude":139.70858764648438,"category":"公共施設","description":"","image_url":""},{"id":6753,"title":"東京大学 第二本部棟","architect":"丹下健三","year":1976.0,"address":"東京都文京区本郷7-3-1","latitude":35.70916748046875,"longitude":139.76321411132812,"category":"大学","description":"","image_url":""},{"id":6754,"title":"東京大学 本部棟","architect":"丹下健三","year":1979.0,"address":"東京都文京区本郷7-3-1","latitude":35.709381103515625,"longitude":139.76365661621094,"category":"大学","description":"","image_url":""},{"id":6755,"title":"日光東照宮客殿・新社務所","architect":"丹下健三","year":1995.0,"address":"栃木県日光市山内2301","latitude":36.758323669433594,"longitude":139.6002960205078,"category":"寺院/その他文化施設","description":"","image_url":""},{"id":6756,"title":"新宿パークタワー","architect":"丹下健三","year":1994.0,"address":"東京都新宿区西新宿3-7-1","latitude":35.68547058105469,"longitude":139.6908721923828,"category":"オフィスビル/ホテル","description":"","image_url":""},{"id":6757,"title":"広島平和記念資料館 東館","architect":"丹下健三","year":1994.0,"address":"広島県広島市中区中島町1-2","latitude":34.39154815673828,"longitude":132.45315551757812,"category":"博物館","description":"","image_url":""},{"id":6758,"title":"新香川県庁舎","architect":"丹下健三","year":2000.0,"address":"香川県高松市番町4-1-10","latitude":34.34011459350586,"longitude":134.0433349609375,"category":"庁舎","description":"","image_url":""},{"id":6759,"title":"君津中央病院","architect":"丹下健三","year":2003.0,"address":"千葉県木更津市桜井1010","latitude":35.360111236572266,"longitude":139.9241943359375,"category":"病院","description":"","image_url":""},{"id":6760,"title":"ザ・プリンス・パークタワー東京","architect":"丹下健三","year":2005.0,"address":"東京都港区芝公園4-8-1","latitude":35.65549850463867,"longitude":139.7471466064453,"category":"ホテル","description":"","image_url":""},{"id":6761,"title":"御茶ノ水NKビル","architect":"丹下健三","year":2006.0,"address":"東京都千代田区神田駿河台4-2-5","latitude":35.697540283203125,"longitude":139.76625061035156,"category":"オフィスビル","description":"","image_url":""},{"id":6762,"title":"水産飼料総合研究所 旧笠沙恵比寿","architect":"水戸岡鋭治","year":2000.0,"address":"鹿児島県南さつま市笠沙町片浦14847-1","latitude":31.416282653808594,"longitude":130.1342315673828,"category":"研究施設","description":"2020年に廃業。その後日清丸紅飼料に取得され、2024年4月に水産飼料総合研究所として操業予定","image_url":""},{"id":6763,"title":"BumB 東京スポーツ文化館","architect":"坂倉建築研究所","year":1976.0,"address":"東京都江東区夢の島2-1-3","latitude":35.64970397949219,"longitude":139.8300323486328,"category":"体育館/プール/ホテル","description":"","image_url":""},{"id":6764,"title":"東京さぬき倶楽部","architect":"大江宏","year":1972.0,"address":"東京都港区三田1-11-9","latitude":35.6536865234375,"longitude":139.73878479003906,"category":"ホテル","description":"","image_url":""},{"id":6765,"title":"洲本市文化体育館","architect":"日建設計","year":2005.0,"address":"兵庫県洲本市塩屋1-1-17","latitude":34.346702575683594,"longitude":134.8943328857422,"category":"体育館","description":"","image_url":""},{"id":6766,"title":"洲本アルチザンスクエア 旧鐘紡洲本工場","architect":"横河民輔","year":1909.0,"address":"兵庫県洲本市塩屋1-1-17","latitude":34.34572219848633,"longitude":134.8940887451172,"category":"モール/産業遺産","description":"","image_url":""},{"id":6767,"title":"complex665","architect":"JFEシビル","year":2016.0,"address":"東京都港区六本木6-5-24","latitude":35.661556243896484,"longitude":139.73106384277344,"category":"ギャラリー","description":"中に3つのギャラリーがあり、「シュウゴアーツ」は青木淳、「小山登美夫ギャラリー」はムトカ建築事務所、「タカ・イシイギャラリー」はブロード・ビーンがそれぞれ内装設計。","image_url":""},{"id":6768,"title":"KITAYON","architect":"日吉坂事務所","year":2017.0,"address":"東京都杉並区西荻北4-4-1","latitude":35.706520080566406,"longitude":139.59600830078125,"category":"テナントビル","description":"","image_url":""},{"id":6769,"title":"THE BLEND STUDIO","architect":"ドットアーキテクツ","year":2017.0,"address":"大阪府大阪市此花区梅香1-24-21","latitude":34.684349060058594,"longitude":135.46067810058594,"category":"その他文化施設/児童施設","description":"","image_url":""},{"id":6770,"title":"時間の倉庫 旧本庄商業銀行煉瓦倉庫","architect":"福島加津也+冨永祥子","year":1896.0,"address":"埼玉県本庄市1-5-16","latitude":36.24052047729492,"longitude":139.18336486816406,"category":"観光施設/ギャラリー/公民館・交流施設","description":"","image_url":""},{"id":6771,"title":"竹田市立図書館","architect":"塩塚隆生","year":2017.0,"address":"大分県竹田市大字竹田町1980","latitude":32.9678955078125,"longitude":131.39601135253906,"category":"図書館","description":"","image_url":""},{"id":6772,"title":"フォーシーズンズホテル京都","architect":"久米設計","year":2016.0,"address":"京都府京都市東山区東大路通渋谷下る妙法院前側町445-3","latitude":34.989742279052734,"longitude":135.77609252929688,"category":"ホテル","description":"","image_url":""},{"id":6773,"title":"草庵建築 茶室「積翠亭」","architect":"山本良介","year":2016.0,"address":"京都府京都市東山区東大路通渋谷下る妙法院前側町445-3","latitude":34.99131774902344,"longitude":135.77613830566406,"category":"茶室/バー・居酒屋","description":"フォーシーズンズホテル京都内","image_url":""},{"id":6774,"title":"渋谷キャスト","architect":"日本設計+大成建設+成瀬・猪熊建築設計事務所+Noiz Architects 他","year":2017.0,"address":"東京都渋谷区渋谷1-23-21","latitude":35.66263961791992,"longitude":139.70254516601562,"category":"複合ビル/集合住宅","description":"ファサードデザインをNoiz Architects、コレクティブハウスを成瀬・猪熊建築設計事務所が担当。その他多数の建築家・デザイナーが参画","image_url":""},{"id":6775,"title":"THINK OF THINGS","architect":"コクヨ","year":2017.0,"address":"東京都渋谷区千駄ヶ谷3-62-1","latitude":35.67317581176758,"longitude":139.70420837402344,"category":"テナントビル/低層オフィス","description":"","image_url":""},{"id":6776,"title":"百草団地センター棟","architect":"槇文彦","year":1969.0,"address":"東京都日野市百草999","latitude":35.64923858642578,"longitude":139.41876220703125,"category":"公共施設","description":"","image_url":""},{"id":6777,"title":"天理駅前広場コフフン","architect":"nendo","year":2017.0,"address":"奈良県天理市川原城町802","latitude":34.600425720214844,"longitude":135.8311309814453,"category":"広場","description":"","image_url":""},{"id":6778,"title":"今治港駐輪施設・今治港トイレ","architect":"西沢大良","year":2017.0,"address":"愛媛県今治市片原町1","latitude":34.070499420166016,"longitude":133.00416564941406,"category":"トイレ/駐車・駐輪場","description":"","image_url":""},{"id":6779,"title":"高知城歴史博物館","architect":"日本設計+佐藤八尋","year":2016.0,"address":"高知県高知市追手筋2-7-5","latitude":33.56013488769531,"longitude":133.53408813476562,"category":"博物館","description":"","image_url":""},{"id":6780,"title":"認定こども園 日吉幼稚園","architect":"竹原義二","year":2016.0,"address":"大阪府高槻市日吉台六番町10-2","latitude":34.86890411376953,"longitude":135.62478637695312,"category":"幼稚園","description":"","image_url":""},{"id":6781,"title":"あたご保育園","architect":"佐々木信明","year":2016.0,"address":"長崎県長崎市愛宕4-19-11","latitude":32.73274230957031,"longitude":129.89328002929688,"category":"幼稚園","description":"","image_url":""},{"id":6782,"title":"木の実保育園","architect":"中園美博","year":2016.0,"address":"福岡県久留米市東合川9-8-1","latitude":33.32485580444336,"longitude":130.56094360351562,"category":"幼稚園","description":"ホームアシストも設計者に名を連ねているが、どの事務所か特定が出来なかったので暫定的に記述していません。分かり次第追記します。","image_url":""},{"id":6783,"title":"〈内〉と〈外〉の間 15 ルークス こだま幼稚園","architect":"DFIフォルムデザイン一央","year":2017.0,"address":"群馬県高崎市下豊岡242-2","latitude":36.33308410644531,"longitude":138.9837646484375,"category":"幼稚園","description":"","image_url":""},{"id":6784,"title":"日野わかくさ幼稚園","architect":"彦根建築設計事務所","year":2016.0,"address":"東京都日野市落川943","latitude":35.65624237060547,"longitude":139.43247985839844,"category":"幼稚園","description":"","image_url":""},{"id":6785,"title":"SSS Silver Wing 新栄建設本社","architect":"彦根建築設計事務所","year":1992.0,"address":"富山県中新川郡立山町大清水18","latitude":36.64988327026367,"longitude":137.29579162597656,"category":"低層オフィス","description":"","image_url":""},{"id":6786,"title":"IDIC","architect":"彦根建築設計事務所","year":1992.0,"address":"岩手県八幡平市野駄第3地割345","latitude":39.949554443359375,"longitude":141.02500915527344,"category":"低層オフィス/工場","description":"","image_url":""},{"id":6787,"title":"大空と大地のなーさりぃ 下井草駅前園","architect":"木下昌大","year":2017.0,"address":"東京都杉並区井草1-6-11","latitude":35.72488021850586,"longitude":139.6234893798828,"category":"幼稚園","description":"","image_url":""},{"id":6788,"title":"にじの森保育園","architect":"高崎英雄","year":2017.0,"address":"東京都荒川区南千住8-13-1","latitude":35.736576080322266,"longitude":139.80921936035156,"category":"幼稚園","description":"","image_url":""},{"id":6789,"title":"荻窪りとるぱんぷきんず","architect":"土屋毅​+龍美一級建築士事務所","year":2016.0,"address":"東京都杉並区荻窪3-7-1","latitude":35.69823455810547,"longitude":139.6250762939453,"category":"幼稚園","description":"","image_url":""},{"id":6790,"title":"ツルガソネ保育所","architect":"ツバメアーキテクツ","year":2017.0,"address":"埼玉県八潮市大字鶴ヶ曽根606-1","latitude":35.83045959472656,"longitude":139.8365020751953,"category":"幼稚園","description":"","image_url":""},{"id":6791,"title":"すみれ乳児院","architect":"慶野正司","year":2016.0,"address":"栃木県小山市三峯2-1-21","latitude":36.30733108520508,"longitude":139.80581665039062,"category":"幼稚園","description":"","image_url":""},{"id":6792,"title":"すみれ学童保育クラブ","architect":"慶野正司","year":2010.0,"address":"栃木県小山市駅南町3-22-9","latitude":36.30363082885742,"longitude":139.81332397460938,"category":"幼稚園","description":"","image_url":""},{"id":6793,"title":"エンシェール砧","architect":"篠原聡子","year":2017.0,"address":"東京都世田谷区砧4-10-23","latitude":35.640567779541016,"longitude":139.61404418945312,"category":"集合住宅","description":"","image_url":""},{"id":6794,"title":"SASU・KE","architect":"篠原聡子","year":2017.0,"address":"神奈川県鎌倉市佐助1-8-4","latitude":35.320709228515625,"longitude":139.54464721679688,"category":"集合住宅","description":"","image_url":""},{"id":6795,"title":"美浜町営住宅河和団地","architect":"studio velocity","year":2017.0,"address":"愛知県知多郡美浜町河和六反田 河和団地","latitude":34.76566696166992,"longitude":136.9178924560547,"category":"集合住宅","description":"","image_url":""},{"id":6796,"title":"パッシブタウン第2期街区","architect":"槇文彦","year":2016.0,"address":"富山県黒部市三日市4016-1","latitude":36.87786102294922,"longitude":137.44606018066406,"category":"集合住宅","description":"","image_url":""},{"id":6797,"title":"K-TOWN","architect":"大野秀敏","year":2016.0,"address":"富山県黒部市天神新172-1","latitude":36.86994934082031,"longitude":137.43527221679688,"category":"寮/集合住宅","description":"","image_url":""},{"id":6798,"title":"K-HALL","architect":"大野秀敏","year":2017.0,"address":"富山県黒部市天神新444-9","latitude":36.869632720947266,"longitude":137.43472290039062,"category":"店舗/公民館・交流施設","description":"","image_url":""},{"id":6799,"title":"ザ・パークハウス 京都鴨川御所東","architect":"三菱地所","year":2017.0,"address":"京都府京都市上京区上生洲町 ザ・パークハウス京都鴨川御所東","latitude":35.0201301574707,"longitude":135.77037048339844,"category":"集合住宅","description":"","image_url":""},{"id":6800,"title":"風光舎","architect":"SUEP.","year":2017.0,"address":"東京都江東区東陽3-8-9","latitude":35.66986083984375,"longitude":139.80914306640625,"category":"集合住宅","description":"","image_url":""}]}