{"page":67,"total_pages":290,"items_per_page":50,"total_items":14467,"items":[{"id":3301,"title":"シェラトン都ホテル大阪","architect":"村野藤吾","year":1985.0,"address":"大阪府大阪市天王寺区上本町6-1-55","latitude":34.665489196777344,"longitude":135.5208282470703,"category":"ホテル","description":"","image_url":""},{"id":3302,"title":"道後舘","architect":"黒川紀章","year":1989.0,"address":"愛媛県松山市道後多幸町7-26","latitude":33.85364532470703,"longitude":132.7847137451172,"category":"旅館","description":"","image_url":""},{"id":3303,"title":"浜大津アーカス","architect":"シーザー・ペリ","year":1998.0,"address":"滋賀県大津市浜町2-1","latitude":35.0109977722168,"longitude":135.86683654785156,"category":"モール","description":"","image_url":""},{"id":3304,"title":"奥松島縄文村歴史資料館","architect":"高野祐之","year":1992.0,"address":"宮城県東松島市宮戸里81-18","latitude":38.33769607543945,"longitude":141.1475067138672,"category":"博物館","description":"","image_url":""},{"id":3305,"title":"遠山美術館","architect":"今井兼次","year":1970.0,"address":"埼玉県比企郡川島町白井沼675","latitude":35.987640380859375,"longitude":139.4937286376953,"category":"美術館","description":"遠山記念館敷地内","image_url":""},{"id":3306,"title":"睡足軒","architect":"松永安左エ門","year":1938.0,"address":"埼玉県新座市野火止1-20-12","latitude":35.789432525634766,"longitude":139.56239318847656,"category":"茶室","description":"","image_url":""},{"id":3307,"title":"埼玉県立深谷商業高等学校記念館 二層楼","architect":"不明","year":1922.0,"address":"埼玉県深谷市原郷80","latitude":36.19746780395508,"longitude":139.29150390625,"category":"洋館","description":"2014年4月以降、日曜日に一般公開予定","image_url":""},{"id":3308,"title":"和牛懐石 彩々亭 旧荒井八郎商店","architect":"不明","year":null,"address":"埼玉県行田市佐間1-11-22","latitude":36.13358688354492,"longitude":139.46116638183594,"category":"料亭","description":"","image_url":""},{"id":3309,"title":"草加市立歴史民俗資料館 旧草加小学校西校舎","architect":"大川勇","year":1926.0,"address":"埼玉県草加市住吉1-11-29","latitude":35.83210754394531,"longitude":139.8042755126953,"category":"博物館","description":"","image_url":""},{"id":3310,"title":"新西宮ヨットハーバークラブハウス","architect":"北山孝二郎","year":1995.0,"address":"兵庫県西宮市西宮浜4-16-1","latitude":34.710697174072266,"longitude":135.33026123046875,"category":"クラブハウス/その他文化施設","description":"","image_url":""},{"id":3311,"title":"アイ・アイ・ランド 旧シャープ労働組合研修レクリエーションセンター","architect":"瀧光夫","year":1991.0,"address":"大阪府四條畷市逢阪458","latitude":34.73008346557617,"longitude":135.6656951904297,"category":"ホテル","description":"","image_url":""},{"id":3312,"title":"中央電気倶楽部","architect":"葛野壮一郎","year":1930.0,"address":"大阪府大阪市北区堂島浜2-1-25","latitude":34.695350646972656,"longitude":135.4943084716797,"category":"企業施設","description":"","image_url":""},{"id":3313,"title":"東京倶楽部","architect":"谷口吉生","year":2005.0,"address":"東京都港区六本木1-9-14","latitude":35.66420364379883,"longitude":139.74130249023438,"category":"クラブハウス/その他文化施設","description":"","image_url":""},{"id":3314,"title":"輸出繊維会館","architect":"村野藤吾","year":1960.0,"address":"大阪府大阪市中央区備後町3-4-9","latitude":34.68551254272461,"longitude":135.50184631347656,"category":"企業施設","description":"","image_url":""},{"id":3315,"title":"SPring-8","architect":"不明","year":1997.0,"address":"兵庫県佐用郡佐用町光都1-1-1","latitude":34.94749450683594,"longitude":134.42791748046875,"category":"研究施設","description":"","image_url":""},{"id":3316,"title":"京都市蹴上浄水場 本館","architect":"増田友也","year":1962.0,"address":"京都府京都市東山区粟田口華頂町3","latitude":35.00678634643555,"longitude":135.7882537841797,"category":"公共施設","description":"毎年5月初旬頃一般公開イベント","image_url":""},{"id":3317,"title":"京都市鳥羽水環境保全センター","architect":"増田友也+設計事務所洋洋社","year":1969.0,"address":"京都府京都市南区上鳥羽塔ノ森梅ノ木1","latitude":34.955501556396484,"longitude":135.73626708984375,"category":"公共施設","description":"毎年4月下旬頃一般公開イベント","image_url":""},{"id":3318,"title":"奈良県立橿原考古学研究所","architect":"建築研究所アーキヴィジョン","year":1992.0,"address":"奈良県橿原市畝傍町1","latitude":34.491493225097656,"longitude":135.79298400878906,"category":"研究施設","description":"","image_url":""},{"id":3319,"title":"鳴門市健康福祉交流センター 旧鳴門市勤労青少年ホーム・鳴門市老人福祉センター","architect":"増田友也","year":1975.0,"address":"徳島県鳴門市撫養町南浜東浜30-9","latitude":34.170894622802734,"longitude":134.6112518310547,"category":"福祉センター","description":"旧勤労青少年ホームの竣工が1975年、旧老人福祉センターの竣工は1977年。現在は一体の施設として運用されている","image_url":""},{"id":3320,"title":"愛知県児童総合センター","architect":"仙田満","year":1996.0,"address":"愛知県長久手市茨ヶ廻間1533-1","latitude":35.175384521484375,"longitude":137.08241271972656,"category":"児童施設","description":"日本建築学会 作品賞受賞者名：仙田満、藤川壽男","image_url":""},{"id":3321,"title":"直島町立幼児学園","architect":"石井和紘+難波和彦","year":1974.0,"address":"香川県香川郡直島町（その他）1841","latitude":34.45941162109375,"longitude":133.98471069335938,"category":"幼稚園","description":"1983年に保育園棟が増築","image_url":""},{"id":3322,"title":"防府市公会堂","architect":"佐藤武夫","year":1960.0,"address":"山口県防府市緑町1-9-1","latitude":34.05504608154297,"longitude":131.57620239257812,"category":"ホール・劇場","description":"","image_url":""},{"id":3323,"title":"山口市役所 仁保地域交流センター","architect":"宮崎浩","year":2001.0,"address":"山口県山口市仁保中郷1041","latitude":34.211788177490234,"longitude":131.55899047851562,"category":"総合文化施設","description":"","image_url":""},{"id":3324,"title":"香川県文化会館","architect":"大江宏","year":1965.0,"address":"香川県高松市番町1-10-39","latitude":34.341983795166016,"longitude":134.04498291015625,"category":"ホール・劇場","description":"","image_url":""},{"id":3325,"title":"岡山市民会館","architect":"佐藤武夫","year":1963.0,"address":"岡山県岡山市北区丸の内2-1-1","latitude":34.66538619995117,"longitude":133.9323272705078,"category":"ホール・劇場","description":"2024年10月に解体予定","image_url":""},{"id":3326,"title":"豊岡市民会館","architect":"増田友也","year":1971.0,"address":"兵庫県豊岡市立野町20-34","latitude":35.54072189331055,"longitude":134.8248748779297,"category":"ホール・劇場","description":"2026～2027年度に取壊予定","image_url":""},{"id":3327,"title":"大阪府服部緑地都市緑化植物園　花と緑の相談所","architect":"瀧光夫","year":1983.0,"address":"大阪府豊中市寺内1-13-2","latitude":34.7708854675293,"longitude":135.49220275878906,"category":"動植物園","description":"","image_url":""},{"id":3328,"title":"天籟庵","architect":"重森三玲","year":1914.0,"address":"岡山県加賀郡吉備中央町吉川3930-8","latitude":34.81969451904297,"longitude":133.7511444091797,"category":"庭園","description":"","image_url":""},{"id":3329,"title":"東福寺 芬陀院 「東庭」","architect":"重森三玲","year":1939.0,"address":"京都府京都市東山区本町15-803","latitude":34.976280212402344,"longitude":135.7720489501953,"category":"庭園","description":"雪舟庭園の復元も重森三玲","image_url":""},{"id":3330,"title":"大徳寺 龍源院 「東滴壺」","architect":"鍋島岳生","year":1958.0,"address":"京都府京都市北区紫野大徳寺町53","latitude":35.04389190673828,"longitude":135.74600219726562,"category":"庭園","description":"","image_url":""},{"id":3331,"title":"京阪中之島線 なにわ橋駅 出入口","architect":"安藤忠雄","year":2008.0,"address":"大阪府大阪市北区中之島1-1","latitude":34.69260025024414,"longitude":135.50741577148438,"category":"駅","description":"","image_url":""},{"id":3332,"title":"テレビ朝日","architect":"槇文彦","year":2003.0,"address":"東京都港区六本木6-9-1","latitude":35.65961837768555,"longitude":139.73086547851562,"category":"オフィスビル","description":"","image_url":""},{"id":3333,"title":"山陽放送会館","architect":"佐藤武夫","year":1962.0,"address":"岡山県岡山市北区丸の内2-1-3","latitude":34.66458511352539,"longitude":133.9326171875,"category":"企業施設","description":"","image_url":""},{"id":3334,"title":"近鉄奈良駅ビル","architect":"坂倉建築研究所","year":1970.0,"address":"奈良県奈良市東向中町28","latitude":34.683799743652344,"longitude":135.8287811279297,"category":"テナントビル","description":"","image_url":""},{"id":3335,"title":"近鉄橿原神宮前駅","architect":"村野藤吾","year":1964.0,"address":"奈良県橿原市久米町618","latitude":34.48361587524414,"longitude":135.79396057128906,"category":"駅","description":"","image_url":""},{"id":3336,"title":"梅小路蒸気機関車館 旧梅小路機関車庫","architect":"渡辺節","year":1914.0,"address":"京都府京都市下京区梅小路頭町10","latitude":34.985084533691406,"longitude":135.73898315429688,"category":"博物館","description":"","image_url":""},{"id":3337,"title":"栂・美木多駅","architect":"村野藤吾","year":1973.0,"address":"大阪府堺市南区桃山台2丁1-1","latitude":34.48507308959961,"longitude":135.49034118652344,"category":"駅","description":"","image_url":""},{"id":3338,"title":"松任フォリー 「波動する回廊」","architect":"藤井博巳","year":1995.0,"address":"石川県白山市徳光町 徳光PA","latitude":36.53524398803711,"longitude":136.52752685546875,"category":"オブジェ","description":"","image_url":""},{"id":3339,"title":"芝浦工業大学 第2体育館","architect":"藤井博巳","year":1986.0,"address":"埼玉県さいたま市見沼区深作307","latitude":35.95173263549805,"longitude":139.65345764160156,"category":"大学","description":"","image_url":""},{"id":3340,"title":"高岡駅南口シンボルモニュメント","architect":"エンリック・ミラーレス","year":1993.0,"address":"富山県高岡市駅南5-1-1","latitude":36.740482330322266,"longitude":137.014892578125,"category":"オブジェ","description":"","image_url":""},{"id":3341,"title":"太陽の塔","architect":"岡本太郎+昭和設計","year":1970.0,"address":"大阪府吹田市千里万博公園10-13","latitude":34.808902740478516,"longitude":135.53228759765625,"category":"オブジェ/展望台","description":"予約制で内部公開が開始されている。昭和設計により改修","image_url":""},{"id":3342,"title":"iron gallery ギャラリー柳井","architect":"渡邉健介","year":2011.0,"address":"東京都港区麻布十番1-5-1","latitude":35.65769958496094,"longitude":139.73257446289062,"category":"ギャラリー","description":"","image_url":""},{"id":3343,"title":"ARS","architect":"北川原温","year":2002.0,"address":"東京都渋谷区神宮前5-13-1","latitude":35.666446685791016,"longitude":139.7071990966797,"category":"ギャラリー","description":"","image_url":""},{"id":3344,"title":"物質試行41 原宿のギャラリー","architect":"鈴木了二","year":2002.0,"address":"東京都渋谷区神宮前4-26-25","latitude":35.66859436035156,"longitude":139.70733642578125,"category":"ギャラリー","description":"","image_url":""},{"id":3345,"title":"岡山県天神山文化プラザ","architect":"前川國男","year":1962.0,"address":"岡山県岡山市北区天神町8-54","latitude":34.6682243347168,"longitude":133.92947387695312,"category":"ホール・劇場","description":"","image_url":""},{"id":3346,"title":"いしかわ生活工芸ミュージアム 石川県立伝統産業工芸館 旧石川県美術館","architect":"谷口吉郎","year":1959.0,"address":"石川県金沢市兼六町1-1","latitude":36.56108856201172,"longitude":136.66397094726562,"category":"博物館","description":"","image_url":""},{"id":3347,"title":"びわ湖大津館 旧琵琶湖ホテル","architect":"岡田信一郎+岡田捷五郎","year":1934.0,"address":"滋賀県大津市柳が崎5-35","latitude":35.02677917480469,"longitude":135.86769104003906,"category":"レストラン/結婚式場/公園","description":"","image_url":""},{"id":3348,"title":"フジカワビル 旧フジカワ画廊","architect":"村野藤吾","year":1953.0,"address":"大阪府大阪市中央区瓦町1-7-3","latitude":34.68580627441406,"longitude":135.50677490234375,"category":"ギャラリー","description":"","image_url":""},{"id":3349,"title":"ラ・フェニーチェ","architect":"ミケーレ・デ・ルッキ+高市忠夫","year":1991.0,"address":"大阪府大阪市中央区西心斎橋1-6-21","latitude":34.6722297668457,"longitude":135.4984130859375,"category":"テナントビル","description":"","image_url":""},{"id":3350,"title":"中札内美術村 相原求一朗美術館 フランス館","architect":"高市忠夫","year":1999.0,"address":"北海道河西郡中札内村栄東5線173-1","latitude":42.67685317993164,"longitude":143.1640167236328,"category":"美術館","description":"","image_url":""}]}