{"page":218,"total_pages":290,"items_per_page":50,"total_items":14467,"items":[{"id":10851,"title":"士師ダムサイクリングターミナル","architect":"NSP設計","year":2013.0,"address":"広島県安芸高田市八千代町1194-1","latitude":34.65721130371094,"longitude":132.6083984375,"category":"観光施設/店舗","description":"","image_url":""},{"id":10852,"title":"GKDビル","architect":"相田武文","year":1987.0,"address":"広島県広島市東区二葉の里1-1-70","latitude":34.40107345581055,"longitude":132.47267150878906,"category":"オフィスビル","description":"","image_url":""},{"id":10853,"title":"津田産婦人科クリニック","architect":"松山将勝","year":2008.0,"address":"広島県安芸郡海田町南幸町9-43","latitude":34.36384582519531,"longitude":132.54002380371094,"category":"個人医院","description":"","image_url":""},{"id":10854,"title":"東広島市消防庁舎","architect":"佐藤総合計画","year":2011.0,"address":"広島県東広島市西条町助実1173-1","latitude":34.425357818603516,"longitude":132.75747680664062,"category":"警察・消防署","description":"","image_url":""},{"id":10855,"title":"広島鉄砲町ビルディング","architect":"三菱地所","year":2009.0,"address":"広島県広島市中区鉄砲町10-12","latitude":34.393985748291016,"longitude":132.46412658691406,"category":"オフィスビル","description":"","image_url":""},{"id":10856,"title":"811","architect":"中本尋之","year":2020.0,"address":"広島県呉市中通3-8-11","latitude":34.244842529296875,"longitude":132.56541442871094,"category":"バー・居酒屋/店舗","description":"","image_url":""},{"id":10857,"title":"フローリストナカムラ","architect":"中本尋之","year":2019.0,"address":"広島県呉市中通2-6-3","latitude":34.24449157714844,"longitude":132.56422424316406,"category":"店舗","description":"","image_url":""},{"id":10858,"title":"MIYANISHI yakeyama","architect":"中本尋之","year":2019.0,"address":"広島県呉市焼山此原町21-25-102","latitude":34.28164291381836,"longitude":132.55105590820312,"category":"美容院","description":"","image_url":""},{"id":10859,"title":"日本基督教団 松永教会","architect":"杉原一正","year":2009.0,"address":"広島県福山市今津町4-3−3","latitude":34.4493522644043,"longitude":133.25289916992188,"category":"教会","description":"","image_url":""},{"id":10860,"title":"田園メイゾン","architect":"増沢洵","year":1963.0,"address":"東京都世田谷区玉川田園調布1-15-14","latitude":35.6005859375,"longitude":139.66424560546875,"category":"集合住宅","description":"","image_url":""},{"id":10861,"title":"閑月庵新豊","architect":"鍵山昌信","year":2018.0,"address":"広島県呉市豊町御手洗313","latitude":34.178733825683594,"longitude":132.86802673339844,"category":"レストラン/旅館/古民家","description":"江戸時代末期竣工の旅館を1Fをレストラン、2Fを一室限定の客室に改修","image_url":""},{"id":10862,"title":"Eva宝町","architect":"吉田豊","year":2016.0,"address":"広島県広島市中区宝町9-28","latitude":34.38467788696289,"longitude":132.4619140625,"category":"集合住宅","description":"","image_url":""},{"id":10863,"title":"フレックスギャラリー広島店","architect":"丸吉泰道","year":2013.0,"address":"広島県広島市南区宇品海岸3-12-38","latitude":34.35318374633789,"longitude":132.46697998046875,"category":"ギャラリー","description":"","image_url":""},{"id":10864,"title":"県立広島学園 東広島市立もみじ小学校・もみじ中学校","architect":"吉田豊+村上徹","year":2015.0,"address":"広島県東広島市八本松町原10844","latitude":34.40140151977539,"longitude":132.67364501953125,"category":"学校","description":"","image_url":""},{"id":10865,"title":"動物医療センター ALOHA","architect":"河口佳介","year":2009.0,"address":"広島県福山市引野町5-12-5","latitude":34.49205780029297,"longitude":133.40142822265625,"category":"個人医院","description":"","image_url":""},{"id":10866,"title":"わくばにかほ 旧上浜小学校","architect":"Fadr.建築設計舎+岸晃輔","year":2021.0,"address":"秋田県にかほ市象潟町大砂川釜道1-1","latitude":39.1583137512207,"longitude":139.89862060546875,"category":"シェアオフィス","description":"","image_url":""},{"id":10867,"title":"宮本不動産 旧江上耳鼻咽喉科","architect":"葉祥栄","year":1982.0,"address":"長崎県長崎市中園町20-14","latitude":32.79365158081055,"longitude":129.85780334472656,"category":"オフィスビル/個人医院","description":"","image_url":""},{"id":10868,"title":"天神ビジネスセンター","architect":"日本設計+レム・コールハース/OMA","year":2021.0,"address":"福岡県福岡市中央区天神1-10-20","latitude":33.591392517089844,"longitude":130.40065002441406,"category":"オフィスビル","description":"基本設計:日本設計 実施設計:前田建設工業 建築デザイン:重松象平(OMAニューヨーク事務所) インテリアデザイン:グエナエル・ニコラ","image_url":""},{"id":10869,"title":"原谷の公民館 金閣原谷会館","architect":"STUDIO RAKKORA ARCHITECTS","year":2019.0,"address":"京都府京都市北区大北山原谷乾町 金閣原谷会館","latitude":35.04433059692383,"longitude":135.71693420410156,"category":"公民館・交流施設","description":"","image_url":""},{"id":10870,"title":"DAIMYO509","architect":"二俣公一","year":2018.0,"address":"福岡県福岡市中央区大名1-8","latitude":33.58699035644531,"longitude":130.39279174804688,"category":"テナントビル","description":"","image_url":""},{"id":10871,"title":"後藤昭夫藝術館","architect":"杉下均建築工房","year":2020.0,"address":"岐阜県関市円保通2-4-23","latitude":35.48926544189453,"longitude":136.92909240722656,"category":"美術館","description":"金土日の開館","image_url":""},{"id":10872,"title":"松葉畳店","architect":"町秋人","year":2020.0,"address":"静岡県焼津市中新田1005-5","latitude":34.83959197998047,"longitude":138.28602600097656,"category":"店舗","description":"","image_url":""},{"id":10873,"title":"ヴォーリズ記念病院旧本館 ツッカーハウス","architect":"ウィリアム・メレル・ヴォーリズ","year":1918.0,"address":"滋賀県近江八幡市北之庄町492","latitude":35.15201187133789,"longitude":136.08909606933594,"category":"病院","description":"1934年改修。クラウドファンディングにより耐震工事を行い（2023年5月完了)、その後ヴォーリズの資料館として公開予定","image_url":""},{"id":10874,"title":"八寸勾配の見世 ウォリアーズ・レスト","architect":"河部圭佑","year":2021.0,"address":"愛知県大府市北山町3-67-30","latitude":35.03242874145508,"longitude":136.9701385498047,"category":"レストラン","description":"","image_url":""},{"id":10875,"title":"太秦トキワ荘","architect":"高橋勝","year":2021.0,"address":"京都府京都市右京区常盤仲之町1-1","latitude":35.01813888549805,"longitude":135.70889282226562,"category":"シェアオフィス","description":"","image_url":""},{"id":10876,"title":"HIROPPA","architect":"元木大輔","year":2021.0,"address":"長崎県東彼杵郡波佐見町湯無田郷682","latitude":33.14363098144531,"longitude":129.91456604003906,"category":"公園","description":"","image_url":""},{"id":10877,"title":"山添村のホテル ume, yamazoe","architect":"OHArchitecture","year":2019.0,"address":"奈良県山辺郡山添村片平452","latitude":34.671512603759766,"longitude":136.06805419921875,"category":"ホテル/古民家","description":"古民家の改修","image_url":""},{"id":10878,"title":"千葉市立打瀬中学校","architect":"山下和正","year":1995.0,"address":"千葉県千葉市美浜区打瀬3-12-1","latitude":35.63682174682617,"longitude":140.04302978515625,"category":"学校","description":"","image_url":""},{"id":10879,"title":"呉港高等学校 ANNEX","architect":"岩本秀三","year":1995.0,"address":"広島県呉市広大新開3-3-4","latitude":34.23301315307617,"longitude":132.6296844482422,"category":"学校","description":"","image_url":""},{"id":10880,"title":"武田中学校・高等学校 ANNEX","architect":"岩本秀三","year":1994.0,"address":"広島県東広島市黒瀬町大多田443-5","latitude":34.35818099975586,"longitude":132.67747497558594,"category":"学校","description":"","image_url":""},{"id":10881,"title":"武田中学校・高等学校","architect":"岩本秀三","year":1990.0,"address":"広島県呉市広大新開3-3-4","latitude":34.35795593261719,"longitude":132.6782684326172,"category":"学校","description":"","image_url":""},{"id":10882,"title":"周南市徳山動物園 自然学習館","architect":"土井一秀+プレック研究所+笹戸建築事務所","year":2017.0,"address":"山口県周南市徳山5846","latitude":34.06400680541992,"longitude":131.81576538085938,"category":"動植物園","description":"","image_url":""},{"id":10883,"title":"Sadler's Wells","architect":"小川晋一","year":2002.0,"address":"広島県広島市東区牛田本町4-1-7","latitude":34.41164779663086,"longitude":132.46966552734375,"category":"個人医院/集合住宅","description":"","image_url":""},{"id":10884,"title":"どんぐり小児科","architect":"土井一秀","year":2014.0,"address":"広島県広島市西区南観音2-7-21","latitude":34.3840446472168,"longitude":132.42977905273438,"category":"個人医院","description":"","image_url":""},{"id":10885,"title":"角田歯科医院","architect":"三分一博志","year":2003.0,"address":"広島県大竹市本町2-9-9","latitude":34.2076301574707,"longitude":132.2165069580078,"category":"個人医院","description":"","image_url":""},{"id":10886,"title":"クリニック かわもと歯科クリニック","architect":"三分一博志","year":2003.0,"address":"広島県広島市佐伯区皆賀2-7-23","latitude":34.374298095703125,"longitude":132.36717224121094,"category":"個人医院","description":"","image_url":""},{"id":10887,"title":"植村直己冒険館 どんぐりbase","architect":"栗生明","year":2021.0,"address":"兵庫県豊岡市日高町伊府785","latitude":35.46123123168945,"longitude":134.7331085205078,"category":"児童施設","description":"","image_url":""},{"id":10888,"title":"南部曲屋育成厩舎一号厩舎 曲屋KANEKO","architect":"フクシアンドフクシ建築事務所","year":1912.0,"address":"青森県上北郡七戸町膝森14-1","latitude":40.71026611328125,"longitude":141.16868591308594,"category":"古民家","description":"2020年3月に内部改修","image_url":""},{"id":10889,"title":"HMA+HIPRAC 広島県医師会会館 広島がん高精度放射線治療センター","architect":"石本建築事務所+藤本寿徳","year":2015.0,"address":"広島県広島市東区二葉の里3-2-2","latitude":34.40119552612305,"longitude":132.4752197265625,"category":"組合施設/病院","description":"","image_url":""},{"id":10890,"title":"フィリップ証券ビル 旧成瀬証券ビル","architect":"西村好時","year":1935.0,"address":"東京都中央区日本橋兜町4-2","latitude":35.68243408203125,"longitude":139.77813720703125,"category":"金融機関","description":"","image_url":""},{"id":10891,"title":"スターツ日本橋ビル","architect":"坂倉建築研究所","year":1989.0,"address":"東京都中央区日本橋3-1-8","latitude":35.68064880371094,"longitude":139.77218627929688,"category":"金融機関","description":"川崎定徳本館・日本信託銀行本店の建替。ファサードを一部保存","image_url":""},{"id":10892,"title":"柳屋ビルディング","architect":"伊藤喜三郎","year":1964.0,"address":"東京都中央区日本橋2-1-10","latitude":35.682395935058594,"longitude":139.77313232421875,"category":"オフィスビル","description":"","image_url":""},{"id":10893,"title":"日本橋一丁目三井ビルディング コレド日本橋","architect":"日本設計+東急設計コンサルタント+コーン・ペダーセン・フォックス","year":2004.0,"address":"東京都中央区日本橋1-4-1","latitude":35.68254089355469,"longitude":139.7745819091797,"category":"複合ビル","description":"デザインアーキテクト：コーン・ペダーセン・フォックス","image_url":""},{"id":10894,"title":"駿河ビル スルガ銀行東京支店","architect":"菊竹清訓","year":1967.0,"address":"東京都中央区日本橋室町1-7-1","latitude":35.68480682373047,"longitude":139.77499389648438,"category":"金融機関","description":"","image_url":""},{"id":10895,"title":"室町東三井ビルディング コレド室町1","architect":"團紀彦+日本設計","year":2010.0,"address":"東京都中央区日本橋室町2-2-1","latitude":35.68669128417969,"longitude":139.7742156982422,"category":"複合ビル","description":"マスター・デザインアーキテクト：團紀彦","image_url":""},{"id":10896,"title":"室町古河三井ビルディング コレド室町2","architect":"團紀彦+日本設計","year":2014.0,"address":"東京都中央区日本橋室町2-3-1","latitude":35.6868782043457,"longitude":139.77488708496094,"category":"複合ビル","description":"マスター・デザインアーキテクト：團紀彦","image_url":""},{"id":10897,"title":"室町ちばぎん三井ビルディング コレド室町3","architect":"團紀彦+日本設計","year":2014.0,"address":"東京都中央区日本橋室町1-5-5","latitude":35.68611526489258,"longitude":139.77447509765625,"category":"複合ビル","description":"マスター・デザインアーキテクト：團紀彦","image_url":""},{"id":10898,"title":"米洲日本橋ショールーム","architect":"青木淳","year":2016.0,"address":"東京都中央区日本橋本町1-5-2","latitude":35.686649322509766,"longitude":139.77554321289062,"category":"店舗","description":"現在は閉館中?","image_url":""},{"id":10899,"title":"五番幹ビル","architect":"中山繁信","year":1996.0,"address":"千葉県成田市上町556-1","latitude":35.78171920776367,"longitude":140.3162841796875,"category":"テナントビル","description":"","image_url":""},{"id":10900,"title":"広島女学院大学 ゲーンスチャペル","architect":"一粒社ヴォーリズ建築事務所","year":2006.0,"address":"広島県広島市東区牛田東4-13-1","latitude":34.413211822509766,"longitude":132.48501586914062,"category":"教会/大学","description":"","image_url":""}]}