{"page":145,"total_pages":290,"items_per_page":50,"total_items":14467,"items":[{"id":7201,"title":"喜多方地方広域市町村圏組合 新斎場","architect":"日総建","year":2017.0,"address":"福島県喜多方市岩月町宮津上ノ山7923-4","latitude":37.68631362915039,"longitude":139.89537048339844,"category":"斎場","description":"","image_url":""},{"id":7202,"title":"刀剣博物館","architect":"槇文彦","year":2017.0,"address":"東京都墨田区横網1-12-9","latitude":35.69889831542969,"longitude":139.79368591308594,"category":"博物館","description":"","image_url":""},{"id":7203,"title":"北谷稲荷神社","architect":"菊竹清訓","year":1997.0,"address":"東京都渋谷区神南1-4-1","latitude":35.665428161621094,"longitude":139.70030212402344,"category":"寺院","description":"","image_url":""},{"id":7204,"title":"北鎌倉 宝庵 旧関口邸茶席","architect":"山口文象","year":1934.0,"address":"神奈川県鎌倉市山ノ内1415","latitude":35.331851959228516,"longitude":139.54615783691406,"category":"茶室","description":"見学は要予約","image_url":""},{"id":7205,"title":"hotel koe tokyo","architect":"谷尻誠","year":2017.0,"address":"東京都渋谷区宇田川町3-7","latitude":35.662532806396484,"longitude":139.6990203857422,"category":"ホテル/レストラン","description":"","image_url":""},{"id":7206,"title":"フォーチュンガーデンキョウト 旧島津製作所本社","architect":"武田五一","year":1927.0,"address":"京都府京都市中京区一之船入町386-2","latitude":35.01229476928711,"longitude":135.7687530517578,"category":"レストラン","description":"","image_url":""},{"id":7207,"title":"京都解放運動戦士の碑","architect":"西山夘三","year":1958.0,"address":"京都府京都市東山区林下町400","latitude":35.00522232055664,"longitude":135.78196716308594,"category":"霊園/オブジェ","description":"","image_url":""},{"id":7208,"title":"一華寺 無尽塔","architect":"宮森洋一郎","year":2017.0,"address":"広島県呉市西中央5-7-1","latitude":34.25261688232422,"longitude":132.56398010253906,"category":"寺院","description":"","image_url":""},{"id":7209,"title":"特別養護老人ホーム 成仁ハウス 百年の里","architect":"内藤将俊+佐藤総合計画","year":2015.0,"address":"岩手県大船渡市立根町字宮田9-1","latitude":39.10051345825195,"longitude":141.7106475830078,"category":"養護施設","description":"","image_url":""},{"id":7210,"title":"Halftecture OO Halftecture 大阪城レストハウス 大手前北","architect":"遠藤秀平","year":2005.0,"address":"大阪府大阪市中央区大阪城3-21","latitude":34.68550491333008,"longitude":135.52166748046875,"category":"トイレ","description":"","image_url":""},{"id":7211,"title":"Halftecture OJ Halftecture 大阪城レストハウス 大坂城南","architect":"遠藤秀平","year":2006.0,"address":"大阪府大阪市中央区大阪城3-15","latitude":34.682682037353516,"longitude":135.5272674560547,"category":"トイレ","description":"","image_url":""},{"id":7212,"title":"宝性院 観音堂","architect":"パーシモンヒルズ・アーキテクツ","year":2017.0,"address":"埼玉県北葛飾郡杉戸町杉戸1-5-6","latitude":36.031097412109375,"longitude":139.7239532470703,"category":"寺院","description":"","image_url":""},{"id":7213,"title":"黄金町の切込","architect":"パーシモンヒルズ・アーキテクツ","year":2016.0,"address":"神奈川県横浜市中区初音町1-19-2","latitude":35.44214630126953,"longitude":139.6256866455078,"category":"ギャラリー","description":"","image_url":""},{"id":7214,"title":"六本木の板 キャメリッシュ","architect":"パーシモンヒルズ・アーキテクツ","year":2017.0,"address":"東京都港区西麻布1-3-6 アゼリアビル1F","latitude":35.66197967529297,"longitude":139.7275390625,"category":"カフェ","description":"","image_url":""},{"id":7215,"title":"佐賀町アーカイブス","architect":"マウントフジアーキテクツスタジオ","year":2010.0,"address":"東京都千代田区外神田6-11-14 外神田根木ビルB1階","latitude":35.7042350769043,"longitude":139.77078247070312,"category":"ギャラリー","description":"","image_url":""},{"id":7216,"title":"the 3rd burger 青山骨董通り店","architect":"マウントフジアーキテクツスタジオ","year":2012.0,"address":"東京都港区南青山5-11-2","latitude":35.66231918334961,"longitude":139.71189880371094,"category":"レストラン/カフェ","description":"","image_url":""},{"id":7217,"title":"THREE AOYAMA","architect":"マウントフジアーキテクツスタジオ","year":2013.0,"address":"東京都港区北青山3-12-13","latitude":35.663551330566406,"longitude":139.70989990234375,"category":"店舗","description":"","image_url":""},{"id":7218,"title":"乗泉寺","architect":"谷口吉郎","year":1964.0,"address":"東京都渋谷区鶯谷町10-15","latitude":35.65310287475586,"longitude":139.70254516601562,"category":"寺院","description":"","image_url":""},{"id":7219,"title":"自由が丘の家 旧園田高弘邸","architect":"吉村順三","year":1955.0,"address":"東京都目黒区緑が丘2-22-14","latitude":35.61103820800781,"longitude":139.67169189453125,"category":"住宅","description":"","image_url":""},{"id":7220,"title":"ひねもすのたり","architect":"堀部安嗣","year":2006.0,"address":"東京都杉並区阿佐谷北1-3-6","latitude":35.70524597167969,"longitude":139.6376495361328,"category":"カフェ","description":"","image_url":""},{"id":7221,"title":"喫茶ランドリ～","architect":"ブルースタジオ+石井大吾","year":2017.0,"address":"東京都墨田区千歳2-6-9 イマケンビル1階","latitude":35.69085693359375,"longitude":139.79449462890625,"category":"店舗","description":"","image_url":""},{"id":7222,"title":"食堂付きアパート  Stairs","architect":"仲建築設計スタジオ","year":2014.0,"address":"東京都目黒区目黒本町5-14-14","latitude":35.6209602355957,"longitude":139.70068359375,"category":"集合住宅","description":"","image_url":""},{"id":7223,"title":"大栄鉄工所オフィス棟","architect":"塚田修大","year":2014.0,"address":"千葉県富津市湊1235-1","latitude":35.233673095703125,"longitude":139.88584899902344,"category":"低層オフィス","description":"","image_url":""},{"id":7224,"title":"日本キリスト教団 生田教会","architect":"西沢立衛","year":2014.0,"address":"神奈川県川崎市多摩区西生田4-9-3","latitude":35.613460540771484,"longitude":139.52503967285156,"category":"教会","description":"見学は可能も常駐者がいないので日曜日であれば可能とのこと","image_url":""},{"id":7225,"title":"新宿東宝ビル","architect":"竹中工務店","year":2015.0,"address":"東京都新宿区歌舞伎町1-19-1","latitude":35.695343017578125,"longitude":139.70204162597656,"category":"テナントビル","description":"","image_url":""},{"id":7226,"title":"川口市めぐりの森","architect":"伊東豊雄","year":2018.0,"address":"埼玉県川口市赤山501-1","latitude":35.848602294921875,"longitude":139.7418212890625,"category":"斎場","description":"2018年4月にオープン予定","image_url":""},{"id":7227,"title":"川口市立高等学校","architect":"久米設計","year":2018.0,"address":"埼玉県川口市上青木3-1-40","latitude":35.826534271240234,"longitude":139.71971130371094,"category":"学校","description":"","image_url":""},{"id":7228,"title":"東京工業大学 緑が丘ハウス","architect":"安田幸一+アール・アイ・エー","year":2017.0,"address":"東京都目黒区目黒区緑が丘1-9","latitude":35.608768463134766,"longitude":139.6782684326172,"category":"寮/大学","description":"","image_url":""},{"id":7229,"title":"東京工業大学 大岡山ハウス","architect":"安田幸一","year":2016.0,"address":"東京都目黒区大岡山2-10-35","latitude":35.60761642456055,"longitude":139.68185424804688,"category":"寮/大学","description":"","image_url":""},{"id":7230,"title":"シェアプレイス調布多摩川 + グローバルハウス調布","architect":"南條洋雄","year":2017.0,"address":"東京都調布市多摩川6-33-1","latitude":35.64189910888672,"longitude":139.54359436035156,"category":"集合住宅","description":"","image_url":""},{"id":7231,"title":"桜美林ガーデンヒルズ","architect":"プラスニューオフィス","year":2017.0,"address":"東京都町田市小山ヶ丘1-14-1","latitude":35.595462799072266,"longitude":139.3888397216797,"category":"集合住宅","description":"","image_url":""},{"id":7232,"title":"高森のいえ 高齢者棟","architect":"三井所清典","year":2017.0,"address":"奈良県吉野郡十津川村猿飼308-2","latitude":33.934783935546875,"longitude":135.7657470703125,"category":"集合住宅/住宅","description":"全体配置計画に蓑原敬、他設計協力に園田眞理子、三浦研、室﨑千重","image_url":""},{"id":7233,"title":"高森のいえ 一般向け住宅棟・ふれあい交流センター棟・センター広場・雁木棟","architect":"安部良","year":2017.0,"address":"奈良県吉野郡十津川村猿飼308-2","latitude":33.9351921081543,"longitude":135.76614379882812,"category":"集合住宅/住宅/公民館・交流施設","description":"全体配置計画に蓑原敬、他設計協力に園田眞理子、三浦研、室﨑千重","image_url":""},{"id":7234,"title":"上京のサービス付き高齢者住宅","architect":"河井敏明","year":2016.0,"address":"京都府京都市上京区牡丹鉾町547-2","latitude":35.03206253051758,"longitude":135.7421112060547,"category":"集合住宅","description":"","image_url":""},{"id":7235,"title":"四条木製ビル 第15長谷ビル","architect":"河井敏明","year":2008.0,"address":"京都府京都市中京区笋町688","latitude":35.00469207763672,"longitude":135.75933837890625,"category":"オフィスビル","description":"","image_url":""},{"id":7236,"title":"オウカス船橋","architect":"フォルム建築計画研究所","year":2017.0,"address":"千葉県船橋市北本町1-16-56","latitude":35.710975646972656,"longitude":139.98341369628906,"category":"集合住宅","description":"","image_url":""},{"id":7237,"title":"目黒セントラルスクエア","architect":"日本設計","year":2017.0,"address":"東京都品川区上大崎3-1-1","latitude":35.63254928588867,"longitude":139.71678161621094,"category":"オフィスビル/集合住宅","description":"","image_url":""},{"id":7238,"title":"左近山みんなのにわ","architect":"熊谷玄","year":2017.0,"address":"神奈川県横浜市旭区左近山157-30","latitude":35.46006774902344,"longitude":139.55238342285156,"category":"広場","description":"","image_url":""},{"id":7239,"title":"パッシブタウン第3期街区","architect":"森みわ","year":2017.0,"address":"富山県黒部市三日市茅堂4016-1","latitude":36.877227783203125,"longitude":137.4462127685547,"category":"集合住宅","description":"","image_url":""},{"id":7240,"title":"十津川村モデルハウス 木灯館","architect":"森みわ","year":2011.0,"address":"奈良県橿原市曲川町7-20-1","latitude":34.50777816772461,"longitude":135.7632598876953,"category":"住宅","description":"","image_url":""},{"id":7241,"title":"TIMBERED TERRACE","architect":"SALHAUS","year":2017.0,"address":"石川県小松市若杉町レ3-1","latitude":36.39567184448242,"longitude":136.48646545410156,"category":"集合住宅","description":"","image_url":""},{"id":7242,"title":"J.GRAN THE HONOR 下鴨糺の杜","architect":"竹中工務店","year":2017.0,"address":"京都府京都市左京区下鴨泉川町60","latitude":35.03365707397461,"longitude":135.77268981933594,"category":"集合住宅","description":"","image_url":""},{"id":7243,"title":"HANEGI TERRACE","architect":"川辺直哉","year":2017.0,"address":"東京都世田谷区松原6","latitude":35.659671783447266,"longitude":139.65243530273438,"category":"集合住宅","description":"","image_url":""},{"id":7244,"title":"ときわ台のアパートメント","architect":"MMAAA","year":2017.0,"address":"東京都板橋区富士見町38-6","latitude":35.76275634765625,"longitude":139.6957550048828,"category":"集合住宅","description":"","image_url":""},{"id":7245,"title":"JURAKU RO","architect":"GENETO建築設計","year":2017.0,"address":"京都府京都市上京区北新在家町320","latitude":35.026611328125,"longitude":135.74615478515625,"category":"集合住宅/カフェ/ホテル","description":"","image_url":""},{"id":7246,"title":"新建築社 北大路ハウス","architect":"平田晃久","year":2017.0,"address":"京都府京都市北区紫竹上梅ノ木町28","latitude":35.048824310302734,"longitude":135.7525634765625,"category":"集合住宅/住宅","description":"","image_url":""},{"id":7247,"title":"釜石市立唐丹小学校 ／ 唐丹中学校 ／ 唐丹児童館","architect":"乾久美子+東京建設コンサルタント","year":2018.0,"address":"岩手県釜石市唐丹町小白浜314","latitude":39.209381103515625,"longitude":141.86561584472656,"category":"学校/児童施設","description":"","image_url":""},{"id":7248,"title":"七ヶ浜みんなの家きずなハウス","architect":"近藤哲雄","year":2017.0,"address":"宮城県宮城郡七ヶ浜町吉田浜野山5-9","latitude":38.299522399902344,"longitude":141.06321716308594,"category":"公民館・交流施設","description":"","image_url":""},{"id":7249,"title":"石巻市立雄勝小学校・雄勝中学校","architect":"関・空間設計+三井所清典","year":2017.0,"address":"宮城県石巻市雄勝町大浜字小滝浜2-2","latitude":38.51285934448242,"longitude":141.5071258544922,"category":"学校","description":"","image_url":""},{"id":7250,"title":"作手小学校・つくで交流館","architect":"東畑建築事務所","year":2017.0,"address":"愛知県新城市作手高里字繩手上32","latitude":34.976627349853516,"longitude":137.42254638671875,"category":"学校/公民館・交流施設","description":"","image_url":""}]}