{"page":240,"total_pages":290,"items_per_page":50,"total_items":14467,"items":[{"id":11951,"title":"キャンディーファーム たねや農藝","architect":"小林広英+中谷弘志","year":2013.0,"address":"滋賀県近江八幡市北之庄町615-1","latitude":35.1507682800293,"longitude":136.091552734375,"category":"店舗","description":"2023年3月オープン予定","image_url":""},{"id":11952,"title":"岐阜のいちご作業所・直売所・遊び場 ichigo no atelier","architect":"伊藤維","year":2022.0,"address":"岐阜県本巣市三橋3-20","latitude":35.446876525878906,"longitude":136.67727661132812,"category":"店舗","description":"","image_url":""},{"id":11953,"title":"建築・アートライブラリー aspire","architect":"羽深隆雄","year":2022.0,"address":"埼玉県比企郡ときがわ町大字雲河原545-1","latitude":36.009944915771484,"longitude":139.24989318847656,"category":"図書館","description":"","image_url":""},{"id":11954,"title":"令和蔵 Storatge of the soul","architect":"羽深隆雄","year":2019.0,"address":"埼玉県比企郡ときがわ町大字雲河原545-1","latitude":36.010108947753906,"longitude":139.2498321533203,"category":"博物館","description":"","image_url":""},{"id":11955,"title":"高坂市民活動センター","architect":"白江龍三","year":1995.0,"address":"埼玉県東松山市宮鼻860-2","latitude":35.992767333984375,"longitude":139.40335083007812,"category":"公民館・交流施設/体育館","description":"","image_url":""},{"id":11956,"title":"豊昭学園6号館 ラーニングセンター","architect":"北川原温","year":2022.0,"address":"東京都豊島区池袋本町2-9-1","latitude":35.740821838378906,"longitude":139.70936584472656,"category":"学校/大学/図書館","description":"","image_url":""},{"id":11957,"title":"ナカニシ A1工場","architect":"北川原温","year":2018.0,"address":"栃木県鹿沼市深程990-22","latitude":36.488914489746094,"longitude":139.71205139160156,"category":"工場","description":"","image_url":""},{"id":11958,"title":"池上工業所アネックス","architect":"北川原温","year":1994.0,"address":"東京都大田区仲池上1-21-6","latitude":35.5860481262207,"longitude":139.69845581054688,"category":"低層オフィス/集合住宅","description":"","image_url":""},{"id":11959,"title":"メサビル","architect":"北川原温","year":1997.0,"address":"東京都立川市曙町1-14-14","latitude":35.6986083984375,"longitude":139.4105224609375,"category":"オフィスビル","description":"","image_url":""},{"id":11960,"title":"molten [the Box] モルテン本社","architect":"谷尻誠+フジタ","year":2022.0,"address":"広島県広島市西区観音新町4-10","latitude":34.368717193603516,"longitude":132.41493225097656,"category":"オフィスビル","description":"デザイン監修:SUPPOSE DESIGN OFFICE","image_url":""},{"id":11961,"title":"中外ライフサイエンスパーク横浜","architect":"日本設計","year":2022.0,"address":"神奈川県横浜市戸塚区戸塚町216","latitude":35.392669677734375,"longitude":139.53111267089844,"category":"研究施設","description":"","image_url":""},{"id":11962,"title":"サントリー天然水 北アルプス信濃の森工場","architect":"竹中工務店","year":2022.0,"address":"長野県大町市常盤8071-1","latitude":36.45038604736328,"longitude":137.8331756591797,"category":"工場","description":"","image_url":""},{"id":11963,"title":"H.U. ビオネスコンプレックス アキルノキューブ","architect":"光井純+大林組+大和ハウス工業","year":2021.0,"address":"東京都あきる野市渕上50","latitude":35.73029327392578,"longitude":139.273681640625,"category":"工場/研究施設","description":"デザイン監修:光井純","image_url":""},{"id":11964,"title":"あきた芸術劇場ミルハス","architect":"佐藤総合計画+小畑設計事務所","year":2022.0,"address":"秋田県秋田市千秋明徳町2-52","latitude":39.7194938659668,"longitude":140.12179565429688,"category":"ホール・劇場","description":"","image_url":""},{"id":11965,"title":"下北線路街 HORA BUILDING","architect":"ツバメアーキテクツ","year":2022.0,"address":"東京都世田谷区代田2-36-19","latitude":35.659366607666016,"longitude":139.6644744873047,"category":"低層オフィス","description":"","image_url":""},{"id":11966,"title":"下北線路街 シモキタ園芸部 こや のはら","architect":"ツバメアーキテクツ","year":2022.0,"address":"東京都世田谷区北沢2-21-12","latitude":35.660011291503906,"longitude":139.6654052734375,"category":"店舗/公民館・交流施設","description":"","image_url":""},{"id":11967,"title":"下北線路街 SRR Project Space","architect":"ツバメアーキテクツ","year":2022.0,"address":"東京都世田谷区北沢2-22-2","latitude":35.66010284423828,"longitude":139.66519165039062,"category":"ギャラリー","description":"","image_url":""},{"id":11968,"title":"STROOG社屋","architect":"マウントフジアーキテクツスタジオ","year":2022.0,"address":"富山県滑川市大榎452","latitude":36.75652313232422,"longitude":137.39105224609375,"category":"低層オフィス","description":"","image_url":""},{"id":11969,"title":"KEEP GREEN HOUSE","architect":"SUEP.","year":2022.0,"address":"神奈川県川崎市宮前区野川6-3414","latitude":35.572044372558594,"longitude":139.60629272460938,"category":"低層オフィス","description":"","image_url":""},{"id":11970,"title":"京都精華大学 明窓館","architect":"宗本晋作","year":2022.0,"address":"京都府京都市左京区岩倉木野町137","latitude":35.07280349731445,"longitude":135.77044677734375,"category":"大学","description":"","image_url":""},{"id":11971,"title":"52間の縁側","architect":"山﨑健太郎","year":2022.0,"address":"千葉県八千代市米本1286","latitude":35.76171875,"longitude":140.1142578125,"category":"福祉センター/カフェ/児童施設","description":"","image_url":""},{"id":11972,"title":"ハロウインターナショナルスクール安比ジャパン","architect":"株式会社大建設計","year":2022.0,"address":"岩手県八幡平市安比高原180-8","latitude":40.01310348510742,"longitude":141.000244140625,"category":"学校","description":"","image_url":""},{"id":11973,"title":"盛岡バスセンター","architect":"西村浩","year":2022.0,"address":"岩手県盛岡市中ノ橋通1-9","latitude":39.699527740478516,"longitude":141.1573944091797,"category":"駅","description":"","image_url":""},{"id":11974,"title":"KSB瀬戸内海放送新社屋","architect":"NTTファシリティーズ+小川大志","year":2020.0,"address":"香川県高松市上之町2-1-43","latitude":34.32159423828125,"longitude":134.046875,"category":"低層オフィス","description":"設計監修:小川大志","image_url":""},{"id":11975,"title":"本の森ちゅうおう 中央区立京橋図書館・中央区立郷土資料館","architect":"類設計室","year":2022.0,"address":"東京都中央区新富1-13-14","latitude":35.67367172241211,"longitude":139.77569580078125,"category":"図書館","description":"","image_url":""},{"id":11976,"title":"戸田建設 成田工場","architect":"戸田建設","year":2022.0,"address":"千葉県成田市新泉23","latitude":35.808406829833984,"longitude":140.3577880859375,"category":"工場","description":"","image_url":""},{"id":11977,"title":"日鉄高炉セメント本社ビル","architect":"竹中工務店","year":2020.0,"address":"福岡県北九州市小倉北区西港町16","latitude":33.90085220336914,"longitude":130.8538818359375,"category":"低層オフィス","description":"","image_url":""},{"id":11978,"title":"旧川之内小学校","architect":"松村正恒","year":1950.0,"address":"愛媛県八幡浜市川之内1−182","latitude":33.4677848815918,"longitude":132.48004150390625,"category":"学校","description":"","image_url":""},{"id":11979,"title":"旧長谷小学校","architect":"松村正恒","year":1953.0,"address":"愛媛県八幡浜市高野地716","latitude":33.47873306274414,"longitude":132.449462890625,"category":"学校","description":"","image_url":""},{"id":11980,"title":"中津川公民館","architect":"松村正恒","year":1956.0,"address":"愛媛県八幡浜市中津川午地4","latitude":33.43608474731445,"longitude":132.46392822265625,"category":"公民館・交流施設","description":"","image_url":""},{"id":11981,"title":"旧八幡浜市立図書館","architect":"松村正恒","year":1951.0,"address":"愛媛県八幡浜市桧谷94−18","latitude":33.4586296081543,"longitude":132.4266357421875,"category":"図書館","description":"","image_url":""},{"id":11982,"title":"天童木工東京支店","architect":"坂倉準三","year":1964.0,"address":"東京都港区浜松町1-19-2","latitude":35.657928466796875,"longitude":139.75584411621094,"category":"低層オフィス","description":"","image_url":""},{"id":11983,"title":"シンガポール共和国大使館","architect":"岡田新一","year":1978.0,"address":"東京都港区六本木5-12−3","latitude":35.65752029418945,"longitude":139.7341766357422,"category":"公共施設","description":"","image_url":""},{"id":11984,"title":"富士フィルム東京本社ビル","architect":"芦原義信","year":1969.0,"address":"東京都港区西麻布2-26−30","latitude":35.65974426269531,"longitude":139.718994140625,"category":"オフィスビル","description":"","image_url":""},{"id":11985,"title":"光圓寺","architect":"柿沼守利","year":1994.0,"address":"福岡県福岡市中央区天神3-12−3","latitude":33.594093322753906,"longitude":130.39674377441406,"category":"寺院","description":"","image_url":""},{"id":11986,"title":"Bar Ugle","architect":"柿沼守利","year":2009.0,"address":"福岡県福岡市中央区薬院2-13−27","latitude":33.582496643066406,"longitude":130.39466857910156,"category":"バー・居酒屋","description":"","image_url":""},{"id":11987,"title":"gotoh 御菓子處 五島","architect":"柿沼守利","year":2002.0,"address":"福岡県福岡市中央区赤坂3-1−21","latitude":33.58171081542969,"longitude":130.3880615234375,"category":"店舗","description":"","image_url":""},{"id":11988,"title":"玉野市立玉野市民病院","architect":"浦辺鎮太郎","year":1973.0,"address":"岡山県玉野市宇野2-3-1","latitude":34.49175262451172,"longitude":133.94287109375,"category":"病院","description":"","image_url":""},{"id":11989,"title":"大福保育園","architect":"竹原義二","year":2003.0,"address":"岡山県岡山市南区大福760−2","latitude":34.62133026123047,"longitude":133.88800048828125,"category":"幼稚園","description":"","image_url":""},{"id":11990,"title":"新赤坂ビル","architect":"坂倉準三","year":1965.0,"address":"東京都港区赤坂3-13−10","latitude":35.67299270629883,"longitude":139.73728942871094,"category":"オフィスビル","description":"","image_url":""},{"id":11991,"title":"SIX WAKE ROPPONGI","architect":"石本建築事務所","year":2019.0,"address":"東京都港区六本木5-16-7","latitude":35.66145324707031,"longitude":139.7362518310547,"category":"企業施設","description":"","image_url":""},{"id":11992,"title":"八重洲セントラルパークビル","architect":"石本建築事務所","year":2015.0,"address":"東京都中央区八重洲1-5-22","latitude":35.682125091552734,"longitude":139.77064514160156,"category":"オフィスビル","description":"","image_url":""},{"id":11993,"title":"AXALL ROPPONGI","architect":"石本建築事務所","year":2009.0,"address":"東京都港区六本木7-8-6","latitude":35.66484451293945,"longitude":139.7297821044922,"category":"テナントビル","description":"","image_url":""},{"id":11994,"title":"イイダアネックス表参道 ","architect":"鈴木エドワード","year":1992.0,"address":"東京都渋谷区神宮前5-46−4 ","latitude":35.66405487060547,"longitude":139.7086944580078,"category":"テナントビル","description":"","image_url":""},{"id":11995,"title":"穏田今泉ビル","architect":"芦原義信","year":1984.0,"address":"東京都渋谷区神宮前5-7-4","latitude":35.66658020019531,"longitude":139.70889282226562,"category":"オフィスビル","description":"","image_url":""},{"id":11996,"title":"小石川東京病院 旧日本通運東京病院","architect":"石本建築事務所","year":1959.0,"address":"東京都文京区大塚4-45-16","latitude":35.72219467163086,"longitude":139.7318572998047,"category":"病院","description":"","image_url":""},{"id":11997,"title":"日土地原町ビル本館","architect":"芦原義信","year":1985.0,"address":"東京都文京区白山5-16−6","latitude":35.725074768066406,"longitude":139.74676513671875,"category":"オフィスビル","description":"","image_url":""},{"id":11998,"title":"阪南高等学校","architect":"坂倉準三","year":1960.0,"address":"大阪府大阪市住吉区庭井2-18−81","latitude":34.59545135498047,"longitude":135.516845703125,"category":"学校","description":"","image_url":""},{"id":11999,"title":"関西電力丸山発電所","architect":"坂倉準三","year":1954.0,"address":"岐阜県加茂郡八百津町八百津1421−1","latitude":35.46977996826172,"longitude":137.16067504882812,"category":"工場/公共施設","description":"","image_url":""},{"id":12000,"title":"栗本図書館","architect":"谷口吉郎","year":1978.0,"address":"長野県諏訪郡富士見町境高森6307","latitude":35.885501861572266,"longitude":138.2861328125,"category":"図書館","description":"旧館中?","image_url":""}]}