{"page":93,"total_pages":290,"items_per_page":50,"total_items":14467,"items":[{"id":4601,"title":"花みずきレディースクリニック","architect":"シーラカンスアンドアソシエイツ","year":2003.0,"address":"長崎県長崎市住吉町13-16","latitude":32.79338836669922,"longitude":129.86058044433594,"category":"個人医院","description":"","image_url":""},{"id":4602,"title":"JFICライブラリー","architect":"シーラカンスアンドアソシエイツ","year":2008.0,"address":"東京都新宿区四谷4-4-1","latitude":35.68743896484375,"longitude":139.71775817871094,"category":"図書館","description":"","image_url":""},{"id":4603,"title":"SOHO CORNER","architect":"中村拓志","year":2014.0,"address":"東京都渋谷区猿楽町9-5","latitude":35.65104293823242,"longitude":139.70263671875,"category":"テナントビル","description":"","image_url":""},{"id":4604,"title":"Glass Jewelry Box 西麻布レクラン","architect":"中村拓志","year":2014.0,"address":"東京都港区西麻布3-21-3","latitude":35.659629821777344,"longitude":139.72518920898438,"category":"店舗","description":"","image_url":""},{"id":4605,"title":"GOD BURGER HOUSE オロチョン横川駅前店","architect":"土井一秀","year":2010.0,"address":"広島県広島市西区横川3-10-16","latitude":34.40909957885742,"longitude":132.4512939453125,"category":"レストラン","description":"","image_url":""},{"id":4606,"title":"CLINIC MALL","architect":"土井一秀","year":2006.0,"address":"広島県東広島市西条本町12-2","latitude":34.43040466308594,"longitude":132.74313354492188,"category":"テナントビル/個人医院","description":"","image_url":""},{"id":4607,"title":"軒の教会 東八幡キリスト教会","architect":"手塚建築研究所","year":2014.0,"address":"福岡県北九州市八幡東区荒生田2-1-40","latitude":33.86558532714844,"longitude":130.83465576171875,"category":"教会","description":"","image_url":""},{"id":4608,"title":"佐世保港国際ターミナル","architect":"NKS2アーキテクツ","year":2014.0,"address":"長崎県佐世保市干尽町9-1","latitude":33.159236907958984,"longitude":129.7258758544922,"category":"港","description":"開業は2015年4月","image_url":""},{"id":4609,"title":"地域密着型特別養護老人ホーム クレールエステート悠楽","architect":"河口佳介","year":2014.0,"address":"岡山県倉敷市真備町有井1472","latitude":34.636600494384766,"longitude":133.70274353027344,"category":"養護施設","description":"","image_url":""},{"id":4610,"title":"風の街みやびら","architect":"シーラカンスアンドアソシエイツ+大建met","year":2014.0,"address":"広島県庄原市東城町川西1332-5","latitude":34.89943313598633,"longitude":133.27462768554688,"category":"養護施設","description":"","image_url":""},{"id":4611,"title":"八幡厚生病院新本館棟","architect":"富永譲","year":2014.0,"address":"福岡県北九州市八幡西区里中3-12-12","latitude":33.841461181640625,"longitude":130.73561096191406,"category":"病院","description":"","image_url":""},{"id":4612,"title":"横須賀市救急医療センター・横須賀市医師会館","architect":"富永譲","year":2014.0,"address":"神奈川県横須賀市新港町1-11","latitude":35.28099822998047,"longitude":139.67672729492188,"category":"病院/組合施設","description":"","image_url":""},{"id":4613,"title":"日本大学病院","architect":"伊藤喜三郎建築研究所","year":2014.0,"address":"東京都千代田区神田駿河台1-6","latitude":35.69697189331055,"longitude":139.76235961914062,"category":"病院","description":"","image_url":""},{"id":4614,"title":"福徳神社","architect":"日本設計+清水建設","year":2014.0,"address":"東京都中央区日本橋室町2-5-6","latitude":35.68731689453125,"longitude":139.77493286132812,"category":"寺院","description":"","image_url":""},{"id":4615,"title":"KIRARITO GINZA","architect":"光井純+浅井謙","year":2014.0,"address":"東京都中央区銀座1-8-19","latitude":35.6741828918457,"longitude":139.76861572265625,"category":"テナントビル","description":"","image_url":""},{"id":4616,"title":"大樋ギャラリー","architect":"隈研吾","year":2014.0,"address":"石川県金沢市橋場町2-17","latitude":36.56990051269531,"longitude":136.66453552246094,"category":"ギャラリー","description":"旧館は1993竣工、大江匤の設計。2014年にリニューアル。","image_url":""},{"id":4617,"title":"葉山の森","architect":"隈研吾","year":2014.0,"address":"神奈川県三浦郡葉山町一色408","latitude":35.26418685913086,"longitude":139.59613037109375,"category":"養護施設","description":"","image_url":""},{"id":4618,"title":"木津の庄コミュニティセンター+公園","architect":"貴志雅樹+横山天心","year":2013.0,"address":"富山県高岡市木津113-1","latitude":36.73546600341797,"longitude":136.99362182617188,"category":"公民館・交流施設/公園/カフェ","description":"","image_url":""},{"id":4619,"title":"レストラン LATOUR","architect":"貴志雅樹","year":1988.0,"address":"大阪府箕面市如意谷4-380-1","latitude":34.83844757080078,"longitude":135.4846649169922,"category":"レストラン","description":"","image_url":""},{"id":4620,"title":"斎苑ヒカリテラス","architect":"NKS2アーキテクツ","year":2014.0,"address":"大分県中津市大字上宮永487-1","latitude":33.58549499511719,"longitude":131.18649291992188,"category":"斎場","description":"","image_url":""},{"id":4621,"title":"福岡女子大学 図書館棟・研究棟・スポーツキューブ","architect":"NKS2アーキテクツ+久米設計+大設計","year":2014.0,"address":"福岡県福岡市東区香住ヶ丘1-1-1","latitude":33.66559982299805,"longitude":130.43960571289062,"category":"大学/図書館/体育館","description":"第一期工事","image_url":""},{"id":4622,"title":"坂東矯正歯科","architect":"NKS2アーキテクツ","year":2013.0,"address":"富山県富山市五艘1380-1","latitude":36.704471588134766,"longitude":137.19578552246094,"category":"個人医院","description":"","image_url":""},{"id":4623,"title":"博愛会地域総合支援センター","architect":"NKS2アーキテクツ","year":2013.0,"address":"大分県大分市金池南1-9-5","latitude":33.2296257019043,"longitude":131.6062469482422,"category":"福祉センター","description":"","image_url":""},{"id":4624,"title":"老司ユニタクリニック","architect":"NKS2アーキテクツ","year":2002.0,"address":"福岡県福岡市南区老司1-27-12","latitude":33.536075592041016,"longitude":130.42257690429688,"category":"個人医院","description":"","image_url":""},{"id":4625,"title":"鹿屋の長屋 Lakpa House 1 ／ 2","architect":"NKS2アーキテクツ","year":2002.0,"address":"鹿児島県鹿屋市札元1-6-20","latitude":31.39556121826172,"longitude":130.867431640625,"category":"集合住宅","description":"Lakpa House1が2002年に竣工。2が2006年。何れも同じ住所。","image_url":""},{"id":4626,"title":"AREA GALLERY","architect":"河口佳介","year":2008.0,"address":"広島県府中市高木町1143-1","latitude":34.557960510253906,"longitude":133.2489013671875,"category":"ギャラリー","description":"","image_url":""},{"id":4627,"title":"極真会館 広島県支部三原道場","architect":"河口佳介","year":2011.0,"address":"広島県三原市和田1-8-10","latitude":34.38648986816406,"longitude":133.06887817382812,"category":"スポーツ施設","description":"","image_url":""},{"id":4628,"title":"シュトラーゼ広島 ルノー福山","architect":"河口佳介","year":2005.0,"address":"広島県福山市南蔵王町5-1-6","latitude":34.500675201416016,"longitude":133.3990020751953,"category":"店舗","description":"","image_url":""},{"id":4629,"title":"都あけぼの","architect":"河口佳介","year":2014.0,"address":"広島県福山市曙町3-4-12","latitude":34.47115707397461,"longitude":133.3935546875,"category":"レストラン","description":"","image_url":""},{"id":4630,"title":"Locomotive Hills 岩崎整形外科","architect":"河口佳介","year":2014.0,"address":"広島県福山市木之庄町2-7-5","latitude":34.49790573120117,"longitude":133.35418701171875,"category":"個人医院","description":"","image_url":""},{"id":4631,"title":"和田歯科医院","architect":"河口佳介","year":2010.0,"address":"広島県福山市新市町大字新市695-2","latitude":34.55499267578125,"longitude":133.27239990234375,"category":"個人医院","description":"","image_url":""},{"id":4632,"title":"善通寺市美術館 旧善通寺市東公⺠館","architect":"吉岡直樹","year":1985.0,"address":"香川県善通寺市文京町2-1-1","latitude":34.227787017822266,"longitude":133.78720092773438,"category":"美術館","description":"","image_url":""},{"id":4633,"title":"世良美術館","architect":"瀬戸本淳","year":1991.0,"address":"兵庫県神戸市東灘区御影2-5-21","latitude":34.723148345947266,"longitude":135.2523193359375,"category":"美術館","description":"","image_url":""},{"id":4634,"title":"クレリ芦屋ホール","architect":"瀬戸本淳","year":1992.0,"address":"兵庫県芦屋市浜芦屋町4-21","latitude":34.72547149658203,"longitude":135.3043670654297,"category":"ホール・劇場/斎場","description":"","image_url":""},{"id":4635,"title":"やないづ町立斎藤清美術館","architect":"清水公夫","year":1997.0,"address":"福島県河沼郡柳津町柳津下平乙187","latitude":37.528480529785156,"longitude":139.72146606445312,"category":"美術館","description":"","image_url":""},{"id":4636,"title":"富山県立水墨美術館","architect":"藤田順吉朗","year":1998.0,"address":"富山県富山市五福777","latitude":36.69899368286133,"longitude":137.19642639160156,"category":"美術館","description":"","image_url":""},{"id":4637,"title":"万年山文庫","architect":"内野輝明","year":2008.0,"address":"徳島県徳島市南佐古4番町5-14","latitude":34.073577880859375,"longitude":134.53082275390625,"category":"カフェ","description":"","image_url":""},{"id":4638,"title":"ウッドスクェア","architect":"ジェイアール東日本建築設計事務所","year":2012.0,"address":"埼玉県越谷市七左町2-7","latitude":35.87211990356445,"longitude":139.7850799560547,"category":"低層オフィス/店舗","description":"","image_url":""},{"id":4639,"title":"Timezone ヒルトップビル","architect":"小山光","year":2014.0,"address":"東京都渋谷区恵比寿南1-18-9","latitude":35.6447639465332,"longitude":139.7106170654297,"category":"テナントビル/集合住宅","description":"","image_url":""},{"id":4640,"title":"Timezone 小町ビル","architect":"小山光","year":2013.0,"address":"東京都渋谷区恵比寿南1-4-4","latitude":35.64612579345703,"longitude":139.70852661132812,"category":"テナントビル","description":"","image_url":""},{"id":4641,"title":"Timezone テラスビル","architect":"小山光","year":2013.0,"address":"東京都渋谷区恵比寿南1-17-17","latitude":35.64461135864258,"longitude":139.71017456054688,"category":"テナントビル","description":"","image_url":""},{"id":4642,"title":"みやざきアートセンター","architect":"NTTファシリティーズ","year":2009.0,"address":"宮崎県宮崎市橘通西3-3-27","latitude":31.914648056030273,"longitude":131.42247009277344,"category":"総合文化施設","description":"","image_url":""},{"id":4643,"title":"高野山温泉福智院 庭園","architect":"重森三玲","year":1973.0,"address":"和歌山県伊都郡高野町高野山657","latitude":34.21595001220703,"longitude":135.58494567871094,"category":"庭園/旅館","description":"","image_url":""},{"id":4644,"title":"桜下亭 庭園／茶室","architect":"重森三玲","year":null,"address":"広島県広島市安佐南区長束西3-9-17","latitude":34.42957305908203,"longitude":132.4486083984375,"category":"庭園/茶室/料亭","description":"","image_url":""},{"id":4645,"title":"湘南T-SITE","architect":"クライン・ダイサム・アーキテクツ+日本設計","year":2014.0,"address":"神奈川県藤沢市辻堂元町6-20-1","latitude":35.33495330810547,"longitude":139.4628143310547,"category":"店舗/複合施設/モール","description":"","image_url":""},{"id":4646,"title":"堀之内町民体育館","architect":"宮脇檀+星野貴行","year":1996.0,"address":"新潟県魚沼市堀之内130","latitude":37.24382781982422,"longitude":138.9239044189453,"category":"体育館","description":"","image_url":""},{"id":4647,"title":"新津美術館","architect":"横山正+三井所清典","year":1996.0,"address":"新潟県新潟市秋葉区蒲ヶ沢109-1","latitude":37.76246643066406,"longitude":139.11236572265625,"category":"美術館","description":"","image_url":""},{"id":4648,"title":"新潟県立自然科学館","architect":"石本建築事務所","year":1981.0,"address":"新潟県新潟市中央区女池南3-1-1","latitude":37.8907470703125,"longitude":139.0497589111328,"category":"博物館","description":"","image_url":""},{"id":4649,"title":"とかち帯広空港","architect":"黒川紀章","year":1997.0,"address":"北海道帯広市泉町西9線中8-41","latitude":42.7313117980957,"longitude":143.21324157714844,"category":"空港","description":"","image_url":""},{"id":4650,"title":"小木町テニスクラブハウス","architect":"團紀彦+青島裕之","year":1987.0,"address":"新潟県佐渡市小木町2046","latitude":37.8206787109375,"longitude":138.2886962890625,"category":"クラブハウス","description":"","image_url":""}]}