{"page":224,"total_pages":290,"items_per_page":50,"total_items":14467,"items":[{"id":11151,"title":"清流寺 深沢分院","architect":"宮崎浩","year":2005.0,"address":"東京都世田谷区深沢2-18-6","latitude":35.62128448486328,"longitude":139.66004943847656,"category":"寺院/店舗/住宅","description":"","image_url":""},{"id":11152,"title":"丸福樓 新棟","architect":"安藤忠雄","year":2022.0,"address":"京都府京都市下京区鍵屋町342","latitude":34.991695404052734,"longitude":135.76620483398438,"category":"ホテル","description":"旧任天堂本社をホテルに改装。新棟の設計は安藤忠雄","image_url":""},{"id":11153,"title":"浄智寺 庫裏","architect":"白井晟一","year":1985.0,"address":"神奈川県鎌倉市山ノ内1402","latitude":35.333396911621094,"longitude":139.5463409423828,"category":"寺院","description":"竣工年の記述が見当たらなかったが、遺作との記述があり、雲伴居と同年である1985年としておきました。いずれにしろ死後の竣工のようです","image_url":""},{"id":11154,"title":"読谷村文化センター","architect":"国建","year":1999.0,"address":"沖縄県中頭郡中頭郡読谷村座喜味2901","latitude":26.39607048034668,"longitude":127.74551391601562,"category":"ホール・劇場","description":"","image_url":""},{"id":11155,"title":"西原さわふじマルシェ","architect":"国建","year":2020.0,"address":"沖縄県中頭郡西原町小波津480","latitude":26.223485946655273,"longitude":127.7575454711914,"category":"PA・道の駅/モール","description":"","image_url":""},{"id":11156,"title":"恩納村立博物館","architect":"国建","year":2000.0,"address":"沖縄県国頭郡恩納村仲泊1656-8","latitude":26.436643600463867,"longitude":127.7934341430664,"category":"博物館","description":"","image_url":""},{"id":11157,"title":"松濤の集合住宅 コルテ松涛","architect":"設計組織ADH","year":1989.0,"address":"東京都渋谷区松濤2-15-1","latitude":35.65861511230469,"longitude":139.69129943847656,"category":"集合住宅","description":"","image_url":""},{"id":11158,"title":"シャンボール松涛","architect":"梵寿綱","year":1969.0,"address":"東京都渋谷区松濤2-14-12","latitude":35.65839385986328,"longitude":139.6919403076172,"category":"集合住宅","description":"","image_url":""},{"id":11159,"title":"Shibuya O-WEST","architect":"北山孝二郎","year":1993.0,"address":"東京都渋谷区円山町2-3","latitude":35.65849304199219,"longitude":139.69529724121094,"category":"ホール・劇場","description":"","image_url":""},{"id":11160,"title":"Shibuya O-EAST","architect":"野沢誠","year":2003.0,"address":"東京都渋谷区道玄坂2-14-8","latitude":35.65865707397461,"longitude":139.69564819335938,"category":"ホール・劇場","description":"","image_url":""},{"id":11161,"title":"シアター・イメージフォーラム","architect":"高崎正治","year":2000.0,"address":"東京都渋谷区渋谷2-10-2","latitude":35.660301208496094,"longitude":139.70703125,"category":"ホール・劇場","description":"","image_url":""},{"id":11162,"title":"富ヶ谷の集合住宅 ルセリア","architect":"納谷建築設計事務所","year":2001.0,"address":"東京都渋谷区富ケ谷2-13-21","latitude":35.66427230834961,"longitude":139.6865234375,"category":"集合住宅","description":"","image_url":""},{"id":11163,"title":"センティール・ラ・セゾン千秋公園","architect":"納谷建築設計事務所","year":2013.0,"address":"秋田県秋田市中通2-2-30","latitude":39.71620559692383,"longitude":140.12428283691406,"category":"結婚式場","description":"","image_url":""},{"id":11164,"title":"ヤマキウ南倉庫","architect":"納谷建築設計事務所","year":2019.0,"address":"秋田県秋田市南通亀の町4-15","latitude":39.71137237548828,"longitude":140.1179656982422,"category":"モール","description":"改修","image_url":""},{"id":11165,"title":"東峰村ゲストハウス 古民家ヴィラ あんたげ","architect":"納谷建築設計事務所+岡田祐介","year":2020.0,"address":"福岡県朝倉郡東峰村宝珠山5430","latitude":33.43888473510742,"longitude":130.87179565429688,"category":"古民家/コテージ","description":"","image_url":""},{"id":11166,"title":"秋田内陸縦貫鉄道 阿仁合駅","architect":"納谷建築設計事務所","year":2018.0,"address":"秋田県北秋田市阿仁銀山下新町","latitude":40.00065612792969,"longitude":140.40150451660156,"category":"駅","description":"改修","image_url":""},{"id":11167,"title":"温泉グランピング シマブルー","architect":"千葉託巳","year":2017.0,"address":"群馬県吾妻郡中之条町四万4355-9","latitude":36.69236373901367,"longitude":138.77389526367188,"category":"コテージ","description":"","image_url":""},{"id":11168,"title":"スパゲストハウス ルルド","architect":"渕田泰明","year":2020.0,"address":"群馬県吾妻郡中之条町四万4138-1","latitude":36.69057083129883,"longitude":138.7749786376953,"category":"ホステル","description":"","image_url":""},{"id":11169,"title":"慈友クリニック","architect":"富永譲","year":2000.0,"address":"東京都新宿区高田馬場4-3-11","latitude":35.71180725097656,"longitude":139.70309448242188,"category":"個人医院","description":"","image_url":""},{"id":11170,"title":"早稲田ゼミナール学生会館","architect":"富永譲","year":1982.0,"address":"東京都新宿区高田馬場1-24-13","latitude":35.71129608154297,"longitude":139.7053985595703,"category":"専門学校","description":"","image_url":""},{"id":11171,"title":"早稲田ゼミナール所沢校","architect":"富永譲","year":1989.0,"address":"埼玉県所沢市喜多町16-12","latitude":35.798709869384766,"longitude":139.46484375,"category":"専門学校","description":"","image_url":""},{"id":11172,"title":"茨城県営長町アパート","architect":"富永譲","year":1999.0,"address":"茨城県水戸市栄町2-1-17","latitude":36.38410186767578,"longitude":140.45945739746094,"category":"集合住宅","description":"","image_url":""},{"id":11173,"title":"陽和病院 新南館","architect":"富永譲","year":2018.0,"address":"東京都練馬区大泉町2-17-1","latitude":35.760215759277344,"longitude":139.6023406982422,"category":"病院","description":"","image_url":""},{"id":11174,"title":"きらくえん フィーカ須磨の丘","architect":"富永譲","year":2020.0,"address":"兵庫県神戸市須磨区妙法寺菅ノ池3-1","latitude":34.68130111694336,"longitude":135.10971069335938,"category":"養護施設","description":"","image_url":""},{"id":11175,"title":"福岡バースクリニック","architect":"富永譲","year":2010.0,"address":"福岡県福岡市西区姪浜駅南3-18-21","latitude":33.577606201171875,"longitude":130.3275604248047,"category":"個人医院","description":"","image_url":""},{"id":11176,"title":"川崎市大山街道ふるさと館","architect":"富永譲","year":1992.0,"address":"神奈川県川崎市高津区溝口3-13-3","latitude":35.603416442871094,"longitude":139.61279296875,"category":"博物館","description":"","image_url":""},{"id":11177,"title":"駒込警察署 上富士前交番","architect":"富永譲","year":1988.0,"address":"東京都文京区本駒込5-3-4","latitude":35.73226547241211,"longitude":139.74961853027344,"category":"警察・消防署","description":"","image_url":""},{"id":11178,"title":"ホテルコルディア大阪本町","architect":"岡本浩","year":2021.0,"address":"大阪府大阪市中央区本町4-6-14","latitude":34.68456268310547,"longitude":135.49855041503906,"category":"ホテル","description":"","image_url":""},{"id":11179,"title":"鮨いその","architect":"五十嵐淳","year":2016.0,"address":"北海道札幌市中央区南2条西牧7-8-2 南2条ビル1階","latitude":43.0576286315918,"longitude":141.3474884033203,"category":"レストラン","description":"内装設計","image_url":""},{"id":11180,"title":"〆のい","architect":"五十嵐淳","year":2020.0,"address":"北海道札幌市中央区南1条西6-8-1 フィーノホテル札幌大通1階","latitude":43.05823516845703,"longitude":141.34832763671875,"category":"レストラン","description":"内装設計","image_url":""},{"id":11181,"title":"京都大学 総合博物館北館 旧文学部博物館","architect":"川崎清","year":1986.0,"address":"京都府京都市左京区吉田本町","latitude":35.0275993347168,"longitude":135.77923583984375,"category":"博物館","description":"","image_url":""},{"id":11182,"title":"ワールドラブ","architect":"五十嵐淳","year":2015.0,"address":"北海道北見市幸町7-7-19 2階","latitude":43.805667877197266,"longitude":143.88650512695312,"category":"美容院","description":"内装設計","image_url":""},{"id":11183,"title":"画廊きよみず","architect":"出江寛","year":1989.0,"address":"京都府京都市東山区五条橋東6-540-7","latitude":34.99513244628906,"longitude":135.77908325195312,"category":"ギャラリー/店舗","description":"","image_url":""},{"id":11184,"title":"SYMBIOSIS ビル","architect":"五十嵐淳","year":2012.0,"address":"北海道札幌市中央区南2条西4-10-6","latitude":43.057334899902344,"longitude":141.35147094726562,"category":"テナントビル","description":"","image_url":""},{"id":11185,"title":"Small Atelier カフェ・パレタ・デ・アスール","architect":"五十嵐淳","year":2010.0,"address":"北海道札幌市西区宮の沢3条4-8-7-2","latitude":43.087181091308594,"longitude":141.2639923095703,"category":"住宅/カフェ","description":"","image_url":""},{"id":11186,"title":"OPERA美容室 増築棟","architect":"五十嵐淳","year":2008.0,"address":"北海道北見市高栄東町3-8-47","latitude":43.81608581542969,"longitude":143.8752899169922,"category":"美容院","description":"","image_url":""},{"id":11187,"title":"風の塔","architect":"伊東豊雄","year":1986.0,"address":"神奈川県横浜市西区北幸1-1-13","latitude":35.46696472167969,"longitude":139.62107849121094,"category":"オブジェ/公共施設","description":"地下街の換気塔","image_url":""},{"id":11188,"title":"CONIFER","architect":"DIG DESIGN","year":2017.0,"address":"神奈川県川崎市中原区新城1015 CONIFER","latitude":35.587646484375,"longitude":139.62815856933594,"category":"オフィスビル/テナントビル","description":"","image_url":""},{"id":11189,"title":"PERCH","architect":"DIG DESIGN","year":2018.0,"address":"東京都世田谷区祖師谷3-31-19","latitude":35.64401626586914,"longitude":139.60824584960938,"category":"店舗/住宅","description":"","image_url":""},{"id":11190,"title":"salon eden","architect":"DIG DESIGN","year":2012.0,"address":"東京都世田谷区赤堤4-32-10","latitude":35.663726806640625,"longitude":139.63870239257812,"category":"美容院","description":"内装設計","image_url":""},{"id":11191,"title":"un TesorO","architect":"DIG DESIGN","year":2014.0,"address":"神奈川県川崎市幸区南加瀬3-28-18","latitude":35.54322814941406,"longitude":139.6614227294922,"category":"美容院","description":"内装設計","image_url":""},{"id":11192,"title":"栗天","architect":"DIG DESIGN","year":2013.0,"address":"東京都世田谷区砧8-13-8","latitude":35.641700744628906,"longitude":139.60589599609375,"category":"レストラン","description":"","image_url":""},{"id":11193,"title":"京乃屋","architect":"DIG DESIGN","year":2017.0,"address":"神奈川県平塚市平塚2-18-18","latitude":35.33124923706055,"longitude":139.33827209472656,"category":"店舗","description":"","image_url":""},{"id":11194,"title":"蔵や 赤堤","architect":"DIG DESIGN","year":2014.0,"address":"東京都世田谷区赤堤1-12-14","latitude":35.654930114746094,"longitude":139.64437866210938,"category":"集合住宅","description":"","image_url":""},{"id":11195,"title":"流山市立小山小学校","architect":"佐藤総合計画","year":2008.0,"address":"千葉県流山市おおたかの森東2-5-3","latitude":35.8755989074707,"longitude":139.9314727783203,"category":"学校","description":"","image_url":""},{"id":11196,"title":"品川区立品川学園","architect":"佐藤総合計画","year":2011.0,"address":"東京都品川区北品川3-9-30","latitude":35.61793518066406,"longitude":139.7387237548828,"category":"学校","description":"","image_url":""},{"id":11197,"title":"江戸川区立第二葛西小学校","architect":"佐藤総合計画","year":2013.0,"address":"東京都江戸川区東葛西6-33-1","latitude":35.662288665771484,"longitude":139.87879943847656,"category":"学校","description":"","image_url":""},{"id":11198,"title":"中央学院大学中央高等学校","architect":"佐藤総合計画","year":2013.0,"address":"東京都江東区亀戸７-65-12","latitude":35.695865631103516,"longitude":139.83985900878906,"category":"学校","description":"","image_url":""},{"id":11199,"title":"Dタワー西新宿","architect":"日本設計+大成建設","year":2020.0,"address":"東京都新宿区西新宿6-11","latitude":35.6949348449707,"longitude":139.68983459472656,"category":"オフィスビル","description":"","image_url":""},{"id":11200,"title":"横瀬港史跡公園","architect":"原哲弘","year":2004.0,"address":"長崎県西海市西海町横瀬郷2920","latitude":33.081817626953125,"longitude":129.70327758789062,"category":"公園","description":"","image_url":""}]}