{"page":222,"total_pages":290,"items_per_page":50,"total_items":14467,"items":[{"id":11051,"title":"京都国際会館 アネックスホール","architect":"大谷幸夫","year":1998.0,"address":"京都府京都市左京区岩倉大鷺町422","latitude":35.06155776977539,"longitude":135.78172302246094,"category":"ホール・劇場","description":"","image_url":""},{"id":11052,"title":"金沢工業大学 工学設計棟 7号館","architect":"大谷幸夫","year":2000.0,"address":"石川県野々市市扇が丘7-1","latitude":36.53177261352539,"longitude":136.62823486328125,"category":"大学","description":"","image_url":""},{"id":11053,"title":"金沢工業大学 3号館","architect":"大谷幸夫","year":1976.0,"address":"石川県野々市市扇が丘7-1","latitude":36.53038024902344,"longitude":136.62710571289062,"category":"大学","description":"","image_url":""},{"id":11054,"title":"金沢工業大学 5号館","architect":"大谷幸夫","year":1976.0,"address":"石川県野々市市扇が丘7-1","latitude":36.5310173034668,"longitude":136.6284942626953,"category":"大学","description":"","image_url":""},{"id":11055,"title":"金沢工業大学 6号館 ライブラリセンター","architect":"大谷幸夫","year":1982.0,"address":"石川県野々市市扇が丘7-1","latitude":36.5315055847168,"longitude":136.62747192382812,"category":"大学","description":"","image_url":""},{"id":11056,"title":"天照皇大神宮教 東京道場","architect":"大谷幸夫","year":1978.0,"address":"東京都千代田区九段北4-3-18","latitude":35.693756103515625,"longitude":139.73928833007812,"category":"宗教施設","description":"","image_url":""},{"id":11057,"title":"天照皇大神宮教 山口道場","architect":"大谷幸夫","year":2008.0,"address":"山口県山口市平井188","latitude":34.16093063354492,"longitude":131.4678192138672,"category":"宗教施設","description":"","image_url":""},{"id":11058,"title":"生長の家 本部","architect":"岸田日出刀","year":1954.0,"address":"東京都渋谷区神宮前1-23-30","latitude":35.672603607177734,"longitude":139.7052001953125,"category":"宗教施設","description":"","image_url":""},{"id":11059,"title":"大石寺 宝物殿 旧富士美術館","architect":"横山公男","year":1973.0,"address":"静岡県富士宮市上条1954","latitude":35.28475570678711,"longitude":138.58926391601562,"category":"宗教施設","description":"","image_url":""},{"id":11060,"title":"チャボヒバホール","architect":"岡田哲史","year":2015.0,"address":"東京都立川市幸町4-17-1","latitude":35.72310256958008,"longitude":139.4292449951172,"category":"ホール・劇場","description":"","image_url":""},{"id":11061,"title":"富ヶ谷アパートメント","architect":"岡田哲史","year":2005.0,"address":"東京都渋谷区富ヶ谷2-44-8","latitude":35.66768264770508,"longitude":139.6863250732422,"category":"集合住宅","description":"","image_url":""},{"id":11062,"title":"烏森神社","architect":"郡菊夫","year":1971.0,"address":"東京都港区新橋2-9-11","latitude":35.666778564453125,"longitude":139.75680541992188,"category":"寺院","description":"","image_url":""},{"id":11063,"title":"北國パークビル","architect":"清水建設","year":2013.0,"address":"石川県金沢市南町6-15","latitude":36.56589126586914,"longitude":136.65414428710938,"category":"金融機関/駐車・駐輪場","description":"","image_url":""},{"id":11064,"title":"日本銀行 金沢支店","architect":"山下寿郎","year":1954.0,"address":"石川県金沢市香林坊2-3-28","latitude":36.563194274902344,"longitude":136.65333557128906,"category":"金融機関","description":"","image_url":""},{"id":11065,"title":"国立工芸館 旧陸軍第九師団司令部庁舎・旧陸軍金沢偕行社","architect":"陸軍省経理部+山岸建築設計","year":1898.0,"address":"石川県金沢市出羽町3-2","latitude":36.55904006958008,"longitude":136.6616973876953,"category":"博物館","description":"1898年竣工の旧第九師団司令部庁舎、1909年竣工の旧陸軍金沢偕行社を2020年に移築・復元。改修設計は山岸建築設計","image_url":""},{"id":11066,"title":"日本聖公会金沢聖ヨハネ教会・聖ヨハネ保育園","architect":"岡本義富","year":2017.0,"address":"石川県金沢市石引4-3-1","latitude":36.55841064453125,"longitude":136.66659545898438,"category":"教会/幼稚園","description":"","image_url":""},{"id":11067,"title":"金沢くらしの博物館 旧石川県第二中学校","architect":"山口孝吉","year":1899.0,"address":"石川県金沢市飛梅町3-31","latitude":36.55813980102539,"longitude":136.66806030273438,"category":"博物館/学校/洋館","description":"","image_url":""},{"id":11068,"title":"近江町いちば館","architect":"アール・アイ・エー","year":2009.0,"address":"石川県金沢市青草町88","latitude":36.57147979736328,"longitude":136.6557159423828,"category":"モール","description":"","image_url":""},{"id":11069,"title":"石黒ビル 旧石黒ファマシー本社","architect":"武田五一","year":1926.0,"address":"石川県金沢市尾張町1-10-5","latitude":36.5713005065918,"longitude":136.65992736816406,"category":"オフィスビル","description":"","image_url":""},{"id":11070,"title":"ギャラリー三田 旧三田商店","architect":"大林組","year":1930.0,"address":"石川県金沢市尾張町1-8-5","latitude":36.570945739746094,"longitude":136.66299438476562,"category":"洋館/ギャラリー","description":"","image_url":""},{"id":11071,"title":"ぱるふあん","architect":"天藤久雄","year":1976.0,"address":"兵庫県神戸市長田区北町2-63","latitude":34.66679000854492,"longitude":135.1519775390625,"category":"カフェ","description":"","image_url":""},{"id":11072,"title":"金沢港クルーズターミナル","architect":"浦建築研究所","year":2020.0,"address":"石川県金沢市無量寺町リ65","latitude":36.60798263549805,"longitude":136.614501953125,"category":"港","description":"","image_url":""},{"id":11073,"title":"能美ふるさとミュージアム","architect":"浦建築研究所","year":2020.0,"address":"石川県能美市寺井町1-1","latitude":36.44295883178711,"longitude":136.50599670410156,"category":"博物館","description":"","image_url":""},{"id":11074,"title":"のと九十九湾観光交流センター イカの駅つくモール","architect":"浦建築研究所","year":2020.0,"address":"石川県鳳珠郡能登町越坂18-1","latitude":37.31246566772461,"longitude":137.23052978515625,"category":"PA・道の駅","description":"","image_url":""},{"id":11075,"title":"のと里山里海ミュージアム・能登歴史公園センター","architect":"浦建築研究所","year":2018.0,"address":"石川県七尾市国分町","latitude":37.02394104003906,"longitude":136.95542907714844,"category":"博物館","description":"","image_url":""},{"id":11076,"title":"道の駅のと千里浜","architect":"浦建築研究所","year":2017.0,"address":"石川県羽咋市千里浜町タ1-62","latitude":36.885807037353516,"longitude":136.768798828125,"category":"PA・道の駅","description":"","image_url":""},{"id":11077,"title":"輪島塗会館","architect":"浦建築研究所","year":2015.0,"address":"石川県輪島市河井町24-55","latitude":37.39410400390625,"longitude":136.9001922607422,"category":"博物館","description":"","image_url":""},{"id":11078,"title":"金沢星稜大学 メディアライブラリー・キャリアデザイン館","architect":"浦建築研究所","year":2012.0,"address":"石川県金沢市御所町丑10-1","latitude":36.5838737487793,"longitude":136.68255615234375,"category":"大学/図書館","description":"","image_url":""},{"id":11079,"title":"明治神宮宝物殿","architect":"大江新太郎","year":1921.0,"address":"東京都渋谷区代々木神園町1-1","latitude":35.679988861083984,"longitude":139.69798278808594,"category":"博物館","description":"","image_url":""},{"id":11080,"title":"清明亭 旧長尾欽弥邸","architect":"大江新太郎","year":1931.0,"address":"東京都世田谷区深沢7-7-1","latitude":35.623748779296875,"longitude":139.64773559570312,"category":"和風住宅","description":"","image_url":""},{"id":11081,"title":"神田明神","architect":"大江新太郎+佐藤功一+伊東忠太","year":1934.0,"address":"東京都千代田区外神田2-16-2","latitude":35.70198440551758,"longitude":139.76788330078125,"category":"寺院","description":"設計顧問に伊東忠太","image_url":""},{"id":11082,"title":"高野山霊宝館宝蔵","architect":"大江新太郎","year":1920.0,"address":"和歌山県伊都郡高野町高野山306","latitude":34.21103286743164,"longitude":135.58091735839844,"category":"寺院","description":"","image_url":""},{"id":11083,"title":"厳島神社宝物館","architect":"大江新太郎","year":1934.0,"address":"広島県廿日市市宮島町1-1","latitude":34.29490280151367,"longitude":132.31863403320312,"category":"寺院/博物館","description":"","image_url":""},{"id":11084,"title":"能楽堂 京都観世会館","architect":"富家宏泰","year":1958.0,"address":"京都府京都市左京区岡崎円勝寺町44","latitude":35.01132583618164,"longitude":135.781494140625,"category":"ホール・劇場","description":"","image_url":""},{"id":11085,"title":"京都新聞社 本社","architect":"富家宏泰","year":1959.0,"address":"京都府京都市中京区少将井町239","latitude":35.01565933227539,"longitude":135.75990295410156,"category":"オフィスビル","description":"","image_url":""},{"id":11086,"title":"京都市北区総合庁舎 西庁舎 旧京都府歯科医師会館","architect":"富家宏泰","year":1962.0,"address":"京都府京都市北区紫野東御所田町33","latitude":35.04098129272461,"longitude":135.75350952148438,"category":"庁舎","description":"","image_url":""},{"id":11087,"title":"京都市立芸術大学 西京沓掛キャンパス","architect":"富家宏泰","year":1978.0,"address":"京都府京都市西京区大枝沓掛町13-6","latitude":34.97432327270508,"longitude":135.6637725830078,"category":"大学","description":"京都駅東に2023年移転","image_url":""},{"id":11088,"title":"京都市中京区総合庁舎","architect":"富家宏泰","year":1981.0,"address":"京都府京都市中京区御池下る西三坊堀川町521","latitude":35.010101318359375,"longitude":135.75140380859375,"category":"庁舎","description":"","image_url":""},{"id":11089,"title":"季がさね","architect":"富家宏泰","year":1973.0,"address":"石川県加賀市片山津温泉乙30-1","latitude":36.34584426879883,"longitude":136.36614990234375,"category":"旅館","description":"","image_url":""},{"id":11090,"title":"ZOZOマリンスタジアム","architect":"富家宏泰","year":1990.0,"address":"千葉県千葉市美浜区美浜1","latitude":35.64561462402344,"longitude":140.03140258789062,"category":"スタジアム","description":"","image_url":""},{"id":11091,"title":"辻本珈琲 本社ビル","architect":"奥和田健","year":2016.0,"address":"大阪府和泉市春木町1156-1","latitude":34.43825912475586,"longitude":135.4561309814453,"category":"カフェ/低層オフィス","description":"","image_url":""},{"id":11092,"title":"nomade.","architect":"奥和田健","year":2020.0,"address":"兵庫県加東市下滝野1277-86","latitude":34.9428825378418,"longitude":134.94732666015625,"category":"美容院/住宅","description":"","image_url":""},{"id":11093,"title":"浄土真宗本願寺派 福専寺 本堂","architect":"奥和田健","year":2011.0,"address":"大阪府大阪市阿倍野区昭和町2-5-14","latitude":34.63166809082031,"longitude":135.51910400390625,"category":"寺院","description":"","image_url":""},{"id":11094,"title":"古川紙工株式会社 新社屋","architect":"奥和田健","year":2014.0,"address":"岐阜県美濃市御手洗23","latitude":35.58120346069336,"longitude":136.8777313232422,"category":"低層オフィス","description":"","image_url":""},{"id":11095,"title":"C2 シクロ本社ビル","architect":"奥和田健","year":2017.0,"address":"大阪府大阪市西成区鶴見橋1-6-32","latitude":34.646568298339844,"longitude":135.49610900878906,"category":"低層オフィス/福祉センター","description":"","image_url":""},{"id":11096,"title":"修学院の家II 無光虹","architect":"高松伸","year":1985.0,"address":"京都府京都市左京区修学院烏丸町15-2","latitude":35.05318069458008,"longitude":135.7984161376953,"category":"カフェ/住宅","description":"","image_url":""},{"id":11097,"title":"こども本の森 神戸","architect":"安藤忠雄","year":2021.0,"address":"兵庫県神戸市中央区加納町6-1","latitude":34.68666076660156,"longitude":135.197021484375,"category":"図書館","description":"2022年3月開館予定","image_url":""},{"id":11098,"title":"旧鴻池組本店洋館・和館","architect":"久保田小三郎","year":1910.0,"address":"大阪府大阪市此花区伝法4-3-55","latitude":34.688724517822266,"longitude":135.45455932617188,"category":"洋館","description":"2022年4月から一般公開予定","image_url":""},{"id":11099,"title":"政策研究大学院大学","architect":"リチャード・ロジャース+山下設計","year":2005.0,"address":"東京都港区六本木7-22-1","latitude":35.663814544677734,"longitude":139.7272491455078,"category":"大学","description":"","image_url":""},{"id":11100,"title":"アネックス・テクノ2","architect":"宮崎一一","year":2000.0,"address":"岐阜県各務原市テクノプラザ1-21","latitude":35.42571258544922,"longitude":136.8915557861328,"category":"研究施設/公共施設","description":"","image_url":""}]}