{"page":7,"total_pages":290,"items_per_page":50,"total_items":14467,"items":[{"id":301,"title":"大宝館","architect":"不明","year":1915.0,"address":"山形県鶴岡市馬場町4-7","latitude":38.727542877197266,"longitude":139.82498168945312,"category":"洋館","description":"","image_url":""},{"id":302,"title":"鶴岡市中央児童館","architect":"高谷時彦","year":2000.0,"address":"山形県鶴岡市苗津町1-1","latitude":38.722328186035156,"longitude":139.83790588378906,"category":"児童施設","description":"","image_url":""},{"id":303,"title":"旧遠藤家住宅","architect":"不明","year":null,"address":"山形県鶴岡市田麦俣七ﾂ滝135","latitude":38.570228576660156,"longitude":139.92144775390625,"category":"古民家","description":"","image_url":""},{"id":304,"title":"天童市美術館","architect":"不明","year":null,"address":"山形県天童市老野森1-2-2","latitude":38.36332321166992,"longitude":140.37960815429688,"category":"美術館","description":"","image_url":""},{"id":305,"title":"天童市立旧東村山郡役所資料館","architect":"不明","year":1879.0,"address":"山形県天童市五日町2-4-8","latitude":38.3531608581543,"longitude":140.37245178222656,"category":"洋館","description":"","image_url":""},{"id":306,"title":"山形県白鷹町文化交流センターあゆーむ","architect":"本間利雄","year":2008.0,"address":"山形県西置賜郡白鷹町大字鮎貝7331","latitude":38.187503814697266,"longitude":140.0784454345703,"category":"総合文化施設","description":"","image_url":""},{"id":307,"title":"銀山温泉 共同浴場しろがね湯","architect":"隈研吾","year":2006.0,"address":"山形県尾花沢市銀山新畑北415-1","latitude":38.57094955444336,"longitude":140.53041076660156,"category":"温泉","description":"","image_url":""},{"id":308,"title":"銀山温泉 藤屋","architect":"隈研吾","year":2006.0,"address":"山形県尾花沢市銀山新畑443","latitude":38.5695686340332,"longitude":140.53099060058594,"category":"旅館","description":"","image_url":""},{"id":309,"title":"上杉記念館 旧上杉伯爵邸","architect":"中條精一郎","year":1925.0,"address":"山形県米沢市丸の内1-3-60","latitude":37.90764236450195,"longitude":140.10498046875,"category":"和風住宅","description":"","image_url":""},{"id":310,"title":"伝国の杜 置賜文化ホール","architect":"関・空間設計","year":2001.0,"address":"山形県米沢市丸の内1-2-1","latitude":37.907562255859375,"longitude":140.1066436767578,"category":"博物館","description":"","image_url":""},{"id":311,"title":"山形大学工学部 創立100周年記念会館","architect":"高宮眞介","year":2010.0,"address":"山形県米沢市城南4-3-16","latitude":37.899879455566406,"longitude":140.1041717529297,"category":"大学","description":"","image_url":""},{"id":312,"title":"いけの産婦人科小児科医院","architect":"八重樫直人","year":2002.0,"address":"宮城県塩竈市藤倉3-17-5","latitude":38.32696533203125,"longitude":141.02978515625,"category":"個人医院","description":"","image_url":""},{"id":313,"title":"菅野美術館","architect":"阿部仁史","year":2005.0,"address":"宮城県塩竈市玉川3-4-15","latitude":38.311397552490234,"longitude":141.0055694580078,"category":"美術館","description":"1/4～営業　月曜日休館","image_url":"https://farm9.staticflickr.com/8267/8907708633_b4872e5261_h.jpg"},{"id":314,"title":"ふれあいエスプ塩竃","architect":"長谷川逸子","year":1999.0,"address":"宮城県塩竈市東玉川町9-1","latitude":38.310333251953125,"longitude":141.0108184814453,"category":"総合文化施設","description":"","image_url":"https://farm4.staticflickr.com/3729/8907929940_9c1aa7d152_h.jpg"},{"id":315,"title":"長井勝一漫画美術館","architect":"長谷川逸子","year":1999.0,"address":"宮城県塩竈市東玉川町9-1","latitude":38.31020736694336,"longitude":141.01083374023438,"category":"博物館","description":"","image_url":""},{"id":316,"title":"丸森町 齋理屋敷","architect":"針生承一","year":null,"address":"宮城県伊具郡丸森町町西25","latitude":37.913597106933594,"longitude":140.76187133789062,"category":"古民家","description":"","image_url":""},{"id":317,"title":"気仙沼市総合市民福祉センター やすらぎ","architect":"針生承一","year":1999.0,"address":"宮城県気仙沼市錦町2-5-10","latitude":38.91341781616211,"longitude":141.58509826660156,"category":"福祉センター","description":"","image_url":""},{"id":318,"title":"リアスアーク美術館","architect":"石山修武","year":1994.0,"address":"宮城県気仙沼市赤岩牧沢138-5","latitude":38.88098907470703,"longitude":141.5498504638672,"category":"美術館","description":"","image_url":"https://farm6.staticflickr.com/5342/8921924907_aef4354a42_h.jpg"},{"id":319,"title":"気仙沼市総合体育館 ケー・ウエーブ","architect":"INA新建築研究所","year":1998.0,"address":"宮城県気仙沼市赤岩牧沢44-180","latitude":38.880958557128906,"longitude":141.55230712890625,"category":"体育館","description":"","image_url":"https://lh3.googleusercontent.com/-JraLjAzPdd4/UQI2-_Anf9I/AAAAAAAAzyU/DJ_0CioPLIk/s1024/lr-1175176.jpg"},{"id":320,"title":"金成歴史民俗資料館 旧金成尋常小学校","architect":"不明","year":null,"address":"宮城県栗原市金成中町7","latitude":38.811187744140625,"longitude":141.07379150390625,"category":"博物館/学校","description":"","image_url":""},{"id":321,"title":"みちのく風土館","architect":"阿部仁史","year":2000.0,"address":"宮城県栗原市栗駒岩ヶ崎上町裏12-1","latitude":38.82973861694336,"longitude":140.98974609375,"category":"博物館","description":"","image_url":""},{"id":322,"title":"宮城県迫桜高等学校","architect":"シーラカンスアンドアソシエイツ","year":2001.0,"address":"宮城県栗原市志波姫伊豆野颯壁184","latitude":38.77073287963867,"longitude":141.11854553222656,"category":"学校","description":"","image_url":""},{"id":323,"title":"七ヶ浜スポーツセンター　アクアリーナ","architect":"針生承一","year":1998.0,"address":"宮城県宮城郡七ヶ浜町吉田浜字野山5-1","latitude":38.302486419677734,"longitude":141.0641326904297,"category":"プール/体育館","description":"","image_url":""},{"id":324,"title":"七ヶ浜町立遠山保育所","architect":"髙橋一平","year":2013.0,"address":"宮城県宮城郡七ヶ浜町遠山4-3-15","latitude":38.30093002319336,"longitude":141.0376739501953,"category":"幼稚園","description":"","image_url":""},{"id":325,"title":"七ヶ浜国際村","architect":"針生承一","year":1993.0,"address":"宮城県宮城郡七ヶ浜町花渕浜大山1-1","latitude":38.298431396484375,"longitude":141.0675811767578,"category":"ホール・劇場","description":"","image_url":"https://farm4.staticflickr.com/3777/8928175733_d648b19473_h.jpg"},{"id":326,"title":"松島ヨットハーバー・公園管理事務所","architect":"阿部仁史","year":2000.0,"address":"宮城県松島町松島字浪打浜24","latitude":38.36634063720703,"longitude":141.06068420410156,"category":"公共施設/港","description":"","image_url":""},{"id":327,"title":"松島さかな市場","architect":"石山修武","year":1997.0,"address":"宮城県宮城郡松島町松島普賢堂4-10","latitude":38.371944427490234,"longitude":141.06517028808594,"category":"店舗/モール","description":"","image_url":""},{"id":328,"title":"こもれびの降る丘 遊楽館","architect":"久米設計","year":2005.0,"address":"宮城県石巻市北村字前山15-1","latitude":38.50110626220703,"longitude":141.19667053222656,"category":"総合文化施設","description":"","image_url":""},{"id":329,"title":"石ノ森萬画館","architect":"日本設計","year":2001.0,"address":"宮城県石巻市中瀬2-7","latitude":38.42966842651367,"longitude":141.31069946289062,"category":"博物館","description":"","image_url":""},{"id":330,"title":"道の駅 上品の郷","architect":"関・空間設計","year":2005.0,"address":"宮城県石巻市小船越二子北下1-1","latitude":38.501060485839844,"longitude":141.29541015625,"category":"PA・道の駅","description":"","image_url":""},{"id":331,"title":"旧石巻ハリストス正教会教会堂","architect":"不明","year":1880.0,"address":"宮城県石巻市中瀬3-18","latitude":38.42914581298828,"longitude":141.3111114501953,"category":"洋館","description":"中瀬公園内","image_url":""},{"id":332,"title":"慶長使節船ミュージアム","architect":"石井和紘","year":1996.0,"address":"宮城県石巻市渡波大森30-2","latitude":38.409236907958984,"longitude":141.36953735351562,"category":"博物館","description":"休館中も2013年秋に再開","image_url":""},{"id":333,"title":"水の洞窟 北上川運河交流館","architect":"隈研吾","year":1999.0,"address":"宮城県石巻市水押3-66-69","latitude":38.44647216796875,"longitude":141.2919921875,"category":"観光施設","description":"震災で被災","image_url":"https://farm3.staticflickr.com/2871/8910007676_f397515499_h.jpg"},{"id":334,"title":"仙台北部整形外科スポーツクリニック","architect":"八重樫直人","year":2009.0,"address":"宮城県仙台市泉区大沢2-13-4","latitude":38.351158142089844,"longitude":140.87716674804688,"category":"個人医院","description":"","image_url":""},{"id":335,"title":"仙台広瀬河畔教会納骨堂記念碑","architect":"象設計集団","year":1983.0,"address":"宮城県仙台市青葉区北山1-17","latitude":38.28461456298828,"longitude":140.8574981689453,"category":"教会","description":"","image_url":""},{"id":336,"title":"PL教団仙台中央教会","architect":"象設計集団","year":1980.0,"address":"宮城県仙台市青葉区国分町3-11-23","latitude":38.26761245727539,"longitude":140.86642456054688,"category":"宗教施設","description":"","image_url":""},{"id":337,"title":"仙台市宮城野区のみんなの家","architect":"伊東豊雄+桂英昭+末廣香織+曽我部昌史","year":2012.0,"address":"宮城県仙台市宮城野区福田町南1-7-1","latitude":38.25935363769531,"longitude":140.96090698242188,"category":"公民館・交流施設","description":"","image_url":""},{"id":338,"title":"FRP Ftownビル","architect":"阿部仁史","year":2007.0,"address":"宮城県仙台市宮城野区榴岡4-5-12","latitude":38.258460998535156,"longitude":140.88621520996094,"category":"オフィスビル","description":"","image_url":""},{"id":339,"title":"東北大学 青葉山東キャンパスセンタースクエア／中央棟・ブックカフェ棟","architect":"山本・堀アーキテクツ","year":2011.0,"address":"宮城県仙台市青葉区荒巻字青葉6-6","latitude":38.25434494018555,"longitude":140.84042358398438,"category":"大学","description":"","image_url":""},{"id":340,"title":"東北大学 創造工学センター「発明工房」","architect":"八重樫直人","year":2001.0,"address":"宮城県仙台市青葉区片平2-1-1","latitude":38.25244140625,"longitude":140.87322998046875,"category":"大学","description":"","image_url":""},{"id":341,"title":"S・Sレディースクリニック","architect":"八重樫直人","year":2002.0,"address":"宮城県仙台市泉区上谷刈大平東3-7","latitude":38.31095504760742,"longitude":140.85316467285156,"category":"個人医院","description":"","image_url":""},{"id":342,"title":"仙台ホサナ教会納骨堂","architect":"象設計集団","year":1984.0,"address":"宮城県仙台市青葉区北山1-17","latitude":38.28472900390625,"longitude":140.85748291015625,"category":"教会","description":"","image_url":""},{"id":343,"title":"三居沢電気百年館","architect":"不明","year":null,"address":"宮城県仙台市青葉区荒巻字三居沢16","latitude":38.26707458496094,"longitude":140.8402099609375,"category":"洋館","description":"","image_url":""},{"id":344,"title":"東京エレクトロンホール 宮城県民会館","architect":"山下寿郎","year":1964.0,"address":"宮城県仙台市青葉区国分町3-3-7","latitude":38.26591491699219,"longitude":140.86773681640625,"category":"ホール・劇場","description":"","image_url":""},{"id":345,"title":"BEEPビル 仙台市市民活動サポートセンター","architect":"原広司","year":1989.0,"address":"宮城県仙台市青葉区一番町4-1-3","latitude":38.26296615600586,"longitude":140.8727569580078,"category":"オフィスビル","description":"","image_url":""},{"id":346,"title":"仙台市歴史民俗資料館 旧歩兵第四連隊兵舎","architect":"不明","year":1874.0,"address":"宮城県仙台市宮城野区五輪1-3-7","latitude":38.2609748840332,"longitude":140.8983154296875,"category":"洋館","description":"","image_url":""},{"id":347,"title":"東北大学 川内厚生会館","architect":"針生承一","year":2010.0,"address":"宮城県仙台市青葉区川内27-1","latitude":38.25760269165039,"longitude":140.8526611328125,"category":"大学","description":"","image_url":""},{"id":348,"title":"仙台市天文台","architect":"NTTファシリティーズ","year":2008.0,"address":"宮城県仙台市青葉区錦ヶ丘9-29-32","latitude":38.25687789916992,"longitude":140.75537109375,"category":"博物館","description":"","image_url":""},{"id":349,"title":"せんだい演劇工房10-BOX","architect":"八重樫直人","year":2002.0,"address":"宮城県仙台市若林区卸町2-12-9","latitude":38.25559616088867,"longitude":140.92649841308594,"category":"ホール・劇場","description":"","image_url":""},{"id":350,"title":"八木山動物公園ビジターセンター","architect":"針生承一","year":2010.0,"address":"宮城県仙台市太白区八木山本町1-43","latitude":38.24403762817383,"longitude":140.84266662597656,"category":"動植物園","description":"","image_url":""}]}