{"page":172,"total_pages":290,"items_per_page":50,"total_items":14467,"items":[{"id":8551,"title":"西村屋 平田館","architect":"平田雅哉","year":1960.0,"address":"兵庫県豊岡市城崎町湯島469","latitude":35.625579833984375,"longitude":134.8053741455078,"category":"旅館","description":"","image_url":""},{"id":8552,"title":"城崎町文芸館 KINOBUN","architect":"共同設計","year":1996.0,"address":"兵庫県豊岡市城崎町湯島357-1","latitude":35.62522888183594,"longitude":134.81072998046875,"category":"博物館","description":"","image_url":""},{"id":8553,"title":"芦原温泉 つるや","architect":"平田雅哉","year":null,"address":"福井県あわら市温泉4-601","latitude":36.22488784790039,"longitude":136.19277954101562,"category":"旅館","description":"","image_url":""},{"id":8554,"title":"大観荘 旧中山悦治熱海別邸","architect":"平田雅哉+村野藤吾","year":1940.0,"address":"静岡県熱海市林ガ丘町7-1","latitude":35.102333068847656,"longitude":139.07411193847656,"category":"旅館","description":"旧中山悦治別邸。1940年竣工後、1949年増改装。本館は村野と平田の共同設計。増築された部分は平田の単独設計","image_url":""},{"id":8555,"title":"俣野別邸","architect":"佐藤秀三","year":1939.0,"address":"神奈川県横浜市戸塚区東俣野町80-1","latitude":35.360294342041016,"longitude":139.49241638183594,"category":"洋館","description":"当時の図面を元に2016年に再建","image_url":""},{"id":8556,"title":"嬬恋プリンスホテル 本館","architect":"佐藤秀三","year":1975.0,"address":"群馬県吾妻郡吾妻郡嬬恋村 嬬恋高原","latitude":36.554954528808594,"longitude":138.54476928710938,"category":"ホテル","description":"","image_url":""},{"id":8557,"title":"十和田プリンスホテル","architect":"佐藤秀三","year":1977.0,"address":"秋田県鹿角郡小坂町十和田湖大川岱65-1","latitude":40.453269958496094,"longitude":140.84249877929688,"category":"ホテル","description":"","image_url":""},{"id":8558,"title":"日光プリンスホテル","architect":"佐藤秀三","year":1976.0,"address":"栃木県日光市中宮祠2485","latitude":36.752689361572266,"longitude":139.44871520996094,"category":"ホテル","description":"閉業中も建築自体は現存。2019年以降に会員制ホテルとして再開する可能性","image_url":""},{"id":8559,"title":"くさつシティアリーナ YMITアリーナ","architect":"綜企画設計","year":2019.0,"address":"滋賀県草津市野村3-3-27","latitude":35.02445602416992,"longitude":135.952392578125,"category":"体育館","description":"","image_url":""},{"id":8560,"title":"筑後広域公園プール","architect":"梓設計","year":2016.0,"address":"福岡県みやま市瀬高町本郷2655","latitude":33.177425384521484,"longitude":130.48529052734375,"category":"プール","description":"","image_url":""},{"id":8561,"title":"犬山市体育館","architect":"梓設計","year":2016.0,"address":"愛知県犬山市大字羽黒竹ノ腰17-2","latitude":35.357086181640625,"longitude":136.95155334472656,"category":"体育館","description":"","image_url":""},{"id":8562,"title":"金沢プール","architect":"梓設計","year":2016.0,"address":"石川県金沢市磯部町ハ55","latitude":36.596923828125,"longitude":136.65988159179688,"category":"プール","description":"","image_url":""},{"id":8563,"title":"俵山多目的交流広場","architect":"梓設計","year":2018.0,"address":"山口県長門市長門市俵山1356","latitude":34.28476333618164,"longitude":131.10244750976562,"category":"スポーツ施設/クラブハウス","description":"","image_url":""},{"id":8564,"title":"由利本荘アリーナ ナイスアリーナ","architect":"梓設計","year":2018.0,"address":"秋田県由利本荘市石脇字田尻野18","latitude":39.39879608154297,"longitude":140.03321838378906,"category":"体育館","description":"","image_url":""},{"id":8565,"title":"岸和田市立福祉総合センター","architect":"梓設計","year":2018.0,"address":"大阪府岸和田市野田町1-5-5","latitude":34.45889663696289,"longitude":135.37860107421875,"category":"福祉センター","description":"","image_url":""},{"id":8566,"title":"ほっとアリーナ妙高高原","architect":"梓設計","year":2016.0,"address":"新潟県妙高市大字関川958","latitude":36.86608123779297,"longitude":138.19943237304688,"category":"プール/体育館","description":"","image_url":""},{"id":8567,"title":"甲賀市庁舎","architect":"梓設計","year":2018.0,"address":"滋賀県甲賀市水口町水口6053","latitude":34.966068267822266,"longitude":136.16635131835938,"category":"庁舎","description":"","image_url":""},{"id":8568,"title":"伊丹ガーデンズクリニック","architect":"梓設計","year":2016.0,"address":"兵庫県伊丹市鴻池6-22-20","latitude":34.79880142211914,"longitude":135.3838653564453,"category":"病院","description":"","image_url":""},{"id":8569,"title":"AD-O 渋谷道玄坂","architect":"隈研吾","year":2017.0,"address":"東京都渋谷区道玄坂1-22-9","latitude":35.656192779541016,"longitude":139.69557189941406,"category":"オフィスビル","description":"","image_url":""},{"id":8570,"title":"マザーハウス e.本店","architect":"藤森照信","year":2019.0,"address":"東京都台東区台東1-10-6 サワビル1F","latitude":35.701324462890625,"longitude":139.77590942382812,"category":"店舗","description":"8/21オープン。藤森照信によるショップデザイン","image_url":""},{"id":8571,"title":"浜田醤油","architect":"隈研吾","year":2019.0,"address":"熊本県熊本市西区小島6-9-1","latitude":32.77717208862305,"longitude":130.63595581054688,"category":"店舗/カフェ","description":"","image_url":""},{"id":8572,"title":"日貫一日 安田邸","architect":"ドットアーキテクツ+清水徹","year":2019.0,"address":"島根県邑智郡邑南町日貫3376","latitude":34.884521484375,"longitude":132.35928344726562,"category":"コテージ/古民家","description":"ディレクションとしてUMA/design farm","image_url":""},{"id":8573,"title":"日貫一日 一揖","architect":"加藤正基","year":2019.0,"address":"島根県邑智郡邑南町日貫3376","latitude":34.884605407714844,"longitude":132.35836791992188,"category":"コテージ/古民家","description":"ディレクションとしてUMA/design farm","image_url":""},{"id":8574,"title":"コエ・ドーナツ京都","architect":"隈研吾","year":2019.0,"address":"京都府京都市中京区中之町557","latitude":35.00424575805664,"longitude":135.7672576904297,"category":"店舗","description":"","image_url":""},{"id":8575,"title":"谷口吉郎・吉生記念 金沢建築館","architect":"谷口吉生","year":2019.0,"address":"石川県金沢市寺町5-1-18","latitude":36.5557861328125,"longitude":136.65084838867188,"category":"博物館","description":"","image_url":""},{"id":8576,"title":"六甲の集合住宅I ザ・六甲アパートメント","architect":"安藤忠雄","year":1983.0,"address":"兵庫県神戸市灘区篠原北町3-14-12","latitude":34.7248649597168,"longitude":135.22731018066406,"category":"集合住宅","description":"六甲の集合住宅第一期","image_url":""},{"id":8577,"title":"六甲の集合住宅III ジークレフ六甲の丘","architect":"安藤忠雄","year":1999.0,"address":"兵庫県神戸市灘区篠原伯母野山町2-3","latitude":34.72614669799805,"longitude":135.2281494140625,"category":"集合住宅","description":"六甲の集合住宅第三期","image_url":""},{"id":8578,"title":"六甲の集合住宅IV コンフォートヒルズ六甲・神戸海星病院","architect":"安藤忠雄","year":2009.0,"address":"兵庫県神戸市灘区篠原北町3-11-15","latitude":34.7239875793457,"longitude":135.22569274902344,"category":"病院/養護施設","description":"病院、及び老人ホーム","image_url":""},{"id":8579,"title":"大淀のアトリエ・アネックス ","architect":"安藤忠雄","year":1995.0,"address":"大阪府大阪市北区豊崎2-6-4","latitude":34.710472106933594,"longitude":135.50186157226562,"category":"低層オフィス","description":"安藤忠雄建築研究所の向かい側にある事務所","image_url":""},{"id":8580,"title":"サン・オークスビルII","architect":"安藤忠雄","year":1992.0,"address":"大阪府大阪市北区豊崎2-5-25","latitude":34.710350036621094,"longitude":135.5016632080078,"category":"オフィスビル","description":"","image_url":""},{"id":8581,"title":"サン・オークスビルI","architect":"安藤忠雄","year":1990.0,"address":"大阪府大阪市北区豊崎2-10-17","latitude":34.71156692504883,"longitude":135.5019989013672,"category":"オフィスビル","description":"","image_url":""},{"id":8582,"title":"ナガレスタジオ　流政之美術館","architect":"流政之","year":1966.0,"address":"香川県高松市庵治3183-1","latitude":34.36976623535156,"longitude":134.1590576171875,"category":"美術館/住宅","description":"流政之のアトリエを美術館に改修・公開。2019年9月より公開。要事前予約。一般5000円。流政之が設計に携わる、との記述があるためとりあえず流政之名義にしてあります。","image_url":""},{"id":8583,"title":"スヌーピーミュージアム","architect":"レジファインクリエイト","year":2019.0,"address":"東京都町田市鶴間3-4-1","latitude":35.510032653808594,"longitude":139.4693145751953,"category":"美術館","description":"2019年9月オープン予定","image_url":""},{"id":8584,"title":"北区立中央図書館","architect":"佐藤総合計画","year":2008.0,"address":"東京都北区十条台1-2-5","latitude":35.75623321533203,"longitude":139.7290802001953,"category":"図書館","description":"元は1919年竣工の陸軍造兵廠軍用工場。2008年に増築・改修し図書館としてオープン","image_url":""},{"id":8585,"title":"鷺の宮住宅 テラスハウス","architect":"前川國男","year":1958.0,"address":"東京都中野区白鷺1-11","latitude":35.71818161010742,"longitude":139.6376495361328,"category":"集合住宅","description":"","image_url":""},{"id":8586,"title":"茶室ryokan asakusa","architect":"前田圭介","year":2019.0,"address":"東京都台東区浅草3-32-12","latitude":35.717201232910156,"longitude":139.7973175048828,"category":"ホテル","description":"","image_url":""},{"id":8587,"title":"大田区立勝海舟記念館 旧清明文庫","architect":"佐藤総合計画","year":2019.0,"address":"東京都大田区南千束2-3-1","latitude":35.60210037231445,"longitude":139.69227600097656,"category":"博物館","description":"旧清明文庫は1928年に竣工（設計者不詳）、その後勝海舟記念館として増築","image_url":""},{"id":8588,"title":"のしろこども園","architect":"中永勇司","year":2016.0,"address":"石川県小松市北浅井町1号25","latitude":36.38877868652344,"longitude":136.46331787109375,"category":"幼稚園","description":"","image_url":""},{"id":8589,"title":"町家旅館 群青の月","architect":"中永勇司","year":2019.0,"address":"石川県金沢市野町2-33-19-1","latitude":36.558128356933594,"longitude":136.64801025390625,"category":"旅館","description":"","image_url":""},{"id":8590,"title":"コッコレかないわ","architect":"中永勇司","year":2017.0,"address":"石川県金沢市金石西1-2-15","latitude":36.598793029785156,"longitude":136.59043884277344,"category":"モール/店舗/レストラン","description":"","image_url":""},{"id":8591,"title":"TSI新社屋","architect":"中永勇司","year":2015.0,"address":"石川県金沢市藤江北1-566","latitude":36.587703704833984,"longitude":136.6232452392578,"category":"低層オフィス","description":"","image_url":""},{"id":8592,"title":"ナインアワーズ中洲川端駅","architect":"成瀬・猪熊建築設計事務所","year":2019.0,"address":"福岡県福岡市博多区下川端町3-1 B1F","latitude":33.59500503540039,"longitude":130.406005859375,"category":"ホテル","description":"","image_url":""},{"id":8593,"title":"神石インターナショナルスクール","architect":"A Nomad Sub","year":2019.0,"address":"広島県神石郡神石高原町時安5090","latitude":34.68000030517578,"longitude":133.31114196777344,"category":"学校","description":"2020年開校予定","image_url":""},{"id":8594,"title":"那須塩原まちなか交流センター くるる","architect":"藤原徹平+針谷將史","year":2019.0,"address":"栃木県那須塩原市本町6-32","latitude":36.97065353393555,"longitude":140.057373046875,"category":"公民館・交流施設","description":"","image_url":""},{"id":8595,"title":"リアージュ砧テラス","architect":"南條洋雄+芦沢啓治","year":2019.0,"address":"東京都世田谷区砧1-3237-1","latitude":35.6397590637207,"longitude":139.61862182617188,"category":"集合住宅","description":"メゾネット型集合住宅を一棟型分譲マンションとしてリノベーション","image_url":""},{"id":8596,"title":"artim コンセプトハウス駒沢","architect":"芦沢啓治","year":2016.0,"address":"東京都世田谷区駒沢5-8 駒沢公園ハウジングギャラリー Stage2","latitude":35.62318420410156,"longitude":139.65878295898438,"category":"住宅","description":"住宅展示場にあるコンセプトハウス","image_url":""},{"id":8597,"title":"奈良文化財研究所 飛鳥資料館","architect":"谷口吉郎","year":1975.0,"address":"奈良県高市郡明日香村大字奥山601","latitude":34.484352111816406,"longitude":135.82498168945312,"category":"博物館","description":"","image_url":""},{"id":8598,"title":"堀口珈琲 横浜ロースタリー","architect":"高塚章夫","year":2019.0,"address":"神奈川県横浜市中区新山下3-11-42","latitude":35.43937301635742,"longitude":139.66261291503906,"category":"工場","description":"販売・カフェ等は設置していないが今後見学イベントなどを開催予定","image_url":""},{"id":8599,"title":"シェラトン都ホテル東京","architect":"ミノル・ヤマサキ+村野藤吾+大林組","year":1979.0,"address":"東京都港区白金台1-1-50","latitude":35.639366149902344,"longitude":139.7303466796875,"category":"ホテル","description":"設計をミノル・ヤマサキ、内装・日本庭園を村野藤吾が担当","image_url":""},{"id":8600,"title":"FUJIHIMURO","architect":"坂牛卓","year":2019.0,"address":"山梨県富士吉田市富士見1-1-5","latitude":35.49614334106445,"longitude":138.80714416503906,"category":"ギャラリー","description":"旧富士製氷工場の隣にある氷室をギャラリーとして改修","image_url":""}]}