{"page":97,"total_pages":290,"items_per_page":50,"total_items":14467,"items":[{"id":4801,"title":"近鉄志摩線 賢島駅駅舎","architect":"村野藤吾","year":1970.0,"address":"三重県志摩市阿児町神明747-17","latitude":34.308677673339844,"longitude":136.818603515625,"category":"駅","description":"","image_url":""},{"id":4802,"title":"アール・エフ・ヤマカワ・アネックス","architect":"設計組織ADH","year":1992.0,"address":"三重県津市戸木町5141-23","latitude":34.68159103393555,"longitude":136.43801879882812,"category":"低層オフィス","description":"","image_url":""},{"id":4803,"title":"イオン桑名 旧マイカル桑名","architect":"ジョン・ジャーディ+大林組","year":1995.0,"address":"三重県桑名市新西方1-22","latitude":35.072383880615234,"longitude":136.66224670410156,"category":"モール","description":"","image_url":""},{"id":4804,"title":"川口皮フ科医院","architect":"米田明","year":2007.0,"address":"三重県名張市桔梗が丘3番町1街区31","latitude":34.643463134765625,"longitude":136.1162109375,"category":"個人医院","description":"","image_url":""},{"id":4805,"title":"宮田眼科","architect":"内藤廣","year":2010.0,"address":"愛知県犬山市松本町4-111","latitude":35.37957763671875,"longitude":136.95010375976562,"category":"個人医院","description":"","image_url":""},{"id":4806,"title":"セントライズ栄","architect":"安藤忠雄+三菱地所","year":2010.0,"address":"愛知県名古屋市中区栄3-3-21","latitude":35.1679801940918,"longitude":136.9054412841797,"category":"オフィスビル/テナントビル","description":"","image_url":""},{"id":4807,"title":"Akebono Central Pier","architect":"大江匡","year":2008.0,"address":"愛知県豊田市大林町3-13","latitude":35.05121994018555,"longitude":137.1366424560547,"category":"低層オフィス","description":"","image_url":""},{"id":4808,"title":"NKR","architect":"ヨコミゾマコト","year":2007.0,"address":"愛知県日進市竹の山3-415","latitude":35.149539947509766,"longitude":137.03553771972656,"category":"レストラン","description":"レストランは閉鎖","image_url":""},{"id":4809,"title":"NAGOYA FLAT","architect":"クライン・ダイサム・アーキテクツ","year":2004.0,"address":"愛知県名古屋市中区栄3-23-24","latitude":35.163936614990234,"longitude":136.90377807617188,"category":"集合住宅/テナントビル","description":"","image_url":""},{"id":4810,"title":"犬山ローレライ麦酒館","architect":"黒川紀章","year":1998.0,"address":"愛知県犬山市羽黒成海郷70","latitude":35.34596633911133,"longitude":136.9456024169922,"category":"醸造所/レストラン","description":"","image_url":""},{"id":4811,"title":"名古屋大学博物館 旧古川記念館","architect":"谷口吉郎","year":1964.0,"address":"愛知県名古屋市千種区高峯町 古川記念館","latitude":35.15301513671875,"longitude":136.9669647216797,"category":"博物館","description":"","image_url":""},{"id":4812,"title":"扶桑文化会館","architect":"山崎泰孝","year":1995.0,"address":"愛知県丹羽郡扶桑町高雄福塚200","latitude":35.36223602294922,"longitude":136.9107208251953,"category":"ホール・劇場","description":"","image_url":""},{"id":4813,"title":"善光寺別院願王寺","architect":"山崎泰孝","year":1977.0,"address":"愛知県名古屋市西区中小田井1-377","latitude":35.213104248046875,"longitude":136.87855529785156,"category":"寺院","description":"","image_url":""},{"id":4814,"title":"損保ジャパン日本興亜名古屋ビル","architect":"黒川紀章","year":1989.0,"address":"愛知県名古屋市中区丸の内3-22-21","latitude":35.17389678955078,"longitude":136.90362548828125,"category":"オフィスビル","description":"","image_url":""},{"id":4815,"title":"伊勢木本社ビル","architect":"竹山聖","year":1992.0,"address":"愛知県名古屋市中区栄3-25-17","latitude":35.163970947265625,"longitude":136.90565490722656,"category":"オフィスビル","description":"","image_url":""},{"id":4816,"title":"アクアイグニス","architect":"赤坂知也+平野信義","year":2012.0,"address":"三重県三重郡菰野町菰野4800-1","latitude":35.01338577270508,"longitude":136.48260498046875,"category":"ホテル/温泉/複合施設","description":"","image_url":""},{"id":4817,"title":"住田町新役場","architect":"中居敬一都市建築設計+松永安光+前田建設工業+長谷川建設","year":2014.0,"address":"岩手県気仙郡住田町世田米字川向96-1","latitude":39.14189910888672,"longitude":141.57601928710938,"category":"庁舎","description":"","image_url":""},{"id":4818,"title":"たがわこどもセンター「まいまい」","architect":"塩塚隆生","year":2014.0,"address":"福岡県田川市大字伊田2744-2","latitude":33.636104583740234,"longitude":130.8109588623047,"category":"幼稚園","description":"","image_url":""},{"id":4819,"title":"尾張大国霊神社 儺追殿","architect":"木内修","year":2014.0,"address":"愛知県稲沢市国府宮1-1-1","latitude":35.256141662597656,"longitude":136.80517578125,"category":"寺院","description":"","image_url":""},{"id":4820,"title":"閖上わかばこども園 旧美田園わかば幼稚園","architect":"石原健也+石森史寛","year":2014.0,"address":"宮城県名取市美田園6-16-10","latitude":38.15753173828125,"longitude":140.91500854492188,"category":"幼稚園","description":"","image_url":""},{"id":4821,"title":"DNP創発の杜 箱根研修センター","architect":"石原健也","year":2009.0,"address":"神奈川県足柄下郡箱根町仙石原1245-51","latitude":35.247467041015625,"longitude":139.00411987304688,"category":"研修施設","description":"","image_url":""},{"id":4822,"title":"メディケア梅の園","architect":"石原健也","year":1999.0,"address":"東京都青梅市駒木町3-594-1","latitude":35.78144073486328,"longitude":139.251708984375,"category":"養護施設","description":"","image_url":""},{"id":4823,"title":"多摩リハビリテーション学院","architect":"石原健也","year":1996.0,"address":"東京都青梅市根ヶ布1-642-1","latitude":35.79613494873047,"longitude":139.26963806152344,"category":"専門学校","description":"","image_url":""},{"id":4824,"title":"りすのき保育園","architect":"石原健也","year":2009.0,"address":"東京都多摩市唐木田1-8-2","latitude":35.61479949951172,"longitude":139.4092559814453,"category":"幼稚園","description":"","image_url":""},{"id":4825,"title":"広島医師会館","architect":"日建設計","year":1969.0,"address":"広島県広島市西区観音本町1-1-1","latitude":34.38801193237305,"longitude":132.44007873535156,"category":"組合施設","description":"","image_url":""},{"id":4826,"title":"NTT西日本十日市ビル","architect":"山田守","year":1937.0,"address":"広島県広島市中区西十日市町10-15","latitude":34.3964958190918,"longitude":132.4471435546875,"category":"低層オフィス/企業施設","description":"","image_url":""},{"id":4827,"title":"徳應寺","architect":"木村俊雄","year":1955.0,"address":"広島県広島市中区寺町4-25","latitude":34.40269470214844,"longitude":132.44969177246094,"category":"寺院","description":"","image_url":""},{"id":4828,"title":"広島県立美術館","architect":"日建設計","year":1996.0,"address":"広島県広島市中区上幟町2-22","latitude":34.399879455566406,"longitude":132.46624755859375,"category":"美術館","description":"","image_url":""},{"id":4829,"title":"広島逓信病院旧外来棟 被爆資料室","architect":"山田守","year":1935.0,"address":"広島県広島市中区東白島町19-16","latitude":34.40306854248047,"longitude":132.46450805664062,"category":"博物館/病院","description":"","image_url":""},{"id":4830,"title":"広島県庁舎","architect":"日建設計","year":1956.0,"address":"広島県広島市中区基町10-52","latitude":34.396034240722656,"longitude":132.4595947265625,"category":"庁舎","description":"","image_url":""},{"id":4831,"title":"福屋百貨店","architect":"渡辺仁","year":1938.0,"address":"広島県広島市中区胡町6-26","latitude":34.393531799316406,"longitude":132.46255493164062,"category":"モール/店舗","description":"","image_url":""},{"id":4832,"title":"旧日本銀行広島支店","architect":"長野宇平治","year":1936.0,"address":"広島県広島市中区袋町5-16","latitude":34.39148712158203,"longitude":132.45687866210938,"category":"金融機関/博物館","description":"","image_url":""},{"id":4833,"title":"グラスオフィス・ヒロシマ 新川電機 中国支社","architect":"横河健","year":2001.0,"address":"広島県広島市中区竹屋町8-6","latitude":34.382598876953125,"longitude":132.4625701904297,"category":"オフィスビル","description":"","image_url":""},{"id":4834,"title":"広島市立本川小学校 平和資料館","architect":"増田清","year":1928.0,"address":"広島県広島市中区本川町1-5-39","latitude":34.39595031738281,"longitude":132.4506378173828,"category":"博物館/学校","description":"要事前予約","image_url":""},{"id":4835,"title":"ウィスタリアフィールド モナド","architect":"熊沢信生","year":2005.0,"address":"広島県広島市中区中町1-18","latitude":34.3907356262207,"longitude":132.45944213867188,"category":"テナントビル","description":"","image_url":""},{"id":4836,"title":"ボーレザン サロン・ド・カフェ","architect":"門内一生","year":2009.0,"address":"広島県広島市中区大手町2-5-18","latitude":34.39204788208008,"longitude":132.4550018310547,"category":"カフェ","description":"","image_url":""},{"id":4837,"title":"広島市レストハウス 旧大正屋呉服店","architect":"増田清","year":1929.0,"address":"広島県広島市中区中島町1","latitude":34.393829345703125,"longitude":132.45326232910156,"category":"観光施設","description":"","image_url":""},{"id":4838,"title":"頼山陽史跡資料館","architect":"日建設計","year":1995.0,"address":"広島県広島市中区袋町5-15","latitude":34.3914909362793,"longitude":132.45724487304688,"category":"博物館","description":"","image_url":""},{"id":4839,"title":"Fビル Belle La Mer","architect":"武田正義","year":1999.0,"address":"広島県広島市南区宇品西4-4-40","latitude":34.35694122314453,"longitude":132.45872497558594,"category":"店舗/住宅","description":"","image_url":""},{"id":4840,"title":"M'S GATE","architect":"吉柳満","year":1999.0,"address":"広島県広島市南区宇品海岸1-1-26","latitude":34.35417556762695,"longitude":132.4593505859375,"category":"店舗","description":"","image_url":""},{"id":4841,"title":"聚花山の庭 半べえ庭園","architect":"重森三玲","year":1970.0,"address":"広島県広島市南区本浦町8-12","latitude":34.374881744384766,"longitude":132.48794555664062,"category":"庭園","description":"","image_url":""},{"id":4842,"title":"古田幼稚園","architect":"村山雄一","year":1988.0,"address":"広島県広島市西区古江東町8-28","latitude":34.3873405456543,"longitude":132.410888671875,"category":"幼稚園","description":"","image_url":""},{"id":4843,"title":"アマダ広島営業所","architect":"保坂陽一郎","year":1977.0,"address":"広島県広島市佐伯区五日市町大字昭和台32-4","latitude":34.37696075439453,"longitude":132.36935424804688,"category":"低層オフィス","description":"","image_url":""},{"id":4844,"title":"トヨタL&F広島本社","architect":"手塚建築研究所+池田昌弘","year":2003.0,"address":"広島県広島市西区商工センター2-16-10","latitude":34.37405776977539,"longitude":132.40304565429688,"category":"工場/低層オフィス","description":"","image_url":""},{"id":4845,"title":"ザッカ・オリーブ","architect":"西宮善幸","year":1999.0,"address":"広島県広島市安佐南区川内2-19-15","latitude":34.46403503417969,"longitude":132.48069763183594,"category":"店舗","description":"","image_url":""},{"id":4846,"title":"Crystal Unit 3 「+C」","architect":"窪田勝文","year":1998.0,"address":"広島県広島市安佐北区可部3-32-16","latitude":34.5186653137207,"longitude":132.51348876953125,"category":"カフェ/住宅","description":"","image_url":""},{"id":4847,"title":"広島修道大学","architect":"日建設計","year":1974.0,"address":"広島県広島市安佐南区大塚東1-1-1","latitude":34.433956146240234,"longitude":132.4051513671875,"category":"大学","description":"","image_url":""},{"id":4848,"title":"府中学園","architect":"日本設計","year":2008.0,"address":"広島県府中市元町576-1","latitude":34.575740814208984,"longitude":133.23507690429688,"category":"学校","description":"","image_url":""},{"id":4849,"title":"la place 広島大学東広島キャンパス北第三福利会館","architect":"岡河貢","year":2007.0,"address":"広島県東広島市鏡山1-2-1","latitude":34.40388107299805,"longitude":132.71356201171875,"category":"カフェ/大学","description":"","image_url":""},{"id":4850,"title":"45 キャラントサンク","architect":"三分一博志","year":2010.0,"address":"広島県広島市中区袋町1-18","latitude":34.392032623291016,"longitude":132.45994567871094,"category":"レストラン","description":"","image_url":""}]}