{"page":258,"total_pages":290,"items_per_page":50,"total_items":14467,"items":[{"id":12851,"title":"焼津の文房具屋 コハマ","architect":"長谷川逸子","year":1978.0,"address":"静岡県焼津市栄町5-15","latitude":34.86765670776367,"longitude":138.3187255859375,"category":"店舗/低層オフィス","description":"","image_url":""},{"id":12852,"title":"とりりん 鳥林精肉店","architect":"マウントフジアーキテクツスタジオ","year":2004.0,"address":"静岡県焼津市本町4-6-9","latitude":34.864715576171875,"longitude":138.3216094970703,"category":"店舗","description":"","image_url":""},{"id":12853,"title":"静岡市用宗老人福祉センター","architect":"田中謙次+針谷建築事務所","year":1986.0,"address":"静岡県静岡市用宗5-21-10","latitude":34.91905212402344,"longitude":138.36245727539062,"category":"福祉センター","description":"","image_url":""},{"id":12854,"title":"静岡市安西小学校","architect":"田中謙次","year":1985.0,"address":"静岡県静岡市葵区安西1-96-3","latitude":34.9810676574707,"longitude":138.37420654296875,"category":"学校","description":"","image_url":""},{"id":12855,"title":"タミヤビル","architect":"斎藤義","year":1981.0,"address":"静岡県静岡市駿河区恩田原3-7","latitude":34.96900177001953,"longitude":138.41915893554688,"category":"オフィスビル","description":"","image_url":""},{"id":12856,"title":"静岡ガス S-GEE PORT","architect":"鈴木エドワード","year":1988.0,"address":"静岡県静岡市清水区江尻台町22-34","latitude":35.02402114868164,"longitude":138.47242736816406,"category":"モール","description":"","image_url":""},{"id":12857,"title":"ガモウ 福岡","architect":"鈴木エドワード","year":2018.0,"address":"福岡県福岡市中央区薬院1-10-1","latitude":33.58123016357422,"longitude":130.39793395996094,"category":"オフィスビル","description":"","image_url":""},{"id":12858,"title":"DAI3銀座本社ビル","architect":"鈴木エドワード","year":2016.0,"address":"東京都中央区銀座1-19-15","latitude":35.673526763916016,"longitude":139.77102661132812,"category":"オフィスビル","description":"","image_url":""},{"id":12859,"title":"狩野ドーム 旧天城ドーム","architect":"橋本文隆","year":1991.0,"address":"静岡県伊豆市青羽根89","latitude":34.93592834472656,"longitude":138.93362426757812,"category":"体育館","description":"","image_url":""},{"id":12860,"title":"白石島国際交流ヴィラ","architect":"船木澄子","year":1991.0,"address":"岡山県笠岡市白石島317","latitude":34.40640640258789,"longitude":133.5138397216797,"category":"コテージ","description":"","image_url":""},{"id":12861,"title":"南方の社 豊宇気神社","architect":"根岸一之","year":1991.0,"address":"岡山県岡山市北区南方3-3-41","latitude":34.67597198486328,"longitude":133.92465209960938,"category":"寺院","description":"","image_url":""},{"id":12862,"title":"新島島民塾 新島村21クリエイトセンター","architect":"團紀彦","year":1991.0,"address":"東京都新島村瀬戸山21","latitude":34.361572265625,"longitude":139.2462158203125,"category":"公共施設","description":"","image_url":""},{"id":12863,"title":"ヒルトップ熱川","architect":"進来廉","year":1990.0,"address":"静岡県賀茂郡東伊豆町奈良本1213-95","latitude":34.83176803588867,"longitude":139.06663513183594,"category":"研修施設","description":"保養所","image_url":""},{"id":12864,"title":"M氏邸 BUNDLESTUDIO","architect":"進来廉","year":1974.0,"address":"千葉県野田市野田57","latitude":35.94056701660156,"longitude":139.8671417236328,"category":"ギャラリー/住宅","description":"","image_url":""},{"id":12865,"title":"建築家会館","architect":"進来廉","year":1968.0,"address":"東京都渋谷区神宮前2-3-16","latitude":35.67323684692383,"longitude":139.7129669189453,"category":"組合施設","description":"","image_url":""},{"id":12866,"title":"川奈倶楽部","architect":"吉村順三","year":1991.0,"address":"静岡県伊東市川奈1261-45","latitude":34.94486999511719,"longitude":139.1196746826172,"category":"研修施設","description":"岩本組保養所","image_url":""},{"id":12867,"title":"日本老化制御研究所 日研ザイル株式会社","architect":"岩村和夫","year":1985.0,"address":"静岡県袋井市春岡710-1","latitude":34.78968048095703,"longitude":137.91578674316406,"category":"研究施設","description":"","image_url":""},{"id":12868,"title":"小笠山総合運動公園 エコパスタジアム","architect":"佐藤総合計画","year":2001.0,"address":"静岡県袋井市愛野2300-1","latitude":34.743404388427734,"longitude":137.9707489013672,"category":"スタジアム","description":"","image_url":""},{"id":12869,"title":"WOOD ずだじこども園","architect":"鈴木幸治","year":2012.0,"address":"静岡県浜松市南区恩地町291","latitude":34.686668395996094,"longitude":137.76193237304688,"category":"幼稚園","description":"","image_url":""},{"id":12870,"title":"島田の診療所 片岡医院","architect":"鈴木幸治","year":2015.0,"address":"静岡県島田市本通7-7787-5","latitude":34.831748962402344,"longitude":138.18064880371094,"category":"個人医院","description":"","image_url":""},{"id":12871,"title":"おおるり眼科クリニック","architect":"鈴木幸治","year":2005.0,"address":"静岡県島田市南1-5-10","latitude":34.82844924926758,"longitude":138.17889404296875,"category":"個人医院","description":"","image_url":""},{"id":12872,"title":"ZOOO ずだじ幼稚園","architect":"鈴木幸治","year":2000.0,"address":"静岡県浜松市南区恩地町291","latitude":34.68636703491211,"longitude":137.7625732421875,"category":"幼稚園","description":"","image_url":""},{"id":12873,"title":"Body&Soul ナウハウス","architect":"鈴木幸治","year":1985.0,"address":"静岡県浜松市南区頭陀寺町330-20","latitude":34.69763946533203,"longitude":137.75787353515625,"category":"低層オフィス","description":"","image_url":""},{"id":12874,"title":"鍵屋の中庇","architect":"403architecture [dajiba]","year":2017.0,"address":"静岡県浜松市中区田町229-13 1F","latitude":34.708351135253906,"longitude":137.73106384277344,"category":"店舗","description":"","image_url":""},{"id":12875,"title":"浜松市文化コミュニティセンター クリエート浜松","architect":"久米設計","year":1988.0,"address":"静岡県浜松市中区早馬町2-1","latitude":34.710426330566406,"longitude":137.7338104248047,"category":"ホール・劇場/公共施設","description":"","image_url":""},{"id":12876,"title":"地球のたまご","architect":"永田昌民","year":2004.0,"address":"静岡県浜松市西区村櫛町4601","latitude":34.72843551635742,"longitude":137.6068878173828,"category":"低層オフィス","description":"","image_url":""},{"id":12877,"title":"三ヶ日文化ホール","architect":"アール・アイ・エー","year":1984.0,"address":"静岡県浜松市北区三ヶ日町三ヶ日500-1","latitude":34.80307388305664,"longitude":137.5553741455078,"category":"ホール・劇場","description":"","image_url":""},{"id":12878,"title":"海陽中等教育学校","architect":"日本設計","year":2006.0,"address":"愛知県蒲郡市海陽町3-12-1","latitude":34.80587387084961,"longitude":137.2904815673828,"category":"学校","description":"","image_url":""},{"id":12879,"title":"岡崎のコンプレックス カフェレストいのうえ","architect":"安井秀夫","year":1987.0,"address":"愛知県岡崎市中島町明生池3-1","latitude":34.88576126098633,"longitude":137.11598205566406,"category":"カフェ","description":"","image_url":""},{"id":12880,"title":"VISION","architect":"根津武彦","year":2010.0,"address":"山梨県甲府市伊勢1-4-3","latitude":35.6513557434082,"longitude":138.56759643554688,"category":"美容院","description":"","image_url":""},{"id":12881,"title":"山梨学院幼稚園","architect":"パルフィ・ジョージ","year":1994.0,"address":"山梨県甲府市酒折2-8-1","latitude":35.656272888183594,"longitude":138.6039581298828,"category":"幼稚園","description":"","image_url":""},{"id":12882,"title":"山梨学院小学校","architect":"パルフィ・ジョージ","year":2004.0,"address":"山梨県甲府市酒折1-11-1","latitude":35.65703582763672,"longitude":138.5991973876953,"category":"学校","description":"","image_url":""},{"id":12883,"title":"ル・クロワートル","architect":"小林克弘","year":1992.0,"address":"山梨県南都留郡山中湖村山中865-103","latitude":35.43228530883789,"longitude":138.84361267089844,"category":"レストラン/ホテル","description":"随分昔から営業を止めていると思いますが、建物は現存?","image_url":""},{"id":12884,"title":"河口湖円形ホール","architect":"佐藤博久","year":1994.0,"address":"山梨県南都留郡富士河口湖町河口3030-1","latitude":35.52387619018555,"longitude":138.76495361328125,"category":"ホール・劇場","description":"","image_url":""},{"id":12885,"title":"カトリック御殿場教会","architect":"金澤良春","year":1993.0,"address":"静岡県御殿場市新橋1591","latitude":35.297569274902344,"longitude":138.93858337402344,"category":"教会","description":"","image_url":""},{"id":12886,"title":"嶽之下宮 御社殿","architect":"竹中工務店","year":1989.0,"address":"静岡県駿東郡小山町竹之下2287-1","latitude":35.335060119628906,"longitude":138.9832000732422,"category":"寺院","description":"","image_url":""},{"id":12887,"title":"山梨学院大学キャンパスセンター","architect":"パルフィ・ジョージ","year":2000.0,"address":"山梨県甲府市酒折2-14","latitude":35.65593719482422,"longitude":138.60023498535156,"category":"大学","description":"","image_url":""},{"id":12888,"title":"コミュニティビル安庵","architect":"飯塚拓生","year":2018.0,"address":"東京都立川市富士見町1-26-10","latitude":35.699737548828125,"longitude":139.39437866210938,"category":"カフェ/個人医院/児童施設","description":"","image_url":""},{"id":12889,"title":"保護ネコカフェ キズナ","architect":"飯塚拓生","year":2019.0,"address":"神奈川県横浜市青葉区新石川2-3-11","latitude":35.57529067993164,"longitude":139.55816650390625,"category":"カフェ","description":"","image_url":""},{"id":12890,"title":"eisu倶楽部箱根 強羅山荘","architect":"渡辺明","year":2010.0,"address":"神奈川県足柄下郡箱根町強羅1322-8","latitude":35.248783111572266,"longitude":139.0309295654297,"category":"研修施設","description":"保養所","image_url":""},{"id":12891,"title":"海石榴 迎賓館","architect":"入江三宅設計事務所","year":1985.0,"address":"神奈川県足柄下郡湯河原町宮上776","latitude":35.16141891479492,"longitude":139.06146240234375,"category":"旅館","description":"","image_url":""},{"id":12892,"title":"湯河原町立図書館","architect":"橋本文隆","year":1979.0,"address":"神奈川県足柄下郡湯河原町土肥1-4-13","latitude":35.1455078125,"longitude":139.10348510742188,"category":"図書館","description":"","image_url":""},{"id":12893,"title":"伊藤忠健康保険組合 熱海伊豆山荘","architect":"野生司義光","year":1997.0,"address":"静岡県熱海市泉412-245","latitude":35.12744903564453,"longitude":139.07937622070312,"category":"研修施設","description":"保養所","image_url":""},{"id":12894,"title":"佐伯眼科クリニック","architect":"原口修","year":1995.0,"address":"神奈川県小田原市荻窪1772","latitude":35.25519561767578,"longitude":8707394560.0,"category":"個人医院","description":"","image_url":""},{"id":12895,"title":"小田原市立中央図書館 かもめ図書館","architect":"岡田新一","year":1994.0,"address":"神奈川県小田原市南鴨宮1-5-30","latitude":35.271942138671875,"longitude":139.17477416992188,"category":"図書館","description":"","image_url":""},{"id":12896,"title":"第一生命新大井事業所","architect":"竹中工務店","year":2012.0,"address":"神奈川県足柄上郡大井町上大井131-1","latitude":35.32093811035156,"longitude":139.15658569335938,"category":"低層オフィス","description":"","image_url":""},{"id":12897,"title":"遊遍館 スワコユーペンハウスユースホステル","architect":"小川俶冶","year":1986.0,"address":"長野県諏訪郡下諏訪町南高木8932-2","latitude":36.0638542175293,"longitude":138.10733032226562,"category":"ホステル","description":"","image_url":""},{"id":12898,"title":"ひかり味噌本社屋","architect":"柳澤孝彦","year":1997.0,"address":"長野県諏訪郡下諏訪町4848-1","latitude":36.067176818847656,"longitude":138.08399963378906,"category":"低層オフィス","description":"","image_url":""},{"id":12899,"title":"北沢建築工場","architect":"三澤文子","year":2010.0,"address":"長野県上伊那郡箕輪町大字中箕輪1738","latitude":35.93832778930664,"longitude":137.98336791992188,"category":"低層オフィス/工場","description":"","image_url":""},{"id":12900,"title":"駒ヶ根総合文化センター","architect":"石本建築事務所","year":1984.0,"address":"長野県駒ヶ根市上穂栄町23-1","latitude":35.73666763305664,"longitude":137.92977905273438,"category":"ホール・劇場/図書館/博物館","description":"","image_url":""}]}