{"page":194,"total_pages":290,"items_per_page":50,"total_items":14467,"items":[{"id":9651,"title":"桐光学園中学校・高等学校 本部棟","architect":"香山壽夫","year":1988.0,"address":"神奈川県川崎市麻生区栗木3-12-1","latitude":35.60274887084961,"longitude":139.4729766845703,"category":"学校","description":"","image_url":""},{"id":9652,"title":"桐光学園中学校・高等学校 女子棟","architect":"香山壽夫","year":1992.0,"address":"神奈川県川崎市麻生区栗木3-12-1","latitude":35.60261917114258,"longitude":139.47360229492188,"category":"学校","description":"","image_url":""},{"id":9653,"title":"桐光学園中学校・高等学校 部室棟","architect":"香山壽夫","year":1992.0,"address":"神奈川県川崎市麻生区栗木3-12-1","latitude":35.602386474609375,"longitude":139.47250366210938,"category":"学校","description":"","image_url":""},{"id":9654,"title":"相模女子大学 附属図書館","architect":"香山壽夫","year":1992.0,"address":"神奈川県相模原市南区文京2-1-1","latitude":35.53467559814453,"longitude":139.42953491210938,"category":"大学","description":"","image_url":""},{"id":9655,"title":"MILデザインハウス","architect":"香山壽夫","year":1992.0,"address":"東京都渋谷区千駄ヶ谷5-4-11","latitude":35.682621002197266,"longitude":139.7076416015625,"category":"低層オフィス","description":"","image_url":""},{"id":9656,"title":"東京大学 工学部1号館","architect":"香山壽夫+内田祥三","year":1935.0,"address":"東京都文京区本郷7-3-1","latitude":35.71425247192383,"longitude":139.7600860595703,"category":"大学","description":"1995年に東大施設部・香山壽夫により増改築。2023年鹿島建設・千葉学によりKAJIMA HALL：15号講義室を開設","image_url":""},{"id":9657,"title":"東京大学 大学院数理科学研究科棟","architect":"香山壽夫","year":1995.0,"address":"東京都目黒区駒場3-8-1","latitude":35.65852737426758,"longitude":139.68673706054688,"category":"大学","description":"","image_url":""},{"id":9658,"title":"桐光学園中学校・高等学校 男子棟3号館","architect":"香山壽夫","year":2004.0,"address":"神奈川県川崎市麻生区栗木3-12-1","latitude":35.6032600402832,"longitude":139.47164916992188,"category":"学校","description":"","image_url":""},{"id":9659,"title":"東京大学 総合研究棟","architect":"香山壽夫","year":2001.0,"address":"東京都文京区弥生1-1","latitude":35.715755462646484,"longitude":139.76058959960938,"category":"大学","description":"","image_url":""},{"id":9660,"title":"カトリック田園調布教会 信徒会館","architect":"香山壽夫","year":2003.0,"address":"東京都大田区田園調布3-43-1","latitude":35.59138488769531,"longitude":139.66754150390625,"category":"教会","description":"","image_url":""},{"id":9661,"title":"東京大学 国際学術総合研究棟","architect":"香山壽夫","year":2017.0,"address":"東京都文京区本郷7-3-1","latitude":35.710289001464844,"longitude":139.76123046875,"category":"大学","description":"","image_url":""},{"id":9662,"title":"墨田区吾嬬第二中学校","architect":"香山壽夫","year":2018.0,"address":"東京都墨田区八広4-4-4","latitude":35.721500396728516,"longitude":139.82711791992188,"category":"学校","description":"","image_url":""},{"id":9663,"title":"カトリック本所教会 信徒会館・司祭館","architect":"香山壽夫","year":2009.0,"address":"東京都墨田区石原4-37-2","latitude":35.70170211791992,"longitude":139.80551147460938,"category":"教会","description":"","image_url":""},{"id":9664,"title":"置戸営林署庁舎 「雄松林舎」","architect":"黒川哲郎","year":1993.0,"address":"北海道常呂郡置戸町字置戸398-99","latitude":43.672828674316406,"longitude":143.58265686035156,"category":"庁舎","description":"","image_url":""},{"id":9665,"title":"中津江野田木工協同組合倉庫 「山中匠艶」","architect":"黒川哲郎","year":1996.0,"address":"大分県日田市中津江村栃野5013-1","latitude":33.15109634399414,"longitude":130.9770965576172,"category":"工場/組合施設","description":"","image_url":""},{"id":9666,"title":"中津江村中山間活性化施設 「亀士林」","architect":"黒川哲郎","year":2001.0,"address":"大分県日田市中津江村合瀬1936-65","latitude":33.13801574707031,"longitude":130.90591430664062,"category":"体育館","description":"","image_url":""},{"id":9667,"title":"鯛生スポーツセンターグランド管理棟 「亀殻亭」","architect":"黒川哲郎","year":2001.0,"address":"大分県日田市中津江村合瀬1936-65","latitude":33.13734436035156,"longitude":130.90345764160156,"category":"公共施設","description":"","image_url":""},{"id":9668,"title":"小河内ダム園地休憩舎 「養水摩天」","architect":"黒川哲郎","year":2001.0,"address":"東京都西多摩郡奥多摩町原5","latitude":35.792293548583984,"longitude":139.04820251464844,"category":"公園","description":"","image_url":""},{"id":9669,"title":"臼杵市立北中学校屋内運動場 「技燦木海」","architect":"黒川哲郎","year":2001.0,"address":"大分県臼杵市大字江無田132-1","latitude":33.130455017089844,"longitude":131.7895050048828,"category":"学校/体育館","description":"","image_url":""},{"id":9670,"title":"山国町立三郷小学校屋内運動場 「英輝遊林」","architect":"黒川哲郎","year":2002.0,"address":"大分県中津市山国町宇曽727-2","latitude":33.40309143066406,"longitude":131.0535125732422,"category":"学校/体育館","description":"","image_url":""},{"id":9671,"title":"有間川漁港休憩施設 「月扇閣」","architect":"黒川哲郎","year":2002.0,"address":"新潟県上越市大字有間川1014-6","latitude":37.163902282714844,"longitude":138.1416473388672,"category":"観光施設/港","description":"","image_url":""},{"id":9672,"title":"三国町木とのふれあい施設づくりヨット艇庫 「夕照帆影」","architect":"黒川哲郎","year":2002.0,"address":"福井県坂井市三国町米ケ脇9","latitude":36.22488784790039,"longitude":136.13330078125,"category":"公共施設/組合施設","description":"","image_url":""},{"id":9673,"title":"武川村多目的屋内運動施設 「甲錣蓋」","architect":"黒川哲郎","year":2004.0,"address":"山梨県北杜市武川町牧原1320","latitude":35.78382110595703,"longitude":138.37794494628906,"category":"体育館","description":"","image_url":""},{"id":9674,"title":"小矢部市水島スポーツセンター 「雪兎鼓月」","architect":"黒川哲郎","year":2003.0,"address":"富山県小矢部市水島109-1","latitude":36.641475677490234,"longitude":136.9010467529297,"category":"体育館","description":"","image_url":""},{"id":9675,"title":"西祖谷山村交流拠点施設 「祖山邂逅」","architect":"黒川哲郎","year":2000.0,"address":"徳島県三好市西祖谷山村尾井ノ内379","latitude":33.89126205444336,"longitude":133.81430053710938,"category":"公民館・交流施設","description":"","image_url":""},{"id":9676,"title":"西祖谷山村森林空間利用拠点施設 「耀光蛍影」","architect":"黒川哲郎","year":2002.0,"address":"徳島県三好市西祖谷山村尾井ノ内379","latitude":33.89192581176758,"longitude":133.8136749267578,"category":"観光施設","description":"","image_url":""},{"id":9677,"title":"美甘ドーム 「韶弦連月」","architect":"黒川哲郎","year":2005.0,"address":"岡山県真庭市美甘1050-2","latitude":35.1523551940918,"longitude":133.60523986816406,"category":"体育館","description":"","image_url":""},{"id":9678,"title":"小矢部市北蟹谷多目的交流施設 「四錘穹宇」","architect":"黒川哲郎","year":2006.0,"address":"富山県小矢部市末友27","latitude":36.6334228515625,"longitude":136.83375549316406,"category":"体育館","description":"","image_url":""},{"id":9679,"title":"大分市立王子中学校屋内運動場 「大木海」","architect":"黒川哲郎","year":2006.0,"address":"大分県大分市南春日町6-1","latitude":33.236080169677734,"longitude":131.59486389160156,"category":"学校/体育館","description":"","image_url":""},{"id":9680,"title":"四ツ池ゴルフガーデン クラブハウス棟","architect":"黒川哲郎","year":2007.0,"address":"静岡県浜松市中区幸3-5-10","latitude":34.74222946166992,"longitude":137.72833251953125,"category":"クラブハウス","description":"","image_url":""},{"id":9681,"title":"浜松市立光が丘中学校体育館 「天竜杉風」","architect":"黒川哲郎","year":2008.0,"address":"静岡県浜松市天竜区山東2701","latitude":34.8753776550293,"longitude":137.8236541748047,"category":"学校/体育館","description":"","image_url":""},{"id":9682,"title":"うきはアリーナ 「英気漲天」","architect":"黒川哲郎","year":2009.0,"address":"福岡県うきは市浮羽町朝田215","latitude":33.3392448425293,"longitude":130.78623962402344,"category":"体育館","description":"","image_url":""},{"id":9683,"title":"港区立伝統文化交流館 旧協働会館","architect":"青木茂","year":1936.0,"address":"東京都港区芝浦1-11-15","latitude":35.64750671386719,"longitude":139.75367736816406,"category":"博物館/公民館・交流施設","description":"2019年12月にリファイニング建築として竣工","image_url":""},{"id":9684,"title":"さくらクレール代々木公園","architect":"青木茂","year":2020.0,"address":"東京都渋谷区初台2-24-10","latitude":35.67607116699219,"longitude":139.68521118164062,"category":"集合住宅","description":"1968年竣工の共同住宅をリファイニング","image_url":""},{"id":9685,"title":"HALLAB","architect":"奥野公章","year":2017.0,"address":"静岡県浜松市天竜区春野町川上34-12","latitude":35.03498840332031,"longitude":137.9967803955078,"category":"企業施設","description":"金子コードが手がける春野キャビアヴァレーのゲストハウス","image_url":""},{"id":9686,"title":"アークコート若松町","architect":"奥野公章","year":2018.0,"address":"東京都新宿区若松町15-16","latitude":35.69864273071289,"longitude":139.7146759033203,"category":"集合住宅","description":"","image_url":""},{"id":9687,"title":"荻窪ロウハウス","architect":"奥野公章","year":2015.0,"address":"東京都杉並区本天沼2-5-10","latitude":35.7119026184082,"longitude":139.6261444091797,"category":"集合住宅","description":"","image_url":""},{"id":9688,"title":"para-lith","architect":"奥野公章","year":2012.0,"address":"山梨県甲府市上町 Para-Lith K","latitude":35.62873458862305,"longitude":138.5823211669922,"category":"集合住宅","description":"","image_url":""},{"id":9689,"title":"大久野保育園","architect":"奥野公章","year":2013.0,"address":"東京都西多摩郡日の出町大字大久野1660-1","latitude":35.74361038208008,"longitude":139.2303924560547,"category":"幼稚園","description":"","image_url":""},{"id":9690,"title":"アレーデ神宮前","architect":"高橋隆博","year":2019.0,"address":"東京都渋谷区神宮前3-1-25","latitude":35.66981506347656,"longitude":139.7140655517578,"category":"テナントビル","description":"","image_url":""},{"id":9691,"title":"鳥羽マリンターミナル","architect":"日新設計","year":2011.0,"address":"三重県鳥羽市鳥羽1-2383-51","latitude":34.490257263183594,"longitude":136.84498596191406,"category":"港","description":"","image_url":""},{"id":9692,"title":"佐賀大学有田キャンパス 旧佐賀県立有田窯業大学校","architect":"三井所清典","year":1985.0,"address":"佐賀県西松浦郡有田町大野乙2441-1","latitude":33.177181243896484,"longitude":129.8871307373047,"category":"大学/専門学校","description":"","image_url":""},{"id":9693,"title":"小松市立空とこども絵本館 絵本館 旧小松警察署","architect":"三井所清典","year":1932.0,"address":"石川県小松市小馬出町10-3","latitude":36.40767288208008,"longitude":136.44798278808594,"category":"図書館","description":"2006年に三井所清典設計で改修","image_url":""},{"id":9694,"title":"小松市立空とこども絵本館 絵本館ホール 旧石川商銀信用組合小松支店","architect":"三井所清典","year":1930.0,"address":"石川県小松市京町19-5","latitude":36.408145904541016,"longitude":136.4486541748047,"category":"ホール・劇場","description":"2006年に三井所清典設計で改修","image_url":""},{"id":9695,"title":"群馬県立しろがね特別支援学校","architect":"船越徹","year":1998.0,"address":"群馬県前橋市東大室町177-1","latitude":36.36540222167969,"longitude":139.18894958496094,"category":"学校","description":"","image_url":""},{"id":9696,"title":"とちぎ海浜自然の家","architect":"森京介","year":1992.0,"address":"茨城県鉾田市玉田336-2","latitude":36.22062683105469,"longitude":140.56146240234375,"category":"研修施設","description":"","image_url":""},{"id":9697,"title":"沼津市明治史料館 江原素六記念館","architect":"森京介","year":1984.0,"address":"静岡県沼津市西熊堂372-1","latitude":35.1218147277832,"longitude":138.8583526611328,"category":"博物館","description":"","image_url":""},{"id":9698,"title":"ニューサンピア栃木 旧栃木厚生年金休暇センター","architect":"森京介","year":1979.0,"address":"栃木県鹿沼市栃窪1255","latitude":36.593807220458984,"longitude":139.77134704589844,"category":"ホテル","description":"","image_url":""},{"id":9699,"title":"那須塩原市西那須野庁舎","architect":"森京介","year":1990.0,"address":"栃木県那須塩原市あたご町2-3","latitude":36.88241195678711,"longitude":139.98374938964844,"category":"庁舎","description":"","image_url":""},{"id":9700,"title":"四方津コモア・ブリッジ","architect":"船越徹","year":1991.0,"address":"山梨県上野原市四方津1912","latitude":35.61494445800781,"longitude":139.073486328125,"category":"駅/橋","description":"いわゆる斜行エレベーター","image_url":""}]}