{"page":167,"total_pages":290,"items_per_page":50,"total_items":14467,"items":[{"id":8301,"title":"よなご脳神経クリニック","architect":"木村智彦","year":2018.0,"address":"鳥取県米子市東福原6-5-13","latitude":35.44596481323242,"longitude":133.34486389160156,"category":"個人医院","description":"","image_url":""},{"id":8302,"title":"下川町まちおこしセンター コモレビ","architect":"小倉寛征","year":2016.0,"address":"北海道上川郡下川町共栄町2","latitude":44.30088424682617,"longitude":142.63949584960938,"category":"公民館・交流施設","description":"","image_url":""},{"id":8303,"title":"黄金ふれあいセンター","architect":"瀬戸口剛","year":2013.0,"address":"北海道恵庭市黄金南5-11","latitude":42.887290954589844,"longitude":141.59649658203125,"category":"公民館・交流施設","description":"設計者クレジットは北海道大学都市地域デザイン学研究室","image_url":""},{"id":8304,"title":"恵庭市柏地区生涯学習施設 かしわのもり","architect":"瀬戸口剛+小倉寛征","year":2016.0,"address":"北海道恵庭市大町1-5-7","latitude":42.88813400268555,"longitude":141.5687255859375,"category":"図書館/公民館・交流施設","description":"","image_url":""},{"id":8305,"title":"上士幌町生涯学習センター わっか","architect":"アトリエブンク","year":2017.0,"address":"北海道河東郡上士幌町上士幌清水谷237","latitude":43.23267364501953,"longitude":143.29388427734375,"category":"図書館/公民館・交流施設/児童施設","description":"","image_url":""},{"id":8306,"title":"白糠町立庶路学園 庶路こども園","architect":"アトリエaku","year":2018.0,"address":"北海道白糠郡白糠町西庶路学園通1-1","latitude":42.981544494628906,"longitude":144.12030029296875,"category":"学校/幼稚園","description":"","image_url":""},{"id":8307,"title":"シャネル 銀座並木","architect":"大成建設+ピーター・マリノ","year":2017.0,"address":"東京都中央区銀座6-7-19","latitude":35.67084884643555,"longitude":139.7628631591797,"category":"店舗","description":"デザイン監修：ピーター・マリノ","image_url":""},{"id":8308,"title":"ゲンテンスティック ニセコショールーム","architect":"赤坂真一郎","year":2016.0,"address":"北海道虻田郡倶知安町樺山63-25","latitude":42.8517951965332,"longitude":140.7038116455078,"category":"店舗","description":"","image_url":""},{"id":8309,"title":"平和歯科クリニック","architect":"赤坂真一郎","year":2018.0,"address":"北海道札幌市西区平和2条1-1-12","latitude":43.060909271240234,"longitude":141.26498413085938,"category":"個人医院","description":"","image_url":""},{"id":8310,"title":"ギャラリー門馬アネックス","architect":"赤坂真一郎","year":2002.0,"address":"北海道札幌市中央区旭ケ丘2-3-38","latitude":43.04006576538086,"longitude":141.32192993164062,"category":"ギャラリー","description":"","image_url":""},{"id":8311,"title":"児童デイサービス ぴゅあの実","architect":"赤坂真一郎","year":2016.0,"address":"北海道札幌市北区あいの里3条3-2-10","latitude":43.16431427001953,"longitude":141.39010620117188,"category":"養護施設","description":"","image_url":""},{"id":8312,"title":"加茂野交流センター あまちの森","architect":"新居千秋","year":2016.0,"address":"岐阜県美濃加茂市加茂野町今泉1546-4","latitude":35.46167755126953,"longitude":136.97518920898438,"category":"公民館・交流施設","description":"","image_url":""},{"id":8313,"title":"あおぞら保育園","architect":"古谷誠章","year":2018.0,"address":"香川県観音寺市村黒町597","latitude":34.1337890625,"longitude":133.6678466796875,"category":"幼稚園","description":"","image_url":""},{"id":8314,"title":"微生物化学研究会 espoir目黒 ／ 梅澤濱夫記念館 目黒","architect":"大成建設","year":2017.0,"address":"東京都品川区上大崎3-14-24","latitude":35.63019561767578,"longitude":139.72044372558594,"category":"寮/博物館","description":"見学は要連絡","image_url":""},{"id":8315,"title":"安城市中心市街地拠点施設 アンフォーレ","architect":"三上建築事務所","year":2017.0,"address":"愛知県安城市御幸本町12-1","latitude":34.9591064453125,"longitude":137.0842742919922,"category":"総合文化施設/図書館","description":"","image_url":""},{"id":8316,"title":"アドヴァン 名古屋ショールーム","architect":"日建設計","year":2017.0,"address":"愛知県名古屋市中村区名駅5-3","latitude":35.1721076965332,"longitude":136.89126586914062,"category":"テナントビル","description":"","image_url":""},{"id":8317,"title":"住友不動産麻布十番ビル","architect":"日建設計","year":2017.0,"address":"東京都港区三田1-4-1","latitude":35.65393829345703,"longitude":139.7417449951172,"category":"オフィスビル","description":"","image_url":""},{"id":8318,"title":"専修大学 新生田2・3号館","architect":"日建設計","year":2017.0,"address":"神奈川県川崎市多摩区東三田2-2","latitude":35.608524322509766,"longitude":139.55543518066406,"category":"大学","description":"","image_url":""},{"id":8319,"title":"明治イノベーションセンター","architect":"日建設計","year":2017.0,"address":"東京都八王子市七国1-29-1","latitude":35.62177276611328,"longitude":139.32916259765625,"category":"研究施設","description":"","image_url":""},{"id":8320,"title":"武蔵野大学 武蔵野キャンパス 第一体育館","architect":"日建設計","year":2016.0,"address":"東京都西東京市新町1-1-20","latitude":35.71759796142578,"longitude":139.54702758789062,"category":"体育館/大学","description":"","image_url":""},{"id":8321,"title":"遠見ヶ鼻 海の見える休憩所","architect":"杉野友紀","year":2017.0,"address":"福岡県北九州市若松区有毛","latitude":33.93621063232422,"longitude":130.68397521972656,"category":"観光施設","description":"","image_url":""},{"id":8322,"title":"鈴木辻村会計事務所","architect":"森本建築事務所","year":2017.0,"address":"三重県伊賀市上野徳居町3289-1","latitude":34.764156341552734,"longitude":136.1249237060547,"category":"低層オフィス","description":"","image_url":""},{"id":8323,"title":"岡崎信用金庫 名古屋ビル","architect":"日建設計","year":2017.0,"address":"愛知県名古屋市中区栄1-11","latitude":35.16637420654297,"longitude":136.89671325683594,"category":"オフィスビル/金融期間","description":"","image_url":""},{"id":8324,"title":"浜松磐田信用金庫 三方原支店","architect":"日建設計","year":2015.0,"address":"静岡県浜松市北区三方原町968-1","latitude":34.77924346923828,"longitude":137.71112060546875,"category":"低層オフィス/金融期間","description":"","image_url":""},{"id":8325,"title":"ハナマルキみそ作り体験館","architect":"竹中工務店","year":2018.0,"address":"長野県伊那市西箕輪2701","latitude":35.887325286865234,"longitude":137.9313201904297,"category":"体験施設/博物館","description":"","image_url":""},{"id":8326,"title":"天心聖教 函館礼拝堂","architect":"竹中工務店","year":2017.0,"address":"北海道函館市東山1-15-1","latitude":41.8125,"longitude":140.77117919921875,"category":"宗教施設","description":"","image_url":""},{"id":8327,"title":"金沢工業大学 駐輪場+プロムナード","architect":"水野一郎","year":2016.0,"address":"石川県野々市市扇が丘22-7-1","latitude":36.531028747558594,"longitude":136.630126953125,"category":"大学/駐車・駐輪場","description":"","image_url":""},{"id":8328,"title":"Area Park STUDIO","architect":"カスヤアーキテクツオフィス","year":2015.0,"address":"東京都清瀬市中里3-991-5","latitude":35.783912658691406,"longitude":139.51852416992188,"category":"ギャラリー/住宅","description":"","image_url":""},{"id":8329,"title":"リキリキデリ","architect":"カスヤアーキテクツオフィス","year":2003.0,"address":"神奈川県茅ヶ崎市中海岸3-10-47","latitude":35.318782806396484,"longitude":139.4013214111328,"category":"レストラン","description":"","image_url":""},{"id":8330,"title":"東北大学 建築CLTモデル実証棟","architect":"佐藤総合計画","year":2017.0,"address":"宮城県仙台市青葉区荒巻青葉6-6-06","latitude":38.25537109375,"longitude":140.8377227783203,"category":"大学","description":"","image_url":""},{"id":8331,"title":"旧チャップマン邸","architect":"西村伊作","year":1926.0,"address":"和歌山県新宮市新宮7678","latitude":33.728248596191406,"longitude":135.9928436279297,"category":"洋館","description":"2015年に市へ寄贈され改修。観光施設として見学可能","image_url":""},{"id":8332,"title":"道の駅さかい さかい河岸レストラン 茶蔵","architect":"隈研吾","year":2019.0,"address":"茨城県猿島郡境町1341-1","latitude":36.10342788696289,"longitude":139.7958984375,"category":"PA・道の駅/レストラン","description":"","image_url":""},{"id":8333,"title":"カシヤマ ダイカンヤマ","architect":"nendo+onndo","year":2019.0,"address":"東京都渋谷区代官山町14-18","latitude":35.65018844604492,"longitude":139.70333862304688,"category":"テナントビル","description":"","image_url":""},{"id":8334,"title":"笠戸島ハイツ","architect":"黒川紀章","year":1975.0,"address":"山口県下松市笠戸島14","latitude":33.97889709472656,"longitude":131.85667419433594,"category":"ホテル","description":"2019年3月末を持って休館。すぐに取壊にはならない模様","image_url":""},{"id":8335,"title":"医王庵 ミキクラブ東予","architect":"石井修","year":1982.0,"address":"愛媛県西条市河原津乙10-13","latitude":33.98052978515625,"longitude":133.05859375,"category":"研修施設/企業施設","description":"1986年増築","image_url":""},{"id":8336,"title":"お茶の水女子大学 国際交流留学生プラザ Hisao＆Hiroko TAKI PLAZA","architect":"隈研吾","year":2019.0,"address":"東京都文京区大塚2-1-1","latitude":35.71979522705078,"longitude":139.7331085205078,"category":"大学","description":"","image_url":""},{"id":8337,"title":"世田谷区郷土資料館 新館","architect":"前川國男","year":1987.0,"address":"東京都世田谷区世田谷1-29-18","latitude":35.641204833984375,"longitude":139.6471710205078,"category":"博物館","description":"","image_url":""},{"id":8338,"title":"姫路市市民会館","architect":"昭和設計","year":1976.0,"address":"兵庫県姫路市総社本町112","latitude":34.83281707763672,"longitude":134.6956024169922,"category":"ホール・劇場","description":"","image_url":""},{"id":8339,"title":"ウッドリーム大阪","architect":"新田正樹","year":1985.0,"address":"大阪府堺市美原区木材通4-1-2","latitude":34.514488220214844,"longitude":135.57156372070312,"category":"組合施設","description":"","image_url":""},{"id":8340,"title":"宝厳寺","architect":"新田正樹","year":2000.0,"address":"大阪府大阪市東成区神路3-17-8","latitude":34.67048263549805,"longitude":135.5543212890625,"category":"寺院","description":"","image_url":""},{"id":8341,"title":"厚岸味覚ターミナル コンキリエ","architect":"アーブ建築研究所","year":1993.0,"address":"北海道厚岸郡厚岸町住の江2-2","latitude":43.05762481689453,"longitude":144.84402465820312,"category":"レストラン/PA・道の駅","description":"","image_url":""},{"id":8342,"title":"日本女子大学 目白図書館","architect":"妹島和世+清水建設","year":2019.0,"address":"東京都文京区目白台1-18-4","latitude":35.71574783325195,"longitude":139.71986389160156,"category":"大学/図書館","description":"","image_url":""},{"id":8343,"title":"尼崎パーキングエリア","architect":"納谷建築設計事務所","year":2019.0,"address":"兵庫県尼崎市南城内 尼崎パーキングエリア","latitude":34.7136344909668,"longitude":135.41949462890625,"category":"PA・道の駅","description":"","image_url":""},{"id":8344,"title":"マルダ京都","architect":"coto","year":2018.0,"address":"京都府京都市中京区丸木材木町684","latitude":35.0098876953125,"longitude":135.76333618164062,"category":"ホテル/カフェ","description":"","image_url":""},{"id":8345,"title":"アマン京都","architect":"ケリー・ヒル","year":2018.0,"address":"京都府京都市北区大北山鷲峯町1","latitude":35.05130386352539,"longitude":135.73020935058594,"category":"ホテル","description":"","image_url":""},{"id":8346,"title":"スターバックス リザーブロースタリー東京","architect":"隈研吾","year":2019.0,"address":"東京都目黒区青葉台2-19-23","latitude":35.64934158325195,"longitude":139.69256591796875,"category":"カフェ","description":"","image_url":""},{"id":8347,"title":"加東市立加東みらいこども園","architect":"シーラカンスアンドアソシエイツ","year":2019.0,"address":"兵庫県加東市山国2001-1","latitude":34.91497039794922,"longitude":134.9771728515625,"category":"幼稚園","description":"","image_url":""},{"id":8348,"title":"広島県立広島叡智学園中学校・高等学校","architect":"シーラカンスアンドアソシエイツ+土井一秀","year":2019.0,"address":"広島県豊田郡大崎上島町大串3137-2","latitude":34.23463439941406,"longitude":132.85032653808594,"category":"学校","description":"","image_url":""},{"id":8349,"title":"黒住教 大教殿","architect":"浦辺鎮太郎","year":1974.0,"address":"岡山県岡山市北区尾上","latitude":34.66379928588867,"longitude":133.86117553710938,"category":"宗教施設","description":"","image_url":""},{"id":8350,"title":"豊田市役所藤岡支所・豊田市藤岡交流館","architect":"シーラカンスアンドアソシエイツ","year":2019.0,"address":"愛知県豊田市藤岡飯野町田中245","latitude":35.1978645324707,"longitude":137.2067413330078,"category":"庁舎/公民館・交流施設","description":"","image_url":""}]}