{"page":182,"total_pages":290,"items_per_page":50,"total_items":14467,"items":[{"id":9051,"title":"性源寺:彼方から彼方へ 性源寺","architect":"梵寿綱","year":1992.0,"address":"福島県いわき市平長橋町23","latitude":37.054351806640625,"longitude":140.88368225097656,"category":"寺院","description":"Art Complex09","image_url":""},{"id":9052,"title":"第2リドービル","architect":"梵寿綱","year":1986.0,"address":"東京都新宿区住吉町3-15","latitude":35.69198989868164,"longitude":139.71937561035156,"category":"集合住宅","description":"リドー住吉は取壊済","image_url":""},{"id":9053,"title":"エスト・エスペランザ エスペランザビル","architect":"梵寿綱","year":1977.0,"address":"東京都港区西麻布2-17-14","latitude":35.66231918334961,"longitude":139.7201385498047,"category":"テナントビル","description":"具象彫刻02","image_url":""},{"id":9054,"title":"カーサ第一亀戸","architect":"梵寿綱","year":1974.0,"address":"東京都江東区亀戸7-39-6","latitude":35.69706344604492,"longitude":139.8388214111328,"category":"集合住宅","description":"梵寿綱以前の田中俊郎名義の作品","image_url":""},{"id":9055,"title":"白井美瑠 ポッゾ・ビアンカ","architect":"梵寿綱","year":1980.0,"address":"埼玉県川口市西川口3-31","latitude":35.812679290771484,"longitude":139.7027130126953,"category":"テナントビル","description":"具象彫刻03","image_url":""},{"id":9056,"title":"カーサ和泉","architect":"梵寿綱","year":1972.0,"address":"東京都杉並区和泉4-49-6","latitude":35.68231964111328,"longitude":139.6558074951172,"category":"集合住宅","description":"梵寿綱以前の田中俊郎名義の作品。マンション01","image_url":""},{"id":9057,"title":"LotusCalyx","architect":"梵寿綱","year":1997.0,"address":"東京都目黒区自由が丘2丁目22-3","latitude":35.61269760131836,"longitude":139.66627502441406,"category":"集合住宅","description":"","image_url":""},{"id":9058,"title":"カーサ中目黒","architect":"梵寿綱","year":1974.0,"address":"東京都目黒区中目黒5-7-23","latitude":35.635276794433594,"longitude":139.70262145996094,"category":"集合住宅","description":"梵寿綱以前の田中俊郎名義の作品。マンション02","image_url":""},{"id":9059,"title":"カーサ相生","architect":"梵寿綱","year":1973.0,"address":"東京都中央区佃2-22","latitude":35.66619110107422,"longitude":139.7866973876953,"category":"集合住宅","description":"梵寿綱以前の田中俊郎名義の作品。マンション03","image_url":""},{"id":9060,"title":"小屋場只只 茶小屋","architect":"石丸和広","year":2005.0,"address":"山口県周南市大字大津島2763","latitude":33.985557556152344,"longitude":131.72015380859375,"category":"コテージ/茶室","description":"","image_url":""},{"id":9061,"title":"茶室 石柱庵","architect":"石丸和広","year":2015.0,"address":"山口県周南市大字大津島近江953","latitude":34.03116989135742,"longitude":131.7087860107422,"category":"茶室","description":"","image_url":""},{"id":9062,"title":"小屋場只只","architect":"木村ノリオ","year":2005.0,"address":"山口県周南市大字大津島2763","latitude":33.9854621887207,"longitude":131.7200164794922,"category":"コテージ/住宅","description":"","image_url":""},{"id":9063,"title":"カピン珈琲 珈琲豆御渡所 龜","architect":"石丸和広","year":2013.0,"address":"山口県山口市大内問田3-2-41","latitude":34.154056549072266,"longitude":131.48507690429688,"category":"店舗","description":"","image_url":""},{"id":9064,"title":"葛尾村復興交流館 あぜりあ","architect":"はりゅうウッドスタジオ","year":2018.0,"address":"福島県双葉郡葛尾村大字大字落合落合20-1","latitude":37.502445220947266,"longitude":140.7646484375,"category":"公民館・交流施設","description":"","image_url":""},{"id":9065,"title":"石巻南浜津波復興祈念公園 国営 追悼・祈念施設","architect":"山下設計+ドーコン+栗生明","year":2020.0,"address":"宮城県石巻市南浜町3-1-12","latitude":38.41831970214844,"longitude":141.304443359375,"category":"宗教施設/公園","description":"2020年3月竣工予定。既に円形の祈念施設はある程度できあがっている模様","image_url":""},{"id":9066,"title":"犬島ホッピーバー","architect":"近藤哲雄","year":2018.0,"address":"岡山県岡山市東区犬島281","latitude":34.56450271606445,"longitude":134.10284423828125,"category":"バー・居酒屋/店舗","description":"","image_url":""},{"id":9067,"title":"犬島 家プロジェクト I邸","architect":"妹島和世","year":2010.0,"address":"岡山県岡山市東区犬島296","latitude":34.56562805175781,"longitude":134.1024627685547,"category":"ギャラリー/住宅","description":"瀬戸内国際芸術祭参加作品。F、I、S、A、Cの5邸がある。","image_url":""},{"id":9068,"title":"犬島 家プロジェクト S邸","architect":"妹島和世","year":2010.0,"address":"岡山県岡山市東区犬島326","latitude":34.56434631347656,"longitude":134.10336303710938,"category":"ギャラリー","description":"瀬戸内国際芸術祭参加作品。F、I、S、A、Cの5邸がある。","image_url":""},{"id":9069,"title":"犬島 家プロジェクト 中の谷東屋","architect":"妹島和世","year":2010.0,"address":"岡山県岡山市東区犬島 中の谷東屋","latitude":34.56450271606445,"longitude":134.10243225097656,"category":"広場","description":"","image_url":""},{"id":9070,"title":"犬島 家プロジェクト A邸","architect":"妹島和世","year":2013.0,"address":"岡山県岡山市東区犬島275","latitude":34.56455993652344,"longitude":134.1030731201172,"category":"ギャラリー","description":"瀬戸内国際芸術祭参加作品。F、I、S、A、Cの5邸がある。","image_url":""},{"id":9071,"title":"犬島 家プロジェクト C邸","architect":"妹島和世","year":2013.0,"address":"岡山県岡山市東区犬島285","latitude":34.56499481201172,"longitude":134.10252380371094,"category":"ギャラリー/住宅","description":"瀬戸内国際芸術祭参加作品。F、I、S、A、Cの5邸がある。","image_url":""},{"id":9072,"title":"T-HOUSE","architect":"松沢一応","year":2019.0,"address":"岡山県岡山市東区犬島275","latitude":34.56441879272461,"longitude":134.1033477783203,"category":"ギャラリー/住宅","description":"","image_url":""},{"id":9073,"title":"犬島ステイ","architect":"西沢立衛","year":2019.0,"address":"岡山県岡山市東区犬島 犬島ステイ","latitude":34.56464385986328,"longitude":134.10377502441406,"category":"コテージ","description":"","image_url":""},{"id":9074,"title":"Sansan 神山ラボ OMOYA","architect":"吉田周一郎","year":2019.0,"address":"徳島県名西郡神山町神領東青井夫36","latitude":33.98092269897461,"longitude":134.37872314453125,"category":"研修施設","description":"","image_url":""},{"id":9075,"title":"Sansan 神山ラボ KOYA NAYA","architect":"須磨一清+名和研二","year":2010.0,"address":"徳島県名西郡神山町神領東青井夫36","latitude":33.98082733154297,"longitude":134.37890625,"category":"低層オフィス","description":"KOYAの竣工は2015年","image_url":""},{"id":9076,"title":"城崎温泉 泉翠","architect":"堀部安嗣","year":2019.0,"address":"兵庫県豊岡市城崎町湯島753","latitude":35.62712478637695,"longitude":134.8114013671875,"category":"旅館","description":"築50年の旅館の改修。玄関ホール・宴会場・厨房・二階客室。","image_url":""},{"id":9077,"title":"パークハイアット京都","architect":"竹中工務店","year":2019.0,"address":"京都府京都市東山区桝屋町360","latitude":34.99892807006836,"longitude":135.78089904785156,"category":"ホテル","description":"","image_url":""},{"id":9078,"title":"INAXライブミュージアム 窯のある広場・資料館","architect":"日置拓人","year":2019.0,"address":"愛知県常滑市奥栄町1-130","latitude":34.88156509399414,"longitude":136.84902954101562,"category":"博物館","description":"","image_url":""},{"id":9079,"title":"INAXライブミュージアム 土・どろんこ館","architect":"日置拓人","year":2006.0,"address":"愛知県常滑市奥栄町1-130","latitude":34.88230514526367,"longitude":136.84835815429688,"category":"博物館","description":"","image_url":""},{"id":9080,"title":"INAXライブミュージアム 建築陶器のはじまり館","architect":"日置拓人","year":2012.0,"address":"愛知県常滑市奥栄町1-130","latitude":34.88203811645508,"longitude":136.8488006591797,"category":"博物館","description":"","image_url":""},{"id":9081,"title":"池袋西口公園 GLOBAL RING","architect":"三菱地所","year":2019.0,"address":"東京都豊島区西池袋1-8-26","latitude":35.7301025390625,"longitude":139.708984375,"category":"広場","description":"","image_url":""},{"id":9082,"title":"コナミクリエイティブセンター銀座","architect":"櫻井潔","year":2019.0,"address":"東京都中央区銀座1-11-1","latitude":35.67462921142578,"longitude":139.7694854736328,"category":"オフィスビル","description":"","image_url":""},{"id":9083,"title":"鹿児島大学 稲盛記念館","architect":"櫻井潔","year":2019.0,"address":"鹿児島県鹿児島市郡元1-21","latitude":31.57024383544922,"longitude":130.54627990722656,"category":"大学/レストラン/カフェ","description":"","image_url":""},{"id":9084,"title":"ESCALIER 五番町","architect":"櫻井潔","year":2019.0,"address":"東京都千代田区五番町2-9","latitude":35.69041061401367,"longitude":139.73460388183594,"category":"オフィスビル","description":"","image_url":""},{"id":9085,"title":"ヒューリック大森ビル","architect":"櫻井潔","year":2017.0,"address":"東京都品川区南大井6-28-12","latitude":35.58847427368164,"longitude":139.7296600341797,"category":"複合ビル","description":"","image_url":""},{"id":9086,"title":"K5 旧兜町第5平和ビル","architect":"安斎好太郎+クラーソン・コイヴィスト・ルーネ+スピーク","year":2020.0,"address":"東京都中央区日本橋兜町3-5","latitude":35.68272018432617,"longitude":139.77801513671875,"category":"ホテル/レストラン/バー・居酒屋","description":"元第一銀行の建物をリノベーション。クレジット 耐震補強・外装工事デザイン監修：スピーク。耐震補強・外装工事設計：三菱地所設計。内装デザイン監修：クラーソン・コイヴィスト・ルーネ。内装設計：ADX(安斎好太郎)","image_url":""},{"id":9087,"title":"SEKIYA COFFEE & GOOD TIMES","architect":"安斎好太郎","year":2019.0,"address":"福島県福島市松川町関谷藤窪6-1","latitude":37.68379211425781,"longitude":140.45066833496094,"category":"カフェ/店舗","description":"","image_url":""},{"id":9088,"title":"土佐市複合文化施設 つなーで","architect":"MARU。architecture+聖建築研究所","year":2020.0,"address":"高知県土佐市高岡町乙3452-1","latitude":33.49894332885742,"longitude":133.4272918701172,"category":"総合文化施設/観光施設","description":"","image_url":""},{"id":9089,"title":"ルイ・ヴィトン メゾン大阪御堂筋店","architect":"青木淳+大成建設","year":2020.0,"address":"大阪府大阪市中央区心斎橋筋2-8-16","latitude":34.671531677246094,"longitude":135.50059509277344,"category":"店舗","description":"","image_url":""},{"id":9090,"title":"ふふ 奈良","architect":"隈研吾","year":2020.0,"address":"奈良県奈良市高畑町1184-1","latitude":34.678348541259766,"longitude":135.83932495117188,"category":"ホテル","description":"2020年6月オープン予定。既に予約は開始されているようです","image_url":""},{"id":9091,"title":"聖アンデレ教会信徒会館 アンデレホール","architect":"長島孝一","year":1983.0,"address":"東京都港区芝公園3-6-18","latitude":35.66038513183594,"longitude":139.7439422607422,"category":"教会","description":"","image_url":""},{"id":9092,"title":"下北沢 てっちゃん","architect":"隈研吾","year":2017.0,"address":"東京都世田谷区北沢2-1-5","latitude":35.65918731689453,"longitude":139.667724609375,"category":"バー・居酒屋/レストラン","description":"","image_url":""},{"id":9093,"title":"鶴川フェリシア保育園","architect":"隈研吾","year":2019.0,"address":"東京都町田市三輪町122-12","latitude":35.581825256347656,"longitude":139.4945831298828,"category":"幼稚園","description":"","image_url":""},{"id":9094,"title":"ルストホフ志木 ブロン/リヒト","architect":"ルストホフ設計連合","year":1997.0,"address":"埼玉県志木市本町2-10-50","latitude":35.83378982543945,"longitude":139.58230590820312,"category":"養護施設","description":"","image_url":""},{"id":9095,"title":"和光市中央公民館","architect":"INA新建築研究所","year":1996.0,"address":"埼玉県和光市中央1-7-27","latitude":35.78323745727539,"longitude":139.6108856201172,"category":"公民館・交流施設","description":"","image_url":""},{"id":9096,"title":"浅間町ハウス","architect":"大江弘之","year":2009.0,"address":"埼玉県さいたま市大宮区浅間町2-46","latitude":35.90189743041992,"longitude":139.63143920898438,"category":"集合住宅/カフェ","description":"","image_url":""},{"id":9097,"title":"狭山市立博物館","architect":"石本建築事務所","year":1991.0,"address":"埼玉県狭山市稲荷山1-23-1","latitude":35.84529113769531,"longitude":139.3950958251953,"category":"博物館","description":"","image_url":""},{"id":9098,"title":"富士見市民文化会館 キラリ☆ふじみ","architect":"A&T建築研究所","year":2002.0,"address":"埼玉県富士見市大字鶴馬1803-1","latitude":35.85759353637695,"longitude":139.55081176757812,"category":"ホール・劇場","description":"","image_url":""},{"id":9099,"title":"富士見市立富士見台中学校","architect":"小野正弘","year":1990.0,"address":"埼玉県富士見市諏訪2-8-1","latitude":35.85100555419922,"longitude":139.55029296875,"category":"学校","description":"","image_url":""},{"id":9100,"title":"富士見市鶴瀬公民館","architect":"小野正弘","year":1980.0,"address":"埼玉県富士見市羽沢3-23-10","latitude":35.85287857055664,"longitude":139.54049682617188,"category":"公民館・交流施設","description":"","image_url":""}]}