{"page":198,"total_pages":290,"items_per_page":50,"total_items":14467,"items":[{"id":9851,"title":"旧山崎家別邸","architect":"保岡勝也","year":1925.0,"address":"埼玉県川越市松江町2-7-7-8","latitude":35.9217414855957,"longitude":139.48452758789062,"category":"洋館/公園/古民家","description":"","image_url":""},{"id":9852,"title":"長崎次郎書店","architect":"保岡勝也","year":1924.0,"address":"熊本県熊本市中央区新町4-1-19","latitude":32.80009841918945,"longitude":130.69676208496094,"category":"洋館/店舗","description":"","image_url":""},{"id":9853,"title":"平野家住宅  旧麻田駒之助邸","architect":"保岡勝也","year":1921.0,"address":"東京都文京区西片2-9-12","latitude":35.714866638183594,"longitude":139.75584411621094,"category":"洋館","description":"","image_url":""},{"id":9854,"title":"りそなコエドテラス 旧第八十五銀行本店","architect":"保岡勝也","year":1918.0,"address":"埼玉県川越市幸町4-2","latitude":35.9225959777832,"longitude":139.48318481445312,"category":"金融機関/洋館","description":"りそなコエドテラスとして2024年改修","image_url":""},{"id":9855,"title":"木内ギャラリー 旧木内重四郎別邸","architect":"保岡勝也","year":1914.0,"address":"千葉県市川市真間4-11-4","latitude":35.739959716796875,"longitude":139.90550231933594,"category":"洋館","description":"和洋館のうち洋館部分のみを移築復元","image_url":""},{"id":9856,"title":"上野海運ビル","architect":"保岡勝也+三菱地所","year":1913.0,"address":"福岡県北九州市若松区本町1-10-17","latitude":33.90258026123047,"longitude":130.8140106201172,"category":"オフィスビル/カフェ","description":"","image_url":""},{"id":9857,"title":"唐津市歴史民俗資料館 旧三菱合資会社長崎支店唐津出張所","architect":"保岡勝也+三菱地所","year":1908.0,"address":"佐賀県唐津市海岸通7181","latitude":33.47085952758789,"longitude":129.95384216308594,"category":"洋館/博物館","description":"","image_url":""},{"id":9858,"title":"銀河館 旧土田卯三郎別荘","architect":"ジョサイア・コンドル","year":1882.0,"address":"神奈川県足柄下郡湯河原町吉浜1-4","latitude":35.1508903503418,"longitude":139.1228790283203,"category":"洋館","description":"旧東京帝室博物館本館が関東大震災により大破。その後湯河原に一部移築した邸宅。2005年藤木隆男が修復。現在はサロン・イベント等で利用されている","image_url":""},{"id":9859,"title":"開東閣 旧岩崎弥之助高輪邸","architect":"ジョサイア・コンドル","year":1908.0,"address":"東京都港区高輪4-25-33","latitude":35.62392044067383,"longitude":139.73655700683594,"category":"洋館","description":"","image_url":""},{"id":9860,"title":"岩崎家廟堂","architect":"ジョサイア・コンドル","year":1910.0,"address":"東京都世田谷区岡本2-23-1","latitude":35.62213897705078,"longitude":139.6200714111328,"category":"霊園","description":"","image_url":""},{"id":9861,"title":"目黒雅叙園 旬遊紀 「南風」「玉城」 旧岩永省一邸","architect":"ジョサイア・コンドル","year":1912.0,"address":"東京都目黒区下目黒1-8-1","latitude":35.63039016723633,"longitude":139.7142333984375,"category":"レストラン","description":"目黒叙々苑内の中華料理屋の個室二つがコンドルの設計","image_url":""},{"id":9862,"title":"大手町ワン","architect":"日建設計+鹿島建設+SOM","year":2020.0,"address":"東京都千代田区大手町1-2-1","latitude":35.68776321411133,"longitude":139.76229858398438,"category":"オフィスビル/ホテル","description":"A棟三井物産ビル。B棟Otemachi One タワー。デザイン・アーキテクトとしてSOM","image_url":""},{"id":9863,"title":"TOKYO MIDORI LABO.","architect":"西田司","year":2020.0,"address":"東京都中央区日本橋浜町3-9-5","latitude":35.68391418457031,"longitude":139.7888946533203,"category":"オフィスビル","description":"","image_url":""},{"id":9864,"title":"浜町LAB.","architect":"o+h","year":2020.0,"address":"東京都中央区日本橋浜町3-10-1","latitude":35.684017181396484,"longitude":139.788818359375,"category":"オフィスビル/シェアオフィス","description":"既存ビルの改修。1階をo+hの事務所、2階をシェアオフィス。","image_url":""},{"id":9865,"title":"T-HOUSE New Balance","architect":"西田司+長坂常","year":2020.0,"address":"東京都中央区日本橋浜町3-9-2","latitude":35.68373107910156,"longitude":139.7890625,"category":"低層オフィス","description":"","image_url":""},{"id":9866,"title":"東京ミズマチ","architect":"オー・エヌ・オー大野設計","year":2020.0,"address":"東京都墨田区向島1-2","latitude":35.711219787597656,"longitude":139.80287170410156,"category":"モール","description":"","image_url":""},{"id":9867,"title":"すみだリバーウォーク","architect":"東武鉄道+杉山圭+鹿島建設+東日本総合計画","year":2020.0,"address":"東京都墨田区向島1-1","latitude":35.71211624145508,"longitude":139.80096435546875,"category":"橋","description":"","image_url":""},{"id":9868,"title":"JR横浜タワー・JR横浜鶴屋町ビル","architect":"ジェイアール東日本建築設計事務所","year":2020.0,"address":"神奈川県横浜市西区南幸1-1-1","latitude":35.466732025146484,"longitude":139.62232971191406,"category":"テナントビル/オフィスビル","description":"","image_url":""},{"id":9869,"title":"守口市立図書館","architect":"SALHAUS","year":2020.0,"address":"大阪府守口市大日町2-14-10","latitude":34.751609802246094,"longitude":135.57774353027344,"category":"図書館","description":"既存生涯学習情報センターの改修","image_url":""},{"id":9870,"title":"広野町こども園","architect":"関・空間設計+藤野高志","year":2019.0,"address":"福島県双葉郡広野町中央台1-8","latitude":37.21204376220703,"longitude":140.991455078125,"category":"幼稚園","description":"","image_url":""},{"id":9871,"title":"桃沢野外活動センター","architect":"光嶋裕介","year":2020.0,"address":"静岡県駿東郡長泉町元長窪895-108","latitude":35.18118667602539,"longitude":138.8417205810547,"category":"コテージ/観光施設/公園","description":"キャンプ場内にコテージやサウナ、BBQ施設の新設","image_url":""},{"id":9872,"title":"石山公園の屋根","architect":"萬代基介","year":2020.0,"address":"岡山県岡山市北区石関町7","latitude":34.665889739990234,"longitude":133.9325408935547,"category":"レストラン/公園","description":"公園内に仮設の膜屋根とコンテナ","image_url":""},{"id":9873,"title":"大井町駅前公衆便所","architect":"あかるい建築計画","year":2020.0,"address":"東京都品川区大井1-2","latitude":35.60553741455078,"longitude":139.73472595214844,"category":"トイレ","description":"","image_url":""},{"id":9874,"title":"千駄ヶ谷のトイレ","architect":"谷尻誠","year":2020.0,"address":"東京都渋谷区千駄ケ谷1-35","latitude":35.6807746887207,"longitude":139.7121124267578,"category":"トイレ","description":"","image_url":""},{"id":9875,"title":"MUNI KYOTO","architect":"安田幸一","year":2020.0,"address":"京都府京都市右京区嵯峨天龍寺芒ノ馬場町3","latitude":35.01365661621094,"longitude":135.67669677734375,"category":"ホテル","description":"","image_url":""},{"id":9876,"title":"ワーケーションサイト軽井沢","architect":"田辺雄之","year":2020.0,"address":"長野県北佐久郡軽井沢町大字軽井沢字野沢原1323-1387","latitude":36.349674224853516,"longitude":138.62973022460938,"category":"シェアオフィス/カフェ","description":"既存カフェの改修、フォリーの増設","image_url":""},{"id":9877,"title":"富士山・白糸ノ滝テラス","architect":"千代田コンサルタント+落合正行","year":2020.0,"address":"静岡県富士宮市上井出273-1","latitude":35.31331253051758,"longitude":138.58847045898438,"category":"モール/観光施設","description":"","image_url":""},{"id":9878,"title":"シライトジェネラルストア","architect":"落合正行","year":2020.0,"address":"静岡県富士宮市上井出266-4","latitude":35.31281280517578,"longitude":138.58843994140625,"category":"店舗","description":"","image_url":""},{"id":9879,"title":"マザーズ プラス","architect":"竹中工務店","year":2020.0,"address":"北海道白老郡白老町字社台289-1","latitude":42.5645637512207,"longitude":141.38125610351562,"category":"店舗","description":"","image_url":""},{"id":9880,"title":"THE TOKYO TOILET 04 西原一丁目公園トイレ","architect":"坂倉竹之助","year":2020.0,"address":"東京都渋谷区西原1-29-1","latitude":35.67781066894531,"longitude":139.67982482910156,"category":"トイレ","description":"","image_url":""},{"id":9881,"title":"THE TOKYO TOILET 07 はるのおがわコミュニティパークトイレ","architect":"坂茂","year":2020.0,"address":"東京都渋谷区代々木5-68-1","latitude":35.672245025634766,"longitude":139.69107055664062,"category":"トイレ","description":"","image_url":""},{"id":9882,"title":"THE TOKYO TOILET 08 代々木深町小公園トイレ","architect":"坂茂","year":2020.0,"address":"東京都渋谷区富ヶ谷1-54-1","latitude":35.66933822631836,"longitude":139.69073486328125,"category":"トイレ","description":"","image_url":""},{"id":9883,"title":"THE TOKYO TOILET 11 神宮通公園トイレ","architect":"安藤忠雄","year":2020.0,"address":"東京都渋谷区神宮前6-22-8","latitude":35.664188385009766,"longitude":139.70205688476562,"category":"トイレ","description":"","image_url":""},{"id":9884,"title":"THE TOKYO TOILET 13 東三丁目公衆トイレ","architect":"田村奈穂","year":2020.0,"address":"東京都渋谷区東3-27-1","latitude":35.64895248413086,"longitude":139.70916748046875,"category":"トイレ","description":"","image_url":""},{"id":9885,"title":"THE TOKYO TOILET 14 恵比寿公園トイレ","architect":"片山正通","year":2020.0,"address":"東京都渋谷区恵比寿西1-19-1","latitude":35.647186279296875,"longitude":139.70712280273438,"category":"トイレ","description":"","image_url":""},{"id":9886,"title":"THE TOKYO TOILET 16 恵比寿東公園トイレ","architect":"槇文彦","year":2020.0,"address":"東京都渋谷区恵比寿1-2-16","latitude":35.64817810058594,"longitude":139.71121215820312,"category":"トイレ","description":"","image_url":""},{"id":9887,"title":"ホテル雅叙園東京","architect":"日建設計","year":1991.0,"address":"東京都目黒区下目黒1-8-1","latitude":35.632015228271484,"longitude":139.7136688232422,"category":"ホテル","description":"","image_url":""},{"id":9888,"title":"世田谷文学館","architect":"杉村フリートウッド建築エンジニア建築事務所","year":1995.0,"address":"東京都世田谷区南烏山1-10-10","latitude":35.66699981689453,"longitude":139.60890197753906,"category":"博物館","description":"","image_url":""},{"id":9889,"title":"六本木ヒルズ 森タワー","architect":"森ビル+コーン・ペダーセン・フォックス+入江三宅設計事務所+ジョン・ジャーディ","year":2003.0,"address":"東京都港区六本木6-10-1","latitude":35.660640716552734,"longitude":139.7293701171875,"category":"複合ビル/テナントビル","description":"","image_url":""},{"id":9890,"title":"六本木ヒルズ 森美術館","architect":"リチャード・グラックマン","year":2003.0,"address":"東京都港区六本木6-10-1 六本木ヒルズ森タワー53F","latitude":35.660179138183594,"longitude":139.72901916503906,"category":"美術館","description":"","image_url":""},{"id":9891,"title":"パナソニック東京汐留ビル","architect":"日本設計","year":2003.0,"address":"東京都港区東新橋1-5-1","latitude":35.665931701660156,"longitude":139.7619171142578,"category":"オフィスビル/美術館","description":"パナソニック汐留美術館が入居","image_url":""},{"id":9892,"title":"虎ノ門NNビル","architect":"槇文彦","year":1981.0,"address":"東京都港区虎ノ門1-21-17","latitude":35.6679801940918,"longitude":139.74842834472656,"category":"オフィスビル","description":"","image_url":""},{"id":9893,"title":"カランタ1966","architect":"竹中工務店","year":2005.0,"address":"東京都目黒区自由が丘1-4-10","latitude":35.60824966430664,"longitude":139.67115783691406,"category":"集合住宅","description":"1966年竣工のオフィスビルを集合住宅にコンバージョン","image_url":""},{"id":9894,"title":"胎内市総合体育館 ぷれすぽ胎内","architect":"石本建築事務所","year":2016.0,"address":"新潟県胎内市清水9-7","latitude":38.07179641723633,"longitude":139.39678955078125,"category":"体育館","description":"","image_url":""},{"id":9895,"title":"日本工業大学 多目的講義棟 Learning Cube","architect":"石本建築事務所","year":2018.0,"address":"埼玉県南埼玉郡宮代町学園台4-1","latitude":36.026981353759766,"longitude":139.71295166015625,"category":"大学","description":"","image_url":""},{"id":9896,"title":"須恵たかさき脳神経外科クリニック","architect":"村上明生","year":2019.0,"address":"福岡県糟屋郡須惠町大字須惠508-1","latitude":33.59584426879883,"longitude":130.50486755371094,"category":"個人医院","description":"","image_url":""},{"id":9897,"title":"北村理科クリニック","architect":"村上明生","year":2012.0,"address":"長崎県大村市久原2-902-1","latitude":32.8955192565918,"longitude":129.967529296875,"category":"個人医院","description":"","image_url":""},{"id":9898,"title":"みきクリニック","architect":"村上明生","year":2017.0,"address":"長崎県長崎市横尾1-10-3","latitude":32.81146240234375,"longitude":129.837158203125,"category":"個人医院","description":"","image_url":""},{"id":9899,"title":"みやざき美容クリニック","architect":"村上明生","year":2018.0,"address":"宮崎県宮崎市船塚3-195","latitude":31.9324893951416,"longitude":131.41741943359375,"category":"個人医院","description":"","image_url":""},{"id":9900,"title":"大和ハウス本社ビル レストラウンジ","architect":"橋口新一郎","year":2014.0,"address":"大阪府大阪市北区梅田3-3-5","latitude":34.69944763183594,"longitude":135.49282836914062,"category":"企業施設","description":"","image_url":""}]}