{"page":22,"total_pages":290,"items_per_page":50,"total_items":14467,"items":[{"id":1051,"title":"高尾の森わくわくビレッジ","architect":"仙田満","year":2005.0,"address":"東京都八王子市川町55","latitude":35.673675537109375,"longitude":139.2766571044922,"category":"体験施設","description":"","image_url":""},{"id":1052,"title":"高尾森林センター「森林ふれあい館」","architect":"杉本洋文","year":2002.0,"address":"東京都八王子市高尾町2438-1","latitude":35.630035400390625,"longitude":139.26870727539062,"category":"体験施設","description":"","image_url":""},{"id":1053,"title":"N-Cityクラブウエスト","architect":"飯田善彦","year":2002.0,"address":"東京都八王子市別所1-115","latitude":35.615455627441406,"longitude":139.3922576904297,"category":"公民館・交流施設","description":"","image_url":""},{"id":1054,"title":"多摩美術大学図書館","architect":"伊東豊雄","year":2010.0,"address":"東京都八王子市鑓水2-1723","latitude":35.611572265625,"longitude":139.35118103027344,"category":"図書館/大学","description":"","image_url":"https://farm3.staticflickr.com/2869/9071363191_7377e8fbf8_h.jpg"},{"id":1055,"title":"八丈島歴史民俗資料館","architect":"不明","year":1939.0,"address":"東京都八丈町大賀郷1186","latitude":33.102317810058594,"longitude":139.785888671875,"category":"洋館","description":"","image_url":""},{"id":1056,"title":"Shiroyama Green Wall ひまわりキッズガーデン","architect":"飯塚拓生","year":2011.0,"address":"東京都板橋区志村1-30-15","latitude":35.775062561035156,"longitude":139.689453125,"category":"集合住宅","description":"","image_url":""},{"id":1057,"title":"巣鴨信用金庫 志村支店","architect":"エマニュエル・ムホー","year":2011.0,"address":"東京都板橋区小豆沢1-13-8","latitude":35.77419662475586,"longitude":139.69772338867188,"category":"金融機関","description":"","image_url":""},{"id":1058,"title":"巣鴨信用金庫 常盤台支店","architect":"エマニュエル・ムホー","year":2010.0,"address":"東京都板橋区前野町6-4-14","latitude":35.76484680175781,"longitude":139.68487548828125,"category":"金融機関","description":"","image_url":""},{"id":1059,"title":"大東文化大学 板橋キャンパス","architect":"中村勉+山本・堀アーキテクツ","year":2005.0,"address":"東京都板橋区高島平1-9-1","latitude":35.78261947631836,"longitude":139.66795349121094,"category":"大学","description":"","image_url":""},{"id":1060,"title":"清泉女子大学 旧島津家袖ヶ崎邸","architect":"ジョサイア・コンドル","year":1915.0,"address":"東京都品川区東五反田3-16-21","latitude":35.62739181518555,"longitude":139.7289581298828,"category":"洋館","description":"4月～6月、10～12月の特定の日だけ見学可能","image_url":""},{"id":1061,"title":"聖アンセルモ目黒教会 カトリック目黒教会","architect":"アントニン・レーモンド","year":1954.0,"address":"東京都品川区上大崎4-6-22","latitude":35.63215637207031,"longitude":139.71556091308594,"category":"教会","description":"","image_url":""},{"id":1062,"title":"有時庵","architect":"磯崎新","year":1992.0,"address":"東京都品川区北品川4-7","latitude":35.621795654296875,"longitude":139.73699951171875,"category":"茶室","description":"御殿山ガーデン内","image_url":""},{"id":1063,"title":"香蘭女学校","architect":"内井昭蔵","year":1978.0,"address":"東京都品川区旗の台6-22-21","latitude":35.60760498046875,"longitude":139.70201110839844,"category":"学校","description":"","image_url":""},{"id":1064,"title":"日本ペイント明治記念館","architect":"不明","year":null,"address":"東京都品川区南品川4-1-15","latitude":35.61457824707031,"longitude":139.73736572265625,"category":"洋館","description":"平日のみ見学可","image_url":""},{"id":1065,"title":"LSビル 旧ツバメコート本社屋","architect":"内井昭蔵","year":1973.0,"address":"東京都品川区上大崎1-1-17","latitude":35.63437271118164,"longitude":139.72030639648438,"category":"オフィスビル","description":"取り壊された模様","image_url":""},{"id":1066,"title":"原美術館","architect":"渡辺仁","year":1938.0,"address":"東京都品川区北品川4-7-25","latitude":35.62101745605469,"longitude":139.73605346679688,"category":"美術館","description":"解体","image_url":"https://lh3.googleusercontent.com/-MjOHDio6ynU/T45gK6HD4CI/AAAAAAAAKbY/urTTWSWfxzw/s1024/P4177974.JPG"},{"id":1067,"title":"東京デザインセンター","architect":"マリオ・ベリーニ","year":1992.0,"address":"東京都品川区東五反田5-25-19","latitude":35.62769317626953,"longitude":139.72442626953125,"category":"企業施設","description":"","image_url":"https://farm6.staticflickr.com/5519/10823246074_903cef6e34_h.jpg"},{"id":1068,"title":"多磨霊園納骨堂 みたま堂","architect":"内井昭蔵","year":1993.0,"address":"東京都府中市多磨町4-628","latitude":35.67873001098633,"longitude":139.5143585205078,"category":"斎場","description":"","image_url":""},{"id":1069,"title":"府中市美術館","architect":"日本設計","year":2000.0,"address":"東京都府中市浅間町1-3","latitude":35.67877960205078,"longitude":139.49215698242188,"category":"美術館","description":"","image_url":""},{"id":1070,"title":"旧府中町役場庁舎","architect":"不明","year":1921.0,"address":"東京都府中市南町6-32 ","latitude":35.65660095214844,"longitude":139.4730987548828,"category":"洋館","description":"","image_url":""},{"id":1071,"title":"成蹊大学 情報図書館","architect":"坂茂","year":2006.0,"address":"東京都武蔵野市 吉祥寺北町3-3-1","latitude":35.71158218383789,"longitude":139.5733642578125,"category":"図書館","description":"","image_url":""},{"id":1072,"title":"ナミュールノートルダム修道女会東京修道院 旧赤星鉄馬邸","architect":"アントニン・レーモンド","year":1934.0,"address":"東京都武蔵野市吉祥寺本町4-26-21","latitude":35.70932388305664,"longitude":139.57196044921875,"category":"住宅/教会","description":"武蔵野市が取得し、将来公園として一般公開の予定","image_url":""},{"id":1073,"title":"ひと・まち・情報創造館 武蔵野プレイス・境南ふれあい広場公園","architect":"kw+hgアーキテクツ","year":2011.0,"address":"東京都武蔵野市境南町2-3-18","latitude":35.7011604309082,"longitude":139.54368591308594,"category":"図書館","description":"","image_url":""},{"id":1074,"title":"0123 はらっぱ","architect":"横河健","year":2001.0,"address":"東京都武蔵野市吉祥寺東町2-29-12","latitude":35.70933151245117,"longitude":139.58494567871094,"category":"幼稚園","description":"","image_url":""},{"id":1075,"title":"ハモニカ横丁ミタカ","architect":"マウントフジアーキテクツスタジオ+隈研吾","year":2013.0,"address":"東京都武蔵野市中町1-5-8","latitude":35.7039680480957,"longitude":139.5599365234375,"category":"モール/バー・居酒屋","description":"2017年隈研吾によりさらに改修？","image_url":""},{"id":1076,"title":"吉祥寺ハモニカ横丁 エプロン","architect":"アトリエ・ワン","year":2013.0,"address":"東京都武蔵野市中町1-5-8","latitude":35.703895568847656,"longitude":139.55999755859375,"category":"バー・居酒屋","description":"","image_url":""},{"id":1077,"title":"武蔵野市立吉祥寺美術館","architect":"鬼頭梓","year":2001.0,"address":"東京都武蔵野市吉祥寺本町1-8-16","latitude":35.704551696777344,"longitude":139.5780792236328,"category":"美術館","description":"","image_url":""},{"id":1078,"title":"福生市庁舎","architect":"山本理顕","year":2008.0,"address":"東京都福生市本町5","latitude":35.73845291137695,"longitude":139.32691955566406,"category":"庁舎","description":"","image_url":""},{"id":1079,"title":"東洋文庫","architect":"三菱地所","year":2012.0,"address":"東京都文京区本駒込2-28-21","latitude":35.73133850097656,"longitude":139.7486114501953,"category":"博物館","description":"中でもモリソン文庫が見所","image_url":""},{"id":1080,"title":"文京区 森鴎外記念館","architect":"陶器二三雄","year":2012.0,"address":"東京都文京区千駄木1-23-4","latitude":35.72492980957031,"longitude":139.76063537597656,"category":"博物館","description":"","image_url":""},{"id":1081,"title":"スカイハウス","architect":"菊竹清訓","year":1958.0,"address":"東京都文京区大塚1-11-15","latitude":35.7154541015625,"longitude":139.7299346923828,"category":"住宅","description":"","image_url":""},{"id":1082,"title":"鳩山会館","architect":"岡田信一郎","year":1924.0,"address":"東京都文京区音羽1-7-1","latitude":35.713844299316406,"longitude":139.73123168945312,"category":"洋館","description":"","image_url":""},{"id":1083,"title":"旧安田楠雄邸庭園","architect":"不明","year":1919.0,"address":"東京都文京区千駄木5-20-18","latitude":35.727088928222656,"longitude":139.76014709472656,"category":"庭園","description":"毎週水・土曜日","image_url":""},{"id":1084,"title":"文京区 スポーツセンター","architect":"大谷幸夫","year":1986.0,"address":"東京都文京区大塚3-29-2","latitude":35.72053909301758,"longitude":139.73643493652344,"category":"プール/体育館","description":"","image_url":""},{"id":1085,"title":"東京大学総合研究博物館 小石川分館","architect":"永山建築設計","year":2001.0,"address":"東京都文京区白山3-7-1","latitude":35.71854782104492,"longitude":139.7464599609375,"category":"博物館","description":"","image_url":""},{"id":1086,"title":"東京大学 弥生講堂アネックス エンゼルホール","architect":"河野泰治","year":2008.0,"address":"東京都文京区弥生1-1-1","latitude":35.71652603149414,"longitude":139.7586212158203,"category":"大学","description":"","image_url":""},{"id":1087,"title":"和敬塾本館","architect":"大森茂+臼井弥枝","year":1936.0,"address":"東京都文京区目白台1-21-2","latitude":35.714298248291016,"longitude":139.7236785888672,"category":"洋館","description":"","image_url":""},{"id":1088,"title":"求道会館","architect":"武田五一","year":1915.0,"address":"東京都文京区本郷6-20-5","latitude":35.71376037597656,"longitude":139.75779724121094,"category":"洋館","description":"年に数回公開イベント","image_url":""},{"id":1089,"title":"東京大学 法学政治学系 総合教育棟","architect":"槇文彦","year":2004.0,"address":"東京都文京区本郷7-3-1","latitude":35.712501525878906,"longitude":139.75979614257812,"category":"大学","description":"","image_url":""},{"id":1090,"title":"東京大学 文学部3号館","architect":"大谷幸夫","year":1987.0,"address":"東京都文京区本郷7-3-1","latitude":35.71226501464844,"longitude":139.7611541748047,"category":"大学","description":"","image_url":""},{"id":1091,"title":"東京大学 法学部4号館","architect":"大谷幸夫","year":1987.0,"address":"東京都文京区本郷7-3-1","latitude":35.71217727661133,"longitude":139.76011657714844,"category":"大学","description":"","image_url":""},{"id":1092,"title":"国際仏教学大学院大学","architect":"槇文彦","year":2010.0,"address":"東京都文京区春日2-8-9","latitude":35.711448669433594,"longitude":139.7409210205078,"category":"大学","description":"","image_url":""},{"id":1093,"title":"東京大学 情報学環・福武ホール","architect":"安藤忠雄","year":2008.0,"address":"東京都文京区本郷7-3-1","latitude":35.7114143371582,"longitude":139.7601318359375,"category":"大学/ホール・劇場","description":"","image_url":""},{"id":1094,"title":"国立近現代建築資料館","architect":"不明","year":2013.0,"address":"東京都文京区湯島4-6-15","latitude":35.7092399597168,"longitude":139.7667694091797,"category":"博物館","description":"","image_url":""},{"id":1095,"title":"吉岡ライブラリー","architect":"平田晃久","year":2011.0,"address":"東京都文京区湯島2-31-2","latitude":35.70709228515625,"longitude":139.76666259765625,"category":"図書館","description":"毎週水・木・金曜日 午後。2012年に閉館。","image_url":""},{"id":1096,"title":"トーキョーワンダーサイト本郷","architect":"ライフスケープ研究所","year":2000.0,"address":"東京都文京区本郷2-4-16","latitude":35.7029914855957,"longitude":139.7592315673828,"category":"美術館","description":"","image_url":""},{"id":1097,"title":"ファーブル昆虫館「虫の詩人の館」","architect":"シィエル・ルージュ・クレアシオン","year":2005.0,"address":"東京都文京区千駄木5-46-6","latitude":35.72975540161133,"longitude":139.7588348388672,"category":"博物館","description":"","image_url":""},{"id":1098,"title":"東洋大学","architect":"高橋靗一","year":1992.0,"address":"東京都文京区白山5-28-20","latitude":35.72323989868164,"longitude":139.7506561279297,"category":"大学","description":"","image_url":""},{"id":1099,"title":"東京大学 弥生講堂 一条ホール","architect":"香山壽夫","year":2000.0,"address":"東京都文京区弥生1-1-1","latitude":35.7158317565918,"longitude":139.75897216796875,"category":"大学","description":"","image_url":""},{"id":1100,"title":"永青文庫 旧細川侯爵家事務所","architect":"不明","year":null,"address":"東京都文京区目白台1-1-1","latitude":35.71320724487305,"longitude":139.7232666015625,"category":"洋館","description":"日曜、月曜、祝日休み","image_url":""}]}