{"page":57,"total_pages":290,"items_per_page":50,"total_items":14467,"items":[{"id":2801,"title":"旧福岡県公会堂貴賓室","architect":"三條栄三郎","year":1910.0,"address":"福岡県福岡市中央区西中州6-29","latitude":33.59159469604492,"longitude":130.40435791015625,"category":"洋館/博物館","description":"重要文化財","image_url":""},{"id":2802,"title":"大村美容専門学校 ルミエール","architect":"高松伸","year":1998.0,"address":"福岡県福岡市中央区黒門2-6","latitude":33.58967590332031,"longitude":130.3727264404297,"category":"専門学校","description":"","image_url":""},{"id":2803,"title":"大村ファッションカレッジ ルミナーレ","architect":"高松伸","year":2002.0,"address":"福岡県福岡市中央区黒門4-41","latitude":33.58916473388672,"longitude":130.37278747558594,"category":"専門学校","description":"","image_url":""},{"id":2804,"title":"イル・カセット","architect":"古谷誠章","year":2002.0,"address":"福岡県福岡市中央区大名1-2-5","latitude":33.585853576660156,"longitude":130.39503479003906,"category":"オフィスビル","description":"","image_url":""},{"id":2805,"title":"金光教福岡高宮教会","architect":"六角鬼丈","year":1980.0,"address":"福岡県福岡市南区高宮5-17-4","latitude":33.56516647338867,"longitude":130.4148712158203,"category":"教会","description":"","image_url":""},{"id":2806,"title":"木の葉モール橋本","architect":"ジョン・ジャーディ","year":2011.0,"address":"福岡県福岡市西区橋本2-27-2","latitude":33.555606842041016,"longitude":130.32264709472656,"category":"モール","description":"","image_url":""},{"id":2807,"title":"福岡銀行本店","architect":"黒川紀章","year":1975.0,"address":"福岡県福岡市中央区天神2-13-1","latitude":33.591800689697266,"longitude":130.3977813720703,"category":"金融機関/オフィスビル","description":"","image_url":""},{"id":2808,"title":"アイランドシティ中央公園 ぐりんぐりん","architect":"伊東豊雄","year":2005.0,"address":"福岡県福岡市東区香椎照葉4-","latitude":33.66384506225586,"longitude":130.41917419433594,"category":"公園","description":"","image_url":""},{"id":2809,"title":"ネクサスワールド レム・コールハース棟","architect":"レム・コールハース/OMA","year":1991.0,"address":"福岡県福岡市東区香椎浜4-1-9","latitude":33.654048919677734,"longitude":130.43409729003906,"category":"集合住宅","description":"","image_url":""},{"id":2810,"title":"ネクサスワールド スティーヴン･ホール棟","architect":"スティーヴン・ホール","year":1991.0,"address":"福岡県福岡市東区香椎浜4-2-2","latitude":33.65420913696289,"longitude":130.43296813964844,"category":"集合住宅","description":"","image_url":""},{"id":2811,"title":"地層のフォリー","architect":"o+h 他","year":2009.0,"address":"福岡県福岡市東区香椎照葉4-26-7","latitude":33.663761138916016,"longitude":130.42225646972656,"category":"オブジェ","description":"福岡アイランドシティ内","image_url":""},{"id":2812,"title":"ネクサスワールド クリスチャン・ド・ポルザンパルク棟","architect":"クリスチャン・ド・ポルザンパルク","year":1991.0,"address":"福岡県福岡市東区香椎浜4-1-3","latitude":33.654972076416016,"longitude":130.43557739257812,"category":"集合住宅","description":"","image_url":""},{"id":2813,"title":"ネクサスワールド 石山修武棟","architect":"石山修武","year":1991.0,"address":"福岡県福岡市東区香椎浜4-1-7","latitude":33.654136657714844,"longitude":130.43492126464844,"category":"集合住宅","description":"","image_url":""},{"id":2814,"title":"アクロス福岡","architect":"エミリオ・アンバース+日本設計+竹中工務店","year":1995.0,"address":"福岡県福岡市中央区天神1-1-1","latitude":33.59097671508789,"longitude":130.4029541015625,"category":"モール","description":"","image_url":""},{"id":2815,"title":"ネクサスワールド オスカー・トゥスケ棟","architect":"オスカー・トゥスケ","year":1991.0,"address":"福岡県福岡市東区香椎浜4-1-1","latitude":33.655487060546875,"longitude":130.43544006347656,"category":"集合住宅","description":"","image_url":""},{"id":2816,"title":"ネクサスワールド マークマック棟","architect":"マーク・マック","year":1991.0,"address":"福岡県福岡市東区香椎浜4-1-8","latitude":33.65380096435547,"longitude":130.43458557128906,"category":"集合住宅","description":"","image_url":""},{"id":2817,"title":"赤煉瓦文化館 福岡市文学館 旧日本生命九州支店","architect":"辰野金吾+片岡安","year":1909.0,"address":"福岡県福岡市中央区天神1-15-30","latitude":33.5931282043457,"longitude":130.40182495117188,"category":"博物館/洋館","description":"","image_url":""},{"id":2818,"title":"ホテル イル・パラッツォ","architect":"アルド・ロッシ","year":1989.0,"address":"福岡県福岡市中央区春吉3-13-1","latitude":33.58977127075195,"longitude":130.40719604492188,"category":"ホテル","description":"内田デザイン研究所により2023年改装。2023年10月1日オープン予定","image_url":""},{"id":2819,"title":"キャナルシティ博多","architect":"ジョン・ジャーディ","year":1996.0,"address":"福岡県福岡市博多区住吉1ｰ2","latitude":33.58982849121094,"longitude":130.4107208251953,"category":"モール","description":"","image_url":""},{"id":2820,"title":"金田町ふれあい塾","architect":"葉祥栄","year":1994.0,"address":"福岡県田川郡福智町神崎1094-1","latitude":33.673072814941406,"longitude":130.75656127929688,"category":"研修施設","description":"","image_url":""},{"id":2821,"title":"西日本工業倶楽部会館 旧松本健次郎邸","architect":"辰野金吾+片岡安+久保田小三郎","year":1911.0,"address":"福岡県北九州市戸畑区一枝1-4-33","latitude":33.8848762512207,"longitude":130.836669921875,"category":"洋館/レストラン/結婚式場","description":"毎年2回、春と秋に一般公開。洋館を辰野金吾、日本館を久保田小三郎が設計","image_url":""},{"id":2822,"title":"北九州市環境ミュージアム","architect":"昭和設計+吉羽逸郎","year":2001.0,"address":"福岡県北九州市八幡東区東田2-2-6","latitude":33.867862701416016,"longitude":130.80755615234375,"category":"博物館","description":"アイ・エフ建築設計研究所の旧サイトWorks欄に記載があったので設計者に吉羽逸郎を併記していますが、現在アイ・エフ建築設計研究所のWebサイトは閲覧不可となっており確認が取れませんでした。詳細分かり次第アップデート予定","image_url":""},{"id":2823,"title":"八幡市民会館","architect":"村野藤吾","year":1958.0,"address":"福岡県北九州市八幡東区尾倉2-6-5","latitude":33.86453628540039,"longitude":130.79527282714844,"category":"ホール・劇場","description":"存続が危ぶまれていたが市立埋蔵文化財センターを移転させることにより保存が決まった","image_url":""},{"id":2824,"title":"めかりパーキングエリア","architect":"菊竹清訓","year":1973.0,"address":"福岡県北九州市門司区門司3491","latitude":33.958091735839844,"longitude":130.96298217773438,"category":"PA・道の駅","description":"","image_url":""},{"id":2825,"title":"九州工業大学 記念講堂／事務棟","architect":"清家清","year":1959.0,"address":"福岡県北九州市戸畑区仙水町1-1","latitude":33.89413070678711,"longitude":130.83929443359375,"category":"学校","description":"","image_url":""},{"id":2826,"title":"西日本総合展示場","architect":"磯崎新","year":1977.0,"address":"福岡県北九州市小倉北区浅野3-8-1","latitude":33.889678955078125,"longitude":130.8853302001953,"category":"展示・会議場","description":"","image_url":""},{"id":2827,"title":"NRCC ニューロビン・カルチャー・センター","architect":"葉祥栄","year":1980.0,"address":"福岡県北九州市小倉北区鍛冶町2-2-11","latitude":33.88216781616211,"longitude":130.8852996826172,"category":"オフィスビル","description":"","image_url":""},{"id":2828,"title":"ARK IN 976","architect":"吉柳満","year":1989.0,"address":"福岡県北九州市小倉北区馬借1-3-11","latitude":33.881614685058594,"longitude":130.87782287597656,"category":"オフィスビル","description":"","image_url":""},{"id":2829,"title":"北九州市立いのちのたび博物館","architect":"久米設計","year":2001.0,"address":"福岡県北九州市八幡東区東田2-4-1","latitude":33.869197845458984,"longitude":130.80853271484375,"category":"博物館","description":"","image_url":""},{"id":2830,"title":"現代美術センター・CCA北九州","architect":"不明","year":null,"address":"福岡県北九州市八幡東区尾倉2-6-1","latitude":33.86518478393555,"longitude":130.79637145996094,"category":"美術館","description":"","image_url":""},{"id":2831,"title":"旧北九州市立八幡図書館","architect":"村野藤吾","year":1955.0,"address":"福岡県北九州市八幡東区尾倉2-6-2","latitude":33.86516189575195,"longitude":130.79586791992188,"category":"図書館","description":"2016年解体","image_url":""},{"id":2832,"title":"北九州市立国際村交流センター","architect":"石井和紘","year":1993.0,"address":"福岡県北九州市八幡東区平野1-1-1","latitude":33.86220932006836,"longitude":130.7936248779297,"category":"総合文化施設","description":"","image_url":""},{"id":2833,"title":"北九州市長野緑地公園トイレ 秘密のクリ園","architect":"高橋博朗+高橋彰子","year":2012.0,"address":"福岡県北九州市小倉南区大字長野","latitude":33.81673049926758,"longitude":130.90557861328125,"category":"トイレ","description":"","image_url":""},{"id":2834,"title":"ＮＴＴ門司電気通信レトロ館 旧逓信省門司郵便局電話課庁舎","architect":"山田守","year":1924.0,"address":"福岡県北九州市門司区浜町4-1","latitude":33.95030212402344,"longitude":130.9669647216797,"category":"洋館","description":"","image_url":""},{"id":2835,"title":"門司港レトロハイマート","architect":"黒川紀章","year":1999.0,"address":"福岡県北九州市門司区東港町1-32","latitude":33.948524475097656,"longitude":130.9641571044922,"category":"集合住宅","description":"","image_url":""},{"id":2836,"title":"北九州市旧大阪商船","architect":"河合幾次","year":1917.0,"address":"福岡県北九州市門司区港町7-18","latitude":33.94612503051758,"longitude":130.96224975585938,"category":"洋館","description":"","image_url":""},{"id":2837,"title":"プレミアホテル門司港","architect":"アルド・ロッシ","year":1998.0,"address":"福岡県北九州市門司区港町9-11","latitude":33.94689178466797,"longitude":130.96234130859375,"category":"博物館","description":"","image_url":""},{"id":2838,"title":"北九州市旧門司税関","architect":"妻木頼黄+咲壽栄一+大野秀敏","year":1912.0,"address":"福岡県北九州市門司区東港町1-24","latitude":33.947723388671875,"longitude":130.96359252929688,"category":"洋館","description":"1994年、大野秀敏による改修","image_url":""},{"id":2839,"title":"旧門司三井倶楽部","architect":"松田昌兵","year":1921.0,"address":"福岡県北九州市門司区港町7-1","latitude":33.94580841064453,"longitude":130.9625244140625,"category":"洋館","description":"重要文化財","image_url":""},{"id":2840,"title":"カボチャドキヤ国立美術館","architect":"不明","year":1932.0,"address":"福岡県北九州市門司区谷町2-6-32","latitude":33.94392776489258,"longitude":130.978271484375,"category":"洋館","description":"土・祝のみ開館","image_url":""},{"id":2841,"title":"関門海峡ミュージアム 海峡ドラマシップ","architect":"仙田満","year":2002.0,"address":"福岡県北九州市門司区西海岸1-3-3","latitude":33.94376754760742,"longitude":130.95693969726562,"category":"博物館","description":"","image_url":""},{"id":2842,"title":"九州鉄道記念館 旧九州鉄道本社","architect":"不明","year":1891.0,"address":"福岡県北九州市門司区清滝2-3-29","latitude":33.94310760498047,"longitude":130.9617462158203,"category":"洋館","description":"","image_url":""},{"id":2843,"title":"松本清張記念館","architect":"宮本忠長","year":1998.0,"address":"福岡県北九州市小倉北区城内2-3","latitude":33.883731842041016,"longitude":130.87252807617188,"category":"博物館","description":"","image_url":""},{"id":2844,"title":"折尾スポーツセンター","architect":"木島安史","year":1989.0,"address":"福岡県北九州市八幡西区大浦3-9-1","latitude":33.87281036376953,"longitude":130.71142578125,"category":"体育館/プール","description":"","image_url":""},{"id":2845,"title":"門司ゴルフ倶楽部 クラブハウス","architect":"アントニン・レーモンド","year":1960.0,"address":"福岡県北九州市門司区吉志（大字）-175","latitude":33.86347961425781,"longitude":130.9527587890625,"category":"クラブハウス","description":"","image_url":""},{"id":2846,"title":"旧百三十銀行ギャラリー","architect":"不明","year":1915.0,"address":"福岡県北九州市八幡東区西本町1-20-2","latitude":33.86823654174805,"longitude":130.79989624023438,"category":"洋館/金融機関","description":"展示のない日も見学可","image_url":""},{"id":2847,"title":"福岡ひびき信用金庫 本店 旧八幡信用金庫 本店","architect":"村野藤吾","year":1971.0,"address":"福岡県北九州市八幡東区尾倉2-8-1","latitude":33.86653518676758,"longitude":130.79550170898438,"category":"金融機関","description":"","image_url":""},{"id":2848,"title":"北九州市立美術館","architect":"磯崎新","year":1974.0,"address":"福岡県北九州市戸畑区西鞘ヶ谷町21-1","latitude":33.869686126708984,"longitude":130.82666015625,"category":"美術館","description":"","image_url":""},{"id":2849,"title":"戸畑C街区整備事業","architect":"隈研吾","year":2007.0,"address":"福岡県北九州市戸畑区千防1-1","latitude":33.89324188232422,"longitude":130.83018493652344,"category":"公共施設/集合住宅","description":"","image_url":""},{"id":2850,"title":"北九州市立中央図書館","architect":"磯崎新","year":1974.0,"address":"福岡県北九州市小倉北区城内4-1","latitude":33.881927490234375,"longitude":130.87283325195312,"category":"図書館","description":"2018年に一部改修、子ども図書館が新設。改修設計も磯崎新","image_url":""}]}