{"page":250,"total_pages":290,"items_per_page":50,"total_items":14467,"items":[{"id":12451,"title":"出汁と米 MUKU ARASHIYAMA","architect":"アラキ+ササキアーキテクツ","year":2022.0,"address":"京都府京都市西京区嵐山中尾下町45 1F YADO ARASHIYAMA","latitude":35.01066970825195,"longitude":135.6780242919922,"category":"レストラン/ホテル","description":"","image_url":""},{"id":12452,"title":"まれびとの家","architect":"秋吉浩気","year":2019.0,"address":"富山県南砺市利賀村大勘場433","latitude":36.38934326171875,"longitude":136.98965454101562,"category":"コテージ","description":"","image_url":""},{"id":12453,"title":"老人保健施設 ゆうゆう村 ひがし町","architect":"大角雄三","year":2011.0,"address":"岡山県高梁市東町1866-3","latitude":34.79243469238281,"longitude":133.61537170410156,"category":"養護施設","description":"","image_url":""},{"id":12454,"title":"廣榮堂 倉敷店","architect":"大角雄三","year":2009.0,"address":"岡山県倉敷市中央1-1-8","latitude":34.596622467041016,"longitude":133.7703857421875,"category":"店舗","description":"","image_url":""},{"id":12455,"title":"廣榮堂 雄鶏店","architect":"大角雄三","year":2014.0,"address":"岡山県倉敷市本町5-22","latitude":34.594444274902344,"longitude":133.77183532714844,"category":"店舗","description":"","image_url":""},{"id":12456,"title":"室蘭フェリーターミナル","architect":"清水建設","year":1994.0,"address":"北海道室蘭市入江町1-50","latitude":42.32511520385742,"longitude":140.97698974609375,"category":"港","description":"","image_url":""},{"id":12457,"title":"新潟県民共済 長岡支所","architect":"創建築設計事務所","year":2019.0,"address":"新潟県長岡市喜多町2919","latitude":37.45357894897461,"longitude":138.8049774169922,"category":"組合施設","description":"","image_url":""},{"id":12458,"title":"ビヤホールライオン 銀座七丁目店 旧大日本麦酒本社","architect":"菅原栄蔵","year":1934.0,"address":"東京都中央区銀座7-9-20","latitude":35.66919708251953,"longitude":139.76316833496094,"category":"バー・居酒屋","description":"1978年に全面改装され、建築当時の面影は搭屋部分や内装","image_url":""},{"id":12459,"title":"神戸迎賓館 旧西尾邸","architect":"設楽貞雄","year":1919.0,"address":"兵庫県神戸市須磨区離宮西町2-4-1","latitude":34.65210723876953,"longitude":135.11521911621094,"category":"洋館/結婚式場","description":"","image_url":""},{"id":12460,"title":"ESC沖縄支社ビル","architect":"仲間郁代","year":2019.0,"address":"沖縄県うるま市石川伊波1553-231","latitude":26.434322357177734,"longitude":127.81321716308594,"category":"低層オフィス","description":"","image_url":""},{"id":12461,"title":"カップヌードルミュージアム","architect":"五洋建設","year":2011.0,"address":"神奈川県横浜市中区新港2-3-4","latitude":35.455421447753906,"longitude":139.6388397216797,"category":"博物館","description":"総合プロデュース:佐藤可士和","image_url":""},{"id":12462,"title":"実践倫理宏正会 三原支部朝起会場","architect":"竹中工務店","year":2022.0,"address":"広島県三原市東町2-13-4","latitude":34.40340805053711,"longitude":133.08958435058594,"category":"宗教施設","description":"","image_url":""},{"id":12463,"title":"モアクレスト菊名","architect":"TRIAD建築設計事務所","year":1991.0,"address":"神奈川県横浜市鶴見区馬場3-7","latitude":35.5052604675293,"longitude":139.6522674560547,"category":"集合住宅/都市計画","description":"","image_url":""},{"id":12464,"title":"2343DEPARTMENT","architect":"日比野設計","year":2022.0,"address":"神奈川県海老名市めぐみ町3-1 3F","latitude":35.4536018371582,"longitude":139.38938903808594,"category":"カフェ/レストラン","description":"","image_url":""},{"id":12465,"title":"信岡フラットミュージアム","architect":"大角雄三","year":2015.0,"address":"広島県福山市新市町戸手2166","latitude":34.548973083496094,"longitude":133.29762268066406,"category":"博物館","description":"","image_url":""},{"id":12466,"title":"長瀬産業大阪本社ビル 旧館","architect":"設楽貞雄","year":1928.0,"address":"大阪府大阪市西区新町1-1-17","latitude":34.67874526977539,"longitude":135.4972381591797,"category":"オフィスビル","description":"","image_url":""},{"id":12467,"title":"実践倫理宏正会 本部会館","architect":"竹中工務店","year":1996.0,"address":"東京都千代田区九段北1-14-1","latitude":35.695594787597656,"longitude":139.7498016357422,"category":"宗教施設","description":"","image_url":""},{"id":12468,"title":"実践倫理宏正会 堂島会館","architect":"竹中工務店","year":2023.0,"address":"大阪府大阪市北区堂島3-3-2","latitude":34.6966667175293,"longitude":135.4914093017578,"category":"宗教施設","description":"","image_url":""},{"id":12469,"title":"β本町橋","architect":"井上真彦+高橋勝","year":2021.0,"address":"大阪府大阪市中央区本町橋4-8","latitude":34.68415069580078,"longitude":135.51016235351562,"category":"公共施設/公園","description":"","image_url":""},{"id":12470,"title":"琉球ヴィラ ソテツ","architect":"小野良輔","year":2022.0,"address":"鹿児島県大島郡龍郷町芦徳当原1647-5","latitude":28.426206588745117,"longitude":129.6170196533203,"category":"コテージ","description":"","image_url":""},{"id":12471,"title":"KOYO BASE","architect":"坂本拓也+柴山修平","year":2023.0,"address":"岐阜県土岐市久尻1496-5","latitude":35.35927963256836,"longitude":137.17129516601562,"category":"カフェ/店舗","description":"","image_url":""},{"id":12472,"title":"西新井第1団地集会所","architect":"竹山実","year":1997.0,"address":"東京都足立区西新井1-33","latitude":35.78200149536133,"longitude":139.78199768066406,"category":"公民館・交流施設","description":"確たる情報はないのですが、外観から判断してとりあえず掲載しておきます。詳細な情報をお持ちの方はお問い合わせ等よりお知らせくだされば幸いです","image_url":""},{"id":12473,"title":"ノースゲートビル","architect":"竹山実","year":2002.0,"address":"東京都渋谷区広尾5-14-5","latitude":35.65047073364258,"longitude":139.7217559814453,"category":"テナントビル","description":"","image_url":""},{"id":12474,"title":"明治屋札幌物流センター","architect":"竹山実","year":1998.0,"address":"北海道北広島市大曲工業団地6-3-10","latitude":42.957332611083984,"longitude":141.4757537841797,"category":"工場","description":"","image_url":""},{"id":12475,"title":"武蔵野市立千川小学校","architect":"岡田新一","year":1997.0,"address":"東京都武蔵野市八幡町3-5-25","latitude":35.718624114990234,"longitude":139.55335998535156,"category":"学校","description":"","image_url":""},{"id":12476,"title":"榛名文化会館エコール","architect":"岡田新一","year":1995.0,"address":"群馬県高崎市上里見町1072-1","latitude":36.373504638671875,"longitude":138.89369201660156,"category":"ホール・劇場","description":"","image_url":""},{"id":12477,"title":"もみじ山文化センター なかのZERO","architect":"岡田新一","year":1993.0,"address":"東京都中野区中野2-9-7","latitude":35.704368591308594,"longitude":139.671875,"category":"ホール・劇場","description":"2017年天井耐震化などの改修","image_url":""},{"id":12478,"title":"霞ヶ関カンツリー倶楽部 クラブハウス","architect":"岡田新一","year":1992.0,"address":"埼玉県川越市笠幡3398","latitude":35.90135955810547,"longitude":139.40444946289062,"category":"クラブハウス","description":"","image_url":""},{"id":12479,"title":"函館山ロープウェイ展望台","architect":"岡田新一","year":1988.0,"address":"北海道函館市元町19-7","latitude":41.759376525878906,"longitude":140.70457458496094,"category":"展望台","description":"","image_url":""},{"id":12480,"title":"函館ヒストリープラザ","architect":"岡田新一","year":1988.0,"address":"北海道函館市末広町14-12","latitude":41.76639175415039,"longitude":140.71603393554688,"category":"モール/産業遺産","description":"","image_url":""},{"id":12481,"title":"ダイセル異人館 外国人技師住宅 旧図書館・クラブハウス","architect":"設楽貞雄","year":1910.0,"address":"兵庫県姫路市網干区新在家1239","latitude":34.780372619628906,"longitude":134.59475708007812,"category":"洋館","description":"","image_url":""},{"id":12482,"title":"しらさぎ子ども図書館 詩の森","architect":"湯川晃平","year":2023.0,"address":"大阪府東区白鷺町1-19-19","latitude":34.549156188964844,"longitude":135.5132598876953,"category":"図書館","description":"","image_url":""},{"id":12483,"title":"川合健二自邸 鉄の家","architect":"川合健二","year":1966.0,"address":"愛知県豊橋市大脇町大脇ノ谷","latitude":34.732078552246094,"longitude":137.45321655273438,"category":"住宅/コテージ","description":"一棟貸し","image_url":""},{"id":12484,"title":"八戸市総合保健センター","architect":"久米設計","year":2020.0,"address":"青森県八戸市田向3-6-1","latitude":40.491512298583984,"longitude":141.51048278808594,"category":"福祉センター","description":"","image_url":""},{"id":12485,"title":"ぷらざこども園長町","architect":"久米設計","year":2021.0,"address":"宮城県仙台市太白区長町6-7-17","latitude":38.221378326416016,"longitude":140.88343811035156,"category":"幼稚園","description":"","image_url":""},{"id":12486,"title":"四日市商工会議所","architect":"日建設計","year":2007.0,"address":"三重県四日市市諏訪町2-5","latitude":34.96528625488281,"longitude":136.62326049804688,"category":"組合施設","description":"","image_url":""},{"id":12487,"title":"アンリ・シャルパンティエ 芦屋本店","architect":"永山祐子","year":2014.0,"address":"兵庫県芦屋市公光町7-10-101","latitude":34.728660583496094,"longitude":135.30413818359375,"category":"店舗","description":"内装設計","image_url":""},{"id":12488,"title":"銀泉備後町ビル","architect":"日建設計","year":2003.0,"address":"大阪府大阪市中央区瓦町3-6-5","latitude":34.68579864501953,"longitude":135.50120544433594,"category":"オフィスビル","description":"","image_url":""},{"id":12489,"title":"W大阪","architect":"安藤忠雄+日建設計","year":2020.0,"address":"大阪府大阪市中央区南船場4-1-3","latitude":34.67778778076172,"longitude":135.49996948242188,"category":"ホテル","description":"デザイン監修：安藤忠雄","image_url":""},{"id":12490,"title":"和楽庵 旧稲畑勝太郎邸洋館","architect":"武田五一","year":1916.0,"address":"京都府京都市左京区松ケ崎橋上町 京都工芸繊維大学","latitude":35.049163818359375,"longitude":135.78228759765625,"category":"洋館","description":"1916年南禅寺別荘群に竣工。2013年京都工芸繊維大学内に移築","image_url":""},{"id":12491,"title":"NISHIKIMACHI","architect":"井手健一郎","year":2023.0,"address":"福岡県太宰府市宰府2-7-5","latitude":33.51905059814453,"longitude":130.53237915039062,"category":"モール/カフェ/店舗","description":"","image_url":""},{"id":12492,"title":"喫茶 竹の熊","architect":"下川徹","year":2023.0,"address":"熊本県阿蘇郡南小国町赤馬場2041","latitude":33.09173583984375,"longitude":131.07664489746094,"category":"カフェ","description":"","image_url":""},{"id":12493,"title":"花重再生計画","architect":"MARU。architecture","year":2023.0,"address":"東京都台東区谷中7-5-27","latitude":35.72358703613281,"longitude":139.77017211914062,"category":"店舗/カフェ","description":"創業150年の歴史をもつ花屋の改修","image_url":""},{"id":12494,"title":"カモ井加工紙営業事務所棟","architect":"TNA","year":2023.0,"address":"岡山県倉敷市片島町236","latitude":34.57417678833008,"longitude":133.720458984375,"category":"低層オフィス","description":"","image_url":""},{"id":12495,"title":"忠海集学校","architect":"原田雄次","year":2023.0,"address":"広島県竹原市忠海東町5-19-1","latitude":34.33567428588867,"longitude":133.00205993652344,"category":"企業施設/公民館・交流施設","description":"","image_url":""},{"id":12496,"title":"福岡大名ガーデンシティ","architect":"久米設計+醇建築まちづくり研究所","year":2022.0,"address":"福岡県福岡市中央区大名2-6-50","latitude":33.58943176269531,"longitude":130.39479064941406,"category":"複合ビル/ホテル","description":"","image_url":""},{"id":12497,"title":"MAビル","architect":"古澤大輔","year":2023.0,"address":"東京都立川市柴崎町3-7-26","latitude":35.697017669677734,"longitude":139.41268920898438,"category":"テナントビル","description":"","image_url":""},{"id":12498,"title":"やまや総本店 膳 / 白金小径","architect":"yHa architects","year":2023.0,"address":"福岡県福岡市中央区白金1-5-5","latitude":33.58008575439453,"longitude":130.40512084960938,"category":"料亭","description":"","image_url":""},{"id":12499,"title":"京都競馬場スタンド ゴールサイド","architect":"安井建築設計","year":2023.0,"address":"京都府京都市伏見区葭島渡場島町32","latitude":34.907676696777344,"longitude":135.72616577148438,"category":"スポーツ施設","description":"","image_url":""},{"id":12500,"title":"富久千代酒造 母屋ショールーム","architect":"yHa architects","year":2012.0,"address":"佐賀県鹿島市浜町1254-1","latitude":33.09365463256836,"longitude":130.11514282226562,"category":"店舗","description":"","image_url":""}]}