{"page":191,"total_pages":290,"items_per_page":50,"total_items":14467,"items":[{"id":9501,"title":"Mt.Fuji Brewing","architect":"谷尻誠","year":2019.0,"address":"静岡県富士宮市大宮町4-5","latitude":35.22606658935547,"longitude":138.6111297607422,"category":"レストラン","description":"","image_url":""},{"id":9502,"title":"安神車写し銅造移動式茶室 せん茶","architect":"藤森照信","year":2017.0,"address":"茨城県水戸市宮町2-5-13","latitude":36.372596740722656,"longitude":140.47377014160156,"category":"茶室","description":"2017年の展覧会用に制作された移動式の茶室が水戸東照宮にて展示されている","image_url":""},{"id":9503,"title":"フォレ ボワ","architect":"米田雅樹","year":2018.0,"address":"三重県度会郡玉城町野篠1765","latitude":34.4841194152832,"longitude":136.6173858642578,"category":"美容院","description":"","image_url":""},{"id":9504,"title":"アクティ三軒茶屋","architect":"遠藤剛生","year":2002.0,"address":"東京都世田谷区野沢1-35","latitude":35.63800811767578,"longitude":139.67312622070312,"category":"集合住宅","description":"","image_url":""},{"id":9505,"title":"下田眼科クリニック","architect":"遠藤克彦","year":2003.0,"address":"静岡県下田市西本郷1-7-10","latitude":34.681983947753906,"longitude":138.94435119628906,"category":"個人医院","description":"","image_url":""},{"id":9506,"title":"保見ケ丘幼稚園","architect":"遠藤克彦","year":2016.0,"address":"愛知県豊田市保見ケ丘5-1","latitude":35.14873504638672,"longitude":137.13662719726562,"category":"幼稚園","description":"既存棟の改修と新棟","image_url":""},{"id":9507,"title":"名古屋東幼稚園","architect":"遠藤克彦","year":2016.0,"address":"愛知県名古屋市名東区亀の井2-210","latitude":35.16384506225586,"longitude":136.99942016601562,"category":"幼稚園","description":"","image_url":""},{"id":9508,"title":"長者丸ビューテラス","architect":"遠藤克彦+八尾廣","year":2019.0,"address":"東京都品川区上大崎2-6-13","latitude":35.638771057128906,"longitude":139.71580505371094,"category":"集合住宅","description":"","image_url":""},{"id":9509,"title":"五島列島リゾートホテル マルゲリータ","architect":"遠藤克彦","year":2012.0,"address":"長崎県南松浦郡新上五島町小串郷1074","latitude":33.056793212890625,"longitude":129.08944702148438,"category":"ホテル","description":"元は国民宿舎の全面改修","image_url":""},{"id":9510,"title":"舞洲 森とリルのBBQフィールド","architect":"小笠原絵理","year":2015.0,"address":"大阪府大阪市此花区北港緑地2-3","latitude":34.66339111328125,"longitude":135.39041137695312,"category":"体験施設","description":"","image_url":""},{"id":9511,"title":"Tクリニック 田中内科クリニック","architect":"森本建築事務所","year":2016.0,"address":"三重県四日市市東日野町351-1","latitude":34.95887756347656,"longitude":136.59603881835938,"category":"個人医院","description":"","image_url":""},{"id":9512,"title":"ブルーボトルコーヒー 京都六角カフェ","architect":"長坂常","year":2019.0,"address":"京都市中京区三文字町東洞院通六角上る226-1","latitude":35.0074348449707,"longitude":135.7611846923828,"category":"カフェ","description":"","image_url":""},{"id":9513,"title":"塚口歯科クリニック","architect":"平岡建築デザイン","year":2013.0,"address":"大阪府東大阪市金岡1-14-5","latitude":34.64065170288086,"longitude":135.58323669433594,"category":"個人医院","description":"","image_url":""},{"id":9514,"title":"小笠原歯科医院","architect":"平岡建築デザイン","year":2019.0,"address":"秋田県大館市古川町30-1","latitude":40.27432632446289,"longitude":140.5653839111328,"category":"個人医院","description":"","image_url":""},{"id":9515,"title":"げんデンタルオフィス","architect":"平岡建築デザイン","year":2019.0,"address":"岐阜県本巣郡北方町高屋紙木原道西1333","latitude":35.42002487182617,"longitude":136.68255615234375,"category":"個人医院","description":"","image_url":""},{"id":9516,"title":"芝田化工設計 本社社屋","architect":"平岡建築デザイン","year":2018.0,"address":"大阪府堺市堺区砂道町1-13-25","latitude":34.591190338134766,"longitude":135.48794555664062,"category":"低層オフィス","description":"","image_url":""},{"id":9517,"title":"城彩会歯科ガーデンクリニック","architect":"平岡建築デザイン","year":2016.0,"address":"大阪府大阪市平野区瓜破西2-2-22","latitude":34.60419464111328,"longitude":135.54656982421875,"category":"個人医院","description":"","image_url":""},{"id":9518,"title":"えんどう歯科クリニック","architect":"平岡建築デザイン","year":2015.0,"address":"岩手県一関市千厩町千厩字町浦15-3","latitude":38.918434143066406,"longitude":141.3355255126953,"category":"個人医院","description":"","image_url":""},{"id":9519,"title":"くまの歯科医院","architect":"平岡建築デザイン","year":2015.0,"address":"大阪府堺市中区深井清水町3390","latitude":34.53095626831055,"longitude":135.49098205566406,"category":"個人医院","description":"","image_url":""},{"id":9520,"title":"りょう矯正歯科クリニック","architect":"平岡建築デザイン","year":2015.0,"address":"栃木県宇都宮市ゆいの杜7-3-1","latitude":36.57279586791992,"longitude":139.99169921875,"category":"個人医院","description":"","image_url":""},{"id":9521,"title":"とみ皮膚科クリニック","architect":"平岡建築デザイン","year":2015.0,"address":"静岡県富士市石坂68ｰ8","latitude":35.175533294677734,"longitude":138.68251037597656,"category":"個人医院","description":"","image_url":""},{"id":9522,"title":"中谷内科医院","architect":"平岡建築デザイン","year":2014.0,"address":"奈良県五條市野原西4-9-25","latitude":34.3438835144043,"longitude":135.69825744628906,"category":"個人医院","description":"","image_url":""},{"id":9523,"title":"こやま歯科医院","architect":"平岡建築デザイン","year":2014.0,"address":"京都府向日市寺戸町東田中瀬11-4","latitude":34.95359420776367,"longitude":135.70689392089844,"category":"個人医院","description":"","image_url":""},{"id":9524,"title":"いぬい小児科","architect":"平岡建築デザイン","year":2013.0,"address":"大阪府大阪市西区北堀江2-8-13","latitude":34.67452621459961,"longitude":135.4915313720703,"category":"個人医院","description":"","image_url":""},{"id":9525,"title":"上平医院","architect":"平岡建築デザイン","year":2012.0,"address":"和歌山県日高郡印南町印南2245-6","latitude":33.819427490234375,"longitude":135.21755981445312,"category":"個人医院","description":"","image_url":""},{"id":9526,"title":"岡歯科医院","architect":"平岡建築デザイン","year":2012.0,"address":"和歌山県岩出市野上野242-11","latitude":34.27096176147461,"longitude":135.3178253173828,"category":"個人医院","description":"","image_url":""},{"id":9527,"title":"美しの森デンタルクリニック","architect":"平岡建築デザイン","year":2011.0,"address":"神奈川県川崎市宮前区犬蔵2-38-15","latitude":35.585540771484375,"longitude":139.56080627441406,"category":"個人医院","description":"","image_url":""},{"id":9528,"title":"北歯科医院","architect":"平岡建築デザイン","year":2011.0,"address":"岡山県津山市中北下1269-9","latitude":35.059696197509766,"longitude":133.8987274169922,"category":"個人医院","description":"","image_url":""},{"id":9529,"title":"みつこ歯科クリニック","architect":"平岡建築デザイン","year":2010.0,"address":"兵庫県姫路市西今宿5-5-3","latitude":34.846099853515625,"longitude":134.66261291503906,"category":"個人医院","description":"","image_url":""},{"id":9530,"title":"なかの外科クリニック","architect":"平岡建築デザイン","year":2008.0,"address":"大阪府豊中市新千里西町3-3-3","latitude":34.812686920166016,"longitude":135.48959350585938,"category":"個人医院","description":"","image_url":""},{"id":9531,"title":"池田耳鼻いんこう科院","architect":"平岡建築デザイン","year":2008.0,"address":"和歌山県和歌山市和歌川町9-39","latitude":34.19368362426758,"longitude":135.1774139404297,"category":"個人医院","description":"","image_url":""},{"id":9532,"title":"東岡崎駅前南口広場 ガレリアプラザ","architect":"瀧光夫+オリエンタルコンサルタンツ","year":2001.0,"address":"愛知県岡崎市明大寺町耳取17-6","latitude":34.95173645019531,"longitude":137.16659545898438,"category":"駅/広場","description":"","image_url":""},{"id":9533,"title":"大井川睦園ケアハウス","architect":"瀧光夫","year":2003.0,"address":"静岡県焼津市高新田2326-58","latitude":34.8016357421875,"longitude":138.31231689453125,"category":"養護施設","description":"","image_url":""},{"id":9534,"title":"水戸市植物公園","architect":"瀧光夫","year":1987.0,"address":"茨城県水戸市小吹町504","latitude":36.340232849121094,"longitude":140.42124938964844,"category":"公園/動植物園","description":"","image_url":""},{"id":9535,"title":"板橋区立熱帯環境植物館","architect":"瀧光夫","year":1995.0,"address":"東京都板橋区高島平8-29-2","latitude":35.79188537597656,"longitude":139.66412353515625,"category":"動植物園","description":"","image_url":""},{"id":9536,"title":"高槻森林観光センター 総合館","architect":"瀧光夫","year":1992.0,"address":"大阪府高槻市大字田能的谷2","latitude":34.94322204589844,"longitude":135.59825134277344,"category":"観光施設/体験施設","description":"同施設内観光センターも同じ瀧光夫設計（1978年竣工）だが現存しているか不明","image_url":""},{"id":9537,"title":"石川県農林総合研究センター ビジターハウス","architect":"瀧光夫","year":1992.0,"address":"石川県金沢市才田町戊295-1","latitude":36.64183044433594,"longitude":136.6953582763672,"category":"観光施設/体験施設","description":"同施設ふれあいセンター（1988年竣工）、ふれあい温室（1990年竣工）も瀧光夫設計。詳細な場所が分からず未掲載","image_url":""},{"id":9538,"title":"高槻樫田温泉","architect":"瀧光夫","year":2003.0,"address":"大阪府高槻市大字田能的谷2","latitude":34.942230224609375,"longitude":135.5992889404297,"category":"温泉","description":"臨時休業中","image_url":""},{"id":9539,"title":"水戸市植物公園 植物館","architect":"瀧光夫","year":1994.0,"address":"茨城県水戸市小吹町504","latitude":36.339599609375,"longitude":140.4219970703125,"category":"動植物園","description":"","image_url":""},{"id":9540,"title":"礒部司デザイン事務所","architect":"小川晋一","year":1995.0,"address":"山口県山口市宮野下1112-1","latitude":34.18153762817383,"longitude":131.50062561035156,"category":"低層オフィス/住宅","description":"","image_url":""},{"id":9541,"title":"ファーレ代々木上原","architect":"小川晋一","year":2016.0,"address":"東京都渋谷区富ヶ谷2-18-19","latitude":35.663307189941406,"longitude":139.6848602294922,"category":"集合住宅","description":"","image_url":""},{"id":9542,"title":"EEL","architect":"小川晋一","year":2012.0,"address":"東京都杉並区高円寺南3-30-13","latitude":35.70268630981445,"longitude":139.64402770996094,"category":"集合住宅","description":"","image_url":""},{"id":9543,"title":"ハツタ山口","architect":"小川晋一","year":1995.0,"address":"山口県周南市大字久米1124","latitude":34.028785705566406,"longitude":131.84405517578125,"category":"低層オフィス","description":"","image_url":""},{"id":9544,"title":"ながやレディースクリニック","architect":"小川晋一","year":1997.0,"address":"山口県山口市黒川475-1","latitude":34.13840866088867,"longitude":131.44680786132812,"category":"個人医院","description":"","image_url":""},{"id":9545,"title":"K CLINIC 鹿島内科医院","architect":"小川晋一","year":2011.0,"address":"栃木県足利市鹿島町505","latitude":36.349159240722656,"longitude":139.40335083007812,"category":"個人医院","description":"","image_url":""},{"id":9546,"title":"塚本デンタルクリニック","architect":"小川晋一","year":2017.0,"address":"茨城県稲敷郡阿見町本郷2-3-3","latitude":36.02541732788086,"longitude":140.18434143066406,"category":"個人医院","description":"","image_url":""},{"id":9547,"title":"The Garden Resort & Condominium","architect":"小川晋一","year":2020.0,"address":"山梨県南都留郡富士河口湖町船津3554","latitude":35.49502182006836,"longitude":138.7703857421875,"category":"ホテル","description":"","image_url":""},{"id":9548,"title":"堀口珈琲 三鷹下連雀店","architect":"高塚章夫","year":2020.0,"address":"東京都三鷹市下連雀5-1-1 E4","latitude":35.69071578979492,"longitude":139.57098388671875,"category":"カフェ","description":"","image_url":""},{"id":9549,"title":"MdC","architect":"菅匡史","year":2007.0,"address":"奈良県橿原市新賀町3325","latitude":34.51725769042969,"longitude":135.79739379882812,"category":"集合住宅","description":"","image_url":""},{"id":9550,"title":"美津村株式会社","architect":"菅匡史","year":2007.0,"address":"兵庫県神戸市西区見津が丘1-2-10","latitude":34.74227523803711,"longitude":135.0848846435547,"category":"低層オフィス","description":"","image_url":""}]}