{"page":113,"total_pages":290,"items_per_page":50,"total_items":14467,"items":[{"id":5601,"title":"角館郵便局","architect":"不明","year":1992.0,"address":"秋田県仙北市角館町中町21-1","latitude":39.593502044677734,"longitude":140.56263732910156,"category":"公共施設","description":"","image_url":""},{"id":5602,"title":"遊学館 山形県生涯学習センター","architect":"和設計事務所","year":1990.0,"address":"山形県山形市緑町1-2-36","latitude":38.2554817199707,"longitude":140.34449768066406,"category":"図書館/公共施設","description":"","image_url":""},{"id":5603,"title":"匝瑳市役所本庁舎","architect":"川島甲士","year":1974.0,"address":"千葉県匝瑳市八日市場ハ793-2","latitude":35.70791244506836,"longitude":140.56436157226562,"category":"庁舎","description":"","image_url":""},{"id":5604,"title":"松源寺","architect":"川島甲士","year":1969.0,"address":"東京都台東区松が谷2-13-3","latitude":35.713504791259766,"longitude":139.78819274902344,"category":"寺院","description":"","image_url":""},{"id":5605,"title":"中京郵便局","architect":"吉井茂則+三橋四郎","year":1902.0,"address":"京都府京都市中京区菱屋町30","latitude":35.00898361206055,"longitude":135.76129150390625,"category":"公共施設/洋館","description":"1978年に外壁を残して内部を改装","image_url":""},{"id":5606,"title":"旧大阪府立国際児童文学館","architect":"不明","year":1984.0,"address":"大阪府吹田市千里万博公園10-6","latitude":34.81180953979492,"longitude":135.5342559814453,"category":"図書館","description":"2010年に閉館。建築は一応残っている模様。","image_url":""},{"id":5607,"title":"明石市立天文科学館","architect":"棚橋諒","year":1960.0,"address":"兵庫県明石市人丸町2-6","latitude":34.64939498901367,"longitude":135.00148010253906,"category":"博物館","description":"","image_url":""},{"id":5608,"title":"出雲ドーム","architect":"鹿島建設","year":1992.0,"address":"島根県出雲市矢野町 出雲ドーム","latitude":35.38310241699219,"longitude":132.7404327392578,"category":"スタジアム","description":"","image_url":""},{"id":5609,"title":"倉敷市庁舎","architect":"浦辺鎮太郎","year":1980.0,"address":"岡山県倉敷市西中新田640","latitude":34.5850715637207,"longitude":133.77194213867188,"category":"庁舎","description":"","image_url":""},{"id":5610,"title":"竹田郵便局","architect":"不明","year":1988.0,"address":"大分県竹田市竹田町97-2","latitude":32.966556549072266,"longitude":131.39578247070312,"category":"公共施設","description":"","image_url":""},{"id":5611,"title":"東京拘置所 管理棟 旧小菅刑務所 管理棟","architect":"蒲原重雄","year":1929.0,"address":"東京都葛飾区小菅1-35","latitude":35.75864028930664,"longitude":139.81765747070312,"category":"公共施設","description":"","image_url":""},{"id":5612,"title":"慶應義塾幼稚舎 本館","architect":"谷口吉郎+曽禰達蔵+中條精一郎","year":1937.0,"address":"東京都渋谷区恵比寿2-35-1","latitude":35.6467399597168,"longitude":139.72317504882812,"category":"学校","description":"","image_url":""},{"id":5613,"title":"パレスサイドビルディング","architect":"日建設計","year":1966.0,"address":"東京都千代田区一ツ橋1-1-1","latitude":35.691036224365234,"longitude":139.75723266601562,"category":"オフィスビル","description":"","image_url":""},{"id":5614,"title":"西陣産業創造會館 旧京都西陣電話局","architect":"岩元禄+NTTファシリティーズ","year":1921.0,"address":"京都府京都市上京区甲斐守町97","latitude":35.02445602416992,"longitude":135.75326538085938,"category":"シェアオフィス","description":"コワーキングスペースが2F、3Fにも拡張","image_url":""},{"id":5615,"title":"大阪瓦斯ビルヂング","architect":"安井武雄+安井建築設計","year":1933.0,"address":"大阪府大阪市中央区平野町4-1-2","latitude":34.68794250488281,"longitude":135.500244140625,"category":"オフィスビル","description":"南館は安井武雄、北館は1966年、佐野正一が設計","image_url":""},{"id":5616,"title":"黒部川第二発電所","architect":"山口文象","year":1938.0,"address":"富山県黒部市宇奈月町黒部","latitude":36.750831604003906,"longitude":137.64027404785156,"category":"公共施設/工場","description":"","image_url":""},{"id":5617,"title":"日本真珠会館 神戸パールミュージアム","architect":"光安義光","year":1952.0,"address":"兵庫県神戸市中央区東町122-1","latitude":34.6870231628418,"longitude":135.1953582763672,"category":"博物館/オフィスビル","description":"2023年3月末で閉館予定","image_url":""},{"id":5618,"title":"くまもと森都総合病院 旧熊本逓信病院","architect":"山田守","year":1956.0,"address":"熊本県熊本市中央区新屋敷1-17-27","latitude":32.80139923095703,"longitude":130.7184295654297,"category":"病院","description":"解体","image_url":""},{"id":5619,"title":"外務省庁舎","architect":"小坂秀雄","year":1960.0,"address":"東京都千代田区霞が関2-2-1","latitude":35.67429733276367,"longitude":139.7496795654297,"category":"庁舎","description":"","image_url":""},{"id":5620,"title":"日本財団ビル 旧NCRビル","architect":"吉村順三","year":1962.0,"address":"東京都港区赤坂1-2-2","latitude":35.67005920410156,"longitude":139.74497985839844,"category":"オフィスビル","description":"","image_url":""},{"id":5621,"title":"三愛ドリームセンター","architect":"日建設計","year":1963.0,"address":"東京都中央区銀座5-7-2","latitude":35.67118453979492,"longitude":139.7646484375,"category":"テナントビル","description":"","image_url":""},{"id":5622,"title":"ソニービル","architect":"芦原義信","year":1966.0,"address":"東京都中央区銀座5-3-1","latitude":35.6721076965332,"longitude":139.76315307617188,"category":"オフィスビル","description":"取壊済み。2024年8月、跡地に銀座ソニーパークが竣工","image_url":""},{"id":5623,"title":"新宿駅西口広場","architect":"坂倉準三","year":1967.0,"address":"東京都新宿区新宿3-","latitude":35.691253662109375,"longitude":139.69873046875,"category":"広場","description":"","image_url":""},{"id":5624,"title":"霞が関ビルディング","architect":"山下寿郎","year":1968.0,"address":"東京都千代田区霞が関3-2-5","latitude":35.67119216918945,"longitude":139.74725341796875,"category":"オフィスビル","description":"","image_url":""},{"id":5625,"title":"阪神甲子園球場","architect":"今林彦太郎+野田誠三","year":1924.0,"address":"兵庫県西宮市甲子園町1-82","latitude":34.72126770019531,"longitude":135.36158752441406,"category":"スタジアム","description":"","image_url":""},{"id":5626,"title":"北海道大学 北方生物圏フィールド科学センター 水圏ステーション 厚岸臨海実験所","architect":"篠原惇正+岡田鴻記","year":1931.0,"address":"北海道厚岸郡厚岸町愛冠1","latitude":43.0206184387207,"longitude":144.83685302734375,"category":"研究施設","description":"","image_url":""},{"id":5627,"title":"作新学院 円形体育館","architect":"巴コーポレーション","year":1952.0,"address":"栃木県宇都宮市一の沢1-1","latitude":36.568939208984375,"longitude":139.8604278564453,"category":"体育館/学校","description":"","image_url":""},{"id":5628,"title":"日本電波塔 東京タワー","architect":"日建設計+内藤多仲","year":1958.0,"address":"東京都港区芝公園4-2-8","latitude":35.65858459472656,"longitude":139.7454376220703,"category":"展望台/公共施設","description":"2018年から19年にかけて大改修","image_url":""},{"id":5629,"title":"上小沢邸","architect":"広瀬鎌二","year":1959.0,"address":"東京都品川区上大崎1-12-7","latitude":35.634456634521484,"longitude":139.7259521484375,"category":"レストラン/住宅","description":"2018年12月に閉店、2019年に解体","image_url":""},{"id":5630,"title":"新潟市体育館","architect":"宮川英二","year":1958.0,"address":"新潟県新潟市中央区一番堀通町3-1","latitude":37.91227722167969,"longitude":139.0384521484375,"category":"体育館","description":"","image_url":""},{"id":5631,"title":"日比谷図書文化館","architect":"高橋武士","year":1957.0,"address":"東京都千代田区日比谷公園1-4","latitude":35.67184066772461,"longitude":139.7545928955078,"category":"図書館","description":"","image_url":""},{"id":5632,"title":"リーブルテック 印刷工場・事務棟 旧東京書籍印刷","architect":"西谷健吉+山本喜一","year":1936.0,"address":"東京都北区堀船1-23-31","latitude":35.75165939331055,"longitude":139.74436950683594,"category":"低層オフィス/工場","description":"事前申し込みにより見学可能なこともある","image_url":""},{"id":5633,"title":"検見川送信所","architect":"吉田鉄郎","year":1926.0,"address":"千葉県千葉市花見川区検見川町5-2069","latitude":35.6462287902832,"longitude":140.07423400878906,"category":"公共施設","description":"","image_url":""},{"id":5634,"title":"NTT東日本研修センター講堂 旧中央通信学園講堂","architect":"内田祥哉","year":1958.0,"address":"東京都調布市入間町1-44","latitude":35.65138626098633,"longitude":139.58798217773438,"category":"ホール・劇場/研修施設","description":"","image_url":""},{"id":5635,"title":"JAいわて南花泉支店 旧花泉農協会館","architect":"大高正人","year":1965.0,"address":"岩手県一関市花泉町涌津一ノ町 JAいわて南花泉","latitude":38.83241653442383,"longitude":141.1837615966797,"category":"組合施設","description":"解体？","image_url":""},{"id":5636,"title":"YT梅月館 旧梅月堂","architect":"山口文象","year":1936.0,"address":"山形県山形市七日町1-4-26","latitude":38.25389099121094,"longitude":140.33932495117188,"category":"オフィスビル/カフェ","description":"一階にカフェがある","image_url":""},{"id":5637,"title":"第一生命相娯園光風亭 旧馬場氏烏山別邸","architect":"吉田鉄郎","year":1937.0,"address":"東京都世田谷区給田1-1","latitude":35.66171646118164,"longitude":139.59329223632812,"category":"住宅","description":"第一生命の福利厚生施設内にある","image_url":""},{"id":5638,"title":"東京芸術大学 図書館・絵画棟・彫刻棟","architect":"天野太郎+茂木計一郎+平島二郎+天野吉原設計事務所 他","year":1964.0,"address":"東京都台東区上野公園12-8","latitude":35.72032165527344,"longitude":139.7721710205078,"category":"大学/図書館","description":"1964年(図書館)、1968年(絵画棟)、1971年(彫刻棟)各竣工。国際藝術リソースセンターとして改修された。既存図書館棟は2018年山本・堀アーキテクツ、袴田喜夫、橋本久道、松本年史、吉松秀樹の設計により改修。","image_url":""},{"id":5639,"title":"遠藤周作文学館","architect":"平島二郎","year":2000.0,"address":"長崎県長崎市東出津町77","latitude":32.835941314697266,"longitude":129.7027130126953,"category":"博物館","description":"","image_url":""},{"id":5640,"title":"奥志賀高原ホテル","architect":"平島二郎","year":1969.0,"address":"長野県下高井郡山ノ内町奥志賀高原 奥志賀高原ホテル","latitude":36.77884292602539,"longitude":138.5292510986328,"category":"ホテル","description":"","image_url":""},{"id":5641,"title":"まつかわ・ぼっくす","architect":"宮脇檀","year":1971.0,"address":"東京都新宿区西早稲田2-14","latitude":35.70875549316406,"longitude":139.7116241455078,"category":"住宅","description":"","image_url":""},{"id":5642,"title":"長者原発電所","architect":"内藤多仲","year":1939.0,"address":"山形県西置賜郡小国町大字小玉川61","latitude":37.96469497680664,"longitude":139.67420959472656,"category":"公共施設/工場","description":"","image_url":""},{"id":5643,"title":"野村證券日本橋本社ビル 旧日本橋野村ビルディング","architect":"安井武雄","year":1930.0,"address":"東京都中央区日本橋1-12-1","latitude":35.68271255493164,"longitude":139.77581787109375,"category":"オフィスビル","description":"","image_url":""},{"id":5644,"title":"東京病院 外気舎記念館","architect":"傷兵保護院工営課","year":1939.0,"address":"東京都清瀬市竹丘3-1-1","latitude":35.76791000366211,"longitude":139.5062255859375,"category":"医療施設","description":"","image_url":""},{"id":5645,"title":"聖テレジア会総合病院聖ヨゼフ病院 旧横須賀海仁会病院","architect":"石本喜久治","year":1939.0,"address":"神奈川県横須賀市緑が丘28","latitude":35.28054428100586,"longitude":139.66610717773438,"category":"病院","description":"","image_url":""},{"id":5646,"title":"塩野義製薬中央研究所本館","architect":"竹中工務店","year":1961.0,"address":"大阪府大阪市福島区鷺洲5-12","latitude":34.69877624511719,"longitude":135.4766387939453,"category":"研究施設","description":"","image_url":""},{"id":5647,"title":"小石川植物園本館 旧東大付属植物園本館","architect":"内田祥三","year":1939.0,"address":"東京都文京区白山3-7-1","latitude":35.71857833862305,"longitude":139.7463836669922,"category":"動植物園","description":"","image_url":""},{"id":5648,"title":"今治市民会館","architect":"丹下健三","year":1965.0,"address":"愛媛県今治市別宮町1-4","latitude":34.066184997558594,"longitude":132.99835205078125,"category":"ホール・劇場","description":"","image_url":""},{"id":5649,"title":"内藤多仲博士記念館","architect":"木子七郎+今井兼次","year":1926.0,"address":"東京都新宿区若松町22-6","latitude":35.700008392333984,"longitude":139.71658325195312,"category":"博物館/住宅","description":"","image_url":""},{"id":5650,"title":"兵庫駅","architect":"伊藤滋","year":1930.0,"address":"兵庫県神戸市兵庫区駅南通5-3","latitude":34.66798782348633,"longitude":135.16452026367188,"category":"駅","description":"","image_url":""}]}