{"page":89,"total_pages":290,"items_per_page":50,"total_items":14467,"items":[{"id":4401,"title":"秋田県立体育館","architect":"小林美夫","year":1968.0,"address":"秋田県秋田市八橋運動公園1-12","latitude":39.71952438354492,"longitude":140.09384155273438,"category":"体育館","description":"","image_url":""},{"id":4402,"title":"日本薬学会長井記念ホール","architect":"小林美夫","year":1972.0,"address":"東京都渋谷区渋谷2-12-15","latitude":35.6588020324707,"longitude":139.707763671875,"category":"ホール・劇場","description":"竣工年自信なし","image_url":""},{"id":4403,"title":"東京薬科大学 八王子キャンパス","architect":"小林美夫","year":1976.0,"address":"東京都八王子市堀之内1432-1","latitude":35.63861083984375,"longitude":139.38394165039062,"category":"大学","description":"竣工年自信なし","image_url":""},{"id":4404,"title":"静岡県立大学","architect":"小林美夫","year":1989.0,"address":"静岡県静岡市駿河区谷田52-1","latitude":34.99604034423828,"longitude":138.44541931152344,"category":"大学","description":"","image_url":""},{"id":4405,"title":"桃生町農業者トレーニングセンター","architect":"小林美夫","year":1980.0,"address":"宮城県石巻市桃生町城内東嶺164","latitude":38.567073822021484,"longitude":141.2660369873047,"category":"体育館","description":"竣工年自信なし","image_url":""},{"id":4406,"title":"静岡県富士水泳場","architect":"昭和設計","year":2002.0,"address":"静岡県富士市大渕266","latitude":35.19697570800781,"longitude":138.68994140625,"category":"プール","description":"","image_url":""},{"id":4407,"title":"笹田学園 田町校舎","architect":"山田幸司","year":2003.0,"address":"静岡県浜松市中区田町230-10","latitude":34.70841979980469,"longitude":137.73284912109375,"category":"専門学校","description":"","image_url":""},{"id":4408,"title":"静岡ガス研修センター","architect":"岩本弘光","year":2002.0,"address":"静岡県静岡市駿河区池田28","latitude":34.98211669921875,"longitude":138.42013549804688,"category":"研修施設/企業施設","description":"見学は要事前予約","image_url":""},{"id":4409,"title":"静岡新聞・静岡放送 本社","architect":"丹下健三","year":1970.0,"address":"静岡県静岡市駿河区登呂3-1-1","latitude":34.96010208129883,"longitude":138.4055938720703,"category":"オフィスビル","description":"平日13:00から14:30の90分間に見学可能。要予約。","image_url":""},{"id":4410,"title":"東京大学 柏キャンパス 環境棟","architect":"大野秀敏+日本設計+大成建設","year":2006.0,"address":"千葉県柏市柏の葉5-1-5","latitude":35.90046310424805,"longitude":139.9338836669922,"category":"大学","description":"","image_url":""},{"id":4411,"title":"東京大学 柏キャンパス カブリ数物連携宇宙研究機構棟","architect":"大野秀敏+スタジオ・クハラ・ヤギ+樫本恒平+渡辺佐文 他","year":2009.0,"address":"千葉県柏市柏の葉5-1-5","latitude":35.902191162109375,"longitude":139.93801879882812,"category":"大学","description":"","image_url":""},{"id":4412,"title":"東京大学 柏キャンパス 基盤棟","architect":"坂倉建築研究所","year":2002.0,"address":"千葉県柏市柏の葉5-1-5","latitude":35.90142822265625,"longitude":139.93609619140625,"category":"大学","description":"","image_url":""},{"id":4413,"title":"東京大学 柏キャンパス 柏図書館","architect":"山下設計","year":2004.0,"address":"千葉県柏市柏の葉5-1-5","latitude":35.9000358581543,"longitude":139.9357147216797,"category":"大学/図書館","description":"","image_url":""},{"id":4414,"title":"羽根木の森","architect":"坂茂","year":1997.0,"address":"東京都世田谷区羽根木1-21-23","latitude":35.66413116455078,"longitude":139.65843200683594,"category":"集合住宅/低層オフィス/店舗","description":"","image_url":""},{"id":4415,"title":"羽根木の森 アネックス","architect":"坂茂","year":2003.0,"address":"東京都世田谷区羽根木1-21-22","latitude":35.66426086425781,"longitude":139.65859985351562,"category":"集合住宅/低層オフィス/店舗","description":"","image_url":""},{"id":4416,"title":"羽根木インターナショナルガーデンハウス","architect":"北山孝二郎","year":2007.0,"address":"東京都世田谷区羽根木1-19-19","latitude":35.66360855102539,"longitude":139.65904235839844,"category":"集合住宅/レストラン/店舗","description":"","image_url":""},{"id":4417,"title":"慶應義塾大学 湘南藤沢キャンパス デザインスタジオ棟","architect":"IKDS","year":2000.0,"address":"神奈川県藤沢市遠藤5322","latitude":35.38816833496094,"longitude":139.42625427246094,"category":"大学","description":"","image_url":""},{"id":4418,"title":"慶應義塾普通部 新本館","architect":"IKDS","year":2008.0,"address":"神奈川県横浜市港北区日吉本町1-45-1","latitude":35.55191421508789,"longitude":139.64227294921875,"category":"学校","description":"","image_url":""},{"id":4419,"title":"慶應義塾大学 湘南藤沢キャンパス 納品検収所","architect":"IKDS","year":2007.0,"address":"神奈川県藤沢市遠藤5322","latitude":35.38808059692383,"longitude":139.42782592773438,"category":"大学","description":"","image_url":""},{"id":4420,"title":"まつだい雪国農耕文化村センター 「農舞台」","architect":"MVRDV","year":2003.0,"address":"新潟県十日町市松代3743-1","latitude":37.131675720214844,"longitude":138.61514282226562,"category":"美術館","description":"","image_url":""},{"id":4421,"title":"ひかりのギャラリーと対話のギャラリー","architect":"UA","year":2009.0,"address":"東京都立川市泉町935-27","latitude":35.71741485595703,"longitude":139.41522216796875,"category":"ギャラリー/宗教施設","description":"宗教団体真如苑の施設","image_url":""},{"id":4422,"title":"上野成就院「称観堂」","architect":"UA","year":2014.0,"address":"東京都台東区東上野3-32-15","latitude":35.71062088012695,"longitude":139.78233337402344,"category":"寺院","description":"","image_url":""},{"id":4423,"title":"相馬市LVMH子どもアート・メゾン","architect":"坂茂","year":2014.0,"address":"福島県相馬市中村2-2-15","latitude":37.79977035522461,"longitude":140.92623901367188,"category":"児童施設","description":"","image_url":""},{"id":4424,"title":"くるりの森／バス停 nicoe","architect":"谷尻誠","year":2014.0,"address":"静岡県浜松市浜北区染地台6-7-11","latitude":34.79702377319336,"longitude":137.74728393554688,"category":"オブジェ","description":"遊具、及びバス停を谷尻誠。建築自体の設計者は竹下一級建築士事務所。2014/7オープン。","image_url":""},{"id":4425,"title":"COPEN LOCAL BASE KAMAKURA","architect":"手塚建築研究所","year":2014.0,"address":"神奈川県鎌倉市御成町4-10","latitude":35.316200256347656,"longitude":139.5498809814453,"category":"店舗/カフェ","description":"","image_url":""},{"id":4426,"title":"BIG BOX 高田馬場","architect":"黒川紀章","year":1974.0,"address":"東京都新宿区高田馬場1-35-3","latitude":35.712947845458984,"longitude":139.70425415039062,"category":"テナントビル","description":"","image_url":""},{"id":4427,"title":"日本赤十字社本社","architect":"黒川紀章","year":1977.0,"address":"東京都港区芝大門1-1-3","latitude":35.659950256347656,"longitude":139.75341796875,"category":"オフィスビル","description":"","image_url":""},{"id":4428,"title":"メトロツアー","architect":"北川原温","year":1989.0,"address":"東京都千代田区神田淡路町1-1-1","latitude":35.69553756713867,"longitude":139.7670135498047,"category":"オフィスビル","description":"","image_url":""},{"id":4429,"title":"ライズ","architect":"北川原温","year":1986.0,"address":"東京都渋谷区宇田川町13-17","latitude":35.66154479980469,"longitude":139.6986846923828,"category":"テナントビル/テナントビル","description":"","image_url":""},{"id":4430,"title":"シーボン 本社／パビリオン","architect":"北川原温","year":2005.0,"address":"神奈川県川崎市宮前区菅生1-20-8","latitude":35.60296630859375,"longitude":139.5531005859375,"category":"オフィスビル/企業施設","description":"","image_url":""},{"id":4431,"title":"日本ペンクラブ","architect":"北川原温","year":2002.0,"address":"東京都中央区日本橋兜町20-3 ‎","latitude":35.67861557006836,"longitude":139.77659606933594,"category":"オフィスビル","description":"","image_url":""},{"id":4432,"title":"岐阜県立飛騨牛記念館","architect":"北川原温","year":2002.0,"address":"岐阜県高山市清見町牧ヶ洞4393","latitude":36.140106201171875,"longitude":137.16348266601562,"category":"博物館","description":"閉館中との情報も取り壊されてはいない模様","image_url":""},{"id":4433,"title":"ヴィラ・エステリオ・ディ・サンタリア","architect":"北川原温","year":2004.0,"address":"山梨県甲府市川田町アリア-206","latitude":35.64906692504883,"longitude":138.62449645996094,"category":"結婚式場","description":"","image_url":""},{"id":4434,"title":"GALA枚方ビル","architect":"北川原温","year":1989.0,"address":"大阪府枚方市上島町2-5","latitude":34.848228454589844,"longitude":135.66778564453125,"category":"モール","description":"","image_url":""},{"id":4435,"title":"サッフォー","architect":"北川原温","year":1990.0,"address":"東京都渋谷区神宮前3-7-4","latitude":35.67087173461914,"longitude":139.7130889892578,"category":"オフィスビル","description":"","image_url":""},{"id":4436,"title":"旧サント産業本社屋","architect":"北川原温","year":1991.0,"address":"京都府京都市山科区竹鼻竹ノ街道町4","latitude":34.98984909057617,"longitude":135.8191680908203,"category":"オフィスビル","description":"解体","image_url":""},{"id":4437,"title":"東京駅八重洲口 グランルーフ","architect":"ヘルムート・ヤーン+日建設計+ジェイアール東日本建築設計事務所","year":2014.0,"address":"東京都千代田区丸の内1-9-1","latitude":35.68035888671875,"longitude":139.76797485351562,"category":"モール/広場/橋","description":"","image_url":""},{"id":4438,"title":"グラントウキョウ ノースタワー／サウスタワー","architect":"ヘルムート・ヤーン","year":2007.0,"address":"東京都千代田区丸の内1-9-1","latitude":35.68147659301758,"longitude":139.7689666748047,"category":"オフィスビル","description":"","image_url":""},{"id":4439,"title":"虎ノ門ヒルズ","architect":"日本設計","year":2014.0,"address":"東京都港区虎ノ門1-23-1","latitude":35.66679763793945,"longitude":139.7495880126953,"category":"オフィスビル","description":"","image_url":""},{"id":4440,"title":"エリアなかいち にぎわい交流館／商業・駐車場棟／住宅棟","architect":"アール・アイ・エー","year":2012.0,"address":"秋田県秋田市中通1-4-3","latitude":39.7169075012207,"longitude":140.12159729003906,"category":"モール/総合文化施設/集合住宅","description":"","image_url":""},{"id":4441,"title":"三瀧荘","architect":"不明","year":null,"address":"広島県広島市西区三滝町1-3","latitude":34.41687774658203,"longitude":132.4528045654297,"category":"和風住宅/結婚式場/料亭","description":"","image_url":""},{"id":4442,"title":"伊丹市庁舎","architect":"山下寿郎","year":1972.0,"address":"兵庫県伊丹市千僧1- 兵庫県伊丹庁舎","latitude":34.784278869628906,"longitude":135.40089416503906,"category":"庁舎","description":"隣接地に新庁舎が竣工。2023年1月より解体作業が開始された","image_url":""},{"id":4443,"title":"ビラ・セレーナ","architect":"坂倉建築研究所","year":1971.0,"address":"東京都渋谷区神宮前2-33-18","latitude":35.67364501953125,"longitude":139.70870971679688,"category":"集合住宅","description":"","image_url":""},{"id":4444,"title":"ビラ・グロリア","architect":"大谷幸夫","year":1972.0,"address":"東京都渋谷区神宮前2-31-7","latitude":35.67308044433594,"longitude":139.7092742919922,"category":"集合住宅","description":"","image_url":""},{"id":4445,"title":"ビラ・フレスカ","architect":"坂倉建築研究所","year":1972.0,"address":"東京都渋谷区神宮前2-30-22","latitude":35.673736572265625,"longitude":139.7090301513672,"category":"集合住宅","description":"","image_url":""},{"id":4446,"title":"ビラ・ビアンカ","architect":"堀田英二","year":1964.0,"address":"東京都渋谷区神宮前2-33-12","latitude":35.6734733581543,"longitude":139.70806884765625,"category":"集合住宅","description":"","image_url":""},{"id":4447,"title":"OXY乃木坂","architect":"竹山聖","year":1987.0,"address":"東京都港区六本木7-2-8","latitude":35.66617965698242,"longitude":139.72625732421875,"category":"テナントビル/オフィスビル","description":"","image_url":""},{"id":4448,"title":"赤坂Mビルディング","architect":"伊丹潤","year":1993.0,"address":"東京都港区赤坂7-9-7","latitude":35.669803619384766,"longitude":139.73300170898438,"category":"オフィスビル/集合住宅","description":"","image_url":""},{"id":4449,"title":"スタジオエビス","architect":"鈴木恂","year":1980.0,"address":"東京都渋谷区恵比寿1-9-2","latitude":35.64716720581055,"longitude":139.7108917236328,"category":"オフィスビル","description":"","image_url":""},{"id":4450,"title":"ニコラス・G・ハイエックセンター","architect":"坂茂","year":2007.0,"address":"東京都中央区銀座7-9-18","latitude":35.6689453125,"longitude":139.7630615234375,"category":"テナントビル/オフィスビル","description":"日本建築学会 作品賞受賞者名：坂茂、平賀信孝","image_url":""}]}