{"page":241,"total_pages":290,"items_per_page":50,"total_items":14467,"items":[{"id":12001,"title":"旧東大寺図書館","architect":"谷口吉郎","year":1968.0,"address":"奈良県奈良市雑司町406-1","latitude":34.68571472167969,"longitude":135.84060668945312,"category":"図書館","description":"","image_url":""},{"id":12002,"title":"商法講習所碑","architect":"谷口吉郎","year":1975.0,"address":"東京都中央区銀座6-10","latitude":35.66982650756836,"longitude":139.76370239257812,"category":"オブジェ","description":"","image_url":""},{"id":12003,"title":"山岡荘八文学碑","architect":"谷口吉郎","year":1976.0,"address":"新潟県魚沼市青島","latitude":37.226112365722656,"longitude":138.95309448242188,"category":"オブジェ","description":"岡崎市政六十年記念碑","image_url":""},{"id":12004,"title":"石井漠「山を登る」記念碑","architect":"谷口吉郎","year":1963.0,"address":"東京都台東区浅草2-7-3","latitude":35.714569091796875,"longitude":139.7953643798828,"category":"オブジェ","description":"","image_url":""},{"id":12005,"title":"新渡戸稲造顕彰碑","architect":"谷口吉郎","year":1962.0,"address":"岩手県盛岡市内丸1","latitude":39.70081329345703,"longitude":141.15032958984375,"category":"オブジェ","description":"","image_url":""},{"id":12006,"title":"メルローズ本社ビル","architect":"安藤忠雄","year":1984.0,"address":"東京都目黒区青葉台2-18−1","latitude":35.64971160888672,"longitude":139.69288635253906,"category":"低層オフィス","description":"","image_url":""},{"id":12007,"title":"代々木倶楽部 旧新日鐵新山谷寮・研修センター","architect":"吉村順三","year":1970.0,"address":"東京都渋谷区代々木3-59−9","latitude":35.68039321899414,"longitude":139.69549560546875,"category":"研修施設","description":"","image_url":""},{"id":12008,"title":"コイトビル","architect":"黒川紀章","year":1974.0,"address":"東京都新宿区西新宿6-12−4","latitude":35.69377517700195,"longitude":139.68959045410156,"category":"オフィスビル","description":"","image_url":""},{"id":12009,"title":"風花山本","architect":"沖田","year":2022.0,"address":"広島県広島市安佐南区山本4-12","latitude":34.43812942504883,"longitude":132.4480743408203,"category":"住宅","description":"第18回ひろしま街づくりデザイン賞","image_url":""},{"id":12010,"title":"minagarten","architect":"真屋","year":2021.0,"address":"広島県広島市佐伯区皆賀3-8-11","latitude":34.37611389160156,"longitude":132.3667755126953,"category":"店舗/カフェ/モール","description":"第18回ひろしま街づくりデザイン賞","image_url":""},{"id":12011,"title":"泉屋 幟町店","architect":"HANKURA Design","year":2021.0,"address":"広島県広島市中区幟町12-14","latitude":34.39425277709961,"longitude":132.4651641845703,"category":"店舗","description":"第18回ひろしま街づくりデザイン賞","image_url":""},{"id":12012,"title":"西武 福井店 旧だるまや西武","architect":"菊竹清訓","year":1980.0,"address":"福井県福井市中央1-8−1","latitude":36.061790466308594,"longitude":136.21910095214844,"category":"モール","description":"","image_url":""},{"id":12013,"title":"東名高速道路海老名サービスエリア","architect":"菊竹清訓","year":1991.0,"address":"神奈川県海老名市大谷南5-1−1 海老名SA内","latitude":35.43204116821289,"longitude":139.3986358642578,"category":"PA・道の駅","description":"","image_url":""},{"id":12014,"title":"熊本信用金庫本店","architect":"黒川紀章","year":1981.0,"address":"熊本県熊本市中央区手取本町2-1","latitude":32.80357360839844,"longitude":130.70889282226562,"category":"金融機関","description":"","image_url":""},{"id":12015,"title":"大劇会館","architect":"アントニン・レーモンド","year":1969.0,"address":"熊本県熊本市中央区手取本町4","latitude":32.80320739746094,"longitude":130.70945739746094,"category":"モール","description":"外壁が竣工当時のデザインに復元された","image_url":""},{"id":12016,"title":"パティオAKI","architect":"毛綱毅曠","year":1990.0,"address":"東京都府中市八幡町2-20-1","latitude":35.669517517089844,"longitude":139.48854064941406,"category":"集合住宅","description":"","image_url":""},{"id":12017,"title":"堅田駅西口広場","architect":"y+M design office","year":2019.0,"address":"滋賀県大津市真野1-2","latitude":35.120845794677734,"longitude":135.91429138183594,"category":"広場/駅","description":"","image_url":""},{"id":12018,"title":"いわみ温泉 霧の湯","architect":"y+M design office","year":2020.0,"address":"島根県邑智郡邑南町矢上8532−2","latitude":34.87432861328125,"longitude":132.4215545654297,"category":"温泉","description":"","image_url":""},{"id":12019,"title":"エキノマエ","architect":"y+M design office","year":2019.0,"address":"島根県邑智郡邑南町矢上3930","latitude":34.88884353637695,"longitude":132.4390869140625,"category":"古民家/ホステル/店舗","description":"","image_url":""},{"id":12020,"title":"写研本社","architect":"芦原義信","year":1972.0,"address":"東京都豊島区南大塚2-26−13","latitude":35.728031158447266,"longitude":139.7298583984375,"category":"オフィスビル","description":"","image_url":""},{"id":12021,"title":"渋谷インフォスタワー","architect":"芦原義信","year":1998.0,"address":"東京都渋谷区桜丘町20−1","latitude":35.655269622802734,"longitude":139.70091247558594,"category":"オフィスビル","description":"","image_url":""},{"id":12022,"title":"KITZビル","architect":"芦原義信","year":1992.0,"address":"千葉県千葉市美浜区中瀬1-10−1","latitude":35.652164459228516,"longitude":140.03695678710938,"category":"オフィスビル","description":"","image_url":""},{"id":12023,"title":"衆参両院玄関前噴水","architect":"芦原義信","year":1990.0,"address":"東京都千代田区永田町1-7","latitude":35.67536926269531,"longitude":139.74575805664062,"category":"オブジェ","description":"国会議事堂正面両脇","image_url":""},{"id":12024,"title":"米国大使館","architect":"シーザー・ペリ+ノーマ・メリック・スクラレック","year":1976.0,"address":"東京都港区赤坂1-10−5","latitude":35.66859817504883,"longitude":139.7432403564453,"category":"公共施設","description":"設計クレジット:Gruen and Associates","image_url":""},{"id":12025,"title":"第1スカイビル","architect":"光井純+青島設計","year":2022.0,"address":"東京都新宿区新宿4-4-1","latitude":35.688045501708984,"longitude":139.70314025878906,"category":"オフィスビル","description":"","image_url":""},{"id":12026,"title":"古町ルフル","architect":"光井純+アール・アイ・エー","year":2020.0,"address":"新潟県新潟市中央区古町通7番町1010","latitude":37.92256546020508,"longitude":139.04452514648438,"category":"モール/テナントビル","description":"デザイン監修:光井純","image_url":""},{"id":12027,"title":"三井記念美術館","architect":"光井純+日本設計","year":2005.0,"address":"東京都中央区日本橋2-1-1","latitude":35.682674407958984,"longitude":139.77259826660156,"category":"美術館","description":"2022年改修。インテリアデザイン・改修デザイン監修:光井純","image_url":""},{"id":12028,"title":"仙台宮城野ビル","architect":"光井純+フジタ","year":2022.0,"address":"宮城県仙台市宮城野区榴岡3-7−33","latitude":38.25979232788086,"longitude":140.88832092285156,"category":"ホテル/オフィスビル","description":"","image_url":""},{"id":12029,"title":"富士ゼロックスR&Dスクエア","architect":"清水建設+光井純","year":2010.0,"address":"神奈川県横浜市西区みなとみらい6-1−1","latitude":35.46345138549805,"longitude":139.6277313232422,"category":"オフィスビル/研究施設","description":"","image_url":""},{"id":12030,"title":"東京国際空港 第2旅客ターミナルビル","architect":"松田平田設計+NTTファシリティーズ+シーザー・ペリ","year":2004.0,"address":"東京都大田区羽田空港3-4−2","latitude":35.54988479614258,"longitude":139.7894744873047,"category":"空港","description":"2020年の改修は梓・安井・PCPJ・東京国際空港第2ターミナル国際線施設建設工事設計監理共同企業体(梓設計＋安井建築設計事務所＋ペリ クラーク ペリ アーキテクツ ジャパン)の設計","image_url":""},{"id":12031,"title":"三井ガーデンホテル六本木プレミア","architect":"清水建設+光井純","year":2019.0,"address":"東京都港区六本木3-15-17","latitude":35.662052154541016,"longitude":139.73599243164062,"category":"ホテル","description":"デザイン監修:光井純","image_url":""},{"id":12032,"title":"季耳鼻咽喉科","architect":"岡部憲明","year":2005.0,"address":"東京都大田区南雪谷3-19−2","latitude":35.590660095214844,"longitude":139.68783569335938,"category":"個人医院","description":"","image_url":""},{"id":12033,"title":"クールドパラレログラム 旧JST黒笹寮","architect":"岡部憲明","year":2006.0,"address":"愛知県みよし市三好丘あおば1-14-10","latitude":35.12953567504883,"longitude":137.1019287109375,"category":"集合住宅","description":"","image_url":""},{"id":12034,"title":"つくば・さくら団地","architect":"三井所清典+UR都市機構","year":1985.0,"address":"茨城県つくば市竹園1-6-2","latitude":36.079345703125,"longitude":140.1136016845703,"category":"集合住宅","description":"","image_url":""},{"id":12035,"title":"二の宮四丁目地区","architect":"宮脇檀+UR都市機構","year":1988.0,"address":"茨城県つくば市二ﾉ宮4-5-62","latitude":36.06138229370117,"longitude":140.11717224121094,"category":"住宅/都市計画","description":"","image_url":""},{"id":12036,"title":"松代五丁目地区","architect":"宮脇檀+UR都市機構","year":1988.0,"address":"茨城県つくば市松代5-9","latitude":36.06100845336914,"longitude":140.10690307617188,"category":"住宅/都市計画","description":"","image_url":""},{"id":12037,"title":"JFE体育館 旧川崎製鐡千葉製鉄所体育館","architect":"芦原義信","year":1973.0,"address":"千葉県千葉市中央区南町1-3−1","latitude":35.58617401123047,"longitude":140.1316375732422,"category":"体育館","description":"","image_url":""},{"id":12038,"title":"イーストピアみやこ","architect":"久米設計","year":2018.0,"address":"岩手県宮古市宮町1-1-30","latitude":39.63951873779297,"longitude":141.94613647460938,"category":"庁舎/公民館・交流施設/福祉センター","description":"市庁舎、保健センター、市民交流センターからなる複合施設","image_url":""},{"id":12039,"title":"日本大学 第二学園中学校校舎","architect":"久米設計","year":2016.0,"address":"東京都杉並区天沼1-45-33","latitude":35.711143493652344,"longitude":139.6275634765625,"category":"学校","description":"","image_url":""},{"id":12040,"title":"東京ガス不動産 北浦和ビル","architect":"久米設計","year":2019.0,"address":"埼玉県さいたま市浦和区北浦和5-16-20","latitude":35.87705612182617,"longitude":139.64111328125,"category":"企業施設/低層オフィス","description":"","image_url":""},{"id":12041,"title":"apartment 縁","architect":"浅利幸男","year":2021.0,"address":"東京都世田谷区羽根木2-5-21","latitude":35.668094635009766,"longitude":139.659423828125,"category":"集合住宅","description":"","image_url":""},{"id":12042,"title":"千葉敬愛高等学校","architect":"久米設計","year":2006.0,"address":"千葉県四街道市四街道1522","latitude":35.666603088378906,"longitude":140.16087341308594,"category":"学校","description":"","image_url":""},{"id":12043,"title":"五百羅漢寺","architect":"今井孝之","year":1981.0,"address":"東京都目黒区下目黒3-20-11","latitude":35.628944396972656,"longitude":139.70938110351562,"category":"寺院","description":"新建築 昭和57年1月号参照","image_url":""},{"id":12044,"title":"鬼無庭園美術館 Gallery Hooks","architect":"創芸","year":2017.0,"address":"香川県高松市鬼無町180-9","latitude":34.329078674316406,"longitude":133.99884033203125,"category":"ギャラリー","description":"","image_url":""},{"id":12045,"title":"西鉄天神ビル 旧日土地福岡ビル","architect":"芦原義信","year":1982.0,"address":"福岡県福岡市中央区天神1-13−6","latitude":33.59192657470703,"longitude":130.40016174316406,"category":"オフィスビル","description":"","image_url":""},{"id":12046,"title":"鹿島建設 九州支店","architect":"岡田新一","year":1972.0,"address":"福岡県福岡市博多区博多駅前3-12−10","latitude":33.587276458740234,"longitude":130.41424560546875,"category":"オフィスビル","description":"","image_url":""},{"id":12047,"title":"石打丸山リゾートセンター","architect":"大江匡","year":2018.0,"address":"新潟県南魚沼市石打1680−1","latitude":36.97931671142578,"longitude":138.80230712890625,"category":"スポーツ施設/クラブハウス/店舗","description":"雪対策はもちろん、造形的周辺の配慮と山に溶け込む外観になっています。また雪山に相応しいさわやかなインテリアです。","image_url":""},{"id":12048,"title":"広島実践倫理会館","architect":"竹中工務店","year":2022.0,"address":"広島県広島市中区鉄砲町1-5","latitude":34.397125244140625,"longitude":132.46559143066406,"category":"宗教施設","description":"","image_url":""},{"id":12049,"title":"sonorium","architect":"青木淳","year":2007.0,"address":"東京都杉並区和泉3-53-16","latitude":35.68130874633789,"longitude":139.6466064453125,"category":"ホール・劇場","description":"","image_url":""},{"id":12050,"title":"磐田市民文化会館 かたりあ","architect":"石本建築事務所","year":2022.0,"address":"静岡県磐田市上新屋678−1","latitude":34.730857849121094,"longitude":137.82406616210938,"category":"ホール・劇場","description":"","image_url":""}]}