{"page":37,"total_pages":290,"items_per_page":50,"total_items":14467,"items":[{"id":1801,"title":"舟戸公園ゲートと展望休憩所","architect":"カルロス・ヴィラヌエヴァ・ブラント","year":1993.0,"address":"富山県砺波市庄川町金屋1550","latitude":36.573883056640625,"longitude":136.9943084716797,"category":"公園","description":"","image_url":""},{"id":1802,"title":"チューリップ四季彩館","architect":"栗生明","year":1996.0,"address":"富山県砺波市中村100-1","latitude":36.64116668701172,"longitude":136.96490478515625,"category":"博物館","description":"","image_url":""},{"id":1803,"title":"砺波市郷土資料館 旧中越銀行","architect":"不明","year":null,"address":"富山県砺波市花園町1-78","latitude":36.638816833496094,"longitude":136.9611358642578,"category":"洋館/金融機関","description":"チューリップ公園内","image_url":""},{"id":1804,"title":"利賀山房 利賀芸術公園","architect":"磯崎新","year":1980.0,"address":"富山県南砺市利賀村上百瀬48","latitude":36.432762145996094,"longitude":137.04193115234375,"category":"ホール・劇場/公園","description":"利賀山房：1980年竣工 利賀村野外劇場：1982年竣工 利賀村ライブラリー/スタジオ：1987年竣工 国際舞台芸術研究所：1988年竣工","image_url":""},{"id":1805,"title":"南砺市福野文化創造センター ヘリオス","architect":"内井昭蔵","year":1991.0,"address":"富山県南砺市やかた100","latitude":36.59135055541992,"longitude":136.91807556152344,"category":"総合文化施設","description":"","image_url":""},{"id":1806,"title":"五箇山生活館","architect":"マルティネス・ラペーニャ+エリアス・トーレス","year":1999.0,"address":"富山県南砺市菅沼855","latitude":36.40095138549805,"longitude":136.87939453125,"category":"博物館","description":"","image_url":""},{"id":1807,"title":"蔵回廊","architect":"ゴードン・ベンソン&アラン・フォーサイス","year":1993.0,"address":"富山県南砺市城端579-3","latitude":36.5146369934082,"longitude":136.90213012695312,"category":"博物館","description":"","image_url":""},{"id":1808,"title":"井波彫刻総合会館","architect":"ピーター・ソルター","year":1993.0,"address":"富山県南砺市北川733","latitude":36.561920166015625,"longitude":136.9784698486328,"category":"美術館","description":"","image_url":""},{"id":1809,"title":"下山芸術の森 発電所美術館 エントランスゾーン","architect":"マルティネス・ラペーニャ+エリアス・トーレス","year":1997.0,"address":"富山県下新川郡入善町下山364-1","latitude":36.90712356567383,"longitude":137.5319061279297,"category":"美術館","description":"エントランスゾーンの設計","image_url":""},{"id":1810,"title":"氷見市海浜植物園","architect":"長谷川逸子","year":1995.0,"address":"富山県氷見市柳田3583","latitude":36.837059020996094,"longitude":137.0044403076172,"category":"動植物園","description":"","image_url":""},{"id":1811,"title":"氷見市立海峰小学校","architect":"長谷川逸子","year":1996.0,"address":"富山県氷見市阿尾1015","latitude":36.884735107421875,"longitude":136.98785400390625,"category":"学校","description":"","image_url":""},{"id":1812,"title":"ひみ獅子舞ミュージアム","architect":"栗生明","year":2005.0,"address":"富山県氷見市泉760","latitude":36.86655807495117,"longitude":136.94137573242188,"category":"美術館","description":"","image_url":""},{"id":1813,"title":"氷見市十二町潟水郷公園 横断橋","architect":"カルロス・ヴィラヌエヴァ・ブラント","year":1995.0,"address":"富山県氷見市十二町177","latitude":36.84101486206055,"longitude":136.97213745117188,"category":"橋","description":"","image_url":""},{"id":1814,"title":"北日本新聞 創造の森 越中座","architect":"鹿島建設","year":2006.0,"address":"富山県富山市婦中町島本郷10-7","latitude":36.679176330566406,"longitude":137.17135620117188,"category":"博物館","description":"","image_url":""},{"id":1815,"title":"樂翠亭美術館","architect":"原英高","year":2010.0,"address":"富山県富山市奥田新町2-27","latitude":36.70621109008789,"longitude":137.21734619140625,"category":"美術館","description":"","image_url":""},{"id":1816,"title":"高志の国文学館","architect":"シーラカンスアンドアソシエイツ","year":2012.0,"address":"富山県富山市舟橋南町2-2","latitude":36.695518493652344,"longitude":137.20628356933594,"category":"博物館","description":"","image_url":""},{"id":1817,"title":"福沢地区コミュニティーセンター","architect":"建築研究所アーキヴィジョン","year":2001.0,"address":"富山県富山市東福沢3550","latitude":36.59935760498047,"longitude":137.2607879638672,"category":"公民館・交流施設","description":"","image_url":""},{"id":1818,"title":"富山市民芸術創造センター","architect":"森俊偉","year":1995.0,"address":"富山県富山市呉羽町2247-3","latitude":36.7170524597168,"longitude":137.16473388671875,"category":"ホール・劇場","description":"","image_url":""},{"id":1819,"title":"カフェ・クレオン","architect":"隈研吾","year":2011.0,"address":"富山県富山市呉羽町2247-3","latitude":36.71597671508789,"longitude":137.16415405273438,"category":"カフェ","description":"","image_url":""},{"id":1820,"title":"富山市立篁牛人記念美術館","architect":"菊竹清訓","year":1989.0,"address":"富山県富山市安養坊1118-1","latitude":36.70908737182617,"longitude":137.1886749267578,"category":"美術館","description":"","image_url":""},{"id":1821,"title":"富岩運河環水公園","architect":"仙田満","year":1999.0,"address":"富山県富山市湊入船町5","latitude":36.7093505859375,"longitude":137.2134552001953,"category":"公園","description":"","image_url":""},{"id":1822,"title":"富山県教育記念館","architect":"山本公也","year":1977.0,"address":"富山県富山市千歳町1-5-1","latitude":36.69785690307617,"longitude":137.21701049804688,"category":"公民館・交流施設/博物館","description":"","image_url":""},{"id":1823,"title":"富山県総合福祉会館 サンシップとやま","architect":"池原義郎","year":1999.0,"address":"富山県富山市安住町5-21","latitude":36.69510269165039,"longitude":137.2082977294922,"category":"福祉センター","description":"","image_url":""},{"id":1824,"title":"富山県立近代美術館","architect":"國方秀男","year":1981.0,"address":"富山県富山市西中野町1-16-12","latitude":36.68015670776367,"longitude":137.21275329589844,"category":"美術館","description":"","image_url":""},{"id":1825,"title":"富山市立大庄地区コミュニティーセンター","architect":"アーキヴィジョン広谷スタジオ","year":2007.0,"address":"富山県富山市田畠97-1","latitude":36.617496490478516,"longitude":137.27503967285156,"category":"公民館・交流施設","description":"","image_url":""},{"id":1826,"title":"VEGA","architect":"小泉誠","year":2008.0,"address":"富山県富山市東福沢1456","latitude":36.59870910644531,"longitude":137.26048278808594,"category":"低層オフィス/ギャラリー","description":"築70年の納屋の改修。かつては公開していたが現在は非公開、要問い合わせ","image_url":""},{"id":1827,"title":"富山市立小見地区コミュニティーセンター","architect":"アーキヴィジョン広谷スタジオ","year":2007.0,"address":"富山県富山市小見255-13","latitude":36.57356643676758,"longitude":137.3834228515625,"category":"公民館・交流施設","description":"","image_url":""},{"id":1828,"title":"大沢野ウェルネスリゾートWindy","architect":"ワークステーション","year":1997.0,"address":"富山県富山市春日96-1","latitude":36.561561584472656,"longitude":137.20193481445312,"category":"プール/温泉","description":"","image_url":""},{"id":1829,"title":"リバーリトリート雅樂倶 ANNEX","architect":"内藤廣","year":2005.0,"address":"富山県富山市春日56-2","latitude":36.560523986816406,"longitude":137.20399475097656,"category":"ホテル/茶室","description":"ホテル内に2001年4月竣工、同設計者の茶室がある","image_url":""},{"id":1830,"title":"パレブラン高志会館","architect":"黒川紀章","year":1986.0,"address":"富山県富山市千歳町1-3-1","latitude":36.697933197021484,"longitude":137.21759033203125,"category":"ホール・劇場/研修施設/レストラン","description":"","image_url":""},{"id":1831,"title":"富山国際会議場 大手町フォーラム","architect":"槇文彦","year":1999.0,"address":"富山県富山市大手町1-2","latitude":36.6915397644043,"longitude":137.21109008789062,"category":"展示・会議場","description":"","image_url":""},{"id":1832,"title":"大山町ささやき橋","architect":"トム・ヘネガン","year":1997.0,"address":"富山県富山市上滝238","latitude":36.61107635498047,"longitude":137.30386352539062,"category":"橋","description":"","image_url":""},{"id":1833,"title":"富山県 立山博物館展示館 ／ 遙望館","architect":"磯崎新","year":1995.0,"address":"富山県中新川郡立山町芦峅寺93-1","latitude":36.582725524902344,"longitude":137.39346313476562,"category":"博物館","description":"","image_url":""},{"id":1834,"title":"富山県 立山博物館まんだら遊苑","architect":"六角鬼丈+トム・ヘネガン","year":1995.0,"address":"富山県中新川郡立山町芦峅寺93-1","latitude":36.58088302612305,"longitude":137.40084838867188,"category":"博物館","description":"六號窟 天界窟の設計はトム・ヘネガン。それ以外を六角鬼丈","image_url":""},{"id":1835,"title":"西田幾多郎記念哲学館","architect":"安藤忠雄","year":2002.0,"address":"石川県かほく市内日角井1","latitude":36.71428680419922,"longitude":136.69375610351562,"category":"博物館","description":"","image_url":""},{"id":1836,"title":"海と渚の博物館 うみっこらんど七塚","architect":"内井昭蔵","year":1999.0,"address":"石川県かほく市白尾ム1-3","latitude":36.714691162109375,"longitude":136.68284606933594,"category":"博物館","description":"","image_url":""},{"id":1837,"title":"コスモアイル羽咋","architect":"仙田満","year":1996.0,"address":"石川県羽咋市鶴多町免田25","latitude":36.897640228271484,"longitude":136.78857421875,"category":"博物館","description":"","image_url":""},{"id":1838,"title":"イヴェールボスケ","architect":"堀部安嗣","year":2013.0,"address":"石川県加賀市宮地町リ60-1","latitude":36.34455871582031,"longitude":136.3391571044922,"category":"カフェ","description":"","image_url":""},{"id":1839,"title":"石川県加賀市立錦城中学校","architect":"安藤忠雄","year":2002.0,"address":"石川県加賀市地方6乙74-1","latitude":36.30003356933594,"longitude":136.30267333984375,"category":"学校","description":"","image_url":""},{"id":1840,"title":"九谷焼窯跡展示館","architect":"内藤廣","year":2002.0,"address":"石川県加賀市山代温泉19-101-9","latitude":36.2939338684082,"longitude":136.36618041992188,"category":"博物館","description":"","image_url":""},{"id":1841,"title":"山代温泉 新総湯","architect":"内藤廣","year":2009.0,"address":"石川県加賀市山代温泉万松園通2-1","latitude":36.28854751586914,"longitude":136.36134338378906,"category":"温泉","description":"","image_url":""},{"id":1842,"title":"中谷宇吉郎 雪の科学館","architect":"磯崎新","year":1994.0,"address":"石川県加賀市潮津町イ-106","latitude":36.35280227661133,"longitude":136.36244201660156,"category":"博物館","description":"","image_url":""},{"id":1843,"title":"石川県九谷焼美術館","architect":"象設計集団","year":2001.0,"address":"石川県加賀市大聖寺地方町1-10-13","latitude":36.30278015136719,"longitude":136.31028747558594,"category":"美術館","description":"","image_url":""},{"id":1844,"title":"加賀片山津温泉街湯","architect":"谷口吉生","year":2012.0,"address":"石川県加賀市片山津温泉乙65-2","latitude":36.345279693603516,"longitude":136.36572265625,"category":"公共施設/温泉","description":"","image_url":""},{"id":1845,"title":"片山津温泉配湯所","architect":"中村利則","year":1987.0,"address":"石川県加賀市片山津温泉乙69-3","latitude":36.34587860107422,"longitude":136.36679077148438,"category":"公共施設","description":"","image_url":""},{"id":1846,"title":"金沢ビーンズ","architect":"迫慶一郎","year":2007.0,"address":"石川県金沢市鞍月5-158","latitude":36.5989875793457,"longitude":136.6236114501953,"category":"店舗","description":"","image_url":""},{"id":1847,"title":"金沢市民芸術村","architect":"水野一郎","year":1996.0,"address":"石川県金沢市大和町1-1","latitude":36.568603515625,"longitude":136.64051818847656,"category":"美術館/展示・会議場","description":"","image_url":""},{"id":1848,"title":"金沢港大野からくり記念館","architect":"内井昭蔵","year":1996.0,"address":"石川県金沢市大野町4-甲2-29","latitude":36.61897277832031,"longitude":136.6043701171875,"category":"博物館","description":"","image_url":""},{"id":1849,"title":"エドワードジョンストンカフェ","architect":"窪田茂","year":2009.0,"address":"石川県金沢市鞍月東2-33","latitude":36.596893310546875,"longitude":136.62721252441406,"category":"カフェ/店舗","description":"","image_url":""},{"id":1850,"title":"いしかわ総合スポーツセンター","architect":"池原義郎","year":2008.0,"address":"石川県金沢市稚日野町北222","latitude":36.57935333251953,"longitude":136.59840393066406,"category":"体育館","description":"","image_url":""}]}