{"page":82,"total_pages":290,"items_per_page":50,"total_items":14467,"items":[{"id":4051,"title":"島原図書館","architect":"武基雄","year":1986.0,"address":"長崎県島原市城内1-1202 ‎","latitude":32.78826141357422,"longitude":130.36790466308594,"category":"図書館","description":"","image_url":""},{"id":4052,"title":"松下クリニック","architect":"葉祥栄","year":1990.0,"address":"長崎県長崎市田中町1020","latitude":32.76984405517578,"longitude":129.94720458984375,"category":"個人医院","description":"","image_url":""},{"id":4053,"title":"ハウステンボス","architect":"日本設計","year":1992.0,"address":"長崎県佐世保市ハウステンボス町1-1","latitude":33.089134216308594,"longitude":129.790283203125,"category":"テーマパーク","description":"","image_url":""},{"id":4054,"title":"長崎バイオパーク","architect":"日本設計+白江龍三","year":1986.0,"address":"長崎県西海市西彼町中山郷2291-1","latitude":32.98926544189453,"longitude":129.78704833984375,"category":"動植物園","description":"","image_url":""},{"id":4055,"title":"平戸千里ヶ浜温泉ホテル 蘭風","architect":"国建","year":1977.0,"address":"長崎県平戸市川内町55","latitude":33.33401107788086,"longitude":129.5326690673828,"category":"ホテル","description":"","image_url":""},{"id":4056,"title":"大村市立図書館","architect":"武基雄","year":1973.0,"address":"長崎県大村市東本町481","latitude":32.909446716308594,"longitude":129.96139526367188,"category":"図書館","description":"","image_url":""},{"id":4057,"title":"森山スポーツ交流館","architect":"いるか設計集団","year":1996.0,"address":"長崎県諫早市森山町下井牟田1145","latitude":32.82575225830078,"longitude":130.11521911621094,"category":"体育館/プール","description":"","image_url":""},{"id":4058,"title":"大分銀行赤レンガ館 旧二十三銀行本店","architect":"辰野金吾+片岡安","year":1913.0,"address":"大分県大分市府内町2-2-1","latitude":33.23708724975586,"longitude":131.6080322265625,"category":"洋館/博物館/金融機関","description":"","image_url":""},{"id":4059,"title":"岩田学園","architect":"磯崎新","year":1964.0,"address":"大分県大分市岩田町1-1-1","latitude":33.23696517944336,"longitude":131.6253204345703,"category":"学校","description":"高校教室棟：1988年竣工","image_url":""},{"id":4060,"title":"鶴崎工業高校 機械科実習棟","architect":"首藤廣剛","year":2002.0,"address":"大分県大分市大字葛木530","latitude":33.22267532348633,"longitude":131.67315673828125,"category":"学校","description":"","image_url":""},{"id":4061,"title":"長湯温泉みつばちの湯","architect":"首藤廣剛","year":2011.0,"address":"大分県竹田市直入町大字長湯3050","latitude":33.0667724609375,"longitude":131.3747100830078,"category":"温泉","description":"","image_url":""},{"id":4062,"title":"ダル・ヴィーダ","architect":"首藤廣剛","year":2004.0,"address":"大分県竹田市久住町大字白丹3517","latitude":33.02545928955078,"longitude":131.25994873046875,"category":"ギャラリー","description":"","image_url":""},{"id":4063,"title":"道の駅 みえ","architect":"首藤廣剛","year":2002.0,"address":"大分県豊後大野市三重町宮野2791-1","latitude":33.028690338134766,"longitude":131.62155151367188,"category":"PA・道の駅","description":"","image_url":""},{"id":4064,"title":"三重町東営住宅","architect":"首藤廣剛","year":1998.0,"address":"大分県豊後大野市三重町芦刈 市営東営住宅Ｓ","latitude":32.99462890625,"longitude":131.61447143554688,"category":"集合住宅","description":"","image_url":""},{"id":4065,"title":"京都大学 地球熱学研究施設","architect":"永瀬狂三","year":1923.0,"address":"大分県別府市野口原3088-176","latitude":33.284271240234375,"longitude":131.48570251464844,"category":"大学/洋館/研究施設","description":"","image_url":""},{"id":4066,"title":"別府市中央公民館 旧別府市公会堂","architect":"吉田鉄郎","year":1928.0,"address":"大分県別府市上田の湯町6-37","latitude":33.27739715576172,"longitude":131.4969024658203,"category":"公民館・交流施設","description":"","image_url":""},{"id":4067,"title":"佐藤溪美術館 旧聴潮閣 高橋記念館","architect":"不明","year":1929.0,"address":"大分県別府市青山町9-45","latitude":33.27775573730469,"longitude":131.49093627929688,"category":"美術館/洋館","description":"","image_url":""},{"id":4068,"title":"別府市児童館 レンガホール 旧別府郵便電話局電話分室","architect":"吉田鉄郎","year":1928.0,"address":"大分県別府市末広町1-3","latitude":33.27442169189453,"longitude":131.50267028808594,"category":"児童施設","description":"","image_url":""},{"id":4069,"title":"宇佐神宮 宝物館参集殿","architect":"大江宏","year":1985.0,"address":"大分県宇佐市南宇佐2859","latitude":33.52602767944336,"longitude":131.3747100830078,"category":"寺院/博物館","description":"","image_url":""},{"id":4070,"title":"児童養護施設 聖ヨゼフ寮","architect":"藤木隆男","year":2004.0,"address":"大分県中津市永添2646-4","latitude":33.56246566772461,"longitude":131.20066833496094,"category":"養護施設","description":"","image_url":""},{"id":4071,"title":"クラフト館 蜂の巣 「月點波心」","architect":"黒川哲郎","year":1997.0,"address":"大分県由布市湯布院町川上3053-4","latitude":33.264530181884766,"longitude":131.35781860351562,"category":"観光施設/店舗/レストラン","description":"","image_url":""},{"id":4072,"title":"亀の井別荘 本館","architect":"浅井康行","year":1994.0,"address":"大分県由布市湯布院町川上2633-1","latitude":33.26603317260742,"longitude":131.36834716796875,"category":"旅館","description":"","image_url":""},{"id":4073,"title":"悠仙洞","architect":"浅井康行","year":1990.0,"address":"大分県由布市湯布院町川上2503-2","latitude":33.26097869873047,"longitude":131.36732482910156,"category":"ギャラリー","description":"","image_url":""},{"id":4074,"title":"由布院玉の湯","architect":"鮎川透","year":1974.0,"address":"大分県由布市湯布院町川上2731-1","latitude":33.265716552734375,"longitude":131.3629150390625,"category":"旅館","description":"","image_url":""},{"id":4075,"title":"山荘 無量塔","architect":"浅井康行","year":2004.0,"address":"大分県由布市湯布院町川上1246-2","latitude":33.26335525512695,"longitude":131.35679626464844,"category":"旅館","description":"","image_url":""},{"id":4076,"title":"大分県立日田高等学校 新体育館 「遠思巨材館」","architect":"黒川哲郎","year":2000.0,"address":"大分県日田市田島2-9-30","latitude":33.3223762512207,"longitude":130.94412231445312,"category":"体育館","description":"","image_url":""},{"id":4077,"title":"日本海事協会 臼杵事務所","architect":"大成建設","year":1994.0,"address":"大分県臼杵市大字臼杵洲崎72-276","latitude":33.12554931640625,"longitude":131.80545043945312,"category":"オフィスビル","description":"","image_url":""},{"id":4078,"title":"大分マリーンパレス水族館 うみたまご","architect":"日建設計","year":2004.0,"address":"大分県大分市大字神崎字ウト3078-22","latitude":33.25864028930664,"longitude":131.53543090820312,"category":"水族館","description":"","image_url":""},{"id":4079,"title":"PAVILION","architect":"葉祥栄","year":1993.0,"address":"熊本県熊本市中央区上通町1-15","latitude":32.80376052856445,"longitude":130.71054077148438,"category":"モール/店舗","description":"","image_url":""},{"id":4080,"title":"熊本大学 山崎記念館 旧熊本医科大学図書館","architect":"武田五一","year":1931.0,"address":"熊本県熊本市中央区本荘1-1-1","latitude":32.7965202331543,"longitude":130.711181640625,"category":"博物館","description":"","image_url":""},{"id":4081,"title":"熊本草葉町教会","architect":"木島安史","year":1988.0,"address":"熊本県熊本市中央区草葉町1-15","latitude":32.805240631103516,"longitude":130.71337890625,"category":"教会","description":"","image_url":""},{"id":4082,"title":"九州学院高等学校 講堂兼礼拝堂 ブラウン・メモリアル・チャペル","architect":"ウィリアム・メレル・ヴォーリズ","year":1925.0,"address":"熊本県熊本市中央区大江5-2","latitude":32.79813003540039,"longitude":130.7218017578125,"category":"教会/学校","description":"","image_url":""},{"id":4083,"title":"熊本県立劇場","architect":"前川國男","year":1982.0,"address":"熊本県熊本市中央区大江2-7-1","latitude":32.80241775512695,"longitude":130.72850036621094,"category":"博物館","description":"","image_url":""},{"id":4084,"title":"野中建築事務所","architect":"野中卓","year":1965.0,"address":"熊本県熊本市中央区新大江2-27-8","latitude":32.803035736083984,"longitude":130.73599243164062,"category":"オフィスビル/住宅","description":"","image_url":""},{"id":4085,"title":"ルーテル学院高等学校 本館","architect":"J.H.ヴォーゲル","year":1926.0,"address":"熊本県熊本市中央区黒髪3-12-16","latitude":32.82032775878906,"longitude":130.72291564941406,"category":"学校","description":"","image_url":""},{"id":4086,"title":"熊本県立東陵高等学校","architect":"木島安史","year":1988.0,"address":"熊本県熊本市東区小峯4-5-10","latitude":32.79933547973633,"longitude":130.77828979492188,"category":"学校","description":"","image_url":""},{"id":4087,"title":"熊本市水の科学館","architect":"野中卓","year":1990.0,"address":"熊本県熊本市北区八景水谷1-11-1","latitude":32.84626770019531,"longitude":130.7219696044922,"category":"博物館","description":"","image_url":""},{"id":4088,"title":"熊本大学 学生会館 東光会館","architect":"野中卓","year":1965.0,"address":"熊本県熊本市中央区黒髪2-40-1","latitude":32.81635284423828,"longitude":130.7269744873047,"category":"大学","description":"","image_url":""},{"id":4089,"title":"西原のスタジオ","architect":"新納至門+田崎順二","year":1994.0,"address":"熊本県阿蘇郡西原村布田834-27","latitude":32.829917907714844,"longitude":130.88726806640625,"category":"住宅/オフィスビル","description":"","image_url":""},{"id":4090,"title":"INVISIBLE HOUSE 浮池歯科医院","architect":"葉祥栄","year":1983.0,"address":"熊本県熊本市南区幸田1-7-20","latitude":32.765960693359375,"longitude":130.7149200439453,"category":"個人医院","description":"","image_url":""},{"id":4091,"title":"上無田松尾神社","architect":"木島安史","year":1975.0,"address":"熊本県熊本市東区画図東1-1 松尾神社","latitude":32.77003479003906,"longitude":130.7473907470703,"category":"寺院","description":"","image_url":""},{"id":4092,"title":"上無田公民館","architect":"木島安史","year":1975.0,"address":"熊本県熊本市東区画図東1-6-26","latitude":32.76866912841797,"longitude":130.74790954589844,"category":"公民館・交流施設","description":"","image_url":""},{"id":4093,"title":"宇城市営築切団地","architect":"木島安史","year":1986.0,"address":"熊本県宇城市松橋町松橋1250-1","latitude":32.65788269042969,"longitude":130.68331909179688,"category":"集合住宅","description":"","image_url":""},{"id":4094,"title":"宇城市営希望の里団地","architect":"木島安史","year":1988.0,"address":"熊本県宇城市松橋町豊福 市営希望の里団地Ａ棟","latitude":32.64323425292969,"longitude":130.7017822265625,"category":"集合住宅","description":"","image_url":""},{"id":4095,"title":"釈迦院御坂遊歩展望台","architect":"木島安史","year":1986.0,"address":"熊本県下益城郡美里町坂本836","latitude":32.576961517333984,"longitude":130.82232666015625,"category":"展望台","description":"","image_url":""},{"id":4096,"title":"清和物産館","architect":"石井和紘","year":1994.0,"address":"熊本県上益城郡山都町大平152","latitude":32.69062042236328,"longitude":131.09136962890625,"category":"観光施設","description":"","image_url":""},{"id":4097,"title":"玉名市文化センター","architect":"鮎川透","year":1981.0,"address":"熊本県玉名市繁根木88-1","latitude":32.92838668823242,"longitude":130.5588836669922,"category":"図書館","description":"","image_url":""},{"id":4098,"title":"小国町立小国中学校 体育館","architect":"木島安史","year":1993.0,"address":"熊本県阿蘇郡小国町宮原200","latitude":33.11909866333008,"longitude":131.07437133789062,"category":"体育館/学校","description":"","image_url":""},{"id":4099,"title":"原田ビルディング","architect":"葉祥栄","year":1993.0,"address":"熊本県阿蘇郡小国町宮原2311","latitude":33.11031723022461,"longitude":131.06304931640625,"category":"低層オフィス","description":"","image_url":""},{"id":4100,"title":"たけの湯温泉館 ゆけむり茶屋 旧桜尾山荘","architect":"桂英昭","year":1998.0,"address":"熊本県阿蘇郡小国町西里2816","latitude":33.15571594238281,"longitude":131.13563537597656,"category":"温泉","description":"","image_url":""}]}