{"page":143,"total_pages":290,"items_per_page":50,"total_items":14467,"items":[{"id":7101,"title":"津市産業スポーツセンター サオリーナ","architect":"日建設計","year":2017.0,"address":"三重県津市北河路町19-1","latitude":34.72722244262695,"longitude":136.47799682617188,"category":"体育館","description":"","image_url":""},{"id":7102,"title":"三木山総合公園総合体育館","architect":"石本建築事務所","year":2017.0,"address":"兵庫県三木市福井 三木山総合公園","latitude":34.78948211669922,"longitude":134.99356079101562,"category":"体育館","description":"","image_url":""},{"id":7103,"title":"金沢文芸館 旧高岡銀行橋場支店","architect":"清水建設","year":1929.0,"address":"石川県金沢市尾張町1-7-10","latitude":36.57084655761719,"longitude":136.66371154785156,"category":"博物館/金融機関","description":"2005年に浦建築研究所により改修","image_url":""},{"id":7104,"title":"尾張町町民文化館 旧金沢貯蓄銀行本店","architect":"長岡平三","year":1907.0,"address":"石川県金沢市尾張町1-11-8","latitude":36.571372985839844,"longitude":136.65911865234375,"category":"博物館/金融機関","description":"","image_url":""},{"id":7105,"title":"ゆうらいふ御殿場","architect":"大高正人","year":1972.0,"address":"静岡県御殿場市水土野259","latitude":35.3375244140625,"longitude":138.89451599121094,"category":"研修施設/その他宿泊施設","description":"","image_url":""},{"id":7106,"title":"ときわ公園入口ゲート","architect":"大高正人","year":null,"address":"山口県宇部市則貞3-4-1","latitude":33.945377349853516,"longitude":131.28440856933594,"category":"公園","description":"ときわミュージアム野外彫刻展示場も大高正人設計","image_url":""},{"id":7107,"title":"宇部興産有機化学研究所 旧宇部興産中央研究所","architect":"村野藤吾","year":1951.0,"address":"山口県宇部市小串1978-5","latitude":33.9583854675293,"longitude":131.23419189453125,"category":"研究施設","description":"","image_url":""},{"id":7108,"title":"宇部興産ケミカル工場事務所 旧宇部窒素工業事務所","architect":"村野藤吾","year":1942.0,"address":"山口県宇部市小串1978-10","latitude":33.95368576049805,"longitude":131.23724365234375,"category":"工場/低層オフィス","description":"見学は要事前申し込み","image_url":""},{"id":7109,"title":"安川電機歴史館","architect":"アントニン・レーモンド","year":1954.0,"address":"福岡県北九州市八幡西区黒崎城石2-1","latitude":33.867950439453125,"longitude":130.76829528808594,"category":"博物館/企業施設","description":"月～金 要予約。旧本社の講堂部分、玄関キャノピー部分などを保存。","image_url":""},{"id":7110,"title":"広尾ホームズ&タワーズ","architect":"槇文彦","year":1972.0,"address":"東京都港区南麻布4-1-14","latitude":35.64985656738281,"longitude":139.7235565185547,"category":"集合住宅","description":"","image_url":""},{"id":7111,"title":"矢板市役所","architect":"佐藤武夫","year":1962.0,"address":"栃木県矢板市本町5-4","latitude":36.80672836303711,"longitude":139.9241485595703,"category":"庁舎","description":"","image_url":""},{"id":7112,"title":"勝林寺 客殿庫裏","architect":"手塚建築研究所","year":2017.0,"address":"東京都豊島区駒込7-4-14","latitude":35.740684509277344,"longitude":139.73826599121094,"category":"寺院","description":"","image_url":""},{"id":7113,"title":"野々市市文化交流拠点施設 学びの杜ののいち カレード","architect":"梓設計+三上建築事務所+フジタ","year":2017.0,"address":"石川県野々市市太平寺4-156","latitude":36.52912521362305,"longitude":136.60826110839844,"category":"図書館/公民館・交流施設","description":"","image_url":""},{"id":7114,"title":"南三陸町歌津総合支所・歌津公民館","architect":"久米設計+ピークスタジオ","year":2017.0,"address":"宮城県本吉郡南三陸町歌津枡沢28","latitude":38.719364166259766,"longitude":141.53485107421875,"category":"庁舎/公民館・交流施設","description":"","image_url":""},{"id":7115,"title":"ミキモト銀座本店","architect":"鹿島建設+内藤廣","year":2017.0,"address":"東京都中央区銀座4-5-5","latitude":35.671897888183594,"longitude":139.76547241210938,"category":"店舗","description":"","image_url":""},{"id":7116,"title":"深川不動堂 翼殿","architect":"玉置順","year":2017.0,"address":"東京都江東区富岡1-17-13","latitude":35.67273712158203,"longitude":139.79800415039062,"category":"寺院","description":"","image_url":""},{"id":7117,"title":"武蔵野の森総合スポーツプラザ","architect":"日本設計","year":2017.0,"address":"東京都調布市西町290-11","latitude":35.66604995727539,"longitude":139.52459716796875,"category":"体育館/プール","description":"","image_url":""},{"id":7118,"title":"赤坂インターシティAIR","architect":"日本設計","year":2017.0,"address":"東京都港区赤坂1-8","latitude":35.66997528076172,"longitude":139.74258422851562,"category":"複合ビル/集合住宅","description":"","image_url":""},{"id":7119,"title":"プラネットジャパン関東支社","architect":"竹原義二","year":2017.0,"address":"埼玉県さいたま市大宮区吉敷町3-222","latitude":35.90091323852539,"longitude":139.63743591308594,"category":"低層オフィス","description":"","image_url":""},{"id":7120,"title":"矢吹町第一区自治会館","architect":"ヌーブ","year":2016.0,"address":"福島県西白河郡矢吹町中町163","latitude":37.20257568359375,"longitude":140.32579040527344,"category":"公民館・交流施設","description":"","image_url":""},{"id":7121,"title":"大阪府立病院機構 大阪国際がんセンター","architect":"日本設計+竹中工務店","year":2017.0,"address":"大阪府大阪市中央区大手前3-1-69","latitude":34.685020446777344,"longitude":135.519287109375,"category":"病院","description":"","image_url":""},{"id":7122,"title":"大腸肛門病センター高野病院","architect":"共同建築設計事務所+柳澤潤","year":2017.0,"address":"熊本県熊本市中央区大江3-2-55","latitude":32.80268478393555,"longitude":130.72486877441406,"category":"病院","description":"","image_url":""},{"id":7123,"title":"幌東病院","architect":"アトリエブンク","year":2017.0,"address":"北海道札幌市白石区本郷通（南）7-南4-30","latitude":43.04173278808594,"longitude":141.41278076171875,"category":"病院","description":"","image_url":""},{"id":7124,"title":"立川綜合病院","architect":"竹中工務店","year":2016.0,"address":"新潟県長岡市上条町字谷内561-1","latitude":37.42277526855469,"longitude":138.85830688476562,"category":"病院","description":"","image_url":""},{"id":7125,"title":"四国こどもとおとなの医療センター","architect":"山下設計","year":2014.0,"address":"香川県善通寺市仙遊町2-1-1","latitude":34.228721618652344,"longitude":133.77088928222656,"category":"病院","description":"","image_url":""},{"id":7126,"title":"箱根町庁舎","architect":"加藤渉","year":1969.0,"address":"神奈川県足柄下郡箱根町湯本256","latitude":35.232364654541016,"longitude":139.10696411132812,"category":"庁舎","description":"","image_url":""},{"id":7127,"title":"国際基督教大学 ディッフェンドルファー記念館東棟","architect":"ウィリアム・メレル・ヴォーリズ","year":1958.0,"address":"東京都三鷹市大沢3-10-2","latitude":35.686065673828125,"longitude":139.52981567382812,"category":"大学","description":"","image_url":""},{"id":7128,"title":"国際基督教大学 ディッフェンドルファー記念館西棟","architect":"一粒社ヴォーリズ建築事務所","year":2000.0,"address":"東京都三鷹市大沢3-10-2","latitude":35.686336517333984,"longitude":139.5292510986328,"category":"大学","description":"","image_url":""},{"id":7129,"title":"出島表門橋","architect":"ネイ&パートナーズジャパン","year":2017.0,"address":"長崎県長崎市江戸町8−1","latitude":32.7437858581543,"longitude":129.8730926513672,"category":"橋","description":"","image_url":""},{"id":7130,"title":"COMICO ART MUSEUM YUFUIN","architect":"隈研吾","year":2017.0,"address":"大分県由布市湯布院町川上2995-1","latitude":33.26530075073242,"longitude":131.36131286621094,"category":"美術館","description":"","image_url":""},{"id":7131,"title":"迎賓館和風別館 游心亭","architect":"谷口吉郎","year":1974.0,"address":"東京都港区元赤坂2-1-2","latitude":35.680049896240234,"longitude":139.73045349121094,"category":"公共施設","description":"事前予約無しで一般公開中。公開日のみ。要日程確認。ガイドツアーのみ。","image_url":""},{"id":7132,"title":"佐賀県歯科医師会館","architect":"坂本一成","year":2017.0,"address":"佐賀県佐賀市西田代2-5-24","latitude":33.24858474731445,"longitude":130.2870330810547,"category":"組合施設","description":"","image_url":""},{"id":7133,"title":"福田歯科","architect":"桐圭佑","year":2016.0,"address":"北海道室蘭市輪西町2-3-5","latitude":42.33612823486328,"longitude":141.01202392578125,"category":"個人医院","description":"2021年に増築","image_url":""},{"id":7134,"title":"明圓寺納骨堂 游心庵","architect":"松野勉","year":2015.0,"address":"茨城県石岡市真家1055","latitude":36.275203704833984,"longitude":140.244873046875,"category":"寺院","description":"","image_url":""},{"id":7135,"title":"山中湖村平野地区公園 ゆいの広場ひらり","architect":"eau","year":2017.0,"address":"山梨県南都留郡山中湖村平野98","latitude":35.426578521728516,"longitude":138.9038543701172,"category":"公園/広場/古民家","description":"","image_url":""},{"id":7136,"title":"京都銀行 京都駅前ビル  ","architect":"日建設計","year":2003.0,"address":"京都府京都市下京区東塩小路町731","latitude":34.98802947998047,"longitude":135.76010131835938,"category":"オフィスビル","description":"","image_url":""},{"id":7137,"title":"ローム京都駅前ビル  ","architect":"竹中工務店","year":2010.0,"address":"京都府京都市右京区西院溝崎町21","latitude":34.994632720947266,"longitude":135.72872924804688,"category":"オフィスビル","description":"","image_url":""},{"id":7138,"title":"龍谷大学大宮学舎 大宮図書館","architect":"日建設計","year":2006.0,"address":"京都府京都市下京区七条通大宮東入大工町125-1","latitude":34.99062728881836,"longitude":135.74966430664062,"category":"大学/図書館","description":"","image_url":""},{"id":7139,"title":"美浜町生涯学習センター なびあす","architect":"新居千秋","year":2012.0,"address":"福井県三方郡美浜町郷市29-3","latitude":35.600364685058594,"longitude":135.9397430419922,"category":"総合文化施設","description":"","image_url":""},{"id":7140,"title":"獨協大学 天野貞祐記念館","architect":"NTTファシリティーズ","year":2007.0,"address":"埼玉県草加市学園町1-1","latitude":35.83897399902344,"longitude":139.7950897216797,"category":"大学/図書館","description":"","image_url":""},{"id":7141,"title":"伊江島はにくすに","architect":"NTTファシリティーズ","year":2003.0,"address":"沖縄県国頭郡伊江村川平519-3","latitude":26.707931518554688,"longitude":127.80195617675781,"category":"港/庁舎/観光施設","description":"","image_url":""},{"id":7142,"title":"南相馬市民文化会館 ゆめはっと","architect":"NTTファシリティーズ","year":2003.0,"address":"福島県南相馬市原町区本町2-28-1","latitude":37.64119338989258,"longitude":140.95721435546875,"category":"ホール・劇場","description":"","image_url":""},{"id":7143,"title":"高松市文化芸術ホール サンポートホール高松","architect":"A&T建築研究所+松田平田設計+NTTファシリティーズ+大成建設","year":2004.0,"address":"香川県高松市サンポート2-1","latitude":34.352806091308594,"longitude":134.04721069335938,"category":"ホール・劇場/オフィスビル","description":"","image_url":""},{"id":7144,"title":"田主丸町複合文化施設 そよ風ホール","architect":"NTTファシリティーズ","year":2004.0,"address":"福岡県久留米市田主丸町田主丸770-1","latitude":33.33854293823242,"longitude":130.6864471435547,"category":"総合文化施設","description":"","image_url":""},{"id":7145,"title":"都城市総合文化ホール","architect":"NTTファシリティーズ","year":2006.0,"address":"宮崎県都城市北原町1106-100","latitude":31.732696533203125,"longitude":131.07342529296875,"category":"ホール・劇場","description":"","image_url":""},{"id":7146,"title":"渋谷区文化総合センター大和田","architect":"NTTファシリティーズ","year":2010.0,"address":"東京都渋谷区桜丘町23-21","latitude":35.65545654296875,"longitude":139.69996643066406,"category":"総合文化施設/体育館/博物館","description":"","image_url":""},{"id":7147,"title":"仙台市宮城野区文化センター","architect":"NTTファシリティーズ","year":2012.0,"address":"宮城県仙台市宮城野区五輪2-12-70","latitude":38.26565933227539,"longitude":140.91018676757812,"category":"総合文化施設","description":"","image_url":""},{"id":7148,"title":"横浜市瀬谷区総合庁舎・二ツ橋公園","architect":"NTTファシリティーズ+仙田満","year":2013.0,"address":"神奈川県横浜市瀬谷区二ツ橋町190","latitude":35.46608352661133,"longitude":139.4988555908203,"category":"庁舎/公園/警察・消防署","description":"","image_url":""},{"id":7149,"title":"日本無線 川越事業所","architect":"日建設計","year":2016.0,"address":"埼玉県ふじみ野市滝1-3-12","latitude":35.87882614135742,"longitude":139.52352905273438,"category":"低層オフィス","description":"","image_url":""},{"id":7150,"title":"海野宿滞在型交流施設 うんのわ une noix","architect":"アーキディアック+土本俊和","year":2014.0,"address":"長野県東御市本海野1013","latitude":36.36241149902344,"longitude":138.31246948242188,"category":"レストラン/その他宿泊施設","description":"","image_url":""}]}