{"page":180,"total_pages":290,"items_per_page":50,"total_items":14467,"items":[{"id":8951,"title":"プラッツ習志野 南館","architect":"青木茂","year":2019.0,"address":"埼玉県習志野市本大久保3-8-19","latitude":35.682769775390625,"longitude":140.0469207763672,"category":"体育館/児童施設","description":"リファイニング建築","image_url":""},{"id":8952,"title":"鳥取市新庁舎","architect":"久米設計+白兎設計事務所+塚田隆+木下建築研究所","year":2019.0,"address":"鳥取県鳥取市幸町71","latitude":35.494407653808594,"longitude":134.22216796875,"category":"庁舎","description":"","image_url":""},{"id":8953,"title":"フェリシア女子短期大学 旧鶴川女子短期大学","architect":"隈研吾","year":2019.0,"address":"東京都町田市三輪町1135","latitude":35.57157897949219,"longitude":139.49444580078125,"category":"大学","description":"","image_url":""},{"id":8954,"title":"長浜産業文化交流拠点 さざなみタウン","architect":"久米設計","year":2019.0,"address":"滋賀県長浜市高田町12-34","latitude":35.38158416748047,"longitude":136.27552795410156,"category":"図書館/公共施設","description":"","image_url":""},{"id":8955,"title":"新潟県立武道館 謙信公武道館","architect":"松田平田設計","year":2019.0,"address":"新潟県上越市大字戸野目古新田375","latitude":37.13086700439453,"longitude":138.27256774902344,"category":"体育館","description":"","image_url":""},{"id":8956,"title":"白の蕎麦家 sobaみのり","architect":"瀬野和広","year":2009.0,"address":"東京都昭島市緑町4-17-15","latitude":35.716007232666016,"longitude":139.3433074951172,"category":"レストラン","description":"","image_url":""},{"id":8957,"title":"CLT PARK HARUMI パビリオン棟 風の葉","architect":"隈研吾+三菱地所","year":2019.0,"address":"岡山県真庭市蒜山上福田1205-220","latitude":35.29137420654297,"longitude":133.63673400878906,"category":"オブジェ/その他文化施設","description":"2020年末まで晴海で展示後、岡山県真庭市の国立公園蒜山内に観光施設として移築された","image_url":""},{"id":8958,"title":"山ノ内町役場庁舎","architect":"宮本忠長","year":1982.0,"address":"長野県下高井郡山ノ内町大字平穏3352-1","latitude":36.74461364746094,"longitude":138.41275024414062,"category":"庁舎","description":"","image_url":""},{"id":8959,"title":"塩尻市北部交流センター えんてらす","architect":"宮本忠長建築設計事務所","year":2019.0,"address":"長野県塩尻市大字広丘野村2069-1","latitude":36.149513244628906,"longitude":137.9486846923828,"category":"公民館・交流施設","description":"","image_url":""},{"id":8960,"title":"キトラ古墳体験学習館 四神の館","architect":"宮本忠長","year":2016.0,"address":"奈良県高市郡明日香村大字阿部山67","latitude":34.45177459716797,"longitude":135.80508422851562,"category":"体験施設/博物館","description":"","image_url":""},{"id":8961,"title":"朝日村役場","architect":"宮本忠長建築設計事務所","year":2018.0,"address":"長野県東筑摩郡朝日村大字大字古見1555-1","latitude":36.128822326660156,"longitude":137.86703491210938,"category":"庁舎","description":"","image_url":""},{"id":8962,"title":"野沢温泉スパリーナ","architect":"宮本忠長","year":2013.0,"address":"長野県下高井郡野沢温泉村大字豊郷6748","latitude":36.91871643066406,"longitude":138.4469757080078,"category":"温泉/プール","description":"","image_url":""},{"id":8963,"title":"藤屋御本陳","architect":"宮本忠長","year":2006.0,"address":"長野県長野市大字長野大門町80","latitude":36.65713119506836,"longitude":138.18768310546875,"category":"レストラン/結婚式場","description":"","image_url":""},{"id":8964,"title":"びんぐしの里 湯さん館","architect":"宮本忠長","year":2002.0,"address":"長野県埴科郡坂城町大字網掛2002-4","latitude":36.44199752807617,"longitude":138.16783142089844,"category":"温泉/プール","description":"","image_url":""},{"id":8965,"title":"信濃ゴルフ倶楽部 クラブハウス","architect":"宮本忠長","year":1997.0,"address":"長野県上水内郡信濃町大字大井高山2433","latitude":36.76134490966797,"longitude":138.20021057128906,"category":"クラブハウス","description":"","image_url":""},{"id":8966,"title":"アルファ・サリダ","architect":"宮本忠長","year":2000.0,"address":"長野県長野市稲里町中央4-17-5","latitude":36.60567855834961,"longitude":138.16659545898438,"category":"美容院","description":"","image_url":""},{"id":8967,"title":"馬羅尾天狗岩温泉 すずむし荘","architect":"宮本忠長","year":1995.0,"address":"長野県北安曇郡松川村西原3363-1082","latitude":36.41120147705078,"longitude":137.84548950195312,"category":"旅館","description":"","image_url":""},{"id":8968,"title":"奥山田温泉郷 蕨温泉ふれあいの湯","architect":"宮本忠長","year":1988.0,"address":"長野県上高井郡高山村大字奥山田1321-1","latitude":36.681358337402344,"longitude":138.39889526367188,"category":"温泉","description":"","image_url":""},{"id":8969,"title":"木下美術館","architect":"坂田基禎","year":2008.0,"address":"滋賀県大津市比叡平2-28-21","latitude":35.02716827392578,"longitude":135.8301544189453,"category":"美術館","description":"","image_url":""},{"id":8970,"title":"箱根マイセン美術館","architect":"坂田基禎","year":2011.0,"address":"神奈川県足柄下郡箱根町強羅1320-653","latitude":35.25347137451172,"longitude":139.0406494140625,"category":"美術館","description":"","image_url":""},{"id":8971,"title":"バーミキュラビレッジ","architect":"山本・堀アーキテクツ","year":2019.0,"address":"愛知県名古屋市中川区幹線10-3","latitude":35.15353012084961,"longitude":136.8801727294922,"category":"レストラン/店舗/体験施設","description":"","image_url":""},{"id":8972,"title":"三岸好太郎・節子アトリエ アトリエM","architect":"山脇巌","year":1934.0,"address":"東京都中野区上鷺宮2-2-16","latitude":35.72703552246094,"longitude":139.63656616210938,"category":"カフェ/住宅","description":"カフェは火（14時～）、水（13時～17時）オープン。要予約。","image_url":""},{"id":8973,"title":"地域医療機能推進機構 横浜中央病院","architect":"山田守","year":1960.0,"address":"神奈川県横浜市中区山下町268","latitude":35.4407958984375,"longitude":139.64373779296875,"category":"病院","description":"","image_url":""},{"id":8974,"title":"The Mass","architect":"荒木信雄","year":2016.0,"address":"東京都渋谷区神宮前5-11-1","latitude":35.666996002197266,"longitude":139.70651245117188,"category":"ギャラリー/美術館","description":"","image_url":""},{"id":8975,"title":"東京芸術大学 産学官連携棟 Arts & Science LAB","architect":"山本・堀アーキテクツ","year":2015.0,"address":"東京都台東区上野公園12-8","latitude":35.719207763671875,"longitude":139.77334594726562,"category":"大学","description":"","image_url":""},{"id":8976,"title":"富山大学 工学部総合研究棟","architect":"山本・堀アーキテクツ","year":2015.0,"address":"富山県富山市五福3190","latitude":36.69514465332031,"longitude":137.18463134765625,"category":"大学","description":"","image_url":""},{"id":8977,"title":"eph KYOTO","architect":"高松伸","year":2019.0,"address":"京都府京都市南区東九条西山王町5-6","latitude":34.98249435424805,"longitude":135.76043701171875,"category":"ホテル","description":"","image_url":""},{"id":8978,"title":"つくば建築試験研究センター試験研究本館","architect":"エステック計画研究所","year":2010.0,"address":"茨城県つくば市立原2","latitude":36.134342193603516,"longitude":140.0780792236328,"category":"研究施設","description":"","image_url":""},{"id":8979,"title":"中村征夫写真ギャラリー ブルーホール","architect":"エステック計画研究所","year":2009.0,"address":"秋田県潟上市飯田川飯塚飯塚34-1","latitude":39.8971061706543,"longitude":140.07711791992188,"category":"ギャラリー","description":"","image_url":""},{"id":8980,"title":"清水建設本社","architect":"清水建設","year":2012.0,"address":"東京都中央区京橋2-16-1","latitude":35.676414489746094,"longitude":139.77305603027344,"category":"オフィスビル","description":"2021年に17階設計部門、11階営業部門を改修","image_url":""},{"id":8981,"title":"北海道科学大学 体育館 HIT ARENA","architect":"佐藤孝+a-plus建築設計+清水建設+中舘誠治","year":2012.0,"address":"北海道札幌市手稲区前田7条15-4-1","latitude":43.13566589355469,"longitude":141.24732971191406,"category":"大学/体育館","description":"","image_url":""},{"id":8982,"title":"北海道科学大学 桂岡キャンパス 臨床講義棟C","architect":"佐藤孝+a-plus建築設計+大成建設+中舘誠治","year":2006.0,"address":"北海道小樽市桂岡町7-1","latitude":43.142860412597656,"longitude":141.14059448242188,"category":"大学","description":"","image_url":""},{"id":8983,"title":"北海道科学大学 講義棟G","architect":"佐藤孝+a-plus建築設計+清水建設","year":2001.0,"address":"北海道札幌市手稲区前田7条15-4-1","latitude":43.13398742675781,"longitude":141.24757385253906,"category":"大学","description":"","image_url":""},{"id":8984,"title":"大同大学","architect":"大成建設","year":2000.0,"address":"愛知県名古屋市南区滝春町10-3","latitude":35.078975677490234,"longitude":136.9058380126953,"category":"大学","description":"","image_url":""},{"id":8985,"title":"北海道科学大学 前田キャンパス再整備 A棟・B棟・C棟","architect":"大成建設","year":2015.0,"address":"北海道札幌市手稲区前田7条15-4-1","latitude":43.134735107421875,"longitude":141.2459259033203,"category":"大学","description":"","image_url":""},{"id":8986,"title":"GC Corporate Center","architect":"谷口吉生+鹿島建設","year":2011.0,"address":"東京都文京区本郷3-2-14","latitude":35.703556060791016,"longitude":139.76246643066406,"category":"オフィスビル","description":"","image_url":""},{"id":8987,"title":"佐々木整形外科 spine clinic","architect":"前田圭介","year":2019.0,"address":"広島県広島市安佐南区祇園5-2-45","latitude":34.447166442871094,"longitude":132.4605712890625,"category":"個人医院","description":"","image_url":""},{"id":8988,"title":"リビスコ軽井沢店","architect":"前田圭介","year":2018.0,"address":"長野県北佐久郡軽井沢町746-4","latitude":36.35828399658203,"longitude":138.63677978515625,"category":"店舗/カフェ","description":"","image_url":""},{"id":8989,"title":"神田明神 文化交流館 EDOCCO","architect":"鹿島建設","year":2018.0,"address":"東京都千代田区外神田2-16-2","latitude":35.701805114746094,"longitude":139.7673797607422,"category":"ホール・劇場","description":"","image_url":""},{"id":8990,"title":"プラザノース","architect":"日本設計","year":2008.0,"address":"埼玉県さいたま市北区宮原町1-852-1","latitude":35.93155288696289,"longitude":139.6201629638672,"category":"ホール・劇場/公民館・交流施設","description":"","image_url":""},{"id":8991,"title":"長崎市立図書館","architect":"三菱地所+安井建築設計","year":2007.0,"address":"長崎県長崎市興善町1-1","latitude":32.74857711791992,"longitude":129.87554931640625,"category":"図書館","description":"","image_url":""},{"id":8992,"title":"世界淡水魚園水族館 アクア・トトぎふ","architect":"安井建築設計","year":2004.0,"address":"岐阜県各務原市川島笠田町1453","latitude":35.371707916259766,"longitude":136.8104705810547,"category":"水族館","description":"","image_url":""},{"id":8993,"title":"立佞武多の館","architect":"INA新建築研究所","year":2004.0,"address":"青森県五所川原市大町506-10","latitude":40.81095886230469,"longitude":140.4433135986328,"category":"博物館","description":"","image_url":""},{"id":8994,"title":"韮山反射炉ガイダンスセンター","architect":"INA新建築研究所","year":2016.0,"address":"静岡県伊豆の国市中260-1","latitude":35.039581298828125,"longitude":138.96156311035156,"category":"博物館/観光施設","description":"","image_url":""},{"id":8995,"title":"香取市小見川市民センター いぶき館","architect":"INA新建築研究所","year":2013.0,"address":"千葉県香取市羽根川38","latitude":35.846778869628906,"longitude":140.60218811035156,"category":"ホール・劇場/図書館/公民館・交流施設","description":"","image_url":""},{"id":8996,"title":"朝霞市立博物館","architect":"INA新建築研究所","year":1997.0,"address":"埼玉県朝霞市岡2-7-22","latitude":35.81270980834961,"longitude":139.59747314453125,"category":"博物館","description":"","image_url":""},{"id":8997,"title":"狭山ひかり幼稚園","architect":"安宅研太郎","year":2011.0,"address":"埼玉県狭山市鵜ノ木7-18","latitude":35.85215759277344,"longitude":139.39453125,"category":"幼稚園","description":"","image_url":""},{"id":8998,"title":"かがやきロッジ","architect":"安宅研太郎+池田聖太","year":2017.0,"address":"岐阜県羽島郡岐南町薬師寺4-12","latitude":35.37589645385742,"longitude":136.7736053466797,"category":"養護施設","description":"","image_url":""},{"id":8999,"title":"長楽寺 納骨堂","architect":"山本良介","year":2009.0,"address":"香川県綾歌郡綾川町陶1958","latitude":34.25497055053711,"longitude":133.9487762451172,"category":"寺院","description":"","image_url":""},{"id":9000,"title":"セントラル歯科・口腔外科","architect":"坂本昭","year":2017.0,"address":"茨城県ひたちなか市長堀町2-15-2","latitude":36.39443588256836,"longitude":140.54270935058594,"category":"個人医院","description":"","image_url":""}]}