{"page":70,"total_pages":290,"items_per_page":50,"total_items":14467,"items":[{"id":3451,"title":"ラゾーナ川崎プラザ","architect":"リカルド・ボフィル+山下設計","year":2006.0,"address":"神奈川県川崎市幸区堀川町72-1","latitude":35.531925201416016,"longitude":139.69589233398438,"category":"モール","description":"","image_url":""},{"id":3452,"title":"明治安田生命青山パラシオ","architect":"リカルド・ボフィル","year":1999.0,"address":"東京都港区北青山3-6-7","latitude":35.665382385253906,"longitude":139.71119689941406,"category":"複合ビル","description":"","image_url":""},{"id":3453,"title":"緑園都市 ARCUS","architect":"山本理顕","year":1992.0,"address":"神奈川県横浜市泉区緑園3-2-3","latitude":35.43941116333008,"longitude":139.52088928222656,"category":"テナントビル/集合住宅","description":"","image_url":""},{"id":3454,"title":"緑園都市 G.F.BUILDING","architect":"山本理顕","year":1992.0,"address":"神奈川県横浜市泉区緑園2-1-1","latitude":35.43902587890625,"longitude":139.52133178710938,"category":"テナントビル","description":"","image_url":""},{"id":3455,"title":"緑園都市 OBERISK","architect":"山本理顕","year":1993.0,"address":"神奈川県横浜市泉区緑園1-1-16","latitude":35.43909454345703,"longitude":139.52365112304688,"category":"テナントビル/集合住宅","description":"","image_url":""},{"id":3456,"title":"緑園都市 LOGGIA","architect":"山本理顕","year":1993.0,"address":"神奈川県横浜市泉区緑園1-1-19","latitude":35.43915939331055,"longitude":139.52406311035156,"category":"テナントビル/集合住宅","description":"","image_url":""},{"id":3457,"title":"緑園都市 PRADO","architect":"山本理顕","year":1993.0,"address":"神奈川県横浜市泉区緑園2-1-3","latitude":35.43903350830078,"longitude":139.5207061767578,"category":"集合住宅/テナントビル","description":"","image_url":""},{"id":3458,"title":"緑園都市 AMNIS","architect":"山本理顕","year":1993.0,"address":"神奈川県横浜市泉区緑園2-1-6","latitude":35.43897247314453,"longitude":139.52108764648438,"category":"集合住宅/テナントビル","description":"","image_url":""},{"id":3459,"title":"緑園都市 COTE a COTE","architect":"山本理顕","year":1994.0,"address":"神奈川県横浜市泉区緑園2-1-7","latitude":35.43886947631836,"longitude":139.5209197998047,"category":"体育館","description":"取壊済み","image_url":""},{"id":3460,"title":"マルフジ南田園店","architect":"山本理顕","year":1986.0,"address":"東京都福生市南田園2-15-1","latitude":35.72665023803711,"longitude":139.33123779296875,"category":"店舗","description":"","image_url":""},{"id":3461,"title":"ハムレット","architect":"山本理顕","year":1988.0,"address":"東京都渋谷区千駄ヶ谷4-20-8","latitude":35.680789947509766,"longitude":139.7071075439453,"category":"集合住宅","description":"","image_url":""},{"id":3462,"title":"バロンベール","architect":"フィリップ・スタルク+野沢誠","year":1990.0,"address":"大阪府大阪市中央区谷町9-5-16","latitude":34.66796875,"longitude":135.5157470703125,"category":"テナントビル","description":"","image_url":""},{"id":3463,"title":"べんがら村","architect":"野沢誠","year":1997.0,"address":"福岡県八女市宮野100","latitude":33.20268249511719,"longitude":130.5662384033203,"category":"温泉","description":"","image_url":""},{"id":3464,"title":"城崎町家地ビールレストラン GUBIGABU","architect":"梅林克","year":1997.0,"address":"兵庫県豊岡市城崎町来日128 ＫＩＮＯＳＡＫＩＢＥＥＲＦＡＣＴＯＲＹ","latitude":35.604618072509766,"longitude":134.80239868164062,"category":"レストラン","description":"","image_url":""},{"id":3465,"title":"SPA＆ECO GARDEN 月と花","architect":"梅林克","year":2004.0,"address":"徳島県板野郡松茂町広島字鍬ノ先22","latitude":34.13775634765625,"longitude":134.58570861816406,"category":"温泉","description":"訪問介護施設になっている？","image_url":""},{"id":3466,"title":"タウンセンターH 光都プラザ","architect":"磯崎新+設計組織ADH","year":1997.0,"address":"兵庫県赤穂郡上郡町光都2-23-1","latitude":34.93510055541992,"longitude":134.44329833984375,"category":"モール/公共施設","description":"全体調整：磯崎新","image_url":""},{"id":3467,"title":"天保山ハーバービレッジ マーケットプレース","architect":"ケンブリッジ・セブン・アソシエイツ","year":1990.0,"address":"大阪府大阪市港区海岸通1-1","latitude":34.655879974365234,"longitude":135.4302520751953,"category":"モール","description":"","image_url":""},{"id":3468,"title":"ルイ・ヴィトン 名古屋栄店","architect":"青木淳","year":1999.0,"address":"愛知県名古屋市中区錦3-16-17","latitude":35.17019271850586,"longitude":136.90777587890625,"category":"店舗","description":"","image_url":""},{"id":3469,"title":"大丸 心斎橋店","architect":"ウィリアム・メレル・ヴォーリズ","year":1933.0,"address":"大阪府大阪市中央区心斎橋筋1-7-1","latitude":34.67314910888672,"longitude":135.50096130371094,"category":"店舗","description":"2015年末で建て替え。ファサード部分は保存され竹中工務店設計施工により2019年竣工","image_url":""},{"id":3470,"title":"ガレリア アッカ","architect":"安藤忠雄","year":1988.0,"address":"大阪府大阪市中央区東心斎橋1-16-20","latitude":34.672306060791016,"longitude":135.5026397705078,"category":"テナントビル","description":"","image_url":""},{"id":3471,"title":"TAKビル","architect":"デイビッド・チッパーフィールド+野沢誠","year":1991.0,"address":"京都府京都市左京区一乗寺築田町3","latitude":35.04014587402344,"longitude":135.78933715820312,"category":"テナントビル","description":"","image_url":""},{"id":3472,"title":"本町Gramercy","architect":"鈴木エドワード","year":1992.0,"address":"大阪府大阪市中央区本町4-7-4","latitude":34.68513488769531,"longitude":135.4982147216797,"category":"オフィスビル","description":"","image_url":""},{"id":3473,"title":"カトリック溝ノ口教会","architect":"鈴木エドワード","year":2005.0,"address":"神奈川県川崎市高津区二子5-15-7","latitude":35.600704193115234,"longitude":139.61932373046875,"category":"教会","description":"","image_url":""},{"id":3474,"title":"カトリック掛川教会","architect":"鈴木エドワード","year":2013.0,"address":"静岡県掛川市中央1-8","latitude":34.771751403808594,"longitude":138.01087951660156,"category":"教会","description":"","image_url":""},{"id":3475,"title":"ムジカーザ","architect":"鈴木エドワード","year":1995.0,"address":"東京都渋谷区西原3-33-1","latitude":35.671226501464844,"longitude":139.6817626953125,"category":"ホール・劇場","description":"","image_url":""},{"id":3476,"title":"東関東自動車道 酒々井パーキングエリア","architect":"鈴木エドワード","year":2002.0,"address":"千葉県印旛郡酒々井町墨1419-1","latitude":35.71293258666992,"longitude":140.2845001220703,"category":"PA・道の駅","description":"","image_url":""},{"id":3477,"title":"JR東日本 さいたま新都心駅","architect":"鈴木エドワード","year":2000.0,"address":"埼玉県さいたま市大宮区吉敷町4-57-3","latitude":35.89372634887695,"longitude":139.63340759277344,"category":"駅","description":"","image_url":""},{"id":3478,"title":"JR東日本 大曲駅","architect":"鈴木エドワード","year":1997.0,"address":"秋田県大仙市大曲通町6-1","latitude":39.46494674682617,"longitude":140.48013305664062,"category":"駅","description":"","image_url":""},{"id":3479,"title":"JR東日本 赤湯駅","architect":"鈴木エドワード","year":1993.0,"address":"山形県南陽市郡山番外地 赤湯駅","latitude":38.047183990478516,"longitude":140.14920043945312,"category":"駅","description":"","image_url":""},{"id":3480,"title":"VENT VERT","architect":"鈴木エドワード","year":2012.0,"address":"東京都港区元麻布3-10-2","latitude":35.656822204589844,"longitude":139.73199462890625,"category":"オフィスビル","description":"","image_url":""},{"id":3481,"title":"アピタ岡谷店","architect":"鈴木エドワード","year":1985.0,"address":"長野県岡谷市銀座1-1-5","latitude":36.06535720825195,"longitude":138.0515899658203,"category":"モール","description":"","image_url":""},{"id":3482,"title":"日本点字図書館","architect":"鈴木エドワード","year":1996.0,"address":"東京都新宿区高田馬場1-23-4","latitude":35.71089553833008,"longitude":139.70468139648438,"category":"図書館","description":"","image_url":""},{"id":3483,"title":"日本イタリア京都会館","architect":"森田慶一","year":1972.0,"address":"京都府京都市左京区吉田牛ノ宮町4","latitude":35.0250244140625,"longitude":135.7780303955078,"category":"公共施設","description":"","image_url":""},{"id":3484,"title":"尾道市庁舎","architect":"増田友也","year":1960.0,"address":"広島県尾道市久保1-15","latitude":34.40890121459961,"longitude":133.20484924316406,"category":"庁舎","description":"取壊。建て替え。","image_url":""},{"id":3485,"title":"伊予銀行本店","architect":"長谷部鋭吉","year":1953.0,"address":"愛媛県松山市南堀端町1","latitude":33.838890075683594,"longitude":132.76414489746094,"category":"金融機関","description":"","image_url":""},{"id":3486,"title":"今治市役所 本館","architect":"丹下健三","year":1958.0,"address":"愛媛県今治市別宮町1-4-1","latitude":34.06620407104492,"longitude":132.9977264404297,"category":"庁舎","description":"","image_url":""},{"id":3487,"title":"今治市役所 別館","architect":"丹下健三","year":1994.0,"address":"愛媛県今治市別宮町1-4-1","latitude":34.06640625,"longitude":132.9970703125,"category":"庁舎","description":"","image_url":""},{"id":3488,"title":"愛媛信用金庫 今治支店","architect":"丹下健三","year":1960.0,"address":"愛媛県今治市常盤町4-1-15","latitude":34.06470489501953,"longitude":132.99864196777344,"category":"金融機関","description":"","image_url":""},{"id":3489,"title":"高槻市役所","architect":"山下寿郎","year":1970.0,"address":"大阪府高槻市桃園町2-1","latitude":34.84614181518555,"longitude":135.61732482910156,"category":"庁舎","description":"","image_url":""},{"id":3490,"title":"京都信用金庫 九条支店","architect":"菊竹清訓","year":1971.0,"address":"京都府京都市南区東九条烏丸町5","latitude":34.97981262207031,"longitude":135.75857543945312,"category":"金融機関","description":"","image_url":""},{"id":3491,"title":"京都信用金庫 北野支店","architect":"菊竹清訓","year":1977.0,"address":"京都府京都市北区北野上白梅町64","latitude":35.02766418457031,"longitude":135.73178100585938,"category":"金融機関","description":"","image_url":""},{"id":3492,"title":"京都信用金庫 円町支店","architect":"菊竹清訓","year":1972.0,"address":"京都府京都市中京区西ノ京南大炊御門町32-1","latitude":35.018856048583984,"longitude":135.72970581054688,"category":"金融機関","description":"","image_url":""},{"id":3493,"title":"京都信用金庫 修学院支店","architect":"菊竹清訓","year":1971.0,"address":"京都府京都市左京区修学院大林町2-1","latitude":35.0492057800293,"longitude":135.79225158691406,"category":"金融機関","description":"","image_url":""},{"id":3494,"title":"京都信用金庫 岩倉支店","architect":"菊竹清訓","year":1981.0,"address":"京都府京都市左京区岩倉西五田町27","latitude":35.065147399902344,"longitude":135.7808380126953,"category":"金融機関","description":"","image_url":""},{"id":3495,"title":"新橋駅前ビル1・2号館","architect":"佐藤武夫","year":1966.0,"address":"東京都港区新橋2-20-15","latitude":35.66630172729492,"longitude":139.75962829589844,"category":"オフィスビル","description":"","image_url":""},{"id":3496,"title":"大阪府日本万国博覧会記念公園事務所 万博記念ビル","architect":"根津耕一郎","year":1969.0,"address":"大阪府吹田市千里万博公園1-1 万博記念ビル","latitude":34.80458068847656,"longitude":135.5318603515625,"category":"総合文化施設","description":"","image_url":""},{"id":3497,"title":"リバーサイドビルディング","architect":"岸田日出刀","year":1965.0,"address":"大阪府大阪市北区中之島3-1-8","latitude":34.691776275634766,"longitude":135.49325561523438,"category":"オフィスビル","description":"","image_url":""},{"id":3498,"title":"Rooftecture AWE","architect":"遠藤秀平","year":2000.0,"address":"兵庫県西宮市越水町4-22","latitude":34.745059967041016,"longitude":135.3408966064453,"category":"オフィスビル","description":"","image_url":""},{"id":3499,"title":"光の館","architect":"ジェームズ・タレル+石井大五","year":2000.0,"address":"新潟県十日町市上野甲2891","latitude":37.18879699707031,"longitude":138.7300567626953,"category":"和風住宅/オブジェ","description":"","image_url":""},{"id":3500,"title":"岡山県庁舎","architect":"前川國男","year":1957.0,"address":"岡山県岡山市内山下2-4-6","latitude":34.661319732666016,"longitude":133.93441772460938,"category":"庁舎","description":"2024年耐震改修","image_url":""}]}