{"page":134,"total_pages":290,"items_per_page":50,"total_items":14467,"items":[{"id":6651,"title":"三秋ホール","architect":"手嶋保","year":2016.0,"address":"愛媛県伊予市三秋1130-1","latitude":33.7193717956543,"longitude":132.67860412597656,"category":"ホール・劇場/企業施設","description":"共栄木材に事前連絡で見学可能。また近隣に同設計者、2022年竣工の三秋アトリエもある","image_url":""},{"id":6652,"title":"サポーズ新東京事務所・社食堂","architect":"谷尻誠","year":2017.0,"address":"東京都渋谷区大山町18-23","latitude":35.668609619140625,"longitude":139.67416381835938,"category":"低層オフィス/カフェ","description":"","image_url":""},{"id":6653,"title":"ゆめの樹保育園 なりたにし","architect":"谷尻誠","year":2017.0,"address":"東京都杉並区成田西2-24-20","latitude":35.69046401977539,"longitude":139.62979125976562,"category":"幼稚園","description":"","image_url":""},{"id":6654,"title":"高浜町中央体育館","architect":"東畑建築事務所","year":2017.0,"address":"福井県大飯郡高浜町宮崎92-1-1","latitude":35.48507308959961,"longitude":135.5439910888672,"category":"体育館","description":"","image_url":""},{"id":6655,"title":"OM TERRACE","architect":"藤村龍至","year":2017.0,"address":"埼玉県さいたま市大宮区仲町1-1","latitude":35.905879974365234,"longitude":139.6252899169922,"category":"観光施設/公共施設","description":"","image_url":""},{"id":6656,"title":"ギンザシックス","architect":"谷口吉生+鹿島建設+アール・アイ・エー+森ビル","year":2017.0,"address":"東京都中央区銀座6-10-1","latitude":35.66958999633789,"longitude":139.76402282714844,"category":"テナントビル","description":"","image_url":""},{"id":6657,"title":"富山県美術館","architect":"内藤廣","year":2016.0,"address":"富山県富山市木場町3-20","latitude":36.71062088012695,"longitude":137.21011352539062,"category":"美術館","description":"一部先行オープン済み。2017年8月26日に全館オープン予定。","image_url":""},{"id":6658,"title":"森の駅富士山","architect":"アーキヴィジョン広谷スタジオ","year":2016.0,"address":"静岡県裾野市須山","latitude":35.30581283569336,"longitude":138.77000427246094,"category":"PA・道の駅","description":"","image_url":""},{"id":6659,"title":"山荘・天の里","architect":"アーキヴィジョン広谷スタジオ","year":2013.0,"address":"和歌山県伊都郡かつらぎ町下天野1620","latitude":34.260704040527344,"longitude":135.50714111328125,"category":"ホテル","description":"","image_url":""},{"id":6660,"title":"道の駅くしがきの里","architect":"アーキヴィジョン広谷スタジオ","year":2016.0,"address":"和歌山県伊都郡かつらぎ町滝53-1","latitude":34.318031311035156,"longitude":135.47689819335938,"category":"PA・道の駅","description":"","image_url":""},{"id":6661,"title":"空の家 レイモンド長浜保育園","architect":"アーキヴィジョン広谷スタジオ","year":2011.0,"address":"滋賀県長浜市南小足町324-3","latitude":35.39268493652344,"longitude":136.3110809326172,"category":"幼稚園","description":"","image_url":""},{"id":6662,"title":"レイモンド坂戸保育園","architect":"アーキヴィジョン広谷スタジオ","year":2010.0,"address":"埼玉県坂戸市大字善能寺43-15","latitude":35.9664421081543,"longitude":139.3523406982422,"category":"幼稚園","description":"","image_url":""},{"id":6663,"title":"レイモンド庄中保育園","architect":"アーキヴィジョン広谷スタジオ","year":2012.0,"address":"愛知県尾張旭市庄中町1-2-8","latitude":35.207340240478516,"longitude":137.01304626464844,"category":"幼稚園","description":"","image_url":""},{"id":6664,"title":"レイモンド向日保育園","architect":"アーキヴィジョン広谷スタジオ","year":2013.0,"address":"京都府向日市森本町石田13−3","latitude":34.94640350341797,"longitude":135.71144104003906,"category":"幼稚園","description":"","image_url":""},{"id":6665,"title":"レイモンド花畑保育園","architect":"アーキヴィジョン広谷スタジオ","year":2016.0,"address":"東京都足立区花畑3-42","latitude":35.8061408996582,"longitude":139.8148956298828,"category":"幼稚園","description":"","image_url":""},{"id":6666,"title":"日本基督教団 高輪教会","architect":"岡見健彦","year":1933.0,"address":"東京都港区高輪3-15","latitude":35.634883880615234,"longitude":139.7331085205078,"category":"教会","description":"","image_url":""},{"id":6667,"title":"群馬県総合スポーツセンター ぐんまアリーナ・ぐんま武道館","architect":"日建設計","year":1996.0,"address":"群馬県前橋市関根町800","latitude":36.43726348876953,"longitude":139.0432586669922,"category":"体育館","description":"","image_url":""},{"id":6668,"title":"軽井沢町保健福祉複合施設 木もれ陽の里","architect":"日建設計","year":2007.0,"address":"長野県北佐久郡軽井沢町大字長倉4844-1","latitude":36.335636138916016,"longitude":138.56182861328125,"category":"福祉センター","description":"","image_url":""},{"id":6669,"title":"日本福音 ルーテル大牟田教会","architect":"ウィリアム・メレル・ヴォーリズ","year":1948.0,"address":"福岡県大牟田市本町2-3-2","latitude":33.033321380615234,"longitude":130.44436645507812,"category":"教会","description":"","image_url":""},{"id":6670,"title":"スターバックスコーヒー 鹿児島仙巌園店 旧芹ヶ野島津家金山鉱業事業所","architect":"不明","year":1904.0,"address":"鹿児島県鹿児島市吉野町9688-1","latitude":31.616750717163086,"longitude":130.57537841796875,"category":"カフェ/洋館","description":"","image_url":""},{"id":6671,"title":"山のサナーレ・クリニック","architect":"津端修一","year":2016.0,"address":"佐賀県伊万里市立花町323-2","latitude":33.257320404052734,"longitude":129.87789916992188,"category":"養護施設","description":"","image_url":""},{"id":6672,"title":"熊本大学学生食堂 FORICO","architect":"吉浦嘉彦","year":2009.0,"address":"熊本県熊本市中央区黒髪2-39-1","latitude":32.812259674072266,"longitude":130.7286376953125,"category":"大学/カフェ","description":"","image_url":""},{"id":6673,"title":"旧吉田茂邸","architect":"吉田五十八","year":1961.0,"address":"神奈川県中郡大磯町国府本郷551-1","latitude":35.303016662597656,"longitude":139.2900390625,"category":"住宅","description":"2009年消失も2017年に再建、一般公開中。","image_url":""},{"id":6674,"title":"掛川市立中央図書館","architect":"日建設計","year":2001.0,"address":"静岡県掛川市掛川1148-1","latitude":34.775672912597656,"longitude":138.0161590576172,"category":"図書館","description":"","image_url":""},{"id":6675,"title":"カトリック高輪教会","architect":"船越徹","year":1989.0,"address":"東京都港区高輪4-7-1","latitude":35.62925338745117,"longitude":139.7325439453125,"category":"教会","description":"","image_url":""},{"id":6676,"title":"大丸ヴィラ","architect":"ウィリアム・メレル・ヴォーリズ","year":1932.0,"address":"京都府京都市上京区春日町433-2","latitude":35.01790237426758,"longitude":135.75894165039062,"category":"洋館","description":"","image_url":""},{"id":6677,"title":"上戸田地域交流センター あいパル","architect":"東畑建築事務所","year":2015.0,"address":"埼玉県戸田市上戸田2-21-1","latitude":35.81252670288086,"longitude":139.68089294433594,"category":"公民館・交流施設/図書館","description":"","image_url":""},{"id":6678,"title":"新発田市文化会館","architect":"内井昭蔵","year":1980.0,"address":"新潟県新発田市中央町4-11-7","latitude":37.95189666748047,"longitude":139.32687377929688,"category":"ホール・劇場","description":"","image_url":""},{"id":6679,"title":"東洋大学 赤羽台キャンパス 情報連携学部","architect":"隈研吾","year":2017.0,"address":"東京都北区赤羽台1-7","latitude":35.78060531616211,"longitude":139.71524047851562,"category":"大学","description":"","image_url":""},{"id":6680,"title":"東洋大学 白山キャンパス 新教室棟","architect":"日建設計","year":2017.0,"address":"東京都文京区白山5-28-20","latitude":35.72367477416992,"longitude":139.75160217285156,"category":"大学","description":"","image_url":""},{"id":6681,"title":"東京工業大学 事務局1号館","architect":"清家清","year":1967.0,"address":"東京都目黒区大岡山2-12-1","latitude":35.605140686035156,"longitude":139.68453979492188,"category":"大学","description":"","image_url":""},{"id":6682,"title":"東京工業大学 南1号館 旧北棟","architect":"清家清","year":1965.0,"address":"東京都目黒区大岡山2-12-1","latitude":35.603668212890625,"longitude":139.68344116210938,"category":"大学","description":"","image_url":""},{"id":6683,"title":"東京工業大学 南5号館 旧南棟","architect":"清家清","year":1963.0,"address":"東京都目黒区大岡山2-12-1","latitude":35.60265350341797,"longitude":139.683837890625,"category":"大学","description":"","image_url":""},{"id":6684,"title":"東京工業大学 南講義棟 旧大教室","architect":"清家清","year":1963.0,"address":"東京都目黒区大岡山2-12-1","latitude":35.602474212646484,"longitude":139.6841278076172,"category":"大学","description":"","image_url":""},{"id":6685,"title":"東京工業大学 すずかけホール","architect":"仙田満+和田章","year":2002.0,"address":"神奈川県横浜市緑区長津田町4259","latitude":35.514320373535156,"longitude":139.48382568359375,"category":"大学","description":"","image_url":""},{"id":6686,"title":"東京工業大学 エネルギー環境イノベーション棟","architect":"塚本由晴+日本設計","year":2012.0,"address":"東京都目黒区大岡山2-12-1","latitude":35.60633087158203,"longitude":139.68069458007812,"category":"大学","description":"","image_url":""},{"id":6687,"title":"小淵沢駅 新駅舎・駅前広場","architect":"北川原温","year":2017.0,"address":"山梨県北杜市小淵沢町 小淵沢駅","latitude":35.863555908203125,"longitude":138.31695556640625,"category":"駅/広場","description":"2017年7月に竣工式","image_url":""},{"id":6688,"title":"ナカニシ新本社R&Dセンター RD1","architect":"北川原温","year":2017.0,"address":"栃木県鹿沼市下日向700","latitude":36.56269073486328,"longitude":139.70651245117188,"category":"低層オフィス/研究施設","description":"","image_url":""},{"id":6689,"title":"早稲田大学 高等学院 体育館棟・講堂棟・普通教室棟","architect":"日建設計","year":2014.0,"address":"東京都練馬区上石神井3-31-1","latitude":35.732078552246094,"longitude":139.59271240234375,"category":"学校","description":"","image_url":""},{"id":6690,"title":"久世駅CLTモデル建築物 木テラス","architect":"ofa","year":2017.0,"address":"岡山県真庭市久世2426-3","latitude":35.08069610595703,"longitude":133.74559020996094,"category":"トイレ","description":"","image_url":""},{"id":6691,"title":"snow peak glamping 京急観音崎 モバイルハウス \"住箱\"","architect":"隈研吾","year":2017.0,"address":"神奈川県横須賀市走水2-1157-2 ","latitude":35.26139831542969,"longitude":139.737548828125,"category":"ホテル","description":"2017年6月に常設グランピング施設がオープン。そのモバイルハウス「住箱」の設計を隈研吾が担当","image_url":""},{"id":6692,"title":"神奈川県民ホール","architect":"日建設計","year":1975.0,"address":"神奈川県横浜市中区山下町3-1","latitude":35.44612503051758,"longitude":139.64712524414062,"category":"ホール・劇場","description":"","image_url":""},{"id":6693,"title":"青嶋ホール","architect":"田中謙次","year":1976.0,"address":"静岡県静岡市葵区西草深町16-3","latitude":34.98201370239258,"longitude":138.37820434570312,"category":"ホール・劇場","description":"","image_url":""},{"id":6694,"title":"八ヶ岳高原ロッジ","architect":"吉村順三","year":1988.0,"address":"長野県南佐久郡南牧村海ノ口2244-1","latitude":35.987117767333984,"longitude":138.43557739257812,"category":"ホテル","description":"","image_url":""},{"id":6695,"title":"軽井沢新スタジオ","architect":"アントニン・レーモンド","year":1962.0,"address":"長野県北佐久郡軽井沢町長倉21","latitude":36.323116302490234,"longitude":138.623291015625,"category":"住宅","description":"","image_url":""},{"id":6696,"title":"福島県立会津学鳳中学校・高等学校","architect":"原広司","year":2007.0,"address":"福島県会津若松市一箕町大字八幡八幡1-1","latitude":37.510963439941406,"longitude":139.94314575195312,"category":"学校","description":"","image_url":""},{"id":6697,"title":"尻別山寮 ヒノキ新薬留寿都山寮","architect":"白井晟一","year":1972.0,"address":"北海道虻田郡留寿都村泉川645","latitude":42.759422302246094,"longitude":140.92274475097656,"category":"研修施設","description":"","image_url":""},{"id":6698,"title":"UAゼンセン中央教育センター 友愛の丘","architect":"安井建築設計","year":1976.0,"address":"岡山県岡山市北区建部町福渡1188","latitude":34.86703872680664,"longitude":133.9095001220703,"category":"研修施設","description":"","image_url":""},{"id":6699,"title":"富山商工会議所ビル","architect":"小林道夫","year":1965.0,"address":"富山県富山市総曲輪2-1-3","latitude":36.69162368774414,"longitude":137.21327209472656,"category":"オフィスビル/組合施設","description":"","image_url":""},{"id":6700,"title":"NHK放送センター","architect":"山下寿郎+梓設計","year":1972.0,"address":"東京都渋谷区神南2-2","latitude":35.664894104003906,"longitude":139.69618225097656,"category":"オフィスビル","description":"","image_url":""}]}