{"page":126,"total_pages":290,"items_per_page":50,"total_items":14467,"items":[{"id":6251,"title":"アルテミス宇都宮クリニック","architect":"竹中工務店","year":2006.0,"address":"栃木県宇都宮市インターパーク5-1-9","latitude":36.490440368652344,"longitude":139.9044647216797,"category":"個人医院","description":"","image_url":""},{"id":6252,"title":"東京松屋UNITY","architect":"河野有悟","year":2007.0,"address":"東京都台東区東上野6-1-3","latitude":35.71125411987305,"longitude":139.78448486328125,"category":"集合住宅","description":"","image_url":""},{"id":6253,"title":"ハーベスト医療福祉専門学校","architect":"岩田章吾","year":2007.0,"address":"兵庫県姫路市南駅前町91-6","latitude":34.825828552246094,"longitude":134.69187927246094,"category":"専門学校","description":"","image_url":""},{"id":6254,"title":"えいの里保育園","architect":"岩田章吾","year":2011.0,"address":"兵庫県明石市大久保町江井島960-1","latitude":34.67753982543945,"longitude":134.92149353027344,"category":"幼稚園","description":"","image_url":""},{"id":6255,"title":"豊崎長屋","architect":"竹原義二+小池志保子","year":2008.0,"address":"大阪府大阪市北区豊崎1-1-14","latitude":34.710208892822266,"longitude":135.50418090820312,"category":"ギャラリー/和風住宅","description":"","image_url":""},{"id":6256,"title":"開成学園那古宿舎","architect":"大成建設","year":2007.0,"address":"千葉県館山市那古1672-19","latitude":35.01897430419922,"longitude":139.85562133789062,"category":"研修施設","description":"","image_url":""},{"id":6257,"title":"東京理科大学 長万部キャンパス女子寮","architect":"竹中工務店","year":2008.0,"address":"北海道山越郡長万部町字富野102-1","latitude":42.509117126464844,"longitude":140.36610412597656,"category":"寮","description":"","image_url":""},{"id":6258,"title":"尾﨑呉服店","architect":"竹中工務店","year":2010.0,"address":"鳥取県鳥取市元魚町1-212","latitude":35.50071716308594,"longitude":134.23033142089844,"category":"店舗/住宅","description":"","image_url":""},{"id":6259,"title":"SIA豊洲プライムスクエア","architect":"清水建設","year":2010.0,"address":"東京都江東区豊洲5-6-36","latitude":35.652103424072266,"longitude":139.798095703125,"category":"オフィスビル","description":"","image_url":""},{"id":6260,"title":"中央区立中央小学校・中央幼稚園","architect":"久米設計","year":2012.0,"address":"東京都中央区湊1-4-1","latitude":35.67217254638672,"longitude":139.77874755859375,"category":"学校","description":"","image_url":""},{"id":6261,"title":"弘前市立病院","architect":"前川國男","year":1971.0,"address":"青森県弘前市大町3-8-1","latitude":40.59701919555664,"longitude":140.47850036621094,"category":"病院","description":"","image_url":""},{"id":6262,"title":"江津ひと・まちプラザ パレットごうつ","architect":"感性舎","year":2016.0,"address":"島根県江津市江津町1518-1","latitude":35.013572692871094,"longitude":132.22303771972656,"category":"公民館・交流施設","description":"","image_url":""},{"id":6263,"title":"米っ子合掌像","architect":"高松伸","year":null,"address":"鳥取県米子市弥生町2-20","latitude":35.42348861694336,"longitude":133.33596801757812,"category":"オブジェ","description":"","image_url":""},{"id":6264,"title":"米子市コンベンションセンター ビッグシップ","architect":"佐藤総合計画","year":1998.0,"address":"鳥取県米子市末広町294","latitude":35.42081832885742,"longitude":133.33335876464844,"category":"展示・会議場","description":"","image_url":""},{"id":6265,"title":"英国大使館別荘記念公園","architect":"不明","year":null,"address":"栃木県日光市中宮祠2482","latitude":36.72663116455078,"longitude":139.48594665527344,"category":"住宅","description":"","image_url":""},{"id":6266,"title":"日光駅","architect":"明石虎雄","year":1912.0,"address":"栃木県日光市相生町4-115","latitude":36.747215270996094,"longitude":139.62200927734375,"category":"駅","description":"","image_url":""},{"id":6267,"title":"肥後銀行 本店","architect":"北山孝二郎+日建設計","year":2015.0,"address":"熊本県熊本市中央区練兵町1","latitude":32.797786712646484,"longitude":130.70433044433594,"category":"金融機関","description":"","image_url":""},{"id":6268,"title":"苓北町庁舎","architect":"黒川紀章","year":1997.0,"address":"熊本県天草郡苓北町志岐660","latitude":32.51337432861328,"longitude":130.0547637939453,"category":"庁舎","description":"","image_url":""},{"id":6269,"title":"十和田市教育プラザ・図書館","architect":"安藤忠雄","year":2015.0,"address":"青森県十和田市西十三番町2-8","latitude":40.61112594604492,"longitude":141.20484924316406,"category":"図書館/公共施設","description":"","image_url":""},{"id":6270,"title":"森の光教会 ","architect":"隈研吾","year":2016.0,"address":"群馬県高崎市栄町27-2","latitude":36.318267822265625,"longitude":139.0147247314453,"category":"結婚式場","description":"","image_url":""},{"id":6271,"title":"金子コード浜松工場 roseroc","architect":"奥野公章","year":2016.0,"address":"静岡県浜松市北区細江町中川80","latitude":34.8160514831543,"longitude":137.69090270996094,"category":"企業施設","description":"","image_url":""},{"id":6272,"title":"梅郷礼拝堂","architect":"加藤詞史","year":2016.0,"address":"千葉県野田市大殿井220","latitude":35.943233489990234,"longitude":139.898193359375,"category":"寺院","description":"","image_url":""},{"id":6273,"title":"小さな森の歯科診療所 沖野上木村歯科","architect":"加藤詞史","year":2013.0,"address":"広島県福山市沖野上町1-6-34","latitude":34.47563934326172,"longitude":133.3773956298828,"category":"個人医院","description":"","image_url":""},{"id":6274,"title":"函館アリーナ","architect":"株式会社大建設計+ティーアンドパルス","year":2015.0,"address":"北海道函館市湯川町1-32-2","latitude":41.78202819824219,"longitude":140.78341674804688,"category":"体育館","description":"","image_url":""},{"id":6275,"title":"草津温泉 湯路広場","architect":"北山孝二郎","year":2014.0,"address":"群馬県吾妻郡草津町大字草津107-1","latitude":36.62319564819336,"longitude":138.59593200683594,"category":"観光施設","description":"","image_url":""},{"id":6276,"title":"草津温泉 熱乃湯","architect":"北山孝二郎","year":2015.0,"address":"群馬県吾妻郡草津町大字草津414","latitude":36.62276077270508,"longitude":138.59632873535156,"category":"温泉","description":"","image_url":""},{"id":6277,"title":"再春館安心安全研究所 B棟 旧再春館本社ビル","architect":"北山孝二郎","year":2000.0,"address":"熊本県熊本市中央区帯山4-17-1","latitude":32.80242919921875,"longitude":4027582208.0,"category":"低層オフィス","description":"表側の棟はA&T建築研究所による再春館インテリジョントテレマーケティングセンター（1992年竣工）。区別のためB棟とした","image_url":""},{"id":6278,"title":"再春館 Hill Top","architect":"北山孝二郎","year":2002.0,"address":"熊本県上益城郡益城町寺中1363-1","latitude":32.81565856933594,"longitude":130.83236694335938,"category":"工場","description":"","image_url":""},{"id":6279,"title":"ホタルの湯屋","architect":"高崎正治","year":2015.0,"address":"埼玉県比企郡小川町大塚32","latitude":36.05560302734375,"longitude":139.2613067626953,"category":"温泉","description":"","image_url":""},{"id":6280,"title":"しづやKYOTO","architect":"多田正治","year":2016.0,"address":"京都府京都市下京区七条通河原町東入材木町460","latitude":34.9896354675293,"longitude":135.76449584960938,"category":"ホステル","description":"","image_url":""},{"id":6281,"title":"檸檬ホテル","architect":"岡野道子","year":2016.0,"address":"香川県小豆郡土庄町豊島唐櫃984","latitude":34.48379898071289,"longitude":134.0876922607422,"category":"コテージ/ギャラリー","description":"","image_url":""},{"id":6282,"title":"THE SHARE HOTELS HATCHi 金沢","architect":"プランニングファクトリー蔵","year":2016.0,"address":"石川県金沢市橋場町3-18","latitude":36.57127380371094,"longitude":136.6642303466797,"category":"ホステル/店舗/カフェ","description":"","image_url":""},{"id":6283,"title":"旧富士製氷工場","architect":"坂牛卓","year":2016.0,"address":"山梨県富士吉田市富士見1-1-15","latitude":35.49623489379883,"longitude":138.80699157714844,"category":"低層オフィス/児童施設","description":"","image_url":""},{"id":6284,"title":"土浦市消防本部消防庁舎","architect":"久米設計","year":2016.0,"address":"茨城県土浦市田中町2083-1","latitude":36.090309143066406,"longitude":140.18798828125,"category":"警察・消防署","description":"","image_url":""},{"id":6285,"title":"鹿手袋の長屋 パサージュ","architect":"藤野高志","year":2014.0,"address":"埼玉県さいたま市南区鹿手袋6-6","latitude":35.84552001953125,"longitude":139.63841247558594,"category":"集合住宅/店舗","description":"","image_url":""},{"id":6286,"title":"鹿手袋の蔵","architect":"藤野高志","year":2016.0,"address":"埼玉県さいたま市南区鹿手袋6-6","latitude":35.84527587890625,"longitude":139.63809204101562,"category":"カフェ/ギャラリー","description":"江戸時代の蔵を改修。2016年10月よりカフェとして営業予定。","image_url":""},{"id":6287,"title":"ホビーリンクジャパン本社屋","architect":"藤野高志","year":2007.0,"address":"栃木県佐野市黒袴町162-1","latitude":36.311580657958984,"longitude":139.61651611328125,"category":"低層オフィス","description":"","image_url":""},{"id":6288,"title":"スターバックスコーヒー 高崎貝沢店","architect":"藤野高志","year":2008.0,"address":"群馬県高崎市貝沢町1327-3","latitude":36.3391227722168,"longitude":139.0272216796875,"category":"カフェ","description":"","image_url":""},{"id":6289,"title":"天神山のアトリエ 生物建築舎事務所","architect":"藤野高志","year":2011.0,"address":"群馬県高崎市貝沢町323-1","latitude":36.3433837890625,"longitude":139.02493286132812,"category":"住宅/低層オフィス","description":"","image_url":""},{"id":6290,"title":"萩塚の長屋","architect":"藤野高志","year":2011.0,"address":"群馬県高崎市貝沢町1289","latitude":36.338890075683594,"longitude":139.02621459960938,"category":"集合住宅","description":"","image_url":""},{"id":6291,"title":"亀沢温泉センター 亀沢温泉家族風呂","architect":"藤野高志","year":2012.0,"address":"群馬県高崎市倉渕町川浦2294","latitude":36.46663284301758,"longitude":138.75466918945312,"category":"温泉","description":"閉館したとのこと","image_url":""},{"id":6292,"title":"日南市油津商店街 多世代交流モール","architect":"水上哲也","year":2015.0,"address":"宮崎県日南市岩崎3-10-6","latitude":31.587459564208984,"longitude":131.3983917236328,"category":"モール/公民館・交流施設","description":"","image_url":""},{"id":6293,"title":"福山市本通・船町商店街アーケード改修プロジェクト とおり町Street Garden","architect":"前田圭介","year":2016.0,"address":"広島県福山市今町3","latitude":34.489681243896484,"longitude":133.3677978515625,"category":"モール/公共施設","description":"","image_url":""},{"id":6294,"title":"十日町市市民交流センター 分じろう","architect":"青木淳","year":2016.0,"address":"新潟県十日町市本町2-226-1","latitude":37.13203430175781,"longitude":138.7605438232422,"category":"公民館・交流施設","description":"","image_url":""},{"id":6295,"title":"十日町市市民活動センター 十じろう","architect":"青木淳","year":2016.0,"address":"新潟県十日町市本町3-6-4","latitude":37.133148193359375,"longitude":138.76063537597656,"category":"公民館・交流施設","description":"","image_url":""},{"id":6296,"title":"河原町スカイマンション","architect":"村野藤吾","year":1975.0,"address":"京都府京都市上京区駒之町561-4","latitude":35.01721954345703,"longitude":135.7700958251953,"category":"集合住宅","description":"","image_url":""},{"id":6297,"title":"キャナルタワー","architect":"竹山実","year":1991.0,"address":"東京都中央区日本橋小網町9-3","latitude":35.6833381652832,"longitude":139.78016662597656,"category":"オフィスビル","description":"","image_url":""},{"id":6298,"title":"第一幼稚園","architect":"日比野設計","year":2015.0,"address":"熊本県熊本市坪井4-20-22","latitude":32.817108154296875,"longitude":130.71627807617188,"category":"幼稚園","description":"","image_url":""},{"id":6299,"title":"古代の風 黒の蔵 多良木町埋蔵文化等センター","architect":"建築士事務所なかおか","year":2014.0,"address":"熊本県球磨郡多良木町黒肥地蓑田4282","latitude":32.27785110473633,"longitude":130.94284057617188,"category":"博物館","description":"","image_url":""},{"id":6300,"title":"熊本県芦北町立佐敷小学校","architect":"楠山設計","year":2006.0,"address":"熊本県葦北郡芦北町大字道川内31−1","latitude":32.307552337646484,"longitude":130.50161743164062,"category":"学校","description":"","image_url":""}]}