{"page":280,"total_pages":290,"items_per_page":50,"total_items":14467,"items":[{"id":13951,"title":"日本歯科大学 体育館","architect":"岡田新一","year":1970.0,"address":"東京都千代田区富士見2-3-16","latitude":35.69999313354492,"longitude":139.74444580078125,"category":"大学/体育館","description":"","image_url":""},{"id":13952,"title":"畑の中のこども園 いばらき幼稚園","architect":"本瀬齋田建築設計事務所","year":2021.0,"address":"茨城県東茨城郡茨城町駒場491-1","latitude":36.2795295715332,"longitude":140.42845153808594,"category":"幼稚園","description":"","image_url":""},{"id":13953,"title":"トヨタモビリティ富山 小杉 双代町EVステーション","architect":"本瀬齋田建築設計事務所","year":2018.0,"address":"富山県射水市戸破1723-1","latitude":36.714717864990234,"longitude":137.09417724609375,"category":"店舗","description":"EVステーションの竣工は2023年","image_url":""},{"id":13954,"title":"UPLIFT SHIMOJYUKU + MILKBREW COFFEE URESHIO ONSEN","architect":"馬場正尊+二俣公一","year":2022.0,"address":"佐賀県嬉野市嬉野町大字下宿甲4763-1","latitude":33.10667037963867,"longitude":129.99765014648438,"category":"カフェ/店舗","description":"二期工事竣工：2024年3月","image_url":""},{"id":13955,"title":"Hotel Rakuragu","architect":"小大建築設計事務所","year":2024.0,"address":"東京都中央区日本橋本町1-7-9","latitude":35.686161041259766,"longitude":139.77761840820312,"category":"ホテル","description":"","image_url":""},{"id":13956,"title":"南堀江の眼科 つじもと眼科クリニック 堀江院","architect":"桑原淳司","year":2023.0,"address":"大阪府大阪市西区南堀江3-13-20","latitude":34.672462463378906,"longitude":135.48753356933594,"category":"個人医院","description":"","image_url":""},{"id":13957,"title":"アルカディアリゾート宮古島","architect":"山﨑壮一","year":2023.0,"address":"沖縄県宮古島市伊良部伊良部762-1","latitude":24.807388305664062,"longitude":9344986112.0,"category":"ホテル","description":"","image_url":""},{"id":13958,"title":"+ヒトマメ","architect":"丸山晴之","year":2023.0,"address":"福井県勝山市荒土町松ヶ崎20","latitude":36.07156753540039,"longitude":136.4803466796875,"category":"カフェ","description":"","image_url":""},{"id":13959,"title":"箸屋の工場 hashi-coo Fab＆Gallery","architect":"丸山晴之","year":2023.0,"address":"福井県小浜市木崎32-10-8","latitude":35.48673629760742,"longitude":135.7678680419922,"category":"工場/ギャラリー","description":"","image_url":""},{"id":13960,"title":"道のオアシス フォーシーズンテラス","architect":"丸山晴之","year":2024.0,"address":"福井県今立郡池田町志津原15-1","latitude":35.86541748046875,"longitude":136.36224365234375,"category":"PA・道の駅","description":"","image_url":""},{"id":13961,"title":"八重巻酒店","architect":"丸山晴之","year":2023.0,"address":"福井県福井市栄町12-4","latitude":36.10948181152344,"longitude":136.22415161132812,"category":"店舗","description":"","image_url":""},{"id":13962,"title":"オーベルジュほまち 三國湊 フロント棟","architect":"NTTファシリティーズ","year":2023.0,"address":"福井県坂井市三国町南本町3-4-39","latitude":36.21321105957031,"longitude":136.14950561523438,"category":"ホテル","description":"","image_url":""},{"id":13963,"title":"城小屋マルコ","architect":"丸山晴之","year":2020.0,"address":"福井県坂井市丸岡町霞町1-25","latitude":36.151790618896484,"longitude":136.2716827392578,"category":"カフェ/低層オフィス","description":"","image_url":""},{"id":13964,"title":"船町ベース","architect":"長坂常","year":2024.0,"address":"岐阜県大垣市船町2-1","latitude":35.35708236694336,"longitude":136.6123046875,"category":"カフェ/店舗","description":"","image_url":""},{"id":13965,"title":"享栄幼稚園","architect":"中日設計","year":2019.0,"address":"愛知県名古屋市瑞穂区東栄町2-4","latitude":35.13605499267578,"longitude":136.9370574951172,"category":"幼稚園","description":"","image_url":""},{"id":13966,"title":"ハートンこまづめ認定こども園","architect":"中日設計","year":2020.0,"address":"岐阜県岐阜市東駒爪町17","latitude":35.41638946533203,"longitude":136.76390075683594,"category":"幼稚園","description":"","image_url":""},{"id":13967,"title":"黎明保育園","architect":"中日設計","year":2022.0,"address":"愛知県名古屋市瑞穂区河岸町3-36","latitude":35.11568069458008,"longitude":136.92697143554688,"category":"幼稚園","description":"","image_url":""},{"id":13968,"title":"熊野病院","architect":"中日設計","year":2022.0,"address":"三重県熊野市久生屋町868","latitude":33.86458969116211,"longitude":136.07504272460938,"category":"病院","description":"","image_url":""},{"id":13969,"title":"三谷興業 東海工場","architect":"中日設計","year":2022.0,"address":"愛知県東海市名和町一ノ下2-1","latitude":35.05659866333008,"longitude":136.905517578125,"category":"工場","description":"","image_url":""},{"id":13970,"title":"半田市医師会健康管理センター 新ドック棟","architect":"中日設計","year":2022.0,"address":"愛知県半田市神田町1-1","latitude":34.8853874206543,"longitude":136.8990478515625,"category":"病院","description":"","image_url":""},{"id":13971,"title":"きむら内科小児科クリニック","architect":"中日設計","year":2023.0,"address":"愛知県名古屋市緑区神の倉3-10","latitude":35.1014518737793,"longitude":137.01300048828125,"category":"個人医院","description":"","image_url":""},{"id":13972,"title":"たけもと脳神経外科","architect":"中日設計","year":2023.0,"address":"愛知県名古屋市天白区元植田2-302","latitude":35.13491439819336,"longitude":136.9910888671875,"category":"個人医院","description":"","image_url":""},{"id":13973,"title":"たつのこキッズクリニック","architect":"中日設計","year":2024.0,"address":"愛知県愛知郡東郷町兵庫2-2","latitude":35.091819763183594,"longitude":137.0267333984375,"category":"個人医院","description":"","image_url":""},{"id":13974,"title":"中切パークサイドクリニック","architect":"中日設計","year":2023.0,"address":"愛知県名古屋市北区中切町2-10","latitude":35.21276092529297,"longitude":136.9080047607422,"category":"個人医院","description":"","image_url":""},{"id":13975,"title":"トヨタモビリティ東京 有明店","architect":"中日設計","year":2023.0,"address":"東京都江東区有明1-4-29","latitude":35.63589859008789,"longitude":139.7853546142578,"category":"店舗","description":"","image_url":""},{"id":13976,"title":"シルヴィー西尾","architect":"中日設計","year":2023.0,"address":"愛知県西尾市田貫町市川原73","latitude":34.87029266357422,"longitude":137.02638244628906,"category":"養護施設","description":"","image_url":""},{"id":13977,"title":"AISANクリニック","architect":"中日設計","year":2023.0,"address":"愛知県津島市江西町1-3-3","latitude":35.17853546142578,"longitude":136.71310424804688,"category":"福祉センター","description":"","image_url":""},{"id":13978,"title":"静岡共立クリニック","architect":"中日設計","year":2023.0,"address":"静岡県静岡市駿河区曲金4-1-25","latitude":34.976966857910156,"longitude":138.40843200683594,"category":"個人医院","description":"","image_url":""},{"id":13979,"title":"シニアレジデンス自游倶楽部 笹原","architect":"中日設計","year":2023.0,"address":"愛知県名古屋市天白区笹原町1703","latitude":35.110595703125,"longitude":136.96170043945312,"category":"集合住宅","description":"","image_url":""},{"id":13980,"title":"カトリック山手教会","architect":"ヤン・ヨセフ・スワガー","year":1933.0,"address":"神奈川県横浜市中区山手町44","latitude":35.43640899658203,"longitude":139.64723205566406,"category":"教会","description":"","image_url":""},{"id":13981,"title":"保土ヶ谷カトリック教会","architect":"ヤン・ヨセフ・スワガー","year":1938.0,"address":"神奈川県横浜市保土ケ谷区霞台8-41","latitude":35.447959899902344,"longitude":139.5925750732422,"category":"教会","description":"","image_url":""},{"id":13982,"title":"日本カトリック教団 カトリック福岡司教館","architect":"ヤン・ヨセフ・スワガー","year":1933.0,"address":"福岡県福岡市中央区浄水通6-28","latitude":33.575557708740234,"longitude":130.39303588867188,"category":"教会","description":"","image_url":""},{"id":13983,"title":"カトリック豊中教会","architect":"ヤン・ヨセフ・スワガー","year":1939.0,"address":"大阪府豊中市本町6-1-6","latitude":34.79023361206055,"longitude":135.46707153320312,"category":"教会","description":"","image_url":""},{"id":13984,"title":"バーナードハウス 旧E.V.バーナード邸","architect":"ヤン・ヨセフ・スワガー","year":1937.0,"address":"神奈川県横浜市中区本牧元町70-16","latitude":35.41713333129883,"longitude":139.66647338867188,"category":"洋館/企業施設","description":"写真スタジオとして活用されている","image_url":""},{"id":13985,"title":"灯台の聖母トラピスト修道院 本院西側増築","architect":"ヤン・ヨセフ・スワガー","year":1938.0,"address":"北海道北斗市三ツ石392","latitude":41.740135192871094,"longitude":140.5688934326172,"category":"教会","description":"","image_url":""},{"id":13986,"title":"日本基督教団 本多記念教会","architect":"香山壽夫","year":2023.0,"address":"東京都渋谷区代官山町8-2","latitude":35.65165710449219,"longitude":139.7054901123047,"category":"教会","description":"","image_url":""},{"id":13987,"title":"明治学院高等学校","architect":"香山壽夫+石本建築事務所","year":2022.0,"address":"東京都港区白金台1-2-37","latitude":35.636558532714844,"longitude":139.73023986816406,"category":"学校","description":"","image_url":""},{"id":13988,"title":"小鹿野町役場庁舎","architect":"香山壽夫","year":2023.0,"address":"埼玉県秩父郡小鹿野町小鹿野89","latitude":36.01716232299805,"longitude":8699677696.0,"category":"庁舎","description":"","image_url":""},{"id":13989,"title":"上智大学 四谷キャンパス 15号館","architect":"住友林業","year":2022.0,"address":"東京都千代田区麹町6-1-18","latitude":35.68461227416992,"longitude":139.73312377929688,"category":"大学","description":"","image_url":""},{"id":13990,"title":"鳥取ユニバーサルスポーツセンター ノバリア","architect":"田辺芳生","year":2020.0,"address":"鳥取県鳥取市布勢146-1","latitude":35.49958801269531,"longitude":134.17742919921875,"category":"体育館","description":"","image_url":""},{"id":13991,"title":"蕨セントラル歯科・矯正歯科 旧ヒロデンタルクリニック","architect":"田辺芳生","year":2006.0,"address":"埼玉県蕨市中央7-35-2","latitude":35.81827926635742,"longitude":139.6856689453125,"category":"個人医院","description":"","image_url":""},{"id":13992,"title":"小林歯科医院","architect":"田辺芳生","year":2008.0,"address":"埼玉県熊谷市村岡531-1","latitude":36.12535095214844,"longitude":139.37696838378906,"category":"個人医院","description":"","image_url":""},{"id":13993,"title":"新宿警察署 歌舞伎町交番","architect":"田辺芳生","year":1994.0,"address":"東京都新宿区歌舞伎町2-44-2","latitude":35.6961669921875,"longitude":139.70162963867188,"category":"警察・消防署","description":"","image_url":""},{"id":13994,"title":"日本体育大学 日体レスリング会館","architect":"田辺芳生","year":2012.0,"address":"神奈川県横浜市青葉区すみよし台11-6","latitude":35.55115509033203,"longitude":139.49478149414062,"category":"大学/クラブハウス","description":"","image_url":""},{"id":13995,"title":"TENOHA蓼科","architect":"古谷俊一","year":2024.0,"address":"長野県茅野市北山字鹿山4026-2","latitude":36.06978988647461,"longitude":138.25392150878906,"category":"体験施設/公園","description":"","image_url":""},{"id":13996,"title":"niwa","architect":"古谷俊一","year":2024.0,"address":"東京都大田区蒲田5-28-13","latitude":35.56174850463867,"longitude":139.72007751464844,"category":"店舗/低層オフィス","description":"","image_url":""},{"id":13997,"title":"こども園ひがしどおり","architect":"村上美奈子","year":2012.0,"address":"青森県下北郡東通村砂子又沢内9-35","latitude":41.274478912353516,"longitude":141.33120727539062,"category":"幼稚園","description":"","image_url":""},{"id":13998,"title":"東松山市 化石と自然の体験館","architect":"中村勉","year":2016.0,"address":"埼玉県東松山市坂東山13","latitude":36.017311096191406,"longitude":139.37779235839844,"category":"博物館","description":"","image_url":""},{"id":13999,"title":"二日町公園","architect":"中村勉","year":2002.0,"address":"秋田県大仙市長野二日町長野新町","latitude":39.54001998901367,"longitude":140.5314178466797,"category":"公園","description":"","image_url":""},{"id":14000,"title":"阿智村図書館 増築・改修","architect":"中村勉","year":2004.0,"address":"長野県下伊那郡阿智村駒場468-1","latitude":35.44407653808594,"longitude":137.74795532226562,"category":"図書館","description":"","image_url":""}]}