{"page":226,"total_pages":290,"items_per_page":50,"total_items":14467,"items":[{"id":11251,"title":"DELTA / KYOTOGRAPHIE Permanent Space","architect":"森田一弥","year":2020.0,"address":"京都府京都市上京区三栄町62","latitude":35.03036880493164,"longitude":135.76844787597656,"category":"カフェ/ギャラリー/コテージ","description":"","image_url":""},{"id":11252,"title":"安満遺跡公園 歴史拠点展示館 旧京都大学付属農場建物群","architect":"エキスポ+京智健+森田一弥","year":2020.0,"address":"大阪府高槻市八丁畷町12-1","latitude":34.85539627075195,"longitude":135.6309814453125,"category":"博物館/カフェ","description":"","image_url":""},{"id":11253,"title":"銚子信用金庫 橋本支店","architect":"SALHAUS+秀光","year":2019.0,"address":"千葉県銚子市明神町1-74","latitude":35.731346130371094,"longitude":140.85769653320312,"category":"金融機関","description":"","image_url":""},{"id":11254,"title":"横浜高等学校 改修プロジェクト","architect":"SALHAUS","year":2018.0,"address":"神奈川県横浜市金沢区能見台通46-1","latitude":35.36272430419922,"longitude":139.62811279296875,"category":"学校","description":"男子校校舎2棟と体育館兼講堂を全面改修","image_url":""},{"id":11255,"title":"TPG ケアテラスよまき","architect":"SALHAUS","year":2018.0,"address":"埼玉県三郷市鷹野5","latitude":35.79814910888672,"longitude":139.87423706054688,"category":"福祉センター","description":"","image_url":""},{"id":11256,"title":"リーガランド恵比寿","architect":"SALHAUS+北尾一顕","year":2018.0,"address":"東京都渋谷区恵比寿2-17-22","latitude":35.647247314453125,"longitude":139.71890258789062,"category":"集合住宅","description":"","image_url":""},{"id":11257,"title":"中東 集材材工場","architect":"SALHAUS","year":2018.0,"address":"石川県能美市岩内町ヤ1-9","latitude":36.44873809814453,"longitude":136.56863403320312,"category":"工場","description":"","image_url":""},{"id":11258,"title":"麻布鳥居坂ファースト","architect":"SALHAUS","year":2018.0,"address":"東京都港区麻布十番1-5-6","latitude":35.657222747802734,"longitude":139.7330780029297,"category":"テナントビル","description":"","image_url":""},{"id":11259,"title":"カドマルビル","architect":"SALHAUS","year":2010.0,"address":"大阪府大阪市西区江戸堀1-8-20","latitude":34.689353942871094,"longitude":135.49684143066406,"category":"オフィスビル","description":"","image_url":""},{"id":11260,"title":"クロスストリート","architect":"SALHAUS","year":2010.0,"address":"神奈川県横浜市中区伊勢佐木町4-123","latitude":35.44091796875,"longitude":139.62823486328125,"category":"ホール・劇場","description":"","image_url":""},{"id":11261,"title":"MOCXION INAGI","architect":"三井ホーム+アーキヴィジョン広谷スタジオ","year":2021.0,"address":"東京都稲城市百村1625-1","latitude":35.63471603393555,"longitude":139.50192260742188,"category":"集合住宅","description":"","image_url":""},{"id":11262,"title":"カーザベルジ","architect":"木下昌大","year":2021.0,"address":"東京都新宿区下落合2-25-9","latitude":35.71938705444336,"longitude":139.70008850097656,"category":"集合住宅","description":"","image_url":""},{"id":11263,"title":"代田の屏風長屋 kitab","architect":"齋藤隆太郎","year":2021.0,"address":"東京都世田谷区代田4-19-12","latitude":35.66153335571289,"longitude":139.6576690673828,"category":"集合住宅","description":"","image_url":""},{"id":11264,"title":"165 箱の長屋","architect":"難波和彦","year":2022.0,"address":"東京都府中市分梅町1-8-40","latitude":35.667667388916016,"longitude":139.4656524658203,"category":"集合住宅","description":"","image_url":""},{"id":11265,"title":"総本山仁和寺 松林庵改修","architect":"大森設計事務所+住友林業ホームテック","year":1937.0,"address":"京都府京都市右京区御室大内33 仁和寺内","latitude":35.02839279174805,"longitude":135.7149200439453,"category":"古民家","description":"久富家の旧宅を1937年に仁和寺境内に移築。2017年9月に改修。高級宿坊として一泊100万円で宿泊可能","image_url":""},{"id":11266,"title":"ブリリアタワー 西新/プラリバ","architect":"竹中工務店","year":2021.0,"address":"福岡県福岡市早良区西新4-1-1","latitude":33.58359909057617,"longitude":130.3601531982422,"category":"集合住宅/モール","description":"","image_url":""},{"id":11267,"title":"TAKENISHI TERRACE","architect":"YRAD","year":2021.0,"address":"大分県大分市中央町3-6-12","latitude":33.23801803588867,"longitude":131.6038055419922,"category":"店舗","description":"","image_url":""},{"id":11268,"title":"蜜や","architect":"矢萩智","year":2020.0,"address":"岐阜県瑞浪市穂並1-58","latitude":35.35600662231445,"longitude":137.2476043701172,"category":"カフェ","description":"","image_url":""},{"id":11269,"title":"池袋パルコ 旧東京丸物百貨店","architect":"村野藤吾","year":1957.0,"address":"東京都豊島区南池袋1-28-2","latitude":35.73074722290039,"longitude":139.71240234375,"category":"テナントビル/モール","description":"","image_url":""},{"id":11270,"title":"中山製鋼所総合管理センター","architect":"村野藤吾","year":1935.0,"address":"大阪府大阪市大正区船町1-1-68","latitude":34.62894821166992,"longitude":135.4676513671875,"category":"オフィスビル","description":"改修されているも一部現存","image_url":""},{"id":11271,"title":"早稲田大学 31・32号館","architect":"村野藤吾","year":1962.0,"address":"東京都新宿区戸山1-24","latitude":35.70531463623047,"longitude":139.71832275390625,"category":"大学","description":"33号館は解体済み","image_url":""},{"id":11272,"title":"ニセコ蒸溜所","architect":"鹿島建設","year":2021.0,"address":"北海道虻田郡ニセコ町ニセコ478-15","latitude":42.84855270385742,"longitude":140.63963317871094,"category":"工場","description":"完全事前予約制で見学可能","image_url":""},{"id":11273,"title":"麻布十番のレストラン はなぶさ麻布十番ビル","architect":"AAOAA+齋藤由和","year":2022.0,"address":"東京都港区麻布十番2-7-11","latitude":35.65562057495117,"longitude":139.73321533203125,"category":"レストラン","description":"","image_url":""},{"id":11274,"title":"西治プロジェクト Kanda & Oliveira","architect":"小室舞","year":2021.0,"address":"千葉県船橋市西船1-1-16-2","latitude":35.70597457885742,"longitude":139.96714782714844,"category":"ギャラリー/住宅/低層オフィス","description":"","image_url":""},{"id":11275,"title":"本町BASE","architect":"大建met+名和研二","year":2021.0,"address":"岐阜県関市本町6-4-1","latitude":35.48664474487305,"longitude":136.91481018066406,"category":"店舗/公民館・交流施設","description":"","image_url":""},{"id":11276,"title":"岐阜関刃物会館 せきてらす","architect":"大建met+浦野設計","year":2021.0,"address":"岐阜県関市平和通4-12-1","latitude":35.482215881347656,"longitude":136.9153289794922,"category":"博物館","description":"","image_url":""},{"id":11277,"title":"ビブリ 旧さいたま市立大宮図書館","architect":"CAMPSITE","year":1972.0,"address":"埼玉県さいたま市大宮区高鼻町2-1-1","latitude":35.91128921508789,"longitude":139.63119506835938,"category":"図書館","description":"リノベーション","image_url":""},{"id":11278,"title":"さいたま市立博物館","architect":"佐藤総合計画","year":1980.0,"address":"埼玉県さいたま市大宮区高鼻町2-1-2","latitude":35.91131591796875,"longitude":139.63162231445312,"category":"博物館","description":"クレジット上は佐藤武夫設計事務所。佐藤武夫没後8年に竣工のため佐藤総合計画の設計として記述","image_url":""},{"id":11279,"title":"water neighborhood 盛岡市木伏緑地","architect":"ビルススタジオ","year":2019.0,"address":"岩手県盛岡市盛岡駅前通11-11","latitude":39.70307159423828,"longitude":141.13870239257812,"category":"モール","description":"","image_url":""},{"id":11280,"title":"たまかわ観光交流施設 森の駅yodge 旧四辻分校","architect":"照内創+都市環境研究所","year":2021.0,"address":"福島県石川郡玉川村四辻新田村中131","latitude":37.23703384399414,"longitude":140.49517822265625,"category":"観光施設/ホテル/レストラン","description":"明治43年創立の小学校をリノベーション","image_url":""},{"id":11281,"title":"WOTA オフィスプロジェクト クレインヒル日本橋","architect":"ムトカ建築事務所","year":2021.0,"address":"東京都中央区日本橋馬喰町1-13-13","latitude":35.694454193115234,"longitude":139.78350830078125,"category":"低層オフィス","description":"元銀行の改修","image_url":""},{"id":11282,"title":"泉大津市立図書館シープラ","architect":"藤原徹平+トミトアーキテクチャ","year":2021.0,"address":"大阪府泉大津市旭町20-1 アルザタウン泉大津4F","latitude":34.50254440307617,"longitude":135.40744018554688,"category":"図書館","description":"","image_url":""},{"id":11283,"title":"高砂熱学イノベーションセンター","architect":"三菱地所+竹中工務店","year":2020.0,"address":"茨城県つくばみらい市富士見ヶ丘2-19","latitude":35.99715805053711,"longitude":140.03347778320312,"category":"研究施設","description":"","image_url":""},{"id":11284,"title":"真宗大谷派八尾別院大信寺","architect":"棚橋諒","year":1967.0,"address":"大阪府八尾市本町4-2-48","latitude":34.62914276123047,"longitude":135.59597778320312,"category":"寺院","description":"","image_url":""},{"id":11285,"title":"竹早山荘","architect":"吉村順三","year":1961.0,"address":"山梨県北杜市高根町清里3545-1","latitude":35.93449401855469,"longitude":138.44432067871094,"category":"コテージ/研修施設","description":"多人数で宿泊、レンタル可能","image_url":""},{"id":11286,"title":"八戸友の家/羽仁もと子記念館","architect":"遠藤楽","year":1991.0,"address":"青森県八戸市沢里古宮35-3","latitude":40.49587631225586,"longitude":141.47152709960938,"category":"公民館・交流施設/住宅","description":"","image_url":""},{"id":11287,"title":"神戸友の会","architect":"遠藤楽","year":1980.0,"address":"兵庫県神戸市中央区上筒井通1-6-8","latitude":34.709964752197266,"longitude":135.21212768554688,"category":"公民館・交流施設/住宅","description":"","image_url":""},{"id":11288,"title":"菅原皮フ科","architect":"遠藤楽","year":1974.0,"address":"東京都大田区南久が原1-7-17","latitude":35.577178955078125,"longitude":139.6879425048828,"category":"個人医院","description":"","image_url":""},{"id":11289,"title":"松戸友の家","architect":"遠藤楽","year":1974.0,"address":"千葉県柏市逆井433-2","latitude":35.81257629394531,"longitude":139.97738647460938,"category":"公民館・交流施設/住宅","description":"","image_url":""},{"id":11290,"title":"大阪友の会","architect":"遠藤楽","year":1992.0,"address":"大阪府大阪市住吉区山之内4-6-19","latitude":34.58891677856445,"longitude":135.50146484375,"category":"公民館・交流施設/住宅","description":"","image_url":""},{"id":11291,"title":"奈良友の家","architect":"遠藤楽","year":1977.0,"address":"奈良県奈良市五条1-18-12","latitude":34.67707061767578,"longitude":135.78028869628906,"category":"公民館・交流施設/住宅","description":"","image_url":""},{"id":11292,"title":"パルシステム熊谷センター","architect":"INA新建築研究所","year":2020.0,"address":"埼玉県熊谷市樋春字袋田1223-3","latitude":36.13460922241211,"longitude":139.35597229003906,"category":"工場","description":"","image_url":""},{"id":11293,"title":"ザ・カハラ・ホテル＆リゾート 横浜","architect":"観光企画設計社","year":2020.0,"address":"神奈川県横浜市西区みなとみらい1-1-3","latitude":35.462379455566406,"longitude":139.63381958007812,"category":"ホテル","description":"","image_url":""},{"id":11294,"title":"ミングルマングル","architect":"DIG DESIGN","year":2015.0,"address":"神奈川県横浜市中区伊勢佐木町7-155-13","latitude":35.43784713745117,"longitude":139.62310791015625,"category":"レストラン","description":"","image_url":""},{"id":11295,"title":"メガネライフ武蔵境店","architect":"DIG DESIGN","year":2016.0,"address":"東京都武蔵野市堺南町2-3-2","latitude":35.7016716003418,"longitude":139.54405212402344,"category":"店舗","description":"","image_url":""},{"id":11296,"title":"cafe634洗足池店","architect":"前見文徳","year":2018.0,"address":"東京都大田区上池台2-31-11","latitude":35.599365234375,"longitude":139.6919708251953,"category":"カフェ","description":"","image_url":""},{"id":11297,"title":"cafe634ビル 旧cafe634銀座店","architect":"前見文徳","year":2013.0,"address":"東京都中央区銀座3-12-7","latitude":35.670623779296875,"longitude":139.76893615722656,"category":"カフェ/テナントビル/レストラン","description":"現在はステーキ店が入居している模様","image_url":""},{"id":11298,"title":"紀陽銀行本店","architect":"日建設計","year":1954.0,"address":"和歌山県和歌山市本町1-35","latitude":34.2335205078125,"longitude":135.1746368408203,"category":"金融機関","description":"日建設計工務","image_url":""},{"id":11299,"title":"和歌山県建築士会館","architect":"富松助六","year":1966.0,"address":"和歌山県和歌山市卜半町38","latitude":34.23261642456055,"longitude":135.1699981689453,"category":"組合施設","description":"","image_url":""},{"id":11300,"title":"和歌山県林業会館","architect":"日建設計","year":1955.0,"address":"和歌山県和歌山市湊通丁南4-18","latitude":34.223087310791016,"longitude":135.1637725830078,"category":"組合施設","description":"日建設計工務","image_url":""}]}