{"page":83,"total_pages":290,"items_per_page":50,"total_items":14467,"items":[{"id":4101,"title":"木魂館","architect":"桂英昭","year":1988.0,"address":"熊本県阿蘇郡小国町北里371-1","latitude":33.14101791381836,"longitude":131.09088134765625,"category":"研修施設","description":"","image_url":""},{"id":4102,"title":"南阿蘇 白水高原ホテル 温泉棟","architect":"木島安史","year":1987.0,"address":"熊本県阿蘇郡南阿蘇村一関1847","latitude":32.838436126708984,"longitude":131.06524658203125,"category":"温泉","description":"","image_url":""},{"id":4103,"title":"阿蘇 白水温泉 瑠璃","architect":"杉本洋文","year":1995.0,"address":"熊本県阿蘇郡南阿蘇村一関1260-1","latitude":32.835269927978516,"longitude":131.06915283203125,"category":"温泉/旅館","description":"","image_url":""},{"id":4104,"title":"八代市厚生会館","architect":"芦原義信","year":1962.0,"address":"熊本県八代市西松江城町1-47","latitude":32.50785446166992,"longitude":130.59814453125,"category":"ホール・劇場","description":"","image_url":""},{"id":4105,"title":"八代の公民館 植柳新町公民館 地域学習センター","architect":"みかんぐみ","year":1999.0,"address":"熊本県八代市植柳新町2-16","latitude":32.489017486572266,"longitude":130.5903778076172,"category":"公民館・交流施設/図書館","description":"","image_url":""},{"id":4106,"title":"天草市営鬼塚団地","architect":"横山俊祐","year":1990.0,"address":"熊本県天草市牛深町2039-36","latitude":32.199153900146484,"longitude":130.01568603515625,"category":"集合住宅","description":"","image_url":""},{"id":4107,"title":"和水町立三加和中学校 体育館","architect":"安藤忠雄","year":2006.0,"address":"熊本県玉名郡和水町板楠1001","latitude":33.061256408691406,"longitude":130.6209259033203,"category":"学校/体育館","description":"","image_url":""},{"id":4108,"title":"和水町立三加和小中学校","architect":"野沢正光+中村享一+柴田真秀+東大森裕子","year":2013.0,"address":"熊本県玉名郡和水町板楠1001","latitude":33.060707092285156,"longitude":130.62078857421875,"category":"学校","description":"","image_url":""},{"id":4109,"title":"三井グリーンランド ホテル・ヴェルデ","architect":"三浦紀之","year":1994.0,"address":"熊本県荒尾市本井手1584-24","latitude":32.988304138183594,"longitude":130.4697723388672,"category":"ホテル","description":"","image_url":""},{"id":4110,"title":"三和建設 本社","architect":"土岐新","year":1977.0,"address":"熊本県菊池市隈府775","latitude":32.980648040771484,"longitude":130.80960083007812,"category":"オフィスビル","description":"","image_url":""},{"id":4111,"title":"坂本善三美術館","architect":"吉田桂二","year":1995.0,"address":"熊本県阿蘇郡小国町黒渕2877","latitude":33.126888275146484,"longitude":131.03738403320312,"category":"美術館","description":"","image_url":""},{"id":4112,"title":"50M 櫟の森美術館","architect":"桂英昭","year":1998.0,"address":"熊本県阿蘇郡小国町西里2053-19","latitude":33.181705474853516,"longitude":131.1014404296875,"category":"美術館","description":"","image_url":""},{"id":4113,"title":"久連子 古代の里","architect":"内田文雄","year":1996.0,"address":"熊本県八代市泉町久連子72","latitude":32.459007263183594,"longitude":130.91372680664062,"category":"博物館","description":"","image_url":""},{"id":4114,"title":"荒瀬ダム ボートハウス","architect":"桂英昭","year":1995.0,"address":"熊本県八代市坂本町葉木1700","latitude":32.410621643066406,"longitude":130.6448974609375,"category":"公共施設","description":"当分の間、休館","image_url":""},{"id":4115,"title":"球磨村森林組合 チップ工場","architect":"木島安史","year":1986.0,"address":"熊本県球磨郡球磨村大字神瀬甲107","latitude":32.307884216308594,"longitude":130.6140899658203,"category":"工場/組合施設","description":"","image_url":""},{"id":4116,"title":"球磨村ふるさと振興センター","architect":"桂英昭","year":1990.0,"address":"熊本県球磨郡球磨村大字一勝地乙35","latitude":32.227394104003906,"longitude":130.61058044433594,"category":"公民館・交流施設/体験施設","description":"","image_url":""},{"id":4117,"title":"球泉洞森の香房・バイオ館","architect":"桂英昭","year":1994.0,"address":"熊本県球磨郡球磨村大瀬1545","latitude":32.27642059326172,"longitude":130.6148223876953,"category":"観光施設","description":"","image_url":""},{"id":4118,"title":"北里バラン","architect":"桂英昭","year":1994.0,"address":"熊本県阿蘇郡小国町北里371-1","latitude":33.14109802246094,"longitude":131.0906219482422,"category":"レストラン","description":"","image_url":""},{"id":4119,"title":"ZOOTOPIA","architect":"桂英昭","year":1995.0,"address":"熊本県阿蘇郡小国町北里345","latitude":33.1390266418457,"longitude":131.0906982421875,"category":"店舗/体験施設","description":"","image_url":""},{"id":4120,"title":"フェニックス・シーガイア・リゾート","architect":"芦原義信","year":1994.0,"address":"宮崎県宮崎市山崎町浜山3083","latitude":31.9549503326416,"longitude":131.4708251953125,"category":"ホテル","description":"","image_url":""},{"id":4121,"title":"老人保健施設 こんにちわセンター","architect":"北山孝二郎","year":1995.0,"address":"宮崎県都城市牟田町4-10","latitude":31.725400924682617,"longitude":131.05947875976562,"category":"養護施設","description":"","image_url":""},{"id":4122,"title":"宮崎県木材利用技術センター","architect":"三井所清典","year":2001.0,"address":"宮崎県都城市花繰町21-2","latitude":31.725921630859375,"longitude":131.08766174316406,"category":"研究施設","description":"","image_url":""},{"id":4123,"title":"延岡市公会堂 野口記念館","architect":"日建設計","year":1955.0,"address":"宮崎県延岡市東本小路119-1","latitude":32.581634521484375,"longitude":131.66415405273438,"category":"ホール・劇場","description":"","image_url":""},{"id":4124,"title":"安楽寺納骨堂","architect":"光吉健次","year":1970.0,"address":"宮崎県都城市山之口町富吉3527","latitude":31.769901275634766,"longitude":131.1357879638672,"category":"寺院","description":"","image_url":""},{"id":4125,"title":"宮崎県工業技術センター","architect":"日本設計+那須設計","year":1998.0,"address":"宮崎県宮崎市佐土原町東上那珂16500-2","latitude":32.03693389892578,"longitude":131.42103576660156,"category":"研究施設","description":"","image_url":""},{"id":4126,"title":"愛和宮崎ゴルフクラブ クラブハウス","architect":"黒川紀章","year":1991.0,"address":"宮崎県宮崎市佐土原町東上那珂105","latitude":32.014041900634766,"longitude":131.40606689453125,"category":"クラブハウス/レストラン","description":"","image_url":""},{"id":4127,"title":"鹿児島市中央公民館","architect":"片岡安","year":1927.0,"address":"鹿児島県鹿児島市山下町5-9","latitude":31.595325469970703,"longitude":130.554443359375,"category":"ホール・劇場/公民館・交流施設","description":"","image_url":""},{"id":4128,"title":"鹿児島銀行本店別館","architect":"斉藤設計事務所","year":1918.0,"address":"鹿児島県鹿児島市金生町6-6","latitude":31.592960357666016,"longitude":130.55799865722656,"category":"店舗/洋館/金融機関","description":"","image_url":""},{"id":4129,"title":"県政記念館 旧鹿児島県庁舎本館","architect":"曽禰達蔵+中條精一郎","year":1925.0,"address":"鹿児島県鹿児島市山下町14-1","latitude":31.598691940307617,"longitude":130.55734252929688,"category":"博物館/洋館","description":"2000年移築改修","image_url":""},{"id":4130,"title":"鹿児島市庁舎","architect":"大蔵省営繕管財局","year":1937.0,"address":"鹿児島県鹿児島市山下町11-1","latitude":31.597095489501953,"longitude":130.55691528320312,"category":"庁舎/洋館","description":"","image_url":""},{"id":4131,"title":"サンエールかごしま","architect":"日本設計+武田敏郎","year":2000.0,"address":"鹿児島県鹿児島市荒田1-4-1","latitude":31.577617645263672,"longitude":130.5492706298828,"category":"総合文化施設","description":"","image_url":""},{"id":4132,"title":"かねこクリニック","architect":"アトリエ環","year":1999.0,"address":"鹿児島県鹿児島市上荒田町8-6","latitude":31.577491760253906,"longitude":130.54592895507812,"category":"個人医院","description":"","image_url":""},{"id":4133,"title":"稲森内科消化器科","architect":"アトリエ環","year":2006.0,"address":"鹿児島県鹿児島市上福元町5723-3","latitude":31.529850006103516,"longitude":130.50677490234375,"category":"個人医院","description":"","image_url":""},{"id":4134,"title":"e-terrace","architect":"アトリエ環","year":1998.0,"address":"鹿児島県鹿児島市荒田1-16-7","latitude":31.576879501342773,"longitude":130.55337524414062,"category":"集合住宅/店舗/オフィスビル","description":"","image_url":""},{"id":4135,"title":"玉里病院","architect":"アトリエ環","year":1990.0,"address":"鹿児島県鹿児島市玉里町26-20","latitude":31.612688064575195,"longitude":130.54046630859375,"category":"病院","description":"","image_url":""},{"id":4136,"title":"桜島ビジターセンター","architect":"溝口駿","year":1988.0,"address":"鹿児島県鹿児島市桜島横山町1722-29","latitude":31.590810775756836,"longitude":130.5941619873047,"category":"観光施設","description":"","image_url":""},{"id":4137,"title":"鹿児島県立開陽高等学校","architect":"溝口駿","year":2003.0,"address":"鹿児島県鹿児島市上福元町5296-1","latitude":31.524738311767578,"longitude":130.50843811035156,"category":"学校","description":"","image_url":""},{"id":4138,"title":"示現流兵法所史料館","architect":"溝口駿","year":null,"address":"鹿児島県鹿児島市東千石町2-2","latitude":31.590301513671875,"longitude":130.55189514160156,"category":"博物館","description":"","image_url":""},{"id":4139,"title":"天城町役場","architect":"溝口駿","year":null,"address":"鹿児島県大島郡天城町平土野2691-1","latitude":27.811792373657227,"longitude":128.89772033691406,"category":"庁舎","description":"","image_url":""},{"id":4140,"title":"照明保育園","architect":"高崎正治","year":1995.0,"address":"鹿児島県霧島市溝辺町麓2560","latitude":31.815773010253906,"longitude":130.70321655273438,"category":"幼稚園","description":"","image_url":""},{"id":4141,"title":"文寿庵","architect":"三橋満","year":1990.0,"address":"鹿児島県霧島市牧園町宿窪田941","latitude":31.86280059814453,"longitude":130.74041748046875,"category":"茶室","description":"","image_url":""},{"id":4142,"title":"みんなの家","architect":"三橋満","year":2000.0,"address":"鹿児島県霧島市牧園町宿窪田939","latitude":31.863183975219727,"longitude":130.74139404296875,"category":"店舗","description":"","image_url":""},{"id":4143,"title":"末吉宮","architect":"不明","year":1456.0,"address":"沖縄県那覇市首里末吉町1-8","latitude":26.230165481567383,"longitude":127.71406555175781,"category":"宗教施設/遺跡","description":"1972年に復元","image_url":""},{"id":4144,"title":"玉陵","architect":"不明","year":1501.0,"address":"沖縄県那覇市首里金城町1-3","latitude":26.218624114990234,"longitude":127.71401977539062,"category":"霊園/宗教施設/遺跡","description":"","image_url":""},{"id":4145,"title":"園比屋武御嶽","architect":"不明","year":1519.0,"address":"沖縄県那覇市首里当蔵町3","latitude":26.218097686767578,"longitude":127.71730041503906,"category":"宗教施設/遺跡","description":"","image_url":""},{"id":4146,"title":"旧円覚寺総門","architect":"不明","year":1495.0,"address":"沖縄県那覇市首里当蔵町2-1","latitude":26.219921112060547,"longitude":127.72032928466797,"category":"寺院/宗教施設","description":"","image_url":""},{"id":4147,"title":"伊江御殿墓","architect":"不明","year":1687.0,"address":"沖縄県那覇市首里石嶺町1-62","latitude":26.226030349731445,"longitude":127.7245864868164,"category":"宗教施設/遺跡","description":"","image_url":""},{"id":4148,"title":"沖縄県庁舎 行政棟","architect":"黒川紀章","year":1984.0,"address":"沖縄県那覇市泉崎1-2-2","latitude":26.212413787841797,"longitude":127.68092346191406,"category":"庁舎","description":"","image_url":""},{"id":4149,"title":"浦添市庁舎","architect":"佐藤総合計画","year":1999.0,"address":"沖縄県浦添市安波茶1-1-1","latitude":26.245874404907227,"longitude":127.72186279296875,"category":"庁舎","description":"","image_url":""},{"id":4150,"title":"浦添ようどれ","architect":"不明","year":1620.0,"address":"沖縄県浦添市仲間2-","latitude":26.24754524230957,"longitude":127.73173522949219,"category":"宗教施設/遺跡","description":"","image_url":""}]}