{"page":30,"total_pages":290,"items_per_page":50,"total_items":14467,"items":[{"id":1451,"title":"トヨタ夢の住宅 PAPI","architect":"坂村健","year":2004.0,"address":"愛知県長久手市横道41-96","latitude":35.17161560058594,"longitude":137.05792236328125,"category":"住宅","description":"","image_url":""},{"id":1452,"title":"長久手町文化の家","architect":"香山壽夫","year":1998.0,"address":"愛知県長久手市野田農201","latitude":35.183170318603516,"longitude":137.0379180908203,"category":"総合文化施設/ホール・劇場","description":"","image_url":""},{"id":1453,"title":"愛知淑徳大学 長久手キャンパス 8号棟","architect":"シーラカンスアンドアソシエイツ","year":2000.0,"address":"愛知県愛知郡長久手市長久手町長湫片平9","latitude":35.15795135498047,"longitude":137.03256225585938,"category":"大学","description":"","image_url":""},{"id":1454,"title":"愛知県立芸術大学","architect":"吉村順三+奥村昭雄","year":1966.0,"address":"愛知県愛知郡長久手町岩作三ヶ峯1-114 ‎","latitude":35.16691589355469,"longitude":137.06919860839844,"category":"大学","description":"","image_url":""},{"id":1455,"title":"田原市中央図書館","architect":"和設計事務所","year":2002.0,"address":"愛知県田原市田原町汐見5","latitude":34.671714782714844,"longitude":137.2743682861328,"category":"図書館","description":"","image_url":""},{"id":1456,"title":"望遠鏡","architect":"石山修武","year":1973.0,"address":"愛知県田原市谷熊町寺新田68","latitude":34.67336654663086,"longitude":137.3001708984375,"category":"住宅","description":"","image_url":""},{"id":1457,"title":"日進市立図書館","architect":"岡田新一","year":2008.0,"address":"愛知県日進市蟹甲町中島3","latitude":35.13222885131836,"longitude":137.04306030273438,"category":"図書館","description":"","image_url":"https://lh3.googleusercontent.com/-FUbheMr0_XE/U1dGRAi9tmI/AAAAAAABNgk/cQYfR20U0cI/s1280/lr-2.jpg"},{"id":1458,"title":"新美南吉記念館","architect":"新家良浩","year":1994.0,"address":"愛知県半田市岩滑西町1‐10‐1","latitude":34.909324645996094,"longitude":136.9111785888672,"category":"美術館","description":"","image_url":""},{"id":1459,"title":"碧南芸術文化ホール・図書館 旧へきなん芸術文化村","architect":"久米設計","year":1994.0,"address":"愛知県碧南市鶴見町1-","latitude":34.90379333496094,"longitude":136.99365234375,"category":"総合文化施設","description":"","image_url":""},{"id":1460,"title":"栄四郎瓦 本社屋","architect":"内井昭蔵","year":1989.0,"address":"愛知県碧南市白沢町1-7-1","latitude":34.92225646972656,"longitude":137.02938842773438,"category":"企業施設","description":"旧社名丸栄陶業","image_url":""},{"id":1461,"title":"マミーローズクリニック","architect":"安井秀夫","year":2004.0,"address":"愛知県豊橋市高洲町字森下1 ‎","latitude":34.76444625854492,"longitude":137.35462951660156,"category":"個人医院","description":"","image_url":""},{"id":1462,"title":"正願寺","architect":"堀越英嗣","year":2012.0,"address":"愛知県豊川市市田町中之島90","latitude":34.84046936035156,"longitude":137.3576202392578,"category":"寺院","description":"","image_url":""},{"id":1463,"title":"豊田市自然観察の森ネイチャーセンター・サテライト施設","architect":"遠藤克彦","year":2010.0,"address":"愛知県豊田市東山町4-1206-1","latitude":35.087608337402344,"longitude":137.1973876953125,"category":"博物館","description":"","image_url":""},{"id":1464,"title":"愛知県緑化センター","architect":"瀧光夫","year":1975.0,"address":"愛知県豊田市西中山町猿田21-1","latitude":35.158790588378906,"longitude":137.192626953125,"category":"公園","description":"","image_url":""},{"id":1465,"title":"豊田市井上公園水泳場","architect":"INA新建築研究所","year":2007.0,"address":"愛知県豊田市井上町11-8-6","latitude":35.12416076660156,"longitude":137.17169189453125,"category":"プール","description":"","image_url":""},{"id":1466,"title":"豊田市郷土資料館文化財倉庫","architect":"青島設計","year":1970.0,"address":"愛知県豊田市陣中町1-19-1","latitude":35.094486236572266,"longitude":137.1602783203125,"category":"公共施設","description":"","image_url":""},{"id":1467,"title":"豊田スタジアム","architect":"黒川紀章","year":2001.0,"address":"愛知県豊田市千石町7-2","latitude":35.084716796875,"longitude":137.1708221435547,"category":"スタジアム","description":"","image_url":""},{"id":1468,"title":"豊田市文化芸術センター 豊田市市民文化会館","architect":"青島設計","year":1975.0,"address":"愛知県豊田市小坂町12-100","latitude":35.08223342895508,"longitude":137.1475372314453,"category":"ホール・劇場","description":"","image_url":""},{"id":1469,"title":"豊田市立旭中学校","architect":"中村勉","year":1996.0,"address":"愛知県豊田市杉本町羽根1-1","latitude":35.20478057861328,"longitude":137.3653106689453,"category":"学校","description":"","image_url":""},{"id":1470,"title":"豊田市民芸館 旧井上家西洋館","architect":"不明","year":null,"address":"愛知県豊田市平戸橋町波岩86-100","latitude":35.12271499633789,"longitude":137.1903533935547,"category":"洋館","description":"","image_url":""},{"id":1471,"title":"豊田市近代と産業とくらし発見館 旧愛知県産業取締所第九支所","architect":"不明","year":null,"address":"愛知県豊田市喜多町4-45","latitude":35.08753204345703,"longitude":137.16090393066406,"category":"洋館","description":"","image_url":""},{"id":1472,"title":"トヨタ鞍ヶ池記念館","architect":"槇文彦","year":1974.0,"address":"愛知県豊田市池田町南250","latitude":35.10005569458008,"longitude":137.21510314941406,"category":"博物館","description":"","image_url":"https://lh3.googleusercontent.com/-J0npBM4_At0/T66COKeEBHI/AAAAAAAANgQ/ehwZH35wBgA/s1024/P4290664.jpg"},{"id":1473,"title":"豊田市美術館","architect":"谷口吉生","year":1995.0,"address":"愛知県豊田市小坂本町8-5-1","latitude":35.08078384399414,"longitude":137.1518096923828,"category":"美術館","description":"","image_url":""},{"id":1474,"title":"豊田市生涯学習センター 逢妻交流館","architect":"妹島和世","year":2010.0,"address":"愛知県豊田市田町3-20","latitude":35.0858039855957,"longitude":137.12185668945312,"category":"公民館・交流施設/総合文化施設","description":"","image_url":"https://farm9.staticflickr.com/8260/8922432715_6e65f29203_h.jpg"},{"id":1475,"title":"北名古屋市総合福祉センター もえの丘","architect":"高松伸","year":1997.0,"address":"愛知県北名古屋市熊之庄大畔48","latitude":35.26062774658203,"longitude":136.8876953125,"category":"福祉センター","description":"","image_url":""},{"id":1476,"title":"揚輝荘 伴華楼","architect":"鈴木禎次","year":1929.0,"address":"愛知県名古屋市千種区法王町2-5-21","latitude":35.1705322265625,"longitude":136.9558868408203,"category":"洋館","description":"","image_url":""},{"id":1477,"title":"名古屋大学 豊田講堂","architect":"槇文彦","year":1960.0,"address":"愛知県名古屋市千種区仁座町 豊田講堂","latitude":35.15334701538086,"longitude":136.9679412841797,"category":"大学","description":"","image_url":""},{"id":1478,"title":"フローリストギャラリー N","architect":"谷尻誠","year":2008.0,"address":"愛知県名古屋市千種区鏡池通3-5-1","latitude":35.15974807739258,"longitude":136.95982360839844,"category":"ギャラリー","description":"","image_url":""},{"id":1479,"title":"南山大学 ／ 神言神学院","architect":"アントニン・レーモンド","year":1964.0,"address":"愛知県名古屋市昭和区八雲町70","latitude":35.15058135986328,"longitude":136.96484375,"category":"大学/教会","description":"2017～2020年にかけて改修","image_url":""},{"id":1480,"title":"慈眼山成願寺","architect":"石橋徳川建築設計","year":2009.0,"address":"愛知県名古屋市北区成願寺2-3-28","latitude":35.21489715576172,"longitude":136.9163055419922,"category":"寺院","description":"要予約","image_url":""},{"id":1481,"title":"中産連ビル本館","architect":"坂倉準三","year":1963.0,"address":"愛知県名古屋市東区白壁3-12-13","latitude":35.18360900878906,"longitude":136.9160614013672,"category":"オフィスビル","description":"","image_url":""},{"id":1482,"title":"産業技術記念館","architect":"竹中工務店","year":1994.0,"address":"愛知県名古屋市西区則武新町4-1-35","latitude":35.1819953918457,"longitude":136.87655639648438,"category":"博物館","description":"","image_url":""},{"id":1483,"title":"名古屋市市政資料館","architect":"金刺森太郎","year":1922.0,"address":"愛知県名古屋市東区白壁1-3 ","latitude":35.18113708496094,"longitude":136.9103240966797,"category":"洋館","description":"","image_url":""},{"id":1484,"title":"ノリタケの森","architect":"大成建設","year":2001.0,"address":"愛知県名古屋市西区則武新町3-1-36","latitude":35.178985595703125,"longitude":136.88067626953125,"category":"博物館","description":"","image_url":""},{"id":1485,"title":"河文 「水鏡の間」","architect":"谷口吉郎","year":1973.0,"address":"愛知県名古屋市中区丸の内2-12-19","latitude":35.17539596557617,"longitude":136.90090942382812,"category":"旅館","description":"河文主屋が登録有形文化財","image_url":""},{"id":1486,"title":"名古屋市芸術創造センター","architect":"安藤洋+田賀幸子","year":1983.0,"address":"愛知県名古屋市東区葵1-3-27","latitude":35.17284393310547,"longitude":136.91993713378906,"category":"ホール・劇場","description":"","image_url":""},{"id":1487,"title":"オアシス21","architect":"大林組","year":2002.0,"address":"愛知県名古屋市東区東桜1-11-1","latitude":35.170902252197266,"longitude":136.90966796875,"category":"モール","description":"","image_url":"https://lh3.googleusercontent.com/-Px2ftBAhG7Q/UywQiti-ibI/AAAAAAABLUs/U0h_pRzG_x8/s1024/lr-2.jpg"},{"id":1488,"title":"愛知芸術文化センター 愛知県美術館","architect":"A&T建築研究所","year":1992.0,"address":"愛知県名古屋市東区東桜1-13-2","latitude":35.170860290527344,"longitude":136.91128540039062,"category":"美術館","description":"","image_url":""},{"id":1489,"title":"モード学園スパイラルタワーズ","architect":"日建設計","year":2008.0,"address":"愛知県名古屋市中村区名駅4-27-1","latitude":35.16822052001953,"longitude":136.8857421875,"category":"専門学校","description":"","image_url":""},{"id":1490,"title":"古川美術館 爲三郎記念館","architect":"不明","year":1934.0,"address":"愛知県名古屋市千種区堀割町1-9","latitude":35.167789459228516,"longitude":136.94825744628906,"category":"美術館","description":"","image_url":""},{"id":1491,"title":"アーク栄東海ビル 旧大栄ビルヂング","architect":"ポール・ルドルフ+山下司+納賀雄嗣","year":1973.0,"address":"愛知県名古屋市中区栄2-9-5","latitude":35.16701126098633,"longitude":136.8984832763672,"category":"オフィスビル","description":"","image_url":""},{"id":1492,"title":"名古屋市科学館","architect":"日建設計","year":2011.0,"address":"愛知県名古屋市中区栄2-17-1","latitude":35.16507339477539,"longitude":136.8996124267578,"category":"博物館","description":"","image_url":""},{"id":1493,"title":"名古屋市中小企業振興会館 吹上ホール","architect":"黒川紀章","year":1983.0,"address":"愛知県名古屋市千種区吹上2-6-3","latitude":35.158634185791016,"longitude":136.92987060546875,"category":"展示・会議場","description":"","image_url":""},{"id":1494,"title":"名古屋大学 理学南館 坂田・平田ホール","architect":"飯田善彦","year":2011.0,"address":"愛知県名古屋市千種区不老町","latitude":35.15473556518555,"longitude":136.96896362304688,"category":"大学","description":"","image_url":""},{"id":1495,"title":"名古屋大学 野依記念学術交流館","architect":"飯田善彦","year":2004.0,"address":"愛知県名古屋市千種区不老町","latitude":35.15357208251953,"longitude":136.9698028564453,"category":"大学/研究施設","description":"","image_url":""},{"id":1496,"title":"鈴渓南山美術館","architect":"竹中工務店","year":2001.0,"address":"愛知県名古屋市昭和区南山町8-6","latitude":35.13987731933594,"longitude":136.95359802246094,"category":"美術館","description":"","image_url":""},{"id":1497,"title":"サニーハウス","architect":"高谷時彦","year":2001.0,"address":"愛知県名古屋市港区潮見町42","latitude":35.07086944580078,"longitude":136.88107299804688,"category":"公園","description":"","image_url":""},{"id":1498,"title":"リニア・鉄道館","architect":"日建設計","year":2011.0,"address":"愛知県名古屋市港区金城ふ頭3-2-2","latitude":35.04790496826172,"longitude":136.8502960205078,"category":"博物館","description":"","image_url":""},{"id":1499,"title":"名古屋能楽堂","architect":"大江宏","year":1997.0,"address":"愛知県名古屋市中区三の丸1-1-1","latitude":35.182411193847656,"longitude":136.8962860107422,"category":"ホール・劇場","description":"","image_url":""},{"id":1500,"title":"料亭 か茂免","architect":"不明","year":null,"address":"愛知県名古屋市東区白壁4-85","latitude":35.18205261230469,"longitude":136.91629028320312,"category":"料亭","description":"","image_url":""}]}