{"page":212,"total_pages":290,"items_per_page":50,"total_items":14467,"items":[{"id":10551,"title":"複合型高齢者福祉施設 さくらの花会館","architect":"内藤将俊","year":2017.0,"address":"香川県坂出市寿町1-3-1","latitude":34.31379318237305,"longitude":133.850341796875,"category":"福祉センター/養護施設","description":"","image_url":""},{"id":10552,"title":"亜細亜大学 硬式野球部日の出寮","architect":"東急設計コンサルタント","year":2021.0,"address":"東京都西多摩郡日の出町大字平井1449-1","latitude":35.736785888671875,"longitude":139.2699432373047,"category":"大学/寮","description":"全3期工事あるうちの1期工事目。硬式野球部の学生寮","image_url":""},{"id":10553,"title":"国際基督教大学 大学本館 旧中島飛行機三鷹研究所本館","architect":"中島飛行機+加倉井昭夫+大成建設+ウィリアム・メレル・ヴォーリズ","year":1944.0,"address":"東京都三鷹市大沢3-10-2","latitude":35.68751525878906,"longitude":139.52969360351562,"category":"大学","description":"旧中島飛行機の研究施設。大学本館化改装・増築に大成建設、ヴォーリズら設計で1953年竣工","image_url":""},{"id":10554,"title":"国際基督教大学 大学礼拝堂","architect":"ウィリアム・メレル・ヴォーリズ+アントニン・レーモンド","year":1954.0,"address":"東京都三鷹市大沢3-10-2","latitude":35.685855865478516,"longitude":139.53036499023438,"category":"大学/教会","description":"第一期ヴォーリズ設計で1954年竣工。第二期増築レーモンド設計で1960年竣工","image_url":""},{"id":10555,"title":"国際基督教大学 シーベリー記念礼拝堂","architect":"ウィリアム・メレル・ヴォーリズ","year":1959.0,"address":"東京都三鷹市大沢3-10-2","latitude":35.687164306640625,"longitude":139.52882385253906,"category":"大学/教会","description":"","image_url":""},{"id":10556,"title":"国際基督教大学 理学館","architect":"稲冨昭","year":1967.0,"address":"東京都三鷹市大沢3-10-2","latitude":35.688453674316406,"longitude":139.52920532226562,"category":"大学","description":"","image_url":""},{"id":10557,"title":"長覚院 本堂","architect":"中原暢子","year":1962.0,"address":"埼玉県さいたま市浦和区領家4-20-3","latitude":35.882469177246094,"longitude":139.6531982421875,"category":"寺院","description":"","image_url":""},{"id":10558,"title":"新大阪駅","architect":"日本国有鉄道大阪幹線工事局+鉄道会館一級建築士事務所","year":1964.0,"address":"大阪府大阪市淀川区西中島5-16","latitude":34.73359680175781,"longitude":135.50025939941406,"category":"駅","description":"","image_url":""},{"id":10559,"title":"竹山団地","architect":"緒形昭義","year":1970.0,"address":"神奈川県横浜市緑区竹山3-1-8","latitude":35.496822357177734,"longitude":139.5621337890625,"category":"集合住宅/広場","description":"センターゾーンがDOCOMOMOに選定されている","image_url":""},{"id":10560,"title":"日本女子大学 豊坂別館 旧水野レストラン・三昧匠 蔵","architect":"中原暢子","year":1969.0,"address":"東京都文京区目白台1-17-1","latitude":35.71582794189453,"longitude":139.71926879882812,"category":"住宅/レストラン/大学","description":"日本料理店として著名な三昧匠蔵。現在は閉店して日本女子大学の所有となり、会議室・備品室として利用されている","image_url":""},{"id":10561,"title":"比治山ホール 放射線影響研究所 宿舎","architect":"前川國男","year":1953.0,"address":"広島県広島市南区比治山公園5-2","latitude":34.38337707519531,"longitude":132.47293090820312,"category":"寮","description":"","image_url":""},{"id":10562,"title":"基町クレド NTTクレド基町ビル","architect":"NTT都市開発+日建設計+日総建","year":1994.0,"address":"広島県広島市中区基町6-78","latitude":34.397300720214844,"longitude":132.45726013183594,"category":"モール/テナントビル/ホテル","description":"","image_url":""},{"id":10563,"title":"メゾンフェニックス","architect":"宮森洋一郎","year":1996.0,"address":"広島県呉市三条2-13-8","latitude":34.24827194213867,"longitude":132.55322265625,"category":"集合住宅","description":"","image_url":""},{"id":10564,"title":"KAIGAN-U","architect":"可児公一植美雪","year":2014.0,"address":"広島県呉市海岸4-14-29","latitude":34.24761199951172,"longitude":132.53810119628906,"category":"工場","description":"","image_url":""},{"id":10565,"title":"日本基督教団 国分寺教会","architect":"池辺陽","year":1951.0,"address":"東京都国分寺市本町1-6-2","latitude":35.70161056518555,"longitude":139.4845733642578,"category":"教会","description":"","image_url":""},{"id":10566,"title":"関東学院大学 図書館 金沢文庫分館","architect":"鬼頭梓","year":2002.0,"address":"神奈川県横浜市金沢区釜利谷南3-22-1","latitude":35.337913513183594,"longitude":139.59786987304688,"category":"大学/図書館","description":"","image_url":""},{"id":10567,"title":"横浜国立大学 附属図書館 中央図書館","architect":"鬼頭梓","year":1974.0,"address":"神奈川県横浜市保土ケ谷区常盤台79-6","latitude":35.472862243652344,"longitude":139.5904541015625,"category":"大学/図書館","description":"2002年改修","image_url":""},{"id":10568,"title":"アクアリーナ豊橋","architect":"日建設計","year":2005.0,"address":"愛知県豊橋市神野新田町メノ割1-3","latitude":34.75871276855469,"longitude":137.32308959960938,"category":"プール","description":"","image_url":""},{"id":10569,"title":"福井県立音楽堂 ハーモニーホールふくい","architect":"日建設計","year":1997.0,"address":"福井県福井市今市町40-1-1","latitude":36.01457977294922,"longitude":136.20742797851562,"category":"ホール・劇場","description":"","image_url":""},{"id":10570,"title":"石垣市総合体育館","architect":"佐藤総合計画","year":1995.0,"address":"沖縄県石垣市平得439","latitude":24.34432601928711,"longitude":124.17574310302734,"category":"体育館","description":"","image_url":""},{"id":10571,"title":"けんしん郡山文化センター","architect":"山下設計","year":1984.0,"address":"福島県郡山市堤下町1-2","latitude":37.39274978637695,"longitude":140.37806701660156,"category":"ホール・劇場","description":"","image_url":""},{"id":10572,"title":"三重県立看護大学","architect":"久米設計","year":1997.0,"address":"三重県津市夢が丘1-1-1","latitude":34.76039123535156,"longitude":136.4886932373047,"category":"大学","description":"","image_url":""},{"id":10573,"title":"朝霞荘","architect":"黒川紀章","year":1987.0,"address":"東京都新宿区市谷砂土原町3-22","latitude":35.69758605957031,"longitude":139.7385711669922,"category":"料亭","description":"黒川紀章公式サイト上では1987年竣工。前田建設工業サイト上では1989年竣工とある","image_url":""},{"id":10574,"title":"FUKUHARA GINZA","architect":"芦原太郎","year":2015.0,"address":"東京都中央区銀座7-8-10","latitude":35.668785095214844,"longitude":139.7620849609375,"category":"テナントビル","description":"芦原義信設計のTHE GINZA跡地建て替え","image_url":""},{"id":10575,"title":"在日オーストラリア大使館","architect":"芦原太郎","year":1990.0,"address":"東京都港区三田2-1-14","latitude":35.65187072753906,"longitude":139.7392578125,"category":"公共施設","description":"","image_url":""},{"id":10576,"title":"マックス動物病院","architect":"芦原太郎","year":1997.0,"address":"埼玉県川口市並木2-17-17","latitude":35.81549835205078,"longitude":139.7072296142578,"category":"個人医院","description":"","image_url":""},{"id":10577,"title":"シマノ本社工場","architect":"芦原太郎","year":2015.0,"address":"大阪府堺市堺区老松町3-77","latitude":34.56008529663086,"longitude":135.46580505371094,"category":"工場/低層オフィス","description":"","image_url":""},{"id":10578,"title":"シマノ本社ビル ウエストウイング","architect":"芦原太郎","year":2001.0,"address":"大阪府堺市堺区石津北町12-1","latitude":34.56006622314453,"longitude":135.4649200439453,"category":"低層オフィス","description":"","image_url":""},{"id":10579,"title":"堺市立のびやか健康館","architect":"黒川紀章","year":2004.0,"address":"大阪府堺市北区金岡町2760-1","latitude":34.558868408203125,"longitude":135.52755737304688,"category":"温泉/プール/スポーツ施設","description":"","image_url":""},{"id":10580,"title":"東建コーポレーション本社ビル","architect":"黒川紀章","year":2004.0,"address":"愛知県名古屋市中区丸の内2-1-33","latitude":35.17668151855469,"longitude":136.8970947265625,"category":"オフィスビル","description":"","image_url":""},{"id":10581,"title":"木阪製作所ショールーム","architect":"黒川紀章","year":2005.0,"address":"大阪府堺市堺区神南辺町4-120-1","latitude":34.58602523803711,"longitude":135.4697265625,"category":"企業施設/低層オフィス","description":"","image_url":""},{"id":10582,"title":"スパッツィオ ブレラ銀座","architect":"黒川紀章","year":2005.0,"address":"東京都中央区銀座1-4-3","latitude":35.675201416015625,"longitude":139.76702880859375,"category":"テナントビル","description":"","image_url":""},{"id":10583,"title":"三起商行本社","architect":"黒川紀章","year":1991.0,"address":"大阪府八尾市若林町1-76-2","latitude":34.59598159790039,"longitude":135.58216857910156,"category":"低層オフィス","description":"","image_url":""},{"id":10584,"title":"京セラ本社ビル","architect":"黒川紀章","year":1998.0,"address":"京都府京都市伏見区竹田鳥羽殿町6","latitude":34.94671630859375,"longitude":135.75083923339844,"category":"オフィスビル","description":"","image_url":""},{"id":10585,"title":"ワコール麹町ビル","architect":"黒川紀章","year":1984.0,"address":"東京都千代田区麹町1-1-2","latitude":35.68380355834961,"longitude":139.74307250976562,"category":"オフィスビル","description":"","image_url":""},{"id":10586,"title":"岩波書店一ツ橋ビル","architect":"芦原義信","year":1993.0,"address":"東京都千代田区一ツ橋2-5-5","latitude":35.694671630859375,"longitude":139.7576141357422,"category":"オフィスビル","description":"","image_url":""},{"id":10587,"title":"石川県幸町庁舎","architect":"芦原義信","year":1994.0,"address":"石川県金沢市幸町12-1","latitude":36.555267333984375,"longitude":136.65792846679688,"category":"庁舎","description":"","image_url":""},{"id":10588,"title":"MISS HIROSHIMA 玉屋 BLD","architect":"小川文象","year":2012.0,"address":"広島県広島市中区本通5-5","latitude":34.393333435058594,"longitude":132.4586181640625,"category":"テナントビル/店舗","description":"","image_url":""},{"id":10589,"title":"鉄のシェルター 似島学園前桟橋待合所","architect":"小川文象","year":2018.0,"address":"広島県広島市南区似島町","latitude":34.31391525268555,"longitude":132.44573974609375,"category":"PA・道の駅","description":"","image_url":""},{"id":10590,"title":"Absolute Arrows ひろしま・パーク・レストルーム2009 吉島公園","architect":"小川文象","year":2009.0,"address":"広島県広島市中区羽衣町16","latitude":34.37809753417969,"longitude":132.45098876953125,"category":"トイレ","description":"いくつかの公園内に同じデザイン、違う屋根色でトイレが設置されている。2009～2011の3年に渡り設置された","image_url":""},{"id":10591,"title":"安佐南区スポーツセンター","architect":"日建設計","year":1985.0,"address":"広島県広島市安佐南区伴東3-13-16","latitude":34.46953582763672,"longitude":132.41323852539062,"category":"プール/体育館","description":"","image_url":""},{"id":10592,"title":"高陽ニュータウン プラザ四季","architect":"宅地開発研究所+山下司","year":1982.0,"address":"広島県広島市安佐北区亀崎1-1","latitude":34.48189163208008,"longitude":132.52320861816406,"category":"公共施設/広場","description":"","image_url":""},{"id":10593,"title":"市営庚午南住宅","architect":"現代計画研究所","year":1989.0,"address":"広島県広島市西区西区庚午南1-26","latitude":34.37820053100586,"longitude":132.4136962890625,"category":"集合住宅","description":"","image_url":""},{"id":10594,"title":"鈴が峰住宅","architect":"現代計画研究所","year":1988.0,"address":"広島県広島市西区鈴が峰町35","latitude":34.37891387939453,"longitude":132.39178466796875,"category":"集合住宅","description":"","image_url":""},{"id":10595,"title":"県営吉島住宅21・22号館","architect":"土井一秀+松岡設計","year":2015.0,"address":"広島県広島市中区吉島新町2-21-3","latitude":34.36689376831055,"longitude":132.45025634765625,"category":"集合住宅","description":"","image_url":""},{"id":10596,"title":"広島銀行協会会館","architect":"日建設計","year":1974.0,"address":"広島県広島市中区大手町2-2-15","latitude":34.39312744140625,"longitude":132.45587158203125,"category":"金融機関/組合施設","description":"","image_url":""},{"id":10597,"title":"広島市植物公園 休憩展望台","architect":"河内義就","year":1980.0,"address":"広島県広島市佐伯区倉重3-23","latitude":34.39274215698242,"longitude":132.34718322753906,"category":"展望台","description":"","image_url":""},{"id":10598,"title":"潜水士のためのグラス・ハウス","architect":"ナフ・アーキテクト&デザイン","year":2011.0,"address":"広島県江田島市大柿町深江2630-14","latitude":34.15296936035156,"longitude":132.44418334960938,"category":"コテージ/住宅","description":"企業所有の保養施設","image_url":""},{"id":10599,"title":"朝銀西信用組合 本部・広島支店","architect":"若林広幸","year":2019.0,"address":"広島県広島市南区荒神町5-10","latitude":34.39418029785156,"longitude":132.4766082763672,"category":"金融機関","description":"","image_url":""},{"id":10600,"title":"日本福音ルーテル広島教会 ルーテル平和大通りビル","architect":"沖本初","year":1994.0,"address":"広島県広島市中区鶴見町2-12","latitude":34.3861083984375,"longitude":132.46742248535156,"category":"教会/オフィスビル","description":"","image_url":""}]}