{"page":133,"total_pages":290,"items_per_page":50,"total_items":14467,"items":[{"id":6601,"title":"東京大学 経済学部","architect":"香山壽夫","year":1984.0,"address":"東京都文京区本郷7-3-1","latitude":35.710411071777344,"longitude":139.7613525390625,"category":"大学","description":"","image_url":""},{"id":6602,"title":"東京YWCA会館","architect":"香山壽夫","year":1990.0,"address":"東京都千代田区神田駿河台1-8-11","latitude":35.69786834716797,"longitude":139.76284790039062,"category":"研修施設/ホテル","description":"","image_url":""},{"id":6603,"title":"東京大学 工学部14号館","architect":"香山壽夫","year":1993.0,"address":"東京都文京区本郷7-3-1","latitude":35.7142448425293,"longitude":139.75936889648438,"category":"大学","description":"","image_url":""},{"id":6604,"title":"二松学舎大学 九段キャンパス","architect":"香山壽夫","year":2004.0,"address":"東京都千代田区三番町6-16","latitude":35.69226837158203,"longitude":139.74575805664062,"category":"大学","description":"","image_url":""},{"id":6605,"title":"聖学院大学 礼拝堂・講堂","architect":"香山壽夫","year":2004.0,"address":"埼玉県上尾市戸崎1-1","latitude":35.939693450927734,"longitude":139.59658813476562,"category":"大学","description":"","image_url":""},{"id":6606,"title":"ISAK Kamiyama Academic Center + Residence 4","architect":"シーラカンスアンドアソシエイツ","year":2017.0,"address":"長野県北佐久郡軽井沢町長倉5827-136","latitude":36.35881042480469,"longitude":138.55615234375,"category":"学校","description":"","image_url":""},{"id":6607,"title":"高崎アリーナ","architect":"山下設計","year":2017.0,"address":"群馬県高崎市下和田町4-1-18","latitude":36.316104888916016,"longitude":139.0126953125,"category":"体育館","description":"","image_url":""},{"id":6608,"title":"愛知産業大学工業高等学校 伊勢山校舎","architect":"服部滋+丹羽哲矢+塩田有紀","year":2016.0,"address":"愛知県名古屋市中区伊勢山1-2-29","latitude":35.14996337890625,"longitude":136.90191650390625,"category":"学校","description":"","image_url":""},{"id":6609,"title":"栄光学園 創立70周年事業 新校舎","architect":"日本設計+大成建設+隈研吾","year":2017.0,"address":"神奈川県鎌倉市玉縄4-1-1","latitude":35.356136322021484,"longitude":139.5200653076172,"category":"学校","description":"隈研吾は設計監修","image_url":""},{"id":6610,"title":"鎌倉市立大船中学校","architect":"石本建築事務所","year":2016.0,"address":"神奈川県鎌倉市大船4-1-25","latitude":35.347267150878906,"longitude":139.53701782226562,"category":"学校","description":"","image_url":""},{"id":6611,"title":"矢祭町立矢祭小学校","architect":"三上建築事務所","year":2016.0,"address":"福島県東白川郡矢祭町東舘下上野内10","latitude":36.86846923828125,"longitude":140.42576599121094,"category":"学校","description":"","image_url":""},{"id":6612,"title":"東川小学校・地域交流センター","architect":"小篠隆生+アトリエブンク+柴滝建築設計事務所+アイエイ研究所 他","year":2014.0,"address":"北海道上川郡東川町西4号北8","latitude":43.70187759399414,"longitude":142.5162353515625,"category":"学校/公民館・交流施設/スポーツ施設","description":"ブンク・中原・柴滝・アイエイJV","image_url":""},{"id":6613,"title":"東川町文化芸術交流センター 東川町複合交流施設 せんとぴゅあI","architect":"小篠隆生+ドーコン","year":2016.0,"address":"北海道上川郡東川町北町 東川町文化芸術交流センター","latitude":43.69892120361328,"longitude":142.50772094726562,"category":"ギャラリー/総合文化施設","description":"","image_url":""},{"id":6614,"title":"隠岐國学習センター","architect":"西田司","year":2015.0,"address":"島根県隠岐郡海士町福井1339","latitude":36.10301971435547,"longitude":133.076171875,"category":"専門学校","description":"","image_url":""},{"id":6615,"title":"島前研修交流センター","architect":"西田司","year":2014.0,"address":"島根県隠岐郡海士町福井1403","latitude":36.10364532470703,"longitude":133.0726776123047,"category":"研修施設/集合住宅","description":"","image_url":""},{"id":6616,"title":"所沢聖地霊園 管理事務所","architect":"渡部良平+日建設計","year":2015.0,"address":"埼玉県所沢市北原町980","latitude":35.80692672729492,"longitude":139.49021911621094,"category":"霊園","description":"","image_url":""},{"id":6617,"title":"足利学校","architect":"不明","year":null,"address":"栃木県足利市昌平町2338","latitude":36.335933685302734,"longitude":139.4535369873047,"category":"古民家","description":"","image_url":""},{"id":6618,"title":"鑁阿寺","architect":"不明","year":1196.0,"address":"栃木県足利市家富町2220","latitude":36.3375244140625,"longitude":139.4522705078125,"category":"寺院","description":"","image_url":""},{"id":6619,"title":"会津さざえ堂 円通三匝堂","architect":"不明","year":1796.0,"address":"福島県会津若松市一箕町八幡滝沢155","latitude":37.5045051574707,"longitude":139.9539794921875,"category":"寺院","description":"","image_url":""},{"id":6620,"title":"海士町のキッチンスタジオ","architect":"キドサキナギサ+こいけひろの","year":2017.0,"address":"島根県隠岐郡海士町福井1403","latitude":36.103546142578125,"longitude":133.07452392578125,"category":"公民館・交流施設","description":"","image_url":""},{"id":6621,"title":"南山城学園","architect":"長坂大","year":1992.0,"address":"京都府城陽市富野狼谷2-1","latitude":34.8436279296875,"longitude":135.80076599121094,"category":"養護施設","description":"1992年高齢者棟、1994年授産棟、1999年デイサービスセンター・翼寮・櫟寮、2002年地域福祉支援センター、2005年円寮、2007年診療所、2013年厨房棟、2014年彩雲館、2016年工房 希・望・保育園もりの詩竣工。","image_url":""},{"id":6622,"title":"城西大学坂戸キャンパス 水田三喜男記念館","architect":"阿部仁史+久米設計","year":2017.0,"address":"埼玉県坂戸市けやき台1-1","latitude":35.931602478027344,"longitude":139.3378448486328,"category":"大学","description":"","image_url":""},{"id":6623,"title":"城西大学坂戸キャンパス 21号館","architect":"阿部仁史+久米設計","year":2017.0,"address":"埼玉県坂戸市けやき台1-1","latitude":35.93195343017578,"longitude":139.34283447265625,"category":"大学","description":"","image_url":""},{"id":6624,"title":"上智大学四谷キャンパス 6号館","architect":"日建設計","year":2017.0,"address":"東京都千代田区麹町6-1-1","latitude":35.684722900390625,"longitude":139.73248291015625,"category":"大学/オフィスビル","description":"","image_url":""},{"id":6625,"title":"共立女子学園 2号館","architect":"山下設計","year":2016.0,"address":"東京都千代田区一ツ橋2-6-1","latitude":35.693870544433594,"longitude":139.75637817382812,"category":"大学","description":"","image_url":""},{"id":6626,"title":"津田塾大学 千駄ヶ谷キャンパス アリス・メイベル・ベーコン記念館","architect":"槇文彦","year":2017.0,"address":"東京都渋谷区千駄ヶ谷1-18-24","latitude":35.680625915527344,"longitude":139.71058654785156,"category":"大学","description":"","image_url":""},{"id":6627,"title":"木津川遊歩空間整備事業 「トコトコダンダン」","architect":"岩瀬諒子","year":2017.0,"address":"大阪府大阪市西区立売堀六-地内外","latitude":34.67809295654297,"longitude":135.48309326171875,"category":"公園","description":"","image_url":""},{"id":6628,"title":"松之山温泉景観整備計画","architect":"蘆田暢人","year":2016.0,"address":"新潟県十日町市松之山湯本9-4","latitude":37.06464767456055,"longitude":138.59942626953125,"category":"都市計画/公民館・交流施設","description":"消雪施設建屋、コミュニティセンター、ビジターセンター、街路灯等の設計・整備。住所はコミュニティセンターのもの。","image_url":""},{"id":6629,"title":"虎渓用水広場","architect":"オンサイト計画設計事務所","year":2016.0,"address":"岐阜県多治見市音羽町1-","latitude":35.336097717285156,"longitude":137.12066650390625,"category":"公園/広場","description":"","image_url":""},{"id":6630,"title":"オガールセンター・オガール保育園","architect":"みかんぐみ+中居敬一都市建築設計","year":2016.0,"address":"岩手県紫波郡紫波町紫波中央駅前2-3-1","latitude":39.553977966308594,"longitude":141.15582275390625,"category":"児童施設/幼稚園","description":"","image_url":""},{"id":6631,"title":"オガールベース","architect":"らいおん建築事務所+木村設計A・T","year":2014.0,"address":"岩手県紫波郡紫波町紫波中央駅前2-3-12","latitude":39.55475997924805,"longitude":141.1573486328125,"category":"体育館/ホテル","description":"","image_url":""},{"id":6632,"title":"紫波型エコハウスサポートセンター","architect":"みかんぐみ","year":2015.0,"address":"岩手県紫波郡紫波町紫波中央駅前2-3-31","latitude":39.55529022216797,"longitude":141.15655517578125,"category":"住宅","description":"","image_url":""},{"id":6633,"title":"紫波町新庁舎","architect":"久慈設計","year":2015.0,"address":"岩手県紫波郡紫波町紫波中央駅前2-3-1","latitude":39.554527282714844,"longitude":141.15573120117188,"category":"庁舎","description":"","image_url":""},{"id":6634,"title":"柴又ふーてんベッドアンドローカル","architect":"馬場正尊+塚越宮下設計","year":2017.0,"address":"東京都葛飾区柴又7-12-19","latitude":35.75967788696289,"longitude":139.87794494628906,"category":"ホテル","description":"","image_url":""},{"id":6635,"title":"東京都荒川区立図書館 ゆいの森あらかわ","architect":"梓設計","year":2016.0,"address":"東京都荒川区荒川2-50-1","latitude":35.73961639404297,"longitude":139.78390502929688,"category":"図書館/博物館","description":"","image_url":""},{"id":6636,"title":"茂木町まちなか文化交流館 ふみの森 もてぎ","architect":"内田文雄","year":2016.0,"address":"栃木県芳賀郡茂木町大字茂木1720-1","latitude":36.53351593017578,"longitude":140.18331909179688,"category":"図書館/公民館・交流施設/博物館","description":"","image_url":""},{"id":6637,"title":"武蔵野クリーンセンター","architect":"鹿島建設+水谷俊博","year":2016.0,"address":"東京都武蔵野市緑町3-1-5","latitude":35.71900939941406,"longitude":139.565673828125,"category":"公共施設","description":"","image_url":""},{"id":6638,"title":"流山市民総合体育館 キッコーマンアリーナ","architect":"INA新建築研究所","year":2015.0,"address":"千葉県流山市野々下1-40-1","latitude":35.85877227783203,"longitude":139.91761779785156,"category":"体育館","description":"","image_url":""},{"id":6639,"title":"暁星国際流山小学校","architect":"芦原太郎","year":2015.0,"address":"千葉県流山市前平井175−2","latitude":35.855064392089844,"longitude":139.91586303710938,"category":"学校","description":"","image_url":""},{"id":6640,"title":"HULIC＆New SHIBUYA","architect":"櫻井潔","year":2017.0,"address":"東京都渋谷区宇田川町31-1","latitude":35.66156768798828,"longitude":139.69764709472656,"category":"テナントビル","description":"2017年5月オープン予定","image_url":""},{"id":6641,"title":"コナミ那須研修所","architect":"日建設計","year":1994.0,"address":"栃木県那須郡那須町高久乙3376-910","latitude":37.079933166503906,"longitude":139.96664428710938,"category":"研修施設","description":"","image_url":""},{"id":6642,"title":"東葛テクノプラザ","architect":"日建設計","year":1998.0,"address":"千葉県柏市柏の葉5-4-6","latitude":35.90348815917969,"longitude":139.9398956298828,"category":"研究施設/低層オフィス","description":"","image_url":""},{"id":6643,"title":"阿久比町新庁舎・多目的ホール","architect":"安井建築設計","year":2017.0,"address":"愛知県知多郡阿久比町卯坂殿越50","latitude":34.93258285522461,"longitude":136.91558837890625,"category":"庁舎/ホール・劇場","description":"","image_url":""},{"id":6644,"title":"神戸医療イノベーションセンター","architect":"安井建築設計","year":2017.0,"address":"兵庫県神戸市中央区港島南町6-5-3","latitude":34.65556716918945,"longitude":135.2217254638672,"category":"オフィスビル","description":"","image_url":""},{"id":6645,"title":"近畿大学 法学部新校舎C館","architect":"安井建築設計","year":2016.0,"address":"大阪府東大阪市新上小阪3-4-1","latitude":34.65165710449219,"longitude":135.59030151367188,"category":"大学","description":"","image_url":""},{"id":6646,"title":"稲敷市新庁舎","architect":"安井建築設計","year":2016.0,"address":"茨城県稲敷市犬塚1570-1","latitude":35.9728889465332,"longitude":140.3036651611328,"category":"庁舎","description":"","image_url":""},{"id":6647,"title":"須賀川市新庁舎","architect":"佐藤総合計画","year":2017.0,"address":"福島県須賀川市八幡町135","latitude":37.2864990234375,"longitude":140.37269592285156,"category":"庁舎","description":"","image_url":""},{"id":6648,"title":"志野市新庁舎","architect":"佐藤総合計画","year":2017.0,"address":"千葉県習志野市鷺沼2-1-1","latitude":35.68122100830078,"longitude":140.02792358398438,"category":"庁舎","description":"","image_url":""},{"id":6649,"title":"千里阪急ホテル","architect":"浦辺鎮太郎","year":1970.0,"address":"大阪府豊中市新千里東町2-1","latitude":34.80828094482422,"longitude":135.49790954589844,"category":"ホテル","description":"","image_url":""},{"id":6650,"title":"白井市新庁舎","architect":"INA新建築研究所","year":2017.0,"address":"千葉県白井市復1123","latitude":35.79117965698242,"longitude":140.05604553222656,"category":"庁舎","description":"","image_url":""}]}