{"page":208,"total_pages":290,"items_per_page":50,"total_items":14467,"items":[{"id":10351,"title":"旧中尾家住宅","architect":"不明","year":1700.0,"address":"佐賀県唐津市呼子町呼子3750-3","latitude":33.53964614868164,"longitude":129.8953094482422,"category":"古民家","description":"竣工年は18世紀前期。","image_url":""},{"id":10352,"title":"オバッタベッタ レストラン棟","architect":"手塚建築研究所","year":2021.0,"address":"愛知県名古屋市守山区川東山 小幡緑地公園本園内","latitude":35.217559814453125,"longitude":136.9838104248047,"category":"レストラン","description":"","image_url":""},{"id":10353,"title":"OGATA YAMA 尾形欣一自邸","architect":"尾形欣一","year":2019.0,"address":"宮城県仙台市泉区福岡下鎖13-2","latitude":38.37582778930664,"longitude":140.7654571533203,"category":"住宅/ギャラリー/カフェ","description":"現在1枠1組限定で入館予約を受付中","image_url":""},{"id":10354,"title":"長谷川町子美術館","architect":"鹿島建設","year":1985.0,"address":"東京都世田谷区桜新町1-30-6","latitude":35.627952575683594,"longitude":139.6436309814453,"category":"美術館","description":"","image_url":""},{"id":10355,"title":"長谷川町子記念館","architect":"伊佐ホームズ","year":2020.0,"address":"東京都世田谷区桜新町1-29","latitude":35.62797927856445,"longitude":139.64317321777344,"category":"博物館","description":"","image_url":""},{"id":10356,"title":"稲村ハウス 旧テーテンス邸","architect":"前川國男","year":1942.0,"address":"静岡県熱海市伊豆山353-5","latitude":35.11915588378906,"longitude":139.09793090820312,"category":"住宅/コテージ","description":"民泊施設として営業","image_url":""},{"id":10357,"title":"気仙沼市復興祈念公園","architect":"槻橋修","year":2021.0,"address":"宮城県気仙沼市陣山264","latitude":38.909584045410156,"longitude":141.57867431640625,"category":"公園","description":"","image_url":""},{"id":10358,"title":"ギャラリー壺中居","architect":"東畑建築事務所","year":1973.0,"address":"東京都中央区日本橋3-8-5","latitude":35.680267333984375,"longitude":139.77337646484375,"category":"ギャラリー","description":"","image_url":""},{"id":10359,"title":"平助筆復古堂ビル","architect":"三原建築設計事務所","year":2021.0,"address":"福岡県福岡市中央区春吉3-3-9","latitude":33.59021759033203,"longitude":130.40728759765625,"category":"オフィスビル","description":"","image_url":""},{"id":10360,"title":"S-ブランド HOSHIIMONO100Cafe","architect":"隈研吾","year":2021.0,"address":"茨城県猿島郡境町坂花町1459","latitude":36.10541534423828,"longitude":139.79165649414062,"category":"カフェ","description":"","image_url":""},{"id":10361,"title":"糸プロジェクト マルシェ棟・レストラン棟・カフェ棟","architect":"隈研吾","year":2020.0,"address":"愛媛県西条市朔日市284-2","latitude":33.92770767211914,"longitude":133.1885528564453,"category":"店舗/カフェ/レストラン","description":"隈研吾がデザイン監修・マスタープランを担当。付近に９組の若手建築家による住宅地やホテル・温泉など竣工予定","image_url":""},{"id":10362,"title":"北野建設 長野本社","architect":"北川原温","year":2021.0,"address":"長野県長野市県町524","latitude":36.65272521972656,"longitude":138.1844940185547,"category":"オフィスビル","description":"吉村順三設計本社の建て替え","image_url":""},{"id":10363,"title":"ソイル瀬戸田 KURA / LIVING","architect":"稲富堀内建築事務所+STUDIO DIG.","year":2021.0,"address":"広島県尾道市瀬戸田町瀬戸田527","latitude":34.304298400878906,"longitude":133.084228515625,"category":"ホテル/レストラン","description":"","image_url":""},{"id":10364,"title":"改修の素描 新庄市エコロジーガーデン 旧蚕糸試験場新庄支場","architect":"冨永祥子+阿部利広+白岩建築設計事務所","year":1934.0,"address":"山形県新庄市十日町6000-1","latitude":38.7818717956543,"longitude":140.31065368652344,"category":"店舗/公民館・交流施設","description":"蚕糸試験場の改修。第1、第4蚕室を阿部利広。第5蚕室を白岩建築設計事務所が担当","image_url":""},{"id":10365,"title":"千葉大学墨田サテライトキャンパス 旧すみだ中小企業センター","architect":"久米設計+栗生明","year":1986.0,"address":"東京都墨田区文花1-19-1","latitude":35.710567474365234,"longitude":139.82359313964844,"category":"大学","description":"旧すみだ中小企業センターの大規模改修・大学へのコンバージョン。2021年改修。基本構想：墨田区企画経営室・千葉大学キャンパス整備企画室。基本・実施設計：久米設計。デザインアドバイザー：栗生明","image_url":""},{"id":10366,"title":"中央大学 多摩キャンパス FOREST GATEWAY CHUO","architect":"竹中工務店","year":2021.0,"address":"東京都八王子市東中野742-1","latitude":35.641788482666016,"longitude":139.4076690673828,"category":"大学","description":"","image_url":""},{"id":10367,"title":"堀ビル","architect":"竹中工務店","year":1932.0,"address":"東京都港区新橋2-5-2","latitude":35.66791915893555,"longitude":139.75621032714844,"category":"オフィスビル/シェアオフィス","description":"竹中工務店による改修","image_url":""},{"id":10368,"title":"技建本社ビル","architect":"細矢仁","year":2017.0,"address":"沖縄県南城市大里字古堅1206-3","latitude":26.19403839111328,"longitude":127.74836730957031,"category":"オフィスビル","description":"","image_url":""},{"id":10369,"title":"同世代の橋 Osteria Kota","architect":"石井和紘","year":1986.0,"address":"神奈川県横浜市中区相生町2-50","latitude":35.44635009765625,"longitude":139.63821411132812,"category":"レストラン/住宅","description":"現在はレストラン。以下13名の同世代建築家をコラージュした作品。相田武文、安藤忠雄、石山修武、伊東豊雄 、長谷川逸子、象設計集団、高松伸、毛網毅贖、六角鬼丈、渡辺豊和、木島安史、葉祥栄","image_url":""},{"id":10370,"title":"伊方町観光交流拠点施設 佐田岬はなはな","architect":"京智健+山口陽登","year":2020.0,"address":"愛媛県西宇和郡伊方町三崎1700-11","latitude":33.391197204589844,"longitude":132.1177215576172,"category":"観光施設/店舗/カフェ","description":"","image_url":""},{"id":10371,"title":"よこすか近代遺産ミュージアム ティボディエ邸","architect":"不明","year":1869.0,"address":"神奈川県横須賀市汐入町1-1","latitude":35.28315353393555,"longitude":139.65965270996094,"category":"洋館","description":"明治2年頃竣工の東日本最古の洋風建築物だったが、2003年に解体。2021年に一部移築、復元","image_url":""},{"id":10372,"title":"THE TOKYO TOILET 10 神宮前トイレ","architect":"NIGO","year":2021.0,"address":"東京都渋谷区神宮前1-3-14","latitude":35.67242431640625,"longitude":139.70797729492188,"category":"トイレ","description":"","image_url":""},{"id":10373,"title":"SH-25 ジャーニー×ジャーニー ボックスラウンド","architect":"広瀬鎌二","year":1958.0,"address":"東京都台東区台東1-33-4","latitude":35.70213317871094,"longitude":139.7779083251953,"category":"レストラン","description":"","image_url":""},{"id":10374,"title":"GLASHAUS / 靭公園","architect":"岸和郎","year":2007.0,"address":"大阪府大阪市西区靱本町2-2-12","latitude":34.6837272644043,"longitude":135.49171447753906,"category":"集合住宅","description":"","image_url":""},{"id":10375,"title":"京都大学 桂図書館","architect":"岸和郎","year":2019.0,"address":"京都府京都市西京区京都大学桂","latitude":34.98094940185547,"longitude":135.68096923828125,"category":"大学/図書館","description":"","image_url":""},{"id":10376,"title":"京都大学 北部グラウンド部室棟","architect":"岸和郎","year":2014.0,"address":"京都府京都市左京区北白川追分町37","latitude":35.031646728515625,"longitude":135.7877197265625,"category":"大学/クラブハウス","description":"","image_url":""},{"id":10377,"title":"旧ルナディミエーレ表参道ビル","architect":"岸和郎","year":2004.0,"address":"東京都港区北青山3-5-19","latitude":35.665828704833984,"longitude":139.71282958984375,"category":"テナントビル","description":"","image_url":""},{"id":10378,"title":"熊野東防災交流センター","architect":"o+h","year":2021.0,"address":"広島県熊野町初神3-11-13","latitude":34.35866928100586,"longitude":132.59767150878906,"category":"公共施設","description":"","image_url":""},{"id":10379,"title":"瀬戸内醸造所","architect":"菅原大輔","year":2021.0,"address":"広島県三原市須波西1-5-26","latitude":34.356475830078125,"longitude":133.08287048339844,"category":"レストラン/醸造所","description":"","image_url":""},{"id":10380,"title":"石巻の東屋","architect":"萬代基介","year":2021.0,"address":"宮城県石巻市中央1-14-18","latitude":38.42902374267578,"longitude":141.3088836669922,"category":"公園","description":"","image_url":""},{"id":10381,"title":"LIGUNA/0","architect":"kw+hgアーキテクツ","year":2019.0,"address":"東京都小金井市梶野町5-8-26","latitude":35.704463958740234,"longitude":139.52476501464844,"category":"低層オフィス/レストラン/図書館","description":"","image_url":""},{"id":10382,"title":"江北町みんなの公園","architect":"馬場正尊+ランドスケープ・プラス","year":2019.0,"address":"佐賀県杵島郡江北町佐留志1380-1","latitude":33.215736389160156,"longitude":130.1623992919922,"category":"公園","description":"","image_url":""},{"id":10383,"title":"SAGA FURUYU CAMP 旧富士小学校の再生","architect":"馬場正尊+OSTR","year":2020.0,"address":"佐賀県佐賀市富士町大字古湯898","latitude":33.373172760009766,"longitude":130.2054901123047,"category":"研修施設","description":"","image_url":""},{"id":10384,"title":"名古屋の廃校再生 なごのキャンパス","architect":"馬場正尊","year":2019.0,"address":"愛知県名古屋市西区那古野2-14-1","latitude":35.176082611083984,"longitude":136.88633728027344,"category":"シェアオフィス/カフェ/体験施設","description":"","image_url":""},{"id":10385,"title":"いすみのグランピング場 Forest Living","architect":"馬場正尊","year":2019.0,"address":"千葉県いすみ市岬町椎木3180-1","latitude":35.328529357910156,"longitude":140.37359619140625,"category":"コテージ","description":"","image_url":""},{"id":10386,"title":"アートスケープ六本木","architect":"馬場正尊","year":1982.0,"address":"東京都港区六本木7-10-2","latitude":35.66462707519531,"longitude":139.7289581298828,"category":"オフィスビル/テナントビル","description":"2017年ファサード改修","image_url":""},{"id":10387,"title":"山形朝日町のゲストハウス 松本亭一農舎","architect":"馬場正尊","year":2016.0,"address":"山形県西村山郡朝日町常盤ろ1","latitude":38.29084396362305,"longitude":140.12356567382812,"category":"コテージ/古民家","description":"","image_url":""},{"id":10388,"title":"荒川区立尾久図書館","architect":"類設計室","year":2021.0,"address":"東京都荒川区東尾久8-45-4","latitude":35.75050354003906,"longitude":139.76625061035156,"category":"図書館","description":"","image_url":""},{"id":10389,"title":"東広島市立美術館","architect":"香山壽夫+大旗連合建築設計","year":2021.0,"address":"広島県東広島市西条栄町9-1","latitude":34.42715072631836,"longitude":132.74232482910156,"category":"美術館","description":"","image_url":""},{"id":10390,"title":"渋谷区立北谷公園","architect":"日建設計","year":2021.0,"address":"東京都渋谷区神南1-7-3","latitude":35.66407775878906,"longitude":139.69955444335938,"category":"公園","description":"","image_url":""},{"id":10391,"title":"法政大学 市ケ谷キャンパス 富士見ゲート","architect":"日建設計","year":2016.0,"address":"東京都千代田区富士見2-17-1","latitude":35.695892333984375,"longitude":139.74093627929688,"category":"大学","description":"","image_url":""},{"id":10392,"title":"法政大学 市ケ谷キャンパス 大内山校舎","architect":"日建設計","year":2019.0,"address":"東京都千代田区富士見2-17-1","latitude":35.69564437866211,"longitude":139.7418212890625,"category":"大学","description":"","image_url":""},{"id":10393,"title":"法政大学 市ケ谷キャンパス ボアソナード・タワー","architect":"山下設計","year":2000.0,"address":"東京都千代田区富士見2-17-1","latitude":35.69528579711914,"longitude":139.7406768798828,"category":"大学","description":"","image_url":""},{"id":10394,"title":"法政大学 市ケ谷キャンパス 外濠校舎","architect":"山下設計","year":2007.0,"address":"東京都千代田区富士見2-17-1","latitude":35.69613265991211,"longitude":139.7412567138672,"category":"大学","description":"","image_url":""},{"id":10395,"title":"ほぼ日神田オフィス","architect":"谷尻誠","year":2020.0,"address":"東京都千代田区神田錦町3-18","latitude":35.69344711303711,"longitude":139.76141357421875,"category":"オフィスビル","description":"デザイン監修：SUPPOSE DESIGN OFFICE。実施設計：三越伊勢丹プロパティ・デザイン。築約40年の7階建てオフィスビルを全館改修","image_url":""},{"id":10396,"title":"近衞文麿旧宅 荻外荘","architect":"伊東忠太","year":1927.0,"address":"東京都杉並区荻窪2-43-37","latitude":35.69898223876953,"longitude":139.62229919433594,"category":"和風住宅","description":"1945年書斎の改修を長谷部鋭吉が手がけた。2024年12月に復元改修され一般公開された。2025年内には荻外荘公園内に隈研吾設計のカフェが竣工予定","image_url":""},{"id":10397,"title":"堺市立中央図書館","architect":"池田宮彦","year":1971.0,"address":"大阪府堺市堺区大仙中町18-1","latitude":34.561431884765625,"longitude":135.4810333251953,"category":"図書館","description":"設計者に大阪市立大学 栗原研究室という記述があるも氏名等詳細が分からず","image_url":""},{"id":10398,"title":"パビリオン・トウキョウ2021 茶室 五庵","architect":"藤森照信","year":2021.0,"address":"長野県茅野市宮川高部29-2","latitude":35.997493743896484,"longitude":138.1283416748047,"category":"茶室/オブジェ","description":"2021年7月1日～9月5日まで会期中に公開されたパヴィリオン。茅野市に移築された","image_url":""},{"id":10399,"title":"パビリオン・トウキョウ2021 水明","architect":"妹島和世","year":2021.0,"address":"東京都中央区浜離宮庭園1-1","latitude":35.661651611328125,"longitude":139.76290893554688,"category":"オブジェ","description":"浜離宮恩賜庭園 延遼館跡。2021年7月1日～9月5日まで会期中に公開されるパヴィリオン","image_url":""},{"id":10400,"title":"パビリオン・トウキョウ2021 雲のパビリオン","architect":"藤本壮介","year":2021.0,"address":"東京都渋谷区代々木神園町2-2","latitude":35.66944885253906,"longitude":139.69984436035156,"category":"オブジェ","description":"代々木公園パノラマ広場付近。また高輪ゲートウェイ駅改札内にも同様のものが設置。2021年7月1日～9月5日まで会期中に公開されるパヴィリオン","image_url":""}]}