{"page":195,"total_pages":290,"items_per_page":50,"total_items":14467,"items":[{"id":9701,"title":"わくラボ・オフィス","architect":"丸山晴之","year":2018.0,"address":"福井県今立郡池田町野尻11-3","latitude":35.91980743408203,"longitude":136.3522491455078,"category":"シェアオフィス","description":"旧小学校分校、民俗資料館の改修","image_url":""},{"id":9702,"title":"ハコア社屋2017","architect":"丸山晴之","year":2017.0,"address":"福井県鯖江市西袋町503","latitude":35.95455551147461,"longitude":136.2764892578125,"category":"低層オフィス","description":"","image_url":""},{"id":9703,"title":"ヒュッテナナナ","architect":"丸山晴之","year":2017.0,"address":"福井県福井市古市3-610","latitude":36.104896545410156,"longitude":136.22691345214844,"category":"低層オフィス","description":"","image_url":""},{"id":9704,"title":"ラル","architect":"丸山晴之","year":2016.0,"address":"福井県坂井市三国町崎31-25","latitude":36.251399993896484,"longitude":136.14572143554688,"category":"古民家/レストラン","description":"","image_url":""},{"id":9705,"title":"ヘアーショップ 仁孝","architect":"春日治","year":2005.0,"address":"神奈川県海老名市望地2-6-46","latitude":35.45353317260742,"longitude":139.40676879882812,"category":"美容院","description":"","image_url":""},{"id":9706,"title":"UMITO VOYAGE ATAMI","architect":"春日治","year":2015.0,"address":"静岡県熱海市上多賀1027-79","latitude":35.076507568359375,"longitude":139.07424926757812,"category":"ホテル/コテージ","description":"","image_url":""},{"id":9707,"title":"一麦保育園","architect":"今津康夫","year":2019.0,"address":"兵庫県西宮市高木東町30-3","latitude":34.7504768371582,"longitude":135.3636474609375,"category":"幼稚園","description":"","image_url":""},{"id":9708,"title":"PANZAてんしばイーナ","architect":"竹中工務店","year":2019.0,"address":"大阪府大阪市天王寺区茶臼山町5-55","latitude":34.64822006225586,"longitude":135.5110626220703,"category":"モール","description":"","image_url":""},{"id":9709,"title":"杉の子プレイグラウンド","architect":"宗本晋作","year":2020.0,"address":"宮崎県延岡市富美山町524-1","latitude":32.59708023071289,"longitude":131.66131591796875,"category":"幼稚園","description":"","image_url":""},{"id":9710,"title":"22 PIECES","architect":"宗本晋作","year":2017.0,"address":"京都府京都市南区東九条室町9-4","latitude":34.98238754272461,"longitude":135.7569122314453,"category":"ホテル","description":"","image_url":""},{"id":9711,"title":"かるたホテル京都","architect":"宗本晋作","year":2018.0,"address":"京都府京都市下京区幸竹町378-1","latitude":34.999534606933594,"longitude":135.76771545410156,"category":"ホテル","description":"","image_url":""},{"id":9712,"title":"IMU HOTEL KYOTO","architect":"宗本晋作","year":2018.0,"address":"京都府京都市下京区岩戸山町411","latitude":35.00119400024414,"longitude":135.75682067871094,"category":"ホテル","description":"","image_url":""},{"id":9713,"title":"摂津本山のデンタルクリニック オーキッド歯科","architect":"宗本晋作","year":2012.0,"address":"兵庫県神戸市東灘区田中町3-2-4","latitude":34.72243118286133,"longitude":135.2731475830078,"category":"個人医院","description":"","image_url":""},{"id":9714,"title":"佐野常民記念館","architect":"三井所清典","year":2004.0,"address":"佐賀県佐賀市川副町大字早津江津446-1","latitude":33.20815658569336,"longitude":130.33941650390625,"category":"博物館","description":"","image_url":""},{"id":9715,"title":"木と住の情報館 モクイチ","architect":"三井所清典","year":2001.0,"address":"千葉県東金市山田800","latitude":35.571739196777344,"longitude":140.3049774169922,"category":"企業施設","description":"","image_url":""},{"id":9716,"title":"桜城館","architect":"三井所清典","year":1999.0,"address":"佐賀県小城市小城町158-4","latitude":33.288570404052734,"longitude":130.1985321044922,"category":"博物館/図書館","description":"","image_url":""},{"id":9717,"title":"炎の博記念堂","architect":"三井所清典","year":1996.0,"address":"佐賀県西松浦郡有田町黒川甲1788","latitude":33.18882751464844,"longitude":129.85592651367188,"category":"ホール・劇場","description":"","image_url":""},{"id":9718,"title":"神埼市中央公民館","architect":"三井所清典","year":1988.0,"address":"佐賀県神埼市神埼町鶴3388-5","latitude":33.31296920776367,"longitude":130.37246704101562,"category":"公民館・交流施設/ホール・劇場","description":"","image_url":""},{"id":9719,"title":"有田町出土文化財センター","architect":"三井所清典","year":1993.0,"address":"佐賀県西松浦郡有田町泉山1-4-1","latitude":33.19554138183594,"longitude":129.91171264648438,"category":"博物館/公共施設","description":"","image_url":""},{"id":9720,"title":"千葉市ふるさと農園 ふるさとの館","architect":"三井所清典","year":1989.0,"address":"千葉県千葉市花見川区三角町656-3","latitude":35.67836380004883,"longitude":140.1181640625,"category":"観光施設","description":"","image_url":""},{"id":9721,"title":"有田町歴史民俗資料館 東館","architect":"三井所清典","year":1978.0,"address":"佐賀県西松浦郡有田町泉山1-4-1","latitude":33.19504928588867,"longitude":129.91099548339844,"category":"博物館","description":"","image_url":""},{"id":9722,"title":"東京都立大学 晴海キャンパス 旧東京都立短期大学","architect":"三井所清典","year":1998.0,"address":"東京都中央区晴海1-2-2","latitude":35.660587310791016,"longitude":139.78604125976562,"category":"大学","description":"","image_url":""},{"id":9723,"title":"林野庁森林技術総合研修所 林業機械化センター","architect":"三井所清典","year":1996.0,"address":"群馬県沼田市利根町根利1445","latitude":36.60374069213867,"longitude":139.2400360107422,"category":"研修施設/公共施設","description":"事務所棟1996年、寄宿舎棟1997年、研修棟1998年、展示棟1999年竣工","image_url":""},{"id":9724,"title":"佐賀県窯業技術センター","architect":"三井所清典","year":1994.0,"address":"佐賀県西松浦郡有田町黒牟田丙3037-7","latitude":33.195518493652344,"longitude":129.8700714111328,"category":"研究施設/公共施設","description":"","image_url":""},{"id":9725,"title":"日野町立図書館","architect":"鬼頭梓+藤原孝一","year":1996.0,"address":"滋賀県蒲生郡日野町大字松尾1655","latitude":35.01938247680664,"longitude":136.2464599609375,"category":"図書館","description":"東京の日野市立中央図書館とは別です","image_url":""},{"id":9726,"title":"Wellith one Aoyama","architect":"アール・アイ・エー+コンラン&パートナーズ","year":2020.0,"address":"東京都港区北青山2-12-2","latitude":35.6712760925293,"longitude":139.71530151367188,"category":"集合住宅","description":"","image_url":""},{"id":9727,"title":"原病院 南新館","architect":"K+Sアーキテクツ","year":2020.0,"address":"群馬県伊勢崎市境上武士898-1","latitude":36.27992630004883,"longitude":139.2301788330078,"category":"病院","description":"","image_url":""},{"id":9728,"title":"えほん調剤薬局","architect":"太田裕治+高須学","year":2020.0,"address":"福岡県大川市大字榎津280-23","latitude":33.204280853271484,"longitude":130.37649536132812,"category":"医療施設/店舗","description":"","image_url":""},{"id":9729,"title":"大三島 素泊り茶房 トマリギ","architect":"木平と近藤建築事務所","year":2019.0,"address":"愛媛県今治市大三島町宮浦88","latitude":34.249874114990234,"longitude":132.99691772460938,"category":"ホステル","description":"","image_url":""},{"id":9730,"title":"大三島 憩の家","architect":"木平と近藤建築事務所","year":2018.0,"address":"愛媛県今治市大三島町宗方5208-1","latitude":34.194923400878906,"longitude":132.953857421875,"category":"ホステル","description":"小学校の改修","image_url":""},{"id":9731,"title":"ロロ・ピアーナ銀座店","architect":"青木淳","year":2020.0,"address":"東京都中央区銀座3-5-8","latitude":35.672428131103516,"longitude":139.76588439941406,"category":"店舗","description":"青木淳はファサードデザインを担当。設計は分かり次第追記予定","image_url":""},{"id":9732,"title":"カフェ・アンジュ","architect":"川添純一郎","year":2020.0,"address":"兵庫県加東市木梨1151-1","latitude":34.92033386230469,"longitude":134.97398376464844,"category":"カフェ","description":"","image_url":""},{"id":9733,"title":"大名247ビル ／ dot.","architect":"松岡恭子+塩塚隆生","year":2003.0,"address":"福岡県福岡市中央区大名1-15-35","latitude":33.58735656738281,"longitude":130.39657592773438,"category":"テナントビル","description":"2Fに塩塚隆生設計で大分県拠点施設dot.が入居している","image_url":""},{"id":9734,"title":"織物のフォリー","architect":"松岡恭子","year":2005.0,"address":"福岡県福岡市東区香椎照葉3-2-1","latitude":33.66438293457031,"longitude":130.42138671875,"category":"オブジェ","description":"","image_url":""},{"id":9735,"title":"行橋長井浜公園 クラブハウス棟","architect":"松岡恭子","year":2018.0,"address":"福岡県行橋市大字長井136-1","latitude":33.7226448059082,"longitude":131.02212524414062,"category":"公園/クラブハウス","description":"公園のオープンは2020年なので竣工はもう少し後かもしれない","image_url":""},{"id":9736,"title":"下北線路街 空き地","architect":"ツバメアーキテクツ","year":2020.0,"address":"東京都世田谷区北沢2-33-12","latitude":35.662994384765625,"longitude":139.6695098876953,"category":"広場","description":"","image_url":""},{"id":9737,"title":"天草市複合施設ここらす","architect":"日建設計+TAKT PROJECT","year":2020.0,"address":"熊本県天草市浄南町4-15","latitude":32.4498176574707,"longitude":130.19589233398438,"category":"図書館/公民館・交流施設/福祉施設","description":"","image_url":""},{"id":9738,"title":"魚沼市新庁舎","architect":"千葉学+石本建築事務所","year":2020.0,"address":"新潟県魚沼市小出島910","latitude":37.23649978637695,"longitude":138.9639129638672,"category":"庁舎","description":"","image_url":""},{"id":9739,"title":"開成町新庁舎","architect":"松田平田設計","year":2020.0,"address":"神奈川県足柄上郡開成町延沢773","latitude":35.33604431152344,"longitude":139.1233673095703,"category":"庁舎","description":"","image_url":""},{"id":9740,"title":"金沢市役所第二本庁舎","architect":"五井建築研究所","year":2020.0,"address":"石川県金沢市柿木畠1-1","latitude":36.5599479675293,"longitude":136.6556854248047,"category":"庁舎","description":"","image_url":""},{"id":9741,"title":"小野市新庁舎","architect":"久米設計","year":2020.0,"address":"兵庫県小野市中島町531","latitude":34.85795211791992,"longitude":134.93992614746094,"category":"庁舎","description":"","image_url":""},{"id":9742,"title":"マルホン福岡ショールーム","architect":"香取武則","year":2019.0,"address":"福岡県福岡市中央区浄水通5-1","latitude":33.57527160644531,"longitude":130.39404296875,"category":"店舗","description":"","image_url":""},{"id":9743,"title":"ナインアワーズ半蔵門","architect":"平田晃久","year":2020.0,"address":"東京都千代田区麹町3-5-20","latitude":35.68317413330078,"longitude":139.73890686035156,"category":"ホテル","description":"2020年7月1日オープン予定","image_url":""},{"id":9744,"title":"hotel Siro","architect":"マウントフジアーキテクツスタジオ+So,U+門内一生","year":2020.0,"address":"東京都豊島区池袋2-12-12","latitude":35.732505798339844,"longitude":139.7073211669922,"category":"ホテル","description":"1階及び8、9、10階の個室デザインをマウントフジアーキテクツスタジオ。5、6、7階の個室デザインをSO,u。3、4階の個室デザインを門内一生がそれぞれ担当。2020年7月3日オープン予定","image_url":""},{"id":9745,"title":"B hotel komachi","architect":"門内一生","year":2020.0,"address":"広島県広島市中区小町6-30","latitude":34.38785934448242,"longitude":132.4575653076172,"category":"ホテル/集合住宅","description":"","image_url":""},{"id":9746,"title":"B hotel Heiwa odori","architect":"門内一生","year":2020.0,"address":"広島県広島市中区田中町6-12","latitude":34.38829040527344,"longitude":132.4635772705078,"category":"ホステル","description":"","image_url":""},{"id":9747,"title":"GranDuo上馬","architect":"谷尻誠","year":2020.0,"address":"東京都世田谷区上馬2-1-3","latitude":35.63579559326172,"longitude":139.66464233398438,"category":"集合住宅","description":"","image_url":""},{"id":9748,"title":"MAXPLAN AZABU10","architect":"隈研吾","year":2020.0,"address":"東京都港区麻布十番4-1-1","latitude":35.65523147583008,"longitude":139.73741149902344,"category":"テナントビル","description":"2020年10月1日オープン予定","image_url":""},{"id":9749,"title":"KAWASAKI DELTA ホテルメトロポリタン川崎","architect":"ジェイアール東日本建築設計事務所+谷尻誠","year":2020.0,"address":"神奈川県川崎市幸区大宮町1-5","latitude":35.53065490722656,"longitude":139.69549560546875,"category":"ホテル","description":"インテリアデザイン監修に谷尻誠","image_url":""},{"id":9750,"title":"SWEET AS","architect":"山下智弘+山本道善","year":2020.0,"address":"山口県長門市仙崎313-1","latitude":34.378482818603516,"longitude":131.1920928955078,"category":"スポーツ施設","description":"1975年竣工の工場をスポーツ施設にリノベーション。2020年9月オープン予定","image_url":""}]}