{"page":276,"total_pages":290,"items_per_page":50,"total_items":14467,"items":[{"id":13751,"title":"川崎市民プラザ","architect":"今井秀明+神谷・荘司計画設計事務所","year":1979.0,"address":"神奈川県川崎市高津区新作1-19-1","latitude":35.584877014160156,"longitude":139.6104278564453,"category":"総合文化施設","description":"","image_url":""},{"id":13752,"title":"川崎大師平間寺 本堂","architect":"大岡實","year":1964.0,"address":"神奈川県川崎市川崎区大師町4-48","latitude":35.5346794128418,"longitude":139.72938537597656,"category":"寺院","description":"","image_url":""},{"id":13753,"title":"東芝水素エネルギー研究開発センター","architect":"UA","year":2015.0,"address":"東京都府中市東芝町1","latitude":35.682044982910156,"longitude":139.4666748046875,"category":"研究施設","description":"","image_url":""},{"id":13754,"title":"川崎市第三庁舎","architect":"神谷・荘司計画設計事務所","year":1993.0,"address":"神奈川県川崎市川崎区東田町5-4","latitude":35.529903411865234,"longitude":139.7024383544922,"category":"庁舎","description":"","image_url":""},{"id":13755,"title":"田園調布学園大学 図書館","architect":"神谷・荘司計画設計事務所","year":1993.0,"address":"神奈川県川崎市麻生区東百合丘3-4-1","latitude":35.59484100341797,"longitude":139.52471923828125,"category":"大学/図書館","description":"","image_url":""},{"id":13756,"title":"ヨネッティー王禅寺","architect":"神谷・荘司計画設計事務所","year":1990.0,"address":"神奈川県川崎市麻生区王禅寺1321","latitude":35.593597412109375,"longitude":139.52467346191406,"category":"プール","description":"","image_url":""},{"id":13757,"title":"キルト工芸 浜町工場","architect":"三瓶満真","year":2019.0,"address":"神神奈川県川崎市川崎区浜町2-4-6","latitude":35.51524353027344,"longitude":139.7190704345703,"category":"工場/住宅","description":"","image_url":""},{"id":13758,"title":"プラウディア栗木台","architect":"篠田義男+小田急エンジニアリング","year":1999.0,"address":"神奈川県川崎市麻生区栗木台3-9-1","latitude":35.612056732177734,"longitude":139.4742889404297,"category":"集合住宅","description":"","image_url":""},{"id":13759,"title":"小田急はるひ野駅","architect":"篠田義男+小田急エンジニアリング","year":2004.0,"address":"神奈川県川崎市麻生区はるひ野5-8-1","latitude":35.6187858581543,"longitude":139.464599609375,"category":"駅","description":"","image_url":""},{"id":13760,"title":"新百合ヶ丘駅","architect":"篠田義男+小田急エンジニアリング","year":2008.0,"address":"神奈川県川崎市麻生区20","latitude":35.6038703918457,"longitude":139.50775146484375,"category":"駅","description":"","image_url":""},{"id":13761,"title":"小田急読売ランド前駅","architect":"篠田義男","year":1992.0,"address":"神奈川県川崎市多摩区西生田3-8-1","latitude":35.614768981933594,"longitude":139.52792358398438,"category":"駅","description":"","image_url":""},{"id":13762,"title":"川崎駅前一団地整備施設 ルフロン","architect":"石本建築事務所","year":1988.0,"address":"神奈川県川崎市川崎区日進町1-41","latitude":35.529518127441406,"longitude":139.69667053222656,"category":"モール","description":"","image_url":""},{"id":13763,"title":"恵みの丘キリスト教会","architect":"ネヘミヤ建築研究所","year":1995.0,"address":"神奈川県川崎市宮前区東有馬4-20-31","latitude":35.56851577758789,"longitude":139.5858154296875,"category":"教会","description":"","image_url":""},{"id":13764,"title":"住吉診療所","architect":"富永譲","year":1983.0,"address":"神奈川県川崎市中原区木月3-7-3","latitude":35.56570053100586,"longitude":139.65028381347656,"category":"個人医院","description":"","image_url":""},{"id":13765,"title":"神奈川県立保健福祉大学 大学院ヘルスイノベーション研究科","architect":"内藤建築事務所","year":2018.0,"address":"神奈川県川崎市川崎区殿町3-25-10","latitude":35.54018783569336,"longitude":139.7533416748047,"category":"大学","description":"","image_url":""},{"id":13766,"title":"明治大学 生田校舎 第二校舎2号館・4号館","architect":"堀口捨己","year":1965.0,"address":"神奈川県川崎市多摩区東三田1-1-1","latitude":35.6141242980957,"longitude":139.54949951171875,"category":"大学","description":"","image_url":""},{"id":13767,"title":"シュロス武蔵新城","architect":"谷内田章夫","year":2009.0,"address":"神奈川県川崎市中原区新城5-10-25","latitude":35.587554931640625,"longitude":139.62838745117188,"category":"集合住宅","description":"","image_url":""},{"id":13768,"title":"三笠ビル商店街","architect":"今泉善一","year":1959.0,"address":"神奈川県横須賀市大滝町2-23","latitude":35.28047561645508,"longitude":139.6693878173828,"category":"モール","description":"","image_url":""},{"id":13769,"title":"ECOLE DE HAYAMA 資生堂湘南研修所","architect":"鹿島建設","year":1997.0,"address":"神奈川県横須賀市湘南国際村1-4-5","latitude":35.254638671875,"longitude":139.606689453125,"category":"研修施設","description":"担当：押野見邦英","image_url":""},{"id":13770,"title":"ニフコ技術開発センター","architect":"坂倉建築研究所","year":2013.0,"address":"神奈川県横須賀市光の丘5-2","latitude":35.22571563720703,"longitude":139.67652893066406,"category":"研究施設","description":"","image_url":""},{"id":13771,"title":"旧横須賀鎮守府司令長官官舎","architect":"桜井小太郎","year":1913.0,"address":"神奈川県横須賀市田戸台90","latitude":35.26933670043945,"longitude":139.67588806152344,"category":"洋館","description":"","image_url":""},{"id":13772,"title":"伊勢原市市庁舎・行政文化センター・市民文化会館","architect":"石本建築事務所","year":1980.0,"address":"神奈川県伊勢原市田中348","latitude":35.40371322631836,"longitude":139.31512451171875,"category":"庁舎/ホール・劇場","description":"","image_url":""},{"id":13773,"title":"IHIグループ人材開発交流センター I-STEP湘南","architect":"日本設計","year":2015.0,"address":"神奈川県横須賀市湘南国際村1-5","latitude":35.254573822021484,"longitude":139.6089324951172,"category":"研修施設","description":"","image_url":""},{"id":13774,"title":"横須賀市文化会館","architect":"吉原慎一郎","year":1965.0,"address":"神奈川県横須賀市深田台50","latitude":35.274696350097656,"longitude":139.67221069335938,"category":"ホール・劇場","description":"建築文化1965年7月号に記載","image_url":""},{"id":13775,"title":"霊友会館 横須賀","architect":"竹中工務店","year":1986.0,"address":"神奈川県横須賀市久里浜6-3","latitude":35.227813720703125,"longitude":139.71031188964844,"category":"宗教施設","description":"","image_url":""},{"id":13776,"title":"横須賀市立武山小学校体育館","architect":"前川建築設計事務所","year":2004.0,"address":"神奈川県横須賀市太田和3-1-1","latitude":35.22502899169922,"longitude":139.64028930664062,"category":"体育館","description":"","image_url":""},{"id":13777,"title":"報道基金ごうら山荘","architect":"伊藤喜三郎","year":1996.0,"address":"神奈川県足柄下郡箱根町強羅1300-51","latitude":35.2486572265625,"longitude":139.04672241210938,"category":"研修施設","description":"","image_url":""},{"id":13778,"title":"松の茶屋田舎家","architect":"仰木魯堂","year":1914.0,"address":"神奈川県足柄下郡箱根町湯本518-1","latitude":35.228458404541016,"longitude":139.09849548339844,"category":"茶室","description":"","image_url":""},{"id":13779,"title":"湯河原カンツリー倶楽部・クラブハウス","architect":"岸田日出刀","year":1955.0,"address":"神奈川県足柄下郡湯河原町吉浜2020","latitude":35.170589447021484,"longitude":139.1109161376953,"category":"クラブハウス","description":"","image_url":""},{"id":13780,"title":"湯河原 ふきや旅館 リブランディング","architect":"隈研吾","year":2017.0,"address":"神奈川県足柄下郡湯河原町宮上398","latitude":35.14434051513672,"longitude":139.08010864257812,"category":"旅館","description":"プロダクトデザイン、インテリアなどのリブランディング","image_url":""},{"id":13781,"title":"ラフォーレ強羅","architect":"レーモンド設計事務所","year":1982.0,"address":"神奈川県足柄下郡箱根町強羅1320","latitude":35.25109100341797,"longitude":139.03988647460938,"category":"ホテル","description":"","image_url":""},{"id":13782,"title":"箱根小涌谷駅","architect":"中村登一","year":1951.0,"address":"神奈川県足柄下郡箱根町小涌谷","latitude":35.240455627441406,"longitude":139.0526885986328,"category":"駅","description":"","image_url":""},{"id":13783,"title":"東電山崎発電所","architect":"山口文象","year":1936.0,"address":"神奈川県足柄下郡箱根町湯本35-1","latitude":35.23884582519531,"longitude":139.1187286376953,"category":"工場/公共施設","description":"","image_url":""},{"id":13784,"title":"彫刻の森美術館 ピカソ館","architect":"今里隆","year":1984.0,"address":"神奈川県足柄下郡箱根町二ノ平1121 彫刻の森美術館内","latitude":35.24383544921875,"longitude":139.05398559570312,"category":"美術館","description":"ARIWRKSにより2019年改修","image_url":""},{"id":13785,"title":"小田原フラワーガーデン 薔薇のパーゴラ","architect":"白江龍三","year":1994.0,"address":"神奈川県小田原市久野3798-5","latitude":35.28071975708008,"longitude":139.12911987304688,"category":"公園","description":"","image_url":""},{"id":13786,"title":"湘南鎌倉総合病院","architect":"伊藤喜三郎","year":2022.0,"address":"神奈川県鎌倉市岡本1370-1","latitude":35.345584869384766,"longitude":139.5150604248047,"category":"病院","description":"","image_url":""},{"id":13787,"title":"鎌倉国宝館","architect":"岡田信一郎","year":1928.0,"address":"神奈川県鎌倉市雪ノ下2-1-1","latitude":35.32466506958008,"longitude":139.55702209472656,"category":"博物館","description":"","image_url":""},{"id":13788,"title":"東洋レーヨン基礎研究所","architect":"坂倉準三","year":1962.0,"address":"神奈川県鎌倉市手広6-10-1","latitude":35.329368591308594,"longitude":139.50262451171875,"category":"研究施設","description":"","image_url":""},{"id":13789,"title":"土屋鞄製造所 鎌倉店","architect":"すわ製作所","year":2012.0,"address":"神奈川県鎌倉市由比ガ浜1-10-2","latitude":35.315147399902344,"longitude":139.54624938964844,"category":"店舗","description":"","image_url":""},{"id":13790,"title":"ふくろふ森","architect":"スタジオ宙","year":1994.0,"address":"神奈川県相模原市南区上鶴間5-5-12","latitude":35.522926330566406,"longitude":139.44424438476562,"category":"レストラン","description":"","image_url":""},{"id":13791,"title":"東京国立近代美術館フィルムセンター相模原分館 映画保存棟Ⅰ","architect":"芦原義信","year":1986.0,"address":"神奈川県相模原市中央区高根3-1-4","latitude":35.55995559692383,"longitude":139.39434814453125,"category":"博物館","description":"","image_url":""},{"id":13792,"title":"光明学園相模原高等学校","architect":"前川建築設計事務所","year":2003.0,"address":"神奈川県相模原市南区当麻856","latitude":35.52973937988281,"longitude":139.3689422607422,"category":"学校","description":"","image_url":""},{"id":13793,"title":"相模原市立夢の丘小学校","architect":"前川建築設計事務所","year":2002.0,"address":"神奈川県相模原市南区当麻490-2","latitude":35.53261947631836,"longitude":139.36683654785156,"category":"学校","description":"","image_url":""},{"id":13794,"title":"LCA国際小学校インターナショナルプリスクール","architect":"松岡恭子+ユニバァサル設計","year":2015.0,"address":"神奈川県相模原市緑区橋本台3-7-1","latitude":35.586124420166016,"longitude":139.33236694335938,"category":"学校","description":"","image_url":""},{"id":13795,"title":"朝日新聞販売　ASA藤沢中央店","architect":"岩村和夫","year":2013.0,"address":"神奈川県藤沢市藤沢575-10","latitude":35.3415641784668,"longitude":139.4881134033203,"category":"店舗/低層オフィス","description":"","image_url":""},{"id":13796,"title":"カトリック片瀬教会","architect":"田村鎮","year":1939.0,"address":"神奈川県藤沢市片瀬海岸2-2-35","latitude":35.31219482421875,"longitude":139.484619140625,"category":"教会","description":"","image_url":""},{"id":13797,"title":"海老名市文化会館","architect":"久米設計","year":2011.0,"address":"神奈川県海老名市めぐみ町6-1","latitude":35.4521484375,"longitude":139.38670349121094,"category":"ホール・劇場","description":"","image_url":""},{"id":13798,"title":"平塚文化芸術ホール","architect":"安井建築設計","year":2022.0,"address":"神奈川県平塚市見附町16-1","latitude":35.32973861694336,"longitude":139.3431854248047,"category":"ホール・劇場","description":"","image_url":""},{"id":13799,"title":"あつぎ郷土博物館","architect":"小林建築事務所","year":2018.0,"address":"神奈川県厚木市下川入1366-4","latitude":35.495357513427734,"longitude":139.3498992919922,"category":"博物館","description":"","image_url":""},{"id":13800,"title":"茅ヶ崎市民会館","architect":"関・空間設計","year":1980.0,"address":"神奈川県茅ヶ崎市茅ヶ崎1-11-1","latitude":35.33509063720703,"longitude":139.404052734375,"category":"ホール・劇場","description":"2018年A&T建築研究所により改修。岡設計時代（関・空間設計に名称変更）の設計","image_url":""}]}