{"page":140,"total_pages":290,"items_per_page":50,"total_items":14467,"items":[{"id":6951,"title":"fca","architect":"堀部安嗣","year":2017.0,"address":"福岡県福岡市西区愛宕4-21","latitude":33.5874137878418,"longitude":130.33554077148438,"category":"住宅","description":"モデルハウスが見学可能。要予約。ただし建築関係者・学生は不可とのこと。","image_url":""},{"id":6952,"title":"ベーカリー&レストラン 沢村","architect":"田辺雄之","year":2016.0,"address":"長野県北佐久郡軽井沢町軽井沢12-18","latitude":36.356197357177734,"longitude":138.6333465576172,"category":"店舗/レストラン","description":"","image_url":""},{"id":6953,"title":"コロナ電気 新社屋工場","architect":"井坂幸恵","year":2013.0,"address":"茨城県ひたちなか市東石川3517","latitude":36.40993118286133,"longitude":140.52642822265625,"category":"低層オフィス/工場","description":"1期工事2013年竣工。2期工事2018年竣工","image_url":""},{"id":6954,"title":"上野公園観光食堂 旧白鷺公園レストハウス","architect":"坂倉準三","year":1963.0,"address":"三重県伊賀市上野丸之内117-3","latitude":34.77110290527344,"longitude":136.1293487548828,"category":"店舗/公園","description":"","image_url":""},{"id":6955,"title":"上野西小学校体育館","architect":"坂倉準三","year":1966.0,"address":"三重県伊賀市上野丸之内112","latitude":34.76884078979492,"longitude":136.1291961669922,"category":"体育館/学校","description":"","image_url":""},{"id":6956,"title":"鳴門市庁舎","architect":"増田友也","year":1963.0,"address":"徳島県鳴門市撫養町南浜字東浜170","latitude":34.17258834838867,"longitude":134.6088104248047,"category":"庁舎","description":"","image_url":""},{"id":6957,"title":"鳴門市民会館","architect":"増田友也","year":1961.0,"address":"徳島県鳴門市撫養町南浜字東浜170","latitude":34.17303466796875,"longitude":134.60902404785156,"category":"ホール・劇場","description":"2021年解体","image_url":""},{"id":6958,"title":"徳島県立文書館 旧徳島県庁舎","architect":"佐野利器","year":1930.0,"address":"徳島県徳島市八万町向寺山1","latitude":34.03945541381836,"longitude":134.52870178222656,"category":"博物館/庁舎","description":"","image_url":""},{"id":6959,"title":"国際東船場113ビル 旧高原ビル","architect":"鈴木禎次","year":1932.0,"address":"徳島県徳島市東船場町1-13","latitude":34.07034683227539,"longitude":134.54893493652344,"category":"テナントビル/カフェ","description":"","image_url":""},{"id":6960,"title":"稱名寺本堂","architect":"山本長水","year":2003.0,"address":"高知県高知市升形8-19","latitude":33.556331634521484,"longitude":133.52796936035156,"category":"寺院","description":"","image_url":""},{"id":6961,"title":"ICビル","architect":"黒川紀章","year":1985.0,"address":"和歌山県和歌山市吹上1-1-19","latitude":34.22446823120117,"longitude":135.1701202392578,"category":"オフィスビル","description":"","image_url":""},{"id":6962,"title":"和歌山県庁舎 本館","architect":"増田八郎","year":1938.0,"address":"和歌山県和歌山市小松原通1-1-1","latitude":34.22602844238281,"longitude":135.16748046875,"category":"庁舎","description":"","image_url":""},{"id":6963,"title":"俳聖殿","architect":"伊東忠太","year":1942.0,"address":"三重県伊賀市上野丸之内117-4","latitude":34.771846771240234,"longitude":136.12852478027344,"category":"観光施設","description":"","image_url":""},{"id":6964,"title":"近鉄宇治山田駅","architect":"久野節","year":1931.0,"address":"三重県伊勢市岩渕2-1-43","latitude":34.48819351196289,"longitude":136.71380615234375,"category":"駅","description":"","image_url":""},{"id":6965,"title":"奈良近鉄ビル","architect":"坂倉建築研究所","year":1970.0,"address":"奈良県奈良市東向中町28","latitude":34.68408203125,"longitude":135.8281707763672,"category":"駅/テナントビル","description":"","image_url":""},{"id":6966,"title":"奈良県立美術館","architect":"片山光生","year":1973.0,"address":"奈良県奈良市登大路町10-6","latitude":34.68587875366211,"longitude":135.83255004882812,"category":"美術館","description":"","image_url":""},{"id":6967,"title":"奈良市総合観光案内所 旧JR奈良駅舎","architect":"柴田四郎+増田誠一","year":1909.0,"address":"奈良県奈良市三条本町1082","latitude":34.68172836303711,"longitude":135.81983947753906,"category":"観光施設/駅","description":"","image_url":""},{"id":6968,"title":"JR神戸駅","architect":"柴田四郎","year":1934.0,"address":"兵庫県神戸市中央区相生町3-1-1","latitude":34.679508209228516,"longitude":135.1782684326172,"category":"駅","description":"","image_url":""},{"id":6969,"title":"神戸メリケンビル 旧神戸郵船ビル","architect":"曽禰達蔵+中條精一郎","year":1918.0,"address":"兵庫県神戸市中央区海岸通1-1-1","latitude":34.686283111572266,"longitude":135.18943786621094,"category":"オフィスビル/洋館","description":"1953年改修","image_url":""},{"id":6970,"title":"新港貿易会館","architect":"不明","year":1930.0,"address":"兵庫県神戸市中央区新港町8-2","latitude":34.68453598022461,"longitude":135.1988983154297,"category":"オフィスビル/洋館","description":"","image_url":""},{"id":6971,"title":"芝川ビル","architect":"渋谷五郎+本間乙彦","year":1927.0,"address":"大阪府大阪市中央区伏見町3-3-3","latitude":34.68903732299805,"longitude":135.5018310546875,"category":"テナントビル","description":"","image_url":""},{"id":6972,"title":"ダイビル本館","architect":"渡辺節+村野藤吾+日建設計","year":1925.0,"address":"大阪府大阪市北区中之島3-6-32","latitude":34.69322204589844,"longitude":135.49288940429688,"category":"オフィスビル","description":"旧ダイビルのファサードを復元、継承し2013年ダイビル本館が竣工。旧ダイビル設計監督：渡辺節 製図主任：村野藤吾","image_url":""},{"id":6973,"title":"ルポンドシエルビル 旧大林組本店ビル","architect":"大林組","year":1926.0,"address":"大阪府大阪市中央区北浜東6-9","latitude":34.69038772583008,"longitude":135.51104736328125,"category":"オフィスビル/博物館","description":"3Fに大林組歴史館","image_url":""},{"id":6974,"title":"三井住友銀行大阪中央","architect":"曽禰達蔵+中條精一郎","year":1936.0,"address":"大阪府大阪市中央区高麗橋1-8-13","latitude":34.689781188964844,"longitude":135.5070037841797,"category":"金融機関","description":"","image_url":""},{"id":6975,"title":"新井ビル 旧報徳銀行大阪支店","architect":"河合浩蔵","year":1922.0,"address":"大阪府大阪市中央区今橋2-1-1","latitude":34.69075393676758,"longitude":135.5063934326172,"category":"テナントビル","description":"","image_url":""},{"id":6976,"title":"伏見ビル","architect":"長田岩次郎","year":1923.0,"address":"大阪府大阪市中央区伏見町2-2-3","latitude":34.68898010253906,"longitude":135.50572204589844,"category":"テナントビル","description":"","image_url":""},{"id":6977,"title":"青山ビル","architect":"伊東恒治","year":1921.0,"address":"大阪府大阪市中央区伏見町2-2-6","latitude":34.68898010253906,"longitude":135.5059356689453,"category":"テナントビル","description":"","image_url":""},{"id":6978,"title":"船場ビルディング","architect":"村上徹一","year":1925.0,"address":"大阪府大阪市中央区淡路町2-5-8","latitude":34.687103271484375,"longitude":135.5041961669922,"category":"オフィスビル","description":"","image_url":""},{"id":6979,"title":"BIGI 1st","architect":"安藤忠雄","year":1985.0,"address":"大阪府大阪市中央区東心斎橋1-19-6","latitude":34.674434661865234,"longitude":135.50314331054688,"category":"テナントビル","description":"","image_url":""},{"id":6980,"title":"BIGI 2nd","architect":"安藤忠雄","year":1985.0,"address":"大阪府大阪市中央区心斎橋筋1-3-28","latitude":34.67424774169922,"longitude":135.50173950195312,"category":"テナントビル","description":"","image_url":""},{"id":6981,"title":"生駒ビルヂング","architect":"宗兵蔵","year":1930.0,"address":"大阪府大阪市中央区平野町2-2-12","latitude":34.68754196166992,"longitude":135.50636291503906,"category":"テナントビル","description":"","image_url":""},{"id":6982,"title":"高麗橋野村ビルディング","architect":"安井武雄","year":1927.0,"address":"大阪府大阪市中央区高麗橋2-1-2","latitude":34.68983840942383,"longitude":135.50640869140625,"category":"オフィスビル","description":"","image_url":""},{"id":6983,"title":"高島屋東別館 旧松坂屋大阪店","architect":"鈴木禎次","year":1937.0,"address":"大阪府大阪市浪速区日本橋3-5-25","latitude":34.66234588623047,"longitude":135.50631713867188,"category":"テナントビル/ホテル","description":"ホテル・シタディーンなんば大阪も併設","image_url":""},{"id":6984,"title":"大阪市立美術館","architect":"伊藤正文+海上静一+日高胖","year":1936.0,"address":"大阪府大阪市天王寺区茶臼山町1-82","latitude":34.65007781982422,"longitude":135.51048278808594,"category":"美術館","description":"2025年3月リニューアルオープン","image_url":""},{"id":6985,"title":"南海ビルディング","architect":"久野節+大江匡","year":1932.0,"address":"大阪府大阪市中央区難波5-1-5","latitude":34.66468048095703,"longitude":135.5010223388672,"category":"テナントビル","description":"2009年プランテック大江匡により大規模改修","image_url":""},{"id":6986,"title":"日本工芸館","architect":"浦辺鎮太郎","year":1960.0,"address":"大阪府大阪市浪速区難波中3-7-6","latitude":34.6611328125,"longitude":135.4986572265625,"category":"美術館","description":"解体","image_url":""},{"id":6987,"title":"ラ・ポルト心斎橋","architect":"大江匡","year":2007.0,"address":"大阪府大阪市中央区心斎橋筋1-1-10","latitude":34.674827575683594,"longitude":135.50172424316406,"category":"テナントビル","description":"","image_url":""},{"id":6988,"title":"GC 大阪営業所","architect":"坂茂","year":2000.0,"address":"大阪府大阪市中央区南新町2-3-17","latitude":34.68437576293945,"longitude":135.51280212402344,"category":"オフィスビル","description":"","image_url":""},{"id":6989,"title":"烏丸七条ビル 旧野村生命京都ビル","architect":"安井武雄","year":1937.0,"address":"京都府京都市下京区東境町191-2","latitude":34.98907470703125,"longitude":135.7594757080078,"category":"オフィスビル","description":"","image_url":""},{"id":6990,"title":"京つけもの西利本店","architect":"若林広幸","year":1990.0,"address":"京都府京都市下京区堀川七条上る西本願寺前菱屋町150-1","latitude":34.98974609375,"longitude":135.75343322753906,"category":"店舗","description":"","image_url":""},{"id":6991,"title":"旧北国銀行／旧山口銀行 京都支店","architect":"辰野金吾+片岡安","year":1916.0,"address":"京都府京都市中京区手洗水町645","latitude":35.00602340698242,"longitude":135.7594451904297,"category":"オフィスビル/金融機関","description":"現在は芸術祭の事務局が2Fに入っている模様","image_url":""},{"id":6992,"title":"岩手医科大学1号館 旧岩手病院診療棟","architect":"辰野金吾+葛西萬司","year":1926.0,"address":"岩手県盛岡市内丸19-1","latitude":39.70490646362305,"longitude":141.15142822265625,"category":"大学","description":"","image_url":""},{"id":6993,"title":"盛岡信用金庫本店 旧盛岡貯蓄銀行本店","architect":"葛西萬司","year":1927.0,"address":"岩手県盛岡市中ノ橋通1-4-6","latitude":39.70071792602539,"longitude":141.15586853027344,"category":"金融機関","description":"","image_url":""},{"id":6994,"title":"京都市京セラ美術館","architect":"前田健二郎+青木淳+西澤徹夫","year":1933.0,"address":"京都府京都市左京区岡崎円勝寺町124","latitude":35.01285171508789,"longitude":135.78358459472656,"category":"美術館","description":"2020年3月末まで改修閉館。改修設計は青木淳・西澤徹夫。再オープン後の館長は青木淳が務める","image_url":""},{"id":6995,"title":"西本願寺 伝道院 旧真宗信徒生命保険本社屋","architect":"伊東忠太","year":1912.0,"address":"京都府京都市下京区玉本町196","latitude":34.99136734008789,"longitude":135.75401306152344,"category":"研究施設/金融機関","description":"","image_url":""},{"id":6996,"title":"ごうぎんカラコロ美術館 旧八束銀行本店","architect":"鴻池組","year":1926.0,"address":"島根県松江市殿町412","latitude":35.470367431640625,"longitude":133.05422973632812,"category":"美術館","description":"","image_url":""},{"id":6997,"title":"松山地方気象台 旧愛媛県立松山測候所","architect":"戸村秀雄","year":1928.0,"address":"愛媛県松山市北持田町102","latitude":33.843711853027344,"longitude":132.77761840820312,"category":"公共施設/洋館","description":"","image_url":""},{"id":6998,"title":"奥村記念館","architect":"奥村組","year":2007.0,"address":"奈良県奈良市春日野町4","latitude":34.683937072753906,"longitude":135.83856201171875,"category":"博物館","description":"","image_url":""},{"id":6999,"title":"南都銀行本店 旧六十八銀行奈良支店","architect":"長野宇平治","year":1926.0,"address":"奈良県奈良市橋本町16","latitude":34.682220458984375,"longitude":135.82858276367188,"category":"金融機関","description":"","image_url":""},{"id":7000,"title":"三軒茶屋の家 ブルーボトルコーヒー 三軒茶屋カフェ","architect":"長坂常","year":2017.0,"address":"東京都世田谷区三軒茶屋1-33-18","latitude":35.642154693603516,"longitude":139.67144775390625,"category":"カフェ","description":"","image_url":""}]}