{"page":255,"total_pages":290,"items_per_page":50,"total_items":14467,"items":[{"id":12701,"title":"榎屋旅館","architect":"塩塚隆生","year":2023.0,"address":"大分県由布市湯布院町大字川上1086-2","latitude":33.26604461669922,"longitude":131.36276245117188,"category":"旅館","description":"エレベーター棟増築、本館棟及び茶房棟の内外装大規模改修","image_url":""},{"id":12702,"title":"インドアテニススクール ラフ森町校","architect":"塩塚隆生","year":2005.0,"address":"大分県大分市森町241-1","latitude":33.229087829589844,"longitude":131.6808624267578,"category":"スポーツ施設/体育館","description":"","image_url":""},{"id":12703,"title":"兜町第7平和ビル","architect":"大成建設+スピーク","year":1979.0,"address":"東京都中央区日本橋兜町6-7","latitude":35.68182373046875,"longitude":139.77871704101562,"category":"オフィスビル","description":"2022年スピークにより改修","image_url":""},{"id":12704,"title":"ミュージックテラス Kアリーナ横浜・ヒルトン横浜・Kタワー横浜","architect":"野沢誠+梓設計+国建+鹿島建設","year":2023.0,"address":"神奈川県横浜市西区みなとみらい6-2-14","latitude":35.46445846557617,"longitude":139.63055419921875,"category":"複合ビル/ホール・劇場","description":"総合クリエイター：野沢誠","image_url":""},{"id":12705,"title":"飯能信用金庫本店","architect":"久米設計","year":2000.0,"address":"埼玉県飯能市栄町24-9","latitude":35.85215377807617,"longitude":139.32644653320312,"category":"金融機関","description":"新建築　2002年2月号掲載","image_url":""},{"id":12706,"title":"こうわ認定こども園海田第二・こうわ児童クラブ海田","architect":"仙田満","year":2023.0,"address":"広島県安芸郡海田町西浜3-21","latitude":34.37030029296875,"longitude":132.54454040527344,"category":"幼稚園","description":"","image_url":""},{"id":12707,"title":"訓子府町幼保連携型認定こども園わくわく園","architect":"久米設計","year":2016.0,"address":"北海道常呂郡訓子府町旭町75","latitude":43.72552490234375,"longitude":143.74057006835938,"category":"幼稚園","description":"公共建築賞","image_url":""},{"id":12708,"title":"アンダースロー","architect":"木津潤平","year":2013.0,"address":"京都府京都市左京区北白川久保田町21地下","latitude":35.02851867675781,"longitude":135.79127502441406,"category":"ホール・劇場/カフェ","description":"近くにタッパウェイ(カフェ)2023竣工","image_url":""},{"id":12709,"title":"The Market SE1","architect":"木津潤平","year":2009.0,"address":"神奈川県藤沢市片瀬海岸1-6-6","latitude":35.31052017211914,"longitude":421458656.0,"category":"店舗","description":"","image_url":""},{"id":12710,"title":"広島南警察署庁舎","architect":"吉田豊+大旗連合建築設計","year":2023.0,"address":"広島県広島市南区出汐2-4-65","latitude":34.37710952758789,"longitude":132.4728546142578,"category":"警察・消防署","description":"","image_url":""},{"id":12711,"title":"新産業支援センター しまのま","architect":"Fadr.建築設計舎","year":2023.0,"address":"秋田県にかほ市象潟町浜ノ田5","latitude":39.20343780517578,"longitude":139.90725708007812,"category":"シェアオフィス","description":"ワークショップオフィス。象潟新産業支援センターをリニューアル","image_url":""},{"id":12712,"title":"365アニバーサリー","architect":"増谷高根+長﨑健一","year":2016.0,"address":"埼玉県和光市下新倉2-49-1","latitude":35.78632354736328,"longitude":139.62066650390625,"category":"店舗/レストラン","description":"建築設計：増谷高根建築研究所  ／　インテリアデザイン：KROW","image_url":""},{"id":12713,"title":"藤乃花コートハウス","architect":"藤本高志","year":2019.0,"address":"大阪府大阪市東成区大今里南4-1-16","latitude":34.667625427246094,"longitude":135.5523681640625,"category":"集合住宅","description":"","image_url":""},{"id":12714,"title":"Casa Verde 御所西","architect":"藤本高志","year":2015.0,"address":"京都府京都市上京区米屋町240","latitude":35.01852798461914,"longitude":135.7530059814453,"category":"集合住宅","description":"","image_url":""},{"id":12715,"title":"LuXe梅田西","architect":"藤本高志","year":2022.0,"address":"大阪府大阪市北区大淀中2-3-15","latitude":34.70293045043945,"longitude":135.48500061035156,"category":"集合住宅","description":"","image_url":""},{"id":12716,"title":"LuXe新大阪","architect":"藤本高志","year":2022.0,"address":"大阪府大阪市淀川区西中島7-7-20","latitude":34.73134231567383,"longitude":135.49705505371094,"category":"集合住宅","description":"","image_url":""},{"id":12717,"title":"LuXe梅田東","architect":"藤本高志","year":2021.0,"address":"大阪府大阪市北区豊崎1-6-2","latitude":34.71051788330078,"longitude":135.5036163330078,"category":"集合住宅","description":"","image_url":""},{"id":12718,"title":"テラスハウス福島","architect":"藤本高志","year":2021.0,"address":"大阪府大阪市福島区鷺洲4-4-4","latitude":34.699337005615234,"longitude":135.48065185546875,"category":"集合住宅","description":"リノベーション","image_url":""},{"id":12719,"title":"竹内魚店","architect":"藤本高志","year":2021.0,"address":"兵庫県豊岡市城崎町湯島117","latitude":35.62455749511719,"longitude":134.81295776367188,"category":"店舗","description":"","image_url":""},{"id":12720,"title":"きさぬき動物病院","architect":"宇住庵設計","year":2005.0,"address":"鹿児島県鹿屋市札元2-3800-3","latitude":31.400390625,"longitude":130.8721466064453,"category":"個人医院","description":"","image_url":""},{"id":12721,"title":"南大隅町立第一佐多中学校","architect":"宇住庵設計","year":null,"address":"鹿児島県肝属郡南大隅町佐多伊座敷3474","latitude":31.089149475097656,"longitude":130.6996307373047,"category":"学校","description":"","image_url":""},{"id":12722,"title":"旧郡小学校","architect":"宇住庵設計","year":null,"address":"鹿児島県肝属郡南大隅町佐多郡1583","latitude":31.066476821899414,"longitude":130.7317352294922,"category":"学校","description":"","image_url":""},{"id":12723,"title":"新宿区シルバーハウジングプロジェクト 早稲田南町コーポラス","architect":"村上美奈子","year":1995.0,"address":"東京都新宿区早稲田南町21","latitude":35.703739166259766,"longitude":139.7242889404297,"category":"集合住宅","description":"円形を多用したモダンな区営住宅です。新建築1995年5月号掲載","image_url":""},{"id":12724,"title":"淑徳与野中学・高等学校","architect":"佐藤総合計画","year":2015.0,"address":"埼玉県さいたま市中央区上落合5-19-18","latitude":35.89754867553711,"longitude":139.62771606445312,"category":"学校","description":"","image_url":""},{"id":12725,"title":"東京サマーランド","architect":"石本建築事務所","year":1967.0,"address":"東京都あきる野市上代継600","latitude":35.717567443847656,"longitude":139.27662658691406,"category":"テーマパーク","description":"","image_url":""},{"id":12726,"title":"八戸市総合保健センター","architect":"久米設計","year":2020.0,"address":"青森県八戸市田向3-6-1","latitude":40.491512298583984,"longitude":141.51043701171875,"category":"福祉センター","description":"","image_url":""},{"id":12727,"title":"八戸市総合健診センター","architect":"久米設計","year":2021.0,"address":"青森県八戸市田向3-6-15","latitude":40.49102020263672,"longitude":141.51097106933594,"category":"福祉センター","description":"","image_url":""},{"id":12728,"title":"米沢市庁舎","architect":"久米設計","year":2021.0,"address":"山形県米沢市金池5-2-25","latitude":37.922019958496094,"longitude":140.11627197265625,"category":"庁舎","description":"","image_url":""},{"id":12729,"title":"南相馬市立総合病院 脳卒中センター","architect":"久米設計","year":2017.0,"address":"福島県南相馬市原町区高見町2-54-6","latitude":37.63687515258789,"longitude":140.9852752685547,"category":"病院","description":"","image_url":""},{"id":12730,"title":"エルピザの里","architect":"ゼロ・アーキテクツ プラス コンサルティング","year":2021.0,"address":"千葉県千葉市緑区高田町149-2","latitude":35.57112121582031,"longitude":140.2115020751953,"category":"養護施設/福祉センター","description":"","image_url":""},{"id":12731,"title":"山内ビル アガット肥後橋","architect":"今北乙吉","year":1930.0,"address":"大阪府大阪市西区土佐堀1-1-4","latitude":34.69243240356445,"longitude":135.49566650390625,"category":"テナントビル","description":"","image_url":""},{"id":12732,"title":"盆栽四季の家","architect":"不明","year":1989.0,"address":"埼玉県さいたま市北区盆栽町267-1","latitude":35.92672348022461,"longitude":139.63323974609375,"category":"和風住宅","description":"氷川神社宮司・東角井光臣家の居宅の一部を移築模写復元","image_url":""},{"id":12733,"title":"大宮公園駅","architect":"坂倉建築研究所","year":2016.0,"address":"埼玉県さいたま市大宮区寿能町1-172-1","latitude":35.923763275146484,"longitude":139.63299560546875,"category":"駅","description":"2017年度鉄道建築協会賞 (一般社団法人 鉄道建築協会)_x000D_\n_x000D_\n大宮駅から２駅目の東武大宮公園駅の駅舎の建て替え。旧駅舎のイメージを継承して屋根のある平屋の駅舎とした。_x000D_\n駅前には大きなヒマラヤスギがあり、その木が駅のロータリーの中心となるように配棟した。_x000D_\n駅周辺には様々な文化施設があり、それらの観光の拠点となるようインフォメーションスペースを設けている。屋根は天然スレート、軒は木、壁は煉瓦タイルと素材に特徴があるが、駅周辺にある様々な文化施設から素材のイメージを引用して地域に馴染んた建物を目指した。","image_url":""},{"id":12734,"title":"安芸津歳實コーヒー焙煎所","architect":"林恭正","year":2019.0,"address":"広島県東広島市安芸津町三津3572-1","latitude":34.321136474609375,"longitude":132.81906127929688,"category":"カフェ","description":"","image_url":""},{"id":12735,"title":"日本福音ルーテルむさしの教会","architect":"河野通祐","year":1958.0,"address":"東京都杉並区下井草1-16-7","latitude":35.716670989990234,"longitude":139.63487243652344,"category":"教会","description":"土浦亀城のもとで働き、独立してからは児童施の設計で知られた建築家の数少ない現存作品。","image_url":""},{"id":12736,"title":"旧摩耶観光ホテル","architect":"今北乙吉","year":1929.0,"address":"兵庫県神戸市灘区畑原344-7","latitude":34.72763442993164,"longitude":135.21273803710938,"category":"遺跡/ホテル","description":"廃墟として有名。立ち入り禁止","image_url":""},{"id":12737,"title":"ZOOM戸越銀座","architect":"小山光","year":2018.0,"address":"東京都品川区戸越2-5-10","latitude":35.61411666870117,"longitude":139.71934509277344,"category":"集合住宅","description":"","image_url":""},{"id":12738,"title":"城西大学坂戸キャンパス 22号館","architect":"阿部仁史+久米設計","year":2019.0,"address":"埼玉県坂戸市けやき台1-25","latitude":35.9315185546875,"longitude":139.34165954589844,"category":"大学","description":"","image_url":""},{"id":12739,"title":"東松島市立鳴瀬桜華小学校","architect":"阿部仁史","year":2021.0,"address":"宮城県東松島市小野宮前31","latitude":38.39982223510742,"longitude":141.1674346923828,"category":"学校","description":"","image_url":""},{"id":12740,"title":"URASHIMA VILLAGE","architect":"金丸工務店","year":2020.0,"address":"香川県三豊市詫間町大浜乙17-12","latitude":34.22087860107422,"longitude":133.6131134033203,"category":"コテージ","description":"一棟貸し","image_url":""},{"id":12741,"title":"丸亀市庁舎","architect":"佐藤総合計画","year":2021.0,"address":"香川県丸亀市大手町2-4-21","latitude":34.28986358642578,"longitude":133.79873657226562,"category":"庁舎","description":"","image_url":""},{"id":12742,"title":"わら家 改修計画","architect":"川添善行+木村拓実","year":2023.0,"address":"香川県高松市屋島中町91","latitude":34.3437385559082,"longitude":134.10824584960938,"category":"レストラン","description":"","image_url":""},{"id":12743,"title":"武岡皮膚科クリニック","architect":"富永恒太","year":2022.0,"address":"香川県丸亀市原田町1638","latitude":34.25533676147461,"longitude":133.78738403320312,"category":"個人医院","description":"","image_url":""},{"id":12744,"title":"まんのう町琴南総合センター","architect":"齊藤正","year":2021.0,"address":"香川県仲多度郡まんのう町川東1496-1","latitude":34.1108512878418,"longitude":133.978271484375,"category":"庁舎","description":"","image_url":""},{"id":12745,"title":"タイレルファクトリー","architect":"齊藤正","year":2015.0,"address":"香川県さぬき市寒川町神前1430-1","latitude":34.28521728515625,"longitude":134.21185302734375,"category":"低層オフィス/工場","description":"","image_url":""},{"id":12746,"title":"アクアプランニング","architect":"齊藤正","year":2016.0,"address":"岡山県岡山市北区野田3-11-35","latitude":34.65198516845703,"longitude":133.8994903564453,"category":"低層オフィス","description":"2022年増築棟竣工","image_url":""},{"id":12747,"title":"Cygames 佐賀ビル","architect":"富永恒太","year":2020.0,"address":"佐賀県佐賀市栄町5-9","latitude":33.26527404785156,"longitude":130.3013458251953,"category":"低層オフィス","description":"","image_url":""},{"id":12748,"title":"灸まん美術館","architect":"磯野達","year":1991.0,"address":"香川県善通寺市大麻町338","latitude":34.19956588745117,"longitude":133.81170654296875,"category":"美術館","description":"","image_url":""},{"id":12749,"title":"観音寺市ちょうさ会館","architect":"磯野達","year":1993.0,"address":"香川県観音寺市豊浜町姫浜982","latitude":34.08452606201172,"longitude":133.64414978027344,"category":"博物館","description":"","image_url":""},{"id":12750,"title":"ふらっと仏生山 高松市仏生山交流センター","architect":"磯野達","year":2021.0,"address":"香川県高松市仏生山町甲218-1","latitude":34.284297943115234,"longitude":134.04078674316406,"category":"公民館・交流施設","description":"","image_url":""}]}