{"page":163,"total_pages":290,"items_per_page":50,"total_items":14467,"items":[{"id":8101,"title":"第三永伸アパート","architect":"水谷元+奈良祥司","year":2018.0,"address":"福岡県福岡市博多区美野島2-19-16","latitude":33.57905578613281,"longitude":130.4168243408203,"category":"集合住宅","description":"","image_url":""},{"id":8102,"title":"犬吠テラステラス","architect":"篠崎弘之","year":2018.0,"address":"千葉県銚子市犬吠埼9575","latitude":35.707576751708984,"longitude":140.86740112304688,"category":"店舗/カフェ/観光施設","description":"","image_url":""},{"id":8103,"title":"テーブルハット かくれんぼ","architect":"篠崎弘之","year":2011.0,"address":"神奈川県小田原市柳新田80-4","latitude":35.29806137084961,"longitude":139.14166259765625,"category":"カフェ","description":"","image_url":""},{"id":8104,"title":"道の駅はなぞの","architect":"篠崎弘之","year":2017.0,"address":"埼玉県深谷市小前田458-1","latitude":36.12186813354492,"longitude":139.227294921875,"category":"PA・道の駅","description":"","image_url":""},{"id":8105,"title":"ヤオコー 新本社","architect":"伊東豊雄","year":2018.0,"address":"埼玉県川越市新宿町1-10-1","latitude":35.904170989990234,"longitude":139.48214721679688,"category":"低層オフィス","description":"","image_url":""},{"id":8106,"title":"LOG","architect":"ビジョイ・ジェイン","year":2018.0,"address":"広島県尾道市東土堂町11-12","latitude":34.40902328491211,"longitude":133.199462890625,"category":"ホテル/カフェ","description":"1963年築のアパートをホテルとしてリノベーション","image_url":""},{"id":8107,"title":"高木学園附属幼稚園","architect":"隈研吾","year":2018.0,"address":"神奈川県横浜市港北区菊名7-3-30","latitude":35.51518630981445,"longitude":139.6302490234375,"category":"幼稚園","description":"","image_url":""},{"id":8108,"title":"スパ＆ホテル水春 松井山手","architect":"山﨑健太郎+プレイス総合計画","year":2018.0,"address":"京都府京田辺市山手中央5-1","latitude":34.8347282409668,"longitude":135.72349548339844,"category":"ホテル","description":"","image_url":""},{"id":8109,"title":"あまみ商工会アンテナショップ 奄美","architect":"隈研吾","year":2018.0,"address":"東京都武蔵野市吉祥寺本町1-1-9","latitude":35.703712463378906,"longitude":139.5792999267578,"category":"店舗/レストラン","description":"","image_url":""},{"id":8110,"title":"ニューライトポタリー","architect":"今津康夫","year":2018.0,"address":"奈良県奈良市二条大路南5−1−40","latitude":34.686092376708984,"longitude":135.78909301757812,"category":"店舗","description":"","image_url":""},{"id":8111,"title":"クロノスドエル","architect":"藤森雅彦+赤池友季子","year":2018.0,"address":"広島県広島市安佐南区大町東2-4","latitude":34.463016510009766,"longitude":132.47010803222656,"category":"集合住宅/住宅","description":"設計協力：赤池友季子","image_url":""},{"id":8112,"title":"アルファマトリックスビル","architect":"下吹越武人","year":2008.0,"address":"東京都中央区銀座3-9-6","latitude":35.67156982421875,"longitude":139.76791381835938,"category":"テナントビル","description":"","image_url":""},{"id":8113,"title":"MOGANA","architect":"山口隆","year":2018.0,"address":"京都市中京区小川通御池下ル壺屋町450","latitude":35.01026916503906,"longitude":135.75430297851562,"category":"ホテル","description":"","image_url":""},{"id":8114,"title":"ぶなの木保育園","architect":"山田伸彦","year":2018.0,"address":"埼玉県加須市間口1120-1","latitude":36.12278366088867,"longitude":139.66946411132812,"category":"幼稚園","description":"","image_url":""},{"id":8115,"title":"えんかふぇ むすび堂","architect":"山田伸彦","year":2017.0,"address":"埼玉県久喜市伊坂145-1","latitude":36.13433837890625,"longitude":139.6887664794922,"category":"児童施設/カフェ","description":"","image_url":""},{"id":8116,"title":"星野リゾート 界 遠州 改修","architect":"山田伸彦","year":2018.0,"address":"静岡県浜松市西区舘山寺町399-1","latitude":34.76215362548828,"longitude":137.62057495117188,"category":"旅館","description":"湯上がり処、客室、食事処の改修。2010年に東利恵設計で改修","image_url":""},{"id":8117,"title":"大府パーキングエリア 上り","architect":"隈研吾","year":2018.0,"address":"愛知県大府市長草町石原57","latitude":35.0310173034668,"longitude":136.93215942382812,"category":"PA・道の駅","description":"","image_url":""},{"id":8118,"title":"阿久比パーキングエリア 下り","architect":"隈研吾","year":2018.0,"address":"愛知県知多郡阿久比町卯坂上親田 阿久比パーキングエリア下り","latitude":34.934749603271484,"longitude":136.90362548828125,"category":"PA・道の駅","description":"","image_url":""},{"id":8119,"title":"豊橋市美術博物館","architect":"河合松永建築事務所","year":1978.0,"address":"愛知県豊橋市今橋町3-1","latitude":34.76933670043945,"longitude":137.39480590820312,"category":"美術館/博物館","description":"","image_url":""},{"id":8120,"title":"WE HOTEL TOYA","architect":"隈研吾","year":2018.0,"address":"北海道虻田郡洞爺湖町洞爺町293-1","latitude":42.64257049560547,"longitude":140.8234405517578,"category":"ホテル","description":"","image_url":""},{"id":8121,"title":"中村学園女子高等学校・中学校","architect":"日建設計+永田誼和","year":2010.0,"address":"福岡県福岡市城南区鳥飼7-10-38","latitude":33.57600402832031,"longitude":130.36465454101562,"category":"学校","description":"","image_url":""},{"id":8122,"title":"道の駅 パティオにいがた","architect":"小林純子","year":2013.0,"address":"新潟県見附市今町1-3358","latitude":37.54637908935547,"longitude":138.8834228515625,"category":"PA・道の駅","description":"","image_url":""},{"id":8123,"title":"みつけイングリッシュガーデン子供広場トイレ棟A","architect":"小林純子","year":2008.0,"address":"新潟県見附市新幸町6-35","latitude":37.53705596923828,"longitude":138.8897705078125,"category":"トイレ","description":"","image_url":""},{"id":8124,"title":"新東名高速道路清水PA トイレ","architect":"小林純子","year":2012.0,"address":"静岡県静岡市清水区小河内885-15","latitude":35.13154220581055,"longitude":138.5126495361328,"category":"トイレ","description":"","image_url":""},{"id":8125,"title":"浜松磐田信用金庫高丘支店","architect":"日建設計","year":2012.0,"address":"静岡県浜松市中区高丘北2-8-6","latitude":34.760990142822266,"longitude":137.70196533203125,"category":"金融機関","description":"","image_url":""},{"id":8126,"title":"小浜市まちの駅","architect":"宗本晋作","year":2016.0,"address":"福井県小浜市小浜白鬚10-1","latitude":35.495174407958984,"longitude":135.74171447753906,"category":"PA・道の駅","description":"","image_url":""},{"id":8127,"title":"武雄市庁舎","architect":"チームラボアーキテクツ+石橋建築事務所+藤崎設計事務所","year":2018.0,"address":"佐賀県武雄市武雄町大字昭和12-10","latitude":33.19476318359375,"longitude":130.02151489257812,"category":"庁舎","description":"","image_url":""},{"id":8128,"title":"須賀川市民交流センター tette","architect":"畝森秦行+石本建築事務所","year":2018.0,"address":"福島県須賀川市中町4-1","latitude":37.288909912109375,"longitude":140.37493896484375,"category":"総合文化施設/図書館/博物館","description":"","image_url":""},{"id":8129,"title":"Apple 京都","architect":"ノーマン・フォスター","year":2018.0,"address":"京都府京都市下京区四条通高倉東入立売中之町83-1","latitude":35.00390625,"longitude":135.7627410888672,"category":"店舗","description":"","image_url":""},{"id":8130,"title":"農林水産省三番町共用会議所別館 旧農林省大臣公邸三番町分庁舎","architect":"大江宏","year":1956.0,"address":"東京都千代田区九段南2-1-5","latitude":35.69244384765625,"longitude":139.74691772460938,"category":"住宅/低層オフィス","description":"11月末～12月に一般公開。山縣有朋邸庭園跡","image_url":""},{"id":8131,"title":"みしま未来研究所","architect":"成瀬・猪熊建築設計事務所","year":2018.0,"address":"静岡県三島市中央町6-2","latitude":35.120765686035156,"longitude":138.916259765625,"category":"シェアオフィス/カフェ","description":"幼稚園の改修","image_url":""},{"id":8132,"title":"小樽市民会館","architect":"矢野良","year":1963.0,"address":"北海道小樽市花園5-3-1","latitude":43.18956756591797,"longitude":140.9928741455078,"category":"ホール・劇場","description":"","image_url":""},{"id":8133,"title":"唐津市玄海海中展望塔","architect":"清家清","year":1974.0,"address":"佐賀県唐津市鎮西町波戸1628-1","latitude":33.55599594116211,"longitude":129.85223388671875,"category":"展望台","description":"","image_url":""},{"id":8134,"title":"唐津市文化体育館","architect":"佐藤総合計画","year":1981.0,"address":"佐賀県唐津市和多田大土井1-1","latitude":33.43262481689453,"longitude":129.99102783203125,"category":"体育館","description":"","image_url":""},{"id":8135,"title":"唐津市民会館・曳山展示場","architect":"山下寿郎+村野藤吾","year":1970.0,"address":"佐賀県唐津市西城内6-33","latitude":33.45138168334961,"longitude":129.96876525878906,"category":"ホール・劇場/博物館","description":"設計最高顧問に村野藤吾","image_url":""},{"id":8136,"title":"和光荘 旧野口喜一郎邸","architect":"佐立忠雄","year":1922.0,"address":"北海道小樽市潮見台2-4-1","latitude":43.17715835571289,"longitude":141.00758361816406,"category":"洋館","description":"","image_url":""},{"id":8137,"title":"小樽イルポンテ","architect":"倉本龍彦","year":1988.0,"address":"北海道小樽市色内2-1-19","latitude":43.20095443725586,"longitude":141.00038146972656,"category":"体験施設","description":"","image_url":""},{"id":8138,"title":"小樽バイン 旧北海道銀行本店","architect":"長野宇平治","year":1912.0,"address":"北海道小樽市色内1-8-6","latitude":43.19677734375,"longitude":141.00079345703125,"category":"洋館/レストラン/金融機関","description":"","image_url":""},{"id":8139,"title":"トップジェント・ファッション・コア 旧第一銀行小樽支店","architect":"田辺淳吉","year":1924.0,"address":"北海道小樽市色内1-10-21","latitude":43.196739196777344,"longitude":141.0017852783203,"category":"洋館/店舗","description":"","image_url":""},{"id":8140,"title":"市立小樽文学館・美術館 旧小樽地方貯金局","architect":"小坂秀雄","year":1952.0,"address":"北海道小樽市色内1-9-5","latitude":43.196773529052734,"longitude":140.9998779296875,"category":"博物館/美術館","description":"","image_url":""},{"id":8141,"title":"小樽市庁舎本館","architect":"成田幸一郎","year":1933.0,"address":"北海道小樽市花園2-9-11","latitude":43.190731048583984,"longitude":140.99462890625,"category":"庁舎","description":"","image_url":""},{"id":8142,"title":"旧小樽組合基督教会","architect":"成田幸一郎","year":1926.0,"address":"北海道小樽市花園4-20-18","latitude":43.190277099609375,"longitude":140.9970245361328,"category":"教会","description":"","image_url":""},{"id":8143,"title":"熊野本宮大社 瑞鳳殿","architect":"矢田康順","year":2014.0,"address":"和歌山県田辺市本宮町本宮195-3","latitude":33.838890075683594,"longitude":135.77410888671875,"category":"カフェ/研修施設/宗教施設","description":"","image_url":""},{"id":8144,"title":"熊野古道館","architect":"岡本設計","year":1995.0,"address":"和歌山県田辺市中辺路町栗栖川1222-1","latitude":33.774757385253906,"longitude":135.50375366210938,"category":"観光施設","description":"","image_url":""},{"id":8145,"title":"日高川地域交流センター","architect":"岡本設計","year":2008.0,"address":"和歌山県日高郡日高川町高津尾718-3","latitude":33.95914077758789,"longitude":135.2954559326172,"category":"公民館・交流施設","description":"","image_url":""},{"id":8146,"title":"有田川地域交流センター ALEC","architect":"岡本設計","year":2009.0,"address":"和歌山県有田郡有田川町下津野704","latitude":34.06792449951172,"longitude":135.20941162109375,"category":"公民館・交流施設","description":"","image_url":""},{"id":8147,"title":"ウフウフガーデン","architect":"伊東俊二","year":2012.0,"address":"山形県米沢市赤芝町1627-1","latitude":37.89505386352539,"longitude":140.05519104003906,"category":"店舗/カフェ","description":"","image_url":""},{"id":8148,"title":"旧米沢高等工業学校本館","architect":"中島泉次郎","year":1910.0,"address":"山形県米沢市城南4-3-16","latitude":37.90117645263672,"longitude":140.10452270507812,"category":"洋館","description":"事前申し込みで見学可能","image_url":""},{"id":8149,"title":"九里学園高等学校本校舎 旧米沢女子高等学校","architect":"玉上義男+江部春男+高橋昌義","year":1936.0,"address":"山形県米沢市門東町1-1-72","latitude":37.90728759765625,"longitude":140.11016845703125,"category":"学校/洋館","description":"","image_url":""},{"id":8150,"title":"米沢市医師会館","architect":"山下寿郎","year":1968.0,"address":"山形県米沢市門東町3-3-17","latitude":37.91188430786133,"longitude":140.109619140625,"category":"組合施設","description":"","image_url":""}]}