{"page":120,"total_pages":290,"items_per_page":50,"total_items":14467,"items":[{"id":5951,"title":"市民交流プラザふくちやま ききょう","architect":"安井建築設計","year":2014.0,"address":"京都府福知山市駅前町400","latitude":35.296356201171875,"longitude":135.1194610595703,"category":"公民館・交流施設/図書館","description":"","image_url":""},{"id":5952,"title":"八尾市立八尾図書館 八尾市立青少年センター","architect":"安井建築設計","year":2014.0,"address":"大阪府八尾市本町2-1-12","latitude":34.62701416015625,"longitude":135.60000610351562,"category":"図書館/児童施設","description":"","image_url":""},{"id":5953,"title":"和歌山大学 観光学部校舎","architect":"安井建築設計","year":2011.0,"address":"和歌山県和歌山市栄谷930","latitude":34.26622772216797,"longitude":135.15090942382812,"category":"大学","description":"","image_url":""},{"id":5954,"title":"カトリックなみはや教会","architect":"安井建築設計","year":2011.0,"address":"大阪府大阪市大正区三軒家東5-11-7","latitude":34.659080505371094,"longitude":135.47576904296875,"category":"教会","description":"","image_url":""},{"id":5955,"title":"東京国立近代美術館フィルムセンター相模原分館 映画保存棟Ⅱ","architect":"安井建築設計","year":2011.0,"address":"神奈川県相模原市中央区高根3-1-4","latitude":35.56027603149414,"longitude":139.39427185058594,"category":"公共施設","description":"","image_url":""},{"id":5956,"title":"建国寺 新本堂","architect":"安井建築設計","year":2011.0,"address":"愛知県名古屋市千種区神田町23-16","latitude":35.17500305175781,"longitude":136.94036865234375,"category":"寺院","description":"","image_url":""},{"id":5957,"title":"東京国際空港 国際線旅客ターミナル","architect":"安井建築設計","year":2010.0,"address":"東京都大田区羽田空港2-6-5","latitude":35.54493713378906,"longitude":139.76881408691406,"category":"空港","description":"","image_url":""},{"id":5958,"title":"九州新幹線 新鳥栖駅","architect":"安井建築設計","year":2011.0,"address":"佐賀県鳥栖市原古賀町302-2","latitude":33.3703498840332,"longitude":130.49114990234375,"category":"駅","description":"","image_url":""},{"id":5959,"title":"城崎国際アートセンター","architect":"いるか設計集団","year":2014.0,"address":"兵庫県豊岡市城崎町湯島1062","latitude":35.62909698486328,"longitude":134.7996063232422,"category":"ホール・劇場","description":"","image_url":""},{"id":5960,"title":"オートカフェプレミアム","architect":"駒田建築設計事務所","year":2015.0,"address":"千葉県八千代市大和田新田1143-39","latitude":35.73141860961914,"longitude":140.07322692871094,"category":"店舗/カフェ","description":"","image_url":""},{"id":5961,"title":"白岡ニュータウン リフレの杜コミュニティガーデン街区","architect":"藤村龍至","year":2015.0,"address":"埼玉県白岡市新白岡1-9","latitude":36.041690826416016,"longitude":139.67361450195312,"category":"住宅/都市計画","description":"","image_url":""},{"id":5962,"title":"ボートハウス 大濠パーク","architect":"竹中工務店","year":2015.0,"address":"福岡県福岡市中央区大濠公園1-3","latitude":33.58917999267578,"longitude":130.37628173828125,"category":"モール/カフェ","description":"","image_url":""},{"id":5963,"title":"自転車文化センター","architect":"TANK+建築設計加藤住吉","year":2013.0,"address":"東京都品川区上大崎3-3-1","latitude":35.6338005065918,"longitude":139.71775817871094,"category":"博物館","description":"","image_url":""},{"id":5964,"title":"くらさこ保育所","architect":"窪田勝文","year":2011.0,"address":"広島県山県郡北広島町蔵迫157−2","latitude":34.70526123046875,"longitude":132.5057373046875,"category":"幼稚園","description":"","image_url":""},{"id":5965,"title":"道の駅 但馬のまほろば","architect":"いるか設計集団","year":2006.0,"address":"兵庫県朝来市山東町大月92-6","latitude":35.3112907409668,"longitude":134.87010192871094,"category":"PA・道の駅","description":"","image_url":""},{"id":5966,"title":"朝来市埋蔵文化財センター","architect":"いるか設計集団","year":2006.0,"address":"兵庫県朝来市山東町大月92-6","latitude":35.3116455078125,"longitude":134.86968994140625,"category":"博物館","description":"","image_url":""},{"id":5967,"title":"ゼロコスモロジー 高崎正治都市建築設計事務所","architect":"高崎正治","year":1989.0,"address":"鹿児島県鴨池1-42-22","latitude":31.56594467163086,"longitude":130.54637145996094,"category":"低層オフィス/住宅","description":"","image_url":""},{"id":5968,"title":"セカンドサイト","architect":"平野公基","year":1998.0,"address":"熊本県熊本市中央区花畑町13-10","latitude":32.800636291503906,"longitude":130.70664978027344,"category":"テナントビル","description":"","image_url":""},{"id":5969,"title":"諫早市立図書館","architect":"久米設計","year":2001.0,"address":"長崎県諫早市東小路町6-30","latitude":32.84260559082031,"longitude":130.05274963378906,"category":"図書館","description":"","image_url":""},{"id":5970,"title":"鹿児島県立図書館","architect":"谷口吉郎","year":1979.0,"address":"鹿児島県鹿児島市城山町7-1","latitude":31.59718894958496,"longitude":130.55422973632812,"category":"図書館","description":"","image_url":""},{"id":5971,"title":"宮崎神宮徴古館","architect":"伊東忠太+佐々木岩次郎","year":1909.0,"address":"宮崎県宮崎市神宮2-4-1","latitude":31.936620712280273,"longitude":131.42529296875,"category":"博物館","description":"","image_url":""},{"id":5972,"title":"ピーエスオランジュリ 旧第一銀行熊本支店","architect":"西村好時+トーベン・ビンドネス","year":1919.0,"address":"熊本市中央区中唐人町1","latitude":32.7969856262207,"longitude":130.6986846923828,"category":"低層オフィス","description":"2001年に改修。見学は要事前連絡。","image_url":""},{"id":5973,"title":"諫早市民センター","architect":"武基雄","year":1972.0,"address":"長崎県諫早市東小路町8-5","latitude":32.8439826965332,"longitude":130.0542755126953,"category":"公民館・交流施設","description":"","image_url":""},{"id":5974,"title":"諫早文化会館","architect":"坂倉建築研究所","year":1980.0,"address":"長崎県諫早市宇都町9-2","latitude":32.846561431884766,"longitude":130.0372314453125,"category":"ホール・劇場","description":"","image_url":""},{"id":5975,"title":"サングラム","architect":"小川博央","year":2015.0,"address":"静岡県菊川市堀之内1-1","latitude":34.760162353515625,"longitude":138.08383178710938,"category":"カフェ","description":"","image_url":""},{"id":5976,"title":"ブライダルアクアガーデン ホワイトハウス伊万里","architect":"小川博央","year":2013.0,"address":"佐賀県伊万里市新天町516-11","latitude":33.270477294921875,"longitude":129.87799072265625,"category":"結婚式場","description":"","image_url":""},{"id":5977,"title":"ちよだの森歯科診療所","architect":"小川博央","year":2011.0,"address":"群馬県邑楽郡千代田町赤岩1729-1","latitude":36.21510314941406,"longitude":139.44244384765625,"category":"個人医院","description":"","image_url":""},{"id":5978,"title":"山口育児院","architect":"永見龍一","year":2004.0,"address":"山口県山口市水の上町5-27","latitude":34.188087463378906,"longitude":131.4716339111328,"category":"幼稚園","description":"","image_url":""},{"id":5979,"title":"倉敷市芸文館","architect":"浦辺設計","year":1993.0,"address":"岡山県倉敷市中央1-18-1","latitude":34.59303283691406,"longitude":133.77117919921875,"category":"ホール・劇場","description":"","image_url":""},{"id":5980,"title":"倉敷市民会館","architect":"浦辺鎮太郎","year":1972.0,"address":"岡山県倉敷市本町17-1","latitude":34.595584869384766,"longitude":133.7762908935547,"category":"ホール・劇場","description":"","image_url":""},{"id":5981,"title":"夢みなとタワー","architect":"杉本洋文","year":1997.0,"address":"鳥取県境港市竹内団地255-3","latitude":35.51974868774414,"longitude":133.25930786132812,"category":"展望台/博物館","description":"","image_url":""},{"id":5982,"title":"友ヶ島砲台","architect":"不明","year":1897.0,"address":"和歌山県和歌山市加太","latitude":34.28010177612305,"longitude":135.00662231445312,"category":"産業遺産","description":"加太港から船で20分程度","image_url":""},{"id":5983,"title":"神宮徴古館","architect":"片山東熊+高山幸次郎","year":1909.0,"address":"三重県伊勢市神田久志本町1754-1","latitude":34.485870361328125,"longitude":136.72483825683594,"category":"博物館","description":"","image_url":""},{"id":5984,"title":"東京国立博物館 表慶館","architect":"片山東熊+高山幸次郎","year":1908.0,"address":"東京都台東区上野公園13-9","latitude":35.718589782714844,"longitude":139.7752227783203,"category":"博物館","description":"","image_url":""},{"id":5985,"title":"大佛次郎記念館","architect":"浦辺鎮太郎","year":1978.0,"address":"神奈川県横浜市中区山手町113","latitude":35.4393424987793,"longitude":139.65525817871094,"category":"博物館","description":"","image_url":""},{"id":5986,"title":"大津市役所 木戸市民センター 旧志賀町庁舎","architect":"徳岡設計","year":1999.0,"address":"滋賀県大津市木戸58","latitude":35.206336975097656,"longitude":135.92115783691406,"category":"庁舎/公共施設","description":"","image_url":""},{"id":5987,"title":"アイビースクェア 守谷第一ビルヂング","architect":"林雅子","year":1963.0,"address":"長野県長野市南千歳1-3-7","latitude":36.646026611328125,"longitude":138.18873596191406,"category":"テナントビル","description":"","image_url":""},{"id":5988,"title":"福井県国際交流会館","architect":"日建設計","year":1996.0,"address":"福井県福井市宝永3-1-1","latitude":36.067344665527344,"longitude":136.22537231445312,"category":"ホール・劇場/公共施設","description":"","image_url":""},{"id":5989,"title":"山室パスタ倶楽部 旧とんかつ豚楽","architect":"宮脇檀","year":1987.0,"address":"富山県富山市山室24-1","latitude":36.672210693359375,"longitude":137.23716735839844,"category":"レストラン","description":"","image_url":""},{"id":5990,"title":"コモンシティ星田ふれあいプラザ","architect":"宮脇檀","year":1991.0,"address":"大阪府交野市星田西3-3-1","latitude":34.755001068115234,"longitude":135.66226196289062,"category":"モール","description":"","image_url":""},{"id":5991,"title":"白桃房","architect":"宮脇檀","year":1988.0,"address":"東京都渋谷区広尾5-16-15","latitude":35.64969253540039,"longitude":139.72068786621094,"category":"テナントビル","description":"解体","image_url":""},{"id":5992,"title":"静岡県立大学 短期大学部静岡校","architect":"日建設計","year":1997.0,"address":"静岡県静岡市駿河区小鹿2-2-1","latitude":34.974884033203125,"longitude":138.4173583984375,"category":"大学","description":"","image_url":""},{"id":5993,"title":"静岡県庁本館","architect":"中村與資平","year":1937.0,"address":"静岡県静岡市葵区追手町9-6","latitude":34.97688674926758,"longitude":138.38296508789062,"category":"庁舎","description":"","image_url":""},{"id":5994,"title":"静岡市役所本館","architect":"中村與資平","year":1934.0,"address":"静岡県静岡市葵区追手町5-1","latitude":34.9755973815918,"longitude":138.38258361816406,"category":"庁舎","description":"","image_url":""},{"id":5995,"title":"長野市真島総合スポーツアリーナ","architect":"日建設計","year":1996.0,"address":"長野県長野市真島町真島2268-1","latitude":36.6047248840332,"longitude":138.20619201660156,"category":"体育館","description":"","image_url":""},{"id":5996,"title":"福井まちなか文化施設 響のホール","architect":"仙田満","year":2004.0,"address":"福井県福井市中央1-4-13","latitude":36.06217956542969,"longitude":136.22036743164062,"category":"ホール・劇場","description":"","image_url":""},{"id":5997,"title":"JR福井駅","architect":"川崎清","year":2005.0,"address":"福井県福井市中央1 福井駅","latitude":36.06212615966797,"longitude":136.2233428955078,"category":"駅","description":"","image_url":""},{"id":5998,"title":"葉山文化園","architect":"隈研吾","year":1999.0,"address":"神奈川県三浦郡葉山町一色1005","latitude":35.265777587890625,"longitude":139.59068298339844,"category":"その他文化施設/その他宿泊施設/ギャラリー","description":"会員制。隣接のギャラリーは見学可能かも。","image_url":""},{"id":5999,"title":"逗子マリーナクラブハウス","architect":"竹中工務店","year":1990.0,"address":"神奈川県逗子市小坪5-23-9","latitude":35.29710006713867,"longitude":139.55453491210938,"category":"港/クラブハウス","description":"","image_url":""},{"id":6000,"title":"新江ノ島水族館","architect":"日建設計","year":2004.0,"address":"神奈川県藤沢市片瀬海岸2-19-1","latitude":35.309852600097656,"longitude":139.4795379638672,"category":"水族館","description":"","image_url":""}]}