{"page":111,"total_pages":290,"items_per_page":50,"total_items":14467,"items":[{"id":5501,"title":"オレンジタウン駅","architect":"佐藤昌平","year":1998.0,"address":"香川県さぬき市志度 オレンジタウン駅","latitude":34.3018684387207,"longitude":134.1809539794922,"category":"駅","description":"","image_url":""},{"id":5502,"title":"香川県歯科医療専門学校・会館","architect":"佐藤昌平","year":2009.0,"address":"香川県高松市錦町2-8-37","latitude":34.347225189208984,"longitude":134.04296875,"category":"専門学校","description":"","image_url":""},{"id":5503,"title":"たからだの里さいた","architect":"磯野達","year":1998.0,"address":"香川県三豊市財田町財田上180-6","latitude":34.110145568847656,"longitude":133.79795837402344,"category":"PA・道の駅","description":"","image_url":""},{"id":5504,"title":"大塚ヴェガホール","architect":"鹿島建設","year":1988.0,"address":"徳島県徳島市川内町平石夷野224","latitude":34.12111282348633,"longitude":134.58680725097656,"category":"ホール・劇場","description":"","image_url":""},{"id":5505,"title":"徳島県営住宅竜王団地","architect":"現代計画研究所","year":1982.0,"address":"徳島県徳島市国府町竜王6","latitude":34.0926628112793,"longitude":134.45420837402344,"category":"集合住宅","description":"","image_url":""},{"id":5506,"title":"富士市交流プラザ","architect":"日総建","year":2008.0,"address":"静岡県富士市富士町20-1","latitude":35.154396057128906,"longitude":138.6486053466797,"category":"総合文化施設/図書館","description":"","image_url":""},{"id":5507,"title":"富山市立新庄北小学校・新庄北公民館","architect":"日総建","year":2010.0,"address":"富山県富山市新庄本町2-4-11","latitude":36.71127700805664,"longitude":137.26300048828125,"category":"学校/公民館・交流施設","description":"","image_url":""},{"id":5508,"title":"廣池千九郎中津記念館","architect":"日総建","year":2014.0,"address":"大分県中津市永添2423","latitude":33.57057189941406,"longitude":131.20790100097656,"category":"博物館","description":"","image_url":""},{"id":5509,"title":"もりんぴあこうづ","architect":"日総建","year":2013.0,"address":"千葉県成田市公津の杜4-8","latitude":35.75776672363281,"longitude":140.2946319580078,"category":"総合文化施設/図書館/ホール・劇場","description":"","image_url":""},{"id":5510,"title":"甑葉プラザ","architect":"日総建","year":2010.0,"address":"山形県村山市楯岡五日町14-20","latitude":38.48037338256836,"longitude":140.38729858398438,"category":"総合文化施設/図書館/公民館・交流施設","description":"","image_url":""},{"id":5511,"title":"湖北火葬場 湖風苑","architect":"日総建","year":2009.0,"address":"長野県岡谷市長地片間町1-5-28","latitude":36.07501220703125,"longitude":138.0587921142578,"category":"斎場","description":"","image_url":""},{"id":5512,"title":"宇都宮市 悠久の丘斎場","architect":"日総建","year":2009.0,"address":"栃木県宇都宮市上欠町719-1","latitude":36.54420471191406,"longitude":139.83160400390625,"category":"斎場","description":"","image_url":""},{"id":5513,"title":"逗子文化プラザ 市民交流センター","architect":"日総建","year":2007.0,"address":"神奈川県逗子市逗子4-2-11","latitude":35.29541015625,"longitude":139.58279418945312,"category":"公民館・交流施設/図書館/プール","description":"","image_url":""},{"id":5514,"title":"逗子文化プラザホール","architect":"日総建","year":2005.0,"address":"神奈川県逗子市逗子4-2-10","latitude":35.29507827758789,"longitude":139.58226013183594,"category":"ホール・劇場","description":"","image_url":""},{"id":5515,"title":"稲城市立中央図書館","architect":"日総建+NTTファシリティーズ","year":2006.0,"address":"東京都稲城市向陽台4-6-18","latitude":35.64561462402344,"longitude":139.48851013183594,"category":"図書館","description":"","image_url":""},{"id":5516,"title":"福岡市新葬祭場 刻の森葬祭場","architect":"日総建","year":2005.0,"address":"福岡県福岡市南区桧原6-1-1","latitude":33.534175872802734,"longitude":130.386962890625,"category":"斎場","description":"","image_url":""},{"id":5517,"title":"静岡県立美術館 ロダン館","architect":"日総建","year":1993.0,"address":"静岡県静岡市駿河区谷田53-2","latitude":34.991825103759766,"longitude":138.44712829589844,"category":"美術館","description":"","image_url":""},{"id":5518,"title":"ひろしま国際プラザ","architect":"日総建","year":1997.0,"address":"広島県東広島市鏡山3-3-1","latitude":34.40134048461914,"longitude":132.7342071533203,"category":"研修施設/総合文化施設/レストラン","description":"","image_url":""},{"id":5519,"title":"埼玉県立川の博物館","architect":"日総建","year":1997.0,"address":"埼玉県大里郡寄居町小園39","latitude":36.11567687988281,"longitude":139.2196502685547,"category":"博物館","description":"","image_url":""},{"id":5520,"title":"かわさき南部斎苑","architect":"日総建","year":2004.0,"address":"神奈川県川崎市川崎区夜光3-2-7","latitude":35.516815185546875,"longitude":139.73931884765625,"category":"斎場","description":"","image_url":""},{"id":5521,"title":"大野学園","architect":"日総建","year":2014.0,"address":"広島県廿日市市大野原4-2-60","latitude":34.292198181152344,"longitude":132.2698211669922,"category":"学校","description":"","image_url":""},{"id":5522,"title":"健康プラザかつしか","architect":"日総建","year":2011.0,"address":"東京都葛飾区青戸4-15-14","latitude":35.75144958496094,"longitude":139.85057067871094,"category":"福祉センター","description":"","image_url":""},{"id":5523,"title":"田代の郷温泉 伊太和里の湯／伊太なごみの里","architect":"日総建","year":2009.0,"address":"静岡県島田市伊太66","latitude":34.87240982055664,"longitude":138.1553497314453,"category":"温泉/養護施設","description":"","image_url":""},{"id":5524,"title":"ヘルシーパーク裾野","architect":"日総建","year":2001.0,"address":"静岡県裾野市須山3408","latitude":35.247657775878906,"longitude":138.87203979492188,"category":"温泉","description":"","image_url":""},{"id":5525,"title":"筑西遊湯館","architect":"日総建","year":2003.0,"address":"茨城県筑西市下川島471-2","latitude":36.29431915283203,"longitude":139.9051971435547,"category":"温泉/プール","description":"","image_url":""},{"id":5526,"title":"すわっこランド","architect":"日総建","year":2005.0,"address":"長野県諏訪市豊田732","latitude":36.036014556884766,"longitude":138.0907440185547,"category":"温泉/プール","description":"","image_url":""},{"id":5527,"title":"さがら子生れ温泉会館","architect":"日総建","year":2005.0,"address":"静岡県牧之原市西萩間672-1","latitude":34.73478317260742,"longitude":138.16017150878906,"category":"温泉","description":"","image_url":""},{"id":5528,"title":"浜北天然日帰り温泉施設 あらたまの湯","architect":"日総建","year":2007.0,"address":"静岡県浜松市浜北区四大地9-921","latitude":34.8419075012207,"longitude":137.76669311523438,"category":"温泉","description":"","image_url":""},{"id":5529,"title":"ふれあい健康増進館 ゆらら","architect":"日総建","year":2001.0,"address":"静岡県静岡市葵区南沼上1379-1","latitude":35.02557373046875,"longitude":138.41213989257812,"category":"プール","description":"","image_url":""},{"id":5530,"title":"さがみはら北の丘センター","architect":"日総建","year":1999.0,"address":"神奈川県相模原市緑区下九沢2071-1","latitude":35.585025787353516,"longitude":139.33160400390625,"category":"プール","description":"","image_url":""},{"id":5531,"title":"グリーンヒル八ヶ岳","architect":"日総建","year":1995.0,"address":"山梨県北杜市長坂町中丸1622","latitude":35.82749938964844,"longitude":138.35720825195312,"category":"ホテル/プール","description":"","image_url":""},{"id":5532,"title":"コニファーいわびつ 旧すぎなみ自然村","architect":"日総建","year":1994.0,"address":"群馬県吾妻郡東吾妻町原町4399","latitude":36.564727783203125,"longitude":138.79994201660156,"category":"ホテル","description":"","image_url":""},{"id":5533,"title":"宮城県総合プール","architect":"日総建","year":1995.0,"address":"宮城県宮城郡利府町菅谷舘 宮城県総合プール","latitude":38.33549499511719,"longitude":140.954345703125,"category":"プール","description":"","image_url":""},{"id":5534,"title":"富山市立中央小学校","architect":"日総建","year":2007.0,"address":"富山県富山市五番町4-35","latitude":36.68693923950195,"longitude":137.21946716308594,"category":"学校","description":"","image_url":""},{"id":5535,"title":"小川町総合福祉センター パトリアおがわ","architect":"日総建","year":1997.0,"address":"埼玉県比企郡小川町腰越618","latitude":36.04490280151367,"longitude":139.2377471923828,"category":"公共施設/温泉/プール","description":"","image_url":""},{"id":5536,"title":"住吉区民センター","architect":"松本組+昭和設計","year":2007.0,"address":"大阪府大阪市住吉区南住吉3-15-56","latitude":34.60432815551758,"longitude":135.500732421875,"category":"庁舎/図書館","description":"","image_url":""},{"id":5537,"title":"津山市立北小学校","architect":"宮﨑勝秀","year":2013.0,"address":"岡山県津山市山北238","latitude":35.06918716430664,"longitude":134.00086975097656,"category":"学校","description":"","image_url":""},{"id":5538,"title":"学び館 サエスタ","architect":"宮﨑勝秀","year":2000.0,"address":"岡山県和気郡和気町父井原430-1","latitude":34.84426498413086,"longitude":134.09417724609375,"category":"ホール・劇場/図書館","description":"","image_url":""},{"id":5539,"title":"北条保育園","architect":"福島透","year":2008.0,"address":"長野県長野市大字高田北条94-5","latitude":36.652034759521484,"longitude":138.20713806152344,"category":"幼稚園","description":"","image_url":""},{"id":5540,"title":"丹波山村物産館","architect":"久保田章敬","year":1999.0,"address":"山梨県北都留郡丹波山村2901","latitude":35.789371490478516,"longitude":138.9239959716797,"category":"PA・道の駅/観光施設","description":"","image_url":""},{"id":5541,"title":"ビクトリノックス・ジャパン本社","architect":"長田孝三","year":2009.0,"address":"東京都港区西麻布3-18-5","latitude":35.65896987915039,"longitude":139.72616577148438,"category":"低層オフィス","description":"","image_url":""},{"id":5542,"title":"R-南青山","architect":"吉原美比古","year":2006.0,"address":"東京都港区南青山3-5-6","latitude":35.66646957397461,"longitude":139.71682739257812,"category":"テナントビル","description":"","image_url":""},{"id":5543,"title":"土成歴史館","architect":"岡島建築事務所","year":1993.0,"address":"徳島県阿波市土成町土成丸山1-1","latitude":34.114959716796875,"longitude":134.3401336669922,"category":"博物館","description":"","image_url":""},{"id":5544,"title":"土佐和紙工芸村 くらうど","architect":"上田堯世","year":1995.0,"address":"高知県吾川郡いの町鹿敷1226","latitude":33.57353210449219,"longitude":133.3662872314453,"category":"博物館","description":"","image_url":""},{"id":5545,"title":"高知県立家畜学習館","architect":"佐藤八尋+松澤敏明","year":1993.0,"address":"高知県高岡郡佐川町中組1247","latitude":33.467838287353516,"longitude":133.28257751464844,"category":"博物館","description":"","image_url":""},{"id":5546,"title":"弁天座","architect":"佐藤八尋","year":2009.0,"address":"高知県香南市赤岡町本町795","latitude":33.5418815612793,"longitude":133.7248077392578,"category":"ホール・劇場","description":"","image_url":""},{"id":5547,"title":"海洋堂 かっぱ館","architect":"佐藤八尋","year":2014.0,"address":"高知県高岡郡四万十町打井川685-1","latitude":33.16264343261719,"longitude":133.03855895996094,"category":"博物館","description":"","image_url":""},{"id":5548,"title":"津野町酒蔵ホール","architect":"佐藤八尋+聖建築研究所","year":1995.0,"address":"高知県高岡郡津野町姫野々604-6","latitude":33.44447326660156,"longitude":133.20814514160156,"category":"ギャラリー/ホール・劇場/醸造所","description":"","image_url":""},{"id":5549,"title":"海洋堂ホビー館 四万十 旧打井川小学校体育館","architect":"佐藤八尋","year":2010.0,"address":"高知県高岡郡四万十町打井川1458-1","latitude":33.15276336669922,"longitude":133.0449981689453,"category":"博物館","description":"小学校の体育館を改修","image_url":""},{"id":5550,"title":"星ヶ岡アートヴィレッヂ","architect":"徳弘・松澤建築事務所","year":1993.0,"address":"高知県高知市横内153-1","latitude":33.566917419433594,"longitude":133.49447631835938,"category":"ギャラリー","description":"","image_url":""}]}