{"page":286,"total_pages":290,"items_per_page":50,"total_items":14467,"items":[{"id":14251,"title":"ポロシリ生活館","architect":"アトリエaku","year":2022.0,"address":"北海道新冠郡新冠町高江489-4","latitude":42.36758041381836,"longitude":142.30209350585938,"category":"博物館","description":"","image_url":""},{"id":14252,"title":"道の駅 遠軽 森のオホーツク","architect":"アトリエaku","year":2019.0,"address":"北海道紋別郡遠軽町野上150-1","latitude":44.021915435791016,"longitude":143.49588012695312,"category":"PA・道の駅","description":"","image_url":""},{"id":14253,"title":"三石豊岡地区納骨堂 アイヌ無縁仏納骨堂","architect":"アトリエaku","year":null,"address":"北海道日高郡新ひだか町三石豊岡 豊岡共同墓地","latitude":42.285400390625,"longitude":142.60255432128906,"category":"霊園","description":"","image_url":""},{"id":14254,"title":"道の駅 北オホーツクはまとんべつ","architect":"アトリエaku","year":2019.0,"address":"北海道枝幸郡浜頓別町中央北21-1","latitude":45.12530517578125,"longitude":142.3607177734375,"category":"PA・道の駅","description":"","image_url":""},{"id":14255,"title":"道の駅 ノンキーランドひがしもこと・ホテルひがしもこと","architect":"アトリエaku","year":2017.0,"address":"北海道網走郡大空町東藻琴100","latitude":43.8450813293457,"longitude":144.29470825195312,"category":"PA・道の駅","description":"","image_url":""},{"id":14256,"title":"道の駅 ニセコビュープラザ","architect":"アトリエaku","year":1997.0,"address":"北海道虻田郡ニセコ町元町77-10","latitude":42.79951095581055,"longitude":140.70240783691406,"category":"PA・道の駅","description":"","image_url":""},{"id":14257,"title":"噴火湾パノラマパーク パノラマ館","architect":"アトリエaku","year":2006.0,"address":"北海道二海郡八雲町浜松368-8","latitude":42.22714614868164,"longitude":140.3139190673828,"category":"観光施設/公園","description":"","image_url":""},{"id":14258,"title":"ニセコ駅前温泉 綺羅乃湯","architect":"アトリエaku","year":2001.0,"address":"北海道虻田郡ニセコ町中央通33","latitude":42.807987213134766,"longitude":140.68524169921875,"category":"温泉","description":"","image_url":""},{"id":14259,"title":"黒松内温泉ぶなの森","architect":"アトリエaku","year":1998.0,"address":"北海道寿都郡黒松内町黒松内545","latitude":42.657073974609375,"longitude":140.3092803955078,"category":"温泉","description":"","image_url":""},{"id":14260,"title":"熱海市姫の沢公園 ビジターセンター","architect":"時設計","year":2020.0,"address":"静岡県熱海市伊豆山1164-1","latitude":35.1171760559082,"longitude":139.0506591796875,"category":"観光施設/公園","description":"","image_url":""},{"id":14261,"title":"番所鼻自然公園 イソヒヨコーヒー","architect":"上條・福島都市設計事務所","year":2024.0,"address":"鹿児島県南九州市頴娃町別府5202","latitude":31.247419357299805,"longitude":130.43222045898438,"category":"カフェ","description":"","image_url":""},{"id":14262,"title":"柴崎保育園","architect":"福原信一","year":2022.0,"address":"東京都立川市柴崎町1-16-23","latitude":35.692298889160156,"longitude":139.40711975097656,"category":"幼稚園","description":"","image_url":""},{"id":14263,"title":"小諸市動物園 ペンギン村 ふれあい休憩所","architect":"福原信一+プレック研究所","year":2022.0,"address":"長野県小諸市丁311","latitude":36.3256950378418,"longitude":138.41810607910156,"category":"動植物園","description":"","image_url":""},{"id":14264,"title":"讃岐緑想","architect":"堀部安嗣","year":2020.0,"address":"香川県三豊市仁尾町仁尾乙266-13","latitude":34.19171905517578,"longitude":133.64930725097656,"category":"コテージ","description":"一棟貸しの宿","image_url":""},{"id":14265,"title":"南の家","architect":"堀部安嗣","year":1995.0,"address":"鹿児島県薩摩郡さつま町求名3335","latitude":31.94298553466797,"longitude":130.5327606201172,"category":"コテージ/住宅","description":"要予約。宿泊および見学が可能（有料）","image_url":""},{"id":14266,"title":"星野リゾート 界 奥飛騨","architect":"坂倉建築研究所","year":2024.0,"address":"岐阜県高山市奥飛騨温泉郷平湯138","latitude":36.192108154296875,"longitude":137.55368041992188,"category":"ホテル","description":"","image_url":""},{"id":14267,"title":"星野リゾート 界 津軽","architect":"坂倉建築研究所","year":1990.0,"address":"青森県南津軽郡大鰐町大鰐上牡丹森36-1","latitude":40.51177978515625,"longitude":140.57427978515625,"category":"ホテル","description":"","image_url":""},{"id":14268,"title":"星野リゾート 界 玉造","architect":"小大建築設計事務所","year":2023.0,"address":"島根県松江市玉湯町玉造1237","latitude":35.41883087158203,"longitude":133.00851440429688,"category":"ホテル","description":"","image_url":""},{"id":14269,"title":"星野リゾート 界 霧島","architect":"清水建設","year":2020.0,"address":"鹿児島県霧島市霧島田口2583‐21","latitude":31.86794662475586,"longitude":130.8711700439453,"category":"ホテル","description":"","image_url":""},{"id":14270,"title":"星野リゾート 界 アルプス","architect":"前田建設工業+岩田尚樹","year":2017.0,"address":"長野県大町市平2884-26","latitude":36.531558990478516,"longitude":137.8076629638672,"category":"ホテル","description":"デザイン監修：岩田尚樹","image_url":""},{"id":14271,"title":"陽クリニック","architect":"小大建築設計事務所","year":2023.0,"address":"岡山県岡山市東区西大寺新地16-3","latitude":34.651268005371094,"longitude":134.05667114257812,"category":"個人医院","description":"","image_url":""},{"id":14272,"title":"南足柄市体育センター 改修","architect":"小大建築設計事務所","year":2021.0,"address":"神奈川県南足柄市和田河原1030","latitude":35.315101623535156,"longitude":139.12611389160156,"category":"体育館/トイレ","description":"更衣室棟と多目的トイレの新設、既存トイレの改修","image_url":""},{"id":14273,"title":"BLDG02 マツオコーポレーション本社ビル","architect":"ボラ設計+マツオコーポレーション","year":2023.0,"address":"大阪府茨木市西豊川町15-2","latitude":34.83344268798828,"longitude":135.5249481201172,"category":"低層オフィス","description":"","image_url":""},{"id":14274,"title":"Apartment02 A-Terrace","architect":"ボラ設計","year":2024.0,"address":"京都府京都市下京区高辻通寺町西入茶磨屋町236","latitude":35.00022506713867,"longitude":135.7665557861328,"category":"集合住宅","description":"","image_url":""},{"id":14275,"title":"日本圧着端子製造 大阪技術センター別館 Kahdeksankulmio","architect":"Atelier KISHISHITA","year":2017.0,"address":"大阪府大阪市西淀川区竹島3-9-22","latitude":34.727394104003906,"longitude":135.45216369628906,"category":"低層オフィス","description":"","image_url":""},{"id":14276,"title":"日本圧着端子製造 大阪技術センター別館 Laajennettu Kahdeksankulmio","architect":"Atelier KISHISHITA","year":2024.0,"address":"大阪府大阪市西淀川区竹島3-9-22","latitude":34.72758102416992,"longitude":135.45213317871094,"category":"低層オフィス","description":"Kahdeksankulmioの増築","image_url":""},{"id":14277,"title":"SANU NOWHERE","architect":"武田清明+STUDIO DIG.","year":2024.0,"address":"東京都目黒区中目黒3-23-16","latitude":35.63864517211914,"longitude":139.69793701171875,"category":"レストラン/カフェ","description":"","image_url":""},{"id":14278,"title":"SYMBIOSIS FARM by YANMAR","architect":"芦澤竜一","year":2023.0,"address":"滋賀県栗東市上砥山218","latitude":35.009864807128906,"longitude":136.02268981933594,"category":"カフェ/児童施設","description":"体験型観光農園にあるカフェ・キッズスペース","image_url":""},{"id":14279,"title":"ヤンマー サンセットマリーナ","architect":"芦澤竜一","year":2023.0,"address":"滋賀県守山市水保町1380","latitude":35.11664581298828,"longitude":135.94432067871094,"category":"クラブハウス/港","description":"","image_url":""},{"id":14280,"title":"NAGAYA200","architect":"芦澤竜一","year":2017.0,"address":"大阪府大阪市北区天神橋3-2-2","latitude":34.69865798950195,"longitude":135.5113983154297,"category":"テナントビル","description":"","image_url":""},{"id":14281,"title":"やまがたクリエイティブシティセンターQ1 旧山形市立第一小学校","architect":"馬場正尊+秦・伊藤設計","year":1927.0,"address":"山形県山形市本町1-5-19","latitude":38.250614166259766,"longitude":140.33599853515625,"category":"モール/シェアオフィス","description":"元は1927年竣工の学校。2010年に秦・伊藤設計により山形まなび館として改修。2022年Open AによりやまがたクリエイティブシティセンターQ1として再改修","image_url":""},{"id":14282,"title":"北海道大学北海道ワイン教育研究センター 旧昆虫学教室・標本室・養蚕学教室","architect":"小澤丈夫","year":2023.0,"address":"北海道札幌市北区北9条西8","latitude":43.07099914550781,"longitude":141.34246826171875,"category":"研究施設/大学","description":"設計クレジット：北海道大学工学研究院建築デザイン学研究室","image_url":""},{"id":14283,"title":"北海道大学 医学部百年記念館","architect":"小澤丈夫+小篠隆生+山脇克彦+創建社 他","year":2019.0,"address":"北海道札幌市北区北15条西7","latitude":43.07830047607422,"longitude":141.3415985107422,"category":"大学","description":"総合デザイン監理・アドバイザー：小澤丈夫+小篠隆生+平輝 基本設計：北海道大学工学研究院建築デザイン学研究室・都市地域デザイン学研究室+創建社+山脇克彦建築構造設計","image_url":""},{"id":14284,"title":"大法師山の立体格子 ジットグループ新社屋","architect":"浜田晶則","year":2024.0,"address":"山梨県南巨摩郡富士川町鰍沢2227","latitude":35.544578552246094,"longitude":138.45669555664062,"category":"低層オフィス","description":"","image_url":""},{"id":14285,"title":"COERU渋谷イースト","architect":"神本豊秋","year":2024.0,"address":"東京都渋谷区渋谷2-6-6","latitude":35.65972900390625,"longitude":139.7080078125,"category":"オフィスビル","description":"1971年竣工のビルを増改築","image_url":""},{"id":14286,"title":"STATION Ai","architect":"石本建築事務所+伊藤孝紀","year":2024.0,"address":"愛知県名古屋市昭和区鶴舞1-2-32","latitude":35.15278244018555,"longitude":136.91844177246094,"category":"複合ビル/研究施設","description":"デザイン監修：伊藤孝紀","image_url":""},{"id":14287,"title":"ド・ロさまと歩くミュージアム","architect":"D4H+文化財保存計画協会","year":2023.0,"address":"長崎県長崎市西出津町2554","latitude":32.84428405761719,"longitude":129.7021026611328,"category":"博物館/教会","description":"事務所・山小屋・工房などが完成。2026年以降に全体竣工","image_url":""},{"id":14288,"title":"無印良品 代官山","architect":"SANAA","year":2024.0,"address":"東京都渋谷区猿楽町24-7","latitude":35.64820861816406,"longitude":139.70164489746094,"category":"店舗","description":"","image_url":""},{"id":14289,"title":"長崎スタジアムシティ","architect":"仙田満+竹中工務店+安井建築設計+戸田建設","year":2024.0,"address":"長崎県長崎市幸町7-1","latitude":32.75906753540039,"longitude":129.864990234375,"category":"スタジアム/体育館/モール","description":"基本設計を仙田満、安井建築設計。スタジアム棟の詳細設計を竹中工務店。アリーナ棟の詳細設計を戸田建設がそれぞれ担当する","image_url":""},{"id":14290,"title":"神戸市立須磨海づり公園","architect":"島田陽","year":2024.0,"address":"兵庫県神戸市須磨区一ノ谷町5","latitude":34.637367248535156,"longitude":135.10208129882812,"category":"公園","description":"","image_url":""},{"id":14291,"title":"垂水処理場東側トイレ","architect":"島田陽","year":2023.0,"address":"兵庫県神戸市垂水区平磯1-1","latitude":34.62903594970703,"longitude":135.07315063476562,"category":"トイレ","description":"","image_url":""},{"id":14292,"title":"佐川町立図書館さくと","architect":"森下大右+​イシバシナガラアーキテクツ+ハウジング総合コンサルタント","year":2024.0,"address":"高知県高岡郡佐川町乙1862-1","latitude":33.50872802734375,"longitude":133.28436279296875,"category":"図書館","description":"","image_url":""},{"id":14293,"title":"ハナクモイ","architect":"伊藤博之","year":2024.0,"address":"東京都港区南麻布1-9-5","latitude":35.65121078491211,"longitude":139.73495483398438,"category":"集合住宅","description":"","image_url":""},{"id":14294,"title":"MOMOTARO JEANS KYOTO","architect":"青木淳","year":2024.0,"address":"京都府京都市東山区新門前通大和大路東入る梅本町3-256-2","latitude":35.00611114501953,"longitude":135.7764892578125,"category":"店舗","description":"","image_url":""},{"id":14295,"title":"ニコン本社・イノベーションセンター","architect":"三菱地所","year":2024.0,"address":"東京都品川区西大井1-5-20","latitude":35.60260009765625,"longitude":139.72451782226562,"category":"低層オフィス/研究施設","description":"","image_url":""},{"id":14296,"title":"横浜シンフォステージ","architect":"大林組","year":2024.0,"address":"奈川県横浜市西区みなとみらい5-1-2","latitude":35.461387634277344,"longitude":139.62831115722656,"category":"複合ビル","description":"","image_url":""},{"id":14297,"title":"大阪第7データセンター","architect":"NTTファシリティーズ+アラップ","year":2019.0,"address":"大阪府茨木市太田東芝町3-2","latitude":34.84111785888672,"longitude":135.5773162841797,"category":"低層オフィス","description":"","image_url":""},{"id":14298,"title":"3GeV高輝度放射光施設 ナノテラス","architect":"日建設計","year":2022.0,"address":"宮城県仙台市青葉区荒巻青葉468-1","latitude":38.25102996826172,"longitude":140.83164978027344,"category":"研究施設","description":"","image_url":""},{"id":14299,"title":"古過庵","architect":"藤森照信","year":2024.0,"address":"長野県茅野市豊平4734-132","latitude":36.01425552368164,"longitude":138.23377990722656,"category":"茶室/住宅","description":"宿泊ありのツアーも予定されている","image_url":""},{"id":14300,"title":"Cafe Loto Kyoto","architect":"堀部安嗣","year":2023.0,"address":"京都府京都市東山区元町367","latitude":35.007164001464844,"longitude":135.7732696533203,"category":"カフェ","description":"","image_url":""}]}