{"page":187,"total_pages":290,"items_per_page":50,"total_items":14467,"items":[{"id":9301,"title":"東京芸術大学 Ueno Global Residence","architect":"飯田善彦","year":2017.0,"address":"東京都台東区上野公園12-8","latitude":35.72050476074219,"longitude":139.7738037109375,"category":"大学/寮","description":"","image_url":""},{"id":9302,"title":"番町Huis","architect":"飯田善彦","year":2016.0,"address":"東京都千代田区六番町7-50","latitude":35.68753433227539,"longitude":139.73443603515625,"category":"集合住宅","description":"","image_url":""},{"id":9303,"title":"八雲コートハウス","architect":"飯田善彦","year":2013.0,"address":"東京都目黒区八雲4-10","latitude":35.62550735473633,"longitude":139.67103576660156,"category":"集合住宅","description":"","image_url":""},{"id":9304,"title":"パークハウス吉祥寺 OIKOS","architect":"飯田善彦","year":2010.0,"address":"東京都武蔵野市中町2-24-6","latitude":35.7069091796875,"longitude":139.56736755371094,"category":"集合住宅","description":"","image_url":""},{"id":9305,"title":"パークハビオ駒沢大学","architect":"飯田善彦","year":2010.0,"address":"東京都世田谷区上馬4-24-9","latitude":35.637081146240234,"longitude":139.66262817382812,"category":"集合住宅","description":"","image_url":""},{"id":9306,"title":"佐野清澄高等学校 佐山記念体育館","architect":"飯田善彦","year":2008.0,"address":"栃木県佐野市堀米町840","latitude":36.32539749145508,"longitude":139.5902557373047,"category":"学校/体育館","description":"","image_url":""},{"id":9307,"title":"横須賀市営鴨居ハイム","architect":"飯田善彦","year":2009.0,"address":"神奈川県横須賀市鴨居2-10","latitude":35.248741149902344,"longitude":139.7291259765625,"category":"集合住宅","description":"","image_url":""},{"id":9308,"title":"ネスト","architect":"飯田善彦","year":2010.0,"address":"東京都武蔵野市御殿山1-5-6","latitude":35.70196533203125,"longitude":139.5757598876953,"category":"集合住宅","description":"","image_url":""},{"id":9309,"title":"ラピス","architect":"飯田善彦","year":2007.0,"address":"東京都港区麻布十番2-14-3","latitude":35.65504455566406,"longitude":139.73573303222656,"category":"集合住宅","description":"","image_url":""},{"id":9310,"title":"龍谷大学深草キャンパス 修景計画","architect":"飯田善彦","year":2006.0,"address":"京都府京都市伏見区深草塚本町67","latitude":34.96388626098633,"longitude":135.76577758789062,"category":"大学/広場","description":"","image_url":""},{"id":9311,"title":"JSCビル","architect":"飯田善彦","year":1995.0,"address":"東京都練馬区北町2-27-8","latitude":35.76742935180664,"longitude":139.6599578857422,"category":"オフィスビル","description":"","image_url":""},{"id":9312,"title":"東京グリーンパレス","architect":"日建設計","year":1996.0,"address":"東京都千代田区二番町2","latitude":35.686851501464844,"longitude":139.7377166748047,"category":"ホテル","description":"","image_url":""},{"id":9313,"title":"ウエッブ","architect":"鈴木エドワード","year":1990.0,"address":"東京都目黒区目黒2-11-8","latitude":35.633487701416016,"longitude":139.70814514160156,"category":"テナントビル","description":"","image_url":""},{"id":9314,"title":"かながわビル","architect":"黒川紀章","year":1983.0,"address":"神奈川県横浜市中区元浜町4-32","latitude":35.44987106323242,"longitude":139.63870239257812,"category":"オフィスビル","description":"","image_url":""},{"id":9315,"title":"アポロドーム名古屋SS","architect":"清水建設","year":1992.0,"address":"愛知県名古屋市東区東桜2-23-28","latitude":35.17012023925781,"longitude":136.91500854492188,"category":"店舗","description":"","image_url":""},{"id":9316,"title":"東建本社丸の内ビル","architect":"黒川紀章","year":2004.0,"address":"愛知県名古屋市中区丸の内2-1-1","latitude":35.17666244506836,"longitude":136.8970947265625,"category":"オフィスビル","description":"","image_url":""},{"id":9317,"title":"海の集合住宅  HAT神戸 脇の浜","architect":"安藤忠雄","year":2000.0,"address":"兵庫県神戸市中央区脇浜海岸通3-1-4","latitude":34.69663619995117,"longitude":135.20892333984375,"category":"集合住宅","description":"","image_url":""},{"id":9318,"title":"日本電気本社ビル","architect":"日建設計","year":1990.0,"address":"東京都港区芝5-7-1","latitude":35.649417877197266,"longitude":139.74803161621094,"category":"オフィスビル","description":"","image_url":""},{"id":9319,"title":"東京宝塚ビル","architect":"竹中工務店","year":2000.0,"address":"東京都千代田区有楽町1-1-3","latitude":35.67295837402344,"longitude":139.75909423828125,"category":"オフィスビル/ホール・劇場","description":"","image_url":""},{"id":9320,"title":"第二緑ヶ丘団地","architect":"INA新建築研究所","year":1975.0,"address":"福岡県遠賀郡芦屋町緑ヶ丘1-8","latitude":33.88871765136719,"longitude":130.66758728027344,"category":"集合住宅","description":"","image_url":""},{"id":9321,"title":"鹿屋警察署 輝北駐在所","architect":"高崎正治","year":1996.0,"address":"鹿児島県鹿屋市輝北町上百引3908-1","latitude":31.5456600189209,"longitude":130.8643341064453,"category":"警察・消防署","description":"","image_url":""},{"id":9322,"title":"天六マチヤ フォトスタジオ虎屋カメラ","architect":"榊原節子","year":2018.0,"address":"大阪府大阪市北区天神橋6-3-21","latitude":34.710182189941406,"longitude":135.51263427734375,"category":"店舗/住宅","description":"","image_url":""},{"id":9323,"title":"ricco保育園","architect":"榊原節子","year":2017.0,"address":"兵庫県明石市大久保町1313","latitude":34.669517517089844,"longitude":134.9412078857422,"category":"幼稚園","description":"","image_url":""},{"id":9324,"title":"島キッチン","architect":"安部良","year":2010.0,"address":"香川県小豆郡土庄町豊島唐櫃1061","latitude":34.48484420776367,"longitude":134.08677673339844,"category":"レストラン/カフェ","description":"","image_url":""},{"id":9325,"title":"諏訪森町中の家 II beret","architect":"竹原義二","year":2018.0,"address":"大阪府堺市西区浜寺諏訪森町中3-242-8","latitude":34.54890060424805,"longitude":135.44859313964844,"category":"カフェ/住宅","description":"","image_url":""},{"id":9326,"title":"真鶴出版二号店","architect":"トミトアーキテクチャ","year":2018.0,"address":"神奈川県足柄下郡真鶴町岩217","latitude":35.159183502197266,"longitude":139.1360321044922,"category":"住宅/コテージ","description":"宿泊可能","image_url":""},{"id":9327,"title":"カサコ","architect":"トミトアーキテクチャ","year":2016.0,"address":"神奈川県横浜市西区東ケ丘23-1","latitude":35.44476318359375,"longitude":139.6244659423828,"category":"シェアオフィス/集合住宅","description":"","image_url":""},{"id":9328,"title":"SPACESPACE HOUSE","architect":"SPACESPACE","year":2018.0,"address":"大阪府大阪市北区中津3-16-5","latitude":34.71160888671875,"longitude":135.49302673339844,"category":"店舗/住宅","description":"","image_url":""},{"id":9329,"title":"道場ハウス","architect":"若松均","year":2018.0,"address":"東京都世田谷区尾山台3-29-8","latitude":35.6059684753418,"longitude":139.6566162109375,"category":"スポーツ施設/住宅","description":"住宅の1Fに柔道所など","image_url":""},{"id":9330,"title":"とのまビル","architect":"河田剛","year":2018.0,"address":"大阪府大阪市北区西天満4-1-8","latitude":34.696163177490234,"longitude":135.50521850585938,"category":"住宅/オフィスビル/店舗","description":"","image_url":""},{"id":9331,"title":"mano gallery shop ／ fuse-atelier","architect":"布施茂","year":2018.0,"address":"東京都小平市上水新町3-11-17","latitude":35.72166061401367,"longitude":139.4605712890625,"category":"住宅/ギャラリー/低層オフィス","description":"布施茂自邸・事務所・ギャラリー","image_url":""},{"id":9332,"title":"正方形の家 gre","architect":"すずき","year":2017.0,"address":"静岡県静岡市駿河区聖一色487-1","latitude":34.984825134277344,"longitude":138.42958068847656,"category":"住宅/店舗","description":"","image_url":""},{"id":9333,"title":"三松荘","architect":"アトリエ・ワン","year":2017.0,"address":"三重県津市丸之内3-22","latitude":34.713741302490234,"longitude":136.50564575195312,"category":"ギャラリー/古民家","description":"","image_url":""},{"id":9334,"title":"理科まちや","architect":"アトリエ・ワン","year":2017.0,"address":"京都府京都市北区小山板倉町41","latitude":35.04694366455078,"longitude":135.7565460205078,"category":"古民家/公民館・交流施設","description":"町家の改修。定期的に理科教室を開いている","image_url":""},{"id":9335,"title":"House H COUMA","architect":"吉村寿博","year":2012.0,"address":"石川県金沢市田上本町3-107","latitude":36.53813934326172,"longitude":136.69639587402344,"category":"美容院/住宅","description":"閉業？","image_url":""},{"id":9336,"title":"代沢医院の家 堀医院","architect":"田井勝馬","year":2014.0,"address":"東京都世田谷区代沢3-16-8","latitude":35.65574645996094,"longitude":139.67327880859375,"category":"個人医院/住宅","description":"","image_url":""},{"id":9337,"title":"葉山かどくら耳鼻咽喉科","architect":"田井勝馬","year":2019.0,"address":"神奈川県三浦郡葉山町堀内674","latitude":35.277042388916016,"longitude":139.5791015625,"category":"個人医院/住宅","description":"","image_url":""},{"id":9338,"title":"コートデコ尾山台","architect":"田井勝馬","year":2005.0,"address":"東京都世田谷区尾山台2-3-7","latitude":35.59961700439453,"longitude":139.65231323242188,"category":"集合住宅","description":"","image_url":""},{"id":9339,"title":"稲村の森の家 INAMORI","architect":"藤原徹平","year":2016.0,"address":"神奈川県鎌倉市稲村ガ崎5-39-20","latitude":35.31269073486328,"longitude":139.5241241455078,"category":"カフェ/ギャラリー/住宅","description":"","image_url":""},{"id":9340,"title":"牡鹿ビレッジ","architect":"藤原徹平","year":2017.0,"address":"宮城県石巻市荻浜家前65","latitude":38.37751007080078,"longitude":141.4484100341797,"category":"カフェ/広場","description":"","image_url":""},{"id":9341,"title":"Reborn-Art Dining","architect":"藤原徹平","year":2017.0,"address":"宮城県石巻市荻浜横浜山25","latitude":38.375328063964844,"longitude":141.43939208984375,"category":"レストラン","description":"","image_url":""},{"id":9342,"title":"新喜楽","architect":"吉田五十八","year":1940.0,"address":"東京都中央区築地4-6-7","latitude":35.665950775146484,"longitude":139.7694091796875,"category":"料亭","description":"吉田五十八による改修","image_url":""},{"id":9343,"title":"大阪市立科学館","architect":"環境開発研究所","year":1989.0,"address":"大阪府大阪市北区中之島4-2-1","latitude":34.691226959228516,"longitude":135.4915771484375,"category":"博物館","description":"","image_url":""},{"id":9344,"title":"ランダバウト東京","architect":"宮崎晃吉","year":2019.0,"address":"東京都台東区根岸3-4-5","latitude":35.721763610839844,"longitude":139.78053283691406,"category":"ホテル","description":"","image_url":""},{"id":9345,"title":"神南一丁目ビル再生建築計画","architect":"神本豊秋","year":2020.0,"address":"東京都渋谷区神南1-6-8","latitude":35.6644172668457,"longitude":139.69921875,"category":"テナントビル","description":"","image_url":""},{"id":9346,"title":"くらうましもきた","architect":"宮崎晃吉","year":2019.0,"address":"東京都世田谷区代田5-35-26","latitude":35.660953521728516,"longitude":139.66522216796875,"category":"カフェ/公民館・交流施設","description":"キッチンスタジオ+カフェ+ボタニカルショップ","image_url":""},{"id":9347,"title":"富岡まちやど 蔟屋","architect":"宮崎晃吉","year":2019.0,"address":"群馬県富岡市富岡28-5","latitude":36.25619888305664,"longitude":138.8902587890625,"category":"古民家/コテージ","description":"2軒長屋のリノベーション","image_url":""},{"id":9348,"title":"谷中の一連のプロジェクト TAYORI","architect":"宮崎晃吉","year":2017.0,"address":"東京都台東区谷中3-12-4","latitude":35.72800064086914,"longitude":139.7655487060547,"category":"レストラン/店舗","description":"","image_url":""},{"id":9349,"title":"さかいサンド","architect":"隈研吾","year":2019.0,"address":"茨城県猿島郡境町1341-1","latitude":36.10280990600586,"longitude":139.7953338623047,"category":"PA・道の駅/店舗","description":"道の駅さかい内。隈研吾設計の茶蔵と隣接はしているものの別の建物みたいです","image_url":""},{"id":9350,"title":"モンテネグロ会館 新館","architect":"隈研吾","year":2020.0,"address":"茨城県猿島郡境町大字上小橋446-4","latitude":36.11733627319336,"longitude":139.8081817626953,"category":"博物館/店舗","description":"当初発表では2019年末に竣工。2020年9月オープン。ちなみにアルゼンチン大使だったモンテネグロ氏に名前は由来しているとのこと","image_url":""}]}