{"page":75,"total_pages":290,"items_per_page":50,"total_items":14467,"items":[{"id":3701,"title":"クンビラ","architect":"堀川秀夫","year":1995.0,"address":"東京都渋谷区恵比寿南1-9-11","latitude":35.64582824707031,"longitude":139.7089080810547,"category":"レストラン","description":"","image_url":""},{"id":3702,"title":"大分県マリンカルチャーセンター","architect":"菊竹清訓","year":1992.0,"address":"大分県佐伯市蒲江大字竹野浦河内1834-2","latitude":32.802879333496094,"longitude":131.96640014648438,"category":"ホテル/博物館/レストラン","description":"2018年4月より閉鎖予定","image_url":""},{"id":3703,"title":"有馬記念館","architect":"菊竹清訓","year":1960.0,"address":"福岡県久留米市篠山町444","latitude":33.3282470703125,"longitude":130.50718688964844,"category":"博物館","description":"","image_url":""},{"id":3704,"title":"石橋文化センター 美術館","architect":"菊竹清訓","year":1956.0,"address":"福岡県久留米市野中町1015","latitude":33.31208038330078,"longitude":130.53033447265625,"category":"美術館","description":"だいぶ改修されたとのこと","image_url":""},{"id":3705,"title":"石橋文化センター 音楽堂／文化会館","architect":"菊竹清訓","year":1963.0,"address":"福岡県久留米市野中町1015","latitude":33.31108474731445,"longitude":130.53172302246094,"category":"ホール・劇場","description":"","image_url":""},{"id":3706,"title":"館林市民センター 旧館林市庁舎","architect":"菊竹清訓","year":1963.0,"address":"群馬県館林市仲町14-1","latitude":36.24956512451172,"longitude":139.5321502685547,"category":"公共施設","description":"2025年現在テナントを募集している模様。月額6万円60平米","image_url":""},{"id":3707,"title":"畠山記念館","architect":"菊竹清訓","year":1964.0,"address":"東京都港区白金台2-20-12","latitude":35.632354736328125,"longitude":139.7268829345703,"category":"美術館","description":"","image_url":""},{"id":3708,"title":"岩手県教育会館","architect":"菊竹清訓","year":1965.0,"address":"岩手県盛岡市大通1-1-19","latitude":39.701698303222656,"longitude":141.14979553222656,"category":"ホール・劇場/組合施設","description":"","image_url":""},{"id":3709,"title":"八女市立花体育館","architect":"菊竹清訓","year":1967.0,"address":"福岡県八女市立花町谷川1130 ‎","latitude":33.20257568359375,"longitude":130.5906982421875,"category":"体育館","description":"","image_url":""},{"id":3710,"title":"ベルナール・ビュフェ美術館","architect":"菊竹清訓","year":1973.0,"address":"静岡県駿東郡長泉町東野515-57","latitude":35.17156219482422,"longitude":138.86959838867188,"category":"美術館","description":"改修完了","image_url":""},{"id":3711,"title":"井上靖記念館","architect":"菊竹清訓","year":1973.0,"address":"静岡県駿東郡長泉町東野515-57","latitude":35.17243957519531,"longitude":138.868896484375,"category":"博物館","description":"","image_url":""},{"id":3712,"title":"愛媛県林業研究センター","architect":"伊藤邦明","year":1990.0,"address":"愛媛県上浮穴郡久万高原町菅生2-280-38","latitude":33.64475631713867,"longitude":132.91293334960938,"category":"博物館","description":"","image_url":""},{"id":3713,"title":"磐城塙駅 ／ 塙町コミュニティプラザ","architect":"伊藤邦明","year":1994.0,"address":"福島県東白川郡塙町塙材木町93-7","latitude":36.958473205566406,"longitude":140.41171264648438,"category":"総合文化施設","description":"駅・図書館・庁舎など","image_url":""},{"id":3714,"title":"山寺郵便局","architect":"伊藤邦明","year":2001.0,"address":"山形県山形市山寺4294-8","latitude":38.310672760009766,"longitude":140.4362030029297,"category":"公共施設","description":"","image_url":""},{"id":3715,"title":"東北大学 工学部キャンパス","architect":"伊藤邦明","year":1994.0,"address":"宮城県仙台市青葉区荒巻字青葉6-6","latitude":38.25506591796875,"longitude":140.84222412109375,"category":"大学","description":"","image_url":""},{"id":3716,"title":"大和町保健福祉センター ひだまりの丘","architect":"伊藤邦明+楠山設計","year":1998.0,"address":"宮城県黒川郡大和町吉岡館下88 ‎","latitude":38.447784423828125,"longitude":140.8806915283203,"category":"福祉センター","description":"","image_url":""},{"id":3717,"title":"登米市南方総合支所","architect":"伊藤邦明+関・空間設計","year":2004.0,"address":"宮城県登米市南方町新高石浦130","latitude":38.6648063659668,"longitude":141.1595001220703,"category":"庁舎","description":"","image_url":""},{"id":3718,"title":"秋保郵便局","architect":"伊藤邦明","year":2001.0,"address":"宮城県仙台市太白区秋保町長袋門前29","latitude":38.257240295410156,"longitude":140.6776123046875,"category":"公共施設","description":"","image_url":""},{"id":3719,"title":"新富町文化会館","architect":"楠山設計","year":1999.0,"address":"宮崎県児湯郡新富町上富田6367-1","latitude":32.06998825073242,"longitude":131.48353576660156,"category":"ホール・劇場","description":"","image_url":""},{"id":3720,"title":"みやま市文化施設「まいピア高田」","architect":"楠山設計","year":2006.0,"address":"福岡県みやま市高田町濃施14","latitude":33.10047149658203,"longitude":130.45501708984375,"category":"ホール・劇場","description":"","image_url":""},{"id":3721,"title":"知識の森 嵐山町立図書館","architect":"楠山設計","year":1999.0,"address":"埼玉県比企郡嵐山町むさし台3-10-10","latitude":36.04844665527344,"longitude":139.3260040283203,"category":"図書館","description":"","image_url":""},{"id":3722,"title":"岬ふれあい会館","architect":"楠山設計","year":1997.0,"address":"千葉県いすみ市岬町東中滝720-1","latitude":35.301124572753906,"longitude":140.3877716064453,"category":"総合文化施設","description":"","image_url":""},{"id":3723,"title":"諏訪湖サービスエリア","architect":"菊竹清訓","year":1981.0,"address":"長野県岡谷市湊435","latitude":36.026607513427734,"longitude":138.0761260986328,"category":"PA・道の駅","description":"","image_url":""},{"id":3724,"title":"西友 河辺店","architect":"菊竹清訓","year":1980.0,"address":"東京都青梅市河辺町10-9-1","latitude":35.785648345947266,"longitude":139.28431701660156,"category":"店舗","description":"","image_url":""},{"id":3725,"title":"佐渡市役所 真野行政サービスセンター 旧真野町役場","architect":"菊竹清訓","year":1983.0,"address":"新潟県佐渡市真野新町489","latitude":37.96647644042969,"longitude":138.34701538085938,"category":"庁舎","description":"","image_url":""},{"id":3726,"title":"川崎市総合教育センター","architect":"菊竹清訓","year":1985.0,"address":"神奈川県川崎市高津区溝口6-9-3","latitude":35.60904312133789,"longitude":139.6150360107422,"category":"研究施設","description":"","image_url":""},{"id":3727,"title":"千登世橋教育文化センター","architect":"菊竹清訓","year":1987.0,"address":"東京都豊島区雑司が谷3-1-7 ‎","latitude":35.7197265625,"longitude":139.7136688232422,"category":"公民館・交流施設","description":"","image_url":""},{"id":3728,"title":"渋谷ロフト","architect":"菊竹清訓","year":1987.0,"address":"東京都渋谷区宇田川町21-1","latitude":35.66021728515625,"longitude":139.7002716064453,"category":"テナントビル","description":"","image_url":""},{"id":3729,"title":"高崎市営住宅 東貝沢天水団地","architect":"菊竹清訓","year":1989.0,"address":"群馬県高崎市東貝沢町4-26","latitude":36.352088928222656,"longitude":139.02879333496094,"category":"集合住宅","description":"","image_url":""},{"id":3730,"title":"早稲田大学 38号館 戸山図書館","architect":"菊竹清訓","year":1992.0,"address":"東京都新宿区戸山1-24-1","latitude":35.70535659790039,"longitude":139.71751403808594,"category":"図書館","description":"","image_url":""},{"id":3731,"title":"学習院大学 法・経済学部教育研究棟 東二号館","architect":"菊竹清訓","year":1993.0,"address":"東京都豊島区目白1-5-1","latitude":35.718971252441406,"longitude":139.7104034423828,"category":"大学","description":"","image_url":""},{"id":3732,"title":"ネットワークリゾートなんせい センターハウス","architect":"菊竹清訓","year":1994.0,"address":"三重県度会郡南伊勢町迫間浦1306-1","latitude":34.30722427368164,"longitude":136.6417694091797,"category":"ホテル","description":"閉鎖中？","image_url":""},{"id":3733,"title":"飯能くすの樹カントリー倶楽部","architect":"菊竹清訓","year":1995.0,"address":"埼玉県飯能市小岩井350","latitude":35.85844421386719,"longitude":139.2767791748047,"category":"クラブハウス","description":"","image_url":""},{"id":3734,"title":"北九州メディアドーム","architect":"菊竹清訓","year":1998.0,"address":"福岡県北九州市小倉北区三萩野3-1-1","latitude":33.87199401855469,"longitude":130.88768005371094,"category":"スタジアム","description":"","image_url":""},{"id":3735,"title":"フェライト子ども科学館","architect":"丹青社","year":1998.0,"address":"秋田県にかほ市平沢宝田4-1","latitude":39.28486633300781,"longitude":139.96092224121094,"category":"児童施設","description":"","image_url":""},{"id":3736,"title":"egota house B","architect":"坂本一成","year":2013.0,"address":"東京都中野区江古田4-30-6 ","latitude":35.72434616088867,"longitude":139.66213989257812,"category":"集合住宅","description":"","image_url":""},{"id":3737,"title":"朱合院","architect":"浅利幸男","year":2013.0,"address":"東京都武蔵野市吉祥寺南町2-29-5","latitude":35.69997787475586,"longitude":139.5859832763672,"category":"集合住宅","description":"","image_url":""},{"id":3738,"title":"oggi","architect":"山口誠","year":2013.0,"address":"東京都文京区大塚4-16-16","latitude":35.72306823730469,"longitude":139.7345428466797,"category":"集合住宅","description":"","image_url":""},{"id":3739,"title":"秋山のカフェ カフェ野の花","architect":"山口誠","year":2010.0,"address":"千葉県松戸市秋山102-4","latitude":35.76542282104492,"longitude":139.92822265625,"category":"カフェ","description":"カフェの営業は終了し、今後はコンサートのみ開放","image_url":""},{"id":3740,"title":"下馬の集合住宅","architect":"KUS","year":2013.0,"address":"東京都世田谷区下馬6-14-17","latitude":35.62870788574219,"longitude":139.68063354492188,"category":"集合住宅","description":"","image_url":""},{"id":3741,"title":"ソーラータウン府中 モデルハウス","architect":"野沢正光","year":2013.0,"address":"東京都府中市美好町2-52","latitude":35.67821502685547,"longitude":139.4668426513672,"category":"住宅","description":"水・木休業。モデルハウス。","image_url":""},{"id":3742,"title":"大菩薩峠","architect":"島利喜太","year":1971.0,"address":"徳島県阿南市橘町土井崎115-10 ‎","latitude":33.85060501098633,"longitude":134.6258087158203,"category":"カフェ","description":"","image_url":""},{"id":3743,"title":"神戸ドイツ学院・ヨーロピアンスクール","architect":"岩村和夫","year":2009.0,"address":"兵庫県神戸市東灘区向洋町中3-2-8","latitude":34.68714904785156,"longitude":135.27001953125,"category":"学校","description":"","image_url":""},{"id":3744,"title":"熱帯ドリームセンター","architect":"日本設計","year":1984.0,"address":"沖縄県国頭郡本部町石川424","latitude":26.68734359741211,"longitude":127.87614440917969,"category":"動植物園","description":"","image_url":""},{"id":3745,"title":"回向院 念仏堂","architect":"河原泰","year":2013.0,"address":"東京都墨田区両国2-8-10","latitude":35.69330978393555,"longitude":139.79200744628906,"category":"寺院","description":"","image_url":""},{"id":3746,"title":"竹原市町並み保存センター","architect":"水谷頴介+岡田祐一郎","year":1981.0,"address":"広島県竹原市本町3-11-7","latitude":34.34688949584961,"longitude":132.9105224609375,"category":"観光施設","description":"","image_url":""},{"id":3747,"title":"四国物産本社屋","architect":"水谷頴介","year":1968.0,"address":"香川県観音寺市昭和町2-4-5","latitude":34.11957550048828,"longitude":133.65554809570312,"category":"オフィスビル","description":"","image_url":""},{"id":3748,"title":"風庵","architect":"水谷頴介","year":1982.0,"address":"福岡県福岡市西区能古444-3","latitude":33.61407470703125,"longitude":130.3101806640625,"category":"レストラン","description":"水谷頴介による自邸（洋館の改修）。現在はレストラン。","image_url":""},{"id":3749,"title":"豊浜小学校・幼稚園","architect":"山本忠司","year":1974.0,"address":"香川県観音寺市豊浜町和田浜1000","latitude":34.07205581665039,"longitude":133.64413452148438,"category":"学校","description":"","image_url":""},{"id":3750,"title":"大口町立大口中学校","architect":"黒川紀章","year":2008.0,"address":"愛知県丹羽郡大口町丸1-38","latitude":35.332462310791016,"longitude":136.90451049804688,"category":"学校","description":"","image_url":""}]}