{"page":173,"total_pages":290,"items_per_page":50,"total_items":14467,"items":[{"id":8601,"title":"器","architect":"ツバメアーキテクツ+津賀洋輔","year":2018.0,"address":"京都府京都市東山区本町86","latitude":34.986446380615234,"longitude":135.76980590820312,"category":"ホテル","description":"","image_url":""},{"id":8602,"title":"ちゃぶだい","architect":"coto","year":2018.0,"address":"埼玉県川越市三久保町1-14","latitude":35.920719146728516,"longitude":139.4863739013672,"category":"ホテル/カフェ","description":"","image_url":""},{"id":8603,"title":"リエットガーデン三鷹","architect":"リビタ+成瀬・猪熊建築設計事務所","year":2019.0,"address":"東京都三鷹市上連雀3-10-26","latitude":35.7011833190918,"longitude":139.55184936523438,"category":"集合住宅","description":"JRの旧社宅、寮を改修し一般向け集合住宅、シェア住宅に","image_url":""},{"id":8604,"title":"上毛新聞住宅展示場ハウスラボ","architect":"藤野高志","year":2019.0,"address":"群馬県太田市飯塚町600-1","latitude":36.27531051635742,"longitude":139.38352966308594,"category":"住宅","description":"上毛新聞マイホームプラザFun Lab内","image_url":""},{"id":8605,"title":"山形県立博物館","architect":"山下寿郎","year":1970.0,"address":"山形県山形市霞城町1-8","latitude":38.254364013671875,"longitude":140.3296356201172,"category":"博物館","description":"","image_url":""},{"id":8606,"title":"HAWKSベースボールパーク筑後","architect":"久米設計+大成建設","year":2016.0,"address":"福岡県筑後市大字津島757-1","latitude":33.18071365356445,"longitude":130.49057006835938,"category":"スタジアム","description":"","image_url":""},{"id":8607,"title":"THE ROYAL HOUSE","architect":"水戸岡鋭治","year":2019.0,"address":"静岡県下田市柿崎中831","latitude":34.67961120605469,"longitude":138.9527587890625,"category":"レストラン/観光施設","description":"","image_url":""},{"id":8608,"title":"日本生命保険相互会社 南館","architect":"日本生命保険相互会社不動産部","year":1959.0,"address":"大阪府大阪市中央区今橋3-6-12","latitude":34.69047927856445,"longitude":135.5013885498047,"category":"大学","description":"2015年に大林組設計により大幅改装","image_url":""},{"id":8609,"title":"慶應義塾幼稚舎 新館21","architect":"谷口吉生","year":2002.0,"address":"東京都渋谷区恵比寿2-35-1","latitude":35.64637756347656,"longitude":139.72396850585938,"category":"幼稚園","description":"","image_url":""},{"id":8610,"title":"慶應義塾幼稚舎 新体育館","architect":"谷口吉生","year":1987.0,"address":"東京都渋谷区恵比寿2-35-1","latitude":35.646568298339844,"longitude":139.72364807128906,"category":"幼稚園","description":"","image_url":""},{"id":8611,"title":"慶應義塾大学 塾監局 法人本部棟","architect":"曽禰達蔵+中條精一郎","year":1926.0,"address":"東京都港区三田2-15-45","latitude":35.64910888671875,"longitude":139.74349975585938,"category":"大学","description":"","image_url":""},{"id":8612,"title":"図書館旧館 福澤諭吉記念 慶應義塾史展示館","architect":"曽禰達蔵+中條精一郎+槇文彦","year":1912.0,"address":"東京都港区三田2-15-45","latitude":35.64946746826172,"longitude":139.74375915527344,"category":"大学","description":"2017-2019に耐震改修（三菱地所）、2021年に展示館（槇文彦設計）が開館","image_url":""},{"id":8613,"title":"慶應義塾大学 第一校舎","architect":"曽禰達蔵+中條精一郎","year":1937.0,"address":"東京都港区三田2-15-45","latitude":35.649234771728516,"longitude":139.74288940429688,"category":"大学","description":"","image_url":""},{"id":8614,"title":"慶應義塾大学 予防医学校舎","architect":"曽禰達蔵+中條精一郎","year":1929.0,"address":"東京都新宿区信濃町35","latitude":35.682456970214844,"longitude":139.71685791015625,"category":"大学","description":"","image_url":""},{"id":8615,"title":"慶應義塾大学 西校舎","architect":"三菱地所","year":1959.0,"address":"東京都港区三田2-15-45","latitude":35.649200439453125,"longitude":139.74200439453125,"category":"大学","description":"","image_url":""},{"id":8616,"title":"東京経済大学 国分寺キャンパス 本館","architect":"大成建設","year":1959.0,"address":"東京都国分寺市南町1-7-34","latitude":35.69944381713867,"longitude":139.49002075195312,"category":"大学","description":"","image_url":""},{"id":8617,"title":"HBC会館","architect":"久米権九郎","year":1959.0,"address":"北海道札幌市中央区北1条西5-3-6","latitude":43.062583923339844,"longitude":141.3488006591797,"category":"オフィスビル","description":"2020年に隣接地に新会館が竣工予定。2020年解体","image_url":""},{"id":8618,"title":"物質試行10 成城ファースト","architect":"鈴木了二","year":1982.0,"address":"東京都世田谷区成城2-40-1","latitude":35.639774322509766,"longitude":139.59915161132812,"category":"テナントビル","description":"","image_url":""},{"id":8619,"title":"物質試行8 練馬内田アームズ","architect":"鈴木了二","year":1978.0,"address":"東京都練馬区豊玉北5-7-15","latitude":35.73509216308594,"longitude":139.6564178466797,"category":"テナントビル","description":"","image_url":""},{"id":8620,"title":"物質試行11 成城フェリス","architect":"鈴木了二","year":1983.0,"address":"東京都世田谷区成城6-11-9","latitude":35.64082717895508,"longitude":139.59950256347656,"category":"テナントビル","description":"","image_url":""},{"id":8621,"title":"A-bands / Ci4","architect":"新井清一","year":2002.0,"address":"京都府京都市左京区松ヶ崎小脇町1-12","latitude":35.05192947387695,"longitude":135.78695678710938,"category":"ギャラリー/テナントビル","description":"","image_url":""},{"id":8622,"title":"The Garden 覚王山","architect":"D.I.G Architects","year":2012.0,"address":"愛知県名古屋市千種区山添町1-10","latitude":35.16395950317383,"longitude":136.9542694091797,"category":"集合住宅","description":"","image_url":""},{"id":8623,"title":"フクシマモデル","architect":"D.I.G Architects","year":2010.0,"address":"愛知県名古屋市緑区鳴海町相原町17","latitude":35.07872009277344,"longitude":136.9532928466797,"category":"工場/低層オフィス","description":"","image_url":""},{"id":8624,"title":"マジマ整形外科","architect":"D.I.G Architects","year":2010.0,"address":"愛知県名古屋市千種区茶屋が坂1-12-20","latitude":35.184967041015625,"longitude":136.96014404296875,"category":"個人医院","description":"","image_url":""},{"id":8625,"title":"デイケアでゅりっくす","architect":"D.I.G Architects","year":2018.0,"address":"岐阜県可児市帷子新町2-115","latitude":35.401920318603516,"longitude":137.01182556152344,"category":"養護施設","description":"","image_url":""},{"id":8626,"title":"作新学院 創立130周年記念棟 作新アカデミア・ラボ","architect":"鈴木エドワード","year":2017.0,"address":"栃木県宇都宮市一の沢1-1-41","latitude":36.56941223144531,"longitude":139.8607177734375,"category":"大学","description":"","image_url":""},{"id":8627,"title":"ガモウ 表参道","architect":"鈴木エドワード","year":2016.0,"address":"東京都港区南青山5-15","latitude":35.660404205322266,"longitude":139.71383666992188,"category":"低層オフィス","description":"","image_url":""},{"id":8628,"title":"松坂屋上野店","architect":"鈴木禎次+鈴木エドワード","year":1929.0,"address":"東京都台東区上野3-29-5","latitude":35.707489013671875,"longitude":139.77340698242188,"category":"モール/テナントビル","description":"1980年鈴木エドワードにより外装改修","image_url":""},{"id":8629,"title":"オオクラビル","architect":"鈴木エドワード","year":1981.0,"address":"東京都渋谷区神宮前1-22-1","latitude":35.67273712158203,"longitude":139.7039337158203,"category":"テナントビル","description":"","image_url":""},{"id":8630,"title":"宇田川交番","architect":"鈴木エドワード","year":1985.0,"address":"東京都渋谷区宇田川町31-6","latitude":35.66105651855469,"longitude":139.69810485839844,"category":"警察・消防署","description":"","image_url":""},{"id":8631,"title":"西町インターナショナルスクール","architect":"鈴木エドワード","year":1985.0,"address":"東京都港区元麻布1-3-3","latitude":35.653507232666016,"longitude":9913838592.0,"category":"学校/専門学校","description":"第一期1985年、第二期1987年、第三期1997年竣工","image_url":""},{"id":8632,"title":"コスモスパジオ用賀","architect":"鈴木エドワード","year":1988.0,"address":"東京都世田谷区用賀2-29-2","latitude":35.625099182128906,"longitude":139.6368865966797,"category":"集合住宅","description":"","image_url":""},{"id":8633,"title":"ウシオ電機 横浜事業所","architect":"鈴木エドワード","year":1991.0,"address":"横浜市青葉区元石川町6409","latitude":35.58436584472656,"longitude":139.5425262451172,"category":"低層オフィス","description":"","image_url":""},{"id":8634,"title":"セントメリーズ・インターナショナル・スクール 校舎棟","architect":"鈴木エドワード","year":2009.0,"address":"東京都世田谷区瀬田1-6-19","latitude":35.61520004272461,"longitude":139.6329345703125,"category":"学校/専門学校","description":"","image_url":""},{"id":8635,"title":"テラスミレ","architect":"鈴木エドワード","year":2000.0,"address":"東京都中野区南台4-12-6","latitude":35.6820068359375,"longitude":139.666748046875,"category":"集合住宅","description":"","image_url":""},{"id":8636,"title":"旧東京倶楽部","architect":"鈴木エドワード","year":1992.0,"address":"東京都渋谷区西原1-35-3","latitude":35.67757034301758,"longitude":139.68162536621094,"category":"低層オフィス","description":"","image_url":""},{"id":8637,"title":"関根歯科医院・レジデンス","architect":"鈴木エドワード","year":2001.0,"address":"埼玉県児玉郡上里町大字大字神保原町525-4","latitude":36.25658416748047,"longitude":139.15048217773438,"category":"個人医院/住宅","description":"","image_url":""},{"id":8638,"title":"新都心むさしのクリニック","architect":"鈴木エドワード","year":2015.0,"address":"埼玉県さいたま市大宮区北袋町2-389-1","latitude":35.89137268066406,"longitude":139.64585876464844,"category":"個人医院","description":"","image_url":""},{"id":8639,"title":"ガモウ 中央林間","architect":"鈴木エドワード","year":2012.0,"address":"神奈川県大和市中央林間4-29","latitude":35.50593185424805,"longitude":139.4486846923828,"category":"オフィスビル","description":"","image_url":""},{"id":8640,"title":"ガモウ 札幌","architect":"鈴木エドワード","year":2009.0,"address":"北海道札幌市中央区北2条西14-3-30","latitude":43.06114196777344,"longitude":141.33534240722656,"category":"オフィスビル","description":"","image_url":""},{"id":8641,"title":"ガモウ 名古屋","architect":"鈴木エドワード","year":2007.0,"address":"愛知県名古屋市中区丸の内1-7","latitude":35.17512512207031,"longitude":136.8953399658203,"category":"オフィスビル","description":"","image_url":""},{"id":8642,"title":"ガモウ 藤沢","architect":"鈴木エドワード","year":2006.0,"address":"神奈川県藤沢市朝日町16-13","latitude":35.34104537963867,"longitude":139.4915008544922,"category":"オフィスビル","description":"","image_url":""},{"id":8643,"title":"ガモウ さいたま","architect":"鈴木エドワード","year":2005.0,"address":"埼玉県さいたま市大宮区吉敷町4-4-25","latitude":35.8973274230957,"longitude":139.63148498535156,"category":"オフィスビル","description":"","image_url":""},{"id":8644,"title":"ガモウ 仙台","architect":"鈴木エドワード","year":2004.0,"address":"宮城県仙台市青葉区本町3-5-23","latitude":38.26884841918945,"longitude":140.87452697753906,"category":"オフィスビル","description":"","image_url":""},{"id":8645,"title":"ガモウ 千葉","architect":"鈴木エドワード","year":2015.0,"address":"千葉県千葉市中央区中央港1-23-5","latitude":35.60630798339844,"longitude":140.10269165039062,"category":"オフィスビル","description":"","image_url":""},{"id":8646,"title":"帝国劇場","architect":"谷口吉郎","year":1966.0,"address":"東京都千代田区丸の内3-1-1","latitude":35.67677688598633,"longitude":139.7609405517578,"category":"ホール・劇場","description":"","image_url":""},{"id":8647,"title":"伝泊 The Beachfront MIJORA","architect":"山下保博","year":2019.0,"address":"鹿児島県奄美市笠利町大字外金久861-4","latitude":28.469181060791016,"longitude":129.67083740234375,"category":"ホテル","description":"","image_url":""},{"id":8648,"title":"京都みなみ会館","architect":"島田陽","year":2019.0,"address":"京都府京都市南区西九条川原城町110","latitude":34.97956085205078,"longitude":135.75128173828125,"category":"ホール・劇場","description":"銀行、オフィスとして使われていた建物を映画館にリノベーション","image_url":""},{"id":8649,"title":"大阪興銀ビル","architect":"山下寿郎","year":1961.0,"address":"大阪府大阪市中央区高麗橋4-1-1","latitude":34.69013214111328,"longitude":135.50027465820312,"category":"オフィスビル","description":"","image_url":""},{"id":8650,"title":"天神ビル","architect":"竹中工務店","year":1960.0,"address":"福岡県福岡市中央区天神2-12-1","latitude":33.59165573120117,"longitude":130.3983612060547,"category":"オフィスビル","description":"","image_url":""}]}