{"page":14,"total_pages":290,"items_per_page":50,"total_items":14467,"items":[{"id":651,"title":"三郷市立ピアラシティー交流センター","architect":"西倉潔","year":2012.0,"address":"埼玉県三郷市泉77","latitude":35.843807220458984,"longitude":139.85906982421875,"category":"公民館・交流施設/体育館","description":"","image_url":""},{"id":652,"title":"首都圏外郭放水路 龍Q館 地下神殿","architect":"不明","year":null,"address":"埼玉県春日部市上金崎720","latitude":35.997474670410156,"longitude":139.8114471435547,"category":"公共施設","description":"内部見学要予約","image_url":""},{"id":653,"title":"東部地域振興ふれあい拠点施設 ふれあいキューブ","architect":"山下設計","year":2011.0,"address":"埼玉県春日部市南1-1-7","latitude":35.97812271118164,"longitude":139.75546264648438,"category":"公共施設/展示・会議場/公民館・交流施設","description":"","image_url":""},{"id":654,"title":"春日部市立市民武道館","architect":"内井昭蔵","year":1982.0,"address":"埼玉県春日部市大沼2-107","latitude":35.96649169921875,"longitude":139.75025939941406,"category":"体育館","description":"","image_url":""},{"id":655,"title":"シルバー・ホーク モリタニプラザ春日部","architect":"古市徹雄","year":1991.0,"address":"埼玉県春日部市豊町6-32-10","latitude":35.96611022949219,"longitude":139.73416137695312,"category":"店舗","description":"","image_url":""},{"id":656,"title":"所沢聖地霊園 礼拝堂・納骨堂","architect":"池原義郎","year":1973.0,"address":"埼玉県所沢市北原町980","latitude":35.807044982910156,"longitude":139.49020385742188,"category":"教会/霊園","description":"","image_url":""},{"id":657,"title":"柳瀬荘","architect":"不明","year":null,"address":"埼玉県所沢市坂之下437","latitude":35.81400680541992,"longitude":139.5425567626953,"category":"古民家","description":"木曜日・外観のみ","image_url":""},{"id":658,"title":"所沢航空発祥記念館","architect":"日建設計","year":1993.0,"address":"埼玉県所沢市並木1-13","latitude":35.79729080200195,"longitude":139.47119140625,"category":"博物館","description":"","image_url":""},{"id":659,"title":"埼玉県立武道館","architect":"松田平田設計","year":2003.0,"address":"埼玉県上尾市日の出4-1877","latitude":35.9703483581543,"longitude":139.60903930664062,"category":"体育館","description":"","image_url":""},{"id":660,"title":"立教学院聖パウロ礼拝堂","architect":"アントニン・レーモンド","year":1963.0,"address":"埼玉県新座市北野1-2-25","latitude":35.81386947631836,"longitude":139.5668487548828,"category":"教会","description":"2011～2013年にかけて大規模改修","image_url":""},{"id":661,"title":"巣鴨信用金庫 新座支店","architect":"エマニュエル・ムホー","year":2009.0,"address":"埼玉県新座市野火止6-1-31","latitude":35.801265716552734,"longitude":139.56246948242188,"category":"金融機関","description":"","image_url":""},{"id":662,"title":"誠之堂","architect":"田辺淳吉","year":1916.0,"address":"埼玉県深谷市起会110-1","latitude":36.2227897644043,"longitude":139.27560424804688,"category":"洋館","description":"","image_url":""},{"id":663,"title":"誠之堂・清風亭","architect":"西村好時","year":1926.0,"address":"埼玉県深谷市起会84-1","latitude":36.22275924682617,"longitude":139.27520751953125,"category":"洋館","description":"大寄公民館内 世田谷から移築","image_url":""},{"id":664,"title":"日本煉瓦史料館 旧チーゼ邸","architect":"不明","year":1906.0,"address":"埼玉県深谷市上敷免28-10","latitude":36.220611572265625,"longitude":139.2987518310547,"category":"洋館","description":"","image_url":""},{"id":665,"title":"川越市立美術館","architect":"坂倉建築研究所","year":2002.0,"address":"埼玉県川越市郭町2-30-1","latitude":35.92597961425781,"longitude":139.49143981933594,"category":"美術館","description":"","image_url":""},{"id":666,"title":"東邦音楽大学 グランツザール","architect":"野生司義光","year":2004.0,"address":"埼玉県川越市大字今泉78-1","latitude":35.8985595703125,"longitude":139.52561950683594,"category":"ホール・劇場","description":"","image_url":""},{"id":667,"title":"川越市立博物館","architect":"建築研究所アーキヴィジョン","year":1990.0,"address":"埼玉県川越市2-30-1","latitude":35.925968170166016,"longitude":139.491455078125,"category":"博物館","description":"","image_url":""},{"id":668,"title":"Fギャラリー 蘭山記念美術館","architect":"北山孝二郎","year":2003.0,"address":"埼玉県川越市元町2-2-1","latitude":35.924659729003906,"longitude":139.48291015625,"category":"ギャラリー","description":"","image_url":""},{"id":669,"title":"Market TERRACE 川越総合卸売市場 場外レストラン","architect":"窪田茂","year":2010.0,"address":"埼玉県川越市大袋650","latitude":35.89680099487305,"longitude":139.43589782714844,"category":"レストラン","description":"","image_url":""},{"id":670,"title":"ヤオコー川越美術館 三栖右嗣記念館","architect":"伊東豊雄","year":2012.0,"address":"埼玉県川越市氷川町109-1","latitude":35.92857360839844,"longitude":139.48907470703125,"category":"美術館","description":"","image_url":"https://lh3.googleusercontent.com/-a-PWzB33brU/T63KSeKqrTI/AAAAAAABGKU/_DI-4g1fWDY/s1024/P4248009.jpg"},{"id":671,"title":"遠山記念館","architect":"室岡惣七","year":1936.0,"address":"埼玉県比企郡川島町白井沼675","latitude":35.987823486328125,"longitude":139.49342346191406,"category":"和風住宅","description":"","image_url":""},{"id":672,"title":"Tree House","architect":"石山修武","year":2000.0,"address":"埼玉県秩父市大滝 栃本広場","latitude":35.94877624511719,"longitude":138.861572265625,"category":"公園","description":"場所は正確ではない。栃本関所のわき道を車で登っていくと、栃本広場があり、その奥にあるという。","image_url":""},{"id":673,"title":"旧秩父セメント第2工場","architect":"谷口吉郎+日建設計","year":1956.0,"address":"埼玉県秩父市大字大野原1800","latitude":36.027366638183594,"longitude":139.09510803222656,"category":"工場","description":"","image_url":""},{"id":674,"title":"秩父市歴史文化伝承館","architect":"日本設計","year":2003.0,"address":"埼玉県秩父市熊木町8-15","latitude":35.99207305908203,"longitude":139.08485412597656,"category":"公民館・交流施設/庁舎","description":"","image_url":""},{"id":675,"title":"彩の国ふれあいの森 森林科学館・宿泊棟","architect":"片山和俊","year":1994.0,"address":"埼玉県秩父市中津川447","latitude":35.99436569213867,"longitude":138.800537109375,"category":"公園","description":"","image_url":""},{"id":676,"title":"秩父市立民俗博物館","architect":"不明","year":null,"address":"埼玉県秩父市大宮 市立民俗博物館","latitude":36.00661849975586,"longitude":139.10079956054688,"category":"洋館","description":"","image_url":""},{"id":677,"title":"埼玉県立自然の博物館","architect":"前川國男","year":1981.0,"address":"埼玉県秩父郡長瀞町長瀞1417-1","latitude":36.08743667602539,"longitude":139.11607360839844,"category":"博物館","description":"","image_url":""},{"id":678,"title":"Pleats.M","architect":"小川博央","year":2012.0,"address":"埼玉県東松山市松本町2-2-9","latitude":36.0396614074707,"longitude":139.4154052734375,"category":"教会","description":"","image_url":""},{"id":679,"title":"埼玉県平和資料館","architect":"交建設計","year":1993.0,"address":"埼玉県東松山市岩殿241-113","latitude":35.99860763549805,"longitude":139.36566162109375,"category":"博物館","description":"","image_url":""},{"id":680,"title":"盈進学園東野高等学校","architect":"クリストファー・アレグザンダー","year":1985.0,"address":"埼玉県入間市二本木112-1","latitude":35.80121994018555,"longitude":139.3639678955078,"category":"学校","description":"","image_url":""},{"id":681,"title":"あけぼの子どもの森公園","architect":"村山雄一","year":1997.0,"address":"埼玉県飯能市阿須893-1","latitude":35.830509185791016,"longitude":139.34417724609375,"category":"公園","description":"","image_url":""},{"id":682,"title":"飯能市立図書館","architect":"石本建築事務所","year":2013.0,"address":"埼玉県飯能市仲町28-1","latitude":35.85512161254883,"longitude":139.3133087158203,"category":"図書館","description":"","image_url":""},{"id":683,"title":"北本駅西口 駅前多目的広場","architect":"アトリエ・ワン","year":2013.0,"address":"埼玉県北本市中央2-171","latitude":36.031673431396484,"longitude":139.5336151123047,"category":"広場","description":"","image_url":""},{"id":684,"title":"嵐山カントリークラブハウス","architect":"天野太郎","year":1961.0,"address":"埼玉県比企郡嵐山町鎌形1146","latitude":36.01974868774414,"longitude":139.32180786132812,"category":"クラブハウス","description":"","image_url":""},{"id":685,"title":"大原山七福天寺本堂","architect":"川口英俊","year":1996.0,"address":"千葉県いすみ市大原700","latitude":35.233131408691406,"longitude":140.3980712890625,"category":"寺院","description":"","image_url":""},{"id":686,"title":"県立北総花の丘公園 花と緑の文化館","architect":"飯田善彦","year":2000.0,"address":"千葉県印西市原山1-12-1","latitude":35.80005645751953,"longitude":140.12350463867188,"category":"公園","description":"","image_url":""},{"id":687,"title":"東京基督教大学 チャペル","architect":"磯崎新","year":1989.0,"address":"千葉県印西市内野3-301-5","latitude":35.789947509765625,"longitude":140.12564086914062,"category":"教会","description":"","image_url":""},{"id":688,"title":"メタルアート・ミュージアム・光の谷","architect":"椎名英三","year":1996.0,"address":"千葉県印西市吉高2465","latitude":35.78831481933594,"longitude":140.24378967285156,"category":"美術館","description":"2013年3月29日まで休館","image_url":""},{"id":689,"title":"印西消防署牧の原分署","architect":"石田敏明","year":2001.0,"address":"千葉県印西市牧の原2-3","latitude":35.806495666503906,"longitude":140.15167236328125,"category":"警察・消防署","description":"","image_url":""},{"id":690,"title":"地域交流プラザ エスレ高洲","architect":"栗生明","year":2010.0,"address":"千葉県浦安市高洲5-3-2","latitude":35.6365966796875,"longitude":139.9176025390625,"category":"公民館・交流施設/児童施設/図書館","description":"","image_url":""},{"id":691,"title":"三井ガーデンホテルプラナ東京ベイ","architect":"光井純","year":2007.0,"address":"千葉県浦安市明海6-2-1","latitude":35.63583755493164,"longitude":139.92469787597656,"category":"ホテル","description":"","image_url":""},{"id":692,"title":"我孫子市生涯学習センター アビスタ","architect":"岡田新一","year":2001.0,"address":"千葉県我孫子市若松26-4","latitude":35.86630630493164,"longitude":140.01480102539062,"category":"公民館・交流施設/図書館/ホール・劇場","description":"","image_url":""},{"id":693,"title":"清澄寺 祖師堂","architect":"内井昭蔵","year":1972.0,"address":"千葉県鴨川市清澄322-1","latitude":35.16097640991211,"longitude":140.15135192871094,"category":"寺院","description":"","image_url":""},{"id":694,"title":"千葉県南総文化ホール","architect":"岡田新一","year":1997.0,"address":"千葉県館山市北条740-1","latitude":34.989845275878906,"longitude":139.87388610839844,"category":"ホール・劇場","description":"","image_url":""},{"id":695,"title":"君津市保健福祉センター ふれあい館","architect":"坂倉建築研究所","year":1999.0,"address":"千葉県君津市久保3-1-1","latitude":35.33094787597656,"longitude":139.90406799316406,"category":"福祉センター","description":"","image_url":""},{"id":696,"title":"君津市 八重原公民館","architect":"類設計室","year":1997.0,"address":"千葉県君津市南子安9-17-2","latitude":35.327884674072266,"longitude":139.93008422851562,"category":"公民館・交流施設","description":"","image_url":""},{"id":697,"title":"御宿町役場庁舎・保健センター","architect":"マイケル・グレイヴス","year":1993.0,"address":"千葉県夷隅郡御宿町須賀1522","latitude":35.191490173339844,"longitude":140.3487548828125,"category":"庁舎","description":"","image_url":""},{"id":698,"title":"恋する豚研究所","architect":"アトリエ・ワン","year":2013.0,"address":"千葉県香取市沢2459","latitude":35.80260467529297,"longitude":140.46697998046875,"category":"店舗/カフェ","description":"","image_url":""},{"id":699,"title":"和洋女子大学 佐倉セミナーハウス","architect":"ナンシー・フィンレイ+千葉学","year":1997.0,"address":"千葉県佐倉市ユーカリが丘5-4-1","latitude":35.73961639404297,"longitude":140.1553497314453,"category":"学校","description":"","image_url":""},{"id":700,"title":"国立歴史民俗博物館","architect":"芦原義信","year":1980.0,"address":"千葉県佐倉市城内町117","latitude":35.723724365234375,"longitude":140.22019958496094,"category":"博物館","description":"","image_url":""}]}