{"page":202,"total_pages":290,"items_per_page":50,"total_items":14467,"items":[{"id":10051,"title":"近畿産業信用組合本店","architect":"大成建設","year":2019.0,"address":"大阪府大阪市中央区淡路町2-1-3","latitude":34.68703079223633,"longitude":135.50619506835938,"category":"オフィスビル","description":"","image_url":""},{"id":10052,"title":"愛知学院大学 名城公園キャンパス 新高層棟／事務棟","architect":"株式会社大建設計","year":2020.0,"address":"愛知県名古屋市北区名城3-1-1","latitude":35.186832427978516,"longitude":136.90550231933594,"category":"大学","description":"","image_url":""},{"id":10053,"title":"ヒューリック両国リバーセンター","architect":"佐藤総合計画","year":2020.0,"address":"東京都墨田区横網1-2-13","latitude":35.697811126708984,"longitude":139.79241943359375,"category":"ホテル/複合施設","description":"","image_url":""},{"id":10054,"title":"むさしのエコreゾート","architect":"水谷俊博","year":2020.0,"address":"東京都武蔵野市緑町3-1-5","latitude":35.71892166137695,"longitude":139.56585693359375,"category":"博物館","description":"クレジット 基本計画：武蔵野市。実施設計：相和技術研究所","image_url":""},{"id":10055,"title":"神奈川工科大学KAIT広場","architect":"石上純也","year":2020.0,"address":"神奈川県厚木市下荻野1030","latitude":35.48662185668945,"longitude":139.34327697753906,"category":"大学/広場","description":"","image_url":""},{"id":10056,"title":"白井屋ホテル","architect":"藤本壮介","year":2020.0,"address":"群馬県前橋市本町2-2-150","latitude":36.39054489135742,"longitude":139.07029724121094,"category":"ホテル","description":"","image_url":""},{"id":10057,"title":"第2スカイビル","architect":"渡邊洋治","year":1968.0,"address":"東京都新宿区新宿5-10-1","latitude":35.69194793701172,"longitude":139.7084503173828,"category":"集合住宅","description":"店舗1階YUBUNEの内装設計を西沢立衛","image_url":""},{"id":10058,"title":"三栄建設 鉄構事業本部新事務所","architect":"竹中工務店","year":2020.0,"address":"大阪府大阪市大正区南恩加島6-2-21","latitude":34.637489318847656,"longitude":135.4686279296875,"category":"低層オフィス","description":"","image_url":""},{"id":10059,"title":"HANEDA INNOVATION CITY I期","architect":"鹿島建設+大和ハウス工業","year":2020.0,"address":"東京都大田区羽田空港1-1-4","latitude":35.54828643798828,"longitude":139.75584411621094,"category":"複合施設/総合文化施設/展示・会議場","description":"第一期の竣工は先端モビリティセンター、会議研修センター、区施策活用スペース、ライブホール、文化体験商業施設、水素ステーション、交流・連携スペースなどとなっている。","image_url":""},{"id":10060,"title":"しまなみ海道WAKKA","architect":"倉林貴彦","year":2020.0,"address":"愛媛県今治市上浦町井口6691-1","latitude":34.26411056518555,"longitude":133.042724609375,"category":"ホテル/カフェ/観光施設","description":"","image_url":""},{"id":10061,"title":"保育園の家 タテノイト","architect":"倉林貴彦","year":2020.0,"address":"埼玉県秩父郡横瀬町横瀬1263-4","latitude":35.98110580444336,"longitude":139.11082458496094,"category":"幼稚園/カフェ","description":"工場をリノベーションし、カフェ兼保育園","image_url":""},{"id":10062,"title":"コモレ四谷","architect":"日本設計+三菱地所","year":2020.0,"address":"東京都新宿区四谷1-6-1","latitude":35.687469482421875,"longitude":139.72886657714844,"category":"複合ビル/集合住宅","description":"","image_url":""},{"id":10063,"title":"みずほ丸の内タワー","architect":"日本設計+三菱地所","year":2020.0,"address":"東京都千代田区丸の内1-3-3","latitude":35.68380355834961,"longitude":139.7636260986328,"category":"オフィスビル","description":"","image_url":""},{"id":10064,"title":"銀行会館","architect":"久米設計+三菱地所","year":2020.0,"address":"東京都千代田区丸の内1-3-3","latitude":35.684024810791016,"longitude":139.7631072998047,"category":"組合施設/オフィスビル","description":"","image_url":""},{"id":10065,"title":"丸の内テラス","architect":"三菱地所","year":2020.0,"address":"東京都千代田区丸の内1-3-4","latitude":35.68443298339844,"longitude":139.7641143798828,"category":"テナントビル/複合施設","description":"","image_url":""},{"id":10066,"title":"レイヤード ヒサヤオオドオリパーク","architect":"大成建設+日建設計","year":2020.0,"address":"愛知県名古屋市中区丸の内3-6","latitude":35.17631149291992,"longitude":136.907958984375,"category":"公園/モール","description":"","image_url":""},{"id":10067,"title":"表参道TWビル","architect":"北山恒","year":2019.0,"address":"東京都渋谷区神宮前5-50-6","latitude":35.6629753112793,"longitude":139.7099609375,"category":"テナントビル","description":"","image_url":""},{"id":10068,"title":"原宿TWビル","architect":"北山恒","year":2017.0,"address":"東京都渋谷区神宮前1-14-24","latitude":35.66987228393555,"longitude":139.7031707763672,"category":"テナントビル","description":"","image_url":""},{"id":10069,"title":"さまざま広場","architect":"新居千秋","year":2020.0,"address":"三重県伊賀市上野東町2946","latitude":34.76639938354492,"longitude":136.13095092773438,"category":"トイレ","description":"","image_url":""},{"id":10070,"title":"Ready to flight!NARITA 旧久住第二小学校","architect":"伊原慶","year":2019.0,"address":"千葉県成田市大室680","latitude":35.83401870727539,"longitude":140.37571716308594,"category":"その他宿泊施設/ホステル","description":"","image_url":""},{"id":10071,"title":"新小牧市立図書館","architect":"新居千秋","year":2020.0,"address":"愛知県小牧市中央1-234","latitude":35.28940200805664,"longitude":136.9261932373047,"category":"図書館","description":"2020年12月25日竣工予定。2021年3月オープン予定","image_url":""},{"id":10072,"title":"港南公会堂・港南土木事務所","architect":"新居千秋","year":2021.0,"address":"神奈川県横浜市港南区港南中央通10-1","latitude":35.40065383911133,"longitude":139.59121704101562,"category":"ホール・劇場","description":"2021年3月利用開始予定。2020年12月段階で竣工間近","image_url":""},{"id":10073,"title":"横浜北幸ビル","architect":"東急設計コンサルタント+西松建設+中村拓志","year":2018.0,"address":"神奈川県横浜市西区北幸2-11-1","latitude":35.465694427490234,"longitude":139.61651611328125,"category":"テナントビル/ホール・劇場","description":"デザイン監修：中村拓志","image_url":""},{"id":10074,"title":"ミモザ","architect":"武藤圭太郎","year":2019.0,"address":"岐阜県瑞穂市犀川2-15","latitude":35.36867141723633,"longitude":136.67189025878906,"category":"美容院","description":"","image_url":""},{"id":10075,"title":"進航ライン 倉庫・駐車場","architect":"武藤圭太郎","year":2020.0,"address":"岐阜県大垣市内原2-108-1","latitude":35.31819534301758,"longitude":136.6201934814453,"category":"工場/駐車・駐輪場","description":"","image_url":""},{"id":10076,"title":"喫茶クロカワ","architect":"アントニン・レーモンド","year":1961.0,"address":"愛知県名古屋市中区千代田5-8-27","latitude":35.16001892089844,"longitude":136.91880798339844,"category":"カフェ","description":"元商社オフィス","image_url":""},{"id":10077,"title":"BnA Alter Museum","architect":"東洋設計","year":2019.0,"address":"京都府京都市下京区天満町267-1","latitude":35.0002326965332,"longitude":135.76840209960938,"category":"ホテル","description":"","image_url":""},{"id":10078,"title":"シーウッドホテル","architect":"高松伸","year":2020.0,"address":"沖縄県宮古島市下地来間484-7","latitude":24.729211807250977,"longitude":125.24381256103516,"category":"ホテル","description":"","image_url":""},{"id":10079,"title":"グランブルー三条柳馬場","architect":"高松伸","year":2002.0,"address":"京都府京都市中京区油屋町89","latitude":35.009315490722656,"longitude":135.76361083984375,"category":"集合住宅","description":"","image_url":""},{"id":10080,"title":"ヤマハマリーナ浜名湖","architect":"渡辺隆","year":2020.0,"address":"静岡県湖西市入出1380","latitude":34.755435943603516,"longitude":137.5203094482422,"category":"港/クラブハウス","description":"","image_url":""},{"id":10081,"title":"磐田市立総合病院研修棟","architect":"渡辺隆","year":2020.0,"address":"静岡県磐田市大久保512-3","latitude":34.76838302612305,"longitude":137.85646057128906,"category":"病院","description":"","image_url":""},{"id":10082,"title":"磐田在宅医療クリニック","architect":"渡辺隆","year":2016.0,"address":"静岡県磐田市見付1752-5","latitude":34.747581481933594,"longitude":137.8572540283203,"category":"個人医院","description":"","image_url":""},{"id":10083,"title":"6角形の津波避難タワー","architect":"渡辺隆","year":2015.0,"address":"静岡県磐田市駒場6866-5","latitude":34.652679443359375,"longitude":137.80528259277344,"category":"展望台/公共施設","description":"","image_url":""},{"id":10084,"title":"ecoランドリー プラザ21見付店","architect":"渡辺隆","year":2014.0,"address":"静岡県磐田市見付6038-5","latitude":34.737274169921875,"longitude":137.85874938964844,"category":"店舗","description":"","image_url":""},{"id":10085,"title":"ENEOS 磐田中央町SS","architect":"渡辺隆","year":2017.0,"address":"静岡県磐田市中央町88-2","latitude":34.71700668334961,"longitude":137.8565216064453,"category":"店舗","description":"","image_url":""},{"id":10086,"title":"磐田市城山・向陽地域包括支援センター","architect":"渡辺隆","year":2014.0,"address":"静岡県磐田市見付2510-4","latitude":34.728477478027344,"longitude":137.859375,"category":"公共施設/福祉センター","description":"","image_url":""},{"id":10087,"title":"ジーベック 甲府支店","architect":"福山博之","year":2020.0,"address":"山梨県甲斐市西八幡2224","latitude":35.63949203491211,"longitude":138.52069091796875,"category":"低層オフィス","description":"","image_url":""},{"id":10088,"title":"青森港国際クルーズターミナル","architect":"蟻塚学","year":2019.0,"address":"青森県青森市本町3","latitude":40.832679748535156,"longitude":140.74620056152344,"category":"港","description":"","image_url":""},{"id":10089,"title":"弘前市民中央広場","architect":"前川國男","year":1982.0,"address":"青森県弘前市元寺町下白銀町","latitude":40.60321807861328,"longitude":140.4687957763672,"category":"広場","description":"","image_url":""},{"id":10090,"title":"ヒルサイドテラス C棟","architect":"槇文彦","year":1973.0,"address":"東京都渋谷区猿楽町29-10","latitude":35.64793395996094,"longitude":139.70059204101562,"category":"モール/ギャラリー","description":"ヒルサイドテラス第二期","image_url":""},{"id":10091,"title":"ヒルサイドテラス D・E棟","architect":"槇文彦","year":1977.0,"address":"東京都渋谷区猿楽町29-9","latitude":35.64813995361328,"longitude":139.70001220703125,"category":"モール/集合住宅","description":"ヒルサイドテラス 第三期","image_url":""},{"id":10092,"title":"ヒルサイドテラス アネックス A・B棟","architect":"元倉眞琴","year":1985.0,"address":"東京都渋谷区猿楽町29-21","latitude":35.64712142944336,"longitude":139.70140075683594,"category":"ホール・劇場/クラブハウス","description":"ヒルサイドテラス 第四期","image_url":""},{"id":10093,"title":"ヒルサイドプラザ","architect":"槇文彦","year":1987.0,"address":"東京都渋谷区猿楽町29","latitude":35.647735595703125,"longitude":139.7008514404297,"category":"ホール・劇場","description":"ヒルサイドテラス 第五期","image_url":""},{"id":10094,"title":"ヒルサイドテラス F・G・N棟","architect":"槇文彦","year":1992.0,"address":"東京都渋谷区猿楽町18-8","latitude":35.64857482910156,"longitude":139.70042419433594,"category":"モール/低層オフィス","description":"ヒルサイドテラス 第六期。N棟は個人宅","image_url":""},{"id":10095,"title":"アップルスタジオフラッツ","architect":"牛田英作","year":2005.0,"address":"東京都町田市能ヶ谷1-5-2","latitude":35.583412170410156,"longitude":139.48036193847656,"category":"集合住宅","description":"","image_url":""},{"id":10096,"title":"旧滋賀県琵琶湖研究所 東棟","architect":"浦辺鎮太郎","year":1982.0,"address":"滋賀県大津市打出浜1-10","latitude":35.00780487060547,"longitude":135.8732452392578,"category":"研究施設/公共施設","description":"西棟（山の棟）は解体済み","image_url":""},{"id":10097,"title":"日本基督教団 鎌倉雪ノ下教会 教会墓地","architect":"保坂猛","year":2020.0,"address":"横浜市港南区日野中央1-13-1","latitude":35.387184143066406,"longitude":139.58987426757812,"category":"霊園","description":"","image_url":""},{"id":10098,"title":"長門湯本温泉 恩湯","architect":"岡昇平+田村幸彦","year":2020.0,"address":"山口県長門市深川湯本2265","latitude":34.32865524291992,"longitude":131.172119140625,"category":"温泉/レストラン","description":"","image_url":""},{"id":10099,"title":"旧吉川家岩国事務所","architect":"堀口捨己","year":1931.0,"address":"山口県岩国市横山2-7","latitude":34.17120361328125,"longitude":132.1776580810547,"category":"低層オフィス/和風住宅","description":"","image_url":""},{"id":10100,"title":"流山おおたかの森S･C FLAPS","architect":"マウントフジアーキテクツスタジオ","year":2021.0,"address":"千葉県流山市おおたかの森南6","latitude":35.871002197265625,"longitude":139.92481994628906,"category":"モール","description":"2021年春開業予定","image_url":""}]}