{"page":5,"total_pages":290,"items_per_page":50,"total_items":14467,"items":[{"id":201,"title":"秋田市文化創造館 旧秋田県立美術館","architect":"日建設計","year":1966.0,"address":"秋田県秋田市千秋明徳町3‐7","latitude":39.719154357910156,"longitude":140.1230010986328,"category":"美術館","description":"","image_url":""},{"id":202,"title":"秋田市立千秋美術館","architect":"不明","year":null,"address":"秋田県秋田市中通2-3-8","latitude":39.71743392944336,"longitude":140.12457275390625,"category":"美術館","description":"","image_url":""},{"id":203,"title":"秋田県営住宅新屋団地","architect":"原広司","year":1984.0,"address":"秋田県秋田市新屋栗田町21-2","latitude":39.686344146728516,"longitude":140.07839965820312,"category":"集合住宅","description":"","image_url":""},{"id":204,"title":"秋田公立美術工芸短期大学","architect":"松田平田設計","year":1995.0,"address":"秋田県秋田市新屋大川町12-3","latitude":39.686370849609375,"longitude":140.0908660888672,"category":"大学","description":"","image_url":""},{"id":205,"title":"十和田ホテル本館","architect":"長倉謙介","year":1938.0,"address":"秋田県鹿角郡小坂町十和田湖字鉛山","latitude":40.434574127197266,"longitude":140.8424530029297,"category":"ホテル","description":"1998年に石本建築事務所により改修","image_url":""},{"id":206,"title":"小坂鉱山事務所","architect":"関・空間設計","year":1905.0,"address":"秋田県鹿角郡小坂町小坂鉱山字古館48-2","latitude":40.328460693359375,"longitude":140.744384765625,"category":"洋館","description":"2000年に関・空間設計が改修","image_url":""},{"id":207,"title":"康楽館","architect":"山本辰之助","year":1910.0,"address":"秋田県鹿角郡小坂町小坂鉱山字松ノ下2","latitude":40.32655715942383,"longitude":140.7451629638672,"category":"洋館","description":"","image_url":""},{"id":208,"title":"仙北市立角館町 平福記念美術館","architect":"大江宏","year":1988.0,"address":"秋田県仙北市角館町表町上丁4-4","latitude":39.60194396972656,"longitude":140.56005859375,"category":"美術館","description":"","image_url":""},{"id":209,"title":"仙北市立角館樺細工伝承館","architect":"大江宏","year":1978.0,"address":"秋田県仙北市角館町表町下丁10","latitude":39.59965133666992,"longitude":140.56101989746094,"category":"美術館","description":"","image_url":""},{"id":210,"title":"大村美術館","architect":"大江匡","year":1995.0,"address":"秋田県仙北市角館町山根町39-1","latitude":39.5992546081543,"longitude":140.56300354003906,"category":"美術館","description":"","image_url":""},{"id":211,"title":"秋田市立中央図書館 明徳館","architect":"谷口吉生","year":1983.0,"address":"秋田市千秋明徳町4-4","latitude":39.719757080078125,"longitude":140.12351989746094,"category":"図書館","description":"","image_url":""},{"id":212,"title":"大潟村干拓博物館","architect":"岡田新一","year":2000.0,"address":"秋田県南秋田郡大潟村西5-2","latitude":40.015350341796875,"longitude":139.95152282714844,"category":"博物館","description":"","image_url":""},{"id":213,"title":"今井篤記念体育館","architect":"坂茂","year":2002.0,"address":"秋田県大館市片山町3-12-30","latitude":40.27717208862305,"longitude":140.53297424316406,"category":"体育館","description":"","image_url":""},{"id":214,"title":"大館樹海パークドーム／パークセンター","architect":"伊東豊雄","year":1997.0,"address":"秋田県大館市上代野字稲荷台1-1","latitude":40.29267501831055,"longitude":140.58663940429688,"category":"スタジアム","description":"","image_url":""},{"id":215,"title":"大館市営水門前住宅 スワンハウス","architect":"新居千秋","year":1994.0,"address":"秋田県大館市水門前126","latitude":40.276939392089844,"longitude":140.56373596191406,"category":"集合住宅","description":"","image_url":""},{"id":216,"title":"桜櫓館 旧桜場文蔵邸","architect":"不明","year":1933.0,"address":"秋田県大館市中城 櫻櫓館","latitude":40.27156066894531,"longitude":140.56582641601562,"category":"洋館","description":"","image_url":""},{"id":217,"title":"男鹿市立鵜木小学校","architect":"毛綱毅曠","year":1988.0,"address":"秋田県男鹿市鵜木松木沢境90","latitude":39.979129791259766,"longitude":139.92144775390625,"category":"学校","description":"","image_url":""},{"id":218,"title":"田沢湖駅","architect":"坂茂","year":1997.0,"address":"秋田県仙北市田沢湖生保内男坂68","latitude":39.70028305053711,"longitude":140.722412109375,"category":"駅","description":"","image_url":""},{"id":219,"title":"湯沢酒造会館 四同舎","architect":"白井晟一","year":1959.0,"address":"秋田県湯沢市前森1-1-26","latitude":39.16790771484375,"longitude":140.4935302734375,"category":"公共施設/醸造所/組合施設","description":"","image_url":""},{"id":220,"title":"試作小住宅 顧空庵","architect":"白井晟一","year":1953.0,"address":"秋田県湯沢市湯ノ原1-3-20","latitude":39.1662483215332,"longitude":140.49853515625,"category":"住宅","description":"1953年世田谷区に建築後、2007年現在地に移築","image_url":""},{"id":221,"title":"湯沢市役所雄勝支所 旧雄勝町役場","architect":"白井晟一","year":1956.0,"address":"秋田県湯沢市横堀下柴田39 湯沢市役所雄勝庁舎","latitude":39.06059265136719,"longitude":140.44686889648438,"category":"庁舎","description":"2017年に解体","image_url":""},{"id":222,"title":"稲住温泉友誼館 旧秋ノ宮村役場","architect":"白井晟一","year":1951.0,"address":"秋田県湯沢市秋ノ宮山居野11","latitude":38.95976257324219,"longitude":140.53912353515625,"category":"公共施設/スポーツ施設","description":"","image_url":""},{"id":223,"title":"稲住温泉 浮雲","architect":"白井晟一","year":1952.0,"address":"秋田県湯沢市秋ノ宮山居野11","latitude":38.95977783203125,"longitude":140.5396728515625,"category":"旅館","description":"2019年に改装。どこまで白井晟一の原設計が残っているかは不明。調査中。","image_url":""},{"id":224,"title":"八峰町役場庁舎","architect":"青島裕之","year":2009.0,"address":"秋田県山本郡八峰町峰浜目名潟字目長田118","latitude":40.31795883178711,"longitude":140.070556640625,"category":"庁舎","description":"","image_url":""},{"id":225,"title":"由利本荘市文化交流館 カダーレ","architect":"新居千秋","year":2011.0,"address":"秋田県由利本荘市東町85","latitude":39.387046813964844,"longitude":140.0537567138672,"category":"総合文化施設","description":"","image_url":""},{"id":226,"title":"亀田城佐藤八十八美術館","architect":"不明","year":null,"address":"秋田県由利本荘市岩城下蛇田字高城4","latitude":39.49896240234375,"longitude":140.0871124267578,"category":"城郭","description":"城の再現・美術館","image_url":""},{"id":227,"title":"石と賢治のミュージアム 旧東北砕石工場","architect":"不明","year":null,"address":"岩手県一関市東山町松川滝ノ沢149-1","latitude":38.97880935668945,"longitude":141.23841857910156,"category":"洋館","description":"","image_url":""},{"id":228,"title":"一戸南小学校","architect":"安藤忠雄","year":2003.0,"address":"岩手県二戸郡一戸町西法寺関屋62-1","latitude":40.20152282714844,"longitude":141.29940795898438,"category":"学校","description":"","image_url":""},{"id":229,"title":"御所野縄文博物館","architect":"仙田満","year":2002.0,"address":"岩手県二戸郡一戸町岩舘御所野2","latitude":40.19733428955078,"longitude":141.3102569580078,"category":"博物館","description":"","image_url":""},{"id":230,"title":"明治記念館 旧岩谷堂共立病院","architect":"不明","year":1874.0,"address":"岩手県奥州市江刺区南町4-8","latitude":39.19089889526367,"longitude":141.18162536621094,"category":"洋館","description":"","image_url":""},{"id":231,"title":"花巻総合体育館","architect":"古市徹雄","year":1997.0,"address":"岩手県花巻市松園町50","latitude":39.406314849853516,"longitude":141.09658813476562,"category":"体育館","description":"","image_url":""},{"id":232,"title":"宮沢賢治イーハトーブ館","architect":"古市徹雄","year":1992.0,"address":"岩手県花巻市高松第1地割1-1","latitude":39.39694595336914,"longitude":141.16453552246094,"category":"博物館","description":"営業確認","image_url":"https://lh3.googleusercontent.com/-pWtiRExdVyc/UQI146VlKFI/AAAAAAAAzmI/4oGx-iWjWfc/s1152/lr-1154849.jpg"},{"id":233,"title":"みんなの家 かだって（釜石）","architect":"伊東豊雄","year":2012.0,"address":"岩手県釜石市只越町1-3-2","latitude":39.2741813659668,"longitude":141.88455200195312,"category":"公民館・交流施設","description":"","image_url":""},{"id":234,"title":"宝来館の顔","architect":"宮本佳明","year":2011.0,"address":"岩手県釜石市鵜住居町20-93-18","latitude":39.32883071899414,"longitude":141.90008544921875,"category":"公共施設/旅館","description":"","image_url":""},{"id":235,"title":"kamaishiの箱 大只越公園","architect":"難波和彦","year":2011.0,"address":"岩手県釜石市大只越町1-1","latitude":39.27630615234375,"longitude":141.8804168701172,"category":"店舗","description":"","image_url":""},{"id":236,"title":"kamaishiの箱 鈴子公園","architect":"難波和彦","year":2011.0,"address":"岩手県釜石市鈴子町14","latitude":39.27424240112305,"longitude":141.86793518066406,"category":"店舗","description":"","image_url":""},{"id":237,"title":"釜石市平田のみんなの家","architect":"山本理顕","year":2012.0,"address":"岩手県釜石市大字平田第6地割1-9","latitude":39.24006652832031,"longitude":141.88961791992188,"category":"公民館・交流施設","description":"2021年解体","image_url":""},{"id":238,"title":"アンバーホール 久慈市文化会館","architect":"黒川紀章","year":1999.0,"address":"岩手県久慈市川崎町17-1","latitude":40.19192123413086,"longitude":141.7786102294922,"category":"ホール・劇場","description":"","image_url":""},{"id":239,"title":"久慈市山村文化交流センター おらほーる","architect":"宣卓","year":2002.0,"address":"岩手県久慈市山形町川井第13地割38","latitude":40.14326477050781,"longitude":141.56956481933594,"category":"ホール・劇場","description":"","image_url":""},{"id":240,"title":"石川啄木記念館 旧渋民尋常高等小学校","architect":"不明","year":1884.0,"address":"岩手県盛岡市玉山区渋民渋民9","latitude":39.84604263305664,"longitude":141.1712188720703,"category":"洋館","description":"","image_url":""},{"id":241,"title":"菊田一夫記念館","architect":"不明","year":null,"address":"岩手県奥州市江刺区大通り3-1","latitude":39.19013595581055,"longitude":141.17701721191406,"category":"洋館","description":"","image_url":""},{"id":242,"title":"こころのシェルター","architect":"高崎正治","year":2011.0,"address":"岩手県下閉伊郡山田町大沢第8地割","latitude":39.48348617553711,"longitude":141.9745635986328,"category":"公民館・交流施設","description":"","image_url":""},{"id":243,"title":"鯨と海の科学館","architect":"古市徹雄","year":1992.0,"address":"岩手県下閉伊郡山田町船越第7地割50-1","latitude":39.43656539916992,"longitude":141.97560119628906,"category":"博物館","description":"冬期閉館","image_url":""},{"id":244,"title":"岩洞湖活性化センター","architect":"アトリエノルド","year":1998.0,"address":"岩手県盛岡市玉山区薮川字外山35-45","latitude":39.828033447265625,"longitude":141.36318969726562,"category":"公民館・交流施設/体験施設/公共施設","description":"","image_url":""},{"id":245,"title":"岩手県公会堂","architect":"佐藤功一","year":1927.0,"address":"岩手県盛岡市内丸11","latitude":39.702980041503906,"longitude":141.1533203125,"category":"ホール・劇場/公民館・交流施設","description":"","image_url":""},{"id":246,"title":"もりおか歴史文化館 旧岩手県立図書館","architect":"菊竹清訓","year":1967.0,"address":"岩手県盛岡市内丸1-50","latitude":39.701053619384766,"longitude":141.15257263183594,"category":"博物館","description":"","image_url":""},{"id":247,"title":"岩手県立博物館","architect":"佐藤総合計画","year":1980.0,"address":"岩手県盛岡市上田字松屋敷34","latitude":39.75546646118164,"longitude":141.1538848876953,"category":"博物館","description":"","image_url":""},{"id":248,"title":"岩手大学農学部付属農業教育資料館 旧盛岡高等農林学校本館","architect":"不明","year":1912.0,"address":"岩手県盛岡市上田3-18-8","latitude":39.71348190307617,"longitude":141.1387939453125,"category":"洋館","description":"岩手大学農学部構内","image_url":""},{"id":249,"title":"フロムハート","architect":"渡辺敏男","year":1995.0,"address":"岩手県盛岡市菜園2-3-1","latitude":39.701473236083984,"longitude":141.14642333984375,"category":"オフィスビル","description":"","image_url":""},{"id":250,"title":"もりおか啄木・賢治青春館 旧第九十銀行本店","architect":"横濱勉","year":1910.0,"address":"岩手県盛岡市中ノ橋通1-1-25","latitude":39.699745178222656,"longitude":141.15414428710938,"category":"洋館/金融機関","description":"","image_url":""}]}