{"page":285,"total_pages":290,"items_per_page":50,"total_items":14467,"items":[{"id":14201,"title":"都城こみぞ眼科","architect":"K2YT","year":2022.0,"address":"宮崎県北諸県郡三股町蓼池1405-1","latitude":31.75633430480957,"longitude":131.10580444335938,"category":"個人医院","description":"","image_url":""},{"id":14202,"title":"ワラワラデンタルクリニック大津堅田院","architect":"木村敏","year":2021.0,"address":"滋賀県大津市本堅田6-2-1","latitude":35.115055084228516,"longitude":135.90841674804688,"category":"個人医院","description":"","image_url":""},{"id":14203,"title":"門司こばと幼稚園","architect":"日比野設計","year":2023.0,"address":"福岡県北九州市門司区東新町1-9-21","latitude":33.89326095581055,"longitude":130.9252166748047,"category":"幼稚園","description":"","image_url":""},{"id":14204,"title":"育成会ひまわり保育園","architect":"ジャクエツ+赤池友季子+當山晋也","year":2022.0,"address":"東京都武蔵村山市大南3-71-1","latitude":35.73569869995117,"longitude":139.40481567382812,"category":"幼稚園","description":"","image_url":""},{"id":14205,"title":"まつやま保育園","architect":"鎌田智州","year":2024.0,"address":"茨城県守谷市本町4210","latitude":35.936676025390625,"longitude":140.00595092773438,"category":"幼稚園","description":"","image_url":""},{"id":14206,"title":"認定こども園 津久井ヶ丘幼稚園","architect":"ナフ・アーキテクト&デザイン","year":2022.0,"address":"神奈川県相模原市緑区長竹838-1","latitude":35.56724166870117,"longitude":139.2599334716797,"category":"幼稚園","description":"","image_url":""},{"id":14207,"title":"認定こども園 愛宕幼稚園","architect":"日比野設計","year":2021.0,"address":"新潟県十日町市川原町853-6","latitude":37.1333122253418,"longitude":138.76510620117188,"category":"幼稚園","description":"","image_url":""},{"id":14208,"title":"福島こども園","architect":"時設計","year":2022.0,"address":"石川県能美市福島町110","latitude":36.45868682861328,"longitude":136.47064208984375,"category":"幼稚園","description":"","image_url":""},{"id":14209,"title":"常陸太田市立水府小・中学校","architect":"岡田新一設計事務所","year":2021.0,"address":"茨城県常陸太田市町田町696","latitude":36.62227249145508,"longitude":140.4848175048828,"category":"学校","description":"","image_url":""},{"id":14210,"title":"東京国際大学 池袋キャンパス","architect":"大成建設","year":2023.0,"address":"東京都豊島区東池袋4-42-31","latitude":35.72838592529297,"longitude":139.72154235839844,"category":"大学","description":"","image_url":""},{"id":14211,"title":"嘉麻市立稲築東義務教育学校","architect":"久米設計","year":2023.0,"address":"福岡県嘉麻市平1536","latitude":33.599639892578125,"longitude":130.73211669921875,"category":"学校","description":"","image_url":""},{"id":14212,"title":"札幌市動物愛護管理センター あいまるさっぽろ","architect":"アトリエaku","year":2023.0,"address":"北海道札幌市中央区北22条西15-3-6","latitude":43.085628509521484,"longitude":141.3282012939453,"category":"公共施設","description":"","image_url":""},{"id":14213,"title":"Bring up みどり子ども発達センター","architect":"OOOarchitecture","year":2024.0,"address":"千葉県千葉市緑区平山町1921","latitude":35.57681655883789,"longitude":140.1705780029297,"category":"児童施設","description":"","image_url":""},{"id":14214,"title":"特別養護老人ホーム 湯楽苑","architect":"日比野設計","year":2022.0,"address":"長崎県雲仙市小浜町北本町217-9","latitude":32.73603057861328,"longitude":130.2096710205078,"category":"養護施設","description":"","image_url":""},{"id":14215,"title":"浦尻貝塚 縄文の丘公園 貝塚観察館","architect":"野村庸高","year":2023.0,"address":"福島県南相馬市小高区字南台4-1","latitude":37.521461486816406,"longitude":141.02381896972656,"category":"博物館","description":"","image_url":""},{"id":14216,"title":"柳津町情報発信交流施設 あいべこ","architect":"TIT一級建築士事務所","year":2024.0,"address":"福島県河沼郡柳津町大字柳津字下大平甲610-7","latitude":37.53862380981445,"longitude":139.7236328125,"category":"駅/観光施設","description":"","image_url":""},{"id":14217,"title":"さちばるビレッジ","architect":"STUDIO MONAKA","year":2024.0,"address":"沖縄県南城市玉城玉城40","latitude":26.135343551635742,"longitude":127.78291320800781,"category":"児童施設","description":"","image_url":""},{"id":14218,"title":"SAGAアリーナ","architect":"梓設計+石橋建築事務所+三原建築設計事務所+西村浩","year":2023.0,"address":"佐賀県佐賀市日の出2-1-10","latitude":33.27499008178711,"longitude":130.29270935058594,"category":"体育館/ホール・劇場","description":"デザイン監修：西村浩","image_url":""},{"id":14219,"title":"太田市総合体育館 オープンハウスアリーナ太田","architect":"梓設計","year":2023.0,"address":"群馬県太田市飯塚町1059","latitude":36.275901794433594,"longitude":139.39500427246094,"category":"体育館","description":"","image_url":""},{"id":14220,"title":"地域の交流拠点 駅前の居場所","architect":"手塚建築研究所","year":2023.0,"address":"神奈川県足柄下郡湯河原町土肥5-1-13","latitude":35.14389419555664,"longitude":139.10012817382812,"category":"公民館・交流施設","description":"","image_url":""},{"id":14221,"title":"見土呂フルーツパーク みとろの丘","architect":"井手健一郎","year":2023.0,"address":"兵庫県加古川市上荘町見土呂845-16","latitude":34.80992126464844,"longitude":134.9003448486328,"category":"公園","description":"1990年代後半に竣工した市営農業公園の再整備事業。6つの既存建物を改修し、17の小さな木造建築を建てた","image_url":""},{"id":14222,"title":"有田市健康スポーツ公園 ビッグスマイルパーク","architect":"オオバ+佐原光治","year":2024.0,"address":"和歌山県有田市初島町浜1665","latitude":34.09162139892578,"longitude":135.10899353027344,"category":"公園/体育館","description":"","image_url":""},{"id":14223,"title":"とくらんパーク","architect":"倉掛健寛","year":2023.0,"address":"大分県津久見市徳浦宮町4","latitude":33.09192657470703,"longitude":131.8524169921875,"category":"公園","description":"","image_url":""},{"id":14224,"title":"猪名川霊園樹木葬墓所 森の墓園 みまもりの丘","architect":"小山光","year":2022.0,"address":"兵庫県川辺郡猪名川町清水字北谷27","latitude":34.9714241027832,"longitude":135.317626953125,"category":"霊園","description":"","image_url":""},{"id":14225,"title":"安威川ダム堤体および周辺施設","architect":"星田逸郎+ニュージェック","year":2024.0,"address":"大阪府茨木市大門寺 安威川ダム","latitude":34.86927795410156,"longitude":135.5604705810547,"category":"公共施設/公園","description":"","image_url":""},{"id":14226,"title":"柳ヶ浦駅リノベーション 駅前広場シェルター","architect":"渡邉篤志","year":2024.0,"address":"大分県宇佐市江須賀 柳ヶ浦駅","latitude":33.56525802612305,"longitude":131.36253356933594,"category":"駅/広場","description":"","image_url":""},{"id":14227,"title":"そだちのシェアステーション つぼみ","architect":"伊藤潤一","year":2022.0,"address":"東京都清瀬市松山3-12-17","latitude":35.76653289794922,"longitude":139.51351928710938,"category":"児童施設","description":"","image_url":""},{"id":14228,"title":"TREES","architect":"伊藤潤一","year":2020.0,"address":"東京都大田区鵜の木3-21-15","latitude":35.57770919799805,"longitude":139.6757354736328,"category":"集合住宅","description":"","image_url":""},{"id":14229,"title":"西真岡こどもクリニック  Sick Kids","architect":"伊藤潤一","year":2019.0,"address":"栃木県真岡市高勢町3-205-1","latitude":36.42734909057617,"longitude":139.98060607910156,"category":"個人医院","description":"","image_url":""},{"id":14230,"title":"SOMPOケア ハッピーデイズ船堀","architect":"伊藤潤一","year":2015.0,"address":"東京都江戸川区東小松川3-24-13","latitude":35.69356918334961,"longitude":139.86676025390625,"category":"養護施設","description":"","image_url":""},{"id":14231,"title":"西真岡こどもクリニック","architect":"伊藤潤一","year":2015.0,"address":"栃木県真岡市高勢町3-205-1","latitude":36.42758560180664,"longitude":139.98098754882812,"category":"個人医院","description":"","image_url":""},{"id":14232,"title":"日南こみぞ眼科","architect":"K2YT","year":2018.0,"address":"宮崎県日南市星倉1572-1","latitude":31.614580154418945,"longitude":131.36691284179688,"category":"個人医院","description":"","image_url":""},{"id":14233,"title":"松阪市子ども発達総合支援センター そだちの丘","architect":"K2YT","year":2016.0,"address":"三重県松阪市下村町875-1","latitude":34.54462814331055,"longitude":136.54010009765625,"category":"児童施設","description":"","image_url":""},{"id":14234,"title":"今庄駅前広場","architect":"木村敏","year":2018.0,"address":"福井県南条郡南越前町今庄 今庄駅","latitude":35.773189544677734,"longitude":136.19839477539062,"category":"広場","description":"","image_url":""},{"id":14235,"title":"道玄坂のオフィスビル","architect":"TIT一級建築士事務所","year":2024.0,"address":"東京都渋谷区道玄坂1-19-12","latitude":35.657108306884766,"longitude":139.69607543945312,"category":"オフィスビル","description":"","image_url":""},{"id":14236,"title":"高梁市城見橋公園 城まちステーション","architect":"TIT一級建築士事務所","year":2015.0,"address":"岡山県高梁市小高下町2730","latitude":34.80725860595703,"longitude":133.62704467773438,"category":"観光施設","description":"","image_url":""},{"id":14237,"title":"菅谷駅公衆トイレ","architect":"TIT一級建築士事務所","year":2011.0,"address":"福島県田村市滝根町菅谷堂田 菅谷駅","latitude":37.35111618041992,"longitude":140.64401245117188,"category":"トイレ","description":"","image_url":""},{"id":14238,"title":"宇治公共トイレ おかやまおもてなしトイレ","architect":"TIT一級建築士事務所","year":2017.0,"address":"岡山県高梁市宇治町宇治1750","latitude":34.830806732177734,"longitude":133.49244689941406,"category":"トイレ","description":"","image_url":""},{"id":14239,"title":"有田市消防庁舎","architect":"川宗一","year":2013.0,"address":"和歌山県有田市箕島47","latitude":34.0831298828125,"longitude":135.1271514892578,"category":"警察・消防署","description":"","image_url":""},{"id":14240,"title":"紀の川市民公園プール","architect":"川宗一","year":2014.0,"address":"和歌山県紀の川市上野354-83","latitude":34.254905700683594,"longitude":135.36138916015625,"category":"プール","description":"","image_url":""},{"id":14241,"title":"いなみこども園","architect":"川宗一","year":2011.0,"address":"和歌山県日高郡印南町山口150-3","latitude":33.82259750366211,"longitude":135.222900390625,"category":"幼稚園","description":"","image_url":""},{"id":14242,"title":"道の駅くしもと橋杭岩","architect":"川宗一","year":2013.0,"address":"和歌山県東牟婁郡串本町鬮野川1549-8","latitude":33.48815155029297,"longitude":135.79440307617188,"category":"PA・道の駅","description":"","image_url":""},{"id":14243,"title":"紀の川市民体育館","architect":"久米設計","year":2015.0,"address":"和歌山県紀の川市花野604-2","latitude":34.25649642944336,"longitude":135.35523986816406,"category":"体育館","description":"","image_url":""},{"id":14244,"title":"福岡大牟田市イノベーション創出拠点 aurea 旧大牟田商工会議所","architect":"倉掛健寛","year":2022.0,"address":"福岡県大牟田市有明町1-1-22","latitude":33.03338623046875,"longitude":130.4467315673828,"category":"公共施設","description":"築80年を超えた建築の改修","image_url":""},{"id":14245,"title":"雷門の組子格子ビル THE CITY浅草雷門","architect":"小山光","year":2022.0,"address":"東京都台東区雷門2-8-16","latitude":35.71022415161133,"longitude":139.79672241210938,"category":"テナントビル","description":"","image_url":""},{"id":14246,"title":"花やさと山サークルロッジ","architect":"小山光","year":2021.0,"address":"茨城県石岡市下青柳200","latitude":36.21103286743164,"longitude":140.16810607910156,"category":"ホテル","description":"","image_url":""},{"id":14247,"title":"森の墓園 語らいの小径 五色台メモリアルパーク樹木葬墓所","architect":"小山光","year":2021.0,"address":"和歌山県海草郡紀美野町国木原577-3","latitude":34.19179153442383,"longitude":135.3372039794922,"category":"霊園","description":"","image_url":""},{"id":14248,"title":"不動前の空地 Tipetto目黒不動前","architect":"小山光","year":2020.0,"address":"東京都目黒区下目黒3-13-13","latitude":35.62699890136719,"longitude":139.70913696289062,"category":"集合住宅","description":"","image_url":""},{"id":14249,"title":"えさし郷土文化館","architect":"アトリエaku","year":2000.0,"address":"岩手県奥州市江刺岩谷堂小名丸102-1","latitude":39.196044921875,"longitude":141.19113159179688,"category":"博物館","description":"","image_url":""},{"id":14250,"title":"岩見沢市栗沢市民センター","architect":"アトリエaku","year":2020.0,"address":"北海道岩見沢市栗沢町北本町168-3","latitude":43.1213493347168,"longitude":141.74278259277344,"category":"公民館・交流施設/ホール・劇場","description":"","image_url":""}]}