{"page":85,"total_pages":290,"items_per_page":50,"total_items":14467,"items":[{"id":4201,"title":"TANADAピースギャラリー","architect":"GENETO建築設計","year":2009.0,"address":"京都府京田辺市宮津宮ノ下33-2","latitude":34.79322052001953,"longitude":135.78485107421875,"category":"ギャラリー","description":"","image_url":""},{"id":4202,"title":"氷見市新市庁舎","architect":"山下設計+浅地建築設計事務所","year":2014.0,"address":"富山県氷見市鞍川1060","latitude":36.857906341552734,"longitude":136.9702911376953,"category":"庁舎","description":"高校の体育館を改修","image_url":""},{"id":4203,"title":"田園オフィス","architect":"鵜飼昭年","year":2012.0,"address":"愛知県豊田市清水町2-79-1","latitude":35.05881881713867,"longitude":137.1256561279297,"category":"低層オフィス","description":"","image_url":""},{"id":4204,"title":"三宜楼","architect":"不明+青木茂","year":1930.0,"address":"福岡県北九州市門司区清滝3-6-8","latitude":33.94291305541992,"longitude":130.96359252929688,"category":"料亭","description":"2014年に青木茂により意匠を残しながら耐震改修","image_url":""},{"id":4205,"title":"山形市児童文化センター","architect":"松ノ井覚治","year":1963.0,"address":"山形県山形市霞城町1-4","latitude":38.257591247558594,"longitude":140.32704162597656,"category":"児童施設","description":"","image_url":""},{"id":4206,"title":"天童市庁舎","architect":"石本建築事務所","year":1972.0,"address":"山形県天童市老野森1-1-1","latitude":38.36227035522461,"longitude":140.37783813476562,"category":"庁舎","description":"","image_url":""},{"id":4207,"title":"きらやか銀行桜町支店","architect":"日建設計","year":1968.0,"address":"山形県山形市桜町7-35","latitude":38.25419616699219,"longitude":140.3329620361328,"category":"金融機関","description":"","image_url":""},{"id":4208,"title":"五色台山の家","architect":"浅田考","year":1965.0,"address":"香川県高松市生島町423","latitude":34.34867858886719,"longitude":133.95782470703125,"category":"児童施設/研修施設","description":"","image_url":""},{"id":4209,"title":"S-STAGE","architect":"武智和臣","year":1987.0,"address":"愛媛県伊予郡砥部町宮内1401-1","latitude":33.74873352050781,"longitude":132.7917938232422,"category":"テナントビル/低層オフィス","description":"","image_url":""},{"id":4210,"title":"松山市総合コミュニティセンター","architect":"日本設計+佐藤総合計画","year":1987.0,"address":"愛媛県松山市湊町7-5","latitude":33.836341857910156,"longitude":132.75502014160156,"category":"総合文化施設/ホール・劇場/体育館","description":"","image_url":""},{"id":4211,"title":"松山大学 御幸キャンパス","architect":"日建設計","year":1985.0,"address":"愛媛県松山市御幸1-513-1","latitude":33.8558464050293,"longitude":132.7673797607422,"category":"大学","description":"","image_url":""},{"id":4212,"title":"高知県立文学館 旧郷土文学館","architect":"MA設計事務所","year":1969.0,"address":"高知県高知市丸ノ内1-1-20 ","latitude":33.56187057495117,"longitude":133.5334014892578,"category":"博物館","description":"","image_url":""},{"id":4213,"title":"自由民権記念館","architect":"日建設計","year":1990.0,"address":"高知県高知市桟橋通4-14-3","latitude":33.54302978515625,"longitude":133.5502166748047,"category":"博物館","description":"","image_url":""},{"id":4214,"title":"とろもカフェ","architect":"武智和臣","year":2013.0,"address":"香川県観音寺市柞田町丙457-1","latitude":34.101383209228516,"longitude":133.67095947265625,"category":"カフェ","description":"","image_url":""},{"id":4215,"title":"Origin Life Style Laboratory","architect":"武智和臣","year":2013.0,"address":"徳島県阿波市吉野町西条原市205","latitude":34.10592269897461,"longitude":134.38217163085938,"category":"低層オフィス/研究施設","description":"","image_url":""},{"id":4216,"title":"La fete","architect":"武智和臣","year":null,"address":"徳島県徳島市三軒屋下分62-1","latitude":34.0394401550293,"longitude":134.5532989501953,"category":"レストラン/カフェ","description":"","image_url":""},{"id":4217,"title":"もにこど２","architect":"武智和臣","year":null,"address":"愛媛県伊予市上三谷2209-13","latitude":33.76277160644531,"longitude":132.74212646484375,"category":"カフェ","description":"","image_url":""},{"id":4218,"title":"内子町農村活性化センター","architect":"武智和臣","year":1992.0,"address":"愛媛県喜多郡内子町河内778","latitude":33.59873962402344,"longitude":132.63894653320312,"category":"公民館・交流施設","description":"","image_url":""},{"id":4219,"title":"内子フレッシュパークからり","architect":"武智和臣","year":1996.0,"address":"愛媛県喜多郡内子町内子 道の駅内子フレッシュパークからり","latitude":33.554866790771484,"longitude":132.65841674804688,"category":"PA・道の駅","description":"","image_url":""},{"id":4220,"title":"オーベルジュ内子","architect":"武智和臣","year":2010.0,"address":"愛媛県喜多郡内子町五十崎乙485-2","latitude":33.54414367675781,"longitude":132.65570068359375,"category":"ホテル","description":"","image_url":""},{"id":4221,"title":"TOBEオーベルジュリゾート","architect":"武智和臣","year":null,"address":"愛媛県伊予郡砥部町宮内1622-7","latitude":33.7576789855957,"longitude":132.792236328125,"category":"ホテル/レストラン/結婚式場","description":"","image_url":""},{"id":4222,"title":"ファームイン古久里来","architect":"武智和臣","year":null,"address":"愛媛県喜多郡内子町五百木636","latitude":33.559547424316406,"longitude":132.67562866210938,"category":"ホテル","description":"","image_url":""},{"id":4223,"title":"大谷山荘","architect":"武智和臣","year":null,"address":"愛媛県上浮穴郡久万高原町日野浦4443","latitude":33.58463668823242,"longitude":132.94715881347656,"category":"ホテル","description":"","image_url":""},{"id":4224,"title":"札幌ドーム","architect":"原広司","year":2001.0,"address":"北海道札幌市豊平区羊ヶ丘1","latitude":43.015113830566406,"longitude":141.40969848632812,"category":"スタジアム","description":"","image_url":""},{"id":4225,"title":"北海道立野幌森林公園 自然ふれあい交流館","architect":"中井仁実","year":2000.0,"address":"北海道江別市西野幌685-1","latitude":43.06013488769531,"longitude":141.49456787109375,"category":"公園/体験施設","description":"","image_url":""},{"id":4226,"title":"北見市芸術文化ホール","architect":"毛綱毅曠","year":1997.0,"address":"北海道北見市泉町1-2-22","latitude":43.80541229248047,"longitude":143.8990478515625,"category":"ホール・劇場","description":"","image_url":""},{"id":4227,"title":"反住器","architect":"毛綱毅曠","year":1972.0,"address":"北海道釧路市富士見1-5-1","latitude":42.978302001953125,"longitude":144.3887176513672,"category":"住宅","description":"","image_url":""},{"id":4228,"title":"苫小牧市美術博物館","architect":"太田實","year":1985.0,"address":"北海道苫小牧市末広町3-9-7","latitude":42.637481689453125,"longitude":141.61294555664062,"category":"美術館/博物館","description":"2013年、博物館を増改築し、美術館を併設","image_url":""},{"id":4229,"title":"HACHAM ART COMPLEX","architect":"不明","year":2010.0,"address":"北海道札幌市西区発寒5条3-12-3","latitude":43.0864372253418,"longitude":141.2940673828125,"category":"ギャラリー","description":"","image_url":""},{"id":4230,"title":"ミカサ・モダンアートミュージアム","architect":"不明","year":2000.0,"address":"北海道三笠市幌内町3-58","latitude":43.229209899902344,"longitude":141.8956756591797,"category":"美術館","description":"川俣正の作品が常設","image_url":""},{"id":4231,"title":"彫刻公園 ストーンクレージーの森","architect":"不明","year":2002.0,"address":"北海道亀田郡七飯町字東大沼294-1","latitude":42.00223922729492,"longitude":140.71859741210938,"category":"美術館/公園","description":"流政之の作品","image_url":""},{"id":4232,"title":"八雲町立図書館","architect":"岡田新一","year":1999.0,"address":"北海道二海郡八雲町相生町98","latitude":42.24968719482422,"longitude":140.2770233154297,"category":"図書館","description":"","image_url":""},{"id":4233,"title":"日高町立門別図書館郷土資料館","architect":"ドーコン","year":1993.0,"address":"北海道沙流郡日高町富川東1-3-1","latitude":42.513065338134766,"longitude":142.03721618652344,"category":"図書館/博物館","description":"","image_url":""},{"id":4234,"title":"道の駅 くろまつない","architect":"アトリエaku","year":1998.0,"address":"北海道寿都郡黒松内町白井川8-10","latitude":42.672664642333984,"longitude":140.38006591796875,"category":"PA・道の駅","description":"","image_url":""},{"id":4235,"title":"ホテルノルド小樽","architect":"昭和設計","year":1896.0,"address":"北海道小樽市色内1-4-16","latitude":43.199378967285156,"longitude":141.0010223388672,"category":"ホテル","description":"","image_url":""},{"id":4236,"title":"北海道立北方民族博物館","architect":"岩見田設計+日本都市設計","year":1991.0,"address":"北海道網走市潮見（字）-309-1","latitude":43.99677658081055,"longitude":144.23968505859375,"category":"博物館","description":"","image_url":""},{"id":4237,"title":"北海道立函館美術館","architect":"ドーコン+山下設計+はいや建築設計","year":1986.0,"address":"北海道函館市五稜郭町37-6","latitude":41.79340744018555,"longitude":140.7545928955078,"category":"美術館","description":"","image_url":""},{"id":4238,"title":"宝くじ遊園「風の子館」","architect":"仙田満","year":1994.0,"address":"北海道旭川市近文6線3号","latitude":43.80879211425781,"longitude":142.34783935546875,"category":"公園","description":"","image_url":""},{"id":4239,"title":"タットゥー ファイブフォックス札幌ビル","architect":"高松伸","year":1989.0,"address":"北海道札幌市中央区南3条西3-11-4","latitude":43.05715560913086,"longitude":141.35430908203125,"category":"オフィスビル","description":"","image_url":""},{"id":4240,"title":"天使の聖母トラピスチヌ修道院 聖堂・司祭館","architect":"マックス・ヒンデル","year":1927.0,"address":"北海道函館市上湯川町346","latitude":41.787841796875,"longitude":140.82247924804688,"category":"教会","description":"","image_url":""},{"id":4241,"title":"富士宮市医師会館","architect":"ベンジャミン・ウォーナー","year":2004.0,"address":"静岡県富士宮市矢立町693","latitude":35.227561950683594,"longitude":138.6242218017578,"category":"組合施設","description":"","image_url":""},{"id":4242,"title":"SAKUYA 長屋門ダイニング","architect":"千葉学","year":2008.0,"address":"静岡県富士宮市大宮町6-22","latitude":35.2259521484375,"longitude":138.61154174804688,"category":"レストラン","description":"","image_url":""},{"id":4243,"title":"釧路公立大学","architect":"毛綱毅曠","year":1987.0,"address":"北海道釧路市芦野4-1-1","latitude":43.018375396728516,"longitude":144.39642333984375,"category":"大学","description":"wikipedia、また他サイトにて毛綱毅曠作品ではないとの記述がありました。調査中。","image_url":""},{"id":4244,"title":"襟裳岬「風の館」","architect":"北川雄史","year":1997.0,"address":"北海道幌泉郡えりも町東洋南東洋366-3","latitude":41.95753479003906,"longitude":143.20652770996094,"category":"博物館","description":"","image_url":""},{"id":4245,"title":"古賀政男音楽博物館","architect":"北川雄史","year":1997.0,"address":"東京都渋谷区上原3-6-12","latitude":35.667747497558594,"longitude":139.6800537109375,"category":"博物館/ホール・劇場","description":"","image_url":""},{"id":4246,"title":"静岡県立韮山高校 志龍講堂","architect":"北川雄史","year":2006.0,"address":"静岡県伊豆の国市韮山韮山229","latitude":35.05552673339844,"longitude":138.9550323486328,"category":"ホール・劇場/学校","description":"","image_url":""},{"id":4247,"title":"中伊豆ワイナリーヒルズ","architect":"北川雄史","year":null,"address":"静岡県伊豆市下白岩1434","latitude":34.97759246826172,"longitude":138.98960876464844,"category":"観光施設/醸造所/ホテル","description":"","image_url":""},{"id":4248,"title":"苫小牧市中央図書館／苫小牧市サンガーデン","architect":"岡田新一","year":1988.0,"address":"北海道苫小牧市末広町3-1-15","latitude":42.637428283691406,"longitude":141.6107940673828,"category":"図書館/動植物園","description":"","image_url":""},{"id":4249,"title":"苫小牧市庁舎","architect":"岡田新一","year":1983.0,"address":"北海道苫小牧市旭町4-5-6","latitude":42.63405227661133,"longitude":141.60543823242188,"category":"庁舎","description":"","image_url":""},{"id":4250,"title":"苫小牧市文化会館","architect":"岡田新一","year":1979.0,"address":"北海道苫小牧市旭町2-8-19","latitude":42.63087463378906,"longitude":141.60504150390625,"category":"ホール・劇場","description":"","image_url":""}]}