{"page":128,"total_pages":290,"items_per_page":50,"total_items":14467,"items":[{"id":6351,"title":"石の島の石","architect":"中山英之","year":2016.0,"address":"香川県小豆郡小豆島町草壁本町 石の島の石","latitude":34.47826385498047,"longitude":134.2991485595703,"category":"トイレ","description":"","image_url":""},{"id":6352,"title":"私立大室美術館","architect":"大室佑介","year":2016.0,"address":"三重県津市白山町川口712","latitude":34.64535140991211,"longitude":136.33840942382812,"category":"ギャラリー","description":"","image_url":""},{"id":6353,"title":"TENTOSHI","architect":"コンマ","year":2016.0,"address":"東京都港区新橋4-7-6","latitude":35.664493560791016,"longitude":139.75572204589844,"category":"店舗/住宅","description":"","image_url":""},{"id":6354,"title":"松阪市子ども発達総合支援センターそだちの丘","architect":"サードパーティ","year":2016.0,"address":"三重県松阪市下村町875-1","latitude":34.5463752746582,"longitude":136.54002380371094,"category":"養護施設","description":"","image_url":""},{"id":6355,"title":"みやがわベーグル","architect":"ルーヴィス","year":2016.0,"address":"神奈川県三浦市宮川町11-28","latitude":35.14227294921875,"longitude":139.63645935058594,"category":"店舗","description":"","image_url":""},{"id":6356,"title":"Ono-Sake Warehouse 小野酒店","architect":"Eureka+G architects studio","year":2016.0,"address":"茨城県つくば市研究学園3-19","latitude":36.088417053222656,"longitude":140.0746307373047,"category":"店舗","description":"","image_url":""},{"id":6357,"title":"中島川・寺町PJ","architect":"百枝優","year":2016.0,"address":"長崎県長崎市魚の町7-17 みやまビル1階","latitude":32.74773025512695,"longitude":129.88047790527344,"category":"店舗","description":"","image_url":""},{"id":6358,"title":"ヨシドーム","architect":"白井宏昌+永井拓生+松岡拓公雄","year":2016.0,"address":"滋賀県近江八幡市北之庄町615−1","latitude":35.14911651611328,"longitude":136.0925750732422,"category":"オブジェ","description":"ラ・コリーナ敷地内本社近く","image_url":""},{"id":6359,"title":"銅屋根 たねや本社","architect":"藤森照信+中谷弘志","year":2016.0,"address":"滋賀県近江八幡市北之庄町615−1","latitude":35.14948272705078,"longitude":136.09202575683594,"category":"低層オフィス","description":"","image_url":""},{"id":6360,"title":"栗百本 ラ・コリーナ近江八幡 カステラショップ","architect":"藤森照信+中谷弘志","year":2016.0,"address":"滋賀県近江八幡市北之庄町615−1","latitude":35.14876937866211,"longitude":136.0923614501953,"category":"店舗","description":"","image_url":""},{"id":6361,"title":"フトゥロ","architect":"マッティ・スーロネン","year":1968.0,"address":"群馬県前橋市南町2-38-2","latitude":36.377098083496094,"longitude":139.0670166015625,"category":"住宅","description":"フェリカ建築&デザイン専門学校の校庭に移設。オープンカレッジや学校説明会の際などに内部見学可能","image_url":""},{"id":6362,"title":"勝林寺 本堂","architect":"手塚建築研究所","year":2016.0,"address":"東京都豊島区駒込7-4-14","latitude":35.740570068359375,"longitude":139.73814392089844,"category":"寺院","description":"","image_url":""},{"id":6363,"title":"身延山久遠寺 報恩閣","architect":"日建設計","year":2002.0,"address":"山梨県南巨摩郡身延町身延3567","latitude":35.38184356689453,"longitude":138.42535400390625,"category":"寺院","description":"","image_url":""},{"id":6364,"title":"北方町新庁舎","architect":"シーラカンスアンドアソシエイツ+武藤圭太郎","year":2016.0,"address":"岐阜県本巣郡北方町長谷川1-1","latitude":35.43571090698242,"longitude":136.6844024658203,"category":"庁舎","description":"","image_url":""},{"id":6365,"title":"MOVIX倉敷","architect":"谷尻誠","year":2016.0,"address":"岡山県倉敷市水江1 イオンモール倉敷","latitude":34.60493087768555,"longitude":133.74551391601562,"category":"店舗/ホール・劇場","description":"","image_url":""},{"id":6366,"title":"九州大学 創立五十周年記念講堂","architect":"光吉健次","year":1967.0,"address":"福岡県福岡市東区箱崎6-10","latitude":33.624107360839844,"longitude":130.4246063232422,"category":"大学/ホール・劇場","description":"","image_url":""},{"id":6367,"title":"九州大学 工学部建築学教室","architect":"光吉健次","year":1960.0,"address":"福岡県福岡市東区箱崎6-10","latitude":33.62495803833008,"longitude":130.42413330078125,"category":"大学","description":"","image_url":""},{"id":6368,"title":"唐津市役所玉浜支所 旧浜玉町役場","architect":"光吉健次","year":1960.0,"address":"佐賀県唐津市浜玉町浜崎1445-1","latitude":33.450706481933594,"longitude":130.0414276123047,"category":"庁舎","description":"","image_url":""},{"id":6369,"title":"名古屋学芸大学 メディア造形学部棟","architect":"日建設計","year":2002.0,"address":"愛知県日進市岩崎町竹ノ山57","latitude":35.15751647949219,"longitude":137.04042053222656,"category":"大学","description":"","image_url":""},{"id":6370,"title":"新発田市役所 ヨリネスしばた","architect":"ヨコミゾマコト","year":2016.0,"address":"新潟県新発田市中央町3-3-3","latitude":37.947959899902344,"longitude":139.3271484375,"category":"庁舎","description":"","image_url":""},{"id":6371,"title":"吉野杉の家","architect":"長谷川豪","year":2016.0,"address":"奈良県吉野郡吉野町飯貝624","latitude":34.39461135864258,"longitude":135.85955810546875,"category":"住宅/ホテル","description":"2016年のHOUSE VISIONに展示されていた作品が移築。Airbnbで宿泊可能。","image_url":""},{"id":6372,"title":"枚方市民会館","architect":"日建設計","year":1964.0,"address":"大阪府枚方市岡東町8-33","latitude":34.815185546875,"longitude":135.65072631835938,"category":"ホール・劇場","description":"","image_url":""},{"id":6373,"title":"関東マツダ 高田馬場店","architect":"谷尻誠","year":2016.0,"address":"東京都新宿区高田馬場1-2-12","latitude":35.709991455078125,"longitude":139.7092742919922,"category":"店舗","description":"","image_url":""},{"id":6374,"title":"京都信用金庫 吉祥院支店","architect":"菊竹清訓","year":1977.0,"address":"京都府京都市南区吉祥院九条町25","latitude":34.9783935546875,"longitude":135.7337646484375,"category":"金融機関","description":"","image_url":""},{"id":6375,"title":"関西セミナーハウス 旧クリスチャンアカデミーセミナーハウス","architect":"増田友也","year":1967.0,"address":"京都府京都市左京区一乗寺竹ノ内町23","latitude":35.05071258544922,"longitude":135.80340576171875,"category":"研修施設","description":"","image_url":""},{"id":6376,"title":"東レコーテックス化成品工場 旧第一レース京都工場","architect":"増田友也","year":1965.0,"address":"京都府京都市南区吉祥院新田弐ノ段町9","latitude":34.97640609741211,"longitude":135.72447204589844,"category":"工場","description":"","image_url":""},{"id":6377,"title":"東レコーテックス本社工場","architect":"増田友也","year":1965.0,"address":"京都府京都市南区吉祥院落合町15","latitude":34.97390365600586,"longitude":135.7366485595703,"category":"工場","description":"","image_url":""},{"id":6378,"title":"KOE HOUSE","architect":"クライン・ダイサム・アーキテクツ","year":2016.0,"address":"東京都目黒区自由が丘2-9-19","latitude":35.60969161987305,"longitude":139.66741943359375,"category":"テナントビル","description":"","image_url":""},{"id":6379,"title":"旧常陸太田市自然休養村管理センター","architect":"不明","year":null,"address":"茨城県常陸太田市増井町1794","latitude":36.56371307373047,"longitude":140.51467895507812,"category":"公共施設","description":"問い合わせたが設計者・竣工年は不明とのことでした。ご存じの方がいれば教えてください。60～70年代のモダニズム建築です。","image_url":""},{"id":6380,"title":"カトリックいわき教会","architect":"福富大祐","year":2005.0,"address":"福島県いわき市平字堂根町3−1","latitude":37.051883697509766,"longitude":140.89077758789062,"category":"教会","description":"","image_url":""},{"id":6381,"title":"直島港ターミナル","architect":"SANAA","year":2016.0,"address":"香川県香川郡直島町（その他）843","latitude":34.46138381958008,"longitude":133.99697875976562,"category":"港","description":"正確な場所が不明。近くにはあるはず。","image_url":""},{"id":6382,"title":"ELSA鎌倉","architect":"鈴木エドワード","year":2005.0,"address":"神奈川県鎌倉市佐助1-7-1","latitude":35.32006072998047,"longitude":139.54551696777344,"category":"集合住宅","description":"","image_url":""},{"id":6383,"title":"スターバックスコーヒー鎌倉御成町店","architect":"cotopace","year":2005.0,"address":"神奈川県鎌倉市御成町15-11","latitude":35.319698333740234,"longitude":139.54766845703125,"category":"カフェ","description":"","image_url":""},{"id":6384,"title":"軽井沢町農産物等直売施設 軽井沢発地市庭","architect":"宮本忠長","year":2016.0,"address":"長野県北佐久郡軽井沢町大字発地2564-1","latitude":36.319801330566406,"longitude":138.59188842773438,"category":"PA・道の駅","description":"","image_url":""},{"id":6385,"title":"一橋大学 兼松講堂","architect":"伊東忠太","year":1927.0,"address":"東京都国立市中2-1","latitude":35.694969177246094,"longitude":139.44537353515625,"category":"大学/ホール・劇場","description":"","image_url":""},{"id":6386,"title":"神戸女学院大学 岡田山キャンパス","architect":"ウィリアム・メレル・ヴォーリズ","year":1933.0,"address":"兵庫県西宮市岡田山4-1","latitude":34.75864791870117,"longitude":135.35060119628906,"category":"大学","description":"","image_url":""},{"id":6387,"title":"早稲田大学 大隈記念講堂","architect":"佐藤功一+佐藤武夫","year":1927.0,"address":"東京都新宿区戸塚町1-104","latitude":35.70889663696289,"longitude":139.72158813476562,"category":"大学/ホール・劇場","description":"","image_url":""},{"id":6388,"title":"井手川内保育園","architect":"佐々木信明","year":2016.0,"address":"佐賀県嬉野市嬉野町大字下野甲1004-2","latitude":33.10053634643555,"longitude":129.9977569580078,"category":"幼稚園","description":"","image_url":""},{"id":6389,"title":"永照寺 納骨堂 歸命殿","architect":"鮎川透","year":2016.0,"address":"福岡県北九州市小倉北区大手町16-16","latitude":33.874481201171875,"longitude":130.86883544921875,"category":"寺院","description":"","image_url":""},{"id":6390,"title":"昭和学園高等学校 75周年記念本館","architect":"久米設計+小堀哲夫","year":2015.0,"address":"大分県日田市日ノ出町14","latitude":33.33306121826172,"longitude":130.94142150878906,"category":"学校","description":"","image_url":""},{"id":6391,"title":"長和町新庁舎","architect":"第一設計","year":2015.0,"address":"長野県小県郡長和町古町4247-1","latitude":36.26987075805664,"longitude":138.25807189941406,"category":"庁舎","description":"","image_url":""},{"id":6392,"title":"デンソーグローバル研修所・保養所 AQUAWINGS","architect":"日建設計","year":2016.0,"address":"静岡県浜松市北区三ヶ日町都筑607-1","latitude":34.786888122558594,"longitude":137.58575439453125,"category":"研修施設","description":"","image_url":""},{"id":6393,"title":"秋田市庁舎","architect":"日本設計+渡辺佐文","year":2016.0,"address":"秋田県秋田市山王1-1-1","latitude":39.71989822387695,"longitude":140.1035614013672,"category":"庁舎","description":"","image_url":""},{"id":6394,"title":"まちの工房 まどか","architect":"針生承一","year":2012.0,"address":"宮城県仙台市太白区袋原4-37-1","latitude":38.19881820678711,"longitude":140.916015625,"category":"低層オフィス/医療施設","description":"","image_url":""},{"id":6395,"title":"ふくしま逢瀬ワイナリー","architect":"大林組","year":2015.0,"address":"福島県郡山市逢瀬町多田野字郷士郷士2","latitude":37.393394470214844,"longitude":140.22618103027344,"category":"醸造所/観光施設","description":"","image_url":""},{"id":6396,"title":"陸前高田市コミュニティホール","architect":"丹下憲孝","year":2015.0,"address":"岩手県陸前高田市高田町栃ケ沢210-3","latitude":39.02730941772461,"longitude":141.62393188476562,"category":"公民館・交流施設/ホール・劇場","description":"","image_url":""},{"id":6397,"title":"善通寺市消防本部","architect":"佐藤総合計画","year":2015.0,"address":"香川県善通寺市文京町4-1-3","latitude":34.2236328125,"longitude":133.78236389160156,"category":"公共施設","description":"","image_url":""},{"id":6398,"title":"川島町庁舎","architect":"大宇根弘司","year":2016.0,"address":"埼玉県比企郡川島町大字下八ツ林870-1","latitude":35.99248123168945,"longitude":139.48434448242188,"category":"庁舎","description":"","image_url":""},{"id":6399,"title":"雲南市庁舎","architect":"日本設計+中林建築設計","year":2015.0,"address":"島根県雲南市木次町里方521-1","latitude":35.30771255493164,"longitude":132.9003143310547,"category":"庁舎","description":"","image_url":""},{"id":6400,"title":"南あわじ市役所","architect":"NTTファシリティーズ","year":2015.0,"address":"兵庫県南あわじ市市善光寺22-1","latitude":34.294498443603516,"longitude":134.77984619140625,"category":"庁舎","description":"","image_url":""}]}