{"page":227,"total_pages":290,"items_per_page":50,"total_items":14467,"items":[{"id":11301,"title":"和歌山県民文化会館","architect":"富松助六","year":1970.0,"address":"和歌山県和歌山市小松原通1-1","latitude":34.22483444213867,"longitude":135.16807556152344,"category":"ホール・劇場","description":"2012年改修","image_url":""},{"id":11302,"title":"旧花田家番屋","architect":"不明","year":1903.0,"address":"北海道留萌郡小平町鬼鹿広富35-2","latitude":44.13641357421875,"longitude":141.65538024902344,"category":"古民家/産業遺産","description":"","image_url":""},{"id":11303,"title":"国稀酒造","architect":"不明","year":1882.0,"address":"北海道増毛郡増毛町稲葉町1-17","latitude":43.85783767700195,"longitude":141.5231475830078,"category":"醸造所","description":"","image_url":""},{"id":11304,"title":"旧商家丸一本間家","architect":"不明","year":1902.0,"address":"北海道増毛郡増毛町弁天町","latitude":43.85800552368164,"longitude":141.52517700195312,"category":"洋館","description":"","image_url":""},{"id":11305,"title":"銀閣寺 東山慈照寺","architect":"不明","year":1490.0,"address":"京都府京都市左京区銀閣寺町2","latitude":35.02702331542969,"longitude":135.79806518554688,"category":"寺院","description":"国宝","image_url":""},{"id":11306,"title":"上有住地区公民館","architect":"パーシモンヒルズ・アーキテクツ","year":2021.0,"address":"岩手県気仙郡住田町上有住字山脈地15-1","latitude":39.197330474853516,"longitude":141.5881805419922,"category":"公民館・交流施設","description":"","image_url":""},{"id":11307,"title":"関西学院大学 本館・各学部校舎","architect":"ウィリアム・メレル・ヴォーリズ","year":1929.0,"address":"兵庫県西宮市上ケ原一番町1-155","latitude":34.768898010253906,"longitude":135.34898376464844,"category":"大学","description":"商学部、神学部、経済学部、文学部、本館、門衛舎等が現存。中央講堂、宗教館は現存しない。","image_url":""},{"id":11308,"title":"はつかいち文化ホール ウッドワンさくらぴあ","architect":"佐藤総合計画","year":1997.0,"address":"広島県廿日市市下平良1-11-1","latitude":34.34809112548828,"longitude":132.3321075439453,"category":"ホール・劇場","description":"","image_url":""},{"id":11309,"title":"ing","architect":"谷尻誠","year":2005.0,"address":"広島県廿日市市下平良1-3-34","latitude":34.349876403808594,"longitude":132.33164978027344,"category":"レストラン","description":"","image_url":""},{"id":11310,"title":"関西学院大学 時計台 旧図書館","architect":"ウィリアム・メレル・ヴォーリズ","year":1929.0,"address":"兵庫県西宮市上ケ原一番町1-155","latitude":34.76969528198242,"longitude":135.34695434570312,"category":"大学/博物館","description":"","image_url":""},{"id":11311,"title":"関西学院大学 外国人住宅","architect":"ウィリアム・メレル・ヴォーリズ","year":1929.0,"address":"兵庫県西宮市上ケ原一番町1-155","latitude":34.770381927490234,"longitude":135.348876953125,"category":"住宅/大学","description":"10号館を除く9棟が現存。","image_url":""},{"id":11312,"title":"関西学院中学部・高等部本部棟 旧関西学院大学予科校舎","architect":"ウィリアム・メレル・ヴォーリズ","year":1933.0,"address":"兵庫県西宮市上ケ原一番町1-155","latitude":34.766719818115234,"longitude":135.34750366210938,"category":"学校","description":"","image_url":""},{"id":11313,"title":"関西学院大学 ランバス記念礼拝堂 ","architect":"ウィリアム・メレル・ヴォーリズ","year":1959.0,"address":"兵庫県西宮市上ケ原一番町1-155","latitude":34.769439697265625,"longitude":135.34912109375,"category":"大学/教会","description":"","image_url":""},{"id":11314,"title":"関西学院大学 学生会館・旧館 ","architect":"ウィリアム・メレル・ヴォーリズ","year":1959.0,"address":"兵庫県西宮市上ケ原一番町1-155","latitude":34.768402099609375,"longitude":135.34561157226562,"category":"大学","description":"","image_url":""},{"id":11315,"title":"関西学院大学 ハミル館","architect":"ウィリアム・メレル・ヴォーリズ","year":1919.0,"address":"兵庫県西宮市上ケ原一番町1-155","latitude":34.77107620239258,"longitude":135.34765625,"category":"大学","description":"原田校地から1929年移設","image_url":""},{"id":11316,"title":"関西学院大学 学生会館・新館","architect":"日本設計","year":1984.0,"address":"兵庫県西宮市上ケ原一番町1-155","latitude":34.768348693847656,"longitude":135.344482421875,"category":"大学","description":"","image_url":""},{"id":11317,"title":"旧加藤海運本社ビル","architect":"不明","year":1928.0,"address":"兵庫県神戸市兵庫区島上町1-5-12","latitude":34.66932678222656,"longitude":135.1774139404297,"category":"オフィスビル","description":"ロケ地として有名","image_url":""},{"id":11318,"title":"BREEZE BIRD CAFE & BAKERY","architect":"Same Picture Company+矢吹光代","year":2021.0,"address":"神奈川県鎌倉市由比ガ浜3-4-5","latitude":35.31355285644531,"longitude":139.54501342773438,"category":"カフェ/店舗","description":"","image_url":""},{"id":11319,"title":"水戸の眼鏡店 JINS 水戸元吉田店","architect":"平居直","year":2020.0,"address":"茨城県水戸市元吉田町字岡崎1030-6","latitude":36.34426498413086,"longitude":140.46617126464844,"category":"店舗","description":"","image_url":""},{"id":11320,"title":"藤枝の眼鏡店 JINS 藤枝店","architect":"平居直","year":2020.0,"address":"静岡県藤枝市内瀬戸15-1","latitude":34.847251892089844,"longitude":138.23448181152344,"category":"店舗","description":"","image_url":""},{"id":11321,"title":"彦根の眼鏡店 JINS 彦根店","architect":"平居直","year":2018.0,"address":"滋賀県彦根市馬場2-1-1","latitude":35.28101348876953,"longitude":136.2444305419922,"category":"店舗","description":"","image_url":""},{"id":11322,"title":"モノコモドウエスト","architect":"平居直","year":2014.0,"address":"京都府京都市下京区西七条赤社町13-1","latitude":34.99474334716797,"longitude":135.7357635498047,"category":"集合住宅","description":"","image_url":""},{"id":11323,"title":"北陸住居 No.1 チドリスタジオ","architect":"岡佑亮","year":2021.0,"address":"石川県金沢市寺町5-4-14","latitude":36.553192138671875,"longitude":136.65155029296875,"category":"住宅","description":"","image_url":""},{"id":11324,"title":"仏壇仏具店 迦葉","architect":"森下陽","year":2019.0,"address":"静岡県浜松市南区立野町131-2","latitude":34.6870002746582,"longitude":137.77366638183594,"category":"店舗","description":"","image_url":""},{"id":11325,"title":"桜木町の集合住宅 ZOOM横浜桜木町","architect":"小山光","year":2021.0,"address":"神奈川県横浜市中区宮川町3-74-1","latitude":35.44696044921875,"longitude":139.62789916992188,"category":"集合住宅","description":"","image_url":""},{"id":11326,"title":"JINS 宗像店","architect":"岡田宰","year":2021.0,"address":"福岡県宗像市原町字古森141-5","latitude":33.78580856323242,"longitude":130.558349609375,"category":"店舗","description":"","image_url":""},{"id":11327,"title":"JINS 福岡春日店","architect":"岡田宰","year":2021.0,"address":"福岡県春日市星見ヶ丘5-248-1","latitude":33.506202697753906,"longitude":130.45101928710938,"category":"店舗","description":"","image_url":""},{"id":11328,"title":"尾粂 三重VISON店","architect":"長坂常","year":2021.0,"address":"三重県多気郡多気町ヴィソン672-1 食祭7","latitude":34.460697174072266,"longitude":136.51644897460938,"category":"店舗","description":"","image_url":""},{"id":11329,"title":"茶の庭","architect":"東利恵","year":2020.0,"address":"静岡県掛川市上内田389-1","latitude":34.7453498840332,"longitude":138.05162048339844,"category":"カフェ","description":"","image_url":""},{"id":11330,"title":"星のや 沖縄","architect":"東利恵","year":2019.0,"address":"沖縄県中頭郡読谷村儀間474","latitude":26.418323516845703,"longitude":127.71450805664062,"category":"ホテル","description":"","image_url":""},{"id":11331,"title":"星野リゾート バンタカフェ","architect":"東利恵","year":2019.0,"address":"沖縄県中頭郡読谷村儀間560","latitude":26.417816162109375,"longitude":127.71427154541016,"category":"カフェ","description":"","image_url":""},{"id":11332,"title":"ヨコブキヴィラ","architect":"東利恵","year":2018.0,"address":"長野県軽井沢町星野","latitude":36.3586311340332,"longitude":138.58938598632812,"category":"結婚式場","description":"","image_url":""},{"id":11333,"title":"武豊町民会館ゆめたろうプラザ","architect":"伊井伸","year":2004.0,"address":"愛知県知多郡武豊町大門田11","latitude":34.84149932861328,"longitude":136.90940856933594,"category":"ホール・劇場","description":"","image_url":""},{"id":11334,"title":"中部国際空港セントレア 旅客ターミナルビル","architect":"日建設計+梓設計+HOK+アラップ","year":2004.0,"address":"愛知県常滑市セントレア1-1","latitude":34.85896301269531,"longitude":136.81468200683594,"category":"空港","description":"","image_url":""},{"id":11335,"title":"空を孕む波 大府市いきいきプラザ","architect":"笠嶋淑恵+市浦ハウジング&プランニング","year":1992.0,"address":"愛知県大府市横根町狐山97-6","latitude":35.01841735839844,"longitude":136.9739227294922,"category":"福祉センター","description":"","image_url":""},{"id":11336,"title":"あげつまクリニック","architect":"笠嶋淑恵","year":2005.0,"address":"愛知県豊田市今町2-66","latitude":35.043331146240234,"longitude":137.16868591308594,"category":"個人医院","description":"","image_url":""},{"id":11337,"title":"碧南市藤井達吉現代美術館","architect":"日本設計","year":2008.0,"address":"愛知県碧南市音羽町1-1","latitude":34.87336730957031,"longitude":136.98178100585938,"category":"美術館","description":"","image_url":""},{"id":11338,"title":"きらきら蛙","architect":"水野茂朋","year":2021.0,"address":"愛知県あま市七宝町桂宮前8","latitude":35.16619873046875,"longitude":136.80068969726562,"category":"福祉センター/カフェ","description":"","image_url":""},{"id":11339,"title":"所沢の飛行機工場","architect":"水野茂朋","year":2022.0,"address":"埼玉県所沢市大字上安松620-7","latitude":35.78593444824219,"longitude":139.4910125732422,"category":"集合住宅","description":"","image_url":""},{"id":11340,"title":"わかさ生活書店 名古屋ユニモール店","architect":"水野茂朋","year":2021.0,"address":"愛知県名古屋市中村区名駅4-5-26","latitude":35.1713981628418,"longitude":136.88636779785156,"category":"店舗","description":"","image_url":""},{"id":11341,"title":"わかさ生活書店 名古屋伏見店","architect":"水野茂朋","year":2021.0,"address":"愛知県名古屋市中区栄2-2-1 広小路伏見中駒ビル1F","latitude":35.16812515258789,"longitude":136.89889526367188,"category":"店舗","description":"","image_url":""},{"id":11342,"title":"税理士法人ファースト","architect":"水野茂朋","year":2019.0,"address":"岐阜県土岐市泉町久尻30-11","latitude":35.35822677612305,"longitude":137.18455505371094,"category":"低層オフィス","description":"","image_url":""},{"id":11343,"title":"山形霞城どうぶつ医療センター","architect":"矢野英裕","year":2021.0,"address":"山形県山形市清住町3-7-2","latitude":38.252410888671875,"longitude":140.31231689453125,"category":"個人医院","description":"","image_url":""},{"id":11344,"title":"山形県税理士会館","architect":"矢野英裕","year":2017.0,"address":"山形県山形市旅篭町1-12-51","latitude":38.25505447387695,"longitude":140.3367462158203,"category":"組合施設","description":"","image_url":""},{"id":11345,"title":"東北電力奥会津水力館 みお里","architect":"みかんぐみ","year":2020.0,"address":"福島県大沼郡金山町中川","latitude":37.4718017578125,"longitude":139.52928161621094,"category":"博物館","description":"","image_url":""},{"id":11346,"title":"ホテルアクア黒部","architect":"みかんぐみ","year":2019.0,"address":"富山県黒部市天神新353-1","latitude":36.87085723876953,"longitude":137.43563842773438,"category":"ホテル","description":"改修","image_url":""},{"id":11347,"title":"上野東照宮 神符授与所・静心所","architect":"中村拓志","year":2022.0,"address":"東京都台東区上野公園9-88","latitude":35.715152740478516,"longitude":139.77114868164062,"category":"寺院","description":"2022年3月末～4月頃オープン予定。場所がよくわからなかったので適当に配置。分かり次第修正","image_url":""},{"id":11348,"title":"空飛ぶ茶室","architect":"藤森照信","year":2022.0,"address":"兵庫県伊丹市荒牧4-8-70","latitude":34.81279754638672,"longitude":135.38345336914062,"category":"茶室","description":"","image_url":""},{"id":11349,"title":"島原市庁舎","architect":"佐々木信明+佐藤総合計画","year":2020.0,"address":"長崎県島原市上の町537","latitude":32.78799819946289,"longitude":130.37026977539062,"category":"庁舎","description":"","image_url":""},{"id":11350,"title":"ホゲット","architect":"佐々木信明","year":2020.0,"address":"長崎県西海市西海町川内郷1138-2","latitude":33.0490608215332,"longitude":129.7285614013672,"category":"カフェ/住宅","description":"民家の改修","image_url":""}]}