{"page":62,"total_pages":290,"items_per_page":50,"total_items":14467,"items":[{"id":3051,"title":"鹿北町アート・プロジェクト","architect":"山田良+山田綾子","year":2001.0,"address":"熊本県山鹿市鹿北町岩野4186-130","latitude":33.11378479003906,"longitude":130.6685333251953,"category":"オブジェ","description":"くまもとアートポリス。道の駅かほく「小栗郷」背後地","image_url":""},{"id":3052,"title":"清和文楽館","architect":"石井和紘","year":1992.0,"address":"熊本県上益城郡山都町大平152","latitude":32.690643310546875,"longitude":131.09132385253906,"category":"博物館","description":"くまもとアートポリス","image_url":""},{"id":3053,"title":"馬見原橋","architect":"青木淳","year":1995.0,"address":"熊本県上益城郡山都町滝上333-3","latitude":32.68104934692383,"longitude":131.1514129638672,"category":"橋","description":"くまもとアートポリス","image_url":""},{"id":3054,"title":"清和文楽邑道の駅公衆トイレ","architect":"小材健治","year":2001.0,"address":"熊本県上益城郡山都町大平152","latitude":32.69104766845703,"longitude":131.09153747558594,"category":"トイレ","description":"くまもとアートポリス","image_url":""},{"id":3055,"title":"清和郷土料理館","architect":"石井和紘","year":2004.0,"address":"熊本県上益城郡山都町大平152","latitude":32.69058609008789,"longitude":131.09109497070312,"category":"レストラン/店舗","description":"くまもとアートポリス","image_url":""},{"id":3056,"title":"花の温泉館","architect":"北山恒+木下道郎+谷内田章夫","year":1993.0,"address":"熊本県阿蘇郡産山村田尻68-1","latitude":33.041038513183594,"longitude":131.18214416503906,"category":"温泉","description":"くまもとアートポリス。ワークショップ名義。","image_url":""},{"id":3057,"title":"P-Hall 杖立橋+杖立橋多目的ホール","architect":"新井清一","year":1996.0,"address":"熊本県阿蘇郡小国町大字下城字湯鶴杖立","latitude":33.18354415893555,"longitude":131.03355407714844,"category":"橋/公共施設","description":"くまもとアートポリス","image_url":""},{"id":3058,"title":"小国町立北里小学校屋内運動場 北里アリーナ","architect":"NKS2アーキテクツ","year":2003.0,"address":"熊本県阿蘇郡小国町北里2473","latitude":33.14213180541992,"longitude":131.0957489013672,"category":"学校/体育館","description":"くまもとアートポリス","image_url":""},{"id":3059,"title":"小国町立西里小学校","architect":"木島安史","year":1991.0,"address":"熊本県阿蘇郡小国町大字西里","latitude":33.155948638916016,"longitude":131.1359100341797,"category":"学校","description":"現在は閉校。避難施設等に活用されている","image_url":""},{"id":3060,"title":"道の駅 小国 ゆうステーション","architect":"葉祥栄","year":1987.0,"address":"熊本県阿蘇郡小国町宮原1754-17 ","latitude":33.12309646606445,"longitude":131.06468200683594,"category":"観光施設/PA・道の駅","description":"小国町における一連の木造建築により日本建築学会作品賞受賞","image_url":""},{"id":3061,"title":"小国ドーム","architect":"葉祥栄","year":1988.0,"address":"熊本県阿蘇郡小国町宮原214-2","latitude":33.116207122802734,"longitude":131.07408142089844,"category":"スタジアム","description":"小国町における一連の木造建築により日本建築学会作品賞受賞","image_url":""},{"id":3062,"title":"グラスステーション","architect":"葉祥栄","year":1993.0,"address":"熊本県阿蘇郡小国町宮原2312-2","latitude":33.11044692993164,"longitude":131.0636749267578,"category":"店舗","description":"","image_url":""},{"id":3063,"title":"天草四郎ミュージアム 旧天草四郎メモリアルホール","architect":"レーモンド設計事務所","year":1993.0,"address":"熊本県上天草市大矢野町中977-1","latitude":32.57602310180664,"longitude":130.42112731933594,"category":"博物館","description":"","image_url":""},{"id":3064,"title":"天草ビジターセンター","architect":"古谷誠章","year":1994.0,"address":"熊本県上天草市松島町合津6311-1","latitude":32.540462493896484,"longitude":130.42459106445312,"category":"公園","description":"くまもとアートポリス","image_url":""},{"id":3065,"title":"水俣市立水俣病資料館","architect":"北村義典+佐藤宏二","year":1993.0,"address":"熊本県水俣市明神町1-53","latitude":32.20338821411133,"longitude":130.37429809570312,"category":"博物館","description":"","image_url":""},{"id":3066,"title":"水俣メモリアル 水俣市立水俣病資料館","architect":"ジュゼッペ・バローネ","year":1996.0,"address":"熊本県水俣市明神町1-53","latitude":32.20349884033203,"longitude":130.374755859375,"category":"博物館/オブジェ","description":"","image_url":""},{"id":3067,"title":"新水俣駅 新水俣門","architect":"渡辺誠","year":2004.0,"address":"熊本県水俣市初野305","latitude":32.210472106933594,"longitude":130.4283905029297,"category":"駅","description":"","image_url":""},{"id":3068,"title":"有明フェリー長洲港ターミナル","architect":"石田敏明","year":1996.0,"address":"熊本県玉名郡長洲町長洲2168-25","latitude":32.92685317993164,"longitude":130.4430694580078,"category":"港","description":"","image_url":""},{"id":3069,"title":"荒尾警察署長洲交番","architect":"塚本政利","year":1996.0,"address":"熊本県玉名郡長洲町大字長洲2006-2","latitude":32.92784881591797,"longitude":130.44570922851562,"category":"警察・消防署","description":"","image_url":""},{"id":3070,"title":"つなぎ物産ギャラリー グリーンゲイト","architect":"北山孝二郎","year":1992.0,"address":"熊本県芦北郡津奈木町岩城1601","latitude":32.231685638427734,"longitude":130.45697021484375,"category":"店舗","description":"くまもとアートポリス","image_url":""},{"id":3071,"title":"牛深ハイヤ大橋","architect":"レンゾ・ピアノ+岡部憲明+ピーター・ライス+伊藤整一","year":1997.0,"address":"熊本県天草市牛深町2286-116","latitude":32.191158294677734,"longitude":130.02662658691406,"category":"橋","description":"くまもとアートポリス","image_url":""},{"id":3072,"title":"教会の見えるチャペルの鐘展望公園","architect":"梅田正徳","year":1993.0,"address":"熊本県天草市河浦町崎津295","latitude":32.31090545654297,"longitude":130.02352905273438,"category":"オブジェ","description":"くまもとアートポリス","image_url":""},{"id":3073,"title":"うしぶか海彩館","architect":"内藤廣","year":1997.0,"address":"熊本県天草市牛深町2286-116","latitude":32.1938362121582,"longitude":130.02696228027344,"category":"モール","description":"くまもとアートポリス","image_url":""},{"id":3074,"title":"湯前まんが美術館・公民館","architect":"桂英昭","year":1992.0,"address":"熊本県球磨郡湯前町湯前1834-1","latitude":32.28069305419922,"longitude":130.98114013671875,"category":"博物館","description":"くまもとアートポリス","image_url":""},{"id":3075,"title":"TOTO AQUAPIT ASO","architect":"木島安史","year":1992.0,"address":"熊本県阿蘇郡南阿蘇村大字中松古坊中3845-19","latitude":32.82866668701172,"longitude":131.0506591796875,"category":"トイレ","description":"くまもとアートポリス","image_url":""},{"id":3076,"title":"八代市社会福祉事業団保寿寮","architect":"伊東豊雄","year":1994.0,"address":"熊本県八代市日奈久平成町1-1","latitude":32.43284225463867,"longitude":130.57070922851562,"category":"養護施設","description":"","image_url":""},{"id":3077,"title":"鏡文化センター","architect":"黒川紀章","year":1999.0,"address":"熊本県八代市鏡町内田468-1","latitude":32.56201171875,"longitude":130.6482391357422,"category":"ホール・劇場/総合文化施設/図書館","description":"","image_url":""},{"id":3078,"title":"八代広域消防本部庁舎","architect":"伊東豊雄","year":1995.0,"address":"熊本県八代市大村町970","latitude":32.51640701293945,"longitude":130.6156005859375,"category":"警察・消防署","description":"","image_url":""},{"id":3079,"title":"鶴屋百貨店 八代店 ACT6","architect":"葉祥栄","year":1985.0,"address":"熊本県八代市花園町3-8","latitude":32.50283432006836,"longitude":130.61705017089844,"category":"店舗","description":"","image_url":""},{"id":3080,"title":"八代市立高田あけぼの保育園","architect":"みかんぐみ","year":2001.0,"address":"熊本県八代市本野町522","latitude":32.48688888549805,"longitude":130.61619567871094,"category":"幼稚園","description":"くまもとアートポリス","image_url":""},{"id":3081,"title":"新八代駅前モニュメント「きらり」","architect":"乾久美子","year":2004.0,"address":"熊本県八代市上日置町4774-2","latitude":32.51787567138672,"longitude":130.63491821289062,"category":"オブジェ","description":"くまもとアートポリス","image_url":""},{"id":3082,"title":"八代市立博物館 未来の森ミュージアム","architect":"伊東豊雄","year":1991.0,"address":"熊本県八代市西松江城町12-35","latitude":32.508262634277344,"longitude":130.59657287597656,"category":"博物館","description":"くまもとアートポリス","image_url":""},{"id":3083,"title":"東陽村石匠館","architect":"木島安史","year":1993.0,"address":"熊本県八代市東陽町北98-2","latitude":32.55049133300781,"longitude":130.71766662597656,"category":"博物館","description":"くまもとアートポリス","image_url":""},{"id":3084,"title":"ギャラリー8","architect":"伊東豊雄","year":1991.0,"address":"熊本県八代市通町7-28","latitude":32.50883483886719,"longitude":130.6048583984375,"category":"ギャラリー","description":"","image_url":""},{"id":3085,"title":"ふれあいセンターいずみ","architect":"武田光史","year":1997.0,"address":"熊本県八代市泉町下岳3296-1","latitude":32.57296371459961,"longitude":130.79627990722656,"category":"PA・道の駅/レストラン","description":"くまもとアートポリス","image_url":""},{"id":3086,"title":"やつしろハーモニーホール","architect":"桜樹会・古川建築事務所","year":2000.0,"address":"熊本県八代市新町5-20","latitude":32.50733184814453,"longitude":130.6087646484375,"category":"ホール・劇場","description":"","image_url":""},{"id":3087,"title":"美里町林業総合センター","architect":"西沢大良","year":2004.0,"address":"熊本県下益城郡美里町坂貫563","latitude":32.61615753173828,"longitude":130.8335418701172,"category":"公共施設/組合施設","description":"くまもとアートポリス","image_url":""},{"id":3088,"title":"美里町文化交流センターひびき","architect":"八束はじめ","year":2002.0,"address":"熊本県下益城郡美里町永富1483","latitude":32.616310119628906,"longitude":130.8623046875,"category":"総合文化施設","description":"くまもとアートポリス","image_url":""},{"id":3089,"title":"苓北町民ホール","architect":"阿部仁史","year":2002.0,"address":"熊本県天草郡苓北町志岐444-1","latitude":32.512001037597656,"longitude":130.0521697998047,"category":"公民館・交流施設/ホール・劇場","description":"くまもとアートポリス。日本建築学会 作品賞受賞者名：阿部仁史、小野田泰明","image_url":""},{"id":3090,"title":"姶良市総合運動公園 体育館","architect":"古市徹雄","year":2005.0,"address":"鹿児島県姶良市平松2392","latitude":31.723915100097656,"longitude":130.6012420654297,"category":"体育館","description":"","image_url":""},{"id":3091,"title":"鹿児島県奄美パーク 田中一村記念美術館","architect":"佐藤総合計画","year":2001.0,"address":"鹿児島県奄美市笠利町大字節田1834","latitude":28.416927337646484,"longitude":129.6945037841797,"category":"美術館","description":"","image_url":""},{"id":3092,"title":"鹿児島県屋久町新庁舎","architect":"古市徹雄","year":1995.0,"address":"鹿児島県熊毛郡屋久島町小瀬田469-45","latitude":30.371360778808594,"longitude":130.66651916503906,"category":"庁舎","description":"","image_url":""},{"id":3093,"title":"鹿児島県屋久町立屋久杉自然館","architect":"古市徹雄","year":1989.0,"address":"鹿児島県熊毛郡屋久島町安房2739-343","latitude":30.309297561645508,"longitude":130.6328125,"category":"博物館","description":"","image_url":""},{"id":3094,"title":"ある町医者の記念館","architect":"堀部安嗣","year":1995.0,"address":"鹿児島県薩摩郡薩摩町求名3356-11","latitude":31.942686080932617,"longitude":130.5329132080078,"category":"ギャラリー/住宅","description":"","image_url":""},{"id":3095,"title":"ふれあいプラザ なのはな館","architect":"高崎正治","year":1998.0,"address":"鹿児島県指宿市東方9300-1","latitude":31.254501342773438,"longitude":130.64793395996094,"category":"公共施設/スポーツ施設","description":"休館中も一部施設は使用可能","image_url":""},{"id":3096,"title":"岩崎美術館・工芸館","architect":"槇文彦","year":1978.0,"address":"鹿児島県指宿市十二町3755","latitude":31.221851348876953,"longitude":130.65438842773438,"category":"美術館","description":"工芸館の竣工は1987年","image_url":""},{"id":3097,"title":"輝北天球館","architect":"高崎正治","year":1995.0,"address":"鹿児島県鹿屋市輝北町市成1660-3","latitude":31.592845916748047,"longitude":130.8240203857422,"category":"博物館/展望台","description":"","image_url":""},{"id":3098,"title":"磯工芸館","architect":"隈元長栄","year":1909.0,"address":"鹿児島県鹿児島市吉野町9688-24","latitude":31.616973876953125,"longitude":130.5757293701172,"category":"洋館","description":"","image_url":""},{"id":3099,"title":"鹿児島県立歴史資料センター 黎明館","architect":"谷口吉郎","year":1983.0,"address":"鹿児島県鹿児島市城山町7-2","latitude":31.598575592041016,"longitude":130.5546875,"category":"博物館","description":"","image_url":""},{"id":3100,"title":"かごしま環境未来館","architect":"日建設計","year":2008.0,"address":"鹿児島県鹿児島市城西2-1-5","latitude":31.59653091430664,"longitude":130.540283203125,"category":"博物館","description":"","image_url":""}]}