{"page":123,"total_pages":290,"items_per_page":50,"total_items":14467,"items":[{"id":6101,"title":"やわらぎ 森のスタジアム","architect":"竹中工務店","year":2013.0,"address":"愛知県豊田市西広瀬町小麦生735-4","latitude":35.161399841308594,"longitude":137.19981384277344,"category":"スタジアム","description":"","image_url":""},{"id":6102,"title":"石巻市子どもセンター","architect":"竹中工務店","year":2013.0,"address":"宮城県石巻市立町1-6-1","latitude":38.43278121948242,"longitude":141.3077392578125,"category":"児童施設","description":"","image_url":""},{"id":6103,"title":"天神モノリス","architect":"竹中工務店","year":2012.0,"address":"福岡県福岡市中央区長浜1-1-12","latitude":33.595619201660156,"longitude":130.39537048339844,"category":"結婚式場","description":"","image_url":""},{"id":6104,"title":"東京アメリカンクラブ","architect":"竹中工務店+三菱地所+シーザー・ペリ","year":2010.0,"address":"東京都港区麻布台2-1-2","latitude":35.658687591552734,"longitude":139.74024963378906,"category":"クラブハウス/その他文化施設","description":"","image_url":""},{"id":6105,"title":"清荒神清澄寺 史料館","architect":"竹中工務店","year":2008.0,"address":"兵庫県宝塚市米谷清シ1","latitude":34.82173538208008,"longitude":135.35231018066406,"category":"博物館","description":"","image_url":""},{"id":6106,"title":"牧之原市役所 相良総合センター いーら","architect":"竹中工務店","year":2007.0,"address":"静岡県牧之原市須々木140","latitude":34.680274963378906,"longitude":138.19032287597656,"category":"ホール・劇場/公民館・交流施設","description":"","image_url":""},{"id":6107,"title":"薩摩伝承館","architect":"竹中工務店","year":2007.0,"address":"鹿児島県指宿市東方12131-4","latitude":31.25296401977539,"longitude":130.6538848876953,"category":"博物館","description":"","image_url":""},{"id":6108,"title":"MOAアートホール北海道","architect":"竹中工務店","year":2007.0,"address":"北海道札幌市西区二十四軒4条2-8-31","latitude":43.07780456542969,"longitude":141.30923461914062,"category":"医療施設/宗教施設","description":"","image_url":""},{"id":6109,"title":"関口雄揮記念美術館","architect":"竹中工務店","year":2005.0,"address":"北海道札幌市南区常盤3条1-7-19","latitude":42.94233703613281,"longitude":141.3444061279297,"category":"美術館","description":"","image_url":""},{"id":6110,"title":"白鷹禄水苑","architect":"竹中工務店","year":2001.0,"address":"兵庫県西宮市鞍掛町5-1","latitude":34.73051834106445,"longitude":135.3387451171875,"category":"店舗/博物館","description":"","image_url":""},{"id":6111,"title":"タラオレイクヴィラ","architect":"竹中工務店","year":2001.0,"address":"滋賀県甲賀市信楽町多羅尾1","latitude":34.81211471557617,"longitude":136.07911682128906,"category":"ホテル","description":"","image_url":""},{"id":6112,"title":"熊本市役所花畑町別館 旧熊本地方貯金支局","architect":"山田守","year":1936.0,"address":"熊本県熊本市中央区花畑町3","latitude":32.802398681640625,"longitude":130.70620727539062,"category":"公共施設","description":"2017年に解体","image_url":""},{"id":6113,"title":"鹿児島中央高等学校 旧鹿児島県第一高等女学校","architect":"岩下松雄","year":1935.0,"address":"鹿児島県鹿児島市加治屋町10-1","latitude":31.586172103881836,"longitude":130.54969787597656,"category":"学校","description":"","image_url":""},{"id":6114,"title":"東京工業大学 創立70周年記念講堂","architect":"谷口吉郎","year":1955.0,"address":"東京都目黒区大岡山2-12-1","latitude":35.60588073730469,"longitude":139.6835174560547,"category":"大学/ホール・劇場","description":"","image_url":""},{"id":6115,"title":"日野市立中央図書館","architect":"鬼頭梓","year":1973.0,"address":"東京都日野市豊田2-49-2","latitude":35.65616226196289,"longitude":139.38226318359375,"category":"図書館","description":"","image_url":""},{"id":6116,"title":"JA東京みどり仲原支店","architect":"千葉学","year":2014.0,"address":"東京都東大和市仲原4-11-1","latitude":35.7448844909668,"longitude":139.43527221679688,"category":"組合施設","description":"","image_url":""},{"id":6117,"title":"世沙弥","architect":"坂本昭","year":2004.0,"address":"大阪府大阪市淀川区塚本1-3-28","latitude":34.7115478515625,"longitude":135.47291564941406,"category":"レストラン","description":"","image_url":""},{"id":6118,"title":"小林一三記念館 雅俗山荘","architect":"竹中工務店","year":1937.0,"address":"大阪府池田市建石町7-13","latitude":34.826053619384766,"longitude":135.43077087402344,"category":"洋館/レストラン","description":"","image_url":""},{"id":6119,"title":"新豊洲Brillia ランニングスタジアム","architect":"武松幸治","year":2016.0,"address":"東京都江東区豊洲6-4","latitude":35.64883041381836,"longitude":139.78646850585938,"category":"スポーツ施設","description":"日本建築学会 作品賞受賞者名：武松幸治、萩生田秀之、喜多村淳。2024年1月より有明アーバンスポーツパークに移設作業開始。移設後新住所に更新します","image_url":""},{"id":6120,"title":"根岸アトリエ+ギャラリーO 小川重雄写真事務所","architect":"庄司寛","year":2013.0,"address":"東京都台東区根岸3­22-5","latitude":35.72428512573242,"longitude":139.78219604492188,"category":"ギャラリー/住宅","description":"","image_url":""},{"id":6121,"title":"エレテギア キッチン&ダイニング","architect":"中村拓志","year":2016.0,"address":"広島県尾道市浦崎町大平木1344-2","latitude":34.393062591552734,"longitude":133.28746032714844,"category":"レストラン/ホテル","description":"","image_url":""},{"id":6122,"title":"小豆島 撰果場ギャラリー","architect":"関谷昌人","year":2016.0,"address":"香川県小豆郡小豆島町池田2676","latitude":34.48622131347656,"longitude":134.2315216064453,"category":"カフェ/店舗/ギャラリー","description":"","image_url":""},{"id":6123,"title":"ソロー八郷 体感ルーム","architect":"SUEP.","year":2016.0,"address":"茨城県石岡市小見1048-1","latitude":36.297698974609375,"longitude":140.1896514892578,"category":"店舗/企業施設/低層オフィス","description":"","image_url":""},{"id":6124,"title":"豊島八百万ラボ","architect":"成瀬・猪熊建築設計事務所","year":2016.0,"address":"香川県小豆郡土庄町豊島甲生908","latitude":34.468841552734375,"longitude":134.0736846923828,"category":"ギャラリー","description":"","image_url":""},{"id":6125,"title":"TSURUMIこどもホスピス","architect":"大成建設","year":2015.0,"address":"大阪府大阪市鶴見区浜1-1-77","latitude":34.70842361450195,"longitude":135.58111572265625,"category":"養護施設/児童施設","description":"","image_url":""},{"id":6126,"title":"クリニックかけはし","architect":"NTTファシリティーズ","year":2013.0,"address":"愛知県名古屋市中村区稲葉地町2-16-8","latitude":35.16731262207031,"longitude":136.84326171875,"category":"個人医院","description":"","image_url":""},{"id":6127,"title":"有料老人ホームアグリケアガーデン","architect":"はりゅうウッドスタジオ+遠藤政樹+浦部智義+難波和彦","year":2015.0,"address":"茨城県つくばみらい市伊奈東37-1","latitude":35.99147415161133,"longitude":140.05661010742188,"category":"養護施設","description":"","image_url":""},{"id":6128,"title":"佐久総合病院 佐久医療センター","architect":"日建設計","year":2013.0,"address":"長野県佐久市中込3400−28","latitude":36.2517204284668,"longitude":138.47203063964844,"category":"病院","description":"","image_url":""},{"id":6129,"title":"Share金沢","architect":"五井建築研究所","year":2014.0,"address":"石川県金沢市若松町セ104-1","latitude":36.54682922363281,"longitude":136.69508361816406,"category":"養護施設/児童施設/店舗","description":"","image_url":""},{"id":6130,"title":"金沢商工会議所会館","architect":"五井建築研究所","year":2014.0,"address":"石川県金沢市尾山町9-13","latitude":36.56719970703125,"longitude":136.6562957763672,"category":"組合施設","description":"","image_url":""},{"id":6131,"title":"とんだばやし観光交流施設 きらめきファクトリー","architect":"はりゅうウッドスタジオ","year":2015.0,"address":"大阪府富田林市本町19-8","latitude":34.50387954711914,"longitude":135.60110473632812,"category":"観光施設","description":"","image_url":""},{"id":6132,"title":"横浜市立大学 YCUスクエア","architect":"山本理顕","year":2016.0,"address":"神奈川県横浜市金沢区瀬戸22-2","latitude":35.33422088623047,"longitude":139.61935424804688,"category":"大学","description":"","image_url":""},{"id":6133,"title":"瑠璃堂","architect":"竹山聖","year":2016.0,"address":"京都府宇治市宇治金井戸8-1","latitude":34.87750244140625,"longitude":135.8219757080078,"category":"霊園","description":"","image_url":""},{"id":6134,"title":"浮気保育園","architect":"藤本壮介","year":2016.0,"address":"滋賀県守山市浮気町321-2","latitude":35.05045700073242,"longitude":135.99920654296875,"category":"幼稚園","description":"","image_url":""},{"id":6135,"title":"認定こども園 愛徳幼稚園","architect":"隈研吾","year":2016.0,"address":"埼玉県さいたま市西区プラザ36-11","latitude":35.90508270263672,"longitude":139.57850646972656,"category":"幼稚園","description":"","image_url":""},{"id":6136,"title":"京都府立京都学・歴彩館","architect":"飯田善彦","year":2016.0,"address":"京都府京都市左京区下鴨半木町1-4","latitude":35.04848861694336,"longitude":135.7668914794922,"category":"図書館/博物館","description":"ほぼ竣工。2016年秋オープン予定。","image_url":""},{"id":6137,"title":"西来院","architect":"杉本朝次","year":1958.0,"address":"静岡県浜松市中区広沢2-10-1","latitude":34.71332931518555,"longitude":137.71629333496094,"category":"寺院","description":"","image_url":""},{"id":6138,"title":"銀座プレイス","architect":"クライン・ダイサム・アーキテクツ+大成建設","year":2016.0,"address":"東京都中央区銀座5-1-1","latitude":35.670841217041016,"longitude":139.7650146484375,"category":"テナントビル","description":"","image_url":""},{"id":6139,"title":"熊本市西区役所","architect":"三菱地所","year":2012.0,"address":"熊本県熊本市西区小島2-7-1","latitude":32.77639389038086,"longitude":130.6475067138672,"category":"庁舎","description":"","image_url":""},{"id":6140,"title":"旅館千","architect":"大森創太郎","year":2014.0,"address":"熊本県阿蘇郡南小国町満願寺6291-1","latitude":33.06678771972656,"longitude":131.15992736816406,"category":"旅館","description":"女性専用旅館","image_url":""},{"id":6141,"title":"旅館 心乃間間","architect":"大森創太郎","year":2013.0,"address":"熊本県阿蘇郡南阿蘇村河陰5304-1","latitude":32.84718704223633,"longitude":130.99462890625,"category":"旅館","description":"","image_url":""},{"id":6142,"title":"鹿児島県民健康プラザ","architect":"日建設計","year":2001.0,"address":"鹿児島県鹿屋市札元1-8-8","latitude":31.393497467041016,"longitude":130.86935424804688,"category":"プール","description":"","image_url":""},{"id":6143,"title":"天草アーバ","architect":"伊東豊雄+桂英昭+末廣香織+曽我部昌史 他","year":2013.0,"address":"熊本県天草市有明町上津浦美ノ越1951-2","latitude":32.505714416503906,"longitude":130.30479431152344,"category":"公園","description":"","image_url":""},{"id":6144,"title":"リップルランド","architect":"上田憲二郎","year":null,"address":"熊本県天草市有明町上津浦1955","latitude":32.50550079345703,"longitude":130.30577087402344,"category":"PA・道の駅/公園","description":"","image_url":""},{"id":6145,"title":"丸尾焼工房","architect":"上田憲二郎","year":null,"address":"熊本県天草市北原町3-10","latitude":32.464820861816406,"longitude":130.18751525878906,"category":"店舗","description":"","image_url":""},{"id":6146,"title":"ビューヘアー＆離宮 旧バンケットホール","architect":"塩塚隆生","year":2004.0,"address":"大分県大分市三芳庄の原2組","latitude":33.22307205200195,"longitude":131.575927734375,"category":"美容院","description":"","image_url":""},{"id":6147,"title":"アノーカフェ 旧セレモニーホール","architect":"塩塚隆生","year":2007.0,"address":"大分県大分市三芳1237","latitude":33.22316360473633,"longitude":131.5758056640625,"category":"カフェ","description":"閉店？","image_url":""},{"id":6148,"title":"鹿児島県立博物館 考古資料館","architect":"不明","year":1883.0,"address":"鹿児島県鹿児島市城山町1-5","latitude":31.594438552856445,"longitude":130.5520782470703,"category":"博物館/洋館","description":"閉鎖中。外観のみ。","image_url":""},{"id":6149,"title":"鹿児島県教育会館","architect":"三上昇","year":1931.0,"address":"鹿児島県鹿児島市山下町4-18","latitude":31.594234466552734,"longitude":130.553466796875,"category":"組合施設","description":"","image_url":""},{"id":6150,"title":"南日本銀行本店","architect":"三上昇","year":1937.0,"address":"鹿児島県鹿児島市山下町1-1","latitude":31.594615936279297,"longitude":130.556884765625,"category":"金融機関","description":"","image_url":""}]}