{"page":44,"total_pages":290,"items_per_page":50,"total_items":14467,"items":[{"id":2151,"title":"さくら広場（門真）","architect":"安藤忠雄","year":2006.0,"address":"大阪府門真市門真1006","latitude":34.73820114135742,"longitude":135.57191467285156,"category":"公園","description":"永山祐子設計のうみのハンモックを2024年3月より設置","image_url":""},{"id":2152,"title":"やまなみドーム 室生屋内山村広場","architect":"竹山聖","year":2003.0,"address":"奈良県宇陀市室生上笠間2385-1","latitude":34.6017951965332,"longitude":136.02073669433594,"category":"体育館","description":"","image_url":""},{"id":2153,"title":"グランソール奈良","architect":"中村勉","year":2001.0,"address":"奈良県宇陀市菟田野松井8-1","latitude":34.473209381103516,"longitude":135.9764862060547,"category":"医療施設","description":"","image_url":""},{"id":2154,"title":"室生山上公園 芸術の森","architect":"ダニ・カラヴァン","year":2006.0,"address":"奈良県宇陀市室生181","latitude":34.53797912597656,"longitude":136.0325469970703,"category":"公園","description":"","image_url":""},{"id":2155,"title":"下北山村 歴史民俗資料館 旧桑原病院","architect":"西村伊作","year":1925.0,"address":"奈良県吉野郡下北山村上桑原","latitude":34.00307846069336,"longitude":135.98268127441406,"category":"博物館","description":"","image_url":""},{"id":2156,"title":"橿原市昆虫館","architect":"日建設計","year":1989.0,"address":"奈良県橿原市南山町624","latitude":34.4913330078125,"longitude":135.82705688476562,"category":"博物館","description":"","image_url":""},{"id":2157,"title":"當麻寺","architect":"不明","year":612.0,"address":"奈良県葛城市當麻1263","latitude":34.5157356262207,"longitude":135.69467163085938,"category":"寺院","description":"","image_url":""},{"id":2158,"title":"五條文化博物館","architect":"安藤忠雄","year":1995.0,"address":"奈良県五條市北山町930-2","latitude":34.37946701049805,"longitude":135.6854248046875,"category":"博物館","description":"","image_url":""},{"id":2159,"title":"桜井寺","architect":"村野藤吾","year":1968.0,"address":"奈良県五條市須恵1-3-26","latitude":34.352317810058594,"longitude":135.69598388671875,"category":"寺院","description":"","image_url":""},{"id":2160,"title":"旧御杖小学校","architect":"青木淳","year":1998.0,"address":"奈良県宇陀郡御杖村菅野47","latitude":34.48777389526367,"longitude":136.1548614501953,"category":"学校","description":"2021年に御杖中学校に移転。校舎が共用されている。旧御杖小学校の建築自体は現存している模様","image_url":""},{"id":2161,"title":"黒滝・文化とスポーツの森 森のこもれびホール","architect":"渡辺豊和","year":1996.0,"address":"奈良県吉野郡黒滝村寺戸397-1","latitude":34.30998611450195,"longitude":135.85133361816406,"category":"ホール・劇場","description":"","image_url":""},{"id":2162,"title":"山添村歴史民俗資料館 旧山添村立春日小学校講堂","architect":"不明","year":null,"address":"奈良県山辺郡山添村春日1770","latitude":34.680809020996094,"longitude":136.0521240234375,"category":"洋館","description":"","image_url":""},{"id":2163,"title":"高山サイエンスプラザ","architect":"上田篤","year":1993.0,"address":"奈良県生駒市高山町8916-12","latitude":34.73421096801758,"longitude":135.73297119140625,"category":"博物館","description":"","image_url":""},{"id":2164,"title":"生駒市立会館 南コミュニティセンター せせらぎ","architect":"東畑建築事務所","year":1998.0,"address":"奈良県生駒市小瀬町18","latitude":34.666263580322266,"longitude":135.70684814453125,"category":"公民館・交流施設","description":"","image_url":""},{"id":2165,"title":"慈光院","architect":"不明","year":1663.0,"address":"奈良県大和郡山市小泉町865","latitude":34.63205337524414,"longitude":135.75808715820312,"category":"寺院","description":"","image_url":""},{"id":2166,"title":"平城宮","architect":"不明","year":710.0,"address":"奈良県奈良市 2-9-1","latitude":34.69172286987305,"longitude":135.78811645507812,"category":"城郭","description":"","image_url":""},{"id":2167,"title":"松伯美術館","architect":"村野・森建築事務所","year":1994.0,"address":"奈良県奈良市登美ヶ丘2-1-4","latitude":34.709991455078125,"longitude":135.74717712402344,"category":"美術館","description":"村野藤吾没後の作品","image_url":""},{"id":2168,"title":"メディカルコートあやめ池","architect":"入江正之","year":2012.0,"address":"奈良県奈良市あやめ池北1-32-21","latitude":34.700748443603516,"longitude":135.7613067626953,"category":"福祉センター/病院","description":"","image_url":""},{"id":2169,"title":"大和文華館","architect":"吉田五十八","year":1960.0,"address":"奈良県奈良市学園南1-11-6","latitude":34.69554901123047,"longitude":135.75640869140625,"category":"博物館","description":"","image_url":""},{"id":2170,"title":"正倉院正倉","architect":"不明","year":756.0,"address":"奈良県奈良市雑司町字手向山434","latitude":34.69343185424805,"longitude":135.83726501464844,"category":"寺院","description":"","image_url":""},{"id":2171,"title":"奈良県文化会館","architect":"片山光生+日建設計","year":1968.0,"address":"奈良県奈良市登大路町6-2","latitude":34.6862907409668,"longitude":135.831298828125,"category":"ホール・劇場","description":"","image_url":""},{"id":2172,"title":"東大寺総合文化センター","architect":"建築研究所アーキヴィジョン","year":2010.0,"address":"奈良県奈良市水門町100","latitude":34.68619155883789,"longitude":135.83863830566406,"category":"博物館","description":"","image_url":""},{"id":2173,"title":"奈良県庁舎","architect":"片山光生","year":1965.0,"address":"奈良県奈良市登大路町30","latitude":34.68526840209961,"longitude":135.83282470703125,"category":"庁舎","description":"","image_url":""},{"id":2174,"title":"奈良春日野国際フォーラム 甍～I・RA・KA～ 旧奈良県新公会堂","architect":"建築研究所アーキヴィジョン","year":1987.0,"address":"奈良県奈良市春日野町101","latitude":34.683868408203125,"longitude":135.8433380126953,"category":"ホール・劇場","description":"","image_url":""},{"id":2175,"title":"奈良国立博物館 東新館 ／ 西新館","architect":"吉村順三","year":1972.0,"address":"奈良県奈良市登大路町50","latitude":34.682960510253906,"longitude":135.83795166015625,"category":"博物館","description":"","image_url":""},{"id":2176,"title":"中川政七商店新社屋","architect":"吉村靖孝","year":2010.0,"address":"奈良県奈良市東九条町1112-1","latitude":34.66376876831055,"longitude":135.81748962402344,"category":"企業施設","description":"","image_url":""},{"id":2177,"title":"セント・ウーム","architect":"出江寛","year":1999.0,"address":"奈良県奈良市法蓮町757-2","latitude":34.692081451416016,"longitude":135.82183837890625,"category":"結婚式場","description":"","image_url":""},{"id":2178,"title":"奈良春日野国際フォーラム別館 旧シルクロード交流館","architect":"菊竹清訓","year":1991.0,"address":"奈良県奈良市雑司町469","latitude":34.685401916503906,"longitude":135.8433837890625,"category":"博物館","description":"","image_url":""},{"id":2179,"title":"仏教美術資料研究センター 旧奈良県物産陳列所","architect":"関野貞","year":null,"address":"奈良県奈良市春日野町","latitude":34.68415832519531,"longitude":135.83975219726562,"category":"研究施設","description":"祝日を除く水・金に一般公開 重要文化財","image_url":""},{"id":2180,"title":"奈良国立博物館","architect":"片山東熊+宗兵蔵","year":1894.0,"address":"奈良県奈良市登大路町50","latitude":34.68359375,"longitude":135.83663940429688,"category":"博物館","description":"栗生明により仏像館展示室改修。2016年竣工。","image_url":""},{"id":2181,"title":"入江泰吉記念 奈良市写真美術館","architect":"黒川紀章","year":1991.0,"address":"奈良県奈良市高畑町600-1","latitude":34.67559051513672,"longitude":135.84544372558594,"category":"美術館","description":"","image_url":""},{"id":2182,"title":"なら100年会館 奈良市民ホール","architect":"磯崎新","year":1999.0,"address":"奈良県奈良市三条宮前町7-1","latitude":34.68033981323242,"longitude":135.8165283203125,"category":"ホール・劇場","description":"","image_url":""},{"id":2183,"title":"奈良ホテル","architect":"辰野金吾+片岡安","year":1909.0,"address":"奈良県奈良市高畑町1096","latitude":34.679874420166016,"longitude":135.8337860107422,"category":"ホテル","description":"","image_url":""},{"id":2184,"title":"海南市わんぱく公園","architect":"仙田満","year":2000.0,"address":"和歌山県海南市大野中995-2","latitude":34.1589241027832,"longitude":135.23428344726562,"category":"児童施設","description":"","image_url":""},{"id":2185,"title":"フラワーヒルミュージアム","architect":"黒川紀章","year":1999.0,"address":"和歌山県紀の川市西野山473","latitude":34.28074264526367,"longitude":135.44175720214844,"category":"美術館","description":"","image_url":""},{"id":2186,"title":"みさと天文台","architect":"上田篤","year":1995.0,"address":"和歌山県海草郡紀美野町松ヶ峯180","latitude":34.1445426940918,"longitude":135.40614318847656,"category":"博物館","description":"","image_url":""},{"id":2187,"title":"橋本バプテスト教会","architect":"東孝光","year":1984.0,"address":"和歌山県橋本市胡麻生705-33","latitude":34.336753845214844,"longitude":135.61061096191406,"category":"教会","description":"","image_url":""},{"id":2188,"title":"串本応挙芦雪館","architect":"不明","year":1961.0,"address":"和歌山県東牟婁郡串本町串本833","latitude":33.47075271606445,"longitude":135.7778778076172,"category":"美術館","description":"","image_url":""},{"id":2189,"title":"西村記念館","architect":"西村伊作","year":1914.0,"address":"和歌山県新宮市新宮7657","latitude":33.727874755859375,"longitude":135.99264526367188,"category":"住宅","description":"","image_url":""},{"id":2190,"title":"佐藤春夫記念館","architect":"西村伊作","year":1927.0,"address":"和歌山県新宮市新宮 市立佐藤春夫記念館","latitude":33.73186492919922,"longitude":135.984619140625,"category":"住宅","description":"","image_url":""},{"id":2191,"title":"熊野古道なかへち美術館","architect":"SANAA","year":1997.0,"address":"和歌山県田辺市中辺路町近露891","latitude":33.813533782958984,"longitude":135.6061553955078,"category":"美術館","description":"","image_url":""},{"id":2192,"title":"龍神村体育館","architect":"渡辺豊和","year":1987.0,"address":"和歌山県田辺市龍神村安井822","latitude":33.88591384887695,"longitude":135.47506713867188,"category":"体育館","description":"","image_url":""},{"id":2193,"title":"世界遺産 熊野本宮館","architect":"香山壽夫+阪根宏彦","year":2009.0,"address":"和歌山県田辺市本宮町本宮100-1","latitude":33.83839797973633,"longitude":135.775634765625,"category":"博物館","description":"設計協力：阪根宏彦","image_url":""},{"id":2194,"title":"南方熊楠顕彰館","architect":"矢田康順+堀正人","year":2005.0,"address":"和歌山県田辺市中屋敷町36","latitude":33.731101989746094,"longitude":135.37774658203125,"category":"博物館","description":"","image_url":""},{"id":2195,"title":"田辺市立美術館","architect":"坂倉建築研究所","year":1996.0,"address":"和歌山県田辺市たきない町24-43","latitude":33.697410583496094,"longitude":135.4007568359375,"category":"美術館","description":"","image_url":""},{"id":2196,"title":"日本基督教団 紀南教会","architect":"西村伊作","year":1925.0,"address":"和歌山県東牟婁郡那智勝浦町下里930-1","latitude":33.579410552978516,"longitude":135.9219207763672,"category":"教会","description":"","image_url":""},{"id":2197,"title":"ホテル川久 ／ 川久ミュージアム","architect":"永田・北野建築研究所","year":1991.0,"address":"和歌山県西牟婁郡白浜町3745","latitude":33.68855285644531,"longitude":135.35752868652344,"category":"ホテル/美術館","description":"2020年7月より川久ミュージアムとしても運営","image_url":""},{"id":2198,"title":"大きな三角屋根のコテージ／レ・アーリしみず ふれあいの丘 スポーツランド","architect":"本多友常","year":2011.0,"address":"和歌山県有田郡有田川町清水607","latitude":34.0882453918457,"longitude":135.44326782226562,"category":"公園","description":"","image_url":""},{"id":2199,"title":"小さな屋根群の体験交流工房／わらし","architect":"本多友常","year":2011.0,"address":"和歌山県有田郡有田川町清水1218-1","latitude":34.0833625793457,"longitude":135.42901611328125,"category":"体験施設","description":"毎週水曜日・木曜日、祭日は定休日","image_url":""},{"id":2200,"title":"有田川町役場・きびドーム 旧吉備町役場","architect":"黒川紀章","year":1995.0,"address":"和歌山県有田郡有田川町下津野2021","latitude":34.057579040527344,"longitude":135.21726989746094,"category":"庁舎","description":"","image_url":""}]}