{"page":230,"total_pages":290,"items_per_page":50,"total_items":14467,"items":[{"id":11451,"title":"NTT WEST i-CAMPUS B棟 新京橋ビル","architect":"NTTファシリティーズ","year":2017.0,"address":"大阪府大阪市都島区東野田町4-15-82","latitude":34.69902801513672,"longitude":135.5308074951172,"category":"オフィスビル","description":"","image_url":""},{"id":11452,"title":"ジャクエツ福井本社改修","architect":"橋本尚樹","year":2019.0,"address":"福井県敦賀市若葉町2-1770","latitude":35.63239669799805,"longitude":136.04833984375,"category":"工場/低層オフィス","description":"","image_url":""},{"id":11453,"title":"アマネク別府ゆらり","architect":"神本豊秋","year":2021.0,"address":"大分県別府市駅前本町6-35","latitude":33.28029251098633,"longitude":131.5026092529297,"category":"ホテル","description":"","image_url":""},{"id":11454,"title":"アマネクイン別府","architect":"神本豊秋","year":2021.0,"address":"大分県別府市駅前本町6-28","latitude":33.28032302856445,"longitude":131.50277709960938,"category":"ホテル","description":"1996年竣工のビジネスホテルの改修","image_url":""},{"id":11455,"title":"旧エルザ","architect":"神本豊秋","year":2021.0,"address":"大分県別府市北浜2-4","latitude":33.280784606933594,"longitude":131.50311279296875,"category":"低層オフィス","description":"築年数約60年の改修","image_url":""},{"id":11456,"title":"ホテルニューオータニ佐賀","architect":"黒川紀章","year":1976.0,"address":"佐賀県佐賀市与賀町1-2","latitude":33.24956512451172,"longitude":130.29576110839844,"category":"ホテル","description":"","image_url":""},{"id":11457,"title":"大さん橋ふ頭ビル","architect":"松田平田設計","year":1993.0,"address":"神奈川県横浜市中区海岸通1","latitude":35.44948196411133,"longitude":139.6464385986328,"category":"オフィスビル","description":"","image_url":""},{"id":11458,"title":"シェーネル・ヴォーネン","architect":"吉柳満","year":1983.0,"address":"愛知県名古屋市中区新栄1-46-2","latitude":35.162689208984375,"longitude":136.9158477783203,"category":"レストラン","description":"","image_url":""},{"id":11459,"title":"築地KYビル","architect":"清水建設+隈研吾","year":1988.0,"address":"東京都中央区築地4-7-5","latitude":35.666561126708984,"longitude":139.77011108398438,"category":"オフィスビル","description":"2016年に隈研吾により外観改修","image_url":""},{"id":11460,"title":"インクギャラリー","architect":"吉村順三","year":1974.0,"address":"神奈川県鎌倉市鎌倉山1-19-12","latitude":35.316566467285156,"longitude":139.52220153808594,"category":"ギャラリー/住宅","description":"吉村順三設計の住宅・茶室をリノベーション。CasaBRUTUS2019年5月号に掲載。中村好文による復元改修","image_url":""},{"id":11461,"title":"ディスコ九州支店","architect":"大林組","year":2018.0,"address":"熊本県益城郡益城町田原2170-4","latitude":32.8263053894043,"longitude":130.8450164794922,"category":"低層オフィス","description":"","image_url":""},{"id":11462,"title":"道の駅 なら歴史芸術文化村","architect":"株式会社大建設計","year":2022.0,"address":"奈良県天理市杣之内町437-3","latitude":34.58936309814453,"longitude":135.847900390625,"category":"PA・道の駅/博物館/ホテル","description":"","image_url":""},{"id":11463,"title":"上吉田コミュニティセンター 旧富士吉田市立コミュニティセンター","architect":"川島甲士","year":1974.0,"address":"山梨県富士吉田市上吉田4-9-11","latitude":35.478668212890625,"longitude":138.79360961914062,"category":"公民館・交流施設","description":"","image_url":""},{"id":11464,"title":"ベネッセハウス オーバル","architect":"安藤忠雄","year":1995.0,"address":"香川県香川郡直島町京の山3419","latitude":34.44651412963867,"longitude":133.99142456054688,"category":"ホテル","description":"","image_url":""},{"id":11465,"title":"八戸市総合保健センター","architect":"久米設計","year":2020.0,"address":"青森県八戸市田向3-6-1","latitude":40.49153518676758,"longitude":141.51048278808594,"category":"福祉センター","description":"","image_url":""},{"id":11466,"title":"岩手県釜石警察署","architect":"久米設計","year":2019.0,"address":"岩手県釜石市中妻町3-3-1","latitude":39.27045440673828,"longitude":141.8563232421875,"category":"警察・消防署","description":"","image_url":""},{"id":11467,"title":"いちご村","architect":"小池正人","year":2009.0,"address":"東京都豊島区長崎3-20-13","latitude":35.73026657104492,"longitude":139.6895294189453,"category":"集合住宅","description":"若き芸術家が大勢住んでいた木造賃貸住宅群アトリエ村の歴史を継承する小さな4戸の集合住宅","image_url":""},{"id":11468,"title":"東京ミッドタウン","architect":"SOM+日建設計+坂倉建築研究所+隈研吾 他","year":2007.0,"address":"東京都港区赤坂9-7-1","latitude":35.666015625,"longitude":139.73081970214844,"category":"オフィスビル/美術館/モール","description":"マスターアーキテクト:Skidmore Owings & Merrill LLP_x000D_ 商業デザイン:Communication Arts_x000D_ ランドスケープデザイン:EDAW_x000D_ 統括設計・監理:日建設計_x000D_ ※ガーデンテラス・サントリー美術館:隈研吾建築都市設計事務所_x000D_ デザイン・ウィング:安藤忠雄建築研究所＋日建設計_x000D_ オークウッドプレミア東京ミッドタウン外装デザイン:坂倉建築研究所 _x000D_パーク・レジデンシィズ外装デザイン監修:青木淳建築計画事務所_x000D_※サントリー美術館は隈研吾建築都市設計事務所の監修で2020年に改修_x000D_","image_url":""},{"id":11469,"title":"メタルラボのアネックス","architect":"門脇耕三+今井一貴+山元隆志","year":2019.0,"address":"愛知県犬山市字舟田1","latitude":35.329647064208984,"longitude":136.9424591064453,"category":"オフィスビル","description":"","image_url":""},{"id":11470,"title":"町屋二丁目駅 都電の腰掛","architect":"青木淳","year":2020.0,"address":"東京都荒川区荒川6-40","latitude":35.74385452270508,"longitude":139.77655029296875,"category":"オブジェ/駅","description":"駅のベンチ。他に東尾久三丁目、栄町、王子駅前、滝野川一丁目、面影橋各停留所などで設置されている","image_url":""},{"id":11471,"title":"王子駅前 都電の腰掛","architect":"青木淳","year":2021.0,"address":"東京都北区王子1-4","latitude":35.75283432006836,"longitude":139.73818969726562,"category":"オブジェ/駅","description":"駅のベンチ。他に東尾久三丁目、栄町、町屋二丁目、滝野川一丁目、面影橋各停留所などで設置されている","image_url":""},{"id":11472,"title":"ブーランジェリージン","architect":"中村好文","year":2005.0,"address":"北海道虻田郡真狩村桜川45-8","latitude":42.753379821777344,"longitude":140.77606201171875,"category":"店舗","description":"書籍「パン屋の手紙」に詳細","image_url":""},{"id":11473,"title":"エビスKATOHビル","architect":"遠藤楽","year":1985.0,"address":"東京都渋谷区恵比寿西1-7-15","latitude":35.64810562133789,"longitude":139.70860290527344,"category":"テナントビル","description":"","image_url":""},{"id":11474,"title":"警視庁本部庁舎","architect":"岡田新一","year":1980.0,"address":"東京都千代田区霞が関2-1-1","latitude":35.676692962646484,"longitude":139.7520294189453,"category":"警察・消防署","description":"","image_url":""},{"id":11475,"title":"柏屋","architect":"はりゅうウッドスタジオ","year":2004.0,"address":"福島県南会津郡南会津町田島後町甲3972-6","latitude":37.202674865722656,"longitude":139.7740936279297,"category":"レストラン/和風住宅","description":"","image_url":""},{"id":11476,"title":"びわのかげ 投球練習場","architect":"遠藤政樹+はりゅうウッドスタジオ+江尻憲泰","year":2014.0,"address":"福島県南会津郡南会津町永田枇杷影2","latitude":37.19976043701172,"longitude":139.75985717773438,"category":"スポーツ施設/体育館","description":"","image_url":""},{"id":11477,"title":"スマートウェルネスタウンペップモトマチ","architect":"はりゅうウッドスタジオ+浦部智義","year":2021.0,"address":"福島県郡山市本町1-14-19","latitude":37.39368438720703,"longitude":140.3834686279297,"category":"モール","description":"","image_url":""},{"id":11478,"title":"菊池医院","architect":"はりゅうウッドスタジオ","year":2020.0,"address":"福島県郡山市本町1-13-17","latitude":37.39357376098633,"longitude":140.3841094970703,"category":"個人医院","description":"","image_url":""},{"id":11479,"title":"大師堂住宅団地","architect":"はりゅうウッドスタジオ","year":2020.0,"address":"福島県相馬郡飯舘村草野大師堂113-24","latitude":37.69709396362305,"longitude":140.74942016601562,"category":"集合住宅","description":"","image_url":""},{"id":11480,"title":"洗足学園 前田ホール","architect":"三上祐三","year":1984.0,"address":"神奈川県川崎市高津区久本2-3-1","latitude":35.593631744384766,"longitude":139.6153106689453,"category":"ホール・劇場/大学","description":"","image_url":""},{"id":11481,"title":"ベネッセハウス ミュージアム","architect":"安藤忠雄","year":1992.0,"address":"香川県香川郡直島町琴弾地","latitude":34.44524002075195,"longitude":133.99081420898438,"category":"美術館/ホテル","description":"","image_url":""},{"id":11482,"title":"新橋駅前ビル 1・2号館","architect":"佐藤武夫","year":1966.0,"address":"東京都港区新橋2-20-15","latitude":35.66630554199219,"longitude":139.75958251953125,"category":"テナントビル","description":"モダン建築の雄。2022年内に解体予定との記述有","image_url":""},{"id":11483,"title":"FOLK FOLK Wedding, Hostel, Cafe&Bar","architect":"湯谷建築設計","year":2017.0,"address":"三重県伊勢市神田久志本町1784-4","latitude":34.488059997558594,"longitude":136.72238159179688,"category":"カフェ/ホステル","description":"","image_url":""},{"id":11484,"title":"緑ケ丘霊園 北見市納骨堂","architect":"太田實","year":1961.0,"address":"北海道北見市緑ケ丘4-33-5","latitude":43.82164001464844,"longitude":143.8571014404297,"category":"霊園","description":"","image_url":""},{"id":11485,"title":"貸古民家楽","architect":"藤井厚二","year":1922.0,"address":"兵庫県神戸市北区有馬町1820-8","latitude":34.80123519897461,"longitude":135.25755310058594,"category":"和風住宅","description":"時間貸し施設","image_url":""},{"id":11486,"title":"旧釜戸電話中継所","architect":"吉田鉄郎","year":1938.0,"address":"岐阜県瑞浪市釜戸町3640","latitude":35.41816329956055,"longitude":137.3166046142578,"category":"産業遺産","description":"廃墟状態。逓信省経理局営繕課","image_url":""},{"id":11487,"title":"田立電機 旧蘭電話中継所","architect":"吉田鉄郎","year":1938.0,"address":"長野県木曽郡南木曽町中折3925","latitude":35.557369232177734,"longitude":137.63475036621094,"category":"オフィスビル/工場","description":"逓信省経理局営繕課","image_url":""},{"id":11488,"title":"タクマン電子 旧飯島電話中継所","architect":"吉田鉄郎","year":1938.0,"address":"長野県上伊那郡飯島町飯島赤坂2169−15","latitude":35.68961715698242,"longitude":137.92713928222656,"category":"オフィスビル/工場","description":"逓信省経理局営繕課","image_url":""},{"id":11489,"title":"東洋精機工業 旧茅野電話中継所","architect":"吉田鉄郎","year":1938.0,"address":"長野県茅野市宮川安国寺2715","latitude":35.99041748046875,"longitude":138.1396484375,"category":"オフィスビル/工場","description":"逓信省経理局営繕課","image_url":""},{"id":11490,"title":"NTT東日本大月ビル 旧大月電話中継所","architect":"吉田鉄郎","year":1938.0,"address":"山梨県大月市駒橋1-3","latitude":35.61337661743164,"longitude":138.94737243652344,"category":"オフィスビル","description":"逓信省経理局営繕課","image_url":""},{"id":11491,"title":"OFFICE&SAKABA フッド","architect":"佐々木慧","year":2021.0,"address":"大分県別府市駅前本町9-20 北高架商店街内","latitude":33.28165817260742,"longitude":131.5013427734375,"category":"バー・居酒屋/低層オフィス","description":"","image_url":""},{"id":11492,"title":"道の駅 錦江 にしきの里","architect":"宇住庵設計","year":2006.0,"address":"鹿児島県肝属郡錦江町神川3306-18","latitude":31.274539947509766,"longitude":130.79306030273438,"category":"PA・道の駅","description":"","image_url":""},{"id":11493,"title":"清閑寺池田倶楽部","architect":"横内敏人","year":2019.0,"address":"京都府京都市東⼭区清閑寺池⽥町35-2","latitude":34.991119384765625,"longitude":135.78160095214844,"category":"コテージ/住宅","description":"一棟貸しの宿","image_url":""},{"id":11494,"title":"バー・コンブレ","architect":"倉俣史朗","year":1988.0,"address":"静岡県静岡市葵区呉服町2-7 静専ビル2F","latitude":34.97416305541992,"longitude":138.38449096679688,"category":"バー・居酒屋","description":"内装設計：倉俣史朗","image_url":""},{"id":11495,"title":"もちのえき","architect":"谷尻誠","year":2022.0,"address":"広島県三次市三次町1582","latitude":34.81502914428711,"longitude":132.84632873535156,"category":"店舗","description":"","image_url":""},{"id":11496,"title":"プラウド吹上公園パサージュ","architect":"INA新建築研究所","year":2016.0,"address":"愛知県名古屋市昭和区車田町2-5","latitude":35.15834045410156,"longitude":136.93377685546875,"category":"集合住宅","description":"外観を磁気質タイルや、有孔煉瓦ブロックなどで仕上げた集合住宅です。近隣に配慮したボリュームの操作や、緑化計画の充実、樋のおさまりなど、細かな配慮により計画されている、丁寧な設計です。","image_url":""},{"id":11497,"title":"NEXCO中日本 名古屋支社道路管制センター","architect":"INA新建築研究所","year":2015.0,"address":"愛知県一宮市丹陽町九日市場字竹之宮204","latitude":35.27277374267578,"longitude":136.82986450195312,"category":"オフィスビル","description":"高速道路の安全を守るため、施設管制と交通管制を行う施設。24時間365日稼働し、BCP対策や、金沢、川崎の管制センターのバックアップ機能などを持つ、重要施設です。","image_url":""},{"id":11498,"title":"石川ビル 旧東京倉庫兵庫出張所","architect":"曽禰達蔵","year":1905.0,"address":"兵庫県神戸市兵庫区島上町1-2-10","latitude":34.66843032836914,"longitude":135.17625427246094,"category":"洋館","description":"","image_url":""},{"id":11499,"title":"シェルターインクルーシブプレイス コパル","architect":"o+h","year":2022.0,"address":"山形県山形市片谷地580-1","latitude":38.209930419921875,"longitude":140.2998046875,"category":"体育館/児童施設","description":"","image_url":""},{"id":11500,"title":"大三島みんなの家","architect":"伊東豊雄","year":2016.0,"address":"愛媛県今治市大三島町宮浦5562","latitude":34.24818801879883,"longitude":133.00042724609375,"category":"古民家/店舗","description":"古民家の改修","image_url":""}]}