{"page":42,"total_pages":290,"items_per_page":50,"total_items":14467,"items":[{"id":2051,"title":"まいづる智恵蔵 赤れんがパーク","architect":"宗本順三","year":2007.0,"address":"京都府舞鶴市字北吸1039-12","latitude":35.47474670410156,"longitude":135.3852081298828,"category":"博物館","description":"","image_url":""},{"id":2052,"title":"マイコム立体駐車場","architect":"若林広幸","year":1993.0,"address":"京都府舞鶴市浜606","latitude":35.47298049926758,"longitude":135.39427185058594,"category":"駐車・駐輪場","description":"","image_url":""},{"id":2053,"title":"舞鶴市陶芸館","architect":"現代計画研究所","year":1996.0,"address":"京都府舞鶴市岡安3-2","latitude":35.500301361083984,"longitude":135.44073486328125,"category":"博物館","description":"","image_url":""},{"id":2054,"title":"長安寺 大方丈前 薬師三尊四十九燈の庭","architect":"重森完途","year":null,"address":"京都府福知山市奥野部577","latitude":35.314144134521484,"longitude":135.0843963623047,"category":"庭園","description":"","image_url":""},{"id":2055,"title":"同志社国際学院初等部・国際部","architect":"高松伸","year":2011.0,"address":"京都府木津川市木津川台7-31-1","latitude":34.73937225341797,"longitude":135.78562927246094,"category":"学校","description":"","image_url":""},{"id":2056,"title":"加悦椿文化資料館","architect":"上田篤","year":1996.0,"address":"京都府与謝郡与謝野町滝1986","latitude":35.47559356689453,"longitude":135.05935668945312,"category":"博物館","description":"","image_url":""},{"id":2057,"title":"追手門学院大学 一号館","architect":"三菱地所","year":2009.0,"address":"大阪府茨木市西安威2-1-15","latitude":34.84812927246094,"longitude":135.55836486816406,"category":"大学","description":"","image_url":""},{"id":2058,"title":"光の教会","architect":"安藤忠雄","year":1989.0,"address":"大阪府茨木市北春日丘4-3-50","latitude":34.81851577758789,"longitude":135.5370330810547,"category":"教会","description":"","image_url":""},{"id":2059,"title":"大阪芸術大学 塚本英世記念館 芸術情報センター","architect":"高橋靗一","year":1981.0,"address":"大阪府南河内郡河南町東山469","latitude":34.512325286865234,"longitude":135.62924194335938,"category":"学校","description":"","image_url":""},{"id":2060,"title":"大阪芸術大学 15号館","architect":"高橋靗一","year":1966.0,"address":"大阪府南河内郡河南町東山469","latitude":34.51224136352539,"longitude":135.63079833984375,"category":"学校","description":"","image_url":""},{"id":2061,"title":"大阪府立近つ飛鳥博物館","architect":"安藤忠雄","year":1994.0,"address":"大阪府南河内郡河南町東山299","latitude":34.50313186645508,"longitude":135.64378356933594,"category":"博物館","description":"","image_url":""},{"id":2062,"title":"岸和田城 八陣の庭","architect":"重森三玲","year":1953.0,"address":"大阪府岸和田市岸城町9-1","latitude":34.458831787109375,"longitude":135.3707733154297,"category":"庭園","description":"","image_url":""},{"id":2063,"title":"紅葉館 旧岸和田村立尋常小学校","architect":"浦田栄吉+浦田甚之右ェ門","year":1903.0,"address":"大阪府岸和田市西之内町42","latitude":34.46820068359375,"longitude":135.39242553710938,"category":"洋館","description":"","image_url":""},{"id":2064,"title":"熊取交流センター 煉瓦館","architect":"東畑建築事務所","year":2004.0,"address":"大阪府泉南郡熊取町五門西1-10-1","latitude":34.40092849731445,"longitude":135.34957885742188,"category":"総合文化施設","description":"","image_url":""},{"id":2065,"title":"コモンシティ星田","architect":"坂本一成","year":1992.0,"address":"大阪府交野市星田西3-2-14","latitude":34.75547790527344,"longitude":135.6621551513672,"category":"都市計画","description":"","image_url":""},{"id":2066,"title":"コモンシティ星田 住民施設","architect":"木村博昭","year":1991.0,"address":"大阪府交野市星田西3-28-1","latitude":34.75292205810547,"longitude":135.6609344482422,"category":"スポーツ施設","description":"","image_url":""},{"id":2067,"title":"大阪府立交野自立センター","architect":"出江寛","year":1984.0,"address":"大阪府交野市寺4-590-1","latitude":34.785621643066406,"longitude":135.69461059570312,"category":"公共施設/福祉センター","description":"","image_url":""},{"id":2068,"title":"Breathing Factory ナガノサイエンス マザーファクトリー","architect":"山口隆","year":2009.0,"address":"大阪府高槻市安満新町1-10","latitude":34.85624694824219,"longitude":135.6255645751953,"category":"企業施設","description":"","image_url":""},{"id":2069,"title":"平成ドミノ・堺","architect":"横河健","year":1998.0,"address":"大阪府堺市堺区材木町東1丁1-6","latitude":34.582611083984375,"longitude":135.4782257080078,"category":"集合住宅","description":"","image_url":""},{"id":2070,"title":"GLA近畿会館","architect":"岸和郎","year":2013.0,"address":"大阪府吹田市金田町28-17","latitude":34.75777053833008,"longitude":135.50685119628906,"category":"宗教施設","description":"","image_url":""},{"id":2071,"title":"万博記念公園 砂の広場休憩所","architect":"吉羽逸郎","year":1994.0,"address":"大阪府吹田市千里万博公園1-1","latitude":34.8045768737793,"longitude":135.53195190429688,"category":"公園/トイレ","description":"","image_url":""},{"id":2072,"title":"公益社千里会館","architect":"遠藤剛生","year":2007.0,"address":"大阪府吹田市桃山台5-3-10","latitude":34.79038619995117,"longitude":135.49334716796875,"category":"斎場","description":"","image_url":""},{"id":2073,"title":"国立民族学博物館","architect":"黒川紀章","year":1996.0,"address":"大阪府吹田市千里万博公園10-1","latitude":34.81294250488281,"longitude":135.52957153320312,"category":"博物館","description":"","image_url":""},{"id":2074,"title":"EXPO'70パビリオン 旧鉄鋼館","architect":"前川國男","year":1969.0,"address":"大阪府吹田市千里万博公園1-1","latitude":34.80934524536133,"longitude":135.5357666015625,"category":"博物館","description":"","image_url":""},{"id":2075,"title":"万博記念公園","architect":"不明","year":1972.0,"address":"大阪府吹田市千里万博公園","latitude":34.80837631225586,"longitude":135.5399627685547,"category":"公園","description":"","image_url":""},{"id":2076,"title":"kNot 栗建ビル","architect":"日建設計+間宮吉彦","year":1974.0,"address":"大阪市西区南堀江1-11-1","latitude":34.67227554321289,"longitude":135.49623107910156,"category":"オフィスビル","description":"","image_url":""},{"id":2077,"title":"関西国際空港旅客ターミナル","architect":"レンゾ・ピアノ","year":1994.0,"address":"大阪府泉佐野市泉州空港北1","latitude":34.443885803222656,"longitude":135.2520751953125,"category":"空港","description":"日本建築学会 作品賞受賞者名：レンゾ・ピアノ、岡部憲明","image_url":""},{"id":2078,"title":"林昌寺 法林の庭","architect":"重森三玲","year":1961.0,"address":"大阪府泉南市信達岡中395","latitude":34.35289764404297,"longitude":135.2766571044922,"category":"庭園","description":"","image_url":""},{"id":2079,"title":"大阪府立狭山池博物館","architect":"安藤忠雄","year":2001.0,"address":"大阪府大阪狭山市池尻中2-4","latitude":34.507320404052734,"longitude":135.55160522460938,"category":"博物館","description":"","image_url":""},{"id":2080,"title":"大阪市立環境学習センター 旧国際陳列館","architect":"磯崎新","year":1990.0,"address":"大阪府大阪市鶴見区緑地公園2-135","latitude":34.712196350097656,"longitude":135.57861328125,"category":"博物館/ホール・劇場","description":"閉鎖。建物は現存","image_url":""},{"id":2081,"title":"大阪市中央公会堂","architect":"岡田信一郎+辰野金吾+片岡安","year":1918.0,"address":"大阪府大阪市北区中之島1-1-27","latitude":34.69353103637695,"longitude":135.50401306152344,"category":"洋館/公共施設","description":"実施設計を辰野金吾、片岡安が担当","image_url":""},{"id":2082,"title":"中之島フェスティバルタワー 東地区","architect":"日建設計","year":2012.0,"address":"大阪府大阪市北区中之島2-3-18","latitude":34.69352340698242,"longitude":135.4967041015625,"category":"オフィスビル","description":"","image_url":""},{"id":2083,"title":"なんばパークス","architect":"ジョン・ジャーディ+大林組+日建設計","year":2007.0,"address":"大阪府大阪市浪速区難波中2‐10‐70","latitude":34.66179275512695,"longitude":135.50180053710938,"category":"複合施設/モール/オフィスビル","description":"","image_url":""},{"id":2084,"title":"ダイキンOSAKAアトリオＡ","architect":"丹田悦雄","year":1988.0,"address":"大阪府大阪市東淀川区小松5","latitude":34.75421905517578,"longitude":135.5457305908203,"category":"集合住宅","description":"","image_url":""},{"id":2085,"title":"ダイキンOSAKAアトリオB","architect":"丹田悦雄","year":1988.0,"address":"大阪府大阪市東淀川区小松4-11-17","latitude":34.75395965576172,"longitude":135.54495239257812,"category":"集合住宅","description":"","image_url":""},{"id":2086,"title":"大阪府立北野高等学校 六稜会館","architect":"竹山聖","year":2003.0,"address":"大阪府大阪市淀川区新北野2-5-13","latitude":34.71658706665039,"longitude":135.4779052734375,"category":"学校/ホール・劇場","description":"","image_url":""},{"id":2087,"title":"鶴見スポーツセンター 旧国際展示水の館","architect":"磯崎新","year":1989.0,"address":"大阪府大阪市鶴見区緑地公園","latitude":34.71052551269531,"longitude":135.5772247314453,"category":"ホール・劇場/体育館","description":"","image_url":""},{"id":2088,"title":"チャスカ茶屋町／アルモニーアンブラッセ大阪","architect":"安藤忠雄","year":2010.0,"address":"大阪府大阪市北区茶屋町7-20","latitude":34.707454681396484,"longitude":135.50021362304688,"category":"テナントビル/集合住宅/ホテル","description":"低層部分がテナントビル／集合住宅。23階以上がホテル。","image_url":""},{"id":2089,"title":"キッズプラザ大阪 関テレ扇町スクエア","architect":"安井建築設計+フリーデンスライヒ・フンデルトヴァッサー","year":1997.0,"address":"大阪府大阪市北区扇町2-1-7","latitude":34.704734802246094,"longitude":135.51039123535156,"category":"児童施設/オフィスビル","description":"4F、5Fの「こどもの城」をフンデルトヴァッサーがデザイン","image_url":""},{"id":2090,"title":"旧桜宮公会堂 泉布観","architect":"トーマス・ウォートルス+竹中工務店","year":1871.0,"address":"大阪府大阪市北区天満橋1-1-1","latitude":34.698123931884766,"longitude":135.5214080810547,"category":"洋館","description":"2013年に竹中工務店設計で改修。レストラン、結婚式場に。","image_url":""},{"id":2091,"title":"大阪府立中之島図書館","architect":"野口孫市+日高胖","year":1904.0,"address":"大阪府大阪市北区中之島1-2-10","latitude":34.69367980957031,"longitude":135.503173828125,"category":"図書館","description":"","image_url":""},{"id":2092,"title":"住友ビルディング","architect":"長谷部鋭吉","year":1926.0,"address":"大阪府大阪市中央区北浜4-6-5","latitude":34.69208526611328,"longitude":135.4981689453125,"category":"オフィスビル","description":"","image_url":""},{"id":2093,"title":"オリックス高麗橋ビル","architect":"大江匡","year":2004.0,"address":"大阪府大阪市中央区高麗橋3-2-7","latitude":34.68962860107422,"longitude":135.5029754638672,"category":"オフィスビル","description":"","image_url":""},{"id":2094,"title":"綿業会館","architect":"渡辺節","year":1931.0,"address":"大阪府大阪市中央区備後町2-5-8","latitude":34.68547821044922,"longitude":135.5041046142578,"category":"オフィスビル","description":"見学は毎月第4土曜日 11:00、14:30より事前予約制","image_url":""},{"id":2095,"title":"豊國神社 秀石庭","architect":"重森三玲","year":1972.0,"address":"大阪府大阪市中央区大阪城2-1","latitude":34.6840934753418,"longitude":135.52699279785156,"category":"庭園","description":"","image_url":""},{"id":2096,"title":"大阪歴史博物館","architect":"シーザー・ペリ+日本設計+NTTファシリティーズ","year":2001.0,"address":"大阪府大阪市中央区大手前4-1-20･32","latitude":34.682743072509766,"longitude":135.5200958251953,"category":"博物館","description":"","image_url":""},{"id":2097,"title":"ユニクロ 心斎橋店","architect":"藤本壮介","year":2010.0,"address":"大阪府大阪市中央区心斎橋筋1-2-17","latitude":34.67453384399414,"longitude":135.501708984375,"category":"店舗","description":"","image_url":""},{"id":2098,"title":"大阪木材仲買会館","architect":"竹中工務店","year":2013.0,"address":"大阪府大阪市西区南堀江4-18-10","latitude":34.672542572021484,"longitude":135.4841766357422,"category":"組合施設","description":"","image_url":""},{"id":2099,"title":"ユニバーサルシティ駅","architect":"安藤忠雄","year":2001.0,"address":"大阪府大阪市此花区島屋6-2-28","latitude":34.66791534423828,"longitude":135.4386749267578,"category":"駅","description":"","image_url":""},{"id":2100,"title":"国立文楽劇場","architect":"黒川紀章","year":1983.0,"address":"大阪府大阪市中央区日本橋1-12-1","latitude":34.66739273071289,"longitude":135.50856018066406,"category":"ホール・劇場","description":"","image_url":""}]}