{"page":130,"total_pages":290,"items_per_page":50,"total_items":14467,"items":[{"id":6451,"title":"道の駅しもつけ","architect":"AIS総合設計","year":2011.0,"address":"栃木県下野市薬師寺3720-1","latitude":36.39717483520508,"longitude":139.88385009765625,"category":"PA・道の駅","description":"","image_url":""},{"id":6452,"title":"ゆめプラザ・那須","architect":"AIS総合設計","year":2005.0,"address":"栃木県那須郡那須町寺子乙2566-1","latitude":37.01643371582031,"longitude":140.1090850830078,"category":"福祉センター","description":"","image_url":""},{"id":6453,"title":"田村市役所本庁舎","architect":"昭和設計","year":2012.0,"address":"福島県田村市船引町船引畑添76-2","latitude":37.44057846069336,"longitude":140.57635498046875,"category":"庁舎","description":"","image_url":""},{"id":6454,"title":"道の駅あいづ 湯川・会津坂下","architect":"三井所清典","year":2014.0,"address":"福島県河沼郡湯川村大字佐野目字五丁ノ目78−1","latitude":37.557281494140625,"longitude":139.86233520507812,"category":"PA・道の駅","description":"","image_url":""},{"id":6455,"title":"那須平成の森 那須高原フィールドセンター","architect":"AIS総合設計","year":2011.0,"address":"栃木県那須郡那須町大字高久丙3254","latitude":37.11745071411133,"longitude":140.00843811035156,"category":"観光施設","description":"","image_url":""},{"id":6456,"title":"那須平成の森 那須高原ビジターセンター","architect":"AIS総合設計","year":2011.0,"address":"栃木県那須郡那須町大字湯本207-2","latitude":37.096866607666016,"longitude":140.00436401367188,"category":"観光施設","description":"","image_url":""},{"id":6457,"title":"下野市ふれあい館","architect":"AIS総合設計","year":1997.0,"address":"栃木県下野市三王山698-5","latitude":36.397560119628906,"longitude":139.9031982421875,"category":"プール/スポーツ施設","description":"","image_url":""},{"id":6458,"title":"聖籠町立図書館","architect":"佐藤総合計画","year":2014.0,"address":"新潟県北蒲原郡聖籠町諏訪山1560-1","latitude":37.97320556640625,"longitude":139.27395629882812,"category":"図書館","description":"","image_url":""},{"id":6459,"title":"成蹊大学 6号館","architect":"三菱地所","year":2014.0,"address":"東京都武蔵野市吉祥寺北町3-3-3","latitude":35.71184158325195,"longitude":139.57266235351562,"category":"大学","description":"","image_url":""},{"id":6460,"title":"おおぶ文化交流の杜 allobu","architect":"佐藤総合計画+鹿島建設","year":2014.0,"address":"愛知県大府市柊山町6-150-1","latitude":35.01906967163086,"longitude":136.94744873046875,"category":"総合文化施設","description":"","image_url":""},{"id":6461,"title":"佐賀大学 美術館","architect":"梓設計+西村浩","year":2013.0,"address":"佐賀県佐賀市 本庄町本庄1","latitude":33.24439239501953,"longitude":130.29225158691406,"category":"大学/美術館","description":"デザイン監修：西村浩","image_url":""},{"id":6462,"title":"ビエント高崎 ビッグキューブ","architect":"石井設計","year":2014.0,"address":"群馬県高崎市問屋町2-7","latitude":36.34792709350586,"longitude":139.0125732421875,"category":"展示・会議場","description":"","image_url":""},{"id":6463,"title":"立命館大学 びわこ・くさつキャンパス トリシア","architect":"安井建築設計","year":2014.0,"address":"滋賀県草津市野路東1-1-1-1","latitude":34.98322677612305,"longitude":135.9649658203125,"category":"大学","description":"","image_url":""},{"id":6464,"title":"はいむるぶし","architect":"日建設計","year":2013.0,"address":"沖縄県八重山郡竹富町小浜2930","latitude":24.32710838317871,"longitude":123.9913558959961,"category":"ホテル","description":"","image_url":""},{"id":6465,"title":"軽井沢風越公園総合体育館","architect":"山下設計","year":2014.0,"address":"長野県北佐久郡軽井沢町発地1157-6","latitude":36.32331085205078,"longitude":138.59750366210938,"category":"体験施設","description":"","image_url":""},{"id":6466,"title":"ホテルモントレ沖縄 スパ&リゾート","architect":"鹿島建設","year":2013.0,"address":"沖縄県国頭郡恩納村冨着1550-1","latitude":26.45371437072754,"longitude":127.8057632446289,"category":"ホテル","description":"","image_url":""},{"id":6467,"title":"ホテル オリオン モトブリゾート&スパ","architect":"東急設計+国建+日建設計+AMS設計","year":2014.0,"address":"沖縄県国頭郡本部町備瀬148-1","latitude":26.698287963867188,"longitude":127.8795166015625,"category":"ホテル","description":"","image_url":""},{"id":6468,"title":"入西地域交流センター","architect":"桂設計","year":2014.0,"address":"埼玉県坂戸市新堀159-1","latitude":35.964935302734375,"longitude":139.3721160888672,"category":"公民館・交流施設","description":"","image_url":""},{"id":6469,"title":"羽田クロノゲート","architect":"日建設計","year":2013.0,"address":"東京都大田区羽田旭町11-1","latitude":35.55182647705078,"longitude":139.7494354248047,"category":"工場/企業施設","description":"月曜以外見学コースにて見学可能。要予約。","image_url":""},{"id":6470,"title":"子育て交流施設 あそびあむ","architect":"尾上亮介","year":2015.0,"address":"京都府舞鶴市浜2022","latitude":35.47776794433594,"longitude":135.3902130126953,"category":"児童施設","description":"","image_url":""},{"id":6471,"title":"JR矢吹駅","architect":"SKM設計計画","year":1996.0,"address":"福島県西白河郡矢吹町中町235","latitude":37.20524597167969,"longitude":140.3280792236328,"category":"駅","description":"","image_url":""},{"id":6472,"title":"JR行橋駅","architect":"SKM設計計画","year":1999.0,"address":"福岡県行橋市西宮市2-1-1","latitude":33.7286376953125,"longitude":130.97019958496094,"category":"駅","description":"","image_url":""},{"id":6473,"title":"東京工芸大学 中野キャンパス2号館","architect":"坂倉建築研究所","year":2014.0,"address":"東京都中野区本町2-9-5","latitude":35.693172454833984,"longitude":139.67930603027344,"category":"大学","description":"","image_url":""},{"id":6474,"title":"愛知学院大学 名城公園キャンパス 講堂棟／高層棟／PC・図書館棟／食堂棟","architect":"株式会社大建設計","year":2014.0,"address":"愛知県名古屋市北区名城3-1-1","latitude":35.18855285644531,"longitude":136.9051971435547,"category":"大学","description":"","image_url":""},{"id":6475,"title":"すみだ北斎美術館","architect":"妹島和世","year":2016.0,"address":"東京都墨田区亀沢2-7-2","latitude":35.696372985839844,"longitude":139.80047607421875,"category":"美術館","description":"","image_url":""},{"id":6476,"title":"芝浦まちづくりセンター","architect":"西沢大良","year":2016.0,"address":"東京都港区港南3-4-27","latitude":35.63391876220703,"longitude":139.74867248535156,"category":"ギャラリー","description":"","image_url":""},{"id":6477,"title":"福岡市水上公園　SHIP'S GARDEN","architect":"松岡恭子+井手健一郎","year":2016.0,"address":"福岡県福岡市中央区西中洲13-1","latitude":33.59260940551758,"longitude":130.40322875976562,"category":"店舗/公園","description":"","image_url":""},{"id":6478,"title":"三角港キャノピー","architect":"ネイ&パートナーズジャパン","year":2016.0,"address":"熊本県宇城市三角町三角浦1160−177","latitude":32.60731506347656,"longitude":130.4709014892578,"category":"公園","description":"","image_url":""},{"id":6479,"title":"白河データセンター","architect":"日本設計","year":2013.0,"address":"福島県白河市萱根月ノ入","latitude":37.15189743041992,"longitude":140.22166442871094,"category":"企業施設","description":"","image_url":""},{"id":6480,"title":"清水建設 ものづくり研修センター","architect":"清水建設","year":2016.0,"address":"東京都江東区木場2-15-3","latitude":35.67116165161133,"longitude":139.80274963378906,"category":"研修施設","description":"","image_url":""},{"id":6481,"title":"住友不動産六本木グランドタワー","architect":"日建設計","year":2016.0,"address":"東京都港区六本木3-2−1","latitude":35.66465759277344,"longitude":139.73780822753906,"category":"複合ビル/集合住宅","description":"","image_url":""},{"id":6482,"title":"星のや 東京","architect":"三菱地所+NTTファシリティーズ+東利恵","year":2016.0,"address":"東京都千代田区大手町1-9-1","latitude":35.6877326965332,"longitude":139.76502990722656,"category":"ホテル","description":"","image_url":""},{"id":6483,"title":"まちや・アパートメント","architect":"アトリエ・ワン","year":2017.0,"address":"東京都台東区浅草橋2-8-11","latitude":35.699310302734375,"longitude":139.78358459472656,"category":"集合住宅/店舗","description":"","image_url":""},{"id":6484,"title":"GURURI","architect":"伊藤博之","year":2016.0,"address":"東京都世田谷区上野毛4-30-5","latitude":35.6163330078125,"longitude":139.63844299316406,"category":"集合住宅","description":"","image_url":""},{"id":6485,"title":"大倉山シニアハウス+","architect":"室伏次郎","year":2016.0,"address":"神奈川県横浜市港北区大豆戸町89","latitude":35.518123626708984,"longitude":139.6338348388672,"category":"集合住宅","description":"","image_url":""},{"id":6486,"title":"MORIUMIUS","architect":"西田司","year":2015.0,"address":"宮城県石巻市雄勝町桑浜字桑浜60","latitude":38.49897003173828,"longitude":141.5271453857422,"category":"研修施設/児童施設","description":"","image_url":""},{"id":6487,"title":"都路地区公的賃貸住宅・集会所","architect":"出口敦+田中大朗+富沢真二郎","year":2016.0,"address":"福島県田村市都路町古道字遠下道前48","latitude":37.439144134521484,"longitude":140.793701171875,"category":"公民館・交流施設/住宅/都市計画","description":"","image_url":""},{"id":6488,"title":"高梁市城見橋公園の休憩施設","architect":"田中大朗","year":2015.0,"address":"岡山県高梁市小高下町2730","latitude":34.80731201171875,"longitude":133.62709045410156,"category":"トイレ/観光施設","description":"","image_url":""},{"id":6489,"title":"神石高原町営小畠住宅","architect":"土井一秀","year":2016.0,"address":"広島県神石郡神石高原町小畠2160","latitude":34.701385498046875,"longitude":133.250244140625,"category":"都市計画/住宅","description":"","image_url":""},{"id":6490,"title":"小豆島 小規模多機能施設 はまひるがお坂手・遊児老館","architect":"o+h","year":2016.0,"address":"香川県小豆郡小豆島町坂手甲798","latitude":34.4572868347168,"longitude":134.3238525390625,"category":"養護施設/児童施設","description":"","image_url":""},{"id":6491,"title":"ひばりが丘団地 ひばりテラス118","architect":"杉山恒産+高安重一","year":2015.0,"address":"東京都西東京市ひばりが丘3-4-106","latitude":35.74407958984375,"longitude":139.53323364257812,"category":"公民館・交流施設/カフェ","description":"","image_url":""},{"id":6492,"title":"山之内元町長屋","architect":"ウズラボ","year":2016.0,"address":"大阪市住吉区山之内元町4-4","latitude":34.59748077392578,"longitude":135.50498962402344,"category":"集合住宅","description":"","image_url":""},{"id":6493,"title":"THE 6","architect":"納谷建築設計事務所","year":2016.0,"address":"宮城県仙台市青葉区春日町9-15","latitude":38.266563415527344,"longitude":140.8633575439453,"category":"オフィスビル/集合住宅","description":"","image_url":""},{"id":6494,"title":"石巻クリエイティブタウン","architect":"福川裕一+西郷真理子+JSD","year":2016.0,"address":"宮城県石巻市立町2-5-5","latitude":38.43279266357422,"longitude":141.30599975585938,"category":"都市計画","description":"","image_url":""},{"id":6495,"title":"太田市美術館・図書館","architect":"平田晃久","year":2017.0,"address":"群馬県太田市東本町16-30","latitude":36.29462432861328,"longitude":139.37847900390625,"category":"美術館/図書館","description":"","image_url":""},{"id":6496,"title":"蕎麦屋 五 旧紫野和久傳","architect":"岸和郎","year":1995.0,"address":"京都府京都市北区紫野雲林院町28","latitude":35.04084777832031,"longitude":135.74765014648438,"category":"料亭","description":"","image_url":""},{"id":6497,"title":"沼田市生方記念文庫","architect":"岸和郎","year":2015.0,"address":"群馬県沼田市上之町199","latitude":36.645164489746094,"longitude":139.04750061035156,"category":"博物館","description":"","image_url":""},{"id":6498,"title":"GLA中京会館","architect":"岸和郎","year":2016.0,"address":"愛知県名古屋市中区上前津2-3-3","latitude":35.15538787841797,"longitude":136.91026306152344,"category":"宗教施設","description":"","image_url":""},{"id":6499,"title":"AUTOLAB","architect":"岸和郎","year":1989.0,"address":"京都府京都市右京区西京極葛野町6-1","latitude":34.998497009277344,"longitude":135.7193603515625,"category":"店舗","description":"トヨタ京都店からフォルクスワーゲン京都に代わり、現在は解体済み","image_url":""},{"id":6500,"title":"かづらせい寺町店","architect":"岸和郎","year":2000.0,"address":"京都府京都市中京区下御霊前町638-1","latitude":35.017242431640625,"longitude":135.76705932617188,"category":"ギャラリー","description":"","image_url":""}]}