{"page":157,"total_pages":290,"items_per_page":50,"total_items":14467,"items":[{"id":7801,"title":"ダブルツリーbyヒルトン沖縄北谷リゾート","architect":"光井純+大林組","year":2018.0,"address":"沖縄県中頭郡北谷町美浜43","latitude":26.317459106445312,"longitude":127.75396728515625,"category":"ホテル","description":"","image_url":""},{"id":7802,"title":"碧海信用金庫 御園支店","architect":"隈研吾","year":2017.0,"address":"愛知県名古屋市中区栄1-11-15","latitude":35.16640853881836,"longitude":136.89730834960938,"category":"金融機関","description":"","image_url":""},{"id":7803,"title":"高松サンポート合同庁舎 南館","architect":"シーザー・ペリ+日建設計","year":2017.0,"address":"香川県高松市サンポート3-33","latitude":34.3519172668457,"longitude":134.04588317871094,"category":"庁舎","description":"","image_url":""},{"id":7804,"title":"高松サンポート合同庁舎 北館","architect":"シーザー・ペリ+日建設計","year":2006.0,"address":"香川県高松市サンポート3-33","latitude":34.35240936279297,"longitude":134.0455322265625,"category":"庁舎","description":"","image_url":""},{"id":7805,"title":"九州大学 ウエスト1号館 理学系総合研究棟","architect":"シーザー・ペリ+山下設計+西日本技術開発","year":2015.0,"address":"福岡県福岡市西区元岡744","latitude":33.596431732177734,"longitude":130.2205352783203,"category":"大学","description":"","image_url":""},{"id":7806,"title":"前橋デザインプロジェクト グラッサ","architect":"中村竜治","year":2018.0,"address":"群馬県前橋市千代田町2-7-21 ","latitude":36.39150619506836,"longitude":139.06883239746094,"category":"レストラン","description":"","image_url":""},{"id":7807,"title":"前橋デザインプロジェクト なか又","architect":"長坂常","year":2018.0,"address":"群馬県前橋市千代田町2-7-21 ","latitude":36.39155960083008,"longitude":139.06886291503906,"category":"店舗","description":"","image_url":""},{"id":7808,"title":"新浦安TKビルディング 浦安音楽ホール","architect":"INA新建築研究所","year":2017.0,"address":"千葉県浦安市入船1-6-1","latitude":35.64868927001953,"longitude":139.9121551513672,"category":"ホール・劇場/テナントビル","description":"","image_url":""},{"id":7809,"title":"浦安市新庁舎","architect":"日建設計","year":2016.0,"address":"千葉県浦安市猫実1-1-1","latitude":35.6530876159668,"longitude":139.9020538330078,"category":"庁舎","description":"","image_url":""},{"id":7810,"title":"浦安市消防庁舎","architect":"久米設計","year":2008.0,"address":"千葉県浦安市猫実1-19-22","latitude":35.657501220703125,"longitude":139.90402221679688,"category":"警察・消防署","description":"","image_url":""},{"id":7811,"title":"千葉市中央図書館・生涯学習センター","architect":"INA新建築研究所","year":2000.0,"address":"千葉県千葉市中央区弁天3-7-7","latitude":35.618141174316406,"longitude":140.11456298828125,"category":"図書館","description":"","image_url":""},{"id":7812,"title":"千葉県庁本庁舎","architect":"松田平田設計","year":1996.0,"address":"千葉県千葉市中央区市場町1","latitude":35.60499954223633,"longitude":140.12335205078125,"category":"庁舎","description":"","image_url":""},{"id":7813,"title":"千葉裁判所合同庁舎新館","architect":"久米設計","year":2009.0,"address":"千葉県千葉市中央区中央4-11-27","latitude":35.60633850097656,"longitude":140.123046875,"category":"公共施設","description":"","image_url":""},{"id":7814,"title":"Qiball","architect":"日建設計","year":2007.0,"address":"千葉県千葉市中央区中央4-5-1","latitude":35.60744094848633,"longitude":140.12313842773438,"category":"博物館/公共施設/テナントビル","description":"","image_url":""},{"id":7815,"title":"千葉県自治会館","architect":"日建設計","year":2007.0,"address":"千葉県千葉市中央区中央4-17-8","latitude":35.60574722290039,"longitude":140.12106323242188,"category":"公共施設","description":"","image_url":""},{"id":7816,"title":"那須 無垢の音 ボタニカルガーデン 水庭 旧アートビオトープ那須","architect":"石上純也","year":2018.0,"address":"栃木県那須郡那須町高久乙道上2294-3","latitude":37.06031036376953,"longitude":139.97842407226562,"category":"公園","description":"有料（2700円）の見学ツアーにて鑑賞可能。2019年には石上純也設計のレストラン、温浴施設、坂茂設計のコテージ棟が竣工予定（坂茂設計のコテージ棟は竣工もレストランは別の設計者になった模様）","image_url":""},{"id":7817,"title":"HAUS-006 ホームコーヒーロースター","architect":"大室佑介","year":2018.0,"address":"三重県津市白山町二本木1001-800","latitude":34.670318603515625,"longitude":136.36448669433594,"category":"カフェ","description":"","image_url":""},{"id":7818,"title":"DOMO HOTEL","architect":"佐野健太","year":2018.0,"address":"東京都新宿区新宿7-27-15","latitude":35.699493408203125,"longitude":139.7080535888672,"category":"ホテル","description":"","image_url":""},{"id":7819,"title":"道の駅 猪苗代","architect":"設計室NOAH","year":2016.0,"address":"福島県耶麻郡猪苗代町堅田五百苅1","latitude":37.537593841552734,"longitude":140.1074676513672,"category":"PA・道の駅","description":"","image_url":""},{"id":7820,"title":"TYU","architect":"後藤周平","year":2017.0,"address":"静岡県磐田市中泉219-10","latitude":34.714908599853516,"longitude":137.85255432128906,"category":"バー・居酒屋","description":"","image_url":""},{"id":7821,"title":"BARN TABLE","architect":"後藤周平","year":2018.0,"address":"静岡県磐田市今之浦2-8-2","latitude":34.71745300292969,"longitude":137.86245727539062,"category":"カフェ","description":"","image_url":""},{"id":7822,"title":"レオ歯科医院","architect":"設計室NOAH","year":2015.0,"address":"福島県福島市北中川原36-4","latitude":37.7724609375,"longitude":140.4888916015625,"category":"個人医院","description":"","image_url":""},{"id":7823,"title":"アネックスひろせ","architect":"設計室NOAH","year":2014.0,"address":"福島県伊達市梁川町青葉町75","latitude":37.84785842895508,"longitude":140.60084533691406,"category":"斎場","description":"","image_url":""},{"id":7824,"title":"坂出市役所","architect":"日建設計","year":1957.0,"address":"香川県坂出市室町2-3-5","latitude":34.31637954711914,"longitude":133.86048889160156,"category":"庁舎","description":"","image_url":""},{"id":7825,"title":"古河文学館","architect":"吉田桂二","year":1998.0,"address":"茨城県古河市中央町3-10-21","latitude":36.19171905517578,"longitude":139.70193481445312,"category":"博物館","description":"","image_url":""},{"id":7826,"title":"坂井市丸岡図書館","architect":"吉田桂二","year":1983.0,"address":"福井県坂井市丸岡町霞町3-10-1","latitude":36.15321350097656,"longitude":136.2748565673828,"category":"図書館","description":"","image_url":""},{"id":7827,"title":"道の駅 若狭熊川宿","architect":"吉田桂二","year":1999.0,"address":"福井県三方上中郡若狭町熊川11号犂頭1-1","latitude":35.440635681152344,"longitude":135.90623474121094,"category":"PA・道の駅","description":"","image_url":""},{"id":7828,"title":"乗泉寺 八王子別院","architect":"谷口吉郎","year":1971.0,"address":"東京都八王子市加住町1-487","latitude":35.700660705566406,"longitude":139.32321166992188,"category":"寺院","description":"","image_url":""},{"id":7829,"title":"山形県武道館","architect":"山下寿郎","year":1967.0,"address":"山形県山形市霞城町1-2","latitude":38.25386047363281,"longitude":140.32826232910156,"category":"体育館","description":"","image_url":""},{"id":7830,"title":"米沢市営体育館","architect":"山下寿郎","year":1972.0,"address":"山形県米沢市金池3-1-62","latitude":37.92072677612305,"longitude":140.11654663085938,"category":"体育館","description":"","image_url":""},{"id":7831,"title":"佐渡グランドホテル","architect":"菊竹清訓","year":1967.0,"address":"新潟県佐渡市加茂歌代4918-1","latitude":38.082881927490234,"longitude":138.42617797851562,"category":"ホテル","description":"","image_url":""},{"id":7832,"title":"常葉大学 静岡草薙キャンパス","architect":"竹中工務店","year":2018.0,"address":"静岡県静岡市駿河区弥生町6-1","latitude":35.004638671875,"longitude":138.43753051757812,"category":"大学","description":"","image_url":""},{"id":7833,"title":"びわ湖テラス 改装","architect":"石井建築事務所","year":2016.0,"address":"滋賀県大津市木戸1547-1","latitude":35.21345520019531,"longitude":135.8955535888672,"category":"展望台","description":"","image_url":""},{"id":7834,"title":"奈良平城宮跡歴史公園 平城宮いざない館","architect":"松田平田設計","year":2018.0,"address":"奈良県奈良市二条大路南3-5-1","latitude":34.6859245300293,"longitude":135.79537963867188,"category":"博物館","description":"","image_url":""},{"id":7835,"title":"奈良平城宮跡歴史公園 観光交流施設","architect":"ニュージェック","year":2018.0,"address":"奈良県奈良市二条大路南4-6-1","latitude":34.685482025146484,"longitude":135.7930450439453,"category":"観光施設/カフェ","description":"","image_url":""},{"id":7836,"title":"つきじ宮川本店","architect":"吉村順三","year":1985.0,"address":"東京都中央区築地1-4-6","latitude":35.66963577270508,"longitude":139.77212524414062,"category":"料亭","description":"","image_url":""},{"id":7837,"title":"南魚沼市図書館","architect":"平澤光夫","year":2014.0,"address":"新潟県南魚沼市六日町101-8","latitude":37.06732940673828,"longitude":138.87705993652344,"category":"図書館","description":"","image_url":""},{"id":7838,"title":"T house","architect":"藤本壮介","year":2005.0,"address":"群馬県前橋市紅雲町2‐15‐6","latitude":36.38441848754883,"longitude":139.0640411376953,"category":"住宅/ギャラリー","description":"年に数回アート展を開催","image_url":""},{"id":7839,"title":"大阪商工信用金庫 新本店","architect":"安藤忠雄","year":2017.0,"address":"大阪府大阪市中央区本町2-2-3","latitude":34.68328094482422,"longitude":135.50613403320312,"category":"金融機関/オフィスビル","description":"","image_url":""},{"id":7840,"title":"NSG美術館 旧會津八一記念館","architect":"長谷川洋一","year":1975.0,"address":"新潟県新潟市中央区西船見町5932-561","latitude":37.92660140991211,"longitude":139.0340576171875,"category":"美術館","description":"","image_url":""},{"id":7841,"title":"ラ・コリーナ近江八幡 ガレージショップ","architect":"中谷弘志","year":2016.0,"address":"滋賀県近江八幡市北之庄町615-1","latitude":35.14888381958008,"longitude":136.0908203125,"category":"店舗","description":"","image_url":""},{"id":7842,"title":"ラ・コリーナ近江八幡 草回廊・土塔","architect":"藤森照信","year":2016.0,"address":"滋賀県近江八幡市北之庄町615-1","latitude":35.149192810058594,"longitude":136.09085083007812,"category":"公園/観光施設","description":"","image_url":""},{"id":7843,"title":"ひまわり幼稚園","architect":"新居千秋","year":1985.0,"address":"東京都品川区小山6-10-11","latitude":35.6136589050293,"longitude":139.69793701171875,"category":"幼稚園","description":"","image_url":""},{"id":7844,"title":"新津第一中学校改築","architect":"新居千秋","year":null,"address":"新潟県新潟市秋葉区新栄町4-1","latitude":37.791141510009766,"longitude":139.11949157714844,"category":"学校","description":"秋葉区の公式サイトに記述があり、作風も新居千秋だが竣工年などの情報が不明。恐らく秋葉区文化会館と同時期。ご存じの方教えてください","image_url":""},{"id":7845,"title":"ミナガワビレッジ","architect":"神本豊秋","year":2018.0,"address":"東京都渋谷区神宮前4-9-13","latitude":35.667724609375,"longitude":139.7106170654297,"category":"低層オフィス/店舗/ギャラリー","description":"築60年の集合住宅を大規模改築","image_url":""},{"id":7846,"title":"富沢小径","architect":"三浦慎","year":2017.0,"address":"東京都中央区日本橋富沢町7-5","latitude":35.68848419189453,"longitude":139.78271484375,"category":"集合住宅/オフィスビル","description":"","image_url":""},{"id":7847,"title":"拳山荘","architect":"浅利幸男","year":2018.0,"address":"東京都立川市高松町3-6","latitude":35.70417022705078,"longitude":139.41542053222656,"category":"集合住宅","description":"","image_url":""},{"id":7848,"title":"ニシオギソウ","architect":"伊藤博之","year":2018.0,"address":"東京都杉並区西荻南4-18-13","latitude":35.702552795410156,"longitude":139.6057586669922,"category":"集合住宅","description":"","image_url":""},{"id":7849,"title":"目白下落合ハウス","architect":"川辺直哉","year":2018.0,"address":"東京都新宿区下落合3-9-10","latitude":35.72016906738281,"longitude":139.699951171875,"category":"集合住宅","description":"","image_url":""},{"id":7850,"title":"千駄ヶ谷の集合住宅 ZOOM神宮前","architect":"谷内田章夫","year":2017.0,"address":"東京都渋谷区千駄ヶ谷2-28-3","latitude":35.67539978027344,"longitude":139.71075439453125,"category":"集合住宅","description":"","image_url":""}]}